Temporary header file '/tmp/I1SwxNtOWa/dump1.h' with the following content will be compiled to create GCC translation unit dump:

  // add defines
  #define __STDC_VERSION__ 201710L
#define _TIME_BITS 64
#define _FILE_OFFSET_BITS 64
#define _GXX_NULLPTR_T
#define CLUTTER_ENABLE_COMPOSITOR_API 1
#define _REGEX_NELTS(n)
#define _Atomic
#define PACKED
#ifdef __cplusplus
// C17 compat layer
#define _Alignof(type) alignof(type)
#endif
#define getaddrinfo_a(a,b,c,d)

  // add includes
  #include "/usr/include/osp/osp.h"
  #include "/usr/include/osp/ospaltinfo.h"
  #include "/usr/include/osp/ospasn1.h"
  #include "/usr/include/osp/ospasn1ids.h"
  #include "/usr/include/osp/ospaudit.h"
  #include "/usr/include/osp/ospauthcnf.h"
  #include "/usr/include/osp/ospauthind.h"
  #include "/usr/include/osp/ospauthreq.h"
  #include "/usr/include/osp/ospauthrsp.h"
  #include "/usr/include/osp/ospb64.h"
  #include "/usr/include/osp/ospbfr.h"
  #include "/usr/include/osp/ospcallid.h"
  #include "/usr/include/osp/ospcapcnf.h"
  #include "/usr/include/osp/ospcapind.h"
  #include "/usr/include/osp/ospciscoext.h"
  #include "/usr/include/osp/ospcode.h"
  #include "/usr/include/osp/ospcomm.h"
  #include "/usr/include/osp/ospconfig.h"
  #include "/usr/include/osp/ospcrypto.h"
  #include "/usr/include/osp/ospcryptowrap.h"
  #include "/usr/include/osp/ospcustomdebug.h"
  #include "/usr/include/osp/ospdatatypes.h"
  #include "/usr/include/osp/ospdebug.h"
  #include "/usr/include/osp/ospdest.h"
  #include "/usr/include/osp/osperrno.h"
  #include "/usr/include/osp/ospfail.h"
  #include "/usr/include/osp/osphttp.h"
  #include "/usr/include/osp/ospinit.h"
  #include "/usr/include/osp/osplibversion.h"
  #include "/usr/include/osp/osplist.h"
  #include "/usr/include/osp/ospmime.h"
  #include "/usr/include/osp/ospmsg.h"
  #include "/usr/include/osp/ospmsgattr.h"
  #include "/usr/include/osp/ospmsgdesc.h"
  #include "/usr/include/osp/ospmsgelem.h"
  #include "/usr/include/osp/ospmsginfo.h"
  #include "/usr/include/osp/ospmsgpart.h"
  #include "/usr/include/osp/ospmsgque.h"
  #include "/usr/include/osp/osposincl.h"
  #include "/usr/include/osp/ospossys.h"
  #include "/usr/include/osp/ospostime.h"
  #include "/usr/include/osp/osppkcs1.h"
  #include "/usr/include/osp/osppkcs7.h"
  #include "/usr/include/osp/osppkcs8.h"
  #include "/usr/include/osp/ospprovider.h"
  #include "/usr/include/osp/ospproviderapi.h"
  #include "/usr/include/osp/ospreauthreq.h"
  #include "/usr/include/osp/ospreauthrsp.h"
  #include "/usr/include/osp/ospsecurity.h"
  #include "/usr/include/osp/ospsocket.h"
  #include "/usr/include/osp/ospssl.h"
  #include "/usr/include/osp/ospsslsess.h"
  #include "/usr/include/osp/ospstatistics.h"
  #include "/usr/include/osp/ospstatus.h"
  #include "/usr/include/osp/ospstir.h"
  #include "/usr/include/osp/osptnaudit.h"
  #include "/usr/include/osp/osptnlog.h"
  #include "/usr/include/osp/osptnprobe.h"
  #include "/usr/include/osp/osptoken.h"
  #include "/usr/include/osp/osptokeninfo.h"
  #include "/usr/include/osp/osptrans.h"
  #include "/usr/include/osp/osptransapi.h"
  #include "/usr/include/osp/osptransids.h"
  #include "/usr/include/osp/ospusage.h"
  #include "/usr/include/osp/ospusagecnf.h"
  #include "/usr/include/osp/ospusageind.h"
  #include "/usr/include/osp/osputils.h"
  #include "/usr/include/osp/ospx500.h"
  #include "/usr/include/osp/ospx509.h"
  #include "/usr/include/osp/ospxml.h"
  #include "/usr/include/osp/ospxmlattr.h"
  #include "/usr/include/osp/ospxmldoc.h"
  #include "/usr/include/osp/ospxmlelem.h"
  #include "/usr/include/osp/ospxmltype.h"

  // add classes
  ASN1_ENCODING_st* tmp_add_class_0;
  BIO_sock_info_u* tmp_add_class_1;
  BIT_STRING_BITNAME_st* tmp_add_class_2;
  Netscape_certificate_sequence* tmp_add_class_3;
  Netscape_spkac_st* tmp_add_class_4;
  Netscape_spki_st* tmp_add_class_5;
  OSPSListLink* tmp_add_class_6;
  PBE2PARAM_st* tmp_add_class_7;
  PBEPARAM_st* tmp_add_class_8;
  PBKDF2PARAM_st* tmp_add_class_9;
  PKCS7_CTX_st* tmp_add_class_10;
  SCRYPT_PARAMS_st* tmp_add_class_11;
  SHA256state_st* tmp_add_class_12;
  SHA512state_st* tmp_add_class_13;
  SHAstate_st* tmp_add_class_14;
  X509_algor_st* tmp_add_class_15;
  X509_info_st* tmp_add_class_16;
  X509_val_st* tmp_add_class_17;
  _G_fpos64_t* tmp_add_class_18;
  _G_fpos_t* tmp_add_class_19;
  _IO_cookie_io_functions_t* tmp_add_class_20;
  _OSPASN1OBJECT* tmp_add_class_21;
  _OSPTASN1BUFFER* tmp_add_class_22;
  _OSPTASN1ELEMENTINFO* tmp_add_class_23;
  _OSPTASN1INTEGER* tmp_add_class_24;
  _OSPTASN1PARSERESULT* tmp_add_class_25;
  _OSPTASN1PARSERULE* tmp_add_class_26;
  _OSPTASN1UTCTIME* tmp_add_class_27;
  _OSPTBITSTRING* tmp_add_class_28;
  _OSPTCOLLECTIONINDEX* tmp_add_class_29;
  _OSPTDERBUF* tmp_add_class_30;
  _OSPTHTTP* tmp_add_class_31;
  _OSPTMIMEBODY* tmp_add_class_32;
  _OSPTMIMEFIELD* tmp_add_class_33;
  _OSPTMIMEHEADER* tmp_add_class_34;
  _OSPTMIMEMSG* tmp_add_class_35;
  _OSPTMIMEPARAM* tmp_add_class_36;
  _OSPTMIMEPART* tmp_add_class_37;
  _OSPTMSGQUEUE* tmp_add_class_38;
  _OSPTOBJECTID* tmp_add_class_39;
  _OSPTOBJID* tmp_add_class_40;
  _OSPTPRIVATEKEY* tmp_add_class_41;
  _OSPTPROVIDER* tmp_add_class_42;
  _OSPTSEC* tmp_add_class_43;
  _OSPTSSLSESSION* tmp_add_class_44;
  _OSPTSSLSESSIONID* tmp_add_class_45;
  _OSPTTRANCOLLECTION* tmp_add_class_46;
  _OSPTTRANS* tmp_add_class_47;
  _OSPTTRANSID* tmp_add_class_48;
  _OSPTTXID* tmp_add_class_49;
  addrinfo* tmp_add_class_50;
  asn1_string_st* tmp_add_class_51;
  asn1_string_table_st* tmp_add_class_52;
  asn1_type_st* tmp_add_class_53;
  buf_mem_st* tmp_add_class_54;
  char2int_union* tmp_add_class_55;
  cmsghdr* tmp_add_class_56;
  conf_method_st* tmp_add_class_57;
  conf_st* tmp_add_class_58;
  crypto_ex_data_st* tmp_add_class_59;
  crypto_threadid_st* tmp_add_class_60;
  evp_cipher_info_st* tmp_add_class_61;
  f_owner_ex* tmp_add_class_62;
  file_handle* tmp_add_class_63;
  flock64* tmp_add_class_64;
  gaicb* tmp_add_class_65;
  group_filter* tmp_add_class_66;
  group_req* tmp_add_class_67;
  group_source_req* tmp_add_class_68;
  hostent* tmp_add_class_69;
  in6_addr* tmp_add_class_70;
  in6_pktinfo* tmp_add_class_71;
  in_addr* tmp_add_class_72;
  in_pktinfo* tmp_add_class_73;
  iovec* tmp_add_class_74;
  ip6_mtuinfo* tmp_add_class_75;
  ip_mreq* tmp_add_class_76;
  ip_mreq_source* tmp_add_class_77;
  ip_mreqn* tmp_add_class_78;
  ip_msfilter* tmp_add_class_79;
  ip_opts* tmp_add_class_80;
  ipv6_mreq* tmp_add_class_81;
  lhash_st_CONF_VALUE* tmp_add_class_82;
  lhash_st_OPENSSL_CSTRING* tmp_add_class_83;
  lhash_st_OPENSSL_STRING* tmp_add_class_84;
  linger* tmp_add_class_85;
  mmsghdr* tmp_add_class_86;
  msghdr* tmp_add_class_87;
  netent* tmp_add_class_88;
  obj_name_st* tmp_add_class_89;
  osockaddr* tmp_add_class_90;
  ossl_algorithm_st* tmp_add_class_91;
  ossl_dispatch_st* tmp_add_class_92;
  ossl_item_st* tmp_add_class_93;
  ossl_param_st* tmp_add_class_94;
  pkcs7_digest_st* tmp_add_class_95;
  pkcs7_enc_content_st* tmp_add_class_96;
  pkcs7_encrypted_st* tmp_add_class_97;
  pkcs7_enveloped_st* tmp_add_class_98;
  pkcs7_issuer_and_serial_st* tmp_add_class_99;
  pkcs7_recip_info_st* tmp_add_class_100;
  pkcs7_signed_st* tmp_add_class_101;
  pkcs7_signedandenveloped_st* tmp_add_class_102;
  pkcs7_signer_info_st* tmp_add_class_103;
  pkcs7_st* tmp_add_class_104;
  private_key_st* tmp_add_class_105;
  protoent* tmp_add_class_106;
  rpcent* tmp_add_class_107;
  rsa_oaep_params_st* tmp_add_class_108;
  rsa_pss_params_st* tmp_add_class_109;
  servent* tmp_add_class_110;
  sockaddr* tmp_add_class_111;
  sockaddr_in* tmp_add_class_112;
  sockaddr_in6* tmp_add_class_113;
  sockaddr_storage* tmp_add_class_114;
  tcp_cookie_transactions* tmp_add_class_115;
  tcp_info* tmp_add_class_116;
  tcp_md5sig* tmp_add_class_117;
  tcp_repair_opt* tmp_add_class_118;
  tcp_repair_window* tmp_add_class_119;
  tcp_zerocopy_receive* tmp_add_class_120;
  tcphdr* tmp_add_class_121;
  ucontext_t* tmp_add_class_122;
  ucred* tmp_add_class_123;
  x509_trust_st* tmp_add_class_124;

The GCC parameters:
  gcc -fdump-lang-raw -fkeep-inline-functions -c -x c++ -fpermissive -w "/tmp/I1SwxNtOWa/dump1.h"

