[2024-02-21T00:50:23+00:00] apt-get install libompl-dev libflann-dev abi-compliance-checker
Reading package lists...
Building dependency tree...
Reading state information...
abi-compliance-checker is already the newest version (2.3-2).
The following packages were automatically installed and are no longer required:
  libomp-16-dev libomp5-16
Use 'apt autoremove' to remove them.
The following additional packages will be installed:
  ibverbs-providers libaec-dev libaec0 libboost-dev libboost-filesystem1.83.0
  libboost-serialization1.83.0 libboost1.83-dev libbrotli1 libccd2 libcurl4
  libcurl4-openssl-dev libedit2 libeigen3-dev libevent-core-2.1-7 libevent-dev
  libevent-extra-2.1-7 libevent-openssl-2.1-7 libevent-pthreads-2.1-7
  libfabric1 libflann1.9 libhdf5-mpi-dev libhdf5-openmpi-103-1
  libhdf5-openmpi-cpp-103-1 libhdf5-openmpi-dev libhdf5-openmpi-fortran-102
  libhdf5-openmpi-hl-100 libhdf5-openmpi-hl-cpp-100
  libhdf5-openmpi-hl-fortran-100 libhwloc-dev libhwloc-plugins libhwloc15
  libibverbs-dev libibverbs1 libjpeg-dev libjpeg62-turbo libjpeg62-turbo-dev
  libjs-jquery libjs-jquery-ui libltdl-dev libltdl7 liblz4-dev libmunge2
  libnghttp2-14 libnl-3-200 libnl-3-dev libnl-route-3-200 libnl-route-3-dev
  libnuma-dev libnuma1 libode-dev libode8 libompl16 libopenmpi-dev libopenmpi3
  libpciaccess0 libpkgconf3 libpmix-dev libpmix2 libpsl5 librdmacm1 librtmp1
  libssh2-1 libssl-dev libsz2 libx11-6 libx11-data libxau6 libxcb1 libxdmcp6
  libxext6 libxnvctrl0 mpi-default-dev ocl-icd-libopencl1 openmpi-bin
  openmpi-common openssh-client pkg-config pkgconf pkgconf-bin zlib1g-dev
Suggested packages:
  libboost-doc libboost1.83-doc libboost-atomic1.83-dev
  libboost-chrono1.83-dev libboost-container1.83-dev libboost-context1.83-dev
  libboost-contract1.83-dev libboost-coroutine1.83-dev
  libboost-date-time1.83-dev libboost-exception1.83-dev libboost-fiber1.83-dev
  libboost-filesystem1.83-dev libboost-graph-parallel1.83-dev
  libboost-graph1.83-dev libboost-iostreams1.83-dev libboost-json1.83-dev
  libboost-locale1.83-dev libboost-log1.83-dev libboost-math1.83-dev
  libboost-mpi-python1.83-dev libboost-mpi1.83-dev libboost-nowide1.83-dev
  libboost-numpy1.83-dev libboost-program-options1.83-dev
  libboost-python1.83-dev libboost-random1.83-dev libboost-regex1.83-dev
  libboost-serialization1.83-dev libboost-stacktrace1.83-dev
  libboost-system1.83-dev libboost-test1.83-dev libboost-thread1.83-dev
  libboost-timer1.83-dev libboost-type-erasure1.83-dev libboost-url1.83-dev
  libboost-wave1.83-dev libboost1.83-tools-dev libmpfrc++-dev libntl-dev
  libcurl4-doc libidn-dev libkrb5-dev libldap2-dev librtmp-dev libssh2-1-dev
  libeigen3-doc libhdf5-doc libjs-jquery-ui-docs libtool-doc openmpi-doc
  pciutils libssl-doc opencl-icd keychain libpam-ssh monkeysphere ssh-askpass
Recommended packages:
  ca-certificates javascript-common libcoarrays-openmpi-dev publicsuffix xauth
The following NEW packages will be installed:
  ibverbs-providers libaec-dev libaec0 libboost-dev libboost-filesystem1.83.0
  libboost-serialization1.83.0 libboost1.83-dev libbrotli1 libccd2 libcurl4
  libcurl4-openssl-dev libedit2 libeigen3-dev libevent-core-2.1-7 libevent-dev
  libevent-extra-2.1-7 libevent-openssl-2.1-7 libevent-pthreads-2.1-7
  libfabric1 libflann-dev libflann1.9 libhdf5-mpi-dev libhdf5-openmpi-103-1
  libhdf5-openmpi-cpp-103-1 libhdf5-openmpi-dev libhdf5-openmpi-fortran-102
  libhdf5-openmpi-hl-100 libhdf5-openmpi-hl-cpp-100
  libhdf5-openmpi-hl-fortran-100 libhwloc-dev libhwloc-plugins libhwloc15
  libibverbs-dev libibverbs1 libjpeg-dev libjpeg62-turbo libjpeg62-turbo-dev
  libjs-jquery libjs-jquery-ui libltdl-dev libltdl7 liblz4-dev libmunge2
  libnghttp2-14 libnl-3-200 libnl-3-dev libnl-route-3-200 libnl-route-3-dev
  libnuma-dev libnuma1 libode-dev libode8 libompl-dev libompl16 libopenmpi-dev
  libopenmpi3 libpciaccess0 libpkgconf3 libpmix-dev libpmix2 libpsl5
  librdmacm1 librtmp1 libssh2-1 libssl-dev libsz2 libx11-6 libx11-data libxau6
  libxcb1 libxdmcp6 libxext6 libxnvctrl0 mpi-default-dev ocl-icd-libopencl1
  openmpi-bin openmpi-common openssh-client pkg-config pkgconf pkgconf-bin
  zlib1g-dev
0 upgraded, 82 newly installed, 0 to remove and 33 not upgraded.
Need to get 39.0 MB of archives.
After this operation, 273 MB of additional disk space will be used.
Get:1 http://deb.debian.org/debian unstable/main armhf libedit2 armhf 3.1-20230828-1 [76.8 kB]
Get:2 http://deb.debian.org/debian unstable/main armhf openssh-client armhf 1:9.6p1-3 [880 kB]
Get:3 http://deb.debian.org/debian unstable/main armhf libnl-3-200 armhf 3.7.0-0.3 [51.7 kB]
Get:4 http://deb.debian.org/debian unstable/main armhf libnl-route-3-200 armhf 3.7.0-0.3 [153 kB]
Get:5 http://deb.debian.org/debian unstable/main armhf libibverbs1 armhf 48.0-1.1 [54.4 kB]
Get:6 http://deb.debian.org/debian unstable/main armhf ibverbs-providers armhf 48.0-1.1 [28.3 kB]
Get:7 http://deb.debian.org/debian unstable/main armhf libaec0 armhf 1.1.2-1 [21.4 kB]
Get:8 http://deb.debian.org/debian unstable/main armhf libsz2 armhf 1.1.2-1 [7668 B]
Get:9 http://deb.debian.org/debian unstable/main armhf libaec-dev armhf 1.1.2-1 [18.6 kB]
Get:10 http://deb.debian.org/debian unstable/main armhf libboost1.83-dev armhf 1.83.0-2+b2 [10.6 MB]
Get:11 http://deb.debian.org/debian unstable/main armhf libboost-dev armhf 1.83.0.2 [3552 B]
Get:12 http://deb.debian.org/debian unstable/main armhf libboost-filesystem1.83.0 armhf 1.83.0-2+b2 [271 kB]
Get:13 http://deb.debian.org/debian unstable/main armhf libboost-serialization1.83.0 armhf 1.83.0-2+b2 [315 kB]
Get:14 http://deb.debian.org/debian unstable/main armhf libbrotli1 armhf 1.1.0-2+b3 [284 kB]
Get:15 http://deb.debian.org/debian unstable/main armhf libccd2 armhf 2.1-2+b1 [16.5 kB]
Get:16 http://deb.debian.org/debian unstable/main armhf libnghttp2-14 armhf 1.59.0-1 [62.0 kB]
Get:17 http://deb.debian.org/debian unstable/main armhf libpsl5 armhf 0.21.2-1+b1 [57.8 kB]
Get:18 http://deb.debian.org/debian unstable/main armhf librtmp1 armhf 2.4+20151223.gitfa8646d.1-2+b2 [55.2 kB]
Get:19 http://deb.debian.org/debian unstable/main armhf libssh2-1 armhf 1.11.0-4 [197 kB]
Get:20 http://deb.debian.org/debian unstable/main armhf libcurl4 armhf 8.6.0-3 [387 kB]
Get:21 http://deb.debian.org/debian unstable/main armhf libcurl4-openssl-dev armhf 8.6.0-3 [500 kB]
Get:22 http://deb.debian.org/debian unstable/main armhf libpkgconf3 armhf 1.8.1-1+b2 [31.9 kB]
Get:23 http://deb.debian.org/debian unstable/main armhf pkgconf-bin armhf 1.8.1-1+b2 [28.9 kB]
Get:24 http://deb.debian.org/debian unstable/main armhf pkgconf armhf 1.8.1-1+b2 [26.2 kB]
Get:25 http://deb.debian.org/debian unstable/main armhf pkg-config armhf 1.8.1-1+b2 [14.0 kB]
Get:26 http://deb.debian.org/debian unstable/main armhf libeigen3-dev all 3.4.0-4 [1041 kB]
Get:27 http://deb.debian.org/debian unstable/main armhf libevent-core-2.1-7 armhf 2.1.12-stable-8 [120 kB]
Get:28 http://deb.debian.org/debian unstable/main armhf libevent-extra-2.1-7 armhf 2.1.12-stable-8 [97.5 kB]
Get:29 http://deb.debian.org/debian unstable/main armhf libevent-pthreads-2.1-7 armhf 2.1.12-stable-8 [53.2 kB]
Get:30 http://deb.debian.org/debian unstable/main armhf libevent-openssl-2.1-7 armhf 2.1.12-stable-8 [58.3 kB]
Get:31 http://deb.debian.org/debian unstable/main armhf libevent-dev armhf 2.1.12-stable-8 [290 kB]
Get:32 http://deb.debian.org/debian unstable/main armhf librdmacm1 armhf 48.0-1.1 [61.6 kB]
Get:33 http://deb.debian.org/debian unstable/main armhf libfabric1 armhf 1.17.0-3 [385 kB]
Get:34 http://deb.debian.org/debian unstable/main armhf libflann1.9 armhf 1.9.2+dfsg-2+b1 [660 kB]
Get:35 http://deb.debian.org/debian unstable/main armhf libhwloc15 armhf 2.10.0-1+b1 [133 kB]
Get:36 http://deb.debian.org/debian unstable/main armhf libmunge2 armhf 0.5.15-3 [15.8 kB]
Get:37 http://deb.debian.org/debian unstable/main armhf libpciaccess0 armhf 0.17-3 [49.0 kB]
Get:38 http://deb.debian.org/debian unstable/main armhf libxau6 armhf 1:1.0.9-1 [19.0 kB]
Get:39 http://deb.debian.org/debian unstable/main armhf libxdmcp6 armhf 1:1.1.2-3 [24.9 kB]
Get:40 http://deb.debian.org/debian unstable/main armhf libxcb1 armhf 1.15-1 [140 kB]
Get:41 http://deb.debian.org/debian unstable/main armhf libx11-data all 2:1.8.7-1 [328 kB]
Get:42 http://deb.debian.org/debian unstable/main armhf libx11-6 armhf 2:1.8.7-1 [735 kB]
Get:43 http://deb.debian.org/debian unstable/main armhf libxext6 armhf 2:1.3.4-1+b1 [47.8 kB]
Get:44 http://deb.debian.org/debian unstable/main armhf libxnvctrl0 armhf 525.147.05-1 [12.4 kB]
Get:45 http://deb.debian.org/debian unstable/main armhf ocl-icd-libopencl1 armhf 2.3.2-1 [36.8 kB]
Get:46 http://deb.debian.org/debian unstable/main armhf libhwloc-plugins armhf 2.10.0-1+b1 [16.1 kB]
Get:47 http://deb.debian.org/debian unstable/main armhf libpmix2 armhf 5.0.1-4 [544 kB]
Get:48 http://deb.debian.org/debian unstable/main armhf libopenmpi3 armhf 4.1.6-5 [1855 kB]
Get:49 http://deb.debian.org/debian unstable/main armhf libhdf5-openmpi-103-1 armhf 1.10.10+repack-3+b1 [1247 kB]
Get:50 http://deb.debian.org/debian unstable/main armhf libhdf5-openmpi-fortran-102 armhf 1.10.10+repack-3+b1 [79.5 kB]
Get:51 http://deb.debian.org/debian unstable/main armhf libhdf5-openmpi-hl-100 armhf 1.10.10+repack-3+b1 [61.0 kB]
Get:52 http://deb.debian.org/debian unstable/main armhf libhdf5-openmpi-hl-fortran-100 armhf 1.10.10+repack-3+b1 [34.7 kB]
Get:53 http://deb.debian.org/debian unstable/main armhf libhdf5-openmpi-cpp-103-1 armhf 1.10.10+repack-3+b1 [121 kB]
Get:54 http://deb.debian.org/debian unstable/main armhf libhdf5-openmpi-hl-cpp-100 armhf 1.10.10+repack-3+b1 [20.8 kB]
Get:55 http://deb.debian.org/debian unstable/main armhf zlib1g-dev armhf 1:1.3.dfsg-3+b1 [904 kB]
Get:56 http://deb.debian.org/debian unstable/main armhf libjpeg62-turbo armhf 1:2.1.5-2+b2 [143 kB]
Get:57 http://deb.debian.org/debian unstable/main armhf libjpeg62-turbo-dev armhf 1:2.1.5-2+b2 [260 kB]
Get:58 http://deb.debian.org/debian unstable/main armhf libjpeg-dev armhf 1:2.1.5-2+b2 [72.1 kB]
Get:59 http://deb.debian.org/debian unstable/main armhf libssl-dev armhf 3.1.5-1 [2152 kB]
Get:60 http://deb.debian.org/debian unstable/main armhf openmpi-common all 4.1.6-5 [168 kB]
Get:61 http://deb.debian.org/debian unstable/main armhf libnl-3-dev armhf 3.7.0-0.3 [94.3 kB]
Get:62 http://deb.debian.org/debian unstable/main armhf libnl-route-3-dev armhf 3.7.0-0.3 [180 kB]
Get:63 http://deb.debian.org/debian unstable/main armhf libibverbs-dev armhf 48.0-1.1 [197 kB]
Get:64 http://deb.debian.org/debian unstable/main armhf libnuma1 armhf 2.0.18-1 [18.5 kB]
Get:65 http://deb.debian.org/debian unstable/main armhf libnuma-dev armhf 2.0.18-1 [34.2 kB]
Get:66 http://deb.debian.org/debian unstable/main armhf libltdl7 armhf 2.4.7-7 [390 kB]
Get:67 http://deb.debian.org/debian unstable/main armhf libltdl-dev armhf 2.4.7-7 [162 kB]
Get:68 http://deb.debian.org/debian unstable/main armhf libhwloc-dev armhf 2.10.0-1+b1 [223 kB]
Get:69 http://deb.debian.org/debian unstable/main armhf libpmix-dev armhf 5.0.1-4 [3843 kB]
Get:70 http://deb.debian.org/debian unstable/main armhf libjs-jquery all 3.6.1+dfsg+~3.5.14-1 [326 kB]
Get:71 http://deb.debian.org/debian unstable/main armhf libjs-jquery-ui all 1.13.2+dfsg-1 [250 kB]
Get:72 http://deb.debian.org/debian unstable/main armhf openmpi-bin armhf 4.1.6-5 [194 kB]
Get:73 http://deb.debian.org/debian unstable/main armhf libopenmpi-dev armhf 4.1.6-5 [922 kB]
Get:74 http://deb.debian.org/debian unstable/main armhf libhdf5-openmpi-dev armhf 1.10.10+repack-3+b1 [2689 kB]
Get:75 http://deb.debian.org/debian unstable/main armhf mpi-default-dev armhf 1.15 [3152 B]
Get:76 http://deb.debian.org/debian unstable/main armhf libhdf5-mpi-dev armhf 1.10.10+repack-3+b1 [15.6 kB]
Get:77 http://deb.debian.org/debian unstable/main armhf liblz4-dev armhf 1.9.4-1+b2 [75.1 kB]
Get:78 http://deb.debian.org/debian unstable/main armhf libflann-dev armhf 1.9.2+dfsg-2+b1 [802 kB]
Get:79 http://deb.debian.org/debian unstable/main armhf libode8 armhf 2:0.16.2-1 [338 kB]
Get:80 http://deb.debian.org/debian unstable/main armhf libode-dev armhf 2:0.16.2-1 [449 kB]
Get:81 http://deb.debian.org/debian unstable/main armhf libompl16 armhf 1.5.2+ds1-1+b1 [1406 kB]
Get:82 http://deb.debian.org/debian unstable/main armhf libompl-dev armhf 1.5.2+ds1-1+b1 [237 kB]
debconf: delaying package configuration, since apt-utils is not installed
Fetched 39.0 MB in 3s (15.2 MB/s)
Selecting previously unselected package libedit2:armhf.
(Reading database ... (Reading database ... 5%(Reading database ... 10%(Reading database ... 15%(Reading database ... 20%(Reading database ... 25%(Reading database ... 30%(Reading database ... 35%(Reading database ... 40%(Reading database ... 45%(Reading database ... 50%(Reading database ... 55%(Reading database ... 60%(Reading database ... 65%(Reading database ... 70%(Reading database ... 75%(Reading database ... 80%(Reading database ... 85%(Reading database ... 90%(Reading database ... 95%(Reading database ... 100%(Reading database ... 18090 files and directories currently installed.)
Preparing to unpack .../00-libedit2_3.1-20230828-1_armhf.deb ...
Unpacking libedit2:armhf (3.1-20230828-1) ...
Selecting previously unselected package openssh-client.
Preparing to unpack .../01-openssh-client_1%3a9.6p1-3_armhf.deb ...
Unpacking openssh-client (1:9.6p1-3) ...
Selecting previously unselected package libnl-3-200:armhf.
Preparing to unpack .../02-libnl-3-200_3.7.0-0.3_armhf.deb ...
Unpacking libnl-3-200:armhf (3.7.0-0.3) ...
Selecting previously unselected package libnl-route-3-200:armhf.
Preparing to unpack .../03-libnl-route-3-200_3.7.0-0.3_armhf.deb ...
Unpacking libnl-route-3-200:armhf (3.7.0-0.3) ...
Selecting previously unselected package libibverbs1:armhf.
Preparing to unpack .../04-libibverbs1_48.0-1.1_armhf.deb ...
Unpacking libibverbs1:armhf (48.0-1.1) ...
Selecting previously unselected package ibverbs-providers:armhf.
Preparing to unpack .../05-ibverbs-providers_48.0-1.1_armhf.deb ...
Unpacking ibverbs-providers:armhf (48.0-1.1) ...
Selecting previously unselected package libaec0:armhf.
Preparing to unpack .../06-libaec0_1.1.2-1_armhf.deb ...
Unpacking libaec0:armhf (1.1.2-1) ...
Selecting previously unselected package libsz2:armhf.
Preparing to unpack .../07-libsz2_1.1.2-1_armhf.deb ...
Unpacking libsz2:armhf (1.1.2-1) ...
Selecting previously unselected package libaec-dev:armhf.
Preparing to unpack .../08-libaec-dev_1.1.2-1_armhf.deb ...
Unpacking libaec-dev:armhf (1.1.2-1) ...
Selecting previously unselected package libboost1.83-dev:armhf.
Preparing to unpack .../09-libboost1.83-dev_1.83.0-2+b2_armhf.deb ...
Unpacking libboost1.83-dev:armhf (1.83.0-2+b2) ...
Selecting previously unselected package libboost-dev:armhf.
Preparing to unpack .../10-libboost-dev_1.83.0.2_armhf.deb ...
Unpacking libboost-dev:armhf (1.83.0.2) ...
Selecting previously unselected package libboost-filesystem1.83.0:armhf.
Preparing to unpack .../11-libboost-filesystem1.83.0_1.83.0-2+b2_armhf.deb ...
Unpacking libboost-filesystem1.83.0:armhf (1.83.0-2+b2) ...
Selecting previously unselected package libboost-serialization1.83.0:armhf.
Preparing to unpack .../12-libboost-serialization1.83.0_1.83.0-2+b2_armhf.deb ...
Unpacking libboost-serialization1.83.0:armhf (1.83.0-2+b2) ...
Selecting previously unselected package libbrotli1:armhf.
Preparing to unpack .../13-libbrotli1_1.1.0-2+b3_armhf.deb ...
Unpacking libbrotli1:armhf (1.1.0-2+b3) ...
Selecting previously unselected package libccd2:armhf.
Preparing to unpack .../14-libccd2_2.1-2+b1_armhf.deb ...
Unpacking libccd2:armhf (2.1-2+b1) ...
Selecting previously unselected package libnghttp2-14:armhf.
Preparing to unpack .../15-libnghttp2-14_1.59.0-1_armhf.deb ...
Unpacking libnghttp2-14:armhf (1.59.0-1) ...
Selecting previously unselected package libpsl5:armhf.
Preparing to unpack .../16-libpsl5_0.21.2-1+b1_armhf.deb ...
Unpacking libpsl5:armhf (0.21.2-1+b1) ...
Selecting previously unselected package librtmp1:armhf.
Preparing to unpack .../17-librtmp1_2.4+20151223.gitfa8646d.1-2+b2_armhf.deb ...
Unpacking librtmp1:armhf (2.4+20151223.gitfa8646d.1-2+b2) ...
Selecting previously unselected package libssh2-1:armhf.
Preparing to unpack .../18-libssh2-1_1.11.0-4_armhf.deb ...
Unpacking libssh2-1:armhf (1.11.0-4) ...
Selecting previously unselected package libcurl4:armhf.
Preparing to unpack .../19-libcurl4_8.6.0-3_armhf.deb ...
Unpacking libcurl4:armhf (8.6.0-3) ...
Selecting previously unselected package libcurl4-openssl-dev:armhf.
Preparing to unpack .../20-libcurl4-openssl-dev_8.6.0-3_armhf.deb ...
Unpacking libcurl4-openssl-dev:armhf (8.6.0-3) ...
Selecting previously unselected package libpkgconf3:armhf.
Preparing to unpack .../21-libpkgconf3_1.8.1-1+b2_armhf.deb ...
Unpacking libpkgconf3:armhf (1.8.1-1+b2) ...
Selecting previously unselected package pkgconf-bin.
Preparing to unpack .../22-pkgconf-bin_1.8.1-1+b2_armhf.deb ...
Unpacking pkgconf-bin (1.8.1-1+b2) ...
Selecting previously unselected package pkgconf:armhf.
Preparing to unpack .../23-pkgconf_1.8.1-1+b2_armhf.deb ...
Unpacking pkgconf:armhf (1.8.1-1+b2) ...
Selecting previously unselected package pkg-config:armhf.
Preparing to unpack .../24-pkg-config_1.8.1-1+b2_armhf.deb ...
Unpacking pkg-config:armhf (1.8.1-1+b2) ...
Selecting previously unselected package libeigen3-dev.
Preparing to unpack .../25-libeigen3-dev_3.4.0-4_all.deb ...
Unpacking libeigen3-dev (3.4.0-4) ...
Selecting previously unselected package libevent-core-2.1-7:armhf.
Preparing to unpack .../26-libevent-core-2.1-7_2.1.12-stable-8_armhf.deb ...
Unpacking libevent-core-2.1-7:armhf (2.1.12-stable-8) ...
Selecting previously unselected package libevent-extra-2.1-7:armhf.
Preparing to unpack .../27-libevent-extra-2.1-7_2.1.12-stable-8_armhf.deb ...
Unpacking libevent-extra-2.1-7:armhf (2.1.12-stable-8) ...
Selecting previously unselected package libevent-pthreads-2.1-7:armhf.
Preparing to unpack .../28-libevent-pthreads-2.1-7_2.1.12-stable-8_armhf.deb ...
Unpacking libevent-pthreads-2.1-7:armhf (2.1.12-stable-8) ...
Selecting previously unselected package libevent-openssl-2.1-7:armhf.
Preparing to unpack .../29-libevent-openssl-2.1-7_2.1.12-stable-8_armhf.deb ...
Unpacking libevent-openssl-2.1-7:armhf (2.1.12-stable-8) ...
Selecting previously unselected package libevent-dev.
Preparing to unpack .../30-libevent-dev_2.1.12-stable-8_armhf.deb ...
Unpacking libevent-dev (2.1.12-stable-8) ...
Selecting previously unselected package librdmacm1:armhf.
Preparing to unpack .../31-librdmacm1_48.0-1.1_armhf.deb ...
Unpacking librdmacm1:armhf (48.0-1.1) ...
Selecting previously unselected package libfabric1:armhf.
Preparing to unpack .../32-libfabric1_1.17.0-3_armhf.deb ...
Unpacking libfabric1:armhf (1.17.0-3) ...
Selecting previously unselected package libflann1.9:armhf.
Preparing to unpack .../33-libflann1.9_1.9.2+dfsg-2+b1_armhf.deb ...
Unpacking libflann1.9:armhf (1.9.2+dfsg-2+b1) ...
Selecting previously unselected package libhwloc15:armhf.
Preparing to unpack .../34-libhwloc15_2.10.0-1+b1_armhf.deb ...
Unpacking libhwloc15:armhf (2.10.0-1+b1) ...
Selecting previously unselected package libmunge2:armhf.
Preparing to unpack .../35-libmunge2_0.5.15-3_armhf.deb ...
Unpacking libmunge2:armhf (0.5.15-3) ...
Selecting previously unselected package libpciaccess0:armhf.
Preparing to unpack .../36-libpciaccess0_0.17-3_armhf.deb ...
Unpacking libpciaccess0:armhf (0.17-3) ...
Selecting previously unselected package libxau6:armhf.
Preparing to unpack .../37-libxau6_1%3a1.0.9-1_armhf.deb ...
Unpacking libxau6:armhf (1:1.0.9-1) ...
Selecting previously unselected package libxdmcp6:armhf.
Preparing to unpack .../38-libxdmcp6_1%3a1.1.2-3_armhf.deb ...
Unpacking libxdmcp6:armhf (1:1.1.2-3) ...
Selecting previously unselected package libxcb1:armhf.
Preparing to unpack .../39-libxcb1_1.15-1_armhf.deb ...
Unpacking libxcb1:armhf (1.15-1) ...
Selecting previously unselected package libx11-data.
Preparing to unpack .../40-libx11-data_2%3a1.8.7-1_all.deb ...
Unpacking libx11-data (2:1.8.7-1) ...
Selecting previously unselected package libx11-6:armhf.
Preparing to unpack .../41-libx11-6_2%3a1.8.7-1_armhf.deb ...
Unpacking libx11-6:armhf (2:1.8.7-1) ...
Selecting previously unselected package libxext6:armhf.
Preparing to unpack .../42-libxext6_2%3a1.3.4-1+b1_armhf.deb ...
Unpacking libxext6:armhf (2:1.3.4-1+b1) ...
Selecting previously unselected package libxnvctrl0:armhf.
Preparing to unpack .../43-libxnvctrl0_525.147.05-1_armhf.deb ...
Unpacking libxnvctrl0:armhf (525.147.05-1) ...
Selecting previously unselected package ocl-icd-libopencl1:armhf.
Preparing to unpack .../44-ocl-icd-libopencl1_2.3.2-1_armhf.deb ...
Unpacking ocl-icd-libopencl1:armhf (2.3.2-1) ...
Selecting previously unselected package libhwloc-plugins:armhf.
Preparing to unpack .../45-libhwloc-plugins_2.10.0-1+b1_armhf.deb ...
Unpacking libhwloc-plugins:armhf (2.10.0-1+b1) ...
Selecting previously unselected package libpmix2:armhf.
Preparing to unpack .../46-libpmix2_5.0.1-4_armhf.deb ...
Unpacking libpmix2:armhf (5.0.1-4) ...
Selecting previously unselected package libopenmpi3:armhf.
Preparing to unpack .../47-libopenmpi3_4.1.6-5_armhf.deb ...
Unpacking libopenmpi3:armhf (4.1.6-5) ...
Selecting previously unselected package libhdf5-openmpi-103-1:armhf.
Preparing to unpack .../48-libhdf5-openmpi-103-1_1.10.10+repack-3+b1_armhf.deb ...
Unpacking libhdf5-openmpi-103-1:armhf (1.10.10+repack-3+b1) ...
Selecting previously unselected package libhdf5-openmpi-fortran-102:armhf.
Preparing to unpack .../49-libhdf5-openmpi-fortran-102_1.10.10+repack-3+b1_armhf.deb ...
Unpacking libhdf5-openmpi-fortran-102:armhf (1.10.10+repack-3+b1) ...
Selecting previously unselected package libhdf5-openmpi-hl-100:armhf.
Preparing to unpack .../50-libhdf5-openmpi-hl-100_1.10.10+repack-3+b1_armhf.deb ...
Unpacking libhdf5-openmpi-hl-100:armhf (1.10.10+repack-3+b1) ...
Selecting previously unselected package libhdf5-openmpi-hl-fortran-100:armhf.
Preparing to unpack .../51-libhdf5-openmpi-hl-fortran-100_1.10.10+repack-3+b1_armhf.deb ...
Unpacking libhdf5-openmpi-hl-fortran-100:armhf (1.10.10+repack-3+b1) ...
Selecting previously unselected package libhdf5-openmpi-cpp-103-1:armhf.
Preparing to unpack .../52-libhdf5-openmpi-cpp-103-1_1.10.10+repack-3+b1_armhf.deb ...
Unpacking libhdf5-openmpi-cpp-103-1:armhf (1.10.10+repack-3+b1) ...
Selecting previously unselected package libhdf5-openmpi-hl-cpp-100:armhf.
Preparing to unpack .../53-libhdf5-openmpi-hl-cpp-100_1.10.10+repack-3+b1_armhf.deb ...
Unpacking libhdf5-openmpi-hl-cpp-100:armhf (1.10.10+repack-3+b1) ...
Selecting previously unselected package zlib1g-dev:armhf.
Preparing to unpack .../54-zlib1g-dev_1%3a1.3.dfsg-3+b1_armhf.deb ...
Unpacking zlib1g-dev:armhf (1:1.3.dfsg-3+b1) ...
Selecting previously unselected package libjpeg62-turbo:armhf.
Preparing to unpack .../55-libjpeg62-turbo_1%3a2.1.5-2+b2_armhf.deb ...
Unpacking libjpeg62-turbo:armhf (1:2.1.5-2+b2) ...
Selecting previously unselected package libjpeg62-turbo-dev:armhf.
Preparing to unpack .../56-libjpeg62-turbo-dev_1%3a2.1.5-2+b2_armhf.deb ...
Unpacking libjpeg62-turbo-dev:armhf (1:2.1.5-2+b2) ...
Selecting previously unselected package libjpeg-dev:armhf.
Preparing to unpack .../57-libjpeg-dev_1%3a2.1.5-2+b2_armhf.deb ...
Unpacking libjpeg-dev:armhf (1:2.1.5-2+b2) ...
Selecting previously unselected package libssl-dev:armhf.
Preparing to unpack .../58-libssl-dev_3.1.5-1_armhf.deb ...
Unpacking libssl-dev:armhf (3.1.5-1) ...
Selecting previously unselected package openmpi-common.
Preparing to unpack .../59-openmpi-common_4.1.6-5_all.deb ...
Unpacking openmpi-common (4.1.6-5) ...
Selecting previously unselected package libnl-3-dev:armhf.
Preparing to unpack .../60-libnl-3-dev_3.7.0-0.3_armhf.deb ...
Unpacking libnl-3-dev:armhf (3.7.0-0.3) ...
Selecting previously unselected package libnl-route-3-dev:armhf.
Preparing to unpack .../61-libnl-route-3-dev_3.7.0-0.3_armhf.deb ...
Unpacking libnl-route-3-dev:armhf (3.7.0-0.3) ...
Selecting previously unselected package libibverbs-dev:armhf.
Preparing to unpack .../62-libibverbs-dev_48.0-1.1_armhf.deb ...
Unpacking libibverbs-dev:armhf (48.0-1.1) ...
Selecting previously unselected package libnuma1:armhf.
Preparing to unpack .../63-libnuma1_2.0.18-1_armhf.deb ...
Unpacking libnuma1:armhf (2.0.18-1) ...
Selecting previously unselected package libnuma-dev:armhf.
Preparing to unpack .../64-libnuma-dev_2.0.18-1_armhf.deb ...
Unpacking libnuma-dev:armhf (2.0.18-1) ...
Selecting previously unselected package libltdl7:armhf.
Preparing to unpack .../65-libltdl7_2.4.7-7_armhf.deb ...
Unpacking libltdl7:armhf (2.4.7-7) ...
Selecting previously unselected package libltdl-dev:armhf.
Preparing to unpack .../66-libltdl-dev_2.4.7-7_armhf.deb ...
Unpacking libltdl-dev:armhf (2.4.7-7) ...
Selecting previously unselected package libhwloc-dev:armhf.
Preparing to unpack .../67-libhwloc-dev_2.10.0-1+b1_armhf.deb ...
Unpacking libhwloc-dev:armhf (2.10.0-1+b1) ...
Selecting previously unselected package libpmix-dev:armhf.
Preparing to unpack .../68-libpmix-dev_5.0.1-4_armhf.deb ...
Unpacking libpmix-dev:armhf (5.0.1-4) ...
Selecting previously unselected package libjs-jquery.
Preparing to unpack .../69-libjs-jquery_3.6.1+dfsg+~3.5.14-1_all.deb ...
Unpacking libjs-jquery (3.6.1+dfsg+~3.5.14-1) ...
Selecting previously unselected package libjs-jquery-ui.
Preparing to unpack .../70-libjs-jquery-ui_1.13.2+dfsg-1_all.deb ...
Unpacking libjs-jquery-ui (1.13.2+dfsg-1) ...
Selecting previously unselected package openmpi-bin.
Preparing to unpack .../71-openmpi-bin_4.1.6-5_armhf.deb ...
Unpacking openmpi-bin (4.1.6-5) ...
Selecting previously unselected package libopenmpi-dev:armhf.
Preparing to unpack .../72-libopenmpi-dev_4.1.6-5_armhf.deb ...
Unpacking libopenmpi-dev:armhf (4.1.6-5) ...
Selecting previously unselected package libhdf5-openmpi-dev.
Preparing to unpack .../73-libhdf5-openmpi-dev_1.10.10+repack-3+b1_armhf.deb ...
Unpacking libhdf5-openmpi-dev (1.10.10+repack-3+b1) ...
Selecting previously unselected package mpi-default-dev.
Preparing to unpack .../74-mpi-default-dev_1.15_armhf.deb ...
Unpacking mpi-default-dev (1.15) ...
Selecting previously unselected package libhdf5-mpi-dev.
Preparing to unpack .../75-libhdf5-mpi-dev_1.10.10+repack-3+b1_armhf.deb ...
Unpacking libhdf5-mpi-dev (1.10.10+repack-3+b1) ...
Selecting previously unselected package liblz4-dev:armhf.
Preparing to unpack .../76-liblz4-dev_1.9.4-1+b2_armhf.deb ...
Unpacking liblz4-dev:armhf (1.9.4-1+b2) ...
Selecting previously unselected package libflann-dev:armhf.
Preparing to unpack .../77-libflann-dev_1.9.2+dfsg-2+b1_armhf.deb ...
Unpacking libflann-dev:armhf (1.9.2+dfsg-2+b1) ...
Selecting previously unselected package libode8.
Preparing to unpack .../78-libode8_2%3a0.16.2-1_armhf.deb ...
Unpacking libode8 (2:0.16.2-1) ...
Selecting previously unselected package libode-dev.
Preparing to unpack .../79-libode-dev_2%3a0.16.2-1_armhf.deb ...
Unpacking libode-dev (2:0.16.2-1) ...
Selecting previously unselected package libompl16:armhf.
Preparing to unpack .../80-libompl16_1.5.2+ds1-1+b1_armhf.deb ...
Unpacking libompl16:armhf (1.5.2+ds1-1+b1) ...
Selecting previously unselected package libompl-dev.
Preparing to unpack .../81-libompl-dev_1.5.2+ds1-1+b1_armhf.deb ...
Unpacking libompl-dev (1.5.2+ds1-1+b1) ...
Setting up libpciaccess0:armhf (0.17-3) ...
Setting up libxau6:armhf (1:1.0.9-1) ...
Setting up libxdmcp6:armhf (1:1.1.2-3) ...
Setting up libboost1.83-dev:armhf (1.83.0-2+b2) ...
Setting up libpsl5:armhf (0.21.2-1+b1) ...
Setting up libxcb1:armhf (1.15-1) ...
Setting up libbrotli1:armhf (1.1.0-2+b3) ...
Setting up libedit2:armhf (3.1-20230828-1) ...
Setting up libnghttp2-14:armhf (1.59.0-1) ...
Setting up libboost-filesystem1.83.0:armhf (1.83.0-2+b2) ...
Setting up libccd2:armhf (2.1-2+b1) ...
Setting up libaec0:armhf (1.1.2-1) ...
Setting up libboost-serialization1.83.0:armhf (1.83.0-2+b2) ...
Setting up libpkgconf3:armhf (1.8.1-1+b2) ...
Setting up libmunge2:armhf (0.5.15-3) ...
Setting up libjpeg62-turbo:armhf (1:2.1.5-2+b2) ...
Setting up libx11-data (2:1.8.7-1) ...
Setting up libjpeg62-turbo-dev:armhf (1:2.1.5-2+b2) ...
Setting up librtmp1:armhf (2.4+20151223.gitfa8646d.1-2+b2) ...
Setting up libode8 (2:0.16.2-1) ...
Setting up libssl-dev:armhf (3.1.5-1) ...
Setting up libhwloc15:armhf (2.10.0-1+b1) ...
Setting up libevent-core-2.1-7:armhf (2.1.12-stable-8) ...
Setting up libflann1.9:armhf (1.9.2+dfsg-2+b1) ...
Setting up liblz4-dev:armhf (1.9.4-1+b2) ...
Setting up pkgconf-bin (1.8.1-1+b2) ...
Setting up libltdl7:armhf (2.4.7-7) ...
Setting up zlib1g-dev:armhf (1:1.3.dfsg-3+b1) ...
Setting up libnuma1:armhf (2.0.18-1) ...
Setting up ocl-icd-libopencl1:armhf (2.3.2-1) ...
Setting up libnl-3-200:armhf (3.7.0-0.3) ...
Setting up openmpi-common (4.1.6-5) ...
Setting up libx11-6:armhf (2:1.8.7-1) ...
Setting up libssh2-1:armhf (1.11.0-4) ...
Setting up libboost-dev:armhf (1.83.0.2) ...
Setting up libjs-jquery (3.6.1+dfsg+~3.5.14-1) ...
Setting up libsz2:armhf (1.1.2-1) ...
Setting up libevent-pthreads-2.1-7:armhf (2.1.12-stable-8) ...
Setting up libevent-extra-2.1-7:armhf (2.1.12-stable-8) ...
Setting up libompl16:armhf (1.5.2+ds1-1+b1) ...
Setting up openssh-client (1:9.6p1-3) ...
Setting up libode-dev (2:0.16.2-1) ...
Setting up libaec-dev:armhf (1.1.2-1) ...
Setting up libjpeg-dev:armhf (1:2.1.5-2+b2) ...
Setting up libxext6:armhf (2:1.3.4-1+b1) ...
Setting up libevent-openssl-2.1-7:armhf (2.1.12-stable-8) ...
Setting up pkgconf:armhf (1.8.1-1+b2) ...
Setting up libnuma-dev:armhf (2.0.18-1) ...
Setting up libnl-route-3-200:armhf (3.7.0-0.3) ...
Setting up libxnvctrl0:armhf (525.147.05-1) ...
Setting up libltdl-dev:armhf (2.4.7-7) ...
Setting up libjs-jquery-ui (1.13.2+dfsg-1) ...
Setting up libevent-dev (2.1.12-stable-8) ...
Setting up libeigen3-dev (3.4.0-4) ...
Setting up libompl-dev (1.5.2+ds1-1+b1) ...
Setting up pkg-config:armhf (1.8.1-1+b2) ...
Setting up libnl-3-dev:armhf (3.7.0-0.3) ...
Setting up libcurl4:armhf (8.6.0-3) ...
Setting up libhwloc-dev:armhf (2.10.0-1+b1) ...
Setting up libibverbs1:armhf (48.0-1.1) ...
Setting up ibverbs-providers:armhf (48.0-1.1) ...
Setting up libhwloc-plugins:armhf (2.10.0-1+b1) ...
Setting up libnl-route-3-dev:armhf (3.7.0-0.3) ...
Setting up libcurl4-openssl-dev:armhf (8.6.0-3) ...
Setting up librdmacm1:armhf (48.0-1.1) ...
Setting up libpmix2:armhf (5.0.1-4) ...
Setting up libibverbs-dev:armhf (48.0-1.1) ...
Setting up libpmix-dev:armhf (5.0.1-4) ...
Setting up libfabric1:armhf (1.17.0-3) ...
Setting up libopenmpi3:armhf (4.1.6-5) ...
Setting up openmpi-bin (4.1.6-5) ...
update-alternatives: using /usr/bin/mpirun.openmpi to provide /usr/bin/mpirun (mpirun) in auto mode
update-alternatives: using /usr/bin/mpicc.openmpi to provide /usr/bin/mpicc (mpi) in auto mode
Setting up libhdf5-openmpi-103-1:armhf (1.10.10+repack-3+b1) ...
Setting up libhdf5-openmpi-fortran-102:armhf (1.10.10+repack-3+b1) ...
Setting up libhdf5-openmpi-hl-100:armhf (1.10.10+repack-3+b1) ...
Setting up libopenmpi-dev:armhf (4.1.6-5) ...
update-alternatives: using /usr/lib/arm-linux-gnueabihf/openmpi/include to provide /usr/include/arm-linux-gnueabihf/mpi (mpi-arm-linux-gnueabihf) in auto mode
Setting up libhdf5-openmpi-cpp-103-1:armhf (1.10.10+repack-3+b1) ...
Setting up libhdf5-openmpi-hl-cpp-100:armhf (1.10.10+repack-3+b1) ...
Setting up libhdf5-openmpi-hl-fortran-100:armhf (1.10.10+repack-3+b1) ...
Setting up mpi-default-dev (1.15) ...
Setting up libhdf5-openmpi-dev (1.10.10+repack-3+b1) ...
update-alternatives: using /usr/bin/h5pcc.openmpi to provide /usr/bin/h5pcc (h5pcc) in auto mode
update-alternatives: using /usr/lib/arm-linux-gnueabihf/pkgconfig/hdf5-openmpi.pc to provide /usr/lib/arm-linux-gnueabihf/pkgconfig/hdf5.pc (hdf5.pc) in auto mode
update-alternatives: updating alternative /usr/bin/mpicc.openmpi because link group mpi has changed slave links
update-alternatives: using /usr/lib/arm-linux-gnueabihf/pkgconfig/hdf5-mpi.pc to provide /usr/lib/arm-linux-gnueabihf/pkgconfig/hdf5.pc (hdf5.pc) in auto mode
Setting up libhdf5-mpi-dev (1.10.10+repack-3+b1) ...
Setting up libflann-dev:armhf (1.9.2+dfsg-2+b1) ...
Processing triggers for libc-bin (2.37-15) ...
Reading package lists...
Building dependency tree...
Reading state information...
The following packages will be REMOVED:
  libomp-16-dev* libomp5-16*
0 upgraded, 0 newly installed, 2 to remove and 33 not upgraded.
After this operation, 2095 kB disk space will be freed.
(Reading database ... (Reading database ... 5%(Reading database ... 10%(Reading database ... 15%(Reading database ... 20%(Reading database ... 25%(Reading database ... 30%(Reading database ... 35%(Reading database ... 40%(Reading database ... 45%(Reading database ... 50%(Reading database ... 55%(Reading database ... 60%(Reading database ... 65%(Reading database ... 70%(Reading database ... 75%(Reading database ... 80%(Reading database ... 85%(Reading database ... 90%(Reading database ... 95%(Reading database ... 100%(Reading database ... 40204 files and directories currently installed.)
Removing libomp-16-dev (1:16.0.6-19) ...
Removing libomp5-16:armhf (1:16.0.6-19) ...
Processing triggers for libc-bin (2.37-15) ...
