[2024-01-31T17:19:02+00:00] apt-get install giza-dev abi-compliance-checker
Reading package lists...
Building dependency tree...
Reading state information...
abi-compliance-checker is already the newest version (2.3-2).
The following packages were automatically installed and are no longer required:
  fontconfig giblib-dev giblib1 gir1.2-freedesktop gir1.2-gdkpixbuf-2.0
  gir1.2-glib-2.0 gir1.2-rsvg-2.0 libaom-dev libaom3 libavahi-client3
  libavahi-common-data libavahi-common3 libblkid-dev libbrotli-dev libbz2-dev
  libcairo-gobject2 libcairo-script-interpreter2 libcairo2-dev libcups2
  libdatrie1 libdav1d-dev libdav1d7 libde265-0 libde265-dev libdeflate-dev
  libdeflate0 libffi-dev libfontconfig-dev libfreetype-dev libfribidi0
  libgdk-pixbuf-2.0-0 libgdk-pixbuf-2.0-dev libgdk-pixbuf2.0-bin
  libgdk-pixbuf2.0-common libgif-dev libgif7 libglib2.0-bin libglib2.0-data
  libglib2.0-dev libglib2.0-dev-bin libgraphite2-3 libgs-common libgs10
  libgs10-common libharfbuzz0b libheif-dev libheif-plugin-dav1d
  libheif-plugin-libde265 libheif1 libhwy-dev libhwy1 libice-dev libice6
  libid3tag0 libid3tag0-dev libidn12 libijs-0.35 libimlib2 libimlib2-dev
  libjbig-dev libjbig0 libjbig2dec0 libjpeg-dev libjpeg62-turbo
  libjpeg62-turbo-dev libjxl-dev libjxl0.7 liblcms2-2 liblcms2-dev liblerc-dev
  liblerc4 liblzma-dev liblzo2-2 libmount-dev libopenjp2-7 libopenjp2-7-dev
  libpango-1.0-0 libpangocairo-1.0-0 libpangoft2-1.0-0 libpaper1 libpcre2-16-0
  libpcre2-32-0 libpcre2-dev libpcre2-posix3 libpixman-1-dev libpkgconf3
  libpng-dev libpthread-stubs0-dev librsvg2-2 librsvg2-common librsvg2-dev
  libselinux1-dev libsepol-dev libsharpyuv-dev libsharpyuv0 libsm-dev libsm6
  libspectre-dev libspectre1 libthai-data libthai0 libtiff-dev libtiff6
  libtiffxx6 libwebp-dev libwebp7 libwebpdecoder3 libwebpdemux2 libwebpmux3
  libx11-dev libx11-xcb1 libx265-199 libx265-dev libxau-dev libxcb-render0-dev
  libxcb-shm0-dev libxcb1-dev libxdmcp-dev libxext-dev libxrender-dev libxt6
  libzstd-dev pkg-config pkgconf pkgconf-bin poppler-data python3-packaging
  shared-mime-info ucf uuid-dev x11proto-core-dev x11proto-dev
  xorg-sgml-doctools xtrans-dev
Use 'apt autoremove' to remove them.
The following additional packages will be installed:
  libcpgplot0 libgiza0 libpgplot0
The following NEW packages will be installed:
  giza-dev libcpgplot0 libgiza0 libpgplot0
0 upgraded, 4 newly installed, 0 to remove and 53 not upgraded.
Need to get 360 kB of archives.
After this operation, 927 kB of additional disk space will be used.
Get:1 http://deb.debian.org/debian unstable/main armhf libgiza0 armhf 1.4.1-1 [110 kB]
Get:2 http://deb.debian.org/debian unstable/main armhf libcpgplot0 armhf 1.4.1-1 [45.1 kB]
Get:3 http://deb.debian.org/debian unstable/main armhf libpgplot0 armhf 1.4.1-1 [52.8 kB]
Get:4 http://deb.debian.org/debian unstable/main armhf giza-dev armhf 1.4.1-1 [152 kB]
debconf: delaying package configuration, since apt-utils is not installed
Fetched 360 kB in 0s (2118 kB/s)
Selecting previously unselected package libgiza0:armhf.
(Reading database ... (Reading database ... 5%(Reading database ... 10%(Reading database ... 15%(Reading database ... 20%(Reading database ... 25%(Reading database ... 30%(Reading database ... 35%(Reading database ... 40%(Reading database ... 45%(Reading database ... 50%(Reading database ... 55%(Reading database ... 60%(Reading database ... 65%(Reading database ... 70%(Reading database ... 75%(Reading database ... 80%(Reading database ... 85%(Reading database ... 90%(Reading database ... 95%(Reading database ... 100%(Reading database ... 24529 files and directories currently installed.)
Preparing to unpack .../libgiza0_1.4.1-1_armhf.deb ...
Unpacking libgiza0:armhf (1.4.1-1) ...
Selecting previously unselected package libcpgplot0:armhf.
Preparing to unpack .../libcpgplot0_1.4.1-1_armhf.deb ...
Unpacking libcpgplot0:armhf (1.4.1-1) ...
Selecting previously unselected package libpgplot0:armhf.
Preparing to unpack .../libpgplot0_1.4.1-1_armhf.deb ...
Unpacking libpgplot0:armhf (1.4.1-1) ...
Selecting previously unselected package giza-dev:armhf.
Preparing to unpack .../giza-dev_1.4.1-1_armhf.deb ...
Unpacking giza-dev:armhf (1.4.1-1) ...
Setting up libgiza0:armhf (1.4.1-1) ...
Setting up libpgplot0:armhf (1.4.1-1) ...
Setting up libcpgplot0:armhf (1.4.1-1) ...
Setting up giza-dev:armhf (1.4.1-1) ...
Processing triggers for libc-bin (2.37-13) ...
Reading package lists...
Building dependency tree...
Reading state information...
The following packages will be REMOVED:
  fontconfig* giblib-dev* giblib1* gir1.2-freedesktop* gir1.2-gdkpixbuf-2.0*
  gir1.2-glib-2.0* gir1.2-rsvg-2.0* libaom-dev* libaom3* libavahi-client3*
  libavahi-common-data* libavahi-common3* libblkid-dev* libbrotli-dev*
  libbz2-dev* libcairo-gobject2* libcairo-script-interpreter2* libcairo2-dev*
  libcups2* libdatrie1* libdav1d-dev* libdav1d7* libde265-0* libde265-dev*
  libdeflate-dev* libdeflate0* libffi-dev* libfontconfig-dev* libfreetype-dev*
  libfribidi0* libgdk-pixbuf-2.0-0* libgdk-pixbuf-2.0-dev*
  libgdk-pixbuf2.0-bin* libgdk-pixbuf2.0-common* libgif-dev* libgif7*
  libglib2.0-bin* libglib2.0-data* libglib2.0-dev* libglib2.0-dev-bin*
  libgraphite2-3* libgs-common* libgs10* libgs10-common* libharfbuzz0b*
  libheif-dev* libheif-plugin-dav1d* libheif-plugin-libde265* libheif1*
  libhwy-dev* libhwy1* libice-dev* libice6* libid3tag0* libid3tag0-dev*
  libidn12* libijs-0.35* libimlib2* libimlib2-dev* libjbig-dev* libjbig0*
  libjbig2dec0* libjpeg-dev* libjpeg62-turbo* libjpeg62-turbo-dev* libjxl-dev*
  libjxl0.7* liblcms2-2* liblcms2-dev* liblerc-dev* liblerc4* liblzma-dev*
  liblzo2-2* libmount-dev* libopenjp2-7* libopenjp2-7-dev* libpango-1.0-0*
  libpangocairo-1.0-0* libpangoft2-1.0-0* libpaper1* libpcre2-16-0*
  libpcre2-32-0* libpcre2-dev* libpcre2-posix3* libpixman-1-dev* libpkgconf3*
  libpng-dev* libpthread-stubs0-dev* librsvg2-2* librsvg2-common*
  librsvg2-dev* libselinux1-dev* libsepol-dev* libsharpyuv-dev* libsharpyuv0*
  libsm-dev* libsm6* libspectre-dev* libspectre1* libthai-data* libthai0*
  libtiff-dev* libtiff6* libtiffxx6* libwebp-dev* libwebp7* libwebpdecoder3*
  libwebpdemux2* libwebpmux3* libx11-dev* libx11-xcb1* libx265-199*
  libx265-dev* libxau-dev* libxcb-render0-dev* libxcb-shm0-dev* libxcb1-dev*
  libxdmcp-dev* libxext-dev* libxrender-dev* libxt6* libzstd-dev* pkg-config*
  pkgconf* pkgconf-bin* poppler-data* python3-packaging* shared-mime-info*
  ucf* uuid-dev* x11proto-core-dev* x11proto-dev* xorg-sgml-doctools*
  xtrans-dev*
0 upgraded, 0 newly installed, 134 to remove and 53 not upgraded.
After this operation, 135 MB disk space will be freed.
(Reading database ... (Reading database ... 5%(Reading database ... 10%(Reading database ... 15%(Reading database ... 20%(Reading database ... 25%(Reading database ... 30%(Reading database ... 35%(Reading database ... 40%(Reading database ... 45%(Reading database ... 50%(Reading database ... 55%(Reading database ... 60%(Reading database ... 65%(Reading database ... 70%(Reading database ... 75%(Reading database ... 80%(Reading database ... 85%(Reading database ... 90%(Reading database ... 95%(Reading database ... 100%(Reading database ... 24565 files and directories currently installed.)
Removing giblib-dev (1.2.4-13) ...
Removing libimlib2-dev (1.12.1-1) ...
Removing librsvg2-dev:armhf (2.54.7+dfsg-2) ...
Removing librsvg2-common:armhf (2.54.7+dfsg-2) ...
Removing giblib1:armhf (1.2.4-13) ...
Removing gir1.2-rsvg-2.0:armhf (2.54.7+dfsg-2) ...
Removing gir1.2-freedesktop:armhf (1.78.1-12) ...
Removing libgdk-pixbuf-2.0-dev:armhf (2.42.10+dfsg-3) ...
Removing gir1.2-gdkpixbuf-2.0:armhf (2.42.10+dfsg-3) ...
Removing gir1.2-glib-2.0:armhf (1.78.1-12) ...
Removing libheif-dev:armhf (1.17.6-1) ...
Removing libaom-dev:armhf (3.8.1-1) ...
Removing libaom3:armhf (3.8.1-1) ...
Removing libspectre-dev:armhf (0.2.12-1) ...
Removing libimlib2:armhf (1.12.1-1) ...
Removing libspectre1:armhf (0.2.12-1) ...
Removing libgs10:armhf (10.02.1~dfsg-3) ...
Removing libcups2:armhf (2.4.7-1+b1) ...
Removing libavahi-client3:armhf (0.8-13+b1) ...
Removing libavahi-common3:armhf (0.8-13+b1) ...
Removing libavahi-common-data:armhf (0.8-13+b1) ...
Removing libcairo2-dev:armhf (1.18.0-1+b1) ...
Removing libglib2.0-dev:armhf (2.78.3-2) ...
Removing libmount-dev:armhf (2.39.3-6) ...
Removing libblkid-dev:armhf (2.39.3-6) ...
Removing libjxl-dev:armhf (0.7.0-10.2+b1) ...
Removing libfontconfig-dev:armhf (2.14.2-6+b1) ...
Removing libfreetype-dev:armhf (2.13.2+dfsg-1+b1) ...
Removing libbrotli-dev:armhf (1.1.0-2+b3) ...
Removing libbz2-dev:armhf (1.0.8-5+b2) ...
Removing libcairo-script-interpreter2:armhf (1.18.0-1+b1) ...
Removing libdav1d-dev:armhf (1.3.0-2+b1) ...
Removing libde265-dev:armhf (1.0.15-1) ...
Removing libtiff-dev:armhf (4.5.1+git230720-4) ...
Removing libdeflate-dev:armhf (1.18-1) ...
Removing libtiffxx6:armhf (4.5.1+git230720-4) ...
Removing libgdk-pixbuf2.0-bin (2.42.10+dfsg-3) ...
Removing libffi-dev:armhf (3.4.4-2) ...
Removing libgif-dev:armhf (5.2.1-2.5) ...
Removing libgif7:armhf (5.2.1-2.5) ...
Removing libglib2.0-bin (2.78.3-2) ...
Removing libglib2.0-data (2.78.3-2) ...
Removing libglib2.0-dev-bin (2.78.3-2) ...
Removing libgs10-common (10.02.1~dfsg-3) ...
Removing libgs-common (10.02.1~dfsg-3) ...
Removing libhwy-dev:armhf (1.0.7-8) ...
Removing libjxl0.7:armhf (0.7.0-10.2+b1) ...
Removing libhwy1:armhf (1.0.7-8) ...
Removing libsm-dev:armhf (2:1.2.3-1) ...
Removing libice-dev:armhf (2:1.0.10-1) ...
Removing libxt6:armhf (1:1.2.1-1.1) ...
Removing libsm6:armhf (2:1.2.3-1) ...
Removing libice6:armhf (2:1.0.10-1) ...
Removing libid3tag0-dev (0.15.1b-14) ...
Removing libid3tag0:armhf (0.15.1b-14) ...
Removing libidn12:armhf (1.42-1) ...
Removing libijs-0.35:armhf (0.35-15.1) ...
Removing libjbig-dev:armhf (2.1-6.1) ...
Removing libjbig2dec0:armhf (0.20-1) ...
Removing libjpeg-dev:armhf (1:2.1.5-2+b2) ...
Removing libjpeg62-turbo-dev:armhf (1:2.1.5-2+b2) ...
Removing liblcms2-dev:armhf (2.14-2) ...
Removing liblcms2-2:armhf (2.14-2) ...
Removing liblerc-dev:armhf (4.0.0+ds-4) ...
Removing liblzma-dev:armhf (5.4.5-0.3) ...
Removing liblzo2-2:armhf (2.10-2) ...
Removing libopenjp2-7-dev:armhf (2.5.0-2+b2) ...
Removing libopenjp2-7:armhf (2.5.0-2+b2) ...
Removing libpaper1:armhf (1.1.29) ...
Removing libselinux1-dev:armhf (3.5-2) ...
Removing libpcre2-dev:armhf (10.42-4) ...
Removing libpcre2-16-0:armhf (10.42-4) ...
Removing libpcre2-32-0:armhf (10.42-4) ...
Removing libpcre2-posix3:armhf (10.42-4) ...
Removing libpixman-1-dev:armhf (0.42.2-1) ...
Removing pkg-config:armhf (1.8.1-1+b2) ...
Removing pkgconf:armhf (1.8.1-1+b2) ...
Removing pkgconf-bin (1.8.1-1+b2) ...
Removing libpkgconf3:armhf (1.8.1-1+b2) ...
Removing libpng-dev:armhf (1.6.42-1) ...
Removing libxcb-shm0-dev:armhf (1.15-1) ...
Removing libxcb-render0-dev:armhf (1.15-1) ...
Removing libsepol-dev:armhf (3.5-2) ...
Removing libwebp-dev:armhf (1.3.2-0.3) ...
Removing libsharpyuv-dev:armhf (1.3.2-0.3) ...
Removing libwebpmux3:armhf (1.3.2-0.3) ...
Removing libwebpdemux2:armhf (1.3.2-0.3) ...
Removing libwebpdecoder3:armhf (1.3.2-0.3) ...
Removing libxrender-dev:armhf (1:0.9.10-1.1) ...
Removing libxext-dev:armhf (2:1.3.4-1+b1) ...
Removing libx11-dev:armhf (2:1.8.7-1) ...
Removing libx11-xcb1:armhf (2:1.8.7-1) ...
Removing libx265-dev:armhf (3.5-2+b1) ...
Removing libx265-199:armhf (3.5-2+b1) ...
Removing libzstd-dev:armhf (1.5.5+dfsg2-2) ...
Removing poppler-data (0.4.12-1) ...
Removing python3-packaging (23.2-1) ...
Removing ucf (3.0043+nmu1) ...
Removing uuid-dev:armhf (2.39.3-6) ...
Removing x11proto-core-dev (2023.2-1) ...
Removing xtrans-dev (1.4.0-1) ...
Removing librsvg2-2:armhf (2.54.7+dfsg-2) ...
Removing libpangocairo-1.0-0:armhf (1.51.0+ds-4) ...
Removing libpangoft2-1.0-0:armhf (1.51.0+ds-4) ...
Removing libpango-1.0-0:armhf (1.51.0+ds-4) ...
Removing fontconfig (2.14.2-6+b1) ...
Removing libcairo-gobject2:armhf (1.18.0-1+b1) ...
Removing libthai0:armhf (0.1.29-2) ...
Removing libdatrie1:armhf (0.2.13-3) ...
Removing libgdk-pixbuf-2.0-0:armhf (2.42.10+dfsg-3) ...
Removing libtiff6:armhf (4.5.1+git230720-4) ...
Removing libdeflate0:armhf (1.18-1) ...
Removing libfribidi0:armhf (1.0.13-3+b1) ...
Removing libgdk-pixbuf2.0-common (2.42.10+dfsg-3) ...
Removing libharfbuzz0b:armhf (8.3.0-2) ...
Removing libgraphite2-3:armhf (1.3.14-2) ...
Removing libjbig0:armhf (2.1-6.1) ...
Removing libjpeg62-turbo:armhf (1:2.1.5-2+b2) ...
Removing liblerc4:armhf (4.0.0+ds-4) ...
Removing libxcb1-dev:armhf (1.15-1) ...
Removing libpthread-stubs0-dev:armhf (0.4-1) ...
Removing libwebp7:armhf (1.3.2-0.3) ...
Removing libthai-data (0.1.29-2) ...
Removing libxau-dev:armhf (1:1.0.9-1) ...
Removing libxdmcp-dev:armhf (1:1.1.2-3) ...
Removing shared-mime-info (2.4-1) ...
Removing x11proto-dev (2023.2-1) ...
Removing xorg-sgml-doctools (1:1.11-1.1) ...
Removing libheif1:armhf (1.17.6-1) ...
Removing libheif-plugin-libde265:armhf (1.17.6-1) ...
Removing libde265-0:armhf (1.0.15-1) ...
Removing libsharpyuv0:armhf (1.3.2-0.3) ...
Removing libheif-plugin-dav1d:armhf (1.17.6-1) ...
Removing libdav1d7:armhf (1.3.0-2+b1) ...
Processing triggers for libc-bin (2.37-13) ...
Processing triggers for sgml-base (1.31) ...
Processing triggers for libglib2.0-0:armhf (2.78.3-2) ...
No schema files found: doing nothing.
(Reading database ... (Reading database ... 5%(Reading database ... 10%(Reading database ... 15%(Reading database ... 20%(Reading database ... 25%(Reading database ... 30%(Reading database ... 35%(Reading database ... 40%(Reading database ... 45%(Reading database ... 50%(Reading database ... 55%(Reading database ... 60%(Reading database ... 65%(Reading database ... 70%(Reading database ... 75%(Reading database ... 80%(Reading database ... 85%(Reading database ... 90%(Reading database ... 95%(Reading database ... 100%(Reading database ... 20606 files and directories currently installed.)
Purging configuration files for libpaper1:armhf (1.1.29) ...
Purging configuration files for fontconfig (2.14.2-6+b1) ...
Purging configuration files for pkgconf:armhf (1.8.1-1+b2) ...
Purging configuration files for poppler-data (0.4.12-1) ...
Purging configuration files for shared-mime-info (2.4-1) ...
Purging configuration files for pkg-config:armhf (1.8.1-1+b2) ...
Purging configuration files for ucf (3.0043+nmu1) ...
Purging configuration files for libgdk-pixbuf-2.0-0:armhf (2.42.10+dfsg-3) ...
