[2024-01-07T23:30:22+00:00] apt-get install libodb-pgsql-dev libpq-dev abi-compliance-checker
Reading package lists...
Building dependency tree...
Reading state information...
abi-compliance-checker is already the newest version (2.3-2).
The following packages were automatically installed and are no longer required:
  libmariadb3 libmysqlclient-dev libmysqlclient21 libodb-mysql-2.4
  libodb-mysql-dev libzstd-dev mariadb-common mysql-common zlib1g-dev
Use 'apt autoremove' to remove them.
The following additional packages will be installed:
  libodb-pgsql-2.4 libpq5
Suggested packages:
  postgresql-doc-16
The following NEW packages will be installed:
  libodb-pgsql-2.4 libodb-pgsql-dev libpq-dev libpq5
0 upgraded, 4 newly installed, 0 to remove and 33 not upgraded.
Need to get 466 kB of archives.
After this operation, 2151 kB of additional disk space will be used.
Get:1 http://deb.debian.org/debian unstable/main armhf libpq5 armhf 16.1-1 [197 kB]
Get:2 http://deb.debian.org/debian unstable/main armhf libodb-pgsql-2.4 armhf 2.4.0-1+b3 [47.0 kB]
Get:3 http://deb.debian.org/debian unstable/main armhf libodb-pgsql-dev armhf 2.4.0-1+b3 [91.1 kB]
Get:4 http://deb.debian.org/debian unstable/main armhf libpq-dev armhf 16.1-1 [131 kB]
debconf: delaying package configuration, since apt-utils is not installed
Fetched 466 kB in 11s (44.2 kB/s)
Selecting previously unselected package libpq5:armhf.
(Reading database ... (Reading database ... 5%(Reading database ... 10%(Reading database ... 15%(Reading database ... 20%(Reading database ... 25%(Reading database ... 30%(Reading database ... 35%(Reading database ... 40%(Reading database ... 45%(Reading database ... 50%(Reading database ... 55%(Reading database ... 60%(Reading database ... 65%(Reading database ... 70%(Reading database ... 75%(Reading database ... 80%(Reading database ... 85%(Reading database ... 90%(Reading database ... 95%(Reading database ... 100%(Reading database ... 15752 files and directories currently installed.)
Preparing to unpack .../libpq5_16.1-1_armhf.deb ...
Unpacking libpq5:armhf (16.1-1) ...
Selecting previously unselected package libodb-pgsql-2.4.
Preparing to unpack .../libodb-pgsql-2.4_2.4.0-1+b3_armhf.deb ...
Unpacking libodb-pgsql-2.4 (2.4.0-1+b3) ...
Selecting previously unselected package libodb-pgsql-dev.
Preparing to unpack .../libodb-pgsql-dev_2.4.0-1+b3_armhf.deb ...
Unpacking libodb-pgsql-dev (2.4.0-1+b3) ...
Selecting previously unselected package libpq-dev.
Preparing to unpack .../libpq-dev_16.1-1_armhf.deb ...
Unpacking libpq-dev (16.1-1) ...
Setting up libpq5:armhf (16.1-1) ...
Setting up libodb-pgsql-2.4 (2.4.0-1+b3) ...
Setting up libpq-dev (16.1-1) ...
Setting up libodb-pgsql-dev (2.4.0-1+b3) ...
Processing triggers for libc-bin (2.37-13) ...
Reading package lists...
Building dependency tree...
Reading state information...
The following packages will be REMOVED:
  libmariadb3* libmysqlclient-dev* libmysqlclient21* libodb-mysql-2.4*
  libodb-mysql-dev* libzstd-dev* mariadb-common* mysql-common* zlib1g-dev*
0 upgraded, 0 newly installed, 9 to remove and 33 not upgraded.
After this operation, 18.1 MB disk space will be freed.
(Reading database ... (Reading database ... 5%(Reading database ... 10%(Reading database ... 15%(Reading database ... 20%(Reading database ... 25%(Reading database ... 30%(Reading database ... 35%(Reading database ... 40%(Reading database ... 45%(Reading database ... 50%(Reading database ... 55%(Reading database ... 60%(Reading database ... 65%(Reading database ... 70%(Reading database ... 75%(Reading database ... 80%(Reading database ... 85%(Reading database ... 90%(Reading database ... 95%(Reading database ... 100%(Reading database ... 15880 files and directories currently installed.)
Removing libodb-mysql-dev (2.4.0-5) ...
Removing libodb-mysql-2.4 (2.4.0-5) ...
Removing libmariadb3:armhf (1:10.11.6-2) ...
Removing libmysqlclient-dev (8.0.35-1) ...
Removing libmysqlclient21:armhf (8.0.35-1) ...
Removing libzstd-dev:armhf (1.5.5+dfsg2-2) ...
Removing mariadb-common (1:10.11.6-2) ...
update-alternatives: using /etc/mysql/my.cnf.fallback to provide /etc/mysql/my.cnf (my.cnf) in auto mode
Removing mysql-common (5.8+1.1.0) ...
Removing zlib1g-dev:armhf (1:1.3.dfsg-3) ...
Processing triggers for libc-bin (2.37-13) ...
(Reading database ... (Reading database ... 5%(Reading database ... 10%(Reading database ... 15%(Reading database ... 20%(Reading database ... 25%(Reading database ... 30%(Reading database ... 35%(Reading database ... 40%(Reading database ... 45%(Reading database ... 50%(Reading database ... 55%(Reading database ... 60%(Reading database ... 65%(Reading database ... 70%(Reading database ... 75%(Reading database ... 80%(Reading database ... 85%(Reading database ... 90%(Reading database ... 95%(Reading database ... 100%(Reading database ... 15687 files and directories currently installed.)
Purging configuration files for mysql-common (5.8+1.1.0) ...
Purging configuration files for mariadb-common (1:10.11.6-2) ...
