[2024-01-07T13:45:24+00:00] apt-get install libkf5incidenceeditor-dev abi-compliance-checker
Reading package lists...
Building dependency tree...
Reading state information...
abi-compliance-checker is already the newest version (2.3-2).
The following package was automatically installed and is no longer required:
  libkf5imap-dev
Use 'apt autoremove' to remove it.
The following additional packages will be installed:
  akonadi-contacts-data akonadi-mime-data kpackagetool5 libaccounts-glib0
  libaccounts-qt5-1 libasyncns0 libboost-dev libboost1.83-dev libdmtx0b
  libepoxy0 libflac12 libgrantlee-templates5 libgrantlee-textdocument5
  libgrantlee5-dev libical3 libkaccounts2 libkf5akonadi-data libkf5akonadi-dev
  libkf5akonadiagentbase5 libkf5akonadicalendar-data libkf5akonadicalendar-dev
  libkf5akonadicalendar5abi1 libkf5akonadicontact-dev libkf5akonadicontact5
  libkf5akonadicore5abi2 libkf5akonadimime-dev libkf5akonadimime5
  libkf5akonadinotes5 libkf5akonadiprivate5abi2 libkf5akonadisearchpim5
  libkf5akonadiserver-dev libkf5akonadiwidgets5abi1 libkf5akonadixml5
  libkf5attica-dev libkf5attica5 libkf5auth-dev libkf5auth-dev-bin libkf5auth5
  libkf5bluezqt-data libkf5bluezqt6 libkf5bookmarks-data libkf5bookmarks-dev
  libkf5bookmarks5 libkf5calendarcore-dev libkf5calendarcore5abi2
  libkf5calendarsupport-data libkf5calendarsupport-dev
  libkf5calendarsupport5abi1 libkf5calendarutils-dev libkf5calendarutils5
  libkf5completion-dev libkf5config-bin libkf5config-dev libkf5config-dev-bin
  libkf5configqml5 libkf5configwidgets-dev libkf5contacteditor-dev
  libkf5contacteditor5 libkf5contacts-data libkf5contacts-dev libkf5contacts5
  libkf5dbusaddons-dev libkf5declarative-data libkf5declarative5
  libkf5eventviews-data libkf5eventviews-dev libkf5eventviews5abi1
  libkf5globalaccel-bin libkf5globalaccel-data libkf5globalaccel-dev
  libkf5globalaccel5 libkf5globalaccelprivate5 libkf5grantleetheme-dev
  libkf5grantleetheme5 libkf5guiaddons-dev libkf5holidays-data libkf5holidays5
  libkf5iconthemes-dev libkf5identitymanagement-dev libkf5identitymanagement5
  libkf5identitymanagementwidgets5 libkf5incidenceeditor-data
  libkf5incidenceeditor5abi1 libkf5itemmodels-dev libkf5itemmodels5
  libkf5itemviews-dev libkf5jobwidgets-dev libkf5kcmutils-data libkf5kcmutils5
  libkf5kcmutilscore5 libkf5kio-dev libkf5kiofilewidgets5 libkf5ldap-data
  libkf5ldap5abi1 libkf5libkdepim-data libkf5libkdepim5
  libkf5mailtransport-data libkf5mailtransport-dev libkf5mailtransport5
  libkf5mailtransportakonadi5 libkf5newstuff-data libkf5newstuff5
  libkf5newstuffcore5 libkf5newstuffwidgets5 libkf5package-data libkf5package5
  libkf5pimcommon-data libkf5pimcommon5abi2 libkf5pimcommonakonadi5abi1
  libkf5pimcommonautocorrection5 libkf5pimtextedit-data libkf5pimtextedit-dev
  libkf5pimtextedit5abi2 libkf5prison-dev libkf5prison5 libkf5prisonscanner5
  libkf5purpose-bin libkf5purpose5 libkf5quickaddons5 libkf5service-dev
  libkf5solid-dev libkf5sonnet-dev libkf5sonnet-dev-bin libkf5syndication5abi1
  libkf5syntaxhighlighting-data libkf5syntaxhighlighting-dev
  libkf5syntaxhighlighting5 libkf5textwidgets-dev libkf5wallet-dev
  libkf5widgetsaddons-dev libkf5windowsystem-dev libkf5xmlgui-data
  libkf5xmlgui-dev libkf5xmlgui5 libkgantt-dev libkgantt2 libmp3lame0
  libmpg123-0 libopus0 libpulse0 libqt5keychain1 libqt5multimedia5
  libqt5qmlmodels5 libqt5qmlworkerscript5 libqt5quick5 libqt5quickcontrols2-5
  libqt5quickparticles5 libqt5quickshapes5 libqt5quicktemplates2-5
  libqt5quicktest5 libqt5quickwidgets5 libsignon-qt5-1 libsndfile1
  libvorbisenc2 libxapian30 libxcb-record0 libzxing3
  qml-module-org-kde-bluezqt qml-module-org-kde-kquickcontrolsaddons
  qml-module-org-kde-prison qml-module-org-kde-syntaxhighlighting
  qml-module-qt-labs-folderlistmodel qml-module-qt-labs-settings
  qml-module-qtqml qml-module-qtquick-controls2 qml-module-qtquick-dialogs
  qml-module-qtquick-privatewidgets qml-module-qtquick-templates2
  qml-module-qtquick-window2 qml-module-qtquick2 qt5-qmltooling-plugins
  qtdeclarative5-dev qtdeclarative5-dev-tools
Suggested packages:
  libboost-doc libboost1.83-doc libboost-atomic1.83-dev
  libboost-chrono1.83-dev libboost-container1.83-dev libboost-context1.83-dev
  libboost-contract1.83-dev libboost-coroutine1.83-dev
  libboost-date-time1.83-dev libboost-exception1.83-dev libboost-fiber1.83-dev
  libboost-filesystem1.83-dev libboost-graph-parallel1.83-dev
  libboost-graph1.83-dev libboost-iostreams1.83-dev libboost-json1.83-dev
  libboost-locale1.83-dev libboost-log1.83-dev libboost-math1.83-dev
  libboost-mpi-python1.83-dev libboost-mpi1.83-dev libboost-nowide1.83-dev
  libboost-numpy1.83-dev libboost-program-options1.83-dev
  libboost-python1.83-dev libboost-random1.83-dev libboost-regex1.83-dev
  libboost-serialization1.83-dev libboost-stacktrace1.83-dev
  libboost-system1.83-dev libboost-test1.83-dev libboost-thread1.83-dev
  libboost-timer1.83-dev libboost-type-erasure1.83-dev libboost-url1.83-dev
  libboost-wave1.83-dev libboost1.83-tools-dev libmpfrc++-dev libntl-dev
  akonadi-server kdeconnect kde-telepathy-send-file opus-tools pulseaudio
  xapian-tools
Recommended packages:
  kaccounts-providers libkf5akonadisearch-bin libkf5akonadisearch-plugins
  libkf5attica-doc libkf5auth-doc libkf5bookmarks-doc keditbookmarks
  libkf5completion-doc libkf5config-doc libkf5configwidgets-doc
  libkf5dbusaddons-doc kpackagelauncherqml libkf5globalaccel-doc
  libkf5grantleetheme-plugins libkf5guiaddons-doc libkf5iconthemes-doc
  libkf5itemmodels-doc libkf5itemviews-doc libkf5jobwidgets-doc
  libkf5kcmutils-bin libkf5kio-doc libkf5libkdepim-plugins
  kde-config-mailtransport qml-module-org-kde-newstuff
  libkf5pimtextedit-plugins libkf5prison-doc qml-module-org-kde-purpose
  libkf5service-doc libkf5solid-doc libkf5sonnet-doc
  libkf5syntaxhighlighting-doc libkf5textwidgets-doc libkf5wallet-doc
  libkf5widgetsaddons-doc libkf5windowsystem-doc libkf5xmlgui-doc
  libkf5xmlgui-bin libkgantt2-l10n gnome-keyring | kwalletmanager
The following NEW packages will be installed:
  akonadi-contacts-data akonadi-mime-data kpackagetool5 libaccounts-glib0
  libaccounts-qt5-1 libasyncns0 libboost-dev libboost1.83-dev libdmtx0b
  libepoxy0 libflac12 libgrantlee-templates5 libgrantlee-textdocument5
  libgrantlee5-dev libical3 libkaccounts2 libkf5akonadi-data libkf5akonadi-dev
  libkf5akonadiagentbase5 libkf5akonadicalendar-data libkf5akonadicalendar-dev
  libkf5akonadicalendar5abi1 libkf5akonadicontact-dev libkf5akonadicontact5
  libkf5akonadicore5abi2 libkf5akonadimime-dev libkf5akonadimime5
  libkf5akonadinotes5 libkf5akonadiprivate5abi2 libkf5akonadisearchpim5
  libkf5akonadiserver-dev libkf5akonadiwidgets5abi1 libkf5akonadixml5
  libkf5attica-dev libkf5attica5 libkf5auth-dev libkf5auth-dev-bin libkf5auth5
  libkf5bluezqt-data libkf5bluezqt6 libkf5bookmarks-data libkf5bookmarks-dev
  libkf5bookmarks5 libkf5calendarcore-dev libkf5calendarcore5abi2
  libkf5calendarsupport-data libkf5calendarsupport-dev
  libkf5calendarsupport5abi1 libkf5calendarutils-dev libkf5calendarutils5
  libkf5completion-dev libkf5config-bin libkf5config-dev libkf5config-dev-bin
  libkf5configqml5 libkf5configwidgets-dev libkf5contacteditor-dev
  libkf5contacteditor5 libkf5contacts-data libkf5contacts-dev libkf5contacts5
  libkf5dbusaddons-dev libkf5declarative-data libkf5declarative5
  libkf5eventviews-data libkf5eventviews-dev libkf5eventviews5abi1
  libkf5globalaccel-bin libkf5globalaccel-data libkf5globalaccel-dev
  libkf5globalaccel5 libkf5globalaccelprivate5 libkf5grantleetheme-dev
  libkf5grantleetheme5 libkf5guiaddons-dev libkf5holidays-data libkf5holidays5
  libkf5iconthemes-dev libkf5identitymanagement-dev libkf5identitymanagement5
  libkf5identitymanagementwidgets5 libkf5incidenceeditor-data
  libkf5incidenceeditor-dev libkf5incidenceeditor5abi1 libkf5itemmodels-dev
  libkf5itemmodels5 libkf5itemviews-dev libkf5jobwidgets-dev
  libkf5kcmutils-data libkf5kcmutils5 libkf5kcmutilscore5 libkf5kio-dev
  libkf5kiofilewidgets5 libkf5ldap-data libkf5ldap5abi1 libkf5libkdepim-data
  libkf5libkdepim5 libkf5mailtransport-data libkf5mailtransport-dev
  libkf5mailtransport5 libkf5mailtransportakonadi5 libkf5newstuff-data
  libkf5newstuff5 libkf5newstuffcore5 libkf5newstuffwidgets5
  libkf5package-data libkf5package5 libkf5pimcommon-data libkf5pimcommon5abi2
  libkf5pimcommonakonadi5abi1 libkf5pimcommonautocorrection5
  libkf5pimtextedit-data libkf5pimtextedit-dev libkf5pimtextedit5abi2
  libkf5prison-dev libkf5prison5 libkf5prisonscanner5 libkf5purpose-bin
  libkf5purpose5 libkf5quickaddons5 libkf5service-dev libkf5solid-dev
  libkf5sonnet-dev libkf5sonnet-dev-bin libkf5syndication5abi1
  libkf5syntaxhighlighting-data libkf5syntaxhighlighting-dev
  libkf5syntaxhighlighting5 libkf5textwidgets-dev libkf5wallet-dev
  libkf5widgetsaddons-dev libkf5windowsystem-dev libkf5xmlgui-data
  libkf5xmlgui-dev libkf5xmlgui5 libkgantt-dev libkgantt2 libmp3lame0
  libmpg123-0 libopus0 libpulse0 libqt5keychain1 libqt5multimedia5
  libqt5qmlmodels5 libqt5qmlworkerscript5 libqt5quick5 libqt5quickcontrols2-5
  libqt5quickparticles5 libqt5quickshapes5 libqt5quicktemplates2-5
  libqt5quicktest5 libqt5quickwidgets5 libsignon-qt5-1 libsndfile1
  libvorbisenc2 libxapian30 libxcb-record0 libzxing3
  qml-module-org-kde-bluezqt qml-module-org-kde-kquickcontrolsaddons
  qml-module-org-kde-prison qml-module-org-kde-syntaxhighlighting
  qml-module-qt-labs-folderlistmodel qml-module-qt-labs-settings
  qml-module-qtqml qml-module-qtquick-controls2 qml-module-qtquick-dialogs
  qml-module-qtquick-privatewidgets qml-module-qtquick-templates2
  qml-module-qtquick-window2 qml-module-qtquick2 qt5-qmltooling-plugins
  qtdeclarative5-dev qtdeclarative5-dev-tools
0 upgraded, 174 newly installed, 0 to remove and 30 not upgraded.
Need to get 32.9 MB of archives.
After this operation, 256 MB of additional disk space will be used.
Get:1 http://deb.debian.org/debian unstable/main armhf akonadi-contacts-data all 4:22.12.3-1 [223 kB]
Get:2 http://deb.debian.org/debian unstable/main armhf akonadi-mime-data all 4:22.12.3-1 [69.8 kB]
Get:3 http://deb.debian.org/debian unstable/main armhf libkf5package-data all 5.107.0-1 [68.6 kB]
Get:4 http://deb.debian.org/debian unstable/main armhf libkf5package5 armhf 5.107.0-1 [48.0 kB]
Get:5 http://deb.debian.org/debian unstable/main armhf kpackagetool5 armhf 5.107.0-1 [51.6 kB]
Get:6 http://deb.debian.org/debian unstable/main armhf libaccounts-glib0 armhf 1.26-1 [39.2 kB]
Get:7 http://deb.debian.org/debian unstable/main armhf libaccounts-qt5-1 armhf 1.16-2 [33.6 kB]
Get:8 http://deb.debian.org/debian unstable/main armhf libasyncns0 armhf 0.8-6+b3 [11.9 kB]
Get:9 http://deb.debian.org/debian unstable/main armhf libboost1.83-dev armhf 1.83.0-2+b2 [10.6 MB]
Get:10 http://deb.debian.org/debian unstable/main armhf libboost-dev armhf 1.83.0.2 [3552 B]
Get:11 http://deb.debian.org/debian unstable/main armhf libdmtx0b armhf 0.7.7-1 [50.5 kB]
Get:12 http://deb.debian.org/debian unstable/main armhf libepoxy0 armhf 1.5.10-1+b2 [167 kB]
Get:13 http://deb.debian.org/debian unstable/main armhf libflac12 armhf 1.4.3+ds-2+b1 [154 kB]
Get:14 http://deb.debian.org/debian unstable/main armhf libgrantlee-templates5 armhf 5.3.1-3 [213 kB]
Get:15 http://deb.debian.org/debian unstable/main armhf libgrantlee-textdocument5 armhf 5.3.1-3 [44.5 kB]
Get:16 http://deb.debian.org/debian unstable/main armhf libgrantlee5-dev armhf 5.3.1-3 [41.1 kB]
Get:17 http://deb.debian.org/debian unstable/main armhf libical3 armhf 3.0.17-1 [239 kB]
Get:18 http://deb.debian.org/debian unstable/main armhf libsignon-qt5-1 armhf 8.61-1 [61.9 kB]
Get:19 http://deb.debian.org/debian unstable/main armhf libkaccounts2 armhf 4:22.12.3-1 [41.8 kB]
Get:20 http://deb.debian.org/debian unstable/main armhf libkf5akonadi-data all 4:22.12.3-1 [297 kB]
Get:21 http://deb.debian.org/debian unstable/main armhf libkf5akonadiprivate5abi2 armhf 4:22.12.3-1+b1 [160 kB]
Get:22 http://deb.debian.org/debian unstable/main armhf libkf5itemmodels5 armhf 5.107.0-1 [85.3 kB]
Get:23 http://deb.debian.org/debian unstable/main armhf libkf5akonadicore5abi2 armhf 4:22.12.3-1+b1 [549 kB]
Get:24 http://deb.debian.org/debian unstable/main armhf libkf5xmlgui-data all 5.107.0-1 [381 kB]
Get:25 http://deb.debian.org/debian unstable/main armhf libkf5globalaccel-data all 5.107.0-2 [25.2 kB]
Get:26 http://deb.debian.org/debian unstable/main armhf libkf5globalaccel5 armhf 5.107.0-2 [40.9 kB]
Get:27 http://deb.debian.org/debian unstable/main armhf libkf5globalaccelprivate5 armhf 5.107.0-2 [51.7 kB]
Get:28 http://deb.debian.org/debian unstable/main armhf libxcb-record0 armhf 1.15-1 [107 kB]
Get:29 http://deb.debian.org/debian unstable/main armhf libkf5globalaccel-bin armhf 5.107.0-2 [15.8 kB]
Get:30 http://deb.debian.org/debian unstable/main armhf libkf5xmlgui5 armhf 5.107.0-1+b1 [243 kB]
Get:31 http://deb.debian.org/debian unstable/main armhf libkf5akonadiwidgets5abi1 armhf 4:22.12.3-1+b1 [209 kB]
Get:32 http://deb.debian.org/debian unstable/main armhf libkf5akonadiagentbase5 armhf 4:22.12.3-1+b1 [110 kB]
Get:33 http://deb.debian.org/debian unstable/main armhf libkf5akonadiserver-dev armhf 4:22.12.3-1+b1 [37.5 kB]
Get:34 http://deb.debian.org/debian unstable/main armhf libkf5akonadixml5 armhf 4:22.12.3-1+b1 [30.7 kB]
Get:35 http://deb.debian.org/debian unstable/main armhf libkf5config-bin armhf 5.107.0-1 [36.1 kB]
Get:36 http://deb.debian.org/debian unstable/main armhf libkf5config-dev-bin armhf 5.107.0-1 [65.7 kB]
Get:37 http://deb.debian.org/debian unstable/main armhf libkf5configqml5 armhf 5.107.0-1 [13.4 kB]
Get:38 http://deb.debian.org/debian unstable/main armhf libkf5config-dev armhf 5.107.0-1 [46.1 kB]
Get:39 http://deb.debian.org/debian unstable/main armhf libkf5auth-dev-bin armhf 5.107.0-1 [15.6 kB]
Get:40 http://deb.debian.org/debian unstable/main armhf libkf5auth5 armhf 5.107.0-1 [11.3 kB]
Get:41 http://deb.debian.org/debian unstable/main armhf libkf5auth-dev armhf 5.107.0-1 [26.2 kB]
Get:42 http://deb.debian.org/debian unstable/main armhf libkf5guiaddons-dev armhf 5.107.0-1 [23.3 kB]
Get:43 http://deb.debian.org/debian unstable/main armhf libkf5widgetsaddons-dev armhf 5.107.0-1 [112 kB]
Get:44 http://deb.debian.org/debian unstable/main armhf libkf5configwidgets-dev armhf 5.107.0-2 [48.7 kB]
Get:45 http://deb.debian.org/debian unstable/main armhf libkf5itemviews-dev armhf 5.107.0-1 [25.4 kB]
Get:46 http://deb.debian.org/debian unstable/main armhf libqt5qmlmodels5 armhf 5.15.10+dfsg-2 [164 kB]
Get:47 http://deb.debian.org/debian unstable/main armhf libqt5qmlworkerscript5 armhf 5.15.10+dfsg-2 [32.6 kB]
Get:48 http://deb.debian.org/debian unstable/main armhf libqt5quick5 armhf 5.15.10+dfsg-2 [1374 kB]
Get:49 http://deb.debian.org/debian unstable/main armhf libqt5quickparticles5 armhf 5.15.10+dfsg-2 [184 kB]
Get:50 http://deb.debian.org/debian unstable/main armhf libqt5quickshapes5 armhf 5.15.10+dfsg-2 [84.8 kB]
Get:51 http://deb.debian.org/debian unstable/main armhf libqt5quicktest5 armhf 5.15.10+dfsg-2 [51.7 kB]
Get:52 http://deb.debian.org/debian unstable/main armhf libqt5quickwidgets5 armhf 5.15.10+dfsg-2 [36.1 kB]
Get:53 http://deb.debian.org/debian unstable/main armhf qt5-qmltooling-plugins armhf 5.15.10+dfsg-2 [154 kB]
Get:54 http://deb.debian.org/debian unstable/main armhf qtdeclarative5-dev-tools armhf 5.15.10+dfsg-2 [519 kB]
Get:55 http://deb.debian.org/debian unstable/main armhf qtdeclarative5-dev armhf 5.15.10+dfsg-2 [426 kB]
Get:56 http://deb.debian.org/debian unstable/main armhf libkf5iconthemes-dev armhf 5.107.0-1+b1 [28.8 kB]
Get:57 http://deb.debian.org/debian unstable/main armhf libkf5itemmodels-dev armhf 5.107.0-1 [21.5 kB]
Get:58 http://deb.debian.org/debian unstable/main armhf libkf5bookmarks-data all 5.107.0-1 [51.8 kB]
Get:59 http://deb.debian.org/debian unstable/main armhf libkf5bookmarks5 armhf 5.107.0-1 [78.3 kB]
Get:60 http://deb.debian.org/debian unstable/main armhf libkf5attica5 armhf 5.107.0-1+b1 [127 kB]
Get:61 http://deb.debian.org/debian unstable/main armhf libkf5attica-dev armhf 5.107.0-1+b1 [30.3 kB]
Get:62 http://deb.debian.org/debian unstable/main armhf libkf5globalaccel-dev armhf 5.107.0-2 [17.2 kB]
Get:63 http://deb.debian.org/debian unstable/main armhf libkf5windowsystem-dev armhf 5.107.0-1 [50.1 kB]
Get:64 http://deb.debian.org/debian unstable/main armhf libkf5xmlgui-dev armhf 5.107.0-1+b1 [53.6 kB]
Get:65 http://deb.debian.org/debian unstable/main armhf libkf5bookmarks-dev armhf 5.107.0-1 [21.9 kB]
Get:66 http://deb.debian.org/debian unstable/main armhf libkf5completion-dev armhf 5.107.0-1 [30.6 kB]
Get:67 http://deb.debian.org/debian unstable/main armhf libkf5jobwidgets-dev armhf 5.107.0-1 [13.9 kB]
Get:68 http://deb.debian.org/debian unstable/main armhf libkf5dbusaddons-dev armhf 5.107.0-1 [15.6 kB]
Get:69 http://deb.debian.org/debian unstable/main armhf libkf5service-dev armhf 5.107.0-1 [38.0 kB]
Get:70 http://deb.debian.org/debian unstable/main armhf libkf5solid-dev armhf 5.107.0-1 [25.2 kB]
Get:71 http://deb.debian.org/debian unstable/main armhf libkf5kiofilewidgets5 armhf 5.107.0-1 [274 kB]
Get:72 http://deb.debian.org/debian unstable/main armhf libkf5kio-dev armhf 5.107.0-1 [223 kB]
Get:73 http://deb.debian.org/debian unstable/main armhf libkf5akonadi-dev armhf 4:22.12.3-1+b1 [257 kB]
Get:74 http://deb.debian.org/debian unstable/main armhf libkf5akonadicalendar-data all 4:22.12.3-1 [223 kB]
Get:75 http://deb.debian.org/debian unstable/main armhf libkf5contacts-data all 5:5.107.0-1 [56.9 kB]
Get:76 http://deb.debian.org/debian unstable/main armhf libkf5contacts5 armhf 5:5.107.0-1 [175 kB]
Get:77 http://deb.debian.org/debian unstable/main armhf libkf5contacteditor5 armhf 4:22.12.3-1+b1 [93.6 kB]
Get:78 http://deb.debian.org/debian unstable/main armhf libkf5newstuff-data all 5.107.0-2 [391 kB]
Get:79 http://deb.debian.org/debian unstable/main armhf libkf5syndication5abi1 armhf 1:5.107.0-1 [144 kB]
Get:80 http://deb.debian.org/debian unstable/main armhf libkf5newstuffcore5 armhf 5.107.0-2 [211 kB]
Get:81 http://deb.debian.org/debian unstable/main armhf libkf5newstuff5 armhf 5.107.0-2 [107 kB]
Get:82 http://deb.debian.org/debian unstable/main armhf libkf5newstuffwidgets5 armhf 5.107.0-2 [17.4 kB]
Get:83 http://deb.debian.org/debian unstable/main armhf libkf5grantleetheme5 armhf 22.12.3-2+b1 [35.0 kB]
Get:84 http://deb.debian.org/debian unstable/main armhf libzxing3 armhf 2.2.1-1 [533 kB]
Get:85 http://deb.debian.org/debian unstable/main armhf libkf5prison5 armhf 5.107.0-2+b1 [29.0 kB]
Get:86 http://deb.debian.org/debian unstable/main armhf libkf5akonadicontact5 armhf 4:22.12.3-1+b1 [199 kB]
Get:87 http://deb.debian.org/debian unstable/main armhf libkf5akonadimime5 armhf 4:22.12.3-1+b1 [98.4 kB]
Get:88 http://deb.debian.org/debian unstable/main armhf libkf5calendarcore5abi2 armhf 5:5.107.0-1 [235 kB]
Get:89 http://deb.debian.org/debian unstable/main armhf libkf5identitymanagement5 armhf 22.12.3-1 [82.9 kB]
Get:90 http://deb.debian.org/debian unstable/main armhf libkf5calendarutils5 armhf 4:22.12.3-2+b1 [279 kB]
Get:91 http://deb.debian.org/debian unstable/main armhf libkf5mailtransport-data all 22.12.3-1 [104 kB]
Get:92 http://deb.debian.org/debian unstable/main armhf libqt5keychain1 armhf 0.14.2-1 [44.6 kB]
Get:93 http://deb.debian.org/debian unstable/main armhf libkf5mailtransport5 armhf 22.12.3-1 [72.0 kB]
Get:94 http://deb.debian.org/debian unstable/main armhf libkf5mailtransportakonadi5 armhf 22.12.3-1 [29.9 kB]
Get:95 http://deb.debian.org/debian unstable/main armhf libkf5akonadicalendar5abi1 armhf 4:22.12.3-1+b1 [271 kB]
Get:96 http://deb.debian.org/debian unstable/main armhf libkf5sonnet-dev-bin armhf 5.107.0-1 [14.4 kB]
Get:97 http://deb.debian.org/debian unstable/main armhf libkf5sonnet-dev armhf 5.107.0-1 [23.7 kB]
Get:98 http://deb.debian.org/debian unstable/main armhf libkf5textwidgets-dev armhf 5.107.0-1 [32.4 kB]
Get:99 http://deb.debian.org/debian unstable/main armhf libkf5contacteditor-dev armhf 4:22.12.3-1+b1 [17.8 kB]
Get:100 http://deb.debian.org/debian unstable/main armhf libkf5contacts-dev armhf 5:5.107.0-1 [32.6 kB]
Get:101 http://deb.debian.org/debian unstable/main armhf libkf5grantleetheme-dev armhf 22.12.3-2+b1 [10.5 kB]
Get:102 http://deb.debian.org/debian unstable/main armhf libmp3lame0 armhf 3.100-6+b2 [344 kB]
Get:103 http://deb.debian.org/debian unstable/main armhf libmpg123-0 armhf 1.32.3-1 [127 kB]
Get:104 http://deb.debian.org/debian unstable/main armhf libopus0 armhf 1.4-1 [172 kB]
Get:105 http://deb.debian.org/debian unstable/main armhf libvorbisenc2 armhf 1.3.7-1 [74.4 kB]
Get:106 http://deb.debian.org/debian unstable/main armhf libsndfile1 armhf 1.2.2-1 [181 kB]
Get:107 http://deb.debian.org/debian unstable/main armhf libpulse0 armhf 16.1+dfsg1-3 [243 kB]
Get:108 http://deb.debian.org/debian unstable/main armhf libqt5multimedia5 armhf 5.15.10-2 [240 kB]
Get:109 http://deb.debian.org/debian unstable/main armhf libkf5prisonscanner5 armhf 5.107.0-2+b1 [16.6 kB]
Get:110 http://deb.debian.org/debian unstable/main armhf libkf5prison-dev armhf 5.107.0-2+b1 [14.9 kB]
Get:111 http://deb.debian.org/debian unstable/main armhf libkf5akonadicontact-dev armhf 4:22.12.3-1+b1 [24.0 kB]
Get:112 http://deb.debian.org/debian unstable/main armhf libkf5calendarcore-dev armhf 5:5.107.0-1 [61.6 kB]
Get:113 http://deb.debian.org/debian unstable/main armhf libkf5akonadicalendar-dev armhf 4:22.12.3-1+b1 [31.7 kB]
Get:114 http://deb.debian.org/debian unstable/main armhf libkf5akonadimime-dev armhf 4:22.12.3-1+b1 [18.9 kB]
Get:115 http://deb.debian.org/debian unstable/main armhf libkf5akonadinotes5 armhf 4:22.12.3-1+b1 [26.2 kB]
Get:116 http://deb.debian.org/debian unstable/main armhf libxapian30 armhf 1.4.22-1 [989 kB]
Get:117 http://deb.debian.org/debian unstable/main armhf libkf5akonadisearchpim5 armhf 4:22.12.3-1+b1 [37.7 kB]
Get:118 http://deb.debian.org/debian unstable/main armhf libkf5bluezqt-data all 5.107.0-2 [5776 B]
Get:119 http://deb.debian.org/debian unstable/main armhf libkf5bluezqt6 armhf 5.107.0-2 [175 kB]
Get:120 http://deb.debian.org/debian unstable/main armhf libkf5calendarsupport-data all 4:22.12.3-1 [310 kB]
Get:121 http://deb.debian.org/debian unstable/main armhf libkf5holidays-data all 1:5.107.0-1 [49.2 kB]
Get:122 http://deb.debian.org/debian unstable/main armhf libkf5holidays5 armhf 1:5.107.0-1 [189 kB]
Get:123 http://deb.debian.org/debian unstable/main armhf libkf5pimtextedit-data all 22.12.3-1 [79.3 kB]
Get:124 http://deb.debian.org/debian unstable/main armhf libkf5syntaxhighlighting-data all 5.107.0-1 [79.2 kB]
Get:125 http://deb.debian.org/debian unstable/main armhf libkf5syntaxhighlighting5 armhf 5.107.0-1 [1618 kB]
Get:126 http://deb.debian.org/debian unstable/main armhf libkf5pimtextedit5abi2 armhf 22.12.3-1 [240 kB]
Get:127 http://deb.debian.org/debian unstable/main armhf libkf5calendarsupport5abi1 armhf 4:22.12.3-1 [198 kB]
Get:128 http://deb.debian.org/debian unstable/main armhf libkf5identitymanagementwidgets5 armhf 22.12.3-1 [21.0 kB]
Get:129 http://deb.debian.org/debian unstable/main armhf qml-module-org-kde-syntaxhighlighting armhf 5.107.0-1 [26.1 kB]
Get:130 http://deb.debian.org/debian unstable/main armhf libkf5syntaxhighlighting-dev armhf 5.107.0-1 [33.2 kB]
Get:131 http://deb.debian.org/debian unstable/main armhf libkf5pimtextedit-dev armhf 22.12.3-1 [24.5 kB]
Get:132 http://deb.debian.org/debian unstable/main armhf libkf5identitymanagement-dev armhf 22.12.3-1 [17.5 kB]
Get:133 http://deb.debian.org/debian unstable/main armhf libkf5calendarsupport-dev armhf 4:22.12.3-1 [34.5 kB]
Get:134 http://deb.debian.org/debian unstable/main armhf libkf5calendarutils-dev armhf 4:22.12.3-2+b1 [16.8 kB]
Get:135 http://deb.debian.org/debian unstable/main armhf libkf5declarative-data all 5.107.0-1 [58.3 kB]
Get:136 http://deb.debian.org/debian unstable/main armhf libkf5declarative5 armhf 5.107.0-1 [26.2 kB]
Get:137 http://deb.debian.org/debian unstable/main armhf libkf5eventviews-data all 4:22.12.3-1 [211 kB]
Get:138 http://deb.debian.org/debian unstable/main armhf libkf5libkdepim-data all 4:22.12.3-1 [25.0 kB]
Get:139 http://deb.debian.org/debian unstable/main armhf libkf5libkdepim5 armhf 4:22.12.3-1 [45.2 kB]
Get:140 http://deb.debian.org/debian unstable/main armhf libkgantt2 armhf 2.8.0-1 [121 kB]
Get:141 http://deb.debian.org/debian unstable/main armhf libkf5eventviews5abi1 armhf 4:22.12.3-1 [328 kB]
Get:142 http://deb.debian.org/debian unstable/main armhf libkf5eventviews-dev armhf 4:22.12.3-1 [23.0 kB]
Get:143 http://deb.debian.org/debian unstable/main armhf libkf5incidenceeditor-data all 22.12.3-1 [211 kB]
Get:144 http://deb.debian.org/debian unstable/main armhf libkf5ldap-data all 22.12.3-1 [43.7 kB]
Get:145 http://deb.debian.org/debian unstable/main armhf libkf5ldap5abi1 armhf 22.12.3-1 [86.3 kB]
Get:146 http://deb.debian.org/debian unstable/main armhf libkf5pimcommon-data all 4:22.12.3-1 [172 kB]
Get:147 http://deb.debian.org/debian unstable/main armhf libkf5kcmutils-data all 5.107.0-2 [91.4 kB]
Get:148 http://deb.debian.org/debian unstable/main armhf libkf5kcmutilscore5 armhf 5.107.0-2 [19.3 kB]
Get:149 http://deb.debian.org/debian unstable/main armhf libkf5quickaddons5 armhf 5.107.0-1 [35.6 kB]
Get:150 http://deb.debian.org/debian unstable/main armhf libkf5kcmutils5 armhf 5.107.0-2 [97.8 kB]
Get:151 http://deb.debian.org/debian unstable/main armhf libkf5pimcommonautocorrection5 armhf 4:22.12.3-1 [71.0 kB]
Get:152 http://deb.debian.org/debian unstable/main armhf qml-module-org-kde-bluezqt armhf 5.107.0-2 [32.1 kB]
Get:153 http://deb.debian.org/debian unstable/main armhf qml-module-org-kde-kquickcontrolsaddons armhf 5.107.0-1 [59.1 kB]
Get:154 http://deb.debian.org/debian unstable/main armhf qml-module-org-kde-prison armhf 5.107.0-2+b1 [15.7 kB]
Get:155 http://deb.debian.org/debian unstable/main armhf qml-module-qt-labs-folderlistmodel armhf 5.15.10+dfsg-2 [33.5 kB]
Get:156 http://deb.debian.org/debian unstable/main armhf qml-module-qt-labs-settings armhf 5.15.10+dfsg-2 [26.3 kB]
Get:157 http://deb.debian.org/debian unstable/main armhf qml-module-qtqml armhf 5.15.10+dfsg-2 [19.9 kB]
Get:158 http://deb.debian.org/debian unstable/main armhf qml-module-qtquick2 armhf 5.15.10+dfsg-2 [36.1 kB]
Get:159 http://deb.debian.org/debian unstable/main armhf qml-module-qtquick-privatewidgets armhf 5.15.10-2 [39.2 kB]
Get:160 http://deb.debian.org/debian unstable/main armhf qml-module-qtquick-window2 armhf 5.15.10+dfsg-2 [26.9 kB]
Get:161 http://deb.debian.org/debian unstable/main armhf qml-module-qtquick-dialogs armhf 5.15.10-2 [114 kB]
Get:162 http://deb.debian.org/debian unstable/main armhf libqt5quicktemplates2-5 armhf 5.15.10+dfsg-2 [339 kB]
Get:163 http://deb.debian.org/debian unstable/main armhf qml-module-qtquick-templates2 armhf 5.15.10+dfsg-2 [64.6 kB]
Get:164 http://deb.debian.org/debian unstable/main armhf libqt5quickcontrols2-5 armhf 5.15.10+dfsg-2 [54.6 kB]
Get:165 http://deb.debian.org/debian unstable/main armhf qml-module-qtquick-controls2 armhf 5.15.10+dfsg-2 [886 kB]
Get:166 http://deb.debian.org/debian unstable/main armhf libkf5purpose5 armhf 5.107.0-1 [40.0 kB]
Get:167 http://deb.debian.org/debian unstable/main armhf libkf5purpose-bin armhf 5.107.0-1 [221 kB]
Get:168 http://deb.debian.org/debian unstable/main armhf libkf5pimcommon5abi2 armhf 4:22.12.3-1 [123 kB]
Get:169 http://deb.debian.org/debian unstable/main armhf libkf5pimcommonakonadi5abi1 armhf 4:22.12.3-1 [177 kB]
Get:170 http://deb.debian.org/debian unstable/main armhf libkf5incidenceeditor5abi1 armhf 22.12.3-1 [281 kB]
Get:171 http://deb.debian.org/debian unstable/main armhf libkf5wallet-dev armhf 5.107.0-1 [14.4 kB]
Get:172 http://deb.debian.org/debian unstable/main armhf libkf5mailtransport-dev armhf 22.12.3-1 [22.2 kB]
Get:173 http://deb.debian.org/debian unstable/main armhf libkgantt-dev armhf 2.8.0-1 [26.9 kB]
Get:174 http://deb.debian.org/debian unstable/main armhf libkf5incidenceeditor-dev armhf 22.12.3-1 [15.0 kB]
debconf: delaying package configuration, since apt-utils is not installed
Fetched 32.9 MB in 3s (10.7 MB/s)
Selecting previously unselected package akonadi-contacts-data.
(Reading database ... (Reading database ... 5%(Reading database ... 10%(Reading database ... 15%(Reading database ... 20%(Reading database ... 25%(Reading database ... 30%(Reading database ... 35%(Reading database ... 40%(Reading database ... 45%(Reading database ... 50%(Reading database ... 55%(Reading database ... 60%(Reading database ... 65%(Reading database ... 70%(Reading database ... 75%(Reading database ... 80%(Reading database ... 85%(Reading database ... 90%(Reading database ... 95%(Reading database ... 100%(Reading database ... 26942 files and directories currently installed.)
Preparing to unpack .../000-akonadi-contacts-data_4%3a22.12.3-1_all.deb ...
Unpacking akonadi-contacts-data (4:22.12.3-1) ...
Selecting previously unselected package akonadi-mime-data.
Preparing to unpack .../001-akonadi-mime-data_4%3a22.12.3-1_all.deb ...
Unpacking akonadi-mime-data (4:22.12.3-1) ...
Selecting previously unselected package libkf5package-data.
Preparing to unpack .../002-libkf5package-data_5.107.0-1_all.deb ...
Unpacking libkf5package-data (5.107.0-1) ...
Selecting previously unselected package libkf5package5:armhf.
Preparing to unpack .../003-libkf5package5_5.107.0-1_armhf.deb ...
Unpacking libkf5package5:armhf (5.107.0-1) ...
Selecting previously unselected package kpackagetool5.
Preparing to unpack .../004-kpackagetool5_5.107.0-1_armhf.deb ...
Unpacking kpackagetool5 (5.107.0-1) ...
Selecting previously unselected package libaccounts-glib0:armhf.
Preparing to unpack .../005-libaccounts-glib0_1.26-1_armhf.deb ...
Unpacking libaccounts-glib0:armhf (1.26-1) ...
Selecting previously unselected package libaccounts-qt5-1:armhf.
Preparing to unpack .../006-libaccounts-qt5-1_1.16-2_armhf.deb ...
Unpacking libaccounts-qt5-1:armhf (1.16-2) ...
Selecting previously unselected package libasyncns0:armhf.
Preparing to unpack .../007-libasyncns0_0.8-6+b3_armhf.deb ...
Unpacking libasyncns0:armhf (0.8-6+b3) ...
Selecting previously unselected package libboost1.83-dev:armhf.
Preparing to unpack .../008-libboost1.83-dev_1.83.0-2+b2_armhf.deb ...
Unpacking libboost1.83-dev:armhf (1.83.0-2+b2) ...
Selecting previously unselected package libboost-dev:armhf.
Preparing to unpack .../009-libboost-dev_1.83.0.2_armhf.deb ...
Unpacking libboost-dev:armhf (1.83.0.2) ...
Selecting previously unselected package libdmtx0b:armhf.
Preparing to unpack .../010-libdmtx0b_0.7.7-1_armhf.deb ...
Unpacking libdmtx0b:armhf (0.7.7-1) ...
Selecting previously unselected package libepoxy0:armhf.
Preparing to unpack .../011-libepoxy0_1.5.10-1+b2_armhf.deb ...
Unpacking libepoxy0:armhf (1.5.10-1+b2) ...
Selecting previously unselected package libflac12:armhf.
Preparing to unpack .../012-libflac12_1.4.3+ds-2+b1_armhf.deb ...
Unpacking libflac12:armhf (1.4.3+ds-2+b1) ...
Selecting previously unselected package libgrantlee-templates5:armhf.
Preparing to unpack .../013-libgrantlee-templates5_5.3.1-3_armhf.deb ...
Unpacking libgrantlee-templates5:armhf (5.3.1-3) ...
Selecting previously unselected package libgrantlee-textdocument5:armhf.
Preparing to unpack .../014-libgrantlee-textdocument5_5.3.1-3_armhf.deb ...
Unpacking libgrantlee-textdocument5:armhf (5.3.1-3) ...
Selecting previously unselected package libgrantlee5-dev.
Preparing to unpack .../015-libgrantlee5-dev_5.3.1-3_armhf.deb ...
Unpacking libgrantlee5-dev (5.3.1-3) ...
Selecting previously unselected package libical3:armhf.
Preparing to unpack .../016-libical3_3.0.17-1_armhf.deb ...
Unpacking libical3:armhf (3.0.17-1) ...
Selecting previously unselected package libsignon-qt5-1:armhf.
Preparing to unpack .../017-libsignon-qt5-1_8.61-1_armhf.deb ...
Unpacking libsignon-qt5-1:armhf (8.61-1) ...
Selecting previously unselected package libkaccounts2:armhf.
Preparing to unpack .../018-libkaccounts2_4%3a22.12.3-1_armhf.deb ...
Unpacking libkaccounts2:armhf (4:22.12.3-1) ...
Selecting previously unselected package libkf5akonadi-data.
Preparing to unpack .../019-libkf5akonadi-data_4%3a22.12.3-1_all.deb ...
Unpacking libkf5akonadi-data (4:22.12.3-1) ...
Selecting previously unselected package libkf5akonadiprivate5abi2:armhf.
Preparing to unpack .../020-libkf5akonadiprivate5abi2_4%3a22.12.3-1+b1_armhf.deb ...
Unpacking libkf5akonadiprivate5abi2:armhf (4:22.12.3-1+b1) ...
Selecting previously unselected package libkf5itemmodels5:armhf.
Preparing to unpack .../021-libkf5itemmodels5_5.107.0-1_armhf.deb ...
Unpacking libkf5itemmodels5:armhf (5.107.0-1) ...
Selecting previously unselected package libkf5akonadicore5abi2:armhf.
Preparing to unpack .../022-libkf5akonadicore5abi2_4%3a22.12.3-1+b1_armhf.deb ...
Unpacking libkf5akonadicore5abi2:armhf (4:22.12.3-1+b1) ...
Selecting previously unselected package libkf5xmlgui-data.
Preparing to unpack .../023-libkf5xmlgui-data_5.107.0-1_all.deb ...
Unpacking libkf5xmlgui-data (5.107.0-1) ...
Selecting previously unselected package libkf5globalaccel-data.
Preparing to unpack .../024-libkf5globalaccel-data_5.107.0-2_all.deb ...
Unpacking libkf5globalaccel-data (5.107.0-2) ...
Selecting previously unselected package libkf5globalaccel5:armhf.
Preparing to unpack .../025-libkf5globalaccel5_5.107.0-2_armhf.deb ...
Unpacking libkf5globalaccel5:armhf (5.107.0-2) ...
Selecting previously unselected package libkf5globalaccelprivate5:armhf.
Preparing to unpack .../026-libkf5globalaccelprivate5_5.107.0-2_armhf.deb ...
Unpacking libkf5globalaccelprivate5:armhf (5.107.0-2) ...
Selecting previously unselected package libxcb-record0:armhf.
Preparing to unpack .../027-libxcb-record0_1.15-1_armhf.deb ...
Unpacking libxcb-record0:armhf (1.15-1) ...
Selecting previously unselected package libkf5globalaccel-bin.
Preparing to unpack .../028-libkf5globalaccel-bin_5.107.0-2_armhf.deb ...
Unpacking libkf5globalaccel-bin (5.107.0-2) ...
Selecting previously unselected package libkf5xmlgui5:armhf.
Preparing to unpack .../029-libkf5xmlgui5_5.107.0-1+b1_armhf.deb ...
Unpacking libkf5xmlgui5:armhf (5.107.0-1+b1) ...
Selecting previously unselected package libkf5akonadiwidgets5abi1:armhf.
Preparing to unpack .../030-libkf5akonadiwidgets5abi1_4%3a22.12.3-1+b1_armhf.deb ...
Unpacking libkf5akonadiwidgets5abi1:armhf (4:22.12.3-1+b1) ...
Selecting previously unselected package libkf5akonadiagentbase5:armhf.
Preparing to unpack .../031-libkf5akonadiagentbase5_4%3a22.12.3-1+b1_armhf.deb ...
Unpacking libkf5akonadiagentbase5:armhf (4:22.12.3-1+b1) ...
Selecting previously unselected package libkf5akonadiserver-dev.
Preparing to unpack .../032-libkf5akonadiserver-dev_4%3a22.12.3-1+b1_armhf.deb ...
Unpacking libkf5akonadiserver-dev (4:22.12.3-1+b1) ...
Selecting previously unselected package libkf5akonadixml5:armhf.
Preparing to unpack .../033-libkf5akonadixml5_4%3a22.12.3-1+b1_armhf.deb ...
Unpacking libkf5akonadixml5:armhf (4:22.12.3-1+b1) ...
Selecting previously unselected package libkf5config-bin.
Preparing to unpack .../034-libkf5config-bin_5.107.0-1_armhf.deb ...
Unpacking libkf5config-bin (5.107.0-1) ...
Selecting previously unselected package libkf5config-dev-bin.
Preparing to unpack .../035-libkf5config-dev-bin_5.107.0-1_armhf.deb ...
Unpacking libkf5config-dev-bin (5.107.0-1) ...
Selecting previously unselected package libkf5configqml5:armhf.
Preparing to unpack .../036-libkf5configqml5_5.107.0-1_armhf.deb ...
Unpacking libkf5configqml5:armhf (5.107.0-1) ...
Selecting previously unselected package libkf5config-dev:armhf.
Preparing to unpack .../037-libkf5config-dev_5.107.0-1_armhf.deb ...
Unpacking libkf5config-dev:armhf (5.107.0-1) ...
Selecting previously unselected package libkf5auth-dev-bin.
Preparing to unpack .../038-libkf5auth-dev-bin_5.107.0-1_armhf.deb ...
Unpacking libkf5auth-dev-bin (5.107.0-1) ...
Selecting previously unselected package libkf5auth5:armhf.
Preparing to unpack .../039-libkf5auth5_5.107.0-1_armhf.deb ...
Unpacking libkf5auth5:armhf (5.107.0-1) ...
Selecting previously unselected package libkf5auth-dev:armhf.
Preparing to unpack .../040-libkf5auth-dev_5.107.0-1_armhf.deb ...
Unpacking libkf5auth-dev:armhf (5.107.0-1) ...
Selecting previously unselected package libkf5guiaddons-dev.
Preparing to unpack .../041-libkf5guiaddons-dev_5.107.0-1_armhf.deb ...
Unpacking libkf5guiaddons-dev (5.107.0-1) ...
Selecting previously unselected package libkf5widgetsaddons-dev.
Preparing to unpack .../042-libkf5widgetsaddons-dev_5.107.0-1_armhf.deb ...
Unpacking libkf5widgetsaddons-dev (5.107.0-1) ...
Selecting previously unselected package libkf5configwidgets-dev.
Preparing to unpack .../043-libkf5configwidgets-dev_5.107.0-2_armhf.deb ...
Unpacking libkf5configwidgets-dev (5.107.0-2) ...
Selecting previously unselected package libkf5itemviews-dev.
Preparing to unpack .../044-libkf5itemviews-dev_5.107.0-1_armhf.deb ...
Unpacking libkf5itemviews-dev (5.107.0-1) ...
Selecting previously unselected package libqt5qmlmodels5:armhf.
Preparing to unpack .../045-libqt5qmlmodels5_5.15.10+dfsg-2_armhf.deb ...
Unpacking libqt5qmlmodels5:armhf (5.15.10+dfsg-2) ...
Selecting previously unselected package libqt5qmlworkerscript5:armhf.
Preparing to unpack .../046-libqt5qmlworkerscript5_5.15.10+dfsg-2_armhf.deb ...
Unpacking libqt5qmlworkerscript5:armhf (5.15.10+dfsg-2) ...
Selecting previously unselected package libqt5quick5:armhf.
Preparing to unpack .../047-libqt5quick5_5.15.10+dfsg-2_armhf.deb ...
Unpacking libqt5quick5:armhf (5.15.10+dfsg-2) ...
Selecting previously unselected package libqt5quickparticles5:armhf.
Preparing to unpack .../048-libqt5quickparticles5_5.15.10+dfsg-2_armhf.deb ...
Unpacking libqt5quickparticles5:armhf (5.15.10+dfsg-2) ...
Selecting previously unselected package libqt5quickshapes5:armhf.
Preparing to unpack .../049-libqt5quickshapes5_5.15.10+dfsg-2_armhf.deb ...
Unpacking libqt5quickshapes5:armhf (5.15.10+dfsg-2) ...
Selecting previously unselected package libqt5quicktest5:armhf.
Preparing to unpack .../050-libqt5quicktest5_5.15.10+dfsg-2_armhf.deb ...
Unpacking libqt5quicktest5:armhf (5.15.10+dfsg-2) ...
Selecting previously unselected package libqt5quickwidgets5:armhf.
Preparing to unpack .../051-libqt5quickwidgets5_5.15.10+dfsg-2_armhf.deb ...
Unpacking libqt5quickwidgets5:armhf (5.15.10+dfsg-2) ...
Selecting previously unselected package qt5-qmltooling-plugins:armhf.
Preparing to unpack .../052-qt5-qmltooling-plugins_5.15.10+dfsg-2_armhf.deb ...
Unpacking qt5-qmltooling-plugins:armhf (5.15.10+dfsg-2) ...
Selecting previously unselected package qtdeclarative5-dev-tools.
Preparing to unpack .../053-qtdeclarative5-dev-tools_5.15.10+dfsg-2_armhf.deb ...
Unpacking qtdeclarative5-dev-tools (5.15.10+dfsg-2) ...
Selecting previously unselected package qtdeclarative5-dev:armhf.
Preparing to unpack .../054-qtdeclarative5-dev_5.15.10+dfsg-2_armhf.deb ...
Unpacking qtdeclarative5-dev:armhf (5.15.10+dfsg-2) ...
Selecting previously unselected package libkf5iconthemes-dev.
Preparing to unpack .../055-libkf5iconthemes-dev_5.107.0-1+b1_armhf.deb ...
Unpacking libkf5iconthemes-dev (5.107.0-1+b1) ...
Selecting previously unselected package libkf5itemmodels-dev.
Preparing to unpack .../056-libkf5itemmodels-dev_5.107.0-1_armhf.deb ...
Unpacking libkf5itemmodels-dev (5.107.0-1) ...
Selecting previously unselected package libkf5bookmarks-data.
Preparing to unpack .../057-libkf5bookmarks-data_5.107.0-1_all.deb ...
Unpacking libkf5bookmarks-data (5.107.0-1) ...
Selecting previously unselected package libkf5bookmarks5:armhf.
Preparing to unpack .../058-libkf5bookmarks5_5.107.0-1_armhf.deb ...
Unpacking libkf5bookmarks5:armhf (5.107.0-1) ...
Selecting previously unselected package libkf5attica5:armhf.
Preparing to unpack .../059-libkf5attica5_5.107.0-1+b1_armhf.deb ...
Unpacking libkf5attica5:armhf (5.107.0-1+b1) ...
Selecting previously unselected package libkf5attica-dev.
Preparing to unpack .../060-libkf5attica-dev_5.107.0-1+b1_armhf.deb ...
Unpacking libkf5attica-dev (5.107.0-1+b1) ...
Selecting previously unselected package libkf5globalaccel-dev:armhf.
Preparing to unpack .../061-libkf5globalaccel-dev_5.107.0-2_armhf.deb ...
Unpacking libkf5globalaccel-dev:armhf (5.107.0-2) ...
Selecting previously unselected package libkf5windowsystem-dev.
Preparing to unpack .../062-libkf5windowsystem-dev_5.107.0-1_armhf.deb ...
Unpacking libkf5windowsystem-dev (5.107.0-1) ...
Selecting previously unselected package libkf5xmlgui-dev:armhf.
Preparing to unpack .../063-libkf5xmlgui-dev_5.107.0-1+b1_armhf.deb ...
Unpacking libkf5xmlgui-dev:armhf (5.107.0-1+b1) ...
Selecting previously unselected package libkf5bookmarks-dev.
Preparing to unpack .../064-libkf5bookmarks-dev_5.107.0-1_armhf.deb ...
Unpacking libkf5bookmarks-dev (5.107.0-1) ...
Selecting previously unselected package libkf5completion-dev.
Preparing to unpack .../065-libkf5completion-dev_5.107.0-1_armhf.deb ...
Unpacking libkf5completion-dev (5.107.0-1) ...
Selecting previously unselected package libkf5jobwidgets-dev.
Preparing to unpack .../066-libkf5jobwidgets-dev_5.107.0-1_armhf.deb ...
Unpacking libkf5jobwidgets-dev (5.107.0-1) ...
Selecting previously unselected package libkf5dbusaddons-dev.
Preparing to unpack .../067-libkf5dbusaddons-dev_5.107.0-1_armhf.deb ...
Unpacking libkf5dbusaddons-dev (5.107.0-1) ...
Selecting previously unselected package libkf5service-dev:armhf.
Preparing to unpack .../068-libkf5service-dev_5.107.0-1_armhf.deb ...
Unpacking libkf5service-dev:armhf (5.107.0-1) ...
Selecting previously unselected package libkf5solid-dev.
Preparing to unpack .../069-libkf5solid-dev_5.107.0-1_armhf.deb ...
Unpacking libkf5solid-dev (5.107.0-1) ...
Selecting previously unselected package libkf5kiofilewidgets5:armhf.
Preparing to unpack .../070-libkf5kiofilewidgets5_5.107.0-1_armhf.deb ...
Unpacking libkf5kiofilewidgets5:armhf (5.107.0-1) ...
Selecting previously unselected package libkf5kio-dev.
Preparing to unpack .../071-libkf5kio-dev_5.107.0-1_armhf.deb ...
Unpacking libkf5kio-dev (5.107.0-1) ...
Selecting previously unselected package libkf5akonadi-dev.
Preparing to unpack .../072-libkf5akonadi-dev_4%3a22.12.3-1+b1_armhf.deb ...
Unpacking libkf5akonadi-dev (4:22.12.3-1+b1) ...
Selecting previously unselected package libkf5akonadicalendar-data.
Preparing to unpack .../073-libkf5akonadicalendar-data_4%3a22.12.3-1_all.deb ...
Unpacking libkf5akonadicalendar-data (4:22.12.3-1) ...
Selecting previously unselected package libkf5contacts-data.
Preparing to unpack .../074-libkf5contacts-data_5%3a5.107.0-1_all.deb ...
Unpacking libkf5contacts-data (5:5.107.0-1) ...
Selecting previously unselected package libkf5contacts5:armhf.
Preparing to unpack .../075-libkf5contacts5_5%3a5.107.0-1_armhf.deb ...
Unpacking libkf5contacts5:armhf (5:5.107.0-1) ...
Selecting previously unselected package libkf5contacteditor5:armhf.
Preparing to unpack .../076-libkf5contacteditor5_4%3a22.12.3-1+b1_armhf.deb ...
Unpacking libkf5contacteditor5:armhf (4:22.12.3-1+b1) ...
Selecting previously unselected package libkf5newstuff-data.
Preparing to unpack .../077-libkf5newstuff-data_5.107.0-2_all.deb ...
Unpacking libkf5newstuff-data (5.107.0-2) ...
Selecting previously unselected package libkf5syndication5abi1:armhf.
Preparing to unpack .../078-libkf5syndication5abi1_1%3a5.107.0-1_armhf.deb ...
Unpacking libkf5syndication5abi1:armhf (1:5.107.0-1) ...
Selecting previously unselected package libkf5newstuffcore5:armhf.
Preparing to unpack .../079-libkf5newstuffcore5_5.107.0-2_armhf.deb ...
Unpacking libkf5newstuffcore5:armhf (5.107.0-2) ...
Selecting previously unselected package libkf5newstuff5:armhf.
Preparing to unpack .../080-libkf5newstuff5_5.107.0-2_armhf.deb ...
Unpacking libkf5newstuff5:armhf (5.107.0-2) ...
Selecting previously unselected package libkf5newstuffwidgets5:armhf.
Preparing to unpack .../081-libkf5newstuffwidgets5_5.107.0-2_armhf.deb ...
Unpacking libkf5newstuffwidgets5:armhf (5.107.0-2) ...
Selecting previously unselected package libkf5grantleetheme5:armhf.
Preparing to unpack .../082-libkf5grantleetheme5_22.12.3-2+b1_armhf.deb ...
Unpacking libkf5grantleetheme5:armhf (22.12.3-2+b1) ...
Selecting previously unselected package libzxing3:armhf.
Preparing to unpack .../083-libzxing3_2.2.1-1_armhf.deb ...
Unpacking libzxing3:armhf (2.2.1-1) ...
Selecting previously unselected package libkf5prison5:armhf.
Preparing to unpack .../084-libkf5prison5_5.107.0-2+b1_armhf.deb ...
Unpacking libkf5prison5:armhf (5.107.0-2+b1) ...
Selecting previously unselected package libkf5akonadicontact5:armhf.
Preparing to unpack .../085-libkf5akonadicontact5_4%3a22.12.3-1+b1_armhf.deb ...
Unpacking libkf5akonadicontact5:armhf (4:22.12.3-1+b1) ...
Selecting previously unselected package libkf5akonadimime5:armhf.
Preparing to unpack .../086-libkf5akonadimime5_4%3a22.12.3-1+b1_armhf.deb ...
Unpacking libkf5akonadimime5:armhf (4:22.12.3-1+b1) ...
Selecting previously unselected package libkf5calendarcore5abi2:armhf.
Preparing to unpack .../087-libkf5calendarcore5abi2_5%3a5.107.0-1_armhf.deb ...
Unpacking libkf5calendarcore5abi2:armhf (5:5.107.0-1) ...
Selecting previously unselected package libkf5identitymanagement5:armhf.
Preparing to unpack .../088-libkf5identitymanagement5_22.12.3-1_armhf.deb ...
Unpacking libkf5identitymanagement5:armhf (22.12.3-1) ...
Selecting previously unselected package libkf5calendarutils5:armhf.
Preparing to unpack .../089-libkf5calendarutils5_4%3a22.12.3-2+b1_armhf.deb ...
Unpacking libkf5calendarutils5:armhf (4:22.12.3-2+b1) ...
Selecting previously unselected package libkf5mailtransport-data.
Preparing to unpack .../090-libkf5mailtransport-data_22.12.3-1_all.deb ...
Unpacking libkf5mailtransport-data (22.12.3-1) ...
Selecting previously unselected package libqt5keychain1:armhf.
Preparing to unpack .../091-libqt5keychain1_0.14.2-1_armhf.deb ...
Unpacking libqt5keychain1:armhf (0.14.2-1) ...
Selecting previously unselected package libkf5mailtransport5:armhf.
Preparing to unpack .../092-libkf5mailtransport5_22.12.3-1_armhf.deb ...
Unpacking libkf5mailtransport5:armhf (22.12.3-1) ...
Selecting previously unselected package libkf5mailtransportakonadi5:armhf.
Preparing to unpack .../093-libkf5mailtransportakonadi5_22.12.3-1_armhf.deb ...
Unpacking libkf5mailtransportakonadi5:armhf (22.12.3-1) ...
Selecting previously unselected package libkf5akonadicalendar5abi1:armhf.
Preparing to unpack .../094-libkf5akonadicalendar5abi1_4%3a22.12.3-1+b1_armhf.deb ...
Unpacking libkf5akonadicalendar5abi1:armhf (4:22.12.3-1+b1) ...
Selecting previously unselected package libkf5sonnet-dev-bin.
Preparing to unpack .../095-libkf5sonnet-dev-bin_5.107.0-1_armhf.deb ...
Unpacking libkf5sonnet-dev-bin (5.107.0-1) ...
Selecting previously unselected package libkf5sonnet-dev:armhf.
Preparing to unpack .../096-libkf5sonnet-dev_5.107.0-1_armhf.deb ...
Unpacking libkf5sonnet-dev:armhf (5.107.0-1) ...
Selecting previously unselected package libkf5textwidgets-dev.
Preparing to unpack .../097-libkf5textwidgets-dev_5.107.0-1_armhf.deb ...
Unpacking libkf5textwidgets-dev (5.107.0-1) ...
Selecting previously unselected package libkf5contacteditor-dev:armhf.
Preparing to unpack .../098-libkf5contacteditor-dev_4%3a22.12.3-1+b1_armhf.deb ...
Unpacking libkf5contacteditor-dev:armhf (4:22.12.3-1+b1) ...
Selecting previously unselected package libkf5contacts-dev:armhf.
Preparing to unpack .../099-libkf5contacts-dev_5%3a5.107.0-1_armhf.deb ...
Unpacking libkf5contacts-dev:armhf (5:5.107.0-1) ...
Selecting previously unselected package libkf5grantleetheme-dev:armhf.
Preparing to unpack .../100-libkf5grantleetheme-dev_22.12.3-2+b1_armhf.deb ...
Unpacking libkf5grantleetheme-dev:armhf (22.12.3-2+b1) ...
Selecting previously unselected package libmp3lame0:armhf.
Preparing to unpack .../101-libmp3lame0_3.100-6+b2_armhf.deb ...
Unpacking libmp3lame0:armhf (3.100-6+b2) ...
Selecting previously unselected package libmpg123-0:armhf.
Preparing to unpack .../102-libmpg123-0_1.32.3-1_armhf.deb ...
Unpacking libmpg123-0:armhf (1.32.3-1) ...
Selecting previously unselected package libopus0:armhf.
Preparing to unpack .../103-libopus0_1.4-1_armhf.deb ...
Unpacking libopus0:armhf (1.4-1) ...
Selecting previously unselected package libvorbisenc2:armhf.
Preparing to unpack .../104-libvorbisenc2_1.3.7-1_armhf.deb ...
Unpacking libvorbisenc2:armhf (1.3.7-1) ...
Selecting previously unselected package libsndfile1:armhf.
Preparing to unpack .../105-libsndfile1_1.2.2-1_armhf.deb ...
Unpacking libsndfile1:armhf (1.2.2-1) ...
Selecting previously unselected package libpulse0:armhf.
Preparing to unpack .../106-libpulse0_16.1+dfsg1-3_armhf.deb ...
Unpacking libpulse0:armhf (16.1+dfsg1-3) ...
Selecting previously unselected package libqt5multimedia5:armhf.
Preparing to unpack .../107-libqt5multimedia5_5.15.10-2_armhf.deb ...
Unpacking libqt5multimedia5:armhf (5.15.10-2) ...
Selecting previously unselected package libkf5prisonscanner5:armhf.
Preparing to unpack .../108-libkf5prisonscanner5_5.107.0-2+b1_armhf.deb ...
Unpacking libkf5prisonscanner5:armhf (5.107.0-2+b1) ...
Selecting previously unselected package libkf5prison-dev.
Preparing to unpack .../109-libkf5prison-dev_5.107.0-2+b1_armhf.deb ...
Unpacking libkf5prison-dev (5.107.0-2+b1) ...
Selecting previously unselected package libkf5akonadicontact-dev:armhf.
Preparing to unpack .../110-libkf5akonadicontact-dev_4%3a22.12.3-1+b1_armhf.deb ...
Unpacking libkf5akonadicontact-dev:armhf (4:22.12.3-1+b1) ...
Selecting previously unselected package libkf5calendarcore-dev:armhf.
Preparing to unpack .../111-libkf5calendarcore-dev_5%3a5.107.0-1_armhf.deb ...
Unpacking libkf5calendarcore-dev:armhf (5:5.107.0-1) ...
Selecting previously unselected package libkf5akonadicalendar-dev:armhf.
Preparing to unpack .../112-libkf5akonadicalendar-dev_4%3a22.12.3-1+b1_armhf.deb ...
Unpacking libkf5akonadicalendar-dev:armhf (4:22.12.3-1+b1) ...
Selecting previously unselected package libkf5akonadimime-dev:armhf.
Preparing to unpack .../113-libkf5akonadimime-dev_4%3a22.12.3-1+b1_armhf.deb ...
Unpacking libkf5akonadimime-dev:armhf (4:22.12.3-1+b1) ...
Selecting previously unselected package libkf5akonadinotes5:armhf.
Preparing to unpack .../114-libkf5akonadinotes5_4%3a22.12.3-1+b1_armhf.deb ...
Unpacking libkf5akonadinotes5:armhf (4:22.12.3-1+b1) ...
Selecting previously unselected package libxapian30:armhf.
Preparing to unpack .../115-libxapian30_1.4.22-1_armhf.deb ...
Unpacking libxapian30:armhf (1.4.22-1) ...
Selecting previously unselected package libkf5akonadisearchpim5:armhf.
Preparing to unpack .../116-libkf5akonadisearchpim5_4%3a22.12.3-1+b1_armhf.deb ...
Unpacking libkf5akonadisearchpim5:armhf (4:22.12.3-1+b1) ...
Selecting previously unselected package libkf5bluezqt-data.
Preparing to unpack .../117-libkf5bluezqt-data_5.107.0-2_all.deb ...
Unpacking libkf5bluezqt-data (5.107.0-2) ...
Selecting previously unselected package libkf5bluezqt6:armhf.
Preparing to unpack .../118-libkf5bluezqt6_5.107.0-2_armhf.deb ...
Unpacking libkf5bluezqt6:armhf (5.107.0-2) ...
Selecting previously unselected package libkf5calendarsupport-data.
Preparing to unpack .../119-libkf5calendarsupport-data_4%3a22.12.3-1_all.deb ...
Unpacking libkf5calendarsupport-data (4:22.12.3-1) ...
Selecting previously unselected package libkf5holidays-data.
Preparing to unpack .../120-libkf5holidays-data_1%3a5.107.0-1_all.deb ...
Unpacking libkf5holidays-data (1:5.107.0-1) ...
Selecting previously unselected package libkf5holidays5:armhf.
Preparing to unpack .../121-libkf5holidays5_1%3a5.107.0-1_armhf.deb ...
Unpacking libkf5holidays5:armhf (1:5.107.0-1) ...
Selecting previously unselected package libkf5pimtextedit-data.
Preparing to unpack .../122-libkf5pimtextedit-data_22.12.3-1_all.deb ...
Unpacking libkf5pimtextedit-data (22.12.3-1) ...
Selecting previously unselected package libkf5syntaxhighlighting-data.
Preparing to unpack .../123-libkf5syntaxhighlighting-data_5.107.0-1_all.deb ...
Unpacking libkf5syntaxhighlighting-data (5.107.0-1) ...
Selecting previously unselected package libkf5syntaxhighlighting5:armhf.
Preparing to unpack .../124-libkf5syntaxhighlighting5_5.107.0-1_armhf.deb ...
Unpacking libkf5syntaxhighlighting5:armhf (5.107.0-1) ...
Selecting previously unselected package libkf5pimtextedit5abi2:armhf.
Preparing to unpack .../125-libkf5pimtextedit5abi2_22.12.3-1_armhf.deb ...
Unpacking libkf5pimtextedit5abi2:armhf (22.12.3-1) ...
Selecting previously unselected package libkf5calendarsupport5abi1:armhf.
Preparing to unpack .../126-libkf5calendarsupport5abi1_4%3a22.12.3-1_armhf.deb ...
Unpacking libkf5calendarsupport5abi1:armhf (4:22.12.3-1) ...
Selecting previously unselected package libkf5identitymanagementwidgets5:armhf.
Preparing to unpack .../127-libkf5identitymanagementwidgets5_22.12.3-1_armhf.deb ...
Unpacking libkf5identitymanagementwidgets5:armhf (22.12.3-1) ...
Selecting previously unselected package qml-module-org-kde-syntaxhighlighting:armhf.
Preparing to unpack .../128-qml-module-org-kde-syntaxhighlighting_5.107.0-1_armhf.deb ...
Unpacking qml-module-org-kde-syntaxhighlighting:armhf (5.107.0-1) ...
Selecting previously unselected package libkf5syntaxhighlighting-dev:armhf.
Preparing to unpack .../129-libkf5syntaxhighlighting-dev_5.107.0-1_armhf.deb ...
Unpacking libkf5syntaxhighlighting-dev:armhf (5.107.0-1) ...
Selecting previously unselected package libkf5pimtextedit-dev:armhf.
Preparing to unpack .../130-libkf5pimtextedit-dev_22.12.3-1_armhf.deb ...
Unpacking libkf5pimtextedit-dev:armhf (22.12.3-1) ...
Selecting previously unselected package libkf5identitymanagement-dev:armhf.
Preparing to unpack .../131-libkf5identitymanagement-dev_22.12.3-1_armhf.deb ...
Unpacking libkf5identitymanagement-dev:armhf (22.12.3-1) ...
Selecting previously unselected package libkf5calendarsupport-dev:armhf.
Preparing to unpack .../132-libkf5calendarsupport-dev_4%3a22.12.3-1_armhf.deb ...
Unpacking libkf5calendarsupport-dev:armhf (4:22.12.3-1) ...
Selecting previously unselected package libkf5calendarutils-dev:armhf.
Preparing to unpack .../133-libkf5calendarutils-dev_4%3a22.12.3-2+b1_armhf.deb ...
Unpacking libkf5calendarutils-dev:armhf (4:22.12.3-2+b1) ...
Selecting previously unselected package libkf5declarative-data.
Preparing to unpack .../134-libkf5declarative-data_5.107.0-1_all.deb ...
Unpacking libkf5declarative-data (5.107.0-1) ...
Selecting previously unselected package libkf5declarative5:armhf.
Preparing to unpack .../135-libkf5declarative5_5.107.0-1_armhf.deb ...
Unpacking libkf5declarative5:armhf (5.107.0-1) ...
Selecting previously unselected package libkf5eventviews-data.
Preparing to unpack .../136-libkf5eventviews-data_4%3a22.12.3-1_all.deb ...
Unpacking libkf5eventviews-data (4:22.12.3-1) ...
Selecting previously unselected package libkf5libkdepim-data.
Preparing to unpack .../137-libkf5libkdepim-data_4%3a22.12.3-1_all.deb ...
Unpacking libkf5libkdepim-data (4:22.12.3-1) ...
Selecting previously unselected package libkf5libkdepim5:armhf.
Preparing to unpack .../138-libkf5libkdepim5_4%3a22.12.3-1_armhf.deb ...
Unpacking libkf5libkdepim5:armhf (4:22.12.3-1) ...
Selecting previously unselected package libkgantt2:armhf.
Preparing to unpack .../139-libkgantt2_2.8.0-1_armhf.deb ...
Unpacking libkgantt2:armhf (2.8.0-1) ...
Selecting previously unselected package libkf5eventviews5abi1:armhf.
Preparing to unpack .../140-libkf5eventviews5abi1_4%3a22.12.3-1_armhf.deb ...
Unpacking libkf5eventviews5abi1:armhf (4:22.12.3-1) ...
Selecting previously unselected package libkf5eventviews-dev:armhf.
Preparing to unpack .../141-libkf5eventviews-dev_4%3a22.12.3-1_armhf.deb ...
Unpacking libkf5eventviews-dev:armhf (4:22.12.3-1) ...
Selecting previously unselected package libkf5incidenceeditor-data.
Preparing to unpack .../142-libkf5incidenceeditor-data_22.12.3-1_all.deb ...
Unpacking libkf5incidenceeditor-data (22.12.3-1) ...
Selecting previously unselected package libkf5ldap-data.
Preparing to unpack .../143-libkf5ldap-data_22.12.3-1_all.deb ...
Unpacking libkf5ldap-data (22.12.3-1) ...
Selecting previously unselected package libkf5ldap5abi1:armhf.
Preparing to unpack .../144-libkf5ldap5abi1_22.12.3-1_armhf.deb ...
Unpacking libkf5ldap5abi1:armhf (22.12.3-1) ...
Selecting previously unselected package libkf5pimcommon-data.
Preparing to unpack .../145-libkf5pimcommon-data_4%3a22.12.3-1_all.deb ...
Unpacking libkf5pimcommon-data (4:22.12.3-1) ...
Selecting previously unselected package libkf5kcmutils-data.
Preparing to unpack .../146-libkf5kcmutils-data_5.107.0-2_all.deb ...
Unpacking libkf5kcmutils-data (5.107.0-2) ...
Selecting previously unselected package libkf5kcmutilscore5:armhf.
Preparing to unpack .../147-libkf5kcmutilscore5_5.107.0-2_armhf.deb ...
Unpacking libkf5kcmutilscore5:armhf (5.107.0-2) ...
Selecting previously unselected package libkf5quickaddons5:armhf.
Preparing to unpack .../148-libkf5quickaddons5_5.107.0-1_armhf.deb ...
Unpacking libkf5quickaddons5:armhf (5.107.0-1) ...
Selecting previously unselected package libkf5kcmutils5:armhf.
Preparing to unpack .../149-libkf5kcmutils5_5.107.0-2_armhf.deb ...
Unpacking libkf5kcmutils5:armhf (5.107.0-2) ...
Selecting previously unselected package libkf5pimcommonautocorrection5:armhf.
Preparing to unpack .../150-libkf5pimcommonautocorrection5_4%3a22.12.3-1_armhf.deb ...
Unpacking libkf5pimcommonautocorrection5:armhf (4:22.12.3-1) ...
Selecting previously unselected package qml-module-org-kde-bluezqt:armhf.
Preparing to unpack .../151-qml-module-org-kde-bluezqt_5.107.0-2_armhf.deb ...
Unpacking qml-module-org-kde-bluezqt:armhf (5.107.0-2) ...
Selecting previously unselected package qml-module-org-kde-kquickcontrolsaddons:armhf.
Preparing to unpack .../152-qml-module-org-kde-kquickcontrolsaddons_5.107.0-1_armhf.deb ...
Unpacking qml-module-org-kde-kquickcontrolsaddons:armhf (5.107.0-1) ...
Selecting previously unselected package qml-module-org-kde-prison:armhf.
Preparing to unpack .../153-qml-module-org-kde-prison_5.107.0-2+b1_armhf.deb ...
Unpacking qml-module-org-kde-prison:armhf (5.107.0-2+b1) ...
Selecting previously unselected package qml-module-qt-labs-folderlistmodel:armhf.
Preparing to unpack .../154-qml-module-qt-labs-folderlistmodel_5.15.10+dfsg-2_armhf.deb ...
Unpacking qml-module-qt-labs-folderlistmodel:armhf (5.15.10+dfsg-2) ...
Selecting previously unselected package qml-module-qt-labs-settings:armhf.
Preparing to unpack .../155-qml-module-qt-labs-settings_5.15.10+dfsg-2_armhf.deb ...
Unpacking qml-module-qt-labs-settings:armhf (5.15.10+dfsg-2) ...
Selecting previously unselected package qml-module-qtqml:armhf.
Preparing to unpack .../156-qml-module-qtqml_5.15.10+dfsg-2_armhf.deb ...
Unpacking qml-module-qtqml:armhf (5.15.10+dfsg-2) ...
Selecting previously unselected package qml-module-qtquick2:armhf.
Preparing to unpack .../157-qml-module-qtquick2_5.15.10+dfsg-2_armhf.deb ...
Unpacking qml-module-qtquick2:armhf (5.15.10+dfsg-2) ...
Selecting previously unselected package qml-module-qtquick-privatewidgets:armhf.
Preparing to unpack .../158-qml-module-qtquick-privatewidgets_5.15.10-2_armhf.deb ...
Unpacking qml-module-qtquick-privatewidgets:armhf (5.15.10-2) ...
Selecting previously unselected package qml-module-qtquick-window2:armhf.
Preparing to unpack .../159-qml-module-qtquick-window2_5.15.10+dfsg-2_armhf.deb ...
Unpacking qml-module-qtquick-window2:armhf (5.15.10+dfsg-2) ...
Selecting previously unselected package qml-module-qtquick-dialogs:armhf.
Preparing to unpack .../160-qml-module-qtquick-dialogs_5.15.10-2_armhf.deb ...
Unpacking qml-module-qtquick-dialogs:armhf (5.15.10-2) ...
Selecting previously unselected package libqt5quicktemplates2-5:armhf.
Preparing to unpack .../161-libqt5quicktemplates2-5_5.15.10+dfsg-2_armhf.deb ...
Unpacking libqt5quicktemplates2-5:armhf (5.15.10+dfsg-2) ...
Selecting previously unselected package qml-module-qtquick-templates2:armhf.
Preparing to unpack .../162-qml-module-qtquick-templates2_5.15.10+dfsg-2_armhf.deb ...
Unpacking qml-module-qtquick-templates2:armhf (5.15.10+dfsg-2) ...
Selecting previously unselected package libqt5quickcontrols2-5:armhf.
Preparing to unpack .../163-libqt5quickcontrols2-5_5.15.10+dfsg-2_armhf.deb ...
Unpacking libqt5quickcontrols2-5:armhf (5.15.10+dfsg-2) ...
Selecting previously unselected package qml-module-qtquick-controls2:armhf.
Preparing to unpack .../164-qml-module-qtquick-controls2_5.15.10+dfsg-2_armhf.deb ...
Unpacking qml-module-qtquick-controls2:armhf (5.15.10+dfsg-2) ...
Selecting previously unselected package libkf5purpose5:armhf.
Preparing to unpack .../165-libkf5purpose5_5.107.0-1_armhf.deb ...
Unpacking libkf5purpose5:armhf (5.107.0-1) ...
Selecting previously unselected package libkf5purpose-bin:armhf.
Preparing to unpack .../166-libkf5purpose-bin_5.107.0-1_armhf.deb ...
Unpacking libkf5purpose-bin:armhf (5.107.0-1) ...
Selecting previously unselected package libkf5pimcommon5abi2:armhf.
Preparing to unpack .../167-libkf5pimcommon5abi2_4%3a22.12.3-1_armhf.deb ...
Unpacking libkf5pimcommon5abi2:armhf (4:22.12.3-1) ...
Selecting previously unselected package libkf5pimcommonakonadi5abi1:armhf.
Preparing to unpack .../168-libkf5pimcommonakonadi5abi1_4%3a22.12.3-1_armhf.deb ...
Unpacking libkf5pimcommonakonadi5abi1:armhf (4:22.12.3-1) ...
Selecting previously unselected package libkf5incidenceeditor5abi1:armhf.
Preparing to unpack .../169-libkf5incidenceeditor5abi1_22.12.3-1_armhf.deb ...
Unpacking libkf5incidenceeditor5abi1:armhf (22.12.3-1) ...
Selecting previously unselected package libkf5wallet-dev:armhf.
Preparing to unpack .../170-libkf5wallet-dev_5.107.0-1_armhf.deb ...
Unpacking libkf5wallet-dev:armhf (5.107.0-1) ...
Selecting previously unselected package libkf5mailtransport-dev:armhf.
Preparing to unpack .../171-libkf5mailtransport-dev_22.12.3-1_armhf.deb ...
Unpacking libkf5mailtransport-dev:armhf (22.12.3-1) ...
Selecting previously unselected package libkgantt-dev:armhf.
Preparing to unpack .../172-libkgantt-dev_2.8.0-1_armhf.deb ...
Unpacking libkgantt-dev:armhf (2.8.0-1) ...
Selecting previously unselected package libkf5incidenceeditor-dev:armhf.
Preparing to unpack .../173-libkf5incidenceeditor-dev_22.12.3-1_armhf.deb ...
Unpacking libkf5incidenceeditor-dev:armhf (22.12.3-1) ...
Setting up libkf5package-data (5.107.0-1) ...
Setting up libxapian30:armhf (1.4.22-1) ...
Setting up libkf5kcmutils-data (5.107.0-2) ...
Setting up akonadi-contacts-data (4:22.12.3-1) ...
Setting up libboost1.83-dev:armhf (1.83.0-2+b2) ...
Setting up libqt5qmlmodels5:armhf (5.15.10+dfsg-2) ...
Setting up libmpg123-0:armhf (1.32.3-1) ...
Setting up libkf5incidenceeditor-data (22.12.3-1) ...
Setting up libkf5holidays-data (1:5.107.0-1) ...
Setting up libqt5keychain1:armhf (0.14.2-1) ...
Setting up libkf5pimcommon-data (4:22.12.3-1) ...
Setting up libkf5bookmarks-data (5.107.0-1) ...
Setting up qml-module-qtqml:armhf (5.15.10+dfsg-2) ...
Setting up libkf5pimtextedit-data (22.12.3-1) ...
Setting up libdmtx0b:armhf (0.7.7-1) ...
Setting up libkf5windowsystem-dev (5.107.0-1) ...
Setting up libkf5newstuff-data (5.107.0-2) ...
Setting up libkf5bluezqt-data (5.107.0-2) ...
Setting up libsignon-qt5-1:armhf (8.61-1) ...
Setting up libkf5syntaxhighlighting-data (5.107.0-1) ...
Setting up libgrantlee-textdocument5:armhf (5.3.1-3) ...
Setting up libkf5itemviews-dev (5.107.0-1) ...
Setting up libkf5declarative-data (5.107.0-1) ...
Setting up libkf5xmlgui-data (5.107.0-1) ...
Setting up libkf5kcmutilscore5:armhf (5.107.0-2) ...
Setting up libkf5itemmodels5:armhf (5.107.0-1) ...
Setting up qml-module-qt-labs-folderlistmodel:armhf (5.15.10+dfsg-2) ...
Setting up libaccounts-glib0:armhf (1.26-1) ...
Setting up libqt5qmlworkerscript5:armhf (5.15.10+dfsg-2) ...
Setting up libkf5guiaddons-dev (5.107.0-1) ...
Setting up qml-module-qt-labs-settings:armhf (5.15.10+dfsg-2) ...
Setting up libkf5itemmodels-dev (5.107.0-1) ...
Setting up libkf5bluezqt6:armhf (5.107.0-2) ...
Setting up libkgantt2:armhf (2.8.0-1) ...
Setting up libflac12:armhf (1.4.3+ds-2+b1) ...
Setting up akonadi-mime-data (4:22.12.3-1) ...
Setting up libkf5holidays5:armhf (1:5.107.0-1) ...
Setting up libepoxy0:armhf (1.5.10-1+b2) ...
Setting up libkf5dbusaddons-dev (5.107.0-1) ...
Setting up libkf5ldap-data (22.12.3-1) ...
Setting up libzxing3:armhf (2.2.1-1) ...
Setting up libopus0:armhf (1.4-1) ...
Setting up libkf5identitymanagement5:armhf (22.12.3-1) ...
Setting up libkf5syndication5abi1:armhf (1:5.107.0-1) ...
Setting up libkf5eventviews-data (4:22.12.3-1) ...
Setting up qml-module-org-kde-bluezqt:armhf (5.107.0-2) ...
Setting up libkf5akonadi-data (4:22.12.3-1) ...
Setting up libkf5libkdepim-data (4:22.12.3-1) ...
Setting up libkf5widgetsaddons-dev (5.107.0-1) ...
Setting up libkf5mailtransport-data (22.12.3-1) ...
Setting up libkf5config-dev-bin (5.107.0-1) ...
Setting up libkf5syntaxhighlighting5:armhf (5.107.0-1) ...
Setting up libkf5auth-dev-bin (5.107.0-1) ...
Setting up libkf5globalaccel-data (5.107.0-2) ...
Setting up libkgantt-dev:armhf (2.8.0-1) ...
Setting up libasyncns0:armhf (0.8-6+b3) ...
Setting up libkf5solid-dev (5.107.0-1) ...
Setting up libgrantlee-templates5:armhf (5.3.1-3) ...
Setting up libkf5configqml5:armhf (5.107.0-1) ...
Setting up libkf5config-bin (5.107.0-1) ...
Setting up libical3:armhf (3.0.17-1) ...
Setting up libkf5config-dev:armhf (5.107.0-1) ...
Setting up libboost-dev:armhf (1.83.0.2) ...
Setting up libkf5akonadinotes5:armhf (4:22.12.3-1+b1) ...
Setting up libkf5sonnet-dev-bin (5.107.0-1) ...
Setting up libkf5akonadicalendar-data (4:22.12.3-1) ...
Setting up libkf5calendarsupport-data (4:22.12.3-1) ...
Setting up libkf5contacts-data (5:5.107.0-1) ...
Setting up libaccounts-qt5-1:armhf (1.16-2) ...
Setting up libgrantlee5-dev (5.3.1-3) ...
Setting up libqt5quick5:armhf (5.15.10+dfsg-2) ...
Setting up libkf5calendarcore5abi2:armhf (5:5.107.0-1) ...
Setting up libkf5akonadiprivate5abi2:armhf (4:22.12.3-1+b1) ...
Setting up libkf5package5:armhf (5.107.0-1) ...
Setting up libkf5auth5:armhf (5.107.0-1) ...
Setting up libmp3lame0:armhf (3.100-6+b2) ...
Setting up libvorbisenc2:armhf (1.3.7-1) ...
Setting up libxcb-record0:armhf (1.15-1) ...
Setting up libkf5attica5:armhf (5.107.0-1+b1) ...
Setting up kpackagetool5 (5.107.0-1) ...
Setting up libkf5libkdepim5:armhf (4:22.12.3-1) ...
Setting up libkf5attica-dev (5.107.0-1+b1) ...
Setting up libqt5quickshapes5:armhf (5.15.10+dfsg-2) ...
Setting up libkf5prison5:armhf (5.107.0-2+b1) ...
Setting up libkf5mailtransport5:armhf (22.12.3-1) ...
Setting up libqt5quicktest5:armhf (5.15.10+dfsg-2) ...
Setting up libkf5calendarutils5:armhf (4:22.12.3-2+b1) ...
Setting up libkf5sonnet-dev:armhf (5.107.0-1) ...
Setting up qtdeclarative5-dev-tools (5.15.10+dfsg-2) ...
Setting up libkf5wallet-dev:armhf (5.107.0-1) ...
Setting up libkf5jobwidgets-dev (5.107.0-1) ...
Setting up libkf5pimcommonautocorrection5:armhf (4:22.12.3-1) ...
Setting up qml-module-org-kde-syntaxhighlighting:armhf (5.107.0-1) ...
Setting up libkf5calendarcore-dev:armhf (5:5.107.0-1) ...
Setting up qml-module-qtquick-window2:armhf (5.15.10+dfsg-2) ...
Setting up libkf5completion-dev (5.107.0-1) ...
Setting up libkf5auth-dev:armhf (5.107.0-1) ...
Setting up qt5-qmltooling-plugins:armhf (5.15.10+dfsg-2) ...
Setting up libqt5quickwidgets5:armhf (5.15.10+dfsg-2) ...
Setting up libkf5declarative5:armhf (5.107.0-1) ...
Setting up libkf5globalaccel5:armhf (5.107.0-2) ...
Setting up libkf5quickaddons5:armhf (5.107.0-1) ...
Setting up libkf5akonadicore5abi2:armhf (4:22.12.3-1+b1) ...
Setting up libkf5ldap5abi1:armhf (22.12.3-1) ...
Setting up libkf5newstuffcore5:armhf (5.107.0-2) ...
Setting up libkf5globalaccelprivate5:armhf (5.107.0-2) ...
Setting up libkf5service-dev:armhf (5.107.0-1) ...
Setting up libkf5akonadisearchpim5:armhf (4:22.12.3-1+b1) ...
Setting up libkf5contacts5:armhf (5:5.107.0-1) ...
Setting up libkf5configwidgets-dev (5.107.0-2) ...
Setting up libkf5akonadiserver-dev (4:22.12.3-1+b1) ...
Setting up libkf5akonadixml5:armhf (4:22.12.3-1+b1) ...
Setting up libqt5quicktemplates2-5:armhf (5.15.10+dfsg-2) ...
Setting up libsndfile1:armhf (1.2.2-1) ...
Setting up libqt5quickparticles5:armhf (5.15.10+dfsg-2) ...
Setting up libkaccounts2:armhf (4:22.12.3-1) ...
Setting up qml-module-qtquick2:armhf (5.15.10+dfsg-2) ...
Setting up qml-module-qtquick-privatewidgets:armhf (5.15.10-2) ...
Setting up libkf5globalaccel-bin (5.107.0-2) ...
Setting up libkf5syntaxhighlighting-dev:armhf (5.107.0-1) ...
Setting up libkf5textwidgets-dev (5.107.0-1) ...
Setting up qml-module-org-kde-kquickcontrolsaddons:armhf (5.107.0-1) ...
Setting up libpulse0:armhf (16.1+dfsg1-3) ...
Setting up qml-module-qtquick-templates2:armhf (5.15.10+dfsg-2) ...
Setting up libkf5contacteditor5:armhf (4:22.12.3-1+b1) ...
Setting up libqt5quickcontrols2-5:armhf (5.15.10+dfsg-2) ...
Setting up libkf5xmlgui5:armhf (5.107.0-1+b1) ...
Setting up libkf5globalaccel-dev:armhf (5.107.0-2) ...
Setting up libqt5multimedia5:armhf (5.15.10-2) ...
Setting up libkf5prisonscanner5:armhf (5.107.0-2+b1) ...
Setting up libkf5kcmutils5:armhf (5.107.0-2) ...
Setting up libkf5contacts-dev:armhf (5:5.107.0-1) ...
Setting up libkf5prison-dev (5.107.0-2+b1) ...
Setting up qtdeclarative5-dev:armhf (5.15.10+dfsg-2) ...
Setting up libkf5pimtextedit5abi2:armhf (22.12.3-1) ...
Setting up libkf5bookmarks5:armhf (5.107.0-1) ...
Setting up qml-module-qtquick-dialogs:armhf (5.15.10-2) ...
Setting up libkf5iconthemes-dev (5.107.0-1+b1) ...
Setting up libkf5akonadiwidgets5abi1:armhf (4:22.12.3-1+b1) ...
Setting up libkf5pimtextedit-dev:armhf (22.12.3-1) ...
Setting up qml-module-org-kde-prison:armhf (5.107.0-2+b1) ...
Setting up qml-module-qtquick-controls2:armhf (5.15.10+dfsg-2) ...
Setting up libkf5newstuff5:armhf (5.107.0-2) ...
Setting up libkf5contacteditor-dev:armhf (4:22.12.3-1+b1) ...
Setting up libkf5purpose5:armhf (5.107.0-1) ...
Setting up libkf5purpose-bin:armhf (5.107.0-1) ...
Setting up libkf5akonadimime5:armhf (4:22.12.3-1+b1) ...
Setting up libkf5kiofilewidgets5:armhf (5.107.0-1) ...
Setting up libkf5newstuffwidgets5:armhf (5.107.0-2) ...
Setting up libkf5identitymanagementwidgets5:armhf (22.12.3-1) ...
Setting up libkf5pimcommon5abi2:armhf (4:22.12.3-1) ...
Setting up libkf5akonadiagentbase5:armhf (4:22.12.3-1+b1) ...
Setting up libkf5xmlgui-dev:armhf (5.107.0-1+b1) ...
Setting up libkf5mailtransportakonadi5:armhf (22.12.3-1) ...
Setting up libkf5identitymanagement-dev:armhf (22.12.3-1) ...
Setting up libkf5grantleetheme5:armhf (22.12.3-2+b1) ...
Setting up libkf5grantleetheme-dev:armhf (22.12.3-2+b1) ...
Setting up libkf5calendarutils-dev:armhf (4:22.12.3-2+b1) ...
Setting up libkf5bookmarks-dev (5.107.0-1) ...
Setting up libkf5akonadicontact5:armhf (4:22.12.3-1+b1) ...
Setting up libkf5pimcommonakonadi5abi1:armhf (4:22.12.3-1) ...
Setting up libkf5kio-dev (5.107.0-1) ...
Setting up libkf5akonadicalendar5abi1:armhf (4:22.12.3-1+b1) ...
Setting up libkf5calendarsupport5abi1:armhf (4:22.12.3-1) ...
Setting up libkf5akonadi-dev (4:22.12.3-1+b1) ...
Setting up libkf5eventviews5abi1:armhf (4:22.12.3-1) ...
Setting up libkf5akonadimime-dev:armhf (4:22.12.3-1+b1) ...
Setting up libkf5akonadicontact-dev:armhf (4:22.12.3-1+b1) ...
Setting up libkf5akonadicalendar-dev:armhf (4:22.12.3-1+b1) ...
Setting up libkf5incidenceeditor5abi1:armhf (22.12.3-1) ...
Setting up libkf5mailtransport-dev:armhf (22.12.3-1) ...
Setting up libkf5calendarsupport-dev:armhf (4:22.12.3-1) ...
Setting up libkf5eventviews-dev:armhf (4:22.12.3-1) ...
Setting up libkf5incidenceeditor-dev:armhf (22.12.3-1) ...
Processing triggers for libc-bin (2.37-13) ...
Processing triggers for shared-mime-info (2.4-1) ...
Reading package lists...
Building dependency tree...
Reading state information...
The following packages will be REMOVED:
  libkf5imap-dev*
0 upgraded, 0 newly installed, 1 to remove and 30 not upgraded.
After this operation, 389 kB disk space will be freed.
(Reading database ... (Reading database ... 5%(Reading database ... 10%(Reading database ... 15%(Reading database ... 20%(Reading database ... 25%(Reading database ... 30%(Reading database ... 35%(Reading database ... 40%(Reading database ... 45%(Reading database ... 50%(Reading database ... 55%(Reading database ... 60%(Reading database ... 65%(Reading database ... 70%(Reading database ... 75%(Reading database ... 80%(Reading database ... 85%(Reading database ... 90%(Reading database ... 95%(Reading database ... 100%(Reading database ... 50967 files and directories currently installed.)
Removing libkf5imap-dev:armhf (22.12.3-1) ...
