Temporary header file '/tmp/CECjN6PArI/dump1.h' with the following content will be compiled to create GCC translation unit dump:

  // add defines
  #define __STDC_VERSION__ 201710L
#define _FILE_OFFSET_BITS 64
#define _GXX_NULLPTR_T
#define CLUTTER_ENABLE_COMPOSITOR_API 1
#define _REGEX_NELTS(n)
#define _Atomic
#define PACKED
#ifdef __cplusplus
// C17 compat layer
#define _Alignof(type) alignof(type)
#endif
#define getaddrinfo_a(a,b,c,d)

  // add includes
  #include "/usr/include/yaml.h"

  // add classes
  _G_fpos64_t* tmp_add_class_0;
  _G_fpos_t* tmp_add_class_1;
  _IO_cookie_io_functions_t* tmp_add_class_2;
  yaml_alias_data_s* tmp_add_class_3;
  yaml_anchors_s* tmp_add_class_4;
  yaml_document_s* tmp_add_class_5;
  yaml_emitter_s* tmp_add_class_6;
  yaml_event_s* tmp_add_class_7;
  yaml_mark_s* tmp_add_class_8;
  yaml_node_pair_s* tmp_add_class_9;
  yaml_node_s* tmp_add_class_10;
  yaml_parser_s* tmp_add_class_11;
  yaml_simple_key_s* tmp_add_class_12;
  yaml_tag_directive_s* tmp_add_class_13;
  yaml_token_s* tmp_add_class_14;
  yaml_version_directive_s* tmp_add_class_15;

The GCC parameters:
  gcc -fdump-lang-raw -fkeep-inline-functions -c -x c++ -fpermissive -w "/tmp/CECjN6PArI/dump1.h"

