Temporary header file '/tmp/U1_uj94JfF/dump1.h' with the following content will be compiled to create GCC translation unit dump:

  // add defines
  #define __STDC_VERSION__ 201710L
#define _GXX_NULLPTR_T
#define CLUTTER_ENABLE_COMPOSITOR_API 1
#define _REGEX_NELTS(n)
#define _Atomic
#define PACKED
#ifdef __cplusplus
// C17 compat layer
#define _Alignof(type) alignof(type)
#endif
#define getaddrinfo_a(a,b,c,d)

  // add includes
  #include "/usr/include/stdlib.h"
  #include "/usr/include/stdio.h"
  #include "/usr/include/arm-linux-gnueabihf/jconfig.h"
  #include "/usr/include/jerror.h"
  #include "/usr/include/jmorecfg.h"
  #include "/usr/include/jpeglib.h"

  // add classes
  _G_fpos64_t* tmp_add_class_0;
  _G_fpos_t* tmp_add_class_1;
  _IO_cookie_io_functions_t* tmp_add_class_2;
  jpeg_common_struct* tmp_add_class_3;
  jpeg_compress_struct* tmp_add_class_4;
  jpeg_decompress_struct* tmp_add_class_5;
  jpeg_destination_mgr* tmp_add_class_6;
  jpeg_error_mgr* tmp_add_class_7;
  jpeg_marker_struct* tmp_add_class_8;
  jpeg_memory_mgr* tmp_add_class_9;
  jpeg_progress_mgr* tmp_add_class_10;
  jpeg_source_mgr* tmp_add_class_11;

The GCC parameters:
  gcc -fdump-lang-raw -fkeep-inline-functions -c -x c++ -fpermissive -w "/tmp/U1_uj94JfF/dump1.h"

