Temporary header file '/tmp/JAu858PCSS/dump1.h' with the following content will be compiled to create GCC translation unit dump:

  // add defines
  #define __STDC_VERSION__ 201710L
#define _TIME_BITS 64
#define _FILE_OFFSET_BITS 64
#define _GXX_NULLPTR_T
#define CLUTTER_ENABLE_COMPOSITOR_API 1
#define _REGEX_NELTS(n)
#define _Atomic
#define PACKED
#ifdef __cplusplus
// C17 compat layer
#define _Alignof(type) alignof(type)
#endif
#define getaddrinfo_a(a,b,c,d)

  // add includes
  #include "/usr/include/hsakmt.h"
  #include "/usr/include/hsakmttypes.h"

  // add classes
  _HSA_SVM_ATTRIBUTE* tmp_add_class_0;
  _HSA_UUID* tmp_add_class_1;
  _HaCacheProperties* tmp_add_class_2;
  _HsaAccessAttributeFailure* tmp_add_class_3;
  _HsaCComputeProperties* tmp_add_class_4;
  _HsaClockCounters* tmp_add_class_5;
  _HsaCounter* tmp_add_class_6;
  _HsaCounterBlockProperties* tmp_add_class_7;
  _HsaCounterFlags* tmp_add_class_8;
  _HsaCounterProperties* tmp_add_class_9;
  _HsaDbgWaveMessage* tmp_add_class_10;
  _HsaDbgWaveMessageAMD* tmp_add_class_11;
  _HsaDbgWaveMsgAMDGen2* tmp_add_class_12;
  _HsaDeviceStateChange* tmp_add_class_13;
  _HsaEvent* tmp_add_class_14;
  _HsaEventData* tmp_add_class_15;
  _HsaEventDescriptor* tmp_add_class_16;
  _HsaGpuTileConfig* tmp_add_class_17;
  _HsaGraphicsResourceInfo* tmp_add_class_18;
  _HsaIoLinkProperties* tmp_add_class_19;
  _HsaMemFlags* tmp_add_class_20;
  _HsaMemMapFlags* tmp_add_class_21;
  _HsaMemoryAccessFault* tmp_add_class_22;
  _HsaMemoryProperties* tmp_add_class_23;
  _HsaMemoryRange* tmp_add_class_24;
  _HsaNodeChange* tmp_add_class_25;
  _HsaNodeProperties* tmp_add_class_26;
  _HsaPmcTraceRoot* tmp_add_class_27;
  _HsaPointerInfo* tmp_add_class_28;
  _HsaQueueReport* tmp_add_class_29;
  _HsaQueueResource* tmp_add_class_30;
  _HsaSyncVar* tmp_add_class_31;
  _HsaSystemProperties* tmp_add_class_32;
  _HsaVersionInfo* tmp_add_class_33;

The GCC parameters:
  gcc -fdump-lang-raw -fkeep-inline-functions -c -x c++ -fpermissive -w "/tmp/JAu858PCSS/dump1.h"

