Temporary header file '/tmp/PUqVMvLOfH/dump1.h' with the following content will be compiled to create GCC translation unit dump:

  // add defines
  #define __STDC_VERSION__ 201710L
#define _TIME_BITS 64
#define _FILE_OFFSET_BITS 64
#define _GXX_NULLPTR_T
#define CLUTTER_ENABLE_COMPOSITOR_API 1
#define _REGEX_NELTS(n)
#define _Atomic
#define PACKED
#ifdef __cplusplus
// C17 compat layer
#define _Alignof(type) alignof(type)
#endif
#define getaddrinfo_a(a,b,c,d)

  // add includes
  #include "/usr/include/final/fconfig.h"
  #include "/usr/include/final/final.h"

  // add namespaces
  namespace finalcut{typedef int tmp_add_type_1;}
  finalcut::tmp_add_type_1 tmp_add_func_1(){return 0;};
  namespace finalcut{namespace fc{typedef int tmp_add_type_2;}}
  finalcut::fc::tmp_add_type_2 tmp_add_func_2(){return 0;};
  namespace finalcut{namespace fkeyhashmap{typedef int tmp_add_type_3;}}
  finalcut::fkeyhashmap::tmp_add_type_3 tmp_add_func_3(){return 0;};
  namespace finalcut{namespace fkeyhashmap{namespace internal{typedef int tmp_add_type_4;}}}
  finalcut::fkeyhashmap::internal::tmp_add_type_4 tmp_add_func_4(){return 0;};
  namespace finalcut{namespace flistboxhelper{typedef int tmp_add_type_5;}}
  finalcut::flistboxhelper::tmp_add_type_5 tmp_add_func_5(){return 0;};
  namespace finalcut{namespace internal{typedef int tmp_add_type_6;}}
  finalcut::internal::tmp_add_type_6 tmp_add_func_6(){return 0;};

  // add classes
  Gpm_Connect* tmp_add_class_0;
  Gpm_Event* tmp_add_class_1;
  Gpm_Roi* tmp_add_class_2;
  _G_fpos64_t* tmp_add_class_3;
  _G_fpos_t* tmp_add_class_4;
  _IO_cookie_io_functions_t* tmp_add_class_5;
  console_font* tmp_add_class_6;
  console_font_op* tmp_add_class_7;
  consolefontdesc* tmp_add_class_8;
  f_owner_ex* tmp_add_class_9;
  fb_bitfield* tmp_add_class_10;
  fb_cmap* tmp_add_class_11;
  fb_con2fbmap* tmp_add_class_12;
  fb_copyarea* tmp_add_class_13;
  fb_cursor* tmp_add_class_14;
  fb_fillrect* tmp_add_class_15;
  fb_fix_screeninfo* tmp_add_class_16;
  fb_image* tmp_add_class_17;
  fb_var_screeninfo* tmp_add_class_18;
  fb_vblank* tmp_add_class_19;
  fbcurpos* tmp_add_class_20;
  file_handle* tmp_add_class_21;
  flock64* tmp_add_class_22;
  i2c_msg* tmp_add_class_23;
  i2c_smbus_data* tmp_add_class_24;
  iovec* tmp_add_class_25;
  itimerval* tmp_add_class_26;
  kbd_repeat* tmp_add_class_27;
  kbdiacr* tmp_add_class_28;
  kbdiacrs* tmp_add_class_29;
  kbdiacrsuc* tmp_add_class_30;
  kbdiacruc* tmp_add_class_31;
  kbentry* tmp_add_class_32;
  kbkeycode* tmp_add_class_33;
  kbsentry* tmp_add_class_34;
  option* tmp_add_class_35;
  passwd* tmp_add_class_36;
  statx_timestamp* tmp_add_class_37;
  termio* tmp_add_class_38;
  termios* tmp_add_class_39;
  ttyent* tmp_add_class_40;
  ucontext_t* tmp_add_class_41;
  unimapdesc* tmp_add_class_42;
  unimapinit* tmp_add_class_43;
  unipair* tmp_add_class_44;
  winsize* tmp_add_class_45;

The GCC parameters:
  gcc -fdump-lang-raw -fkeep-inline-functions -c -x c++ -fpermissive -w "/tmp/PUqVMvLOfH/dump1.h"

