[2024-01-07T18:19:00+00:00] apt-get install libmceliece-dev abi-compliance-checker
Reading package lists...
Building dependency tree...
Reading state information...
abi-compliance-checker is already the newest version (2.3-2).
The following packages were automatically installed and are no longer required:
  icu-devtools libicu-dev libmbt-dev libmbt1 libmbtserver-dev libmbtserver1
  libpkgconf3 libtar0 libticcutils-dev libticcutils8 libtimbl-dev libtimbl4
  libxml2-dev pkg-config pkgconf pkgconf-bin
Use 'apt autoremove' to remove them.
The following additional packages will be installed:
  libmceliece1 librandombytes1
The following NEW packages will be installed:
  libmceliece-dev libmceliece1 librandombytes1
0 upgraded, 3 newly installed, 0 to remove and 27 not upgraded.
Need to get 151 kB of archives.
After this operation, 1096 kB of additional disk space will be used.
Get:1 http://deb.debian.org/debian unstable/main armhf librandombytes1 armhf 0~20230919-4 [6368 B]
Get:2 http://deb.debian.org/debian unstable/main armhf libmceliece1 armhf 0~20230612-3 [66.9 kB]
Get:3 http://deb.debian.org/debian unstable/main armhf libmceliece-dev armhf 0~20230612-3 [78.2 kB]
debconf: delaying package configuration, since apt-utils is not installed
Fetched 151 kB in 1s (283 kB/s)
Selecting previously unselected package librandombytes1:armhf.
(Reading database ... (Reading database ... 5%(Reading database ... 10%(Reading database ... 15%(Reading database ... 20%(Reading database ... 25%(Reading database ... 30%(Reading database ... 35%(Reading database ... 40%(Reading database ... 45%(Reading database ... 50%(Reading database ... 55%(Reading database ... 60%(Reading database ... 65%(Reading database ... 70%(Reading database ... 75%(Reading database ... 80%(Reading database ... 85%(Reading database ... 90%(Reading database ... 95%(Reading database ... 100%(Reading database ... 16275 files and directories currently installed.)
Preparing to unpack .../librandombytes1_0~20230919-4_armhf.deb ...
Unpacking librandombytes1:armhf (0~20230919-4) ...
Selecting previously unselected package libmceliece1:armhf.
Preparing to unpack .../libmceliece1_0~20230612-3_armhf.deb ...
Unpacking libmceliece1:armhf (0~20230612-3) ...
Selecting previously unselected package libmceliece-dev.
Preparing to unpack .../libmceliece-dev_0~20230612-3_armhf.deb ...
Unpacking libmceliece-dev (0~20230612-3) ...
Setting up librandombytes1:armhf (0~20230919-4) ...
Setting up libmceliece1:armhf (0~20230612-3) ...
Setting up libmceliece-dev (0~20230612-3) ...
Processing triggers for libc-bin (2.37-13) ...
Reading package lists...
Building dependency tree...
Reading state information...
The following packages will be REMOVED:
  icu-devtools* libicu-dev* libmbt-dev* libmbt1* libmbtserver-dev*
  libmbtserver1* libpkgconf3* libtar0* libticcutils-dev* libticcutils8*
  libtimbl-dev* libtimbl4* libxml2-dev* pkg-config* pkgconf* pkgconf-bin*
0 upgraded, 0 newly installed, 16 to remove and 27 not upgraded.
After this operation, 53.8 MB disk space will be freed.
(Reading database ... (Reading database ... 5%(Reading database ... 10%(Reading database ... 15%(Reading database ... 20%(Reading database ... 25%(Reading database ... 30%(Reading database ... 35%(Reading database ... 40%(Reading database ... 45%(Reading database ... 50%(Reading database ... 55%(Reading database ... 60%(Reading database ... 65%(Reading database ... 70%(Reading database ... 75%(Reading database ... 80%(Reading database ... 85%(Reading database ... 90%(Reading database ... 95%(Reading database ... 100%(Reading database ... 16372 files and directories currently installed.)
Removing libxml2-dev:armhf (2.9.14+dfsg-1.3+b2) ...
Removing libicu-dev:armhf (72.1-4) ...
Removing icu-devtools (72.1-4) ...
Removing libmbt-dev:armhf (3.6-3) ...
Removing libmbtserver-dev (0.14-2) ...
Removing libmbtserver1 (0.14-2) ...
Removing libmbt1:armhf (3.6-3) ...
Removing pkg-config:armhf (1.8.1-1+b2) ...
Removing pkgconf:armhf (1.8.1-1+b2) ...
Removing pkgconf-bin (1.8.1-1+b2) ...
Removing libpkgconf3:armhf (1.8.1-1+b2) ...
Removing libticcutils-dev:armhf (0.24-2+b3) ...
Removing libtimbl-dev:armhf (6.5-3) ...
Removing libtimbl4:armhf (6.5-3) ...
Removing libticcutils8:armhf (0.24-2+b3) ...
Removing libtar0:armhf (1.2.20-8+b1) ...
Processing triggers for libc-bin (2.37-13) ...
(Reading database ... (Reading database ... 5%(Reading database ... 10%(Reading database ... 15%(Reading database ... 20%(Reading database ... 25%(Reading database ... 30%(Reading database ... 35%(Reading database ... 40%(Reading database ... 45%(Reading database ... 50%(Reading database ... 55%(Reading database ... 60%(Reading database ... 65%(Reading database ... 70%(Reading database ... 75%(Reading database ... 80%(Reading database ... 85%(Reading database ... 90%(Reading database ... 95%(Reading database ... 100%(Reading database ... 15896 files and directories currently installed.)
Purging configuration files for pkgconf:armhf (1.8.1-1+b2) ...
Purging configuration files for pkg-config:armhf (1.8.1-1+b2) ...
