Temporary header file '/tmp/pxZtSRPoq0/dump1.h' with the following content will be compiled to create GCC translation unit dump:

  // add defines
  #define __STDC_VERSION__ 201710L
#define _TIME_BITS 64
#define _FILE_OFFSET_BITS 64
#define _GXX_NULLPTR_T
#define CLUTTER_ENABLE_COMPOSITOR_API 1
#define _REGEX_NELTS(n)
#define _Atomic
#define PACKED
#ifdef __cplusplus
// C17 compat layer
#define _Alignof(type) alignof(type)
#endif
#define getaddrinfo_a(a,b,c,d)

  // add includes
  #include "/usr/include/tslib.h"

  // add classes
  itimerval* tmp_add_class_0;
  ts_lib_version_data* tmp_add_class_1;
  ts_module_conf* tmp_add_class_2;
  ts_sample* tmp_add_class_3;
  ts_sample_mt* tmp_add_class_4;

The GCC parameters:
  gcc -fdump-lang-raw -fkeep-inline-functions -c -x c++ -fpermissive -w "/tmp/pxZtSRPoq0/dump1.h"

