[2024-01-31T18:09:54+00:00] apt-get install lcmaps-openssl-interface abi-compliance-checker
Reading package lists...
Building dependency tree...
Reading state information...
lcmaps-openssl-interface is already the newest version (1.6.6-3).
lcmaps-openssl-interface set to manually installed.
abi-compliance-checker is already the newest version (2.3-2).
The following packages were automatically installed and are no longer required:
  lcmaps-globus-interface libglobus-common-dev libglobus-common0
  libglobus-gsi-callback-dev libglobus-gsi-callback0
  libglobus-gsi-cert-utils-dev libglobus-gsi-cert-utils0
  libglobus-gsi-credential-dev libglobus-gsi-credential1
  libglobus-gsi-openssl-error-dev libglobus-gsi-openssl-error0
  libglobus-gsi-proxy-core-dev libglobus-gsi-proxy-core0
  libglobus-gsi-proxy-ssl-dev libglobus-gsi-proxy-ssl1
  libglobus-gsi-sysconfig-dev libglobus-gsi-sysconfig1
  libglobus-gssapi-gsi-dev libglobus-gssapi-gsi4 libglobus-openssl-module-dev
  libglobus-openssl-module0 libltdl-dev libltdl7
Use 'apt autoremove' to remove them.
0 upgraded, 0 newly installed, 0 to remove and 53 not upgraded.
Reading package lists...
Building dependency tree...
Reading state information...
The following packages will be REMOVED:
  lcmaps-globus-interface* libglobus-common-dev* libglobus-common0*
  libglobus-gsi-callback-dev* libglobus-gsi-callback0*
  libglobus-gsi-cert-utils-dev* libglobus-gsi-cert-utils0*
  libglobus-gsi-credential-dev* libglobus-gsi-credential1*
  libglobus-gsi-openssl-error-dev* libglobus-gsi-openssl-error0*
  libglobus-gsi-proxy-core-dev* libglobus-gsi-proxy-core0*
  libglobus-gsi-proxy-ssl-dev* libglobus-gsi-proxy-ssl1*
  libglobus-gsi-sysconfig-dev* libglobus-gsi-sysconfig1*
  libglobus-gssapi-gsi-dev* libglobus-gssapi-gsi4*
  libglobus-openssl-module-dev* libglobus-openssl-module0* libltdl-dev*
  libltdl7*
0 upgraded, 0 newly installed, 23 to remove and 53 not upgraded.
After this operation, 3329 kB disk space will be freed.
(Reading database ... (Reading database ... 5%(Reading database ... 10%(Reading database ... 15%(Reading database ... 20%(Reading database ... 25%(Reading database ... 30%(Reading database ... 35%(Reading database ... 40%(Reading database ... 45%(Reading database ... 50%(Reading database ... 55%(Reading database ... 60%(Reading database ... 65%(Reading database ... 70%(Reading database ... 75%(Reading database ... 80%(Reading database ... 85%(Reading database ... 90%(Reading database ... 95%(Reading database ... 100%(Reading database ... 20186 files and directories currently installed.)
Removing lcmaps-globus-interface (1.6.6-3) ...
Removing libglobus-gssapi-gsi-dev:armhf (14.20-2) ...
Removing libglobus-gsi-proxy-core-dev:armhf (9.8-2) ...
Removing libglobus-gsi-credential-dev:armhf (8.3-3) ...
Removing libglobus-gsi-callback-dev:armhf (6.2-2) ...
Removing libglobus-gsi-sysconfig-dev:armhf (9.5-2) ...
Removing libglobus-gsi-cert-utils-dev:armhf (10.10-3) ...
Removing libglobus-gssapi-gsi4:armhf (14.20-2) ...
Removing libglobus-gsi-proxy-core0:armhf (9.8-2) ...
Removing libglobus-gsi-credential1:armhf (8.3-3) ...
Removing libglobus-gsi-callback0:armhf (6.2-2) ...
Removing libglobus-gsi-cert-utils0:armhf (10.10-3) ...
Removing libglobus-openssl-module-dev:armhf (5.2-2) ...
Removing libglobus-gsi-openssl-error-dev:armhf (4.4-2) ...
Removing libglobus-common-dev:armhf (18.13-2) ...
Removing libglobus-openssl-module0:armhf (5.2-2) ...
Removing libglobus-gsi-sysconfig1:armhf (9.5-2) ...
Removing libglobus-gsi-openssl-error0:armhf (4.4-2) ...
Removing libglobus-gsi-proxy-ssl-dev:armhf (6.5-2) ...
Removing libglobus-gsi-proxy-ssl1:armhf (6.5-2) ...
Removing libltdl-dev:armhf (2.4.7-7) ...
Removing libglobus-common0:armhf (18.13-2) ...
Removing libltdl7:armhf (2.4.7-7) ...
Processing triggers for libc-bin (2.37-13) ...
(Reading database ... (Reading database ... 5%(Reading database ... 10%(Reading database ... 15%(Reading database ... 20%(Reading database ... 25%(Reading database ... 30%(Reading database ... 35%(Reading database ... 40%(Reading database ... 45%(Reading database ... 50%(Reading database ... 55%(Reading database ... 60%(Reading database ... 65%(Reading database ... 70%(Reading database ... 75%(Reading database ... 80%(Reading database ... 85%(Reading database ... 90%(Reading database ... 95%(Reading database ... 100%(Reading database ... 19936 files and directories currently installed.)
Purging configuration files for libglobus-gssapi-gsi4:armhf (14.20-2) ...
