Temporary header file '/tmp/s77d6UWgFR/dump1.h' with the following content will be compiled to create GCC translation unit dump:

  // add defines
  #define __STDC_VERSION__ 201710L
#define _TIME_BITS 64
#define _FILE_OFFSET_BITS 64
#define _GXX_NULLPTR_T
#define CLUTTER_ENABLE_COMPOSITOR_API 1
#define _REGEX_NELTS(n)
#define _Atomic
#define PACKED
#ifdef __cplusplus
// C17 compat layer
#define _Alignof(type) alignof(type)
#endif
#define getaddrinfo_a(a,b,c,d)

  // add includes
  #include "/usr/include/arm-linux-gnueabihf/robottestingframework/Arguments.h"
  #include "/usr/include/arm-linux-gnueabihf/robottestingframework/Asserter.h"
  #include "/usr/include/arm-linux-gnueabihf/robottestingframework/ConsoleListener.h"
  #include "/usr/include/arm-linux-gnueabihf/robottestingframework/Exception.h"
  #include "/usr/include/arm-linux-gnueabihf/robottestingframework/FixtureManager.h"
  #include "/usr/include/arm-linux-gnueabihf/robottestingframework/PluginLoader.h"
  #include "/usr/include/arm-linux-gnueabihf/robottestingframework/ResultEvent.h"
  #include "/usr/include/arm-linux-gnueabihf/robottestingframework/Test.h"
  #include "/usr/include/arm-linux-gnueabihf/robottestingframework/TestAssert.h"
  #include "/usr/include/arm-linux-gnueabihf/robottestingframework/TestCase.h"
  #include "/usr/include/arm-linux-gnueabihf/robottestingframework/TestListener.h"
  #include "/usr/include/arm-linux-gnueabihf/robottestingframework/TestMessage.h"
  #include "/usr/include/arm-linux-gnueabihf/robottestingframework/TestResult.h"
  #include "/usr/include/arm-linux-gnueabihf/robottestingframework/TestResultCollector.h"
  #include "/usr/include/arm-linux-gnueabihf/robottestingframework/TestRunner.h"
  #include "/usr/include/arm-linux-gnueabihf/robottestingframework/TestSuite.h"
  #include "/usr/include/arm-linux-gnueabihf/robottestingframework/TextOutputter.h"
  #include "/usr/include/arm-linux-gnueabihf/robottestingframework/WebProgressListener.h"
  #include "/usr/include/arm-linux-gnueabihf/robottestingframework/dll/DllFixturePluginLoader.h"
  #include "/usr/include/arm-linux-gnueabihf/robottestingframework/dll/DllPluginLoader.h"
  #include "/usr/include/arm-linux-gnueabihf/robottestingframework/dll/Plugin.h"
  #include "/usr/include/arm-linux-gnueabihf/robottestingframework/dll/SharedLibrary.h"
  #include "/usr/include/arm-linux-gnueabihf/robottestingframework/dll/SharedLibraryClass.h"
  #include "/usr/include/arm-linux-gnueabihf/robottestingframework/dll/SharedLibraryClassApi.h"
  #include "/usr/include/arm-linux-gnueabihf/robottestingframework/dll/SharedLibraryClassFactory.h"
  #include "/usr/include/arm-linux-gnueabihf/robottestingframework/dll/SharedLibraryFactory.h"
  #include "/usr/include/arm-linux-gnueabihf/robottestingframework/dll/Vocab.h"
  #include "/usr/include/arm-linux-gnueabihf/robottestingframework/dll/robottestingframework_dll_config.h"
  #include "/usr/include/arm-linux-gnueabihf/robottestingframework/lua/LuaPluginLoader.h"
  #include "/usr/include/arm-linux-gnueabihf/robottestingframework/ruby/RubyPluginLoader.h"

  // add namespaces
  namespace robottestingframework{typedef int tmp_add_type_1;}
  robottestingframework::tmp_add_type_1 tmp_add_func_1(){return 0;};
  namespace robottestingframework{namespace plugin{typedef int tmp_add_type_2;}}
  robottestingframework::plugin::tmp_add_type_2 tmp_add_func_2(){return 0;};
  namespace shlibpp{typedef int tmp_add_type_3;}
  shlibpp::tmp_add_type_3 tmp_add_func_3(){return 0;};

  // add classes
  _G_fpos64_t* tmp_add_class_0;
  _G_fpos_t* tmp_add_class_1;
  _IO_cookie_io_functions_t* tmp_add_class_2;

The GCC parameters:
  gcc -fdump-lang-raw -fkeep-inline-functions -c -x c++ -fpermissive -w "/tmp/s77d6UWgFR/dump1.h"

