[2024-02-21T01:23:07+00:00] apt-get install libopenraw-dev abi-compliance-checker
Reading package lists...
Building dependency tree...
Reading state information...
abi-compliance-checker is already the newest version (2.3-2).
The following packages were automatically installed and are no longer required:
  libmpg123-0 libmpg123-dev libogg-dev libogg0 libopenmpt-dev libopenmpt0
  libout123-0 libsyn123-0 libvorbis-dev libvorbis0a libvorbisenc2
  libvorbisfile3 zlib1g-dev
Use 'apt autoremove' to remove them.
The following additional packages will be installed:
  libjpeg62-turbo libopenraw7
The following NEW packages will be installed:
  libjpeg62-turbo libopenraw-dev libopenraw7
0 upgraded, 3 newly installed, 0 to remove and 33 not upgraded.
Need to get 474 kB of archives.
After this operation, 1769 kB of additional disk space will be used.
Get:1 http://deb.debian.org/debian unstable/main armhf libjpeg62-turbo armhf 1:2.1.5-2+b2 [143 kB]
Get:2 http://deb.debian.org/debian unstable/main armhf libopenraw7 armhf 0.1.2-0.3 [129 kB]
Get:3 http://deb.debian.org/debian unstable/main armhf libopenraw-dev armhf 0.1.2-0.3 [201 kB]
debconf: delaying package configuration, since apt-utils is not installed
Fetched 474 kB in 0s (3516 kB/s)
Selecting previously unselected package libjpeg62-turbo:armhf.
(Reading database ... (Reading database ... 5%(Reading database ... 10%(Reading database ... 15%(Reading database ... 20%(Reading database ... 25%(Reading database ... 30%(Reading database ... 35%(Reading database ... 40%(Reading database ... 45%(Reading database ... 50%(Reading database ... 55%(Reading database ... 60%(Reading database ... 65%(Reading database ... 70%(Reading database ... 75%(Reading database ... 80%(Reading database ... 85%(Reading database ... 90%(Reading database ... 95%(Reading database ... 100%(Reading database ... 18460 files and directories currently installed.)
Preparing to unpack .../libjpeg62-turbo_1%3a2.1.5-2+b2_armhf.deb ...
Unpacking libjpeg62-turbo:armhf (1:2.1.5-2+b2) ...
Selecting previously unselected package libopenraw7:armhf.
Preparing to unpack .../libopenraw7_0.1.2-0.3_armhf.deb ...
Unpacking libopenraw7:armhf (0.1.2-0.3) ...
Selecting previously unselected package libopenraw-dev:armhf.
Preparing to unpack .../libopenraw-dev_0.1.2-0.3_armhf.deb ...
Unpacking libopenraw-dev:armhf (0.1.2-0.3) ...
Setting up libjpeg62-turbo:armhf (1:2.1.5-2+b2) ...
Setting up libopenraw7:armhf (0.1.2-0.3) ...
Setting up libopenraw-dev:armhf (0.1.2-0.3) ...
Processing triggers for libc-bin (2.37-15) ...
Reading package lists...
Building dependency tree...
Reading state information...
The following packages will be REMOVED:
  libmpg123-0* libmpg123-dev* libogg-dev* libogg0* libopenmpt-dev*
  libopenmpt0* libout123-0* libsyn123-0* libvorbis-dev* libvorbis0a*
  libvorbisenc2* libvorbisfile3* zlib1g-dev*
0 upgraded, 0 newly installed, 13 to remove and 33 not upgraded.
After this operation, 6561 kB disk space will be freed.
(Reading database ... (Reading database ... 5%(Reading database ... 10%(Reading database ... 15%(Reading database ... 20%(Reading database ... 25%(Reading database ... 30%(Reading database ... 35%(Reading database ... 40%(Reading database ... 45%(Reading database ... 50%(Reading database ... 55%(Reading database ... 60%(Reading database ... 65%(Reading database ... 70%(Reading database ... 75%(Reading database ... 80%(Reading database ... 85%(Reading database ... 90%(Reading database ... 95%(Reading database ... 100%(Reading database ... 18505 files and directories currently installed.)
Removing libopenmpt-dev:armhf (0.7.3-1) ...
Removing libmpg123-dev:armhf (1.32.4-1) ...
Removing libopenmpt0:armhf (0.7.3-1) ...
Removing libmpg123-0:armhf (1.32.4-1) ...
Removing libvorbis-dev:armhf (1.3.7-1) ...
Removing libogg-dev:armhf (1.3.5-3) ...
Removing libvorbisfile3:armhf (1.3.7-1) ...
Removing libvorbisenc2:armhf (1.3.7-1) ...
Removing libvorbis0a:armhf (1.3.7-1) ...
Removing libogg0:armhf (1.3.5-3) ...
Removing libout123-0:armhf (1.32.4-1) ...
Removing libsyn123-0:armhf (1.32.4-1) ...
Removing zlib1g-dev:armhf (1:1.3.dfsg-3+b1) ...
Processing triggers for libc-bin (2.37-15) ...
