[2024-01-07T09:59:59+00:00] apt-get install libglib2.0-dev abi-compliance-checker
Reading package lists...
Building dependency tree...
Reading state information...
libglib2.0-dev is already the newest version (2.78.3-1).
libglib2.0-dev set to manually installed.
abi-compliance-checker is already the newest version (2.3-2).
The following packages were automatically installed and are no longer required:
  libglib-testing-0-0 libglib-testing-0-dev
Use 'apt autoremove' to remove them.
0 upgraded, 0 newly installed, 0 to remove and 40 not upgraded.
Reading package lists...
Building dependency tree...
Reading state information...
The following packages will be REMOVED:
  libglib-testing-0-0* libglib-testing-0-dev*
0 upgraded, 0 newly installed, 2 to remove and 40 not upgraded.
After this operation, 75.8 kB disk space will be freed.
(Reading database ... (Reading database ... 5%(Reading database ... 10%(Reading database ... 15%(Reading database ... 20%(Reading database ... 25%(Reading database ... 30%(Reading database ... 35%(Reading database ... 40%(Reading database ... 45%(Reading database ... 50%(Reading database ... 55%(Reading database ... 60%(Reading database ... 65%(Reading database ... 70%(Reading database ... 75%(Reading database ... 80%(Reading database ... 85%(Reading database ... 90%(Reading database ... 95%(Reading database ... 100%(Reading database ... 16071 files and directories currently installed.)
Removing libglib-testing-0-dev:armhf (0.1.1-1) ...
Removing libglib-testing-0-0:armhf (0.1.1-1) ...
Processing triggers for libc-bin (2.37-13) ...
