[2024-01-07T12:36:23+00:00] apt-get install libint2-dev libbtas-dev liblapack-dev abi-compliance-checker
Reading package lists...
Building dependency tree...
Reading state information...
libint2-dev is already the newest version (2.7.2-1).
libint2-dev set to manually installed.
libbtas-dev is already the newest version (0.0+git20221014.147bf4d4-1).
libbtas-dev set to manually installed.
liblapack-dev is already the newest version (3.11.0-2).
liblapack-dev set to manually installed.
abi-compliance-checker is already the newest version (2.3-2).
0 upgraded, 0 newly installed, 0 to remove and 34 not upgraded.
Reading package lists...
Building dependency tree...
Reading state information...
0 upgraded, 0 newly installed, 0 to remove and 34 not upgraded.
