[2024-01-08T05:59:18+00:00] apt-get install librobot-state-publisher-dev abi-compliance-checker
Reading package lists...
Building dependency tree...
Reading state information...
abi-compliance-checker is already the newest version (2.3-2).
The following packages were automatically installed and are no longer required:
  libroaring-dev libroaring0
Use 'apt autoremove' to remove them.
The following additional packages will be installed:
  ament-cmake ament-cmake-core ament-cmake-python cmake cmake-data
  docutils-common icu-devtools libactionlib-dev libactionlib-msgs-dev
  libactionlib1d libament-index-cpp-dev libament-index-cpp0d libapr1
  libapr1-dev libaprutil1 libaprutil1-dbd-sqlite3 libaprutil1-dev libarchive13
  libb64-0d libb64-dev libboost-atomic1.83-dev libboost-atomic1.83.0
  libboost-chrono1.83-dev libboost-chrono1.83.0 libboost-date-time1.83-dev
  libboost-date-time1.83.0 libboost-dev libboost-filesystem-dev
  libboost-filesystem1.83-dev libboost-filesystem1.83.0
  libboost-program-options-dev libboost-program-options1.83-dev
  libboost-program-options1.83.0 libboost-regex-dev libboost-regex1.83-dev
  libboost-regex1.83.0 libboost-serialization1.83-dev
  libboost-serialization1.83.0 libboost-system-dev libboost-system1.83-dev
  libboost-system1.83.0 libboost-thread-dev libboost-thread1.83-dev
  libboost-thread1.83.0 libboost1.83-dev libbrotli1 libclass-loader-dev
  libclass-loader3d libconsole-bridge-dev libconsole-bridge1.0 libcpp-common0d
  libcurl4 libeigen3-dev libexpat1-dev libgeometry-msgs-dev libicu-dev
  libjoint-state-listener1d libjsoncpp25 libkdl-parser-dev libkdl-parser1d
  libldap-dev libldap2-dev liblog4cxx-dev liblog4cxx15 libmessage-filters-dev
  libmessage-filters1d libnghttp2-14 liborocos-kdl-dev liborocos-kdl1.5
  libpkgconf3 libpsl5 libpython3.11 librcpputils-dev librcpputils1d
  librcutils-dev librcutils1d librhash0 librobot-state-publisher-solver1d
  libros-rosgraph-msgs-dev librosconsole-bridge-dev librosconsole-bridge0d
  librosconsole-dev librosconsole3d libroscpp-core-dev libroscpp-dev
  libroscpp-msg-dev libroscpp-serialization0d libroscpp4d libroslib-dev
  libroslib0d librospack-dev librospack0d librostime1d librtmp1 libsctp-dev
  libsctp1 libsensor-msgs-dev libssh2-1 libstd-msgs-dev libtf2-2d libtf2-dev
  libtf2-geometry-msgs-dev libtf2-kdl-dev libtf2-msgs-dev libtf2-ros-dev
  libtf2-ros1d libtinyxml-dev libtinyxml2-10 libtinyxml2-9 libtinyxml2-dev
  libtinyxml2.6.2v5 liburdf-dev liburdf1d liburdfdom-dev
  liburdfdom-headers-dev liburdfdom-model-state3.0 liburdfdom-model3.0
  liburdfdom-sensor3.0 liburdfdom-world3.0 libuv1 libxmlrpcpp-dev
  libxmlrpcpp3d lsb-release pkg-config pkgconf pkgconf-bin pluginlib-dev
  python3-ament-cmake-test python3-ament-package python3-catkin-pkg
  python3-dateutil python3-distro python3-distutils python3-docutils
  python3-empy python3-gencpp python3-genlisp python3-genmsg python3-genpy
  python3-lib2to3 python3-pkg-resources python3-pyparsing python3-roman
  python3-rospkg python3-rosunit python3-setuptools python3-six python3-yaml
  ros-cmake-modules ros-environment ros-message-generation ros-message-runtime
  sgml-base uuid-dev xml-core
Suggested packages:
  cmake-doc cmake-format elpa-cmake-mode ninja-build lrzip libboost-doc
  libboost1.83-doc libboost-container1.83-dev libboost-context1.83-dev
  libboost-contract1.83-dev libboost-coroutine1.83-dev
  libboost-exception1.83-dev libboost-fiber1.83-dev
  libboost-graph-parallel1.83-dev libboost-graph1.83-dev
  libboost-iostreams1.83-dev libboost-json1.83-dev libboost-locale1.83-dev
  libboost-log1.83-dev libboost-math1.83-dev libboost-mpi-python1.83-dev
  libboost-mpi1.83-dev libboost-nowide1.83-dev libboost-numpy1.83-dev
  libboost-python1.83-dev libboost-random1.83-dev libboost-stacktrace1.83-dev
  libboost-test1.83-dev libboost-timer1.83-dev libboost-type-erasure1.83-dev
  libboost-url1.83-dev libboost-wave1.83-dev libboost1.83-tools-dev
  libmpfrc++-dev libntl-dev libeigen3-doc icu-doc liblog4cxx-doc zip
  lksctp-tools libtinyxml-doc docutils-doc fonts-linuxlibertine
  | ttf-linux-libertine texlive-lang-french texlive-latex-base
  texlive-latex-recommended python-pyparsing-doc python-setuptools-doc
  sgml-base-doc debhelper
Recommended packages:
  ca-certificates publicsuffix libpaper-utils python3-pil python3-pygments
The following NEW packages will be installed:
  ament-cmake ament-cmake-core ament-cmake-python cmake cmake-data
  docutils-common icu-devtools libactionlib-dev libactionlib-msgs-dev
  libactionlib1d libament-index-cpp-dev libament-index-cpp0d libapr1
  libapr1-dev libaprutil1 libaprutil1-dbd-sqlite3 libaprutil1-dev libarchive13
  libb64-0d libb64-dev libboost-atomic1.83-dev libboost-atomic1.83.0
  libboost-chrono1.83-dev libboost-chrono1.83.0 libboost-date-time1.83-dev
  libboost-date-time1.83.0 libboost-dev libboost-filesystem-dev
  libboost-filesystem1.83-dev libboost-filesystem1.83.0
  libboost-program-options-dev libboost-program-options1.83-dev
  libboost-program-options1.83.0 libboost-regex-dev libboost-regex1.83-dev
  libboost-regex1.83.0 libboost-serialization1.83-dev
  libboost-serialization1.83.0 libboost-system-dev libboost-system1.83-dev
  libboost-system1.83.0 libboost-thread-dev libboost-thread1.83-dev
  libboost-thread1.83.0 libboost1.83-dev libbrotli1 libclass-loader-dev
  libclass-loader3d libconsole-bridge-dev libconsole-bridge1.0 libcpp-common0d
  libcurl4 libeigen3-dev libexpat1-dev libgeometry-msgs-dev libicu-dev
  libjoint-state-listener1d libjsoncpp25 libkdl-parser-dev libkdl-parser1d
  libldap-dev libldap2-dev liblog4cxx-dev liblog4cxx15 libmessage-filters-dev
  libmessage-filters1d libnghttp2-14 liborocos-kdl-dev liborocos-kdl1.5
  libpkgconf3 libpsl5 libpython3.11 librcpputils-dev librcpputils1d
  librcutils-dev librcutils1d librhash0 librobot-state-publisher-dev
  librobot-state-publisher-solver1d libros-rosgraph-msgs-dev
  librosconsole-bridge-dev librosconsole-bridge0d librosconsole-dev
  librosconsole3d libroscpp-core-dev libroscpp-dev libroscpp-msg-dev
  libroscpp-serialization0d libroscpp4d libroslib-dev libroslib0d
  librospack-dev librospack0d librostime1d librtmp1 libsctp-dev libsctp1
  libsensor-msgs-dev libssh2-1 libstd-msgs-dev libtf2-2d libtf2-dev
  libtf2-geometry-msgs-dev libtf2-kdl-dev libtf2-msgs-dev libtf2-ros-dev
  libtf2-ros1d libtinyxml-dev libtinyxml2-10 libtinyxml2-9 libtinyxml2-dev
  libtinyxml2.6.2v5 liburdf-dev liburdf1d liburdfdom-dev
  liburdfdom-headers-dev liburdfdom-model-state3.0 liburdfdom-model3.0
  liburdfdom-sensor3.0 liburdfdom-world3.0 libuv1 libxmlrpcpp-dev
  libxmlrpcpp3d lsb-release pkg-config pkgconf pkgconf-bin pluginlib-dev
  python3-ament-cmake-test python3-ament-package python3-catkin-pkg
  python3-dateutil python3-distro python3-distutils python3-docutils
  python3-empy python3-gencpp python3-genlisp python3-genmsg python3-genpy
  python3-lib2to3 python3-pkg-resources python3-pyparsing python3-roman
  python3-rospkg python3-rosunit python3-setuptools python3-six python3-yaml
  ros-cmake-modules ros-environment ros-message-generation ros-message-runtime
  sgml-base uuid-dev xml-core
0 upgraded, 156 newly installed, 0 to remove and 24 not upgraded.
Need to get 44.9 MB of archives.
After this operation, 343 MB of additional disk space will be used.
Get:1 http://deb.debian.org/debian unstable/main armhf sgml-base all 1.31 [15.4 kB]
Get:2 http://deb.debian.org/debian unstable/main armhf libarchive13 armhf 3.7.2-1 [301 kB]
Get:3 http://deb.debian.org/debian unstable/main armhf libbrotli1 armhf 1.1.0-2+b3 [284 kB]
Get:4 http://deb.debian.org/debian unstable/main armhf libnghttp2-14 armhf 1.58.0-1 [61.9 kB]
Get:5 http://deb.debian.org/debian unstable/main armhf libpsl5 armhf 0.21.2-1+b1 [57.8 kB]
Get:6 http://deb.debian.org/debian unstable/main armhf librtmp1 armhf 2.4+20151223.gitfa8646d.1-2+b2 [55.2 kB]
Get:7 http://deb.debian.org/debian unstable/main armhf libssh2-1 armhf 1.11.0-4 [197 kB]
Get:8 http://deb.debian.org/debian unstable/main armhf libcurl4 armhf 8.5.0-2 [383 kB]
Get:9 http://deb.debian.org/debian unstable/main armhf libjsoncpp25 armhf 1.9.5-6+b2 [69.9 kB]
Get:10 http://deb.debian.org/debian unstable/main armhf librhash0 armhf 1.4.3-3 [146 kB]
Get:11 http://deb.debian.org/debian unstable/main armhf libuv1 armhf 1.46.0-3 [130 kB]
Get:12 http://deb.debian.org/debian unstable/main armhf cmake-data all 3.28.1-1 [2127 kB]
Get:13 http://deb.debian.org/debian unstable/main armhf cmake armhf 3.28.1-1 [5132 kB]
Get:14 http://deb.debian.org/debian unstable/main armhf python3-ament-package all 0.16.2-1 [16.4 kB]
Get:15 http://deb.debian.org/debian unstable/main armhf python3-six all 1.16.0-4 [17.5 kB]
Get:16 http://deb.debian.org/debian unstable/main armhf python3-dateutil all 2.8.2-3 [78.4 kB]
Get:17 http://deb.debian.org/debian unstable/main armhf xml-core all 0.19 [20.1 kB]
Get:18 http://deb.debian.org/debian unstable/main armhf docutils-common all 0.20.1+dfsg-3 [128 kB]
Get:19 http://deb.debian.org/debian unstable/main armhf python3-roman all 3.3-3 [9880 B]
Get:20 http://deb.debian.org/debian unstable/main armhf python3-docutils all 0.20.1+dfsg-3 [389 kB]
Get:21 http://deb.debian.org/debian unstable/main armhf python3-pkg-resources all 68.1.2-2 [241 kB]
Get:22 http://deb.debian.org/debian unstable/main armhf python3-pyparsing all 3.1.1-1 [145 kB]
Get:23 http://deb.debian.org/debian unstable/main armhf python3-catkin-pkg all 1.0.0-2 [48.6 kB]
Get:24 http://deb.debian.org/debian unstable/main armhf ament-cmake-core all 2.3.2-1 [23.1 kB]
Get:25 http://deb.debian.org/debian unstable/main armhf python3-lib2to3 all 3.11.5-1 [77.5 kB]
Get:26 http://deb.debian.org/debian unstable/main armhf python3-distutils all 3.11.5-1 [131 kB]
Get:27 http://deb.debian.org/debian unstable/main armhf python3-setuptools all 68.1.2-2 [468 kB]
Get:28 http://deb.debian.org/debian unstable/main armhf ament-cmake-python all 2.3.2-1 [7712 B]
Get:29 http://deb.debian.org/debian unstable/main armhf python3-ament-cmake-test all 2.3.2-1 [11.4 kB]
Get:30 http://deb.debian.org/debian unstable/main armhf ament-cmake all 2.3.2-1 [28.2 kB]
Get:31 http://deb.debian.org/debian unstable/main armhf icu-devtools armhf 72.1-4 [184 kB]
Get:32 http://deb.debian.org/debian unstable/main armhf libboost-chrono1.83.0 armhf 1.83.0-2+b2 [238 kB]
Get:33 http://deb.debian.org/debian unstable/main armhf libboost-filesystem1.83.0 armhf 1.83.0-2+b2 [271 kB]
Get:34 http://deb.debian.org/debian unstable/main armhf libboost-thread1.83.0 armhf 1.83.0-2+b2 [261 kB]
Get:35 http://deb.debian.org/debian unstable/main armhf libapr1 armhf 1.7.2-3+b2 [83.7 kB]
Get:36 http://deb.debian.org/debian unstable/main armhf libaprutil1 armhf 1.6.3-1+b1 [77.9 kB]
Get:37 http://deb.debian.org/debian unstable/main armhf libaprutil1-dbd-sqlite3 armhf 1.6.3-1+b1 [12.5 kB]
Get:38 http://deb.debian.org/debian unstable/main armhf liblog4cxx15 armhf 1.1.0-1 [415 kB]
Get:39 http://deb.debian.org/debian unstable/main armhf librostime1d armhf 0.7.3-1 [25.6 kB]
Get:40 http://deb.debian.org/debian unstable/main armhf librosconsole3d armhf 1.14.3-11+b1 [133 kB]
Get:41 http://deb.debian.org/debian unstable/main armhf libconsole-bridge1.0 armhf 1.0.1+dfsg2-3+b1 [10.8 kB]
Get:42 http://deb.debian.org/debian unstable/main armhf libcpp-common0d armhf 0.7.3-1 [13.9 kB]
Get:43 http://deb.debian.org/debian unstable/main armhf libroscpp-serialization0d armhf 0.7.3-1 [5668 B]
Get:44 http://deb.debian.org/debian unstable/main armhf libb64-0d armhf 1.2-5+b1 [9504 B]
Get:45 http://deb.debian.org/debian unstable/main armhf libxmlrpcpp3d armhf 1.16.0+ds-3+b2 [46.3 kB]
Get:46 http://deb.debian.org/debian unstable/main armhf libroscpp4d armhf 1.16.0+ds-3+b2 [414 kB]
Get:47 http://deb.debian.org/debian unstable/main armhf libactionlib1d armhf 1.14.0-6+b1 [27.4 kB]
Get:48 http://deb.debian.org/debian unstable/main armhf libboost1.83-dev armhf 1.83.0-2+b2 [10.6 MB]
Get:49 http://deb.debian.org/debian unstable/main armhf libboost-atomic1.83.0 armhf 1.83.0-2+b2 [232 kB]
Get:50 http://deb.debian.org/debian unstable/main armhf libboost-atomic1.83-dev armhf 1.83.0-2+b2 [234 kB]
Get:51 http://deb.debian.org/debian unstable/main armhf libboost-chrono1.83-dev armhf 1.83.0-2+b2 [244 kB]
Get:52 http://deb.debian.org/debian unstable/main armhf libboost-date-time1.83.0 armhf 1.83.0-2+b2 [230 kB]
Get:53 http://deb.debian.org/debian unstable/main armhf libboost-serialization1.83.0 armhf 1.83.0-2+b2 [315 kB]
Get:54 http://deb.debian.org/debian unstable/main armhf libboost-serialization1.83-dev armhf 1.83.0-2+b2 [385 kB]
Get:55 http://deb.debian.org/debian unstable/main armhf libboost-date-time1.83-dev armhf 1.83.0-2+b2 [239 kB]
Get:56 http://deb.debian.org/debian unstable/main armhf libboost-system1.83.0 armhf 1.83.0-2+b2 [230 kB]
Get:57 http://deb.debian.org/debian unstable/main armhf libboost-system1.83-dev armhf 1.83.0-2+b2 [231 kB]
Get:58 http://deb.debian.org/debian unstable/main armhf libboost-thread1.83-dev armhf 1.83.0-2+b2 [276 kB]
Get:59 http://deb.debian.org/debian unstable/main armhf libboost-thread-dev armhf 1.83.0.2 [3332 B]
Get:60 http://deb.debian.org/debian unstable/main armhf libboost-dev armhf 1.83.0.2 [3552 B]
Get:61 http://deb.debian.org/debian unstable/main armhf libconsole-bridge-dev armhf 1.0.1+dfsg2-3+b1 [8508 B]
Get:62 http://deb.debian.org/debian unstable/main armhf libroscpp-core-dev armhf 0.7.3-1 [23.3 kB]
Get:63 http://deb.debian.org/debian unstable/main armhf ros-message-runtime armhf 0.4.13-5 [6292 B]
Get:64 http://deb.debian.org/debian unstable/main armhf libstd-msgs-dev armhf 0.5.13-3 [18.7 kB]
Get:65 http://deb.debian.org/debian unstable/main armhf libactionlib-msgs-dev armhf 1.13.1-2 [12.7 kB]
Get:66 http://deb.debian.org/debian unstable/main armhf python3-empy all 3.3.4-2 [66.1 kB]
Get:67 http://deb.debian.org/debian unstable/main armhf python3-genmsg all 0.6.0-1 [25.4 kB]
Get:68 http://deb.debian.org/debian unstable/main armhf python3-gencpp all 0.7.0-1 [14.6 kB]
Get:69 http://deb.debian.org/debian unstable/main armhf python3-genlisp all 0.4.18-2 [15.2 kB]
Get:70 http://deb.debian.org/debian unstable/main armhf python3-yaml armhf 6.0.1-1+b1 [162 kB]
Get:71 http://deb.debian.org/debian unstable/main armhf python3-genpy all 0.6.16-2 [33.8 kB]
Get:72 http://deb.debian.org/debian unstable/main armhf ros-message-generation all 0.4.1-5 [5936 B]
Get:73 http://deb.debian.org/debian unstable/main armhf lsb-release all 12.0-2 [6564 B]
Get:74 http://deb.debian.org/debian unstable/main armhf python3-distro all 1.9.0-1 [20.3 kB]
Get:75 http://deb.debian.org/debian unstable/main armhf python3-rospkg all 1.5.0-1 [27.0 kB]
Get:76 http://deb.debian.org/debian unstable/main armhf python3-rosunit all 1.15.8-5 [28.6 kB]
Get:77 http://deb.debian.org/debian unstable/main armhf libboost-filesystem1.83-dev armhf 1.83.0-2+b2 [284 kB]
Get:78 http://deb.debian.org/debian unstable/main armhf libboost-filesystem-dev armhf 1.83.0.2 [3340 B]
Get:79 http://deb.debian.org/debian unstable/main armhf libboost-system-dev armhf 1.83.0.2 [3448 B]
Get:80 http://deb.debian.org/debian unstable/main armhf libboost-regex1.83.0 armhf 1.83.0-2+b2 [307 kB]
Get:81 http://deb.debian.org/debian unstable/main armhf libicu-dev armhf 72.1-4 [10.1 MB]
Get:82 http://deb.debian.org/debian unstable/main armhf libboost-regex1.83-dev armhf 1.83.0-2+b2 [335 kB]
Get:83 http://deb.debian.org/debian unstable/main armhf libboost-regex-dev armhf 1.83.0.2 [3580 B]
Get:84 http://deb.debian.org/debian unstable/main armhf uuid-dev armhf 2.39.3-6 [39.6 kB]
Get:85 http://deb.debian.org/debian unstable/main armhf libsctp1 armhf 1.0.19+dfsg-2 [29.1 kB]
Get:86 http://deb.debian.org/debian unstable/main armhf libsctp-dev armhf 1.0.19+dfsg-2 [71.6 kB]
Get:87 http://deb.debian.org/debian unstable/main armhf libapr1-dev armhf 1.7.2-3+b2 [753 kB]
Get:88 http://deb.debian.org/debian unstable/main armhf libldap-dev armhf 2.5.13+dfsg-5+b2 [277 kB]
Get:89 http://deb.debian.org/debian unstable/main armhf libldap2-dev all 2.5.13+dfsg-5 [22.6 kB]
Get:90 http://deb.debian.org/debian unstable/main armhf libexpat1-dev armhf 2.5.0-2+b2 [134 kB]
Get:91 http://deb.debian.org/debian unstable/main armhf libaprutil1-dev armhf 1.6.3-1+b1 [407 kB]
Get:92 http://deb.debian.org/debian unstable/main armhf liblog4cxx-dev armhf 1.1.0-1 [110 kB]
Get:93 http://deb.debian.org/debian unstable/main armhf librosconsole-dev armhf 1.14.3-11+b1 [16.8 kB]
Get:94 http://deb.debian.org/debian unstable/main armhf libros-rosgraph-msgs-dev armhf 1.11.3-3 [9812 B]
Get:95 http://deb.debian.org/debian unstable/main armhf libb64-dev armhf 1.2-5+b1 [6536 B]
Get:96 http://deb.debian.org/debian unstable/main armhf libxmlrpcpp-dev armhf 1.16.0+ds-3+b2 [17.8 kB]
Get:97 http://deb.debian.org/debian unstable/main armhf libroscpp-msg-dev armhf 1.16.0+ds-3+b2 [9408 B]
Get:98 http://deb.debian.org/debian unstable/main armhf libroscpp-dev armhf 1.16.0+ds-3+b2 [56.3 kB]
Get:99 http://deb.debian.org/debian unstable/main armhf libactionlib-dev armhf 1.14.0-6+b1 [43.6 kB]
Get:100 http://deb.debian.org/debian unstable/main armhf libament-index-cpp0d armhf 1.7.0-1 [13.1 kB]
Get:101 http://deb.debian.org/debian unstable/main armhf libament-index-cpp-dev armhf 1.7.0-1 [7604 B]
Get:102 http://deb.debian.org/debian unstable/main armhf libboost-program-options1.83.0 armhf 1.83.0-2+b2 [326 kB]
Get:103 http://deb.debian.org/debian unstable/main armhf libboost-program-options1.83-dev armhf 1.83.0-2+b2 [370 kB]
Get:104 http://deb.debian.org/debian unstable/main armhf libboost-program-options-dev armhf 1.83.0.2 [3320 B]
Get:105 http://deb.debian.org/debian unstable/main armhf librcutils1d armhf 6.5.0-1 [39.3 kB]
Get:106 http://deb.debian.org/debian unstable/main armhf librcpputils1d armhf 2.9.0-1 [23.3 kB]
Get:107 http://deb.debian.org/debian unstable/main armhf libclass-loader3d armhf 2.7.0-1 [28.5 kB]
Get:108 http://deb.debian.org/debian unstable/main armhf librcutils-dev armhf 6.5.0-1 [55.2 kB]
Get:109 http://deb.debian.org/debian unstable/main armhf librcpputils-dev armhf 2.9.0-1 [24.8 kB]
Get:110 http://deb.debian.org/debian unstable/main armhf libclass-loader-dev armhf 2.7.0-1 [22.5 kB]
Get:111 http://deb.debian.org/debian unstable/main armhf libpkgconf3 armhf 1.8.1-1+b2 [31.9 kB]
Get:112 http://deb.debian.org/debian unstable/main armhf pkgconf-bin armhf 1.8.1-1+b2 [28.9 kB]
Get:113 http://deb.debian.org/debian unstable/main armhf pkgconf armhf 1.8.1-1+b2 [26.2 kB]
Get:114 http://deb.debian.org/debian unstable/main armhf pkg-config armhf 1.8.1-1+b2 [14.0 kB]
Get:115 http://deb.debian.org/debian unstable/main armhf libeigen3-dev all 3.4.0-4 [1041 kB]
Get:116 http://deb.debian.org/debian unstable/main armhf libgeometry-msgs-dev armhf 1.13.1-2 [19.0 kB]
Get:117 http://deb.debian.org/debian unstable/main armhf liborocos-kdl1.5 armhf 1.5.1-3+b1 [205 kB]
Get:118 http://deb.debian.org/debian unstable/main armhf libtf2-2d armhf 0.7.7-1+b2 [71.5 kB]
Get:119 http://deb.debian.org/debian unstable/main armhf libtf2-ros1d armhf 0.7.7-1+b2 [145 kB]
Get:120 http://deb.debian.org/debian unstable/main armhf librobot-state-publisher-solver1d armhf 1.15.2-5+b1 [19.2 kB]
Get:121 http://deb.debian.org/debian unstable/main armhf libjoint-state-listener1d armhf 1.15.2-5+b1 [29.3 kB]
Get:122 http://deb.debian.org/debian unstable/main armhf libtinyxml2-9 armhf 9.0.0+dfsg-3.1 [26.4 kB]
Get:123 http://deb.debian.org/debian unstable/main armhf libtinyxml2.6.2v5 armhf 2.6.2-6.1 [33.3 kB]
Get:124 http://deb.debian.org/debian unstable/main armhf librosconsole-bridge0d armhf 0.5.4-4+b2 [9472 B]
Get:125 http://deb.debian.org/debian unstable/main armhf libpython3.11 armhf 3.11.7-2 [1710 kB]
Get:126 http://deb.debian.org/debian unstable/main armhf librospack0d armhf 2.6.2-8+b2 [84.2 kB]
Get:127 http://deb.debian.org/debian unstable/main armhf libroslib0d armhf 1.15.8-5 [20.7 kB]
Get:128 http://deb.debian.org/debian unstable/main armhf liburdfdom-model3.0 armhf 3.0.1-1 [41.9 kB]
Get:129 http://deb.debian.org/debian unstable/main armhf liburdf1d armhf 1.13.2-8+b4 [88.1 kB]
Get:130 http://deb.debian.org/debian unstable/main armhf libkdl-parser1d armhf 1.14.2-2+b1 [13.7 kB]
Get:131 http://deb.debian.org/debian unstable/main armhf librosconsole-bridge-dev armhf 0.5.4-4+b2 [8740 B]
Get:132 http://deb.debian.org/debian unstable/main armhf ros-cmake-modules all 0.5.0-2 [22.2 kB]
Get:133 http://deb.debian.org/debian unstable/main armhf liburdfdom-headers-dev all 1.0.5-3 [14.3 kB]
Get:134 http://deb.debian.org/debian unstable/main armhf libtinyxml-dev armhf 2.6.2-6.1 [51.8 kB]
Get:135 http://deb.debian.org/debian unstable/main armhf liburdfdom-model-state3.0 armhf 3.0.1-1 [13.3 kB]
Get:136 http://deb.debian.org/debian unstable/main armhf liburdfdom-sensor3.0 armhf 3.0.1-1 [10.6 kB]
Get:137 http://deb.debian.org/debian unstable/main armhf liburdfdom-world3.0 armhf 3.0.1-1 [41.2 kB]
Get:138 http://deb.debian.org/debian unstable/main armhf liburdfdom-dev armhf 3.0.1-1 [8724 B]
Get:139 http://deb.debian.org/debian unstable/main armhf libtinyxml2-10 armhf 10.0.0+dfsg-2+b1 [25.5 kB]
Get:140 http://deb.debian.org/debian unstable/main armhf libtinyxml2-dev armhf 10.0.0+dfsg-2+b1 [23.2 kB]
Get:141 http://deb.debian.org/debian unstable/main armhf librospack-dev armhf 2.6.2-8+b2 [15.7 kB]
Get:142 http://deb.debian.org/debian unstable/main armhf ros-environment all 1.3.2-2 [6156 B]
Get:143 http://deb.debian.org/debian unstable/main armhf libroslib-dev armhf 1.15.8-5 [8864 B]
Get:144 http://deb.debian.org/debian unstable/main armhf pluginlib-dev armhf 5.3.0-1 [22.1 kB]
Get:145 http://deb.debian.org/debian unstable/main armhf liburdf-dev armhf 1.13.2-8+b4 [8876 B]
Get:146 http://deb.debian.org/debian unstable/main armhf liborocos-kdl-dev armhf 1.5.1-3+b1 [83.7 kB]
Get:147 http://deb.debian.org/debian unstable/main armhf libkdl-parser-dev armhf 1.14.2-2+b1 [8472 B]
Get:148 http://deb.debian.org/debian unstable/main armhf libmessage-filters1d armhf 1.16.0+ds-3+b2 [9356 B]
Get:149 http://deb.debian.org/debian unstable/main armhf libmessage-filters-dev armhf 1.16.0+ds-3+b2 [25.4 kB]
Get:150 http://deb.debian.org/debian unstable/main armhf libtf2-msgs-dev armhf 0.7.7-1+b2 [15.2 kB]
Get:151 http://deb.debian.org/debian unstable/main armhf libtf2-geometry-msgs-dev armhf 0.7.7-1+b2 [12.1 kB]
Get:152 http://deb.debian.org/debian unstable/main armhf libtf2-dev armhf 0.7.7-1+b2 [32.2 kB]
Get:153 http://deb.debian.org/debian unstable/main armhf libtf2-ros-dev armhf 0.7.7-1+b2 [18.1 kB]
Get:154 http://deb.debian.org/debian unstable/main armhf libtf2-kdl-dev armhf 0.7.7-1+b2 [9940 B]
Get:155 http://deb.debian.org/debian unstable/main armhf libsensor-msgs-dev armhf 1.13.1-2 [39.5 kB]
Get:156 http://deb.debian.org/debian unstable/main armhf librobot-state-publisher-dev armhf 1.15.2-5+b1 [10.8 kB]
debconf: delaying package configuration, since apt-utils is not installed
Fetched 44.9 MB in 3s (14.5 MB/s)
Selecting previously unselected package sgml-base.
(Reading database ... (Reading database ... 5%(Reading database ... 10%(Reading database ... 15%(Reading database ... 20%(Reading database ... 25%(Reading database ... 30%(Reading database ... 35%(Reading database ... 40%(Reading database ... 45%(Reading database ... 50%(Reading database ... 55%(Reading database ... 60%(Reading database ... 65%(Reading database ... 70%(Reading database ... 75%(Reading database ... 80%(Reading database ... 85%(Reading database ... 90%(Reading database ... 95%(Reading database ... 100%(Reading database ... 17014 files and directories currently installed.)
Preparing to unpack .../000-sgml-base_1.31_all.deb ...
Unpacking sgml-base (1.31) ...
Selecting previously unselected package libarchive13:armhf.
Preparing to unpack .../001-libarchive13_3.7.2-1_armhf.deb ...
Unpacking libarchive13:armhf (3.7.2-1) ...
Selecting previously unselected package libbrotli1:armhf.
Preparing to unpack .../002-libbrotli1_1.1.0-2+b3_armhf.deb ...
Unpacking libbrotli1:armhf (1.1.0-2+b3) ...
Selecting previously unselected package libnghttp2-14:armhf.
Preparing to unpack .../003-libnghttp2-14_1.58.0-1_armhf.deb ...
Unpacking libnghttp2-14:armhf (1.58.0-1) ...
Selecting previously unselected package libpsl5:armhf.
Preparing to unpack .../004-libpsl5_0.21.2-1+b1_armhf.deb ...
Unpacking libpsl5:armhf (0.21.2-1+b1) ...
Selecting previously unselected package librtmp1:armhf.
Preparing to unpack .../005-librtmp1_2.4+20151223.gitfa8646d.1-2+b2_armhf.deb ...
Unpacking librtmp1:armhf (2.4+20151223.gitfa8646d.1-2+b2) ...
Selecting previously unselected package libssh2-1:armhf.
Preparing to unpack .../006-libssh2-1_1.11.0-4_armhf.deb ...
Unpacking libssh2-1:armhf (1.11.0-4) ...
Selecting previously unselected package libcurl4:armhf.
Preparing to unpack .../007-libcurl4_8.5.0-2_armhf.deb ...
Unpacking libcurl4:armhf (8.5.0-2) ...
Selecting previously unselected package libjsoncpp25:armhf.
Preparing to unpack .../008-libjsoncpp25_1.9.5-6+b2_armhf.deb ...
Unpacking libjsoncpp25:armhf (1.9.5-6+b2) ...
Selecting previously unselected package librhash0:armhf.
Preparing to unpack .../009-librhash0_1.4.3-3_armhf.deb ...
Unpacking librhash0:armhf (1.4.3-3) ...
Selecting previously unselected package libuv1:armhf.
Preparing to unpack .../010-libuv1_1.46.0-3_armhf.deb ...
Unpacking libuv1:armhf (1.46.0-3) ...
Selecting previously unselected package cmake-data.
Preparing to unpack .../011-cmake-data_3.28.1-1_all.deb ...
Unpacking cmake-data (3.28.1-1) ...
Selecting previously unselected package cmake.
Preparing to unpack .../012-cmake_3.28.1-1_armhf.deb ...
Unpacking cmake (3.28.1-1) ...
Selecting previously unselected package python3-ament-package.
Preparing to unpack .../013-python3-ament-package_0.16.2-1_all.deb ...
Unpacking python3-ament-package (0.16.2-1) ...
Selecting previously unselected package python3-six.
Preparing to unpack .../014-python3-six_1.16.0-4_all.deb ...
Unpacking python3-six (1.16.0-4) ...
Selecting previously unselected package python3-dateutil.
Preparing to unpack .../015-python3-dateutil_2.8.2-3_all.deb ...
Unpacking python3-dateutil (2.8.2-3) ...
Selecting previously unselected package xml-core.
Preparing to unpack .../016-xml-core_0.19_all.deb ...
Unpacking xml-core (0.19) ...
Selecting previously unselected package docutils-common.
Preparing to unpack .../017-docutils-common_0.20.1+dfsg-3_all.deb ...
Unpacking docutils-common (0.20.1+dfsg-3) ...
Selecting previously unselected package python3-roman.
Preparing to unpack .../018-python3-roman_3.3-3_all.deb ...
Unpacking python3-roman (3.3-3) ...
Selecting previously unselected package python3-docutils.
Preparing to unpack .../019-python3-docutils_0.20.1+dfsg-3_all.deb ...
Unpacking python3-docutils (0.20.1+dfsg-3) ...
Selecting previously unselected package python3-pkg-resources.
Preparing to unpack .../020-python3-pkg-resources_68.1.2-2_all.deb ...
Unpacking python3-pkg-resources (68.1.2-2) ...
Selecting previously unselected package python3-pyparsing.
Preparing to unpack .../021-python3-pyparsing_3.1.1-1_all.deb ...
Unpacking python3-pyparsing (3.1.1-1) ...
Selecting previously unselected package python3-catkin-pkg.
Preparing to unpack .../022-python3-catkin-pkg_1.0.0-2_all.deb ...
Unpacking python3-catkin-pkg (1.0.0-2) ...
Selecting previously unselected package ament-cmake-core.
Preparing to unpack .../023-ament-cmake-core_2.3.2-1_all.deb ...
Unpacking ament-cmake-core (2.3.2-1) ...
Selecting previously unselected package python3-lib2to3.
Preparing to unpack .../024-python3-lib2to3_3.11.5-1_all.deb ...
Unpacking python3-lib2to3 (3.11.5-1) ...
Selecting previously unselected package python3-distutils.
Preparing to unpack .../025-python3-distutils_3.11.5-1_all.deb ...
Unpacking python3-distutils (3.11.5-1) ...
Selecting previously unselected package python3-setuptools.
Preparing to unpack .../026-python3-setuptools_68.1.2-2_all.deb ...
Unpacking python3-setuptools (68.1.2-2) ...
Selecting previously unselected package ament-cmake-python.
Preparing to unpack .../027-ament-cmake-python_2.3.2-1_all.deb ...
Unpacking ament-cmake-python (2.3.2-1) ...
Selecting previously unselected package python3-ament-cmake-test.
Preparing to unpack .../028-python3-ament-cmake-test_2.3.2-1_all.deb ...
Unpacking python3-ament-cmake-test (2.3.2-1) ...
Selecting previously unselected package ament-cmake.
Preparing to unpack .../029-ament-cmake_2.3.2-1_all.deb ...
Unpacking ament-cmake (2.3.2-1) ...
Selecting previously unselected package icu-devtools.
Preparing to unpack .../030-icu-devtools_72.1-4_armhf.deb ...
Unpacking icu-devtools (72.1-4) ...
Selecting previously unselected package libboost-chrono1.83.0:armhf.
Preparing to unpack .../031-libboost-chrono1.83.0_1.83.0-2+b2_armhf.deb ...
Unpacking libboost-chrono1.83.0:armhf (1.83.0-2+b2) ...
Selecting previously unselected package libboost-filesystem1.83.0:armhf.
Preparing to unpack .../032-libboost-filesystem1.83.0_1.83.0-2+b2_armhf.deb ...
Unpacking libboost-filesystem1.83.0:armhf (1.83.0-2+b2) ...
Selecting previously unselected package libboost-thread1.83.0:armhf.
Preparing to unpack .../033-libboost-thread1.83.0_1.83.0-2+b2_armhf.deb ...
Unpacking libboost-thread1.83.0:armhf (1.83.0-2+b2) ...
Selecting previously unselected package libapr1:armhf.
Preparing to unpack .../034-libapr1_1.7.2-3+b2_armhf.deb ...
Unpacking libapr1:armhf (1.7.2-3+b2) ...
Selecting previously unselected package libaprutil1:armhf.
Preparing to unpack .../035-libaprutil1_1.6.3-1+b1_armhf.deb ...
Unpacking libaprutil1:armhf (1.6.3-1+b1) ...
Selecting previously unselected package libaprutil1-dbd-sqlite3:armhf.
Preparing to unpack .../036-libaprutil1-dbd-sqlite3_1.6.3-1+b1_armhf.deb ...
Unpacking libaprutil1-dbd-sqlite3:armhf (1.6.3-1+b1) ...
Selecting previously unselected package liblog4cxx15:armhf.
Preparing to unpack .../037-liblog4cxx15_1.1.0-1_armhf.deb ...
Unpacking liblog4cxx15:armhf (1.1.0-1) ...
Selecting previously unselected package librostime1d:armhf.
Preparing to unpack .../038-librostime1d_0.7.3-1_armhf.deb ...
Unpacking librostime1d:armhf (0.7.3-1) ...
Selecting previously unselected package librosconsole3d:armhf.
Preparing to unpack .../039-librosconsole3d_1.14.3-11+b1_armhf.deb ...
Unpacking librosconsole3d:armhf (1.14.3-11+b1) ...
Selecting previously unselected package libconsole-bridge1.0:armhf.
Preparing to unpack .../040-libconsole-bridge1.0_1.0.1+dfsg2-3+b1_armhf.deb ...
Unpacking libconsole-bridge1.0:armhf (1.0.1+dfsg2-3+b1) ...
Selecting previously unselected package libcpp-common0d:armhf.
Preparing to unpack .../041-libcpp-common0d_0.7.3-1_armhf.deb ...
Unpacking libcpp-common0d:armhf (0.7.3-1) ...
Selecting previously unselected package libroscpp-serialization0d:armhf.
Preparing to unpack .../042-libroscpp-serialization0d_0.7.3-1_armhf.deb ...
Unpacking libroscpp-serialization0d:armhf (0.7.3-1) ...
Selecting previously unselected package libb64-0d:armhf.
Preparing to unpack .../043-libb64-0d_1.2-5+b1_armhf.deb ...
Unpacking libb64-0d:armhf (1.2-5+b1) ...
Selecting previously unselected package libxmlrpcpp3d:armhf.
Preparing to unpack .../044-libxmlrpcpp3d_1.16.0+ds-3+b2_armhf.deb ...
Unpacking libxmlrpcpp3d:armhf (1.16.0+ds-3+b2) ...
Selecting previously unselected package libroscpp4d:armhf.
Preparing to unpack .../045-libroscpp4d_1.16.0+ds-3+b2_armhf.deb ...
Unpacking libroscpp4d:armhf (1.16.0+ds-3+b2) ...
Selecting previously unselected package libactionlib1d:armhf.
Preparing to unpack .../046-libactionlib1d_1.14.0-6+b1_armhf.deb ...
Unpacking libactionlib1d:armhf (1.14.0-6+b1) ...
Selecting previously unselected package libboost1.83-dev:armhf.
Preparing to unpack .../047-libboost1.83-dev_1.83.0-2+b2_armhf.deb ...
Unpacking libboost1.83-dev:armhf (1.83.0-2+b2) ...
Selecting previously unselected package libboost-atomic1.83.0:armhf.
Preparing to unpack .../048-libboost-atomic1.83.0_1.83.0-2+b2_armhf.deb ...
Unpacking libboost-atomic1.83.0:armhf (1.83.0-2+b2) ...
Selecting previously unselected package libboost-atomic1.83-dev:armhf.
Preparing to unpack .../049-libboost-atomic1.83-dev_1.83.0-2+b2_armhf.deb ...
Unpacking libboost-atomic1.83-dev:armhf (1.83.0-2+b2) ...
Selecting previously unselected package libboost-chrono1.83-dev:armhf.
Preparing to unpack .../050-libboost-chrono1.83-dev_1.83.0-2+b2_armhf.deb ...
Unpacking libboost-chrono1.83-dev:armhf (1.83.0-2+b2) ...
Selecting previously unselected package libboost-date-time1.83.0:armhf.
Preparing to unpack .../051-libboost-date-time1.83.0_1.83.0-2+b2_armhf.deb ...
Unpacking libboost-date-time1.83.0:armhf (1.83.0-2+b2) ...
Selecting previously unselected package libboost-serialization1.83.0:armhf.
Preparing to unpack .../052-libboost-serialization1.83.0_1.83.0-2+b2_armhf.deb ...
Unpacking libboost-serialization1.83.0:armhf (1.83.0-2+b2) ...
Selecting previously unselected package libboost-serialization1.83-dev:armhf.
Preparing to unpack .../053-libboost-serialization1.83-dev_1.83.0-2+b2_armhf.deb ...
Unpacking libboost-serialization1.83-dev:armhf (1.83.0-2+b2) ...
Selecting previously unselected package libboost-date-time1.83-dev:armhf.
Preparing to unpack .../054-libboost-date-time1.83-dev_1.83.0-2+b2_armhf.deb ...
Unpacking libboost-date-time1.83-dev:armhf (1.83.0-2+b2) ...
Selecting previously unselected package libboost-system1.83.0:armhf.
Preparing to unpack .../055-libboost-system1.83.0_1.83.0-2+b2_armhf.deb ...
Unpacking libboost-system1.83.0:armhf (1.83.0-2+b2) ...
Selecting previously unselected package libboost-system1.83-dev:armhf.
Preparing to unpack .../056-libboost-system1.83-dev_1.83.0-2+b2_armhf.deb ...
Unpacking libboost-system1.83-dev:armhf (1.83.0-2+b2) ...
Selecting previously unselected package libboost-thread1.83-dev:armhf.
Preparing to unpack .../057-libboost-thread1.83-dev_1.83.0-2+b2_armhf.deb ...
Unpacking libboost-thread1.83-dev:armhf (1.83.0-2+b2) ...
Selecting previously unselected package libboost-thread-dev:armhf.
Preparing to unpack .../058-libboost-thread-dev_1.83.0.2_armhf.deb ...
Unpacking libboost-thread-dev:armhf (1.83.0.2) ...
Selecting previously unselected package libboost-dev:armhf.
Preparing to unpack .../059-libboost-dev_1.83.0.2_armhf.deb ...
Unpacking libboost-dev:armhf (1.83.0.2) ...
Selecting previously unselected package libconsole-bridge-dev:armhf.
Preparing to unpack .../060-libconsole-bridge-dev_1.0.1+dfsg2-3+b1_armhf.deb ...
Unpacking libconsole-bridge-dev:armhf (1.0.1+dfsg2-3+b1) ...
Selecting previously unselected package libroscpp-core-dev:armhf.
Preparing to unpack .../061-libroscpp-core-dev_0.7.3-1_armhf.deb ...
Unpacking libroscpp-core-dev:armhf (0.7.3-1) ...
Selecting previously unselected package ros-message-runtime:armhf.
Preparing to unpack .../062-ros-message-runtime_0.4.13-5_armhf.deb ...
Unpacking ros-message-runtime:armhf (0.4.13-5) ...
Selecting previously unselected package libstd-msgs-dev:armhf.
Preparing to unpack .../063-libstd-msgs-dev_0.5.13-3_armhf.deb ...
Unpacking libstd-msgs-dev:armhf (0.5.13-3) ...
Selecting previously unselected package libactionlib-msgs-dev:armhf.
Preparing to unpack .../064-libactionlib-msgs-dev_1.13.1-2_armhf.deb ...
Unpacking libactionlib-msgs-dev:armhf (1.13.1-2) ...
Selecting previously unselected package python3-empy.
Preparing to unpack .../065-python3-empy_3.3.4-2_all.deb ...
Unpacking python3-empy (3.3.4-2) ...
Selecting previously unselected package python3-genmsg.
Preparing to unpack .../066-python3-genmsg_0.6.0-1_all.deb ...
Unpacking python3-genmsg (0.6.0-1) ...
Selecting previously unselected package python3-gencpp.
Preparing to unpack .../067-python3-gencpp_0.7.0-1_all.deb ...
Unpacking python3-gencpp (0.7.0-1) ...
Selecting previously unselected package python3-genlisp.
Preparing to unpack .../068-python3-genlisp_0.4.18-2_all.deb ...
Unpacking python3-genlisp (0.4.18-2) ...
Selecting previously unselected package python3-yaml.
Preparing to unpack .../069-python3-yaml_6.0.1-1+b1_armhf.deb ...
Unpacking python3-yaml (6.0.1-1+b1) ...
Selecting previously unselected package python3-genpy.
Preparing to unpack .../070-python3-genpy_0.6.16-2_all.deb ...
Unpacking python3-genpy (0.6.16-2) ...
Selecting previously unselected package ros-message-generation.
Preparing to unpack .../071-ros-message-generation_0.4.1-5_all.deb ...
Unpacking ros-message-generation (0.4.1-5) ...
Selecting previously unselected package lsb-release.
Preparing to unpack .../072-lsb-release_12.0-2_all.deb ...
Unpacking lsb-release (12.0-2) ...
Selecting previously unselected package python3-distro.
Preparing to unpack .../073-python3-distro_1.9.0-1_all.deb ...
Unpacking python3-distro (1.9.0-1) ...
Selecting previously unselected package python3-rospkg.
Preparing to unpack .../074-python3-rospkg_1.5.0-1_all.deb ...
Unpacking python3-rospkg (1.5.0-1) ...
Selecting previously unselected package python3-rosunit.
Preparing to unpack .../075-python3-rosunit_1.15.8-5_all.deb ...
Unpacking python3-rosunit (1.15.8-5) ...
Selecting previously unselected package libboost-filesystem1.83-dev:armhf.
Preparing to unpack .../076-libboost-filesystem1.83-dev_1.83.0-2+b2_armhf.deb ...
Unpacking libboost-filesystem1.83-dev:armhf (1.83.0-2+b2) ...
Selecting previously unselected package libboost-filesystem-dev:armhf.
Preparing to unpack .../077-libboost-filesystem-dev_1.83.0.2_armhf.deb ...
Unpacking libboost-filesystem-dev:armhf (1.83.0.2) ...
Selecting previously unselected package libboost-system-dev:armhf.
Preparing to unpack .../078-libboost-system-dev_1.83.0.2_armhf.deb ...
Unpacking libboost-system-dev:armhf (1.83.0.2) ...
Selecting previously unselected package libboost-regex1.83.0:armhf.
Preparing to unpack .../079-libboost-regex1.83.0_1.83.0-2+b2_armhf.deb ...
Unpacking libboost-regex1.83.0:armhf (1.83.0-2+b2) ...
Selecting previously unselected package libicu-dev:armhf.
Preparing to unpack .../080-libicu-dev_72.1-4_armhf.deb ...
Unpacking libicu-dev:armhf (72.1-4) ...
Selecting previously unselected package libboost-regex1.83-dev:armhf.
Preparing to unpack .../081-libboost-regex1.83-dev_1.83.0-2+b2_armhf.deb ...
Unpacking libboost-regex1.83-dev:armhf (1.83.0-2+b2) ...
Selecting previously unselected package libboost-regex-dev:armhf.
Preparing to unpack .../082-libboost-regex-dev_1.83.0.2_armhf.deb ...
Unpacking libboost-regex-dev:armhf (1.83.0.2) ...
Selecting previously unselected package uuid-dev:armhf.
Preparing to unpack .../083-uuid-dev_2.39.3-6_armhf.deb ...
Unpacking uuid-dev:armhf (2.39.3-6) ...
Selecting previously unselected package libsctp1:armhf.
Preparing to unpack .../084-libsctp1_1.0.19+dfsg-2_armhf.deb ...
Unpacking libsctp1:armhf (1.0.19+dfsg-2) ...
Selecting previously unselected package libsctp-dev:armhf.
Preparing to unpack .../085-libsctp-dev_1.0.19+dfsg-2_armhf.deb ...
Unpacking libsctp-dev:armhf (1.0.19+dfsg-2) ...
Selecting previously unselected package libapr1-dev.
Preparing to unpack .../086-libapr1-dev_1.7.2-3+b2_armhf.deb ...
Unpacking libapr1-dev (1.7.2-3+b2) ...
Selecting previously unselected package libldap-dev:armhf.
Preparing to unpack .../087-libldap-dev_2.5.13+dfsg-5+b2_armhf.deb ...
Unpacking libldap-dev:armhf (2.5.13+dfsg-5+b2) ...
Selecting previously unselected package libldap2-dev.
Preparing to unpack .../088-libldap2-dev_2.5.13+dfsg-5_all.deb ...
Unpacking libldap2-dev (2.5.13+dfsg-5) ...
Selecting previously unselected package libexpat1-dev:armhf.
Preparing to unpack .../089-libexpat1-dev_2.5.0-2+b2_armhf.deb ...
Unpacking libexpat1-dev:armhf (2.5.0-2+b2) ...
Selecting previously unselected package libaprutil1-dev.
Preparing to unpack .../090-libaprutil1-dev_1.6.3-1+b1_armhf.deb ...
Unpacking libaprutil1-dev (1.6.3-1+b1) ...
Selecting previously unselected package liblog4cxx-dev:armhf.
Preparing to unpack .../091-liblog4cxx-dev_1.1.0-1_armhf.deb ...
Unpacking liblog4cxx-dev:armhf (1.1.0-1) ...
Selecting previously unselected package librosconsole-dev:armhf.
Preparing to unpack .../092-librosconsole-dev_1.14.3-11+b1_armhf.deb ...
Unpacking librosconsole-dev:armhf (1.14.3-11+b1) ...
Selecting previously unselected package libros-rosgraph-msgs-dev:armhf.
Preparing to unpack .../093-libros-rosgraph-msgs-dev_1.11.3-3_armhf.deb ...
Unpacking libros-rosgraph-msgs-dev:armhf (1.11.3-3) ...
Selecting previously unselected package libb64-dev:armhf.
Preparing to unpack .../094-libb64-dev_1.2-5+b1_armhf.deb ...
Unpacking libb64-dev:armhf (1.2-5+b1) ...
Selecting previously unselected package libxmlrpcpp-dev:armhf.
Preparing to unpack .../095-libxmlrpcpp-dev_1.16.0+ds-3+b2_armhf.deb ...
Unpacking libxmlrpcpp-dev:armhf (1.16.0+ds-3+b2) ...
Selecting previously unselected package libroscpp-msg-dev:armhf.
Preparing to unpack .../096-libroscpp-msg-dev_1.16.0+ds-3+b2_armhf.deb ...
Unpacking libroscpp-msg-dev:armhf (1.16.0+ds-3+b2) ...
Selecting previously unselected package libroscpp-dev:armhf.
Preparing to unpack .../097-libroscpp-dev_1.16.0+ds-3+b2_armhf.deb ...
Unpacking libroscpp-dev:armhf (1.16.0+ds-3+b2) ...
Selecting previously unselected package libactionlib-dev:armhf.
Preparing to unpack .../098-libactionlib-dev_1.14.0-6+b1_armhf.deb ...
Unpacking libactionlib-dev:armhf (1.14.0-6+b1) ...
Selecting previously unselected package libament-index-cpp0d:armhf.
Preparing to unpack .../099-libament-index-cpp0d_1.7.0-1_armhf.deb ...
Unpacking libament-index-cpp0d:armhf (1.7.0-1) ...
Selecting previously unselected package libament-index-cpp-dev:armhf.
Preparing to unpack .../100-libament-index-cpp-dev_1.7.0-1_armhf.deb ...
Unpacking libament-index-cpp-dev:armhf (1.7.0-1) ...
Selecting previously unselected package libboost-program-options1.83.0:armhf.
Preparing to unpack .../101-libboost-program-options1.83.0_1.83.0-2+b2_armhf.deb ...
Unpacking libboost-program-options1.83.0:armhf (1.83.0-2+b2) ...
Selecting previously unselected package libboost-program-options1.83-dev:armhf.
Preparing to unpack .../102-libboost-program-options1.83-dev_1.83.0-2+b2_armhf.deb ...
Unpacking libboost-program-options1.83-dev:armhf (1.83.0-2+b2) ...
Selecting previously unselected package libboost-program-options-dev:armhf.
Preparing to unpack .../103-libboost-program-options-dev_1.83.0.2_armhf.deb ...
Unpacking libboost-program-options-dev:armhf (1.83.0.2) ...
Selecting previously unselected package librcutils1d:armhf.
Preparing to unpack .../104-librcutils1d_6.5.0-1_armhf.deb ...
Unpacking librcutils1d:armhf (6.5.0-1) ...
Selecting previously unselected package librcpputils1d:armhf.
Preparing to unpack .../105-librcpputils1d_2.9.0-1_armhf.deb ...
Unpacking librcpputils1d:armhf (2.9.0-1) ...
Selecting previously unselected package libclass-loader3d:armhf.
Preparing to unpack .../106-libclass-loader3d_2.7.0-1_armhf.deb ...
Unpacking libclass-loader3d:armhf (2.7.0-1) ...
Selecting previously unselected package librcutils-dev:armhf.
Preparing to unpack .../107-librcutils-dev_6.5.0-1_armhf.deb ...
Unpacking librcutils-dev:armhf (6.5.0-1) ...
Selecting previously unselected package librcpputils-dev:armhf.
Preparing to unpack .../108-librcpputils-dev_2.9.0-1_armhf.deb ...
Unpacking librcpputils-dev:armhf (2.9.0-1) ...
Selecting previously unselected package libclass-loader-dev:armhf.
Preparing to unpack .../109-libclass-loader-dev_2.7.0-1_armhf.deb ...
Unpacking libclass-loader-dev:armhf (2.7.0-1) ...
Selecting previously unselected package libpkgconf3:armhf.
Preparing to unpack .../110-libpkgconf3_1.8.1-1+b2_armhf.deb ...
Unpacking libpkgconf3:armhf (1.8.1-1+b2) ...
Selecting previously unselected package pkgconf-bin.
Preparing to unpack .../111-pkgconf-bin_1.8.1-1+b2_armhf.deb ...
Unpacking pkgconf-bin (1.8.1-1+b2) ...
Selecting previously unselected package pkgconf:armhf.
Preparing to unpack .../112-pkgconf_1.8.1-1+b2_armhf.deb ...
Unpacking pkgconf:armhf (1.8.1-1+b2) ...
Selecting previously unselected package pkg-config:armhf.
Preparing to unpack .../113-pkg-config_1.8.1-1+b2_armhf.deb ...
Unpacking pkg-config:armhf (1.8.1-1+b2) ...
Selecting previously unselected package libeigen3-dev.
Preparing to unpack .../114-libeigen3-dev_3.4.0-4_all.deb ...
Unpacking libeigen3-dev (3.4.0-4) ...
Selecting previously unselected package libgeometry-msgs-dev:armhf.
Preparing to unpack .../115-libgeometry-msgs-dev_1.13.1-2_armhf.deb ...
Unpacking libgeometry-msgs-dev:armhf (1.13.1-2) ...
Selecting previously unselected package liborocos-kdl1.5:armhf.
Preparing to unpack .../116-liborocos-kdl1.5_1.5.1-3+b1_armhf.deb ...
Unpacking liborocos-kdl1.5:armhf (1.5.1-3+b1) ...
Selecting previously unselected package libtf2-2d:armhf.
Preparing to unpack .../117-libtf2-2d_0.7.7-1+b2_armhf.deb ...
Unpacking libtf2-2d:armhf (0.7.7-1+b2) ...
Selecting previously unselected package libtf2-ros1d:armhf.
Preparing to unpack .../118-libtf2-ros1d_0.7.7-1+b2_armhf.deb ...
Unpacking libtf2-ros1d:armhf (0.7.7-1+b2) ...
Selecting previously unselected package librobot-state-publisher-solver1d:armhf.
Preparing to unpack .../119-librobot-state-publisher-solver1d_1.15.2-5+b1_armhf.deb ...
Unpacking librobot-state-publisher-solver1d:armhf (1.15.2-5+b1) ...
Selecting previously unselected package libjoint-state-listener1d:armhf.
Preparing to unpack .../120-libjoint-state-listener1d_1.15.2-5+b1_armhf.deb ...
Unpacking libjoint-state-listener1d:armhf (1.15.2-5+b1) ...
Selecting previously unselected package libtinyxml2-9:armhf.
Preparing to unpack .../121-libtinyxml2-9_9.0.0+dfsg-3.1_armhf.deb ...
Unpacking libtinyxml2-9:armhf (9.0.0+dfsg-3.1) ...
Selecting previously unselected package libtinyxml2.6.2v5:armhf.
Preparing to unpack .../122-libtinyxml2.6.2v5_2.6.2-6.1_armhf.deb ...
Unpacking libtinyxml2.6.2v5:armhf (2.6.2-6.1) ...
Selecting previously unselected package librosconsole-bridge0d:armhf.
Preparing to unpack .../123-librosconsole-bridge0d_0.5.4-4+b2_armhf.deb ...
Unpacking librosconsole-bridge0d:armhf (0.5.4-4+b2) ...
Selecting previously unselected package libpython3.11:armhf.
Preparing to unpack .../124-libpython3.11_3.11.7-2_armhf.deb ...
Unpacking libpython3.11:armhf (3.11.7-2) ...
Selecting previously unselected package librospack0d:armhf.
Preparing to unpack .../125-librospack0d_2.6.2-8+b2_armhf.deb ...
Unpacking librospack0d:armhf (2.6.2-8+b2) ...
Selecting previously unselected package libroslib0d:armhf.
Preparing to unpack .../126-libroslib0d_1.15.8-5_armhf.deb ...
Unpacking libroslib0d:armhf (1.15.8-5) ...
Selecting previously unselected package liburdfdom-model3.0:armhf.
Preparing to unpack .../127-liburdfdom-model3.0_3.0.1-1_armhf.deb ...
Unpacking liburdfdom-model3.0:armhf (3.0.1-1) ...
Selecting previously unselected package liburdf1d:armhf.
Preparing to unpack .../128-liburdf1d_1.13.2-8+b4_armhf.deb ...
Unpacking liburdf1d:armhf (1.13.2-8+b4) ...
Selecting previously unselected package libkdl-parser1d:armhf.
Preparing to unpack .../129-libkdl-parser1d_1.14.2-2+b1_armhf.deb ...
Unpacking libkdl-parser1d:armhf (1.14.2-2+b1) ...
Selecting previously unselected package librosconsole-bridge-dev:armhf.
Preparing to unpack .../130-librosconsole-bridge-dev_0.5.4-4+b2_armhf.deb ...
Unpacking librosconsole-bridge-dev:armhf (0.5.4-4+b2) ...
Selecting previously unselected package ros-cmake-modules.
Preparing to unpack .../131-ros-cmake-modules_0.5.0-2_all.deb ...
Unpacking ros-cmake-modules (0.5.0-2) ...
Selecting previously unselected package liburdfdom-headers-dev.
Preparing to unpack .../132-liburdfdom-headers-dev_1.0.5-3_all.deb ...
Unpacking liburdfdom-headers-dev (1.0.5-3) ...
Selecting previously unselected package libtinyxml-dev:armhf.
Preparing to unpack .../133-libtinyxml-dev_2.6.2-6.1_armhf.deb ...
Unpacking libtinyxml-dev:armhf (2.6.2-6.1) ...
Selecting previously unselected package liburdfdom-model-state3.0:armhf.
Preparing to unpack .../134-liburdfdom-model-state3.0_3.0.1-1_armhf.deb ...
Unpacking liburdfdom-model-state3.0:armhf (3.0.1-1) ...
Selecting previously unselected package liburdfdom-sensor3.0:armhf.
Preparing to unpack .../135-liburdfdom-sensor3.0_3.0.1-1_armhf.deb ...
Unpacking liburdfdom-sensor3.0:armhf (3.0.1-1) ...
Selecting previously unselected package liburdfdom-world3.0:armhf.
Preparing to unpack .../136-liburdfdom-world3.0_3.0.1-1_armhf.deb ...
Unpacking liburdfdom-world3.0:armhf (3.0.1-1) ...
Selecting previously unselected package liburdfdom-dev:armhf.
Preparing to unpack .../137-liburdfdom-dev_3.0.1-1_armhf.deb ...
Unpacking liburdfdom-dev:armhf (3.0.1-1) ...
Selecting previously unselected package libtinyxml2-10:armhf.
Preparing to unpack .../138-libtinyxml2-10_10.0.0+dfsg-2+b1_armhf.deb ...
Unpacking libtinyxml2-10:armhf (10.0.0+dfsg-2+b1) ...
Selecting previously unselected package libtinyxml2-dev:armhf.
Preparing to unpack .../139-libtinyxml2-dev_10.0.0+dfsg-2+b1_armhf.deb ...
Unpacking libtinyxml2-dev:armhf (10.0.0+dfsg-2+b1) ...
Selecting previously unselected package librospack-dev:armhf.
Preparing to unpack .../140-librospack-dev_2.6.2-8+b2_armhf.deb ...
Unpacking librospack-dev:armhf (2.6.2-8+b2) ...
Selecting previously unselected package ros-environment.
Preparing to unpack .../141-ros-environment_1.3.2-2_all.deb ...
Unpacking ros-environment (1.3.2-2) ...
Selecting previously unselected package libroslib-dev:armhf.
Preparing to unpack .../142-libroslib-dev_1.15.8-5_armhf.deb ...
Unpacking libroslib-dev:armhf (1.15.8-5) ...
Selecting previously unselected package pluginlib-dev:armhf.
Preparing to unpack .../143-pluginlib-dev_5.3.0-1_armhf.deb ...
Unpacking pluginlib-dev:armhf (5.3.0-1) ...
Selecting previously unselected package liburdf-dev:armhf.
Preparing to unpack .../144-liburdf-dev_1.13.2-8+b4_armhf.deb ...
Unpacking liburdf-dev:armhf (1.13.2-8+b4) ...
Selecting previously unselected package liborocos-kdl-dev:armhf.
Preparing to unpack .../145-liborocos-kdl-dev_1.5.1-3+b1_armhf.deb ...
Unpacking liborocos-kdl-dev:armhf (1.5.1-3+b1) ...
Selecting previously unselected package libkdl-parser-dev:armhf.
Preparing to unpack .../146-libkdl-parser-dev_1.14.2-2+b1_armhf.deb ...
Unpacking libkdl-parser-dev:armhf (1.14.2-2+b1) ...
Selecting previously unselected package libmessage-filters1d:armhf.
Preparing to unpack .../147-libmessage-filters1d_1.16.0+ds-3+b2_armhf.deb ...
Unpacking libmessage-filters1d:armhf (1.16.0+ds-3+b2) ...
Selecting previously unselected package libmessage-filters-dev:armhf.
Preparing to unpack .../148-libmessage-filters-dev_1.16.0+ds-3+b2_armhf.deb ...
Unpacking libmessage-filters-dev:armhf (1.16.0+ds-3+b2) ...
Selecting previously unselected package libtf2-msgs-dev:armhf.
Preparing to unpack .../149-libtf2-msgs-dev_0.7.7-1+b2_armhf.deb ...
Unpacking libtf2-msgs-dev:armhf (0.7.7-1+b2) ...
Selecting previously unselected package libtf2-geometry-msgs-dev:armhf.
Preparing to unpack .../150-libtf2-geometry-msgs-dev_0.7.7-1+b2_armhf.deb ...
Unpacking libtf2-geometry-msgs-dev:armhf (0.7.7-1+b2) ...
Selecting previously unselected package libtf2-dev:armhf.
Preparing to unpack .../151-libtf2-dev_0.7.7-1+b2_armhf.deb ...
Unpacking libtf2-dev:armhf (0.7.7-1+b2) ...
Selecting previously unselected package libtf2-ros-dev:armhf.
Preparing to unpack .../152-libtf2-ros-dev_0.7.7-1+b2_armhf.deb ...
Unpacking libtf2-ros-dev:armhf (0.7.7-1+b2) ...
Selecting previously unselected package libtf2-kdl-dev:armhf.
Preparing to unpack .../153-libtf2-kdl-dev_0.7.7-1+b2_armhf.deb ...
Unpacking libtf2-kdl-dev:armhf (0.7.7-1+b2) ...
Selecting previously unselected package libsensor-msgs-dev:armhf.
Preparing to unpack .../154-libsensor-msgs-dev_1.13.1-2_armhf.deb ...
Unpacking libsensor-msgs-dev:armhf (1.13.1-2) ...
Selecting previously unselected package librobot-state-publisher-dev:armhf.
Preparing to unpack .../155-librobot-state-publisher-dev_1.15.2-5+b1_armhf.deb ...
Unpacking librobot-state-publisher-dev:armhf (1.15.2-5+b1) ...
Setting up python3-pkg-resources (68.1.2-2) ...
Setting up libboost-program-options1.83.0:armhf (1.83.0-2+b2) ...
Setting up libmessage-filters1d:armhf (1.16.0+ds-3+b2) ...
Setting up libboost1.83-dev:armhf (1.83.0-2+b2) ...
Setting up libpsl5:armhf (0.21.2-1+b1) ...
Setting up libpython3.11:armhf (3.11.7-2) ...
Setting up libboost-date-time1.83.0:armhf (1.83.0-2+b2) ...
Setting up libarchive13:armhf (3.7.2-1) ...
Setting up libboost-regex1.83.0:armhf (1.83.0-2+b2) ...
Setting up libbrotli1:armhf (1.1.0-2+b3) ...
Setting up librcutils1d:armhf (6.5.0-1) ...
Setting up libboost-system1.83.0:armhf (1.83.0-2+b2) ...
Setting up libboost-program-options1.83-dev:armhf (1.83.0-2+b2) ...
Setting up libnghttp2-14:armhf (1.58.0-1) ...
Setting up libapr1:armhf (1.7.2-3+b2) ...
Setting up libtinyxml2-10:armhf (10.0.0+dfsg-2+b1) ...
Setting up libboost-thread1.83.0:armhf (1.83.0-2+b2) ...
Setting up python3-yaml (6.0.1-1+b1) ...
Setting up libb64-0d:armhf (1.2-5+b1) ...
Setting up ros-cmake-modules (0.5.0-2) ...
Setting up libboost-filesystem1.83.0:armhf (1.83.0-2+b2) ...
Setting up python3-empy (3.3.4-2) ...
Setting up liborocos-kdl1.5:armhf (1.5.1-3+b1) ...
Setting up libboost-atomic1.83.0:armhf (1.83.0-2+b2) ...
Setting up python3-six (1.16.0-4) ...
Setting up libboost-serialization1.83.0:armhf (1.83.0-2+b2) ...
Setting up python3-ament-package (0.16.2-1) ...
Setting up python3-roman (3.3-3) ...
Setting up libpkgconf3:armhf (1.8.1-1+b2) ...
Setting up libuv1:armhf (1.46.0-3) ...
Setting up libexpat1-dev:armhf (2.5.0-2+b2) ...
Setting up python3-pyparsing (3.1.1-1) ...
Setting up libboost-program-options-dev:armhf (1.83.0.2) ...
Setting up librtmp1:armhf (2.4+20151223.gitfa8646d.1-2+b2) ...
Setting up libldap-dev:armhf (2.5.13+dfsg-5+b2) ...
Setting up uuid-dev:armhf (2.39.3-6) ...
Setting up libtinyxml2-9:armhf (9.0.0+dfsg-3.1) ...
Setting up librcutils-dev:armhf (6.5.0-1) ...
Setting up libjsoncpp25:armhf (1.9.5-6+b2) ...
Setting up icu-devtools (72.1-4) ...
Setting up pkgconf-bin (1.8.1-1+b2) ...
Setting up libtinyxml2.6.2v5:armhf (2.6.2-6.1) ...
Setting up libtinyxml2-dev:armhf (10.0.0+dfsg-2+b1) ...
Setting up libboost-atomic1.83-dev:armhf (1.83.0-2+b2) ...
Setting up libsctp1:armhf (1.0.19+dfsg-2) ...
Setting up libament-index-cpp0d:armhf (1.7.0-1) ...
Setting up libboost-chrono1.83.0:armhf (1.83.0-2+b2) ...
Setting up librhash0:armhf (1.4.3-3) ...
Setting up python3-dateutil (2.8.2-3) ...
Setting up libssh2-1:armhf (1.11.0-4) ...
Setting up sgml-base (1.31) ...
Setting up cmake-data (3.28.1-1) ...
Setting up libboost-dev:armhf (1.83.0.2) ...
Setting up libboost-system1.83-dev:armhf (1.83.0-2+b2) ...
Setting up lsb-release (12.0-2) ...
Setting up libconsole-bridge1.0:armhf (1.0.1+dfsg2-3+b1) ...
Setting up python3-lib2to3 (3.11.5-1) ...
Setting up libconsole-bridge-dev:armhf (1.0.1+dfsg2-3+b1) ...
Setting up libicu-dev:armhf (72.1-4) ...
Setting up libroscpp-serialization0d:armhf (0.7.3-1) ...
Setting up librostime1d:armhf (0.7.3-1) ...
Setting up libaprutil1:armhf (1.6.3-1+b1) ...
Setting up liburdfdom-headers-dev (1.0.5-3) ...
Setting up ros-environment (1.3.2-2) ...
Setting up python3-distutils (3.11.5-1) ...
Setting up librcpputils1d:armhf (2.9.0-1) ...
Setting up liburdfdom-model-state3.0:armhf (3.0.1-1) ...
Setting up python3-genmsg (0.6.0-1) ...
Setting up libtf2-2d:armhf (0.7.7-1+b2) ...
Setting up libboost-chrono1.83-dev:armhf (1.83.0-2+b2) ...
Setting up python3-setuptools (68.1.2-2) ...
Setting up libxmlrpcpp3d:armhf (1.16.0+ds-3+b2) ...
Setting up python3-distro (1.9.0-1) ...
Setting up libament-index-cpp-dev:armhf (1.7.0-1) ...
Setting up librospack0d:armhf (2.6.2-8+b2) ...
Setting up libtinyxml-dev:armhf (2.6.2-6.1) ...
Setting up libboost-system-dev:armhf (1.83.0.2) ...
Setting up libboost-serialization1.83-dev:armhf (1.83.0-2+b2) ...
Setting up libclass-loader3d:armhf (2.7.0-1) ...
Setting up libb64-dev:armhf (1.2-5+b1) ...
Setting up libboost-filesystem1.83-dev:armhf (1.83.0-2+b2) ...
Setting up librcpputils-dev:armhf (2.9.0-1) ...
Setting up liburdfdom-model3.0:armhf (3.0.1-1) ...
Setting up libroslib0d:armhf (1.15.8-5) ...
Setting up libaprutil1-dbd-sqlite3:armhf (1.6.3-1+b1) ...
Setting up pkgconf:armhf (1.8.1-1+b2) ...
Setting up libldap2-dev (2.5.13+dfsg-5) ...
Setting up libcpp-common0d:armhf (0.7.3-1) ...
Setting up libboost-date-time1.83-dev:armhf (1.83.0-2+b2) ...
Setting up liburdfdom-world3.0:armhf (3.0.1-1) ...
Setting up libeigen3-dev (3.4.0-4) ...
Setting up libboost-regex1.83-dev:armhf (1.83.0-2+b2) ...
Setting up libsctp-dev:armhf (1.0.19+dfsg-2) ...
Setting up pkg-config:armhf (1.8.1-1+b2) ...
Setting up python3-genlisp (0.4.18-2) ...
Setting up python3-gencpp (0.7.0-1) ...
Setting up xml-core (0.19) ...
Setting up liblog4cxx15:armhf (1.1.0-1) ...
Setting up libcurl4:armhf (8.5.0-2) ...
Setting up python3-genpy (0.6.16-2) ...
Setting up libroscpp-core-dev:armhf (0.7.3-1) ...
Setting up libclass-loader-dev:armhf (2.7.0-1) ...
Setting up libboost-regex-dev:armhf (1.83.0.2) ...
Setting up libboost-filesystem-dev:armhf (1.83.0.2) ...
Setting up libboost-thread1.83-dev:armhf (1.83.0-2+b2) ...
Setting up liburdfdom-sensor3.0:armhf (3.0.1-1) ...
Setting up liborocos-kdl-dev:armhf (1.5.1-3+b1) ...
Setting up librosconsole3d:armhf (1.14.3-11+b1) ...
Setting up ros-message-runtime:armhf (0.4.13-5) ...
Setting up libstd-msgs-dev:armhf (0.5.13-3) ...
Setting up libroscpp4d:armhf (1.16.0+ds-3+b2) ...
Setting up libactionlib-msgs-dev:armhf (1.13.1-2) ...
Setting up libroscpp-msg-dev:armhf (1.16.0+ds-3+b2) ...
Setting up ros-message-generation (0.4.1-5) ...
Setting up librosconsole-bridge0d:armhf (0.5.4-4+b2) ...
Setting up librospack-dev:armhf (2.6.2-8+b2) ...
Setting up libapr1-dev (1.7.2-3+b2) ...
Setting up libxmlrpcpp-dev:armhf (1.16.0+ds-3+b2) ...
Setting up cmake (3.28.1-1) ...
Setting up libaprutil1-dev (1.6.3-1+b1) ...
Setting up libgeometry-msgs-dev:armhf (1.13.1-2) ...
Setting up libros-rosgraph-msgs-dev:armhf (1.11.3-3) ...
Setting up libactionlib1d:armhf (1.14.0-6+b1) ...
Setting up libboost-thread-dev:armhf (1.83.0.2) ...
Setting up libsensor-msgs-dev:armhf (1.13.1-2) ...
Setting up liburdfdom-dev:armhf (3.0.1-1) ...
Setting up libroslib-dev:armhf (1.15.8-5) ...
Setting up libtf2-ros1d:armhf (0.7.7-1+b2) ...
Setting up liburdf1d:armhf (1.13.2-8+b4) ...
Setting up libtf2-msgs-dev:armhf (0.7.7-1+b2) ...
Setting up liblog4cxx-dev:armhf (1.1.0-1) ...
Setting up libkdl-parser1d:armhf (1.14.2-2+b1) ...
Setting up librobot-state-publisher-solver1d:armhf (1.15.2-5+b1) ...
Setting up librosconsole-dev:armhf (1.14.3-11+b1) ...
Setting up librosconsole-bridge-dev:armhf (0.5.4-4+b2) ...
Setting up libjoint-state-listener1d:armhf (1.15.2-5+b1) ...
Setting up libroscpp-dev:armhf (1.16.0+ds-3+b2) ...
Setting up libmessage-filters-dev:armhf (1.16.0+ds-3+b2) ...
Setting up libtf2-geometry-msgs-dev:armhf (0.7.7-1+b2) ...
Setting up libtf2-dev:armhf (0.7.7-1+b2) ...
Processing triggers for libc-bin (2.37-13) ...
Processing triggers for sgml-base (1.31) ...
Setting up docutils-common (0.20.1+dfsg-3) ...
Processing triggers for sgml-base (1.31) ...
Setting up python3-docutils (0.20.1+dfsg-3) ...
Setting up python3-catkin-pkg (1.0.0-2) ...
Setting up ament-cmake-core (2.3.2-1) ...
Setting up ament-cmake-python (2.3.2-1) ...
Setting up python3-rospkg (1.5.0-1) ...
Setting up python3-rosunit (1.15.8-5) ...
Setting up python3-ament-cmake-test (2.3.2-1) ...
Setting up libactionlib-dev:armhf (1.14.0-6+b1) ...
Setting up ament-cmake (2.3.2-1) ...
Setting up libtf2-ros-dev:armhf (0.7.7-1+b2) ...
Setting up libtf2-kdl-dev:armhf (0.7.7-1+b2) ...
Setting up pluginlib-dev:armhf (5.3.0-1) ...
Setting up liburdf-dev:armhf (1.13.2-8+b4) ...
Setting up libkdl-parser-dev:armhf (1.14.2-2+b1) ...
Setting up librobot-state-publisher-dev:armhf (1.15.2-5+b1) ...
Reading package lists...
Building dependency tree...
Reading state information...
The following packages will be REMOVED:
  libroaring-dev* libroaring0*
0 upgraded, 0 newly installed, 2 to remove and 24 not upgraded.
After this operation, 545 kB disk space will be freed.
(Reading database ... (Reading database ... 5%(Reading database ... 10%(Reading database ... 15%(Reading database ... 20%(Reading database ... 25%(Reading database ... 30%(Reading database ... 35%(Reading database ... 40%(Reading database ... 45%(Reading database ... 50%(Reading database ... 55%(Reading database ... 60%(Reading database ... 65%(Reading database ... 70%(Reading database ... 75%(Reading database ... 80%(Reading database ... 85%(Reading database ... 90%(Reading database ... 95%(Reading database ... 100%(Reading database ... 42957 files and directories currently installed.)
Removing libroaring-dev:armhf (0.2.66+ds-2+b1) ...
Removing libroaring0:armhf (0.2.66+ds-2+b1) ...
Processing triggers for libc-bin (2.37-13) ...
