[2024-01-06T15:32:17+00:00] apt-get install libbrahe-dev abi-compliance-checker
Reading package lists...
Building dependency tree...
Reading state information...
abi-compliance-checker is already the newest version (2.3-2).
The following packages were automatically installed and are no longer required:
  libbpp-core-dev libbpp-core4 libbpp-seq-dev libbpp-seq-omics-dev
  libbpp-seq-omics3 libbpp-seq12
Use 'apt autoremove' to remove them.
The following NEW packages will be installed:
  libbrahe-1.3-3 libbrahe-dev
0 upgraded, 2 newly installed, 0 to remove and 15 not upgraded.
Need to get 78.6 kB of archives.
After this operation, 512 kB of additional disk space will be used.
Get:1 http://deb.debian.org/debian unstable/main armhf libbrahe-1.3-3 armhf 1.3.2-9+b1 [12.3 kB]
Get:2 http://deb.debian.org/debian unstable/main armhf libbrahe-dev armhf 1.3.2-9+b1 [66.3 kB]
debconf: delaying package configuration, since apt-utils is not installed
Fetched 78.6 kB in 0s (278 kB/s)
Selecting previously unselected package libbrahe-1.3-3:armhf.
(Reading database ... (Reading database ... 5%(Reading database ... 10%(Reading database ... 15%(Reading database ... 20%(Reading database ... 25%(Reading database ... 30%(Reading database ... 35%(Reading database ... 40%(Reading database ... 45%(Reading database ... 50%(Reading database ... 55%(Reading database ... 60%(Reading database ... 65%(Reading database ... 70%(Reading database ... 75%(Reading database ... 80%(Reading database ... 85%(Reading database ... 90%(Reading database ... 95%(Reading database ... 100%(Reading database ... 18711 files and directories currently installed.)
Preparing to unpack .../libbrahe-1.3-3_1.3.2-9+b1_armhf.deb ...
Unpacking libbrahe-1.3-3:armhf (1.3.2-9+b1) ...
Selecting previously unselected package libbrahe-dev.
Preparing to unpack .../libbrahe-dev_1.3.2-9+b1_armhf.deb ...
Unpacking libbrahe-dev (1.3.2-9+b1) ...
Setting up libbrahe-1.3-3:armhf (1.3.2-9+b1) ...
Setting up libbrahe-dev (1.3.2-9+b1) ...
Processing triggers for libc-bin (2.37-13) ...
Reading package lists...
Building dependency tree...
Reading state information...
The following packages will be REMOVED:
  libbpp-core-dev* libbpp-core4* libbpp-seq-dev* libbpp-seq-omics-dev*
  libbpp-seq-omics3* libbpp-seq12*
0 upgraded, 0 newly installed, 6 to remove and 15 not upgraded.
After this operation, 19.6 MB disk space will be freed.
(Reading database ... (Reading database ... 5%(Reading database ... 10%(Reading database ... 15%(Reading database ... 20%(Reading database ... 25%(Reading database ... 30%(Reading database ... 35%(Reading database ... 40%(Reading database ... 45%(Reading database ... 50%(Reading database ... 55%(Reading database ... 60%(Reading database ... 65%(Reading database ... 70%(Reading database ... 75%(Reading database ... 80%(Reading database ... 85%(Reading database ... 90%(Reading database ... 95%(Reading database ... 100%(Reading database ... 18786 files and directories currently installed.)
Removing libbpp-seq-omics-dev:armhf (2.4.1-10) ...
Removing libbpp-seq-dev:armhf (2.4.1-10) ...
Removing libbpp-core-dev:armhf (2.4.1-11) ...
Removing libbpp-seq-omics3:armhf (2.4.1-10) ...
Removing libbpp-seq12:armhf (2.4.1-10) ...
Removing libbpp-core4:armhf (2.4.1-11) ...
Processing triggers for libc-bin (2.37-13) ...
