[2024-01-06T19:09:00+00:00] apt-get install libdisasm-dev abi-compliance-checker
Reading package lists...
Building dependency tree...
Reading state information...
abi-compliance-checker is already the newest version (2.3-2).
The following packages were automatically installed and are no longer required:
  lib++dfb-1.7-7 liba52-0.7.4 libbrotli-dev libbrotli1 libbz2-dev
  libdirectfb-1.7-7 libdirectfb-dev libdrm-amdgpu1 libdrm-common libdrm-dev
  libdrm-etnaviv1 libdrm-exynos1 libdrm-freedreno1 libdrm-nouveau2
  libdrm-omap1 libdrm-radeon1 libdrm-tegra0 libdrm2 libedit2 libegl-dev
  libegl-mesa0 libegl1 libfreetype-dev libfreetype6 libgbm-dev libgbm1
  libgl-dev libgl1 libgl1-mesa-dev libgl1-mesa-dri libglapi-mesa libgles-dev
  libgles1 libgles2 libglvnd-core-dev libglvnd-dev libglvnd0 libglx-dev
  libglx-mesa0 libglx0 libjpeg-dev libjpeg62-turbo libjpeg62-turbo-dev
  libllvm17 libmpeg3-2 libmpeg3-dev libopengl-dev libopengl0 libpciaccess-dev
  libpciaccess0 libpkgconf3 libpng-dev libpng16-16 libpthread-stubs0-dev
  libsensors-config libsensors5 libvulkan1 libwayland-client0
  libwayland-server0 libx11-6 libx11-data libx11-dev libx11-xcb1 libxau-dev
  libxau6 libxcb-dri2-0 libxcb-dri3-0 libxcb-glx0 libxcb-present0
  libxcb-randr0 libxcb-shm0 libxcb-sync1 libxcb-xfixes0 libxcb1 libxcb1-dev
  libxdmcp-dev libxdmcp6 libxext-dev libxext6 libxfixes3 libxshmfence1
  libxxf86vm1 libz3-4 pkg-config pkgconf pkgconf-bin x11proto-dev
  xorg-sgml-doctools xtrans-dev
Use 'apt autoremove' to remove them.
Suggested packages:
  x86dis
The following NEW packages will be installed:
  libdisasm-dev libdisasm0
0 upgraded, 2 newly installed, 0 to remove and 12 not upgraded.
Need to get 100 kB of archives.
After this operation, 644 kB of additional disk space will be used.
Get:1 http://deb.debian.org/debian unstable/main armhf libdisasm0 armhf 0.23-6.1 [33.8 kB]
Get:2 http://deb.debian.org/debian unstable/main armhf libdisasm-dev armhf 0.23-6.1 [66.3 kB]
debconf: delaying package configuration, since apt-utils is not installed
Fetched 100 kB in 0s (218 kB/s)
Selecting previously unselected package libdisasm0:armhf.
(Reading database ... (Reading database ... 5%(Reading database ... 10%(Reading database ... 15%(Reading database ... 20%(Reading database ... 25%(Reading database ... 30%(Reading database ... 35%(Reading database ... 40%(Reading database ... 45%(Reading database ... 50%(Reading database ... 55%(Reading database ... 60%(Reading database ... 65%(Reading database ... 70%(Reading database ... 75%(Reading database ... 80%(Reading database ... 85%(Reading database ... 90%(Reading database ... 95%(Reading database ... 100%(Reading database ... 22001 files and directories currently installed.)
Preparing to unpack .../libdisasm0_0.23-6.1_armhf.deb ...
Unpacking libdisasm0:armhf (0.23-6.1) ...
Selecting previously unselected package libdisasm-dev:armhf.
Preparing to unpack .../libdisasm-dev_0.23-6.1_armhf.deb ...
Unpacking libdisasm-dev:armhf (0.23-6.1) ...
Setting up libdisasm0:armhf (0.23-6.1) ...
Setting up libdisasm-dev:armhf (0.23-6.1) ...
Processing triggers for libc-bin (2.37-13) ...
Reading package lists...
Building dependency tree...
Reading state information...
The following packages will be REMOVED:
  lib++dfb-1.7-7* liba52-0.7.4* libbrotli-dev* libbrotli1* libbz2-dev*
  libdirectfb-1.7-7* libdirectfb-dev* libdrm-amdgpu1* libdrm-common*
  libdrm-dev* libdrm-etnaviv1* libdrm-exynos1* libdrm-freedreno1*
  libdrm-nouveau2* libdrm-omap1* libdrm-radeon1* libdrm-tegra0* libdrm2*
  libedit2* libegl-dev* libegl-mesa0* libegl1* libfreetype-dev* libfreetype6*
  libgbm-dev* libgbm1* libgl-dev* libgl1* libgl1-mesa-dev* libgl1-mesa-dri*
  libglapi-mesa* libgles-dev* libgles1* libgles2* libglvnd-core-dev*
  libglvnd-dev* libglvnd0* libglx-dev* libglx-mesa0* libglx0* libjpeg-dev*
  libjpeg62-turbo* libjpeg62-turbo-dev* libllvm17* libmpeg3-2* libmpeg3-dev*
  libopengl-dev* libopengl0* libpciaccess-dev* libpciaccess0* libpkgconf3*
  libpng-dev* libpng16-16* libpthread-stubs0-dev* libsensors-config*
  libsensors5* libvulkan1* libwayland-client0* libwayland-server0* libx11-6*
  libx11-data* libx11-dev* libx11-xcb1* libxau-dev* libxau6* libxcb-dri2-0*
  libxcb-dri3-0* libxcb-glx0* libxcb-present0* libxcb-randr0* libxcb-shm0*
  libxcb-sync1* libxcb-xfixes0* libxcb1* libxcb1-dev* libxdmcp-dev* libxdmcp6*
  libxext-dev* libxext6* libxfixes3* libxshmfence1* libxxf86vm1* libz3-4*
  pkg-config* pkgconf* pkgconf-bin* x11proto-dev* xorg-sgml-doctools*
  xtrans-dev*
0 upgraded, 0 newly installed, 89 to remove and 12 not upgraded.
After this operation, 178 MB disk space will be freed.
(Reading database ... (Reading database ... 5%(Reading database ... 10%(Reading database ... 15%(Reading database ... 20%(Reading database ... 25%(Reading database ... 30%(Reading database ... 35%(Reading database ... 40%(Reading database ... 45%(Reading database ... 50%(Reading database ... 55%(Reading database ... 60%(Reading database ... 65%(Reading database ... 70%(Reading database ... 75%(Reading database ... 80%(Reading database ... 85%(Reading database ... 90%(Reading database ... 95%(Reading database ... 100%(Reading database ... 22019 files and directories currently installed.)
Removing libdirectfb-dev:armhf (1.7.7-11) ...
Removing lib++dfb-1.7-7:armhf (1.7.7-11) ...
Removing libmpeg3-dev:armhf (1.8.dfsg-4) ...
Removing libmpeg3-2:armhf (1.8.dfsg-4) ...
Removing liba52-0.7.4:armhf (0.7.4-20+b1) ...
Removing libfreetype-dev:armhf (2.13.2+dfsg-1) ...
Removing libbrotli-dev:armhf (1.1.0-2+b1) ...
Removing libfreetype6:armhf (2.13.2+dfsg-1) ...
Removing libbrotli1:armhf (1.1.0-2+b1) ...
Removing libbz2-dev:armhf (1.0.8-5+b1) ...
Removing libdirectfb-1.7-7:armhf (1.7.7-11) ...
Removing libgl1-mesa-dev:armhf (23.3.2-2) ...
Removing libglvnd-dev:armhf (1.7.0-1) ...
Removing libdrm-dev:armhf (2.4.117-1) ...
Removing libgles-dev:armhf (1.7.0-1) ...
Removing libegl-dev:armhf (1.7.0-1) ...
Removing libegl1:armhf (1.7.0-1) ...
Removing libegl-mesa0:armhf (23.3.2-2) ...
Removing libgbm-dev:armhf (23.3.2-2) ...
Removing libgbm1:armhf (23.3.2-2) ...
Removing libdrm-etnaviv1:armhf (2.4.117-1) ...
Removing libdrm-exynos1:armhf (2.4.117-1) ...
Removing libdrm-freedreno1:armhf (2.4.117-1) ...
Removing libdrm-omap1:armhf (2.4.117-1) ...
Removing libdrm-tegra0:armhf (2.4.117-1) ...
Removing libgles1:armhf (1.7.0-1) ...
Removing libgles2:armhf (1.7.0-1) ...
Removing libglvnd-core-dev:armhf (1.7.0-1) ...
Removing libopengl-dev:armhf (1.7.0-1) ...
Removing libopengl0:armhf (1.7.0-1) ...
Removing libjpeg-dev:armhf (1:2.1.5-2) ...
Removing libjpeg62-turbo-dev:armhf (1:2.1.5-2) ...
Removing libjpeg62-turbo:armhf (1:2.1.5-2) ...
Removing libpciaccess-dev:armhf (0.17-3) ...
Removing libpciaccess0:armhf (0.17-3) ...
Removing pkg-config:armhf (1.8.1-1) ...
Removing pkgconf:armhf (1.8.1-1) ...
Removing pkgconf-bin (1.8.1-1) ...
Removing libpkgconf3:armhf (1.8.1-1) ...
Removing libpng-dev:armhf (1.6.40-3) ...
Removing libpng16-16:armhf (1.6.40-3) ...
Removing libxext-dev:armhf (2:1.3.4-1+b1) ...
Removing libwayland-client0:armhf (1.22.0-2.1) ...
Removing libwayland-server0:armhf (1.22.0-2.1) ...
Removing libgl-dev:armhf (1.7.0-1) ...
Removing libgl1:armhf (1.7.0-1) ...
Removing libglx-dev:armhf (1.7.0-1) ...
Removing libglx0:armhf (1.7.0-1) ...
Removing libglx-mesa0:armhf (23.3.2-2) ...
Removing libgl1-mesa-dri:armhf (23.3.2-2) ...
Removing libdrm-amdgpu1:armhf (2.4.117-1) ...
Removing libdrm-nouveau2:armhf (2.4.117-1) ...
Removing libdrm-radeon1:armhf (2.4.117-1) ...
Removing libllvm17:armhf (1:17.0.6-3) ...
Removing libedit2:armhf (3.1-20230828-1) ...
Removing libglapi-mesa:armhf (23.3.2-2) ...
Removing libglvnd0:armhf (1.7.0-1) ...
Removing libx11-dev:armhf (2:1.8.7-1) ...
Removing libxcb1-dev:armhf (1.15-1) ...
Removing libpthread-stubs0-dev:armhf (0.4-1) ...
Removing libsensors5:armhf (1:3.6.0-8) ...
Removing libsensors-config (1:3.6.0-8) ...
Removing libvulkan1:armhf (1.3.268.0-1) ...
Removing libxxf86vm1:armhf (1:1.1.4-1+b2) ...
Removing libxfixes3:armhf (1:6.0.0-2) ...
Removing libx11-xcb1:armhf (2:1.8.7-1) ...
Removing libxau-dev:armhf (1:1.0.9-1) ...
Removing libxcb-xfixes0:armhf (1.15-1) ...
Removing libxcb-sync1:armhf (1.15-1) ...
Removing libxcb-dri2-0:armhf (1.15-1) ...
Removing libxcb-dri3-0:armhf (1.15-1) ...
Removing libxcb-glx0:armhf (1.15-1) ...
Removing libxcb-present0:armhf (1.15-1) ...
Removing libxcb-randr0:armhf (1.15-1) ...
Removing libxcb-shm0:armhf (1.15-1) ...
Removing libxdmcp-dev:armhf (1:1.1.2-3) ...
Removing libxext6:armhf (2:1.3.4-1+b1) ...
Removing libxshmfence1:armhf (1.3-1) ...
Removing libz3-4:armhf (4.8.12-3.1) ...
Removing x11proto-dev (2023.2-1) ...
Removing xorg-sgml-doctools (1:1.11-1.1) ...
Removing xtrans-dev (1.4.0-1) ...
Removing libdrm2:armhf (2.4.117-1) ...
Removing libdrm-common (2.4.117-1) ...
Removing libx11-6:armhf (2:1.8.7-1) ...
Removing libx11-data (2:1.8.7-1) ...
Removing libxcb1:armhf (1.15-1) ...
Removing libxau6:armhf (1:1.0.9-1) ...
Removing libxdmcp6:armhf (1:1.1.2-3) ...
Processing triggers for sgml-base (1.31) ...
Processing triggers for libc-bin (2.37-13) ...
(Reading database ... (Reading database ... 5%(Reading database ... 10%(Reading database ... 15%(Reading database ... 20%(Reading database ... 25%(Reading database ... 30%(Reading database ... 35%(Reading database ... 40%(Reading database ... 45%(Reading database ... 50%(Reading database ... 55%(Reading database ... 60%(Reading database ... 65%(Reading database ... 70%(Reading database ... 75%(Reading database ... 80%(Reading database ... 85%(Reading database ... 90%(Reading database ... 95%(Reading database ... 100%(Reading database ... 20214 files and directories currently installed.)
Purging configuration files for libgl1-mesa-dri:armhf (23.3.2-2) ...
Purging configuration files for libsensors-config (1:3.6.0-8) ...
Purging configuration files for pkgconf:armhf (1.8.1-1) ...
Purging configuration files for pkg-config:armhf (1.8.1-1) ...
