[2024-01-06T15:45:37+00:00] apt-get install libc-ares-dev abi-compliance-checker
Reading package lists...
Building dependency tree...
Reading state information...
abi-compliance-checker is already the newest version (2.3-2).
The following packages were automatically installed and are no longer required:
  libc++abi-17-dev libc++abi1-17 libunwind-17
Use 'apt autoremove' to remove them.
The following NEW packages will be installed:
  libc-ares-dev libc-ares2
0 upgraded, 2 newly installed, 0 to remove and 15 not upgraded.
Need to get 376 kB of archives.
After this operation, 808 kB of additional disk space will be used.
Get:1 http://deb.debian.org/debian unstable/main armhf libc-ares2 armhf 1.24.0-1 [126 kB]
Get:2 http://deb.debian.org/debian unstable/main armhf libc-ares-dev armhf 1.24.0-1 [250 kB]
debconf: delaying package configuration, since apt-utils is not installed
Fetched 376 kB in 0s (1574 kB/s)
Selecting previously unselected package libc-ares2:armhf.
(Reading database ... (Reading database ... 5%(Reading database ... 10%(Reading database ... 15%(Reading database ... 20%(Reading database ... 25%(Reading database ... 30%(Reading database ... 35%(Reading database ... 40%(Reading database ... 45%(Reading database ... 50%(Reading database ... 55%(Reading database ... 60%(Reading database ... 65%(Reading database ... 70%(Reading database ... 75%(Reading database ... 80%(Reading database ... 85%(Reading database ... 90%(Reading database ... 95%(Reading database ... 100%(Reading database ... 18337 files and directories currently installed.)
Preparing to unpack .../libc-ares2_1.24.0-1_armhf.deb ...
Unpacking libc-ares2:armhf (1.24.0-1) ...
Selecting previously unselected package libc-ares-dev:armhf.
Preparing to unpack .../libc-ares-dev_1.24.0-1_armhf.deb ...
Unpacking libc-ares-dev:armhf (1.24.0-1) ...
Setting up libc-ares2:armhf (1.24.0-1) ...
Setting up libc-ares-dev:armhf (1.24.0-1) ...
Processing triggers for libc-bin (2.37-13) ...
Reading package lists...
Building dependency tree...
Reading state information...
The following packages will be REMOVED:
  libc++abi-17-dev* libc++abi1-17* libunwind-17*
0 upgraded, 0 newly installed, 3 to remove and 15 not upgraded.
After this operation, 926 kB disk space will be freed.
(Reading database ... (Reading database ... 5%(Reading database ... 10%(Reading database ... 15%(Reading database ... 20%(Reading database ... 25%(Reading database ... 30%(Reading database ... 35%(Reading database ... 40%(Reading database ... 45%(Reading database ... 50%(Reading database ... 55%(Reading database ... 60%(Reading database ... 65%(Reading database ... 70%(Reading database ... 75%(Reading database ... 80%(Reading database ... 85%(Reading database ... 90%(Reading database ... 95%(Reading database ... 100%(Reading database ... 18494 files and directories currently installed.)
Removing libc++abi-17-dev:armhf (1:17.0.6-3) ...
Removing libc++abi1-17:armhf (1:17.0.6-3) ...
Removing libunwind-17:armhf (1:17.0.6-3) ...
Processing triggers for libc-bin (2.37-13) ...
