Temporary header file '/tmp/2y4Qiv_JQP/dump1.h' with the following content will be compiled to create GCC translation unit dump:

  // add defines
  #define __STDC_VERSION__ 201710L
#define _FILE_OFFSET_BITS 64
#define _GXX_NULLPTR_T
#define CLUTTER_ENABLE_COMPOSITOR_API 1
#define _REGEX_NELTS(n)
#define _Atomic
#define PACKED
#ifdef __cplusplus
// C17 compat layer
#define _Alignof(type) alignof(type)
#endif
#define getaddrinfo_a(a,b,c,d)

  // add includes
  #include "/usr/include/arm-linux-gnueabihf/qt5/Qt3DAnimation/qabstractanimation.h"
  #include "/usr/include/arm-linux-gnueabihf/qt5/Qt3DAnimation/qabstractanimationclip.h"
  #include "/usr/include/arm-linux-gnueabihf/qt5/Qt3DAnimation/qabstractchannelmapping.h"
  #include "/usr/include/arm-linux-gnueabihf/qt5/Qt3DAnimation/qabstractclipanimator.h"
  #include "/usr/include/arm-linux-gnueabihf/qt5/Qt3DAnimation/qabstractclipblendnode.h"
  #include "/usr/include/arm-linux-gnueabihf/qt5/Qt3DAnimation/qadditiveclipblend.h"
  #include "/usr/include/arm-linux-gnueabihf/qt5/Qt3DAnimation/qanimationaspect.h"
  #include "/usr/include/arm-linux-gnueabihf/qt5/Qt3DAnimation/qanimationcallback.h"
  #include "/usr/include/arm-linux-gnueabihf/qt5/Qt3DAnimation/qanimationclip.h"
  #include "/usr/include/arm-linux-gnueabihf/qt5/Qt3DAnimation/qanimationclipdata.h"
  #include "/usr/include/arm-linux-gnueabihf/qt5/Qt3DAnimation/qanimationcliploader.h"
  #include "/usr/include/arm-linux-gnueabihf/qt5/Qt3DAnimation/qanimationcontroller.h"
  #include "/usr/include/arm-linux-gnueabihf/qt5/Qt3DAnimation/qanimationgroup.h"
  #include "/usr/include/arm-linux-gnueabihf/qt5/Qt3DAnimation/qblendedclipanimator.h"
  #include "/usr/include/arm-linux-gnueabihf/qt5/Qt3DAnimation/qcallbackmapping.h"
  #include "/usr/include/arm-linux-gnueabihf/qt5/Qt3DAnimation/qchannel.h"
  #include "/usr/include/arm-linux-gnueabihf/qt5/Qt3DAnimation/qchannelcomponent.h"
  #include "/usr/include/arm-linux-gnueabihf/qt5/Qt3DAnimation/qchannelmapper.h"
  #include "/usr/include/arm-linux-gnueabihf/qt5/Qt3DAnimation/qchannelmapping.h"
  #include "/usr/include/arm-linux-gnueabihf/qt5/Qt3DAnimation/qclipanimator.h"
  #include "/usr/include/arm-linux-gnueabihf/qt5/Qt3DAnimation/qclipblendnodecreatedchange.h"
  #include "/usr/include/arm-linux-gnueabihf/qt5/Qt3DAnimation/qclipblendvalue.h"
  #include "/usr/include/arm-linux-gnueabihf/qt5/Qt3DAnimation/qclock.h"
  #include "/usr/include/arm-linux-gnueabihf/qt5/Qt3DAnimation/qkeyframe.h"
  #include "/usr/include/arm-linux-gnueabihf/qt5/Qt3DAnimation/qkeyframeanimation.h"
  #include "/usr/include/arm-linux-gnueabihf/qt5/Qt3DAnimation/qlerpclipblend.h"
  #include "/usr/include/arm-linux-gnueabihf/qt5/Qt3DAnimation/qmorphinganimation.h"
  #include "/usr/include/arm-linux-gnueabihf/qt5/Qt3DAnimation/qmorphtarget.h"
  #include "/usr/include/arm-linux-gnueabihf/qt5/Qt3DAnimation/qskeletonmapping.h"
  #include "/usr/include/arm-linux-gnueabihf/qt5/Qt3DAnimation/qt3danimation_global.h"
  #include "/usr/include/arm-linux-gnueabihf/qt5/Qt3DAnimation/qt3danimationversion.h"
  #include "/usr/include/arm-linux-gnueabihf/qt5/Qt3DAnimation/qvertexblendanimation.h"
  #include "/usr/include/arm-linux-gnueabihf/qt5/Qt3DCore/qabstractaspect.h"
  #include "/usr/include/arm-linux-gnueabihf/qt5/Qt3DCore/qabstractskeleton.h"
  #include "/usr/include/arm-linux-gnueabihf/qt5/Qt3DCore/qarmature.h"
  #include "/usr/include/arm-linux-gnueabihf/qt5/Qt3DCore/qaspectengine.h"
  #include "/usr/include/arm-linux-gnueabihf/qt5/Qt3DCore/qaspectjob.h"
  #include "/usr/include/arm-linux-gnueabihf/qt5/Qt3DCore/qbackendnode.h"
  #include "/usr/include/arm-linux-gnueabihf/qt5/Qt3DCore/qcomponent.h"
  #include "/usr/include/arm-linux-gnueabihf/qt5/Qt3DCore/qcomponentaddedchange.h"
  #include "/usr/include/arm-linux-gnueabihf/qt5/Qt3DCore/qcomponentremovedchange.h"
  #include "/usr/include/arm-linux-gnueabihf/qt5/Qt3DCore/qdynamicpropertyupdatedchange.h"
  #include "/usr/include/arm-linux-gnueabihf/qt5/Qt3DCore/qentity.h"
  #include "/usr/include/arm-linux-gnueabihf/qt5/Qt3DCore/qjoint.h"
  #include "/usr/include/arm-linux-gnueabihf/qt5/Qt3DCore/qnode.h"
  #include "/usr/include/arm-linux-gnueabihf/qt5/Qt3DCore/qnodecommand.h"
  #include "/usr/include/arm-linux-gnueabihf/qt5/Qt3DCore/qnodecreatedchange.h"
  #include "/usr/include/arm-linux-gnueabihf/qt5/Qt3DCore/qnodedestroyedchange.h"
  #include "/usr/include/arm-linux-gnueabihf/qt5/Qt3DCore/qnodeid.h"
  #include "/usr/include/arm-linux-gnueabihf/qt5/Qt3DCore/qpropertynodeaddedchange.h"
  #include "/usr/include/arm-linux-gnueabihf/qt5/Qt3DCore/qpropertynoderemovedchange.h"
  #include "/usr/include/arm-linux-gnueabihf/qt5/Qt3DCore/qpropertyupdatedchange.h"
  #include "/usr/include/arm-linux-gnueabihf/qt5/Qt3DCore/qpropertyupdatedchangebase.h"
  #include "/usr/include/arm-linux-gnueabihf/qt5/Qt3DCore/qpropertyvalueaddedchange.h"
  #include "/usr/include/arm-linux-gnueabihf/qt5/Qt3DCore/qpropertyvalueaddedchangebase.h"
  #include "/usr/include/arm-linux-gnueabihf/qt5/Qt3DCore/qpropertyvalueremovedchange.h"
  #include "/usr/include/arm-linux-gnueabihf/qt5/Qt3DCore/qpropertyvalueremovedchangebase.h"
  #include "/usr/include/arm-linux-gnueabihf/qt5/Qt3DCore/qscenechange.h"
  #include "/usr/include/arm-linux-gnueabihf/qt5/Qt3DCore/qskeleton.h"
  #include "/usr/include/arm-linux-gnueabihf/qt5/Qt3DCore/qskeletonloader.h"
  #include "/usr/include/arm-linux-gnueabihf/qt5/Qt3DCore/qstaticpropertyupdatedchangebase.h"
  #include "/usr/include/arm-linux-gnueabihf/qt5/Qt3DCore/qstaticpropertyvalueaddedchangebase.h"
  #include "/usr/include/arm-linux-gnueabihf/qt5/Qt3DCore/qstaticpropertyvalueremovedchangebase.h"
  #include "/usr/include/arm-linux-gnueabihf/qt5/Qt3DCore/qt3dcore-config.h"
  #include "/usr/include/arm-linux-gnueabihf/qt5/Qt3DCore/qt3dcore_global.h"
  #include "/usr/include/arm-linux-gnueabihf/qt5/Qt3DCore/qt3dcoreversion.h"
  #include "/usr/include/arm-linux-gnueabihf/qt5/Qt3DCore/qtransform.h"
  #include "/usr/include/arm-linux-gnueabihf/qt5/Qt3DExtras/qabstractcameracontroller.h"
  #include "/usr/include/arm-linux-gnueabihf/qt5/Qt3DExtras/qabstractspritesheet.h"
  #include "/usr/include/arm-linux-gnueabihf/qt5/Qt3DExtras/qconegeometry.h"
  #include "/usr/include/arm-linux-gnueabihf/qt5/Qt3DExtras/qconemesh.h"
  #include "/usr/include/arm-linux-gnueabihf/qt5/Qt3DExtras/qcuboidgeometry.h"
  #include "/usr/include/arm-linux-gnueabihf/qt5/Qt3DExtras/qcuboidmesh.h"
  #include "/usr/include/arm-linux-gnueabihf/qt5/Qt3DExtras/qcylindergeometry.h"
  #include "/usr/include/arm-linux-gnueabihf/qt5/Qt3DExtras/qcylindermesh.h"
  #include "/usr/include/arm-linux-gnueabihf/qt5/Qt3DExtras/qdiffusemapmaterial.h"
  #include "/usr/include/arm-linux-gnueabihf/qt5/Qt3DExtras/qdiffusespecularmapmaterial.h"
  #include "/usr/include/arm-linux-gnueabihf/qt5/Qt3DExtras/qdiffusespecularmaterial.h"
  #include "/usr/include/arm-linux-gnueabihf/qt5/Qt3DExtras/qextrudedtextgeometry.h"
  #include "/usr/include/arm-linux-gnueabihf/qt5/Qt3DExtras/qextrudedtextmesh.h"
  #include "/usr/include/arm-linux-gnueabihf/qt5/Qt3DExtras/qfirstpersoncameracontroller.h"
  #include "/usr/include/arm-linux-gnueabihf/qt5/Qt3DExtras/qforwardrenderer.h"
  #include "/usr/include/arm-linux-gnueabihf/qt5/Qt3DExtras/qgoochmaterial.h"
  #include "/usr/include/arm-linux-gnueabihf/qt5/Qt3DExtras/qmetalroughmaterial.h"
  #include "/usr/include/arm-linux-gnueabihf/qt5/Qt3DExtras/qmorphphongmaterial.h"
  #include "/usr/include/arm-linux-gnueabihf/qt5/Qt3DExtras/qnormaldiffusemapalphamaterial.h"
  #include "/usr/include/arm-linux-gnueabihf/qt5/Qt3DExtras/qnormaldiffusemapmaterial.h"
  #include "/usr/include/arm-linux-gnueabihf/qt5/Qt3DExtras/qnormaldiffusespecularmapmaterial.h"
  #include "/usr/include/arm-linux-gnueabihf/qt5/Qt3DExtras/qorbitcameracontroller.h"
  #include "/usr/include/arm-linux-gnueabihf/qt5/Qt3DExtras/qpervertexcolormaterial.h"
  #include "/usr/include/arm-linux-gnueabihf/qt5/Qt3DExtras/qphongalphamaterial.h"
  #include "/usr/include/arm-linux-gnueabihf/qt5/Qt3DExtras/qphongmaterial.h"
  #include "/usr/include/arm-linux-gnueabihf/qt5/Qt3DExtras/qplanegeometry.h"
  #include "/usr/include/arm-linux-gnueabihf/qt5/Qt3DExtras/qplanemesh.h"
  #include "/usr/include/arm-linux-gnueabihf/qt5/Qt3DExtras/qskyboxentity.h"
  #include "/usr/include/arm-linux-gnueabihf/qt5/Qt3DExtras/qspheregeometry.h"
  #include "/usr/include/arm-linux-gnueabihf/qt5/Qt3DExtras/qspheremesh.h"
  #include "/usr/include/arm-linux-gnueabihf/qt5/Qt3DExtras/qspritegrid.h"
  #include "/usr/include/arm-linux-gnueabihf/qt5/Qt3DExtras/qspritesheet.h"
  #include "/usr/include/arm-linux-gnueabihf/qt5/Qt3DExtras/qspritesheetitem.h"
  #include "/usr/include/arm-linux-gnueabihf/qt5/Qt3DExtras/qt3dextras_global.h"
  #include "/usr/include/arm-linux-gnueabihf/qt5/Qt3DExtras/qt3dextrasversion.h"
  #include "/usr/include/arm-linux-gnueabihf/qt5/Qt3DExtras/qt3dwindow.h"
  #include "/usr/include/arm-linux-gnueabihf/qt5/Qt3DExtras/qtext2dentity.h"
  #include "/usr/include/arm-linux-gnueabihf/qt5/Qt3DExtras/qtexturedmetalroughmaterial.h"
  #include "/usr/include/arm-linux-gnueabihf/qt5/Qt3DExtras/qtexturematerial.h"
  #include "/usr/include/arm-linux-gnueabihf/qt5/Qt3DExtras/qtorusgeometry.h"
  #include "/usr/include/arm-linux-gnueabihf/qt5/Qt3DExtras/qtorusmesh.h"
  #include "/usr/include/arm-linux-gnueabihf/qt5/Qt3DInput/qabstractactioninput.h"
  #include "/usr/include/arm-linux-gnueabihf/qt5/Qt3DInput/qabstractaxisinput.h"
  #include "/usr/include/arm-linux-gnueabihf/qt5/Qt3DInput/qabstractphysicaldevice.h"
  #include "/usr/include/arm-linux-gnueabihf/qt5/Qt3DInput/qaction.h"
  #include "/usr/include/arm-linux-gnueabihf/qt5/Qt3DInput/qactioninput.h"
  #include "/usr/include/arm-linux-gnueabihf/qt5/Qt3DInput/qanalogaxisinput.h"
  #include "/usr/include/arm-linux-gnueabihf/qt5/Qt3DInput/qaxis.h"
  #include "/usr/include/arm-linux-gnueabihf/qt5/Qt3DInput/qaxisaccumulator.h"
  #include "/usr/include/arm-linux-gnueabihf/qt5/Qt3DInput/qaxissetting.h"
  #include "/usr/include/arm-linux-gnueabihf/qt5/Qt3DInput/qbuttonaxisinput.h"
  #include "/usr/include/arm-linux-gnueabihf/qt5/Qt3DInput/qinputaspect.h"
  #include "/usr/include/arm-linux-gnueabihf/qt5/Qt3DInput/qinputchord.h"
  #include "/usr/include/arm-linux-gnueabihf/qt5/Qt3DInput/qinputsequence.h"
  #include "/usr/include/arm-linux-gnueabihf/qt5/Qt3DInput/qinputsettings.h"
  #include "/usr/include/arm-linux-gnueabihf/qt5/Qt3DInput/qkeyboarddevice.h"
  #include "/usr/include/arm-linux-gnueabihf/qt5/Qt3DInput/qkeyboardhandler.h"
  #include "/usr/include/arm-linux-gnueabihf/qt5/Qt3DInput/qkeyevent.h"
  #include "/usr/include/arm-linux-gnueabihf/qt5/Qt3DInput/qlogicaldevice.h"
  #include "/usr/include/arm-linux-gnueabihf/qt5/Qt3DInput/qmousedevice.h"
  #include "/usr/include/arm-linux-gnueabihf/qt5/Qt3DInput/qmouseevent.h"
  #include "/usr/include/arm-linux-gnueabihf/qt5/Qt3DInput/qmousehandler.h"
  #include "/usr/include/arm-linux-gnueabihf/qt5/Qt3DInput/qphysicaldevicecreatedchange.h"
  #include "/usr/include/arm-linux-gnueabihf/qt5/Qt3DInput/qt3dinput_global.h"
  #include "/usr/include/arm-linux-gnueabihf/qt5/Qt3DInput/qt3dinputversion.h"
  #include "/usr/include/arm-linux-gnueabihf/qt5/Qt3DLogic/qframeaction.h"
  #include "/usr/include/arm-linux-gnueabihf/qt5/Qt3DLogic/qlogicaspect.h"
  #include "/usr/include/arm-linux-gnueabihf/qt5/Qt3DLogic/qt3dlogic_global.h"
  #include "/usr/include/arm-linux-gnueabihf/qt5/Qt3DLogic/qt3dlogicversion.h"
  #include "/usr/include/arm-linux-gnueabihf/qt5/Qt3DQuick/qqmlaspectengine.h"
  #include "/usr/include/arm-linux-gnueabihf/qt5/Qt3DQuick/qt3dquick_global.h"
  #include "/usr/include/arm-linux-gnueabihf/qt5/Qt3DQuick/qt3dquickversion.h"
  #include "/usr/include/arm-linux-gnueabihf/qt5/Qt3DQuickAnimation/qt3dquickanimation_global.h"
  #include "/usr/include/arm-linux-gnueabihf/qt5/Qt3DQuickAnimation/qt3dquickanimationversion.h"
  #include "/usr/include/arm-linux-gnueabihf/qt5/Qt3DQuickExtras/qt3dquickextras_global.h"
  #include "/usr/include/arm-linux-gnueabihf/qt5/Qt3DQuickExtras/qt3dquickextrasversion.h"
  #include "/usr/include/arm-linux-gnueabihf/qt5/Qt3DQuickExtras/qt3dquickwindow.h"
  #include "/usr/include/arm-linux-gnueabihf/qt5/Qt3DQuickInput/qt3dquickinput_global.h"
  #include "/usr/include/arm-linux-gnueabihf/qt5/Qt3DQuickInput/qt3dquickinputversion.h"
  #include "/usr/include/arm-linux-gnueabihf/qt5/Qt3DQuickRender/qt3dquickrender_global.h"
  #include "/usr/include/arm-linux-gnueabihf/qt5/Qt3DQuickRender/qt3dquickrenderversion.h"
  #include "/usr/include/arm-linux-gnueabihf/qt5/Qt3DQuickScene2D/qscene2d.h"
  #include "/usr/include/arm-linux-gnueabihf/qt5/Qt3DQuickScene2D/qt3dquickscene2d_global.h"
  #include "/usr/include/arm-linux-gnueabihf/qt5/Qt3DQuickScene2D/qt3dquickscene2dversion.h"
  #include "/usr/include/arm-linux-gnueabihf/qt5/Qt3DRender/qabstractfunctor.h"
  #include "/usr/include/arm-linux-gnueabihf/qt5/Qt3DRender/qabstractlight.h"
  #include "/usr/include/arm-linux-gnueabihf/qt5/Qt3DRender/qabstractraycaster.h"
  #include "/usr/include/arm-linux-gnueabihf/qt5/Qt3DRender/qabstracttexture.h"
  #include "/usr/include/arm-linux-gnueabihf/qt5/Qt3DRender/qabstracttextureimage.h"
  #include "/usr/include/arm-linux-gnueabihf/qt5/Qt3DRender/qalphacoverage.h"
  #include "/usr/include/arm-linux-gnueabihf/qt5/Qt3DRender/qalphatest.h"
  #include "/usr/include/arm-linux-gnueabihf/qt5/Qt3DRender/qattribute.h"
  #include "/usr/include/arm-linux-gnueabihf/qt5/Qt3DRender/qblendequation.h"
  #include "/usr/include/arm-linux-gnueabihf/qt5/Qt3DRender/qblendequationarguments.h"
  #include "/usr/include/arm-linux-gnueabihf/qt5/Qt3DRender/qblitframebuffer.h"
  #include "/usr/include/arm-linux-gnueabihf/qt5/Qt3DRender/qbuffer.h"
  #include "/usr/include/arm-linux-gnueabihf/qt5/Qt3DRender/qbuffercapture.h"
  #include "/usr/include/arm-linux-gnueabihf/qt5/Qt3DRender/qbufferdatagenerator.h"
  #include "/usr/include/arm-linux-gnueabihf/qt5/Qt3DRender/qcamera.h"
  #include "/usr/include/arm-linux-gnueabihf/qt5/Qt3DRender/qcameralens.h"
  #include "/usr/include/arm-linux-gnueabihf/qt5/Qt3DRender/qcameraselector.h"
  #include "/usr/include/arm-linux-gnueabihf/qt5/Qt3DRender/qclearbuffers.h"
  #include "/usr/include/arm-linux-gnueabihf/qt5/Qt3DRender/qclipplane.h"
  #include "/usr/include/arm-linux-gnueabihf/qt5/Qt3DRender/qcolormask.h"
  #include "/usr/include/arm-linux-gnueabihf/qt5/Qt3DRender/qcomputecommand.h"
  #include "/usr/include/arm-linux-gnueabihf/qt5/Qt3DRender/qcullface.h"
  #include "/usr/include/arm-linux-gnueabihf/qt5/Qt3DRender/qdebugoverlay.h"
  #include "/usr/include/arm-linux-gnueabihf/qt5/Qt3DRender/qdepthrange.h"
  #include "/usr/include/arm-linux-gnueabihf/qt5/Qt3DRender/qdepthtest.h"
  #include "/usr/include/arm-linux-gnueabihf/qt5/Qt3DRender/qdirectionallight.h"
  #include "/usr/include/arm-linux-gnueabihf/qt5/Qt3DRender/qdispatchcompute.h"
  #include "/usr/include/arm-linux-gnueabihf/qt5/Qt3DRender/qdithering.h"
  #include "/usr/include/arm-linux-gnueabihf/qt5/Qt3DRender/qeffect.h"
  #include "/usr/include/arm-linux-gnueabihf/qt5/Qt3DRender/qenvironmentlight.h"
  #include "/usr/include/arm-linux-gnueabihf/qt5/Qt3DRender/qfilterkey.h"
  #include "/usr/include/arm-linux-gnueabihf/qt5/Qt3DRender/qframegraphnode.h"
  #include "/usr/include/arm-linux-gnueabihf/qt5/Qt3DRender/qframegraphnodecreatedchange.h"
  #include "/usr/include/arm-linux-gnueabihf/qt5/Qt3DRender/qfrontface.h"
  #include "/usr/include/arm-linux-gnueabihf/qt5/Qt3DRender/qfrustumculling.h"
  #include "/usr/include/arm-linux-gnueabihf/qt5/Qt3DRender/qgeometry.h"
  #include "/usr/include/arm-linux-gnueabihf/qt5/Qt3DRender/qgeometryfactory.h"
  #include "/usr/include/arm-linux-gnueabihf/qt5/Qt3DRender/qgeometryrenderer.h"
  #include "/usr/include/arm-linux-gnueabihf/qt5/Qt3DRender/qgraphicsapifilter.h"
  #include "/usr/include/arm-linux-gnueabihf/qt5/Qt3DRender/qlayer.h"
  #include "/usr/include/arm-linux-gnueabihf/qt5/Qt3DRender/qlayerfilter.h"
  #include "/usr/include/arm-linux-gnueabihf/qt5/Qt3DRender/qlevelofdetail.h"
  #include "/usr/include/arm-linux-gnueabihf/qt5/Qt3DRender/qlevelofdetailboundingsphere.h"
  #include "/usr/include/arm-linux-gnueabihf/qt5/Qt3DRender/qlevelofdetailswitch.h"
  #include "/usr/include/arm-linux-gnueabihf/qt5/Qt3DRender/qlinewidth.h"
  #include "/usr/include/arm-linux-gnueabihf/qt5/Qt3DRender/qmaterial.h"
  #include "/usr/include/arm-linux-gnueabihf/qt5/Qt3DRender/qmemorybarrier.h"
  #include "/usr/include/arm-linux-gnueabihf/qt5/Qt3DRender/qmesh.h"
  #include "/usr/include/arm-linux-gnueabihf/qt5/Qt3DRender/qmultisampleantialiasing.h"
  #include "/usr/include/arm-linux-gnueabihf/qt5/Qt3DRender/qnodepthmask.h"
  #include "/usr/include/arm-linux-gnueabihf/qt5/Qt3DRender/qnodraw.h"
  #include "/usr/include/arm-linux-gnueabihf/qt5/Qt3DRender/qnopicking.h"
  #include "/usr/include/arm-linux-gnueabihf/qt5/Qt3DRender/qobjectpicker.h"
  #include "/usr/include/arm-linux-gnueabihf/qt5/Qt3DRender/qpaintedtextureimage.h"
  #include "/usr/include/arm-linux-gnueabihf/qt5/Qt3DRender/qparameter.h"
  #include "/usr/include/arm-linux-gnueabihf/qt5/Qt3DRender/qpickevent.h"
  #include "/usr/include/arm-linux-gnueabihf/qt5/Qt3DRender/qpickingsettings.h"
  #include "/usr/include/arm-linux-gnueabihf/qt5/Qt3DRender/qpicklineevent.h"
  #include "/usr/include/arm-linux-gnueabihf/qt5/Qt3DRender/qpickpointevent.h"
  #include "/usr/include/arm-linux-gnueabihf/qt5/Qt3DRender/qpicktriangleevent.h"
  #include "/usr/include/arm-linux-gnueabihf/qt5/Qt3DRender/qpointlight.h"
  #include "/usr/include/arm-linux-gnueabihf/qt5/Qt3DRender/qpointsize.h"
  #include "/usr/include/arm-linux-gnueabihf/qt5/Qt3DRender/qpolygonoffset.h"
  #include "/usr/include/arm-linux-gnueabihf/qt5/Qt3DRender/qproximityfilter.h"
  #include "/usr/include/arm-linux-gnueabihf/qt5/Qt3DRender/qrastermode.h"
  #include "/usr/include/arm-linux-gnueabihf/qt5/Qt3DRender/qraycaster.h"
  #include "/usr/include/arm-linux-gnueabihf/qt5/Qt3DRender/qraycasterhit.h"
  #include "/usr/include/arm-linux-gnueabihf/qt5/Qt3DRender/qrenderapi.h"
  #include "/usr/include/arm-linux-gnueabihf/qt5/Qt3DRender/qrenderaspect.h"
  #include "/usr/include/arm-linux-gnueabihf/qt5/Qt3DRender/qrendercapabilities.h"
  #include "/usr/include/arm-linux-gnueabihf/qt5/Qt3DRender/qrendercapture.h"
  #include "/usr/include/arm-linux-gnueabihf/qt5/Qt3DRender/qrenderpass.h"
  #include "/usr/include/arm-linux-gnueabihf/qt5/Qt3DRender/qrenderpassfilter.h"
  #include "/usr/include/arm-linux-gnueabihf/qt5/Qt3DRender/qrendersettings.h"
  #include "/usr/include/arm-linux-gnueabihf/qt5/Qt3DRender/qrenderstate.h"
  #include "/usr/include/arm-linux-gnueabihf/qt5/Qt3DRender/qrenderstateset.h"
  #include "/usr/include/arm-linux-gnueabihf/qt5/Qt3DRender/qrendersurfaceselector.h"
  #include "/usr/include/arm-linux-gnueabihf/qt5/Qt3DRender/qrendertarget.h"
  #include "/usr/include/arm-linux-gnueabihf/qt5/Qt3DRender/qrendertargetoutput.h"
  #include "/usr/include/arm-linux-gnueabihf/qt5/Qt3DRender/qrendertargetselector.h"
  #include "/usr/include/arm-linux-gnueabihf/qt5/Qt3DRender/qsceneloader.h"
  #include "/usr/include/arm-linux-gnueabihf/qt5/Qt3DRender/qscissortest.h"
  #include "/usr/include/arm-linux-gnueabihf/qt5/Qt3DRender/qscreenraycaster.h"
  #include "/usr/include/arm-linux-gnueabihf/qt5/Qt3DRender/qseamlesscubemap.h"
  #include "/usr/include/arm-linux-gnueabihf/qt5/Qt3DRender/qsetfence.h"
  #include "/usr/include/arm-linux-gnueabihf/qt5/Qt3DRender/qshaderdata.h"
  #include "/usr/include/arm-linux-gnueabihf/qt5/Qt3DRender/qshaderimage.h"
  #include "/usr/include/arm-linux-gnueabihf/qt5/Qt3DRender/qshaderprogram.h"
  #include "/usr/include/arm-linux-gnueabihf/qt5/Qt3DRender/qshaderprogrambuilder.h"
  #include "/usr/include/arm-linux-gnueabihf/qt5/Qt3DRender/qsortpolicy.h"
  #include "/usr/include/arm-linux-gnueabihf/qt5/Qt3DRender/qspotlight.h"
  #include "/usr/include/arm-linux-gnueabihf/qt5/Qt3DRender/qstencilmask.h"
  #include "/usr/include/arm-linux-gnueabihf/qt5/Qt3DRender/qstenciloperation.h"
  #include "/usr/include/arm-linux-gnueabihf/qt5/Qt3DRender/qstenciloperationarguments.h"
  #include "/usr/include/arm-linux-gnueabihf/qt5/Qt3DRender/qstenciltest.h"
  #include "/usr/include/arm-linux-gnueabihf/qt5/Qt3DRender/qstenciltestarguments.h"
  #include "/usr/include/arm-linux-gnueabihf/qt5/Qt3DRender/qsubtreeenabler.h"
  #include "/usr/include/arm-linux-gnueabihf/qt5/Qt3DRender/qt3drender-config.h"
  #include "/usr/include/arm-linux-gnueabihf/qt5/Qt3DRender/qt3drender_global.h"
  #include "/usr/include/arm-linux-gnueabihf/qt5/Qt3DRender/qt3drenderversion.h"
  #include "/usr/include/arm-linux-gnueabihf/qt5/Qt3DRender/qtechnique.h"
  #include "/usr/include/arm-linux-gnueabihf/qt5/Qt3DRender/qtechniquefilter.h"
  #include "/usr/include/arm-linux-gnueabihf/qt5/Qt3DRender/qtexture.h"
  #include "/usr/include/arm-linux-gnueabihf/qt5/Qt3DRender/qtexturedata.h"
  #include "/usr/include/arm-linux-gnueabihf/qt5/Qt3DRender/qtexturedataupdate.h"
  #include "/usr/include/arm-linux-gnueabihf/qt5/Qt3DRender/qtexturegenerator.h"
  #include "/usr/include/arm-linux-gnueabihf/qt5/Qt3DRender/qtextureimage.h"
  #include "/usr/include/arm-linux-gnueabihf/qt5/Qt3DRender/qtextureimagedata.h"
  #include "/usr/include/arm-linux-gnueabihf/qt5/Qt3DRender/qtextureimagedatagenerator.h"
  #include "/usr/include/arm-linux-gnueabihf/qt5/Qt3DRender/qtexturewrapmode.h"
  #include "/usr/include/arm-linux-gnueabihf/qt5/Qt3DRender/qviewport.h"
  #include "/usr/include/arm-linux-gnueabihf/qt5/Qt3DRender/qwaitfence.h"

  // add namespaces
  namespace QAlgorithmsPrivate{typedef int tmp_add_type_1;}
  QAlgorithmsPrivate::tmp_add_type_1 tmp_add_func_1(){return 0;};
  namespace QColorConstants{typedef int tmp_add_type_2;}
  QColorConstants::tmp_add_type_2 tmp_add_func_2(){return 0;};
  namespace QColorConstants{namespace Svg{typedef int tmp_add_type_3;}}
  QColorConstants::Svg::tmp_add_type_3 tmp_add_func_3(){return 0;};
  namespace QmlIR{typedef int tmp_add_type_4;}
  QmlIR::tmp_add_type_4 tmp_add_func_4(){return 0;};
  namespace QQmlPrivate{typedef int tmp_add_type_5;}
  QQmlPrivate::tmp_add_type_5 tmp_add_func_5(){return 0;};
  namespace QSGBatchRenderer{typedef int tmp_add_type_6;}
  QSGBatchRenderer::tmp_add_type_6 tmp_add_func_6(){return 0;};
  namespace Qt{typedef int tmp_add_type_7;}
  Qt::tmp_add_type_7 tmp_add_func_7(){return 0;};
  namespace Qt3DAnimation{typedef int tmp_add_type_8;}
  Qt3DAnimation::tmp_add_type_8 tmp_add_func_8(){return 0;};
  namespace Qt3DCore{typedef int tmp_add_type_9;}
  Qt3DCore::tmp_add_type_9 tmp_add_func_9(){return 0;};
  namespace Qt3DCore{namespace Quick{typedef int tmp_add_type_10;}}
  Qt3DCore::Quick::tmp_add_type_10 tmp_add_func_10(){return 0;};
  namespace Qt3DExtras{typedef int tmp_add_type_11;}
  Qt3DExtras::tmp_add_type_11 tmp_add_func_11(){return 0;};
  namespace Qt3DExtras{namespace Quick{typedef int tmp_add_type_12;}}
  Qt3DExtras::Quick::tmp_add_type_12 tmp_add_func_12(){return 0;};
  namespace Qt3DInput{typedef int tmp_add_type_13;}
  Qt3DInput::tmp_add_type_13 tmp_add_func_13(){return 0;};
  namespace Qt3DLogic{typedef int tmp_add_type_14;}
  Qt3DLogic::tmp_add_type_14 tmp_add_func_14(){return 0;};
  namespace Qt3DLogic{namespace Logic{typedef int tmp_add_type_15;}}
  Qt3DLogic::Logic::tmp_add_type_15 tmp_add_func_15(){return 0;};
  namespace Qt3DRender{typedef int tmp_add_type_16;}
  Qt3DRender::tmp_add_type_16 tmp_add_func_16(){return 0;};
  namespace Qt3DRender{namespace Quick{typedef int tmp_add_type_17;}}
  Qt3DRender::Quick::tmp_add_type_17 tmp_add_func_17(){return 0;};
  namespace Qt3DRender{namespace Render{typedef int tmp_add_type_18;}}
  Qt3DRender::Render::tmp_add_type_18 tmp_add_func_18(){return 0;};
  namespace QTextStreamFunctions{typedef int tmp_add_type_19;}
  QTextStreamFunctions::tmp_add_type_19 tmp_add_func_19(){return 0;};
  namespace QtGlobalStatic{typedef int tmp_add_type_20;}
  QtGlobalStatic::tmp_add_type_20 tmp_add_func_20(){return 0;};
  namespace QtMetaTypePrivate{typedef int tmp_add_type_21;}
  QtMetaTypePrivate::tmp_add_type_21 tmp_add_func_21(){return 0;};
  namespace QtMetaTypePrivate{namespace QtPrivate{typedef int tmp_add_type_22;}}
  QtMetaTypePrivate::QtPrivate::tmp_add_type_22 tmp_add_func_22(){return 0;};
  namespace QtMetaTypePrivate{namespace QtPrivate{namespace ContainerCapabilitiesMetaProgrammingHelper{typedef int tmp_add_type_23;}}}
  QtMetaTypePrivate::QtPrivate::ContainerCapabilitiesMetaProgrammingHelper::tmp_add_type_23 tmp_add_func_23(){return 0;};
  namespace QtPrivate{typedef int tmp_add_type_24;}
  QtPrivate::tmp_add_type_24 tmp_add_func_24(){return 0;};
  namespace QtPrivate{namespace DeprecatedRefClassBehavior{typedef int tmp_add_type_25;}}
  QtPrivate::DeprecatedRefClassBehavior::tmp_add_type_25 tmp_add_func_25(){return 0;};
  namespace QtPrivate{namespace SwapExceptionTester{typedef int tmp_add_type_26;}}
  QtPrivate::SwapExceptionTester::tmp_add_type_26 tmp_add_func_26(){return 0;};
  namespace QtQml{typedef int tmp_add_type_27;}
  QtQml::tmp_add_type_27 tmp_add_func_27(){return 0;};
  namespace QtSharedPointer{typedef int tmp_add_type_28;}
  QtSharedPointer::tmp_add_type_28 tmp_add_func_28(){return 0;};
  namespace QV4{typedef int tmp_add_type_29;}
  QV4::tmp_add_type_29 tmp_add_func_29(){return 0;};
  namespace QV4{namespace CompiledData{typedef int tmp_add_type_30;}}
  QV4::CompiledData::tmp_add_type_30 tmp_add_func_30(){return 0;};

  // add classes
  QAccessible* tmp_add_class_0;
  QAccessibleActionInterface* tmp_add_class_1;
  QAccessibleEditableTextInterface* tmp_add_class_2;
  QAccessibleEvent* tmp_add_class_3;
  QAccessibleImageInterface* tmp_add_class_4;
  QAccessibleInterface* tmp_add_class_5;
  QAccessibleStateChangeEvent* tmp_add_class_6;
  QAccessibleTableCellInterface* tmp_add_class_7;
  QAccessibleTableInterface* tmp_add_class_8;
  QAccessibleTableModelChangeEvent* tmp_add_class_9;
  QAccessibleTextCursorEvent* tmp_add_class_10;
  QAccessibleTextInsertEvent* tmp_add_class_11;
  QAccessibleTextInterface* tmp_add_class_12;
  QAccessibleTextRemoveEvent* tmp_add_class_13;
  QAccessibleTextSelectionEvent* tmp_add_class_14;
  QAccessibleTextUpdateEvent* tmp_add_class_15;
  QAccessibleValueChangeEvent* tmp_add_class_16;
  QAccessibleValueInterface* tmp_add_class_17;
  QActionEvent* tmp_add_class_18;
  QApplicationStateChangeEvent* tmp_add_class_19;
  QArrayData* tmp_add_class_20;
  QAssociativeIterable* tmp_add_class_21;
  QAtomicInt* tmp_add_class_22;
  QByteArray* tmp_add_class_23;
  QByteArrayDataPtr* tmp_add_class_24;
  QByteRef* tmp_add_class_25;
  QChar* tmp_add_class_26;
  QCharRef* tmp_add_class_27;
  QChildEvent* tmp_add_class_28;
  QCloseEvent* tmp_add_class_29;
  QColor* tmp_add_class_30;
  QContextMenuEvent* tmp_add_class_31;
  QContiguousCacheData* tmp_add_class_32;
  QCoreApplication* tmp_add_class_33;
  QCursor* tmp_add_class_34;
  QDataStream* tmp_add_class_35;
  QDebug* tmp_add_class_36;
  QDebugStateSaver* tmp_add_class_37;
  QDeferredDeleteEvent* tmp_add_class_38;
  QDragEnterEvent* tmp_add_class_39;
  QDragLeaveEvent* tmp_add_class_40;
  QDragMoveEvent* tmp_add_class_41;
  QDropEvent* tmp_add_class_42;
  QDynamicPropertyChangeEvent* tmp_add_class_43;
  QEasingCurve* tmp_add_class_44;
  QEnterEvent* tmp_add_class_45;
  QEvent* tmp_add_class_46;
  QEventLoop* tmp_add_class_47;
  QEventLoopLocker* tmp_add_class_48;
  QExposeEvent* tmp_add_class_49;
  QFile* tmp_add_class_50;
  QFileDevice* tmp_add_class_51;
  QFileOpenEvent* tmp_add_class_52;
  QFlag* tmp_add_class_53;
  QFocusEvent* tmp_add_class_54;
  QFont* tmp_add_class_55;
  QGenericArgument* tmp_add_class_56;
  QGenericReturnArgument* tmp_add_class_57;
  QHashData* tmp_add_class_58;
  QHashDummyValue* tmp_add_class_59;
  QHelpEvent* tmp_add_class_60;
  QHideEvent* tmp_add_class_61;
  QHoverEvent* tmp_add_class_62;
  QIODevice* tmp_add_class_63;
  QIcon* tmp_add_class_64;
  QIconDragEvent* tmp_add_class_65;
  QImage* tmp_add_class_66;
  QIncompatibleFlag* tmp_add_class_67;
  QInputEvent* tmp_add_class_68;
  QInputMethodEvent* tmp_add_class_69;
  QInputMethodQueryEvent* tmp_add_class_70;
  QInternal* tmp_add_class_71;
  QJSEngine* tmp_add_class_72;
  QJSValue* tmp_add_class_73;
  QKeyEvent* tmp_add_class_74;
  QKeySequence* tmp_add_class_75;
  QLatin1Char* tmp_add_class_76;
  QLatin1String* tmp_add_class_77;
  QLine* tmp_add_class_78;
  QLineF* tmp_add_class_79;
  QListData* tmp_add_class_80;
  QLocale* tmp_add_class_81;
  QMapDataBase* tmp_add_class_82;
  QMapNodeBase* tmp_add_class_83;
  QMargins* tmp_add_class_84;
  QMarginsF* tmp_add_class_85;
  QMatrix* tmp_add_class_86;
  QMatrix4x4* tmp_add_class_87;
  QMessageLogContext* tmp_add_class_88;
  QMessageLogger* tmp_add_class_89;
  QMetaClassInfo* tmp_add_class_90;
  QMetaEnum* tmp_add_class_91;
  QMetaMethod* tmp_add_class_92;
  QMetaObject* tmp_add_class_93;
  QMetaProperty* tmp_add_class_94;
  QMetaType* tmp_add_class_95;
  QMouseEvent* tmp_add_class_96;
  QMoveEvent* tmp_add_class_97;
  QNativeGestureEvent* tmp_add_class_98;
  QNoDebug* tmp_add_class_99;
  QObject* tmp_add_class_100;
  QObjectData* tmp_add_class_101;
  QObjectUserData* tmp_add_class_102;
  QOpenGLTexture* tmp_add_class_103;
  QPaintDevice* tmp_add_class_104;
  QPaintEvent* tmp_add_class_105;
  QPixelFormat* tmp_add_class_106;
  QPixmap* tmp_add_class_107;
  QPlatformSurfaceEvent* tmp_add_class_108;
  QPoint* tmp_add_class_109;
  QPointF* tmp_add_class_110;
  QPointingDeviceUniqueId* tmp_add_class_111;
  QPolygon* tmp_add_class_112;
  QPolygonF* tmp_add_class_113;
  QQmlComponent* tmp_add_class_114;
  QQmlDebuggingEnabler* tmp_add_class_115;
  QQmlEngine* tmp_add_class_116;
  QQmlError* tmp_add_class_117;
  QQmlImageProviderBase* tmp_add_class_118;
  QQmlListReference* tmp_add_class_119;
  QQmlParserStatus* tmp_add_class_120;
  QQmlPropertyValueSource* tmp_add_class_121;
  QQuaternion* tmp_add_class_122;
  QQuickItem* tmp_add_class_123;
  QQuickTransform* tmp_add_class_124;
  QQuickWindow* tmp_add_class_125;
  QRect* tmp_add_class_126;
  QRectF* tmp_add_class_127;
  QRegExp* tmp_add_class_128;
  QRegion* tmp_add_class_129;
  QResizeEvent* tmp_add_class_130;
  QRgba64* tmp_add_class_131;
  QSGBasicGeometryNode* tmp_add_class_132;
  QSGClipNode* tmp_add_class_133;
  QSGGeometry* tmp_add_class_134;
  QSGGeometryNode* tmp_add_class_135;
  QSGNode* tmp_add_class_136;
  QSGNodeVisitor* tmp_add_class_137;
  QSGOpacityNode* tmp_add_class_138;
  QSGRendererInterface* tmp_add_class_139;
  QSGRootNode* tmp_add_class_140;
  QSGTransformNode* tmp_add_class_141;
  QScopedPointerPodDeleter* tmp_add_class_142;
  QScreenOrientationChangeEvent* tmp_add_class_143;
  QScrollEvent* tmp_add_class_144;
  QScrollPrepareEvent* tmp_add_class_145;
  QSequentialIterable* tmp_add_class_146;
  QSharedData* tmp_add_class_147;
  QShortcutEvent* tmp_add_class_148;
  QShowEvent* tmp_add_class_149;
  QSignalBlocker* tmp_add_class_150;
  QSize* tmp_add_class_151;
  QSizeF* tmp_add_class_152;
  QStatusTipEvent* tmp_add_class_153;
  QString* tmp_add_class_154;
  QStringDataPtr* tmp_add_class_155;
  QStringList* tmp_add_class_156;
  QStringMatcher* tmp_add_class_157;
  QStringRef* tmp_add_class_158;
  QStringView* tmp_add_class_159;
  QSurface* tmp_add_class_160;
  QSurfaceFormat* tmp_add_class_161;
  QSysInfo* tmp_add_class_162;
  QTabletEvent* tmp_add_class_163;
  QTextStream* tmp_add_class_164;
  QTextStreamManipulator* tmp_add_class_165;
  QTimerEvent* tmp_add_class_166;
  QToolBarChangeEvent* tmp_add_class_167;
  QTouchDevice* tmp_add_class_168;
  QTouchEvent* tmp_add_class_169;
  QTransform* tmp_add_class_170;
  QUrl* tmp_add_class_171;
  QVariant* tmp_add_class_172;
  QVariantComparisonHelper* tmp_add_class_173;
  QVector2D* tmp_add_class_174;
  QVector3D* tmp_add_class_175;
  QVector4D* tmp_add_class_176;
  QWhatsThisClickedEvent* tmp_add_class_177;
  QWheelEvent* tmp_add_class_178;
  QWindow* tmp_add_class_179;
  QWindowStateChangeEvent* tmp_add_class_180;
  _G_fpos64_t* tmp_add_class_181;
  _G_fpos_t* tmp_add_class_182;
  _IO_cookie_io_functions_t* tmp_add_class_183;

The GCC parameters:
  gcc -fdump-lang-raw -fkeep-inline-functions -c -x c++ -fpermissive -w "/tmp/2y4Qiv_JQP/dump1.h"  -I/usr/include/arm-linux-gnueabihf/qt5 -I/usr/include/arm-linux-gnueabihf/qt5/QtGui

