Temporary header file '/tmp/Bgzs8nwfOT/dump1.h' with the following content will be compiled to create GCC translation unit dump:

  // add defines
  #define __STDC_VERSION__ 201710L
#define _GXX_NULLPTR_T
#define CLUTTER_ENABLE_COMPOSITOR_API 1
#define _REGEX_NELTS(n)
#define _Atomic
#define PACKED
#ifdef __cplusplus
// C17 compat layer
#define _Alignof(type) alignof(type)
#endif
#define getaddrinfo_a(a,b,c,d)

  // add includes
  #include "/usr/include/hersheyfont.h"

  // add classes
  hershey_font* tmp_add_class_0;
  hershey_glyph* tmp_add_class_1;
  hershey_path* tmp_add_class_2;
  hershey_vertex* tmp_add_class_3;

The GCC parameters:
  gcc -fdump-lang-raw -fkeep-inline-functions -c -x c++ -fpermissive -w "/tmp/Bgzs8nwfOT/dump1.h"

