[2024-01-31T18:01:48+00:00] apt-get install ibus-anthy-dev libglib2.0-dev libanthy-dev abi-compliance-checker
Reading package lists...
Building dependency tree...
Reading state information...
abi-compliance-checker is already the newest version (2.3-2).
The following packages were automatically installed and are no longer required:
  ibacm ibverbs-providers libibumad-dev libibumad3 libibverbs-dev libibverbs1
  libnl-3-200 libnl-3-dev libnl-route-3-200 libnl-route-3-dev rdma-core udev
Use 'apt autoremove' to remove them.
The following additional packages will be installed:
  adwaita-icon-theme anthy anthy-common at-spi2-common dconf-cli
  dconf-gsettings-backend dconf-service fontconfig fontconfig-config
  fonts-dejavu-core fonts-dejavu-mono gir1.2-atk-1.0 gir1.2-freedesktop
  gir1.2-gdkpixbuf-2.0 gir1.2-girepository-2.0 gir1.2-glib-2.0 gir1.2-gtk-3.0
  gir1.2-harfbuzz-0.0 gir1.2-ibus-1.0 gir1.2-pango-1.0 gtk-update-icon-cache
  hicolor-icon-theme ibus ibus-anthy ibus-data libanthy1 libanthyinput0
  libatk-bridge2.0-0 libatk1.0-0 libatspi2.0-0 libavahi-client3
  libavahi-common-data libavahi-common3 libblkid-dev libbrotli1
  libcairo-gobject2 libcairo2 libcloudproviders0 libcolord2 libcups2
  libdatrie1 libdbusmenu-glib4 libdbusmenu-gtk3-4 libdconf1 libdeflate0
  libepoxy0 libffi-dev libfontconfig1 libfreetype6 libfribidi0
  libgdk-pixbuf-2.0-0 libgdk-pixbuf2.0-common libgirepository-1.0-1
  libglib2.0-bin libglib2.0-data libglib2.0-dev-bin libgraphite2-3 libgtk-3-0
  libgtk-3-common libharfbuzz-gobject0 libharfbuzz0b libibus-1.0-5 libjbig0
  libjpeg62-turbo liblcms2-2 liblerc4 libmount-dev libnotify4 libpango-1.0-0
  libpangocairo-1.0-0 libpangoft2-1.0-0 libpangoxft-1.0-0 libpcre2-16-0
  libpcre2-32-0 libpcre2-dev libpcre2-posix3 libpixman-1-0 libpkgconf3
  libpng16-16 librsvg2-2 librsvg2-common libselinux1-dev libsepol-dev
  libsharpyuv0 libthai-data libthai0 libtiff6 libwayland-client0
  libwayland-cursor0 libwayland-egl1 libwebp7 libx11-6 libx11-data libxau6
  libxcb-render0 libxcb-shm0 libxcb1 libxcomposite1 libxcursor1 libxdamage1
  libxdmcp6 libxext6 libxfixes3 libxft2 libxi6 libxinerama1 libxkbcommon0
  libxrandr2 libxrender1 pkg-config pkgconf pkgconf-bin python3-gi
  python3-ibus-1.0 python3-packaging shared-mime-info uuid-dev xkb-data
Suggested packages:
  ibus-clutter ibus-doc colord cups-common libgirepository1.0-dev
  libglib2.0-doc libgdk-pixbuf2.0-bin libxml2-utils gvfs liblcms2-utils
  notification-daemon librsvg2-bin
Recommended packages:
  kasumi ibus-gtk ibus-gtk3 ibus-gtk4 im-config at-spi2-core
  libgdk-pixbuf2.0-bin libgtk-3-bin
The following NEW packages will be installed:
  adwaita-icon-theme anthy anthy-common at-spi2-common dconf-cli
  dconf-gsettings-backend dconf-service fontconfig fontconfig-config
  fonts-dejavu-core fonts-dejavu-mono gir1.2-atk-1.0 gir1.2-freedesktop
  gir1.2-gdkpixbuf-2.0 gir1.2-girepository-2.0 gir1.2-glib-2.0 gir1.2-gtk-3.0
  gir1.2-harfbuzz-0.0 gir1.2-ibus-1.0 gir1.2-pango-1.0 gtk-update-icon-cache
  hicolor-icon-theme ibus ibus-anthy ibus-anthy-dev ibus-data libanthy-dev
  libanthy1 libanthyinput0 libatk-bridge2.0-0 libatk1.0-0 libatspi2.0-0
  libavahi-client3 libavahi-common-data libavahi-common3 libblkid-dev
  libbrotli1 libcairo-gobject2 libcairo2 libcloudproviders0 libcolord2
  libcups2 libdatrie1 libdbusmenu-glib4 libdbusmenu-gtk3-4 libdconf1
  libdeflate0 libepoxy0 libffi-dev libfontconfig1 libfreetype6 libfribidi0
  libgdk-pixbuf-2.0-0 libgdk-pixbuf2.0-common libgirepository-1.0-1
  libglib2.0-bin libglib2.0-data libglib2.0-dev libglib2.0-dev-bin
  libgraphite2-3 libgtk-3-0 libgtk-3-common libharfbuzz-gobject0 libharfbuzz0b
  libibus-1.0-5 libjbig0 libjpeg62-turbo liblcms2-2 liblerc4 libmount-dev
  libnotify4 libpango-1.0-0 libpangocairo-1.0-0 libpangoft2-1.0-0
  libpangoxft-1.0-0 libpcre2-16-0 libpcre2-32-0 libpcre2-dev libpcre2-posix3
  libpixman-1-0 libpkgconf3 libpng16-16 librsvg2-2 librsvg2-common
  libselinux1-dev libsepol-dev libsharpyuv0 libthai-data libthai0 libtiff6
  libwayland-client0 libwayland-cursor0 libwayland-egl1 libwebp7 libx11-6
  libx11-data libxau6 libxcb-render0 libxcb-shm0 libxcb1 libxcomposite1
  libxcursor1 libxdamage1 libxdmcp6 libxext6 libxfixes3 libxft2 libxi6
  libxinerama1 libxkbcommon0 libxrandr2 libxrender1 pkg-config pkgconf
  pkgconf-bin python3-gi python3-ibus-1.0 python3-packaging shared-mime-info
  uuid-dev xkb-data
0 upgraded, 121 newly installed, 0 to remove and 53 not upgraded.
Need to get 53.8 MB of archives.
After this operation, 334 MB of additional disk space will be used.
Get:1 http://deb.debian.org/debian unstable/main armhf hicolor-icon-theme all 0.17-2 [11.4 kB]
Get:2 http://deb.debian.org/debian unstable/main armhf libgdk-pixbuf2.0-common all 2.42.10+dfsg-3 [307 kB]
Get:3 http://deb.debian.org/debian unstable/main armhf shared-mime-info armhf 2.4-1 [746 kB]
Get:4 http://deb.debian.org/debian unstable/main armhf libjpeg62-turbo armhf 1:2.1.5-2+b2 [143 kB]
Get:5 http://deb.debian.org/debian unstable/main armhf libpng16-16 armhf 1.6.42-1 [261 kB]
Get:6 http://deb.debian.org/debian unstable/main armhf libdeflate0 armhf 1.18-1 [38.5 kB]
Get:7 http://deb.debian.org/debian unstable/main armhf libjbig0 armhf 2.1-6.1 [27.1 kB]
Get:8 http://deb.debian.org/debian unstable/main armhf liblerc4 armhf 4.0.0+ds-4 [137 kB]
Get:9 http://deb.debian.org/debian unstable/main armhf libsharpyuv0 armhf 1.3.2-0.3 [105 kB]
Get:10 http://deb.debian.org/debian unstable/main armhf libwebp7 armhf 1.3.2-0.3 [260 kB]
Get:11 http://deb.debian.org/debian unstable/main armhf libtiff6 armhf 4.5.1+git230720-4 [301 kB]
Get:12 http://deb.debian.org/debian unstable/main armhf libgdk-pixbuf-2.0-0 armhf 2.42.10+dfsg-3 [123 kB]
Get:13 http://deb.debian.org/debian unstable/main armhf gtk-update-icon-cache armhf 3.24.41-1 [44.6 kB]
Get:14 http://deb.debian.org/debian unstable/main armhf adwaita-icon-theme all 45.0-2 [739 kB]
Get:15 http://deb.debian.org/debian unstable/main armhf anthy-common all 1:0.4-2 [5604 kB]
Get:16 http://deb.debian.org/debian unstable/main armhf libanthy1 armhf 1:0.4-2+b1 [90.1 kB]
Get:17 http://deb.debian.org/debian unstable/main armhf libanthyinput0 armhf 1:0.4-2+b1 [18.0 kB]
Get:18 http://deb.debian.org/debian unstable/main armhf anthy armhf 1:0.4-2+b1 [16.2 kB]
Get:19 http://deb.debian.org/debian unstable/main armhf at-spi2-common all 2.50.0-1 [163 kB]
Get:20 http://deb.debian.org/debian unstable/main armhf libdconf1 armhf 0.40.0-4+b1 [36.9 kB]
Get:21 http://deb.debian.org/debian unstable/main armhf dconf-cli armhf 0.40.0-4+b1 [26.5 kB]
Get:22 http://deb.debian.org/debian unstable/main armhf dconf-service armhf 0.40.0-4+b1 [27.8 kB]
Get:23 http://deb.debian.org/debian unstable/main armhf dconf-gsettings-backend armhf 0.40.0-4+b1 [24.1 kB]
Get:24 http://deb.debian.org/debian unstable/main armhf libbrotli1 armhf 1.1.0-2+b3 [284 kB]
Get:25 http://deb.debian.org/debian unstable/main armhf libfreetype6 armhf 2.13.2+dfsg-1+b1 [371 kB]
Get:26 http://deb.debian.org/debian unstable/main armhf fonts-dejavu-mono all 2.37-8 [489 kB]
Get:27 http://deb.debian.org/debian unstable/main armhf fonts-dejavu-core all 2.37-8 [840 kB]
Get:28 http://deb.debian.org/debian unstable/main armhf fontconfig-config armhf 2.14.2-6+b1 [316 kB]
Get:29 http://deb.debian.org/debian unstable/main armhf libfontconfig1 armhf 2.14.2-6+b1 [369 kB]
Get:30 http://deb.debian.org/debian unstable/main armhf fontconfig armhf 2.14.2-6+b1 [461 kB]
Get:31 http://deb.debian.org/debian unstable/main armhf gir1.2-glib-2.0 armhf 1.78.1-12 [162 kB]
Get:32 http://deb.debian.org/debian unstable/main armhf libatk1.0-0 armhf 2.50.0-1+b1 [43.3 kB]
Get:33 http://deb.debian.org/debian unstable/main armhf gir1.2-atk-1.0 armhf 2.50.0-1+b1 [24.6 kB]
Get:34 http://deb.debian.org/debian unstable/main armhf libpixman-1-0 armhf 0.42.2-1 [465 kB]
Get:35 http://deb.debian.org/debian unstable/main armhf libxau6 armhf 1:1.0.9-1 [19.0 kB]
Get:36 http://deb.debian.org/debian unstable/main armhf libxdmcp6 armhf 1:1.1.2-3 [24.9 kB]
Get:37 http://deb.debian.org/debian unstable/main armhf libxcb1 armhf 1.15-1 [140 kB]
Get:38 http://deb.debian.org/debian unstable/main armhf libx11-data all 2:1.8.7-1 [328 kB]
Get:39 http://deb.debian.org/debian unstable/main armhf libx11-6 armhf 2:1.8.7-1 [735 kB]
Get:40 http://deb.debian.org/debian unstable/main armhf libxcb-render0 armhf 1.15-1 [114 kB]
Get:41 http://deb.debian.org/debian unstable/main armhf libxcb-shm0 armhf 1.15-1 [106 kB]
Get:42 http://deb.debian.org/debian unstable/main armhf libxext6 armhf 2:1.3.4-1+b1 [47.8 kB]
Get:43 http://deb.debian.org/debian unstable/main armhf libxrender1 armhf 1:0.9.10-1.1 [30.1 kB]
Get:44 http://deb.debian.org/debian unstable/main armhf libcairo2 armhf 1.18.0-1+b1 [441 kB]
Get:45 http://deb.debian.org/debian unstable/main armhf libcairo-gobject2 armhf 1.18.0-1+b1 [128 kB]
Get:46 http://deb.debian.org/debian unstable/main armhf gir1.2-freedesktop armhf 1.78.1-12 [44.8 kB]
Get:47 http://deb.debian.org/debian unstable/main armhf gir1.2-gdkpixbuf-2.0 armhf 2.42.10+dfsg-3 [13.8 kB]
Get:48 http://deb.debian.org/debian unstable/main armhf libgirepository-1.0-1 armhf 1.78.1-12 [98.0 kB]
Get:49 http://deb.debian.org/debian unstable/main armhf gir1.2-girepository-2.0 armhf 1.78.1-12 [35.5 kB]
Get:50 http://deb.debian.org/debian unstable/main armhf libgraphite2-3 armhf 1.3.14-2 [63.2 kB]
Get:51 http://deb.debian.org/debian unstable/main armhf libharfbuzz0b armhf 8.3.0-2 [2155 kB]
Get:52 http://deb.debian.org/debian unstable/main armhf libharfbuzz-gobject0 armhf 8.3.0-2 [1782 kB]
Get:53 http://deb.debian.org/debian unstable/main armhf gir1.2-harfbuzz-0.0 armhf 8.3.0-2 [1794 kB]
Get:54 http://deb.debian.org/debian unstable/main armhf libfribidi0 armhf 1.0.13-3+b1 [69.4 kB]
Get:55 http://deb.debian.org/debian unstable/main armhf libthai-data all 0.1.29-2 [168 kB]
Get:56 http://deb.debian.org/debian unstable/main armhf libdatrie1 armhf 0.2.13-3 [34.4 kB]
Get:57 http://deb.debian.org/debian unstable/main armhf libthai0 armhf 0.1.29-2 [45.8 kB]
Get:58 http://deb.debian.org/debian unstable/main armhf libpango-1.0-0 armhf 1.51.0+ds-4 [192 kB]
Get:59 http://deb.debian.org/debian unstable/main armhf libpangoft2-1.0-0 armhf 1.51.0+ds-4 [41.2 kB]
Get:60 http://deb.debian.org/debian unstable/main armhf libpangocairo-1.0-0 armhf 1.51.0+ds-4 [31.3 kB]
Get:61 http://deb.debian.org/debian unstable/main armhf libxft2 armhf 2.3.6-1 [53.8 kB]
Get:62 http://deb.debian.org/debian unstable/main armhf libpangoxft-1.0-0 armhf 1.51.0+ds-4 [25.0 kB]
Get:63 http://deb.debian.org/debian unstable/main armhf gir1.2-pango-1.0 armhf 1.51.0+ds-4 [38.4 kB]
Get:64 http://deb.debian.org/debian unstable/main armhf libxi6 armhf 2:1.8-1+b1 [78.6 kB]
Get:65 http://deb.debian.org/debian unstable/main armhf libatspi2.0-0 armhf 2.50.0-1+b1 [63.6 kB]
Get:66 http://deb.debian.org/debian unstable/main armhf libatk-bridge2.0-0 armhf 2.50.0-1+b1 [57.7 kB]
Get:67 http://deb.debian.org/debian unstable/main armhf libcloudproviders0 armhf 0.3.5-1 [24.0 kB]
Get:68 http://deb.debian.org/debian unstable/main armhf liblcms2-2 armhf 2.14-2 [125 kB]
Get:69 http://deb.debian.org/debian unstable/main armhf libcolord2 armhf 1.4.6-5 [121 kB]
Get:70 http://deb.debian.org/debian unstable/main armhf libavahi-common-data armhf 0.8-13+b1 [111 kB]
Get:71 http://deb.debian.org/debian unstable/main armhf libavahi-common3 armhf 0.8-13+b1 [40.1 kB]
Get:72 http://deb.debian.org/debian unstable/main armhf libavahi-client3 armhf 0.8-13+b1 [43.4 kB]
Get:73 http://deb.debian.org/debian unstable/main armhf libcups2 armhf 2.4.7-1+b1 [212 kB]
Get:74 http://deb.debian.org/debian unstable/main armhf libepoxy0 armhf 1.5.10-1+b2 [167 kB]
Get:75 http://deb.debian.org/debian unstable/main armhf libwayland-client0 armhf 1.22.0-2.1 [20.0 kB]
Get:76 http://deb.debian.org/debian unstable/main armhf libwayland-cursor0 armhf 1.22.0-2.1 [9908 B]
Get:77 http://deb.debian.org/debian unstable/main armhf libwayland-egl1 armhf 1.22.0-2.1 [5124 B]
Get:78 http://deb.debian.org/debian unstable/main armhf libxcomposite1 armhf 1:0.4.5-1 [16.1 kB]
Get:79 http://deb.debian.org/debian unstable/main armhf libxfixes3 armhf 1:6.0.0-2 [21.1 kB]
Get:80 http://deb.debian.org/debian unstable/main armhf libxcursor1 armhf 1:1.2.1-1 [37.9 kB]
Get:81 http://deb.debian.org/debian unstable/main armhf libxdamage1 armhf 1:1.1.6-1 [14.6 kB]
Get:82 http://deb.debian.org/debian unstable/main armhf libxinerama1 armhf 2:1.1.4-3 [17.4 kB]
Get:83 http://deb.debian.org/debian unstable/main armhf xkb-data all 2.38-2 [782 kB]
Get:84 http://deb.debian.org/debian unstable/main armhf libxkbcommon0 armhf 1.6.0-1 [96.3 kB]
Get:85 http://deb.debian.org/debian unstable/main armhf libxrandr2 armhf 2:1.5.2-2+b1 [36.0 kB]
Get:86 http://deb.debian.org/debian unstable/main armhf libgtk-3-common all 3.24.41-1 [4633 kB]
Get:87 http://deb.debian.org/debian unstable/main armhf libgtk-3-0 armhf 3.24.41-1 [2350 kB]
Get:88 http://deb.debian.org/debian unstable/main armhf gir1.2-gtk-3.0 armhf 3.24.41-1 [221 kB]
Get:89 http://deb.debian.org/debian unstable/main armhf libibus-1.0-5 armhf 1.5.29-1 [425 kB]
Get:90 http://deb.debian.org/debian unstable/main armhf gir1.2-ibus-1.0 armhf 1.5.29-1 [348 kB]
Get:91 http://deb.debian.org/debian unstable/main armhf libdbusmenu-glib4 armhf 18.10.20180917~bzr492+repack1-3.1 [34.4 kB]
Get:92 http://deb.debian.org/debian unstable/main armhf libdbusmenu-gtk3-4 armhf 18.10.20180917~bzr492+repack1-3.1 [22.4 kB]
Get:93 http://deb.debian.org/debian unstable/main armhf libnotify4 armhf 0.8.3-1 [23.2 kB]
Get:94 http://deb.debian.org/debian unstable/main armhf librsvg2-2 armhf 2.54.7+dfsg-2 [2184 kB]
Get:95 http://deb.debian.org/debian unstable/main armhf librsvg2-common armhf 2.54.7+dfsg-2 [21.1 kB]
Get:96 http://deb.debian.org/debian unstable/main armhf ibus-data all 1.5.29-1 [12.5 MB]
Get:97 http://deb.debian.org/debian unstable/main armhf python3-gi armhf 3.46.0-3 [249 kB]
Get:98 http://deb.debian.org/debian unstable/main armhf python3-ibus-1.0 all 1.5.29-1 [286 kB]
Get:99 http://deb.debian.org/debian unstable/main armhf ibus armhf 1.5.29-1 [558 kB]
Get:100 http://deb.debian.org/debian unstable/main armhf ibus-anthy armhf 1.5.15-1 [771 kB]
Get:101 http://deb.debian.org/debian unstable/main armhf ibus-anthy-dev armhf 1.5.15-1 [6644 B]
Get:102 http://deb.debian.org/debian unstable/main armhf libanthy-dev armhf 1:0.4-2+b1 [98.9 kB]
Get:103 http://deb.debian.org/debian unstable/main armhf uuid-dev armhf 2.39.3-6 [39.6 kB]
Get:104 http://deb.debian.org/debian unstable/main armhf libblkid-dev armhf 2.39.3-6 [186 kB]
Get:105 http://deb.debian.org/debian unstable/main armhf libffi-dev armhf 3.4.4-2 [55.7 kB]
Get:106 http://deb.debian.org/debian unstable/main armhf libglib2.0-data all 2.78.3-2 [1223 kB]
Get:107 http://deb.debian.org/debian unstable/main armhf libglib2.0-bin armhf 2.78.3-2 [108 kB]
Get:108 http://deb.debian.org/debian unstable/main armhf python3-packaging all 23.2-1 [44.8 kB]
Get:109 http://deb.debian.org/debian unstable/main armhf libglib2.0-dev-bin armhf 2.78.3-2 [154 kB]
Get:110 http://deb.debian.org/debian unstable/main armhf libsepol-dev armhf 3.5-2 [319 kB]
Get:111 http://deb.debian.org/debian unstable/main armhf libpcre2-16-0 armhf 10.42-4 [211 kB]
Get:112 http://deb.debian.org/debian unstable/main armhf libpcre2-32-0 armhf 10.42-4 [202 kB]
Get:113 http://deb.debian.org/debian unstable/main armhf libpcre2-posix3 armhf 10.42-4 [55.0 kB]
Get:114 http://deb.debian.org/debian unstable/main armhf libpcre2-dev armhf 10.42-4 [668 kB]
Get:115 http://deb.debian.org/debian unstable/main armhf libselinux1-dev armhf 3.5-2 [151 kB]
Get:116 http://deb.debian.org/debian unstable/main armhf libmount-dev armhf 2.39.3-6 [23.6 kB]
Get:117 http://deb.debian.org/debian unstable/main armhf libpkgconf3 armhf 1.8.1-1+b2 [31.9 kB]
Get:118 http://deb.debian.org/debian unstable/main armhf pkgconf-bin armhf 1.8.1-1+b2 [28.9 kB]
Get:119 http://deb.debian.org/debian unstable/main armhf pkgconf armhf 1.8.1-1+b2 [26.2 kB]
Get:120 http://deb.debian.org/debian unstable/main armhf pkg-config armhf 1.8.1-1+b2 [14.0 kB]
Get:121 http://deb.debian.org/debian unstable/main armhf libglib2.0-dev armhf 2.78.3-2 [1527 kB]
debconf: delaying package configuration, since apt-utils is not installed
Fetched 53.8 MB in 5s (10.8 MB/s)
Selecting previously unselected package hicolor-icon-theme.
(Reading database ... (Reading database ... 5%(Reading database ... 10%(Reading database ... 15%(Reading database ... 20%(Reading database ... 25%(Reading database ... 30%(Reading database ... 35%(Reading database ... 40%(Reading database ... 45%(Reading database ... 50%(Reading database ... 55%(Reading database ... 60%(Reading database ... 65%(Reading database ... 70%(Reading database ... 75%(Reading database ... 80%(Reading database ... 85%(Reading database ... 90%(Reading database ... 95%(Reading database ... 100%(Reading database ... 20332 files and directories currently installed.)
Preparing to unpack .../000-hicolor-icon-theme_0.17-2_all.deb ...
Unpacking hicolor-icon-theme (0.17-2) ...
Selecting previously unselected package libgdk-pixbuf2.0-common.
Preparing to unpack .../001-libgdk-pixbuf2.0-common_2.42.10+dfsg-3_all.deb ...
Unpacking libgdk-pixbuf2.0-common (2.42.10+dfsg-3) ...
Selecting previously unselected package shared-mime-info.
Preparing to unpack .../002-shared-mime-info_2.4-1_armhf.deb ...
Unpacking shared-mime-info (2.4-1) ...
Selecting previously unselected package libjpeg62-turbo:armhf.
Preparing to unpack .../003-libjpeg62-turbo_1%3a2.1.5-2+b2_armhf.deb ...
Unpacking libjpeg62-turbo:armhf (1:2.1.5-2+b2) ...
Selecting previously unselected package libpng16-16:armhf.
Preparing to unpack .../004-libpng16-16_1.6.42-1_armhf.deb ...
Unpacking libpng16-16:armhf (1.6.42-1) ...
Selecting previously unselected package libdeflate0:armhf.
Preparing to unpack .../005-libdeflate0_1.18-1_armhf.deb ...
Unpacking libdeflate0:armhf (1.18-1) ...
Selecting previously unselected package libjbig0:armhf.
Preparing to unpack .../006-libjbig0_2.1-6.1_armhf.deb ...
Unpacking libjbig0:armhf (2.1-6.1) ...
Selecting previously unselected package liblerc4:armhf.
Preparing to unpack .../007-liblerc4_4.0.0+ds-4_armhf.deb ...
Unpacking liblerc4:armhf (4.0.0+ds-4) ...
Selecting previously unselected package libsharpyuv0:armhf.
Preparing to unpack .../008-libsharpyuv0_1.3.2-0.3_armhf.deb ...
Unpacking libsharpyuv0:armhf (1.3.2-0.3) ...
Selecting previously unselected package libwebp7:armhf.
Preparing to unpack .../009-libwebp7_1.3.2-0.3_armhf.deb ...
Unpacking libwebp7:armhf (1.3.2-0.3) ...
Selecting previously unselected package libtiff6:armhf.
Preparing to unpack .../010-libtiff6_4.5.1+git230720-4_armhf.deb ...
Unpacking libtiff6:armhf (4.5.1+git230720-4) ...
Selecting previously unselected package libgdk-pixbuf-2.0-0:armhf.
Preparing to unpack .../011-libgdk-pixbuf-2.0-0_2.42.10+dfsg-3_armhf.deb ...
Unpacking libgdk-pixbuf-2.0-0:armhf (2.42.10+dfsg-3) ...
Selecting previously unselected package gtk-update-icon-cache.
Preparing to unpack .../012-gtk-update-icon-cache_3.24.41-1_armhf.deb ...
Unpacking gtk-update-icon-cache (3.24.41-1) ...
Selecting previously unselected package adwaita-icon-theme.
Preparing to unpack .../013-adwaita-icon-theme_45.0-2_all.deb ...
Unpacking adwaita-icon-theme (45.0-2) ...
Selecting previously unselected package anthy-common.
Preparing to unpack .../014-anthy-common_1%3a0.4-2_all.deb ...
Unpacking anthy-common (1:0.4-2) ...
Selecting previously unselected package libanthy1:armhf.
Preparing to unpack .../015-libanthy1_1%3a0.4-2+b1_armhf.deb ...
Unpacking libanthy1:armhf (1:0.4-2+b1) ...
Selecting previously unselected package libanthyinput0:armhf.
Preparing to unpack .../016-libanthyinput0_1%3a0.4-2+b1_armhf.deb ...
Unpacking libanthyinput0:armhf (1:0.4-2+b1) ...
Selecting previously unselected package anthy.
Preparing to unpack .../017-anthy_1%3a0.4-2+b1_armhf.deb ...
Unpacking anthy (1:0.4-2+b1) ...
Selecting previously unselected package at-spi2-common.
Preparing to unpack .../018-at-spi2-common_2.50.0-1_all.deb ...
Unpacking at-spi2-common (2.50.0-1) ...
Selecting previously unselected package libdconf1:armhf.
Preparing to unpack .../019-libdconf1_0.40.0-4+b1_armhf.deb ...
Unpacking libdconf1:armhf (0.40.0-4+b1) ...
Selecting previously unselected package dconf-cli.
Preparing to unpack .../020-dconf-cli_0.40.0-4+b1_armhf.deb ...
Unpacking dconf-cli (0.40.0-4+b1) ...
Selecting previously unselected package dconf-service.
Preparing to unpack .../021-dconf-service_0.40.0-4+b1_armhf.deb ...
Unpacking dconf-service (0.40.0-4+b1) ...
Selecting previously unselected package dconf-gsettings-backend:armhf.
Preparing to unpack .../022-dconf-gsettings-backend_0.40.0-4+b1_armhf.deb ...
Unpacking dconf-gsettings-backend:armhf (0.40.0-4+b1) ...
Selecting previously unselected package libbrotli1:armhf.
Preparing to unpack .../023-libbrotli1_1.1.0-2+b3_armhf.deb ...
Unpacking libbrotli1:armhf (1.1.0-2+b3) ...
Selecting previously unselected package libfreetype6:armhf.
Preparing to unpack .../024-libfreetype6_2.13.2+dfsg-1+b1_armhf.deb ...
Unpacking libfreetype6:armhf (2.13.2+dfsg-1+b1) ...
Selecting previously unselected package fonts-dejavu-mono.
Preparing to unpack .../025-fonts-dejavu-mono_2.37-8_all.deb ...
Unpacking fonts-dejavu-mono (2.37-8) ...
Selecting previously unselected package fonts-dejavu-core.
Preparing to unpack .../026-fonts-dejavu-core_2.37-8_all.deb ...
Unpacking fonts-dejavu-core (2.37-8) ...
Selecting previously unselected package fontconfig-config.
Preparing to unpack .../027-fontconfig-config_2.14.2-6+b1_armhf.deb ...
Unpacking fontconfig-config (2.14.2-6+b1) ...
Selecting previously unselected package libfontconfig1:armhf.
Preparing to unpack .../028-libfontconfig1_2.14.2-6+b1_armhf.deb ...
Unpacking libfontconfig1:armhf (2.14.2-6+b1) ...
Selecting previously unselected package fontconfig.
Preparing to unpack .../029-fontconfig_2.14.2-6+b1_armhf.deb ...
Unpacking fontconfig (2.14.2-6+b1) ...
Selecting previously unselected package gir1.2-glib-2.0:armhf.
Preparing to unpack .../030-gir1.2-glib-2.0_1.78.1-12_armhf.deb ...
Unpacking gir1.2-glib-2.0:armhf (1.78.1-12) ...
Selecting previously unselected package libatk1.0-0:armhf.
Preparing to unpack .../031-libatk1.0-0_2.50.0-1+b1_armhf.deb ...
Unpacking libatk1.0-0:armhf (2.50.0-1+b1) ...
Selecting previously unselected package gir1.2-atk-1.0:armhf.
Preparing to unpack .../032-gir1.2-atk-1.0_2.50.0-1+b1_armhf.deb ...
Unpacking gir1.2-atk-1.0:armhf (2.50.0-1+b1) ...
Selecting previously unselected package libpixman-1-0:armhf.
Preparing to unpack .../033-libpixman-1-0_0.42.2-1_armhf.deb ...
Unpacking libpixman-1-0:armhf (0.42.2-1) ...
Selecting previously unselected package libxau6:armhf.
Preparing to unpack .../034-libxau6_1%3a1.0.9-1_armhf.deb ...
Unpacking libxau6:armhf (1:1.0.9-1) ...
Selecting previously unselected package libxdmcp6:armhf.
Preparing to unpack .../035-libxdmcp6_1%3a1.1.2-3_armhf.deb ...
Unpacking libxdmcp6:armhf (1:1.1.2-3) ...
Selecting previously unselected package libxcb1:armhf.
Preparing to unpack .../036-libxcb1_1.15-1_armhf.deb ...
Unpacking libxcb1:armhf (1.15-1) ...
Selecting previously unselected package libx11-data.
Preparing to unpack .../037-libx11-data_2%3a1.8.7-1_all.deb ...
Unpacking libx11-data (2:1.8.7-1) ...
Selecting previously unselected package libx11-6:armhf.
Preparing to unpack .../038-libx11-6_2%3a1.8.7-1_armhf.deb ...
Unpacking libx11-6:armhf (2:1.8.7-1) ...
Selecting previously unselected package libxcb-render0:armhf.
Preparing to unpack .../039-libxcb-render0_1.15-1_armhf.deb ...
Unpacking libxcb-render0:armhf (1.15-1) ...
Selecting previously unselected package libxcb-shm0:armhf.
Preparing to unpack .../040-libxcb-shm0_1.15-1_armhf.deb ...
Unpacking libxcb-shm0:armhf (1.15-1) ...
Selecting previously unselected package libxext6:armhf.
Preparing to unpack .../041-libxext6_2%3a1.3.4-1+b1_armhf.deb ...
Unpacking libxext6:armhf (2:1.3.4-1+b1) ...
Selecting previously unselected package libxrender1:armhf.
Preparing to unpack .../042-libxrender1_1%3a0.9.10-1.1_armhf.deb ...
Unpacking libxrender1:armhf (1:0.9.10-1.1) ...
Selecting previously unselected package libcairo2:armhf.
Preparing to unpack .../043-libcairo2_1.18.0-1+b1_armhf.deb ...
Unpacking libcairo2:armhf (1.18.0-1+b1) ...
Selecting previously unselected package libcairo-gobject2:armhf.
Preparing to unpack .../044-libcairo-gobject2_1.18.0-1+b1_armhf.deb ...
Unpacking libcairo-gobject2:armhf (1.18.0-1+b1) ...
Selecting previously unselected package gir1.2-freedesktop:armhf.
Preparing to unpack .../045-gir1.2-freedesktop_1.78.1-12_armhf.deb ...
Unpacking gir1.2-freedesktop:armhf (1.78.1-12) ...
Selecting previously unselected package gir1.2-gdkpixbuf-2.0:armhf.
Preparing to unpack .../046-gir1.2-gdkpixbuf-2.0_2.42.10+dfsg-3_armhf.deb ...
Unpacking gir1.2-gdkpixbuf-2.0:armhf (2.42.10+dfsg-3) ...
Selecting previously unselected package libgirepository-1.0-1:armhf.
Preparing to unpack .../047-libgirepository-1.0-1_1.78.1-12_armhf.deb ...
Unpacking libgirepository-1.0-1:armhf (1.78.1-12) ...
Selecting previously unselected package gir1.2-girepository-2.0:armhf.
Preparing to unpack .../048-gir1.2-girepository-2.0_1.78.1-12_armhf.deb ...
Unpacking gir1.2-girepository-2.0:armhf (1.78.1-12) ...
Selecting previously unselected package libgraphite2-3:armhf.
Preparing to unpack .../049-libgraphite2-3_1.3.14-2_armhf.deb ...
Unpacking libgraphite2-3:armhf (1.3.14-2) ...
Selecting previously unselected package libharfbuzz0b:armhf.
Preparing to unpack .../050-libharfbuzz0b_8.3.0-2_armhf.deb ...
Unpacking libharfbuzz0b:armhf (8.3.0-2) ...
Selecting previously unselected package libharfbuzz-gobject0:armhf.
Preparing to unpack .../051-libharfbuzz-gobject0_8.3.0-2_armhf.deb ...
Unpacking libharfbuzz-gobject0:armhf (8.3.0-2) ...
Selecting previously unselected package gir1.2-harfbuzz-0.0:armhf.
Preparing to unpack .../052-gir1.2-harfbuzz-0.0_8.3.0-2_armhf.deb ...
Unpacking gir1.2-harfbuzz-0.0:armhf (8.3.0-2) ...
Selecting previously unselected package libfribidi0:armhf.
Preparing to unpack .../053-libfribidi0_1.0.13-3+b1_armhf.deb ...
Unpacking libfribidi0:armhf (1.0.13-3+b1) ...
Selecting previously unselected package libthai-data.
Preparing to unpack .../054-libthai-data_0.1.29-2_all.deb ...
Unpacking libthai-data (0.1.29-2) ...
Selecting previously unselected package libdatrie1:armhf.
Preparing to unpack .../055-libdatrie1_0.2.13-3_armhf.deb ...
Unpacking libdatrie1:armhf (0.2.13-3) ...
Selecting previously unselected package libthai0:armhf.
Preparing to unpack .../056-libthai0_0.1.29-2_armhf.deb ...
Unpacking libthai0:armhf (0.1.29-2) ...
Selecting previously unselected package libpango-1.0-0:armhf.
Preparing to unpack .../057-libpango-1.0-0_1.51.0+ds-4_armhf.deb ...
Unpacking libpango-1.0-0:armhf (1.51.0+ds-4) ...
Selecting previously unselected package libpangoft2-1.0-0:armhf.
Preparing to unpack .../058-libpangoft2-1.0-0_1.51.0+ds-4_armhf.deb ...
Unpacking libpangoft2-1.0-0:armhf (1.51.0+ds-4) ...
Selecting previously unselected package libpangocairo-1.0-0:armhf.
Preparing to unpack .../059-libpangocairo-1.0-0_1.51.0+ds-4_armhf.deb ...
Unpacking libpangocairo-1.0-0:armhf (1.51.0+ds-4) ...
Selecting previously unselected package libxft2:armhf.
Preparing to unpack .../060-libxft2_2.3.6-1_armhf.deb ...
Unpacking libxft2:armhf (2.3.6-1) ...
Selecting previously unselected package libpangoxft-1.0-0:armhf.
Preparing to unpack .../061-libpangoxft-1.0-0_1.51.0+ds-4_armhf.deb ...
Unpacking libpangoxft-1.0-0:armhf (1.51.0+ds-4) ...
Selecting previously unselected package gir1.2-pango-1.0:armhf.
Preparing to unpack .../062-gir1.2-pango-1.0_1.51.0+ds-4_armhf.deb ...
Unpacking gir1.2-pango-1.0:armhf (1.51.0+ds-4) ...
Selecting previously unselected package libxi6:armhf.
Preparing to unpack .../063-libxi6_2%3a1.8-1+b1_armhf.deb ...
Unpacking libxi6:armhf (2:1.8-1+b1) ...
Selecting previously unselected package libatspi2.0-0:armhf.
Preparing to unpack .../064-libatspi2.0-0_2.50.0-1+b1_armhf.deb ...
Unpacking libatspi2.0-0:armhf (2.50.0-1+b1) ...
Selecting previously unselected package libatk-bridge2.0-0:armhf.
Preparing to unpack .../065-libatk-bridge2.0-0_2.50.0-1+b1_armhf.deb ...
Unpacking libatk-bridge2.0-0:armhf (2.50.0-1+b1) ...
Selecting previously unselected package libcloudproviders0:armhf.
Preparing to unpack .../066-libcloudproviders0_0.3.5-1_armhf.deb ...
Unpacking libcloudproviders0:armhf (0.3.5-1) ...
Selecting previously unselected package liblcms2-2:armhf.
Preparing to unpack .../067-liblcms2-2_2.14-2_armhf.deb ...
Unpacking liblcms2-2:armhf (2.14-2) ...
Selecting previously unselected package libcolord2:armhf.
Preparing to unpack .../068-libcolord2_1.4.6-5_armhf.deb ...
Unpacking libcolord2:armhf (1.4.6-5) ...
Selecting previously unselected package libavahi-common-data:armhf.
Preparing to unpack .../069-libavahi-common-data_0.8-13+b1_armhf.deb ...
Unpacking libavahi-common-data:armhf (0.8-13+b1) ...
Selecting previously unselected package libavahi-common3:armhf.
Preparing to unpack .../070-libavahi-common3_0.8-13+b1_armhf.deb ...
Unpacking libavahi-common3:armhf (0.8-13+b1) ...
Selecting previously unselected package libavahi-client3:armhf.
Preparing to unpack .../071-libavahi-client3_0.8-13+b1_armhf.deb ...
Unpacking libavahi-client3:armhf (0.8-13+b1) ...
Selecting previously unselected package libcups2:armhf.
Preparing to unpack .../072-libcups2_2.4.7-1+b1_armhf.deb ...
Unpacking libcups2:armhf (2.4.7-1+b1) ...
Selecting previously unselected package libepoxy0:armhf.
Preparing to unpack .../073-libepoxy0_1.5.10-1+b2_armhf.deb ...
Unpacking libepoxy0:armhf (1.5.10-1+b2) ...
Selecting previously unselected package libwayland-client0:armhf.
Preparing to unpack .../074-libwayland-client0_1.22.0-2.1_armhf.deb ...
Unpacking libwayland-client0:armhf (1.22.0-2.1) ...
Selecting previously unselected package libwayland-cursor0:armhf.
Preparing to unpack .../075-libwayland-cursor0_1.22.0-2.1_armhf.deb ...
Unpacking libwayland-cursor0:armhf (1.22.0-2.1) ...
Selecting previously unselected package libwayland-egl1:armhf.
Preparing to unpack .../076-libwayland-egl1_1.22.0-2.1_armhf.deb ...
Unpacking libwayland-egl1:armhf (1.22.0-2.1) ...
Selecting previously unselected package libxcomposite1:armhf.
Preparing to unpack .../077-libxcomposite1_1%3a0.4.5-1_armhf.deb ...
Unpacking libxcomposite1:armhf (1:0.4.5-1) ...
Selecting previously unselected package libxfixes3:armhf.
Preparing to unpack .../078-libxfixes3_1%3a6.0.0-2_armhf.deb ...
Unpacking libxfixes3:armhf (1:6.0.0-2) ...
Selecting previously unselected package libxcursor1:armhf.
Preparing to unpack .../079-libxcursor1_1%3a1.2.1-1_armhf.deb ...
Unpacking libxcursor1:armhf (1:1.2.1-1) ...
Selecting previously unselected package libxdamage1:armhf.
Preparing to unpack .../080-libxdamage1_1%3a1.1.6-1_armhf.deb ...
Unpacking libxdamage1:armhf (1:1.1.6-1) ...
Selecting previously unselected package libxinerama1:armhf.
Preparing to unpack .../081-libxinerama1_2%3a1.1.4-3_armhf.deb ...
Unpacking libxinerama1:armhf (2:1.1.4-3) ...
Selecting previously unselected package xkb-data.
Preparing to unpack .../082-xkb-data_2.38-2_all.deb ...
Unpacking xkb-data (2.38-2) ...
Selecting previously unselected package libxkbcommon0:armhf.
Preparing to unpack .../083-libxkbcommon0_1.6.0-1_armhf.deb ...
Unpacking libxkbcommon0:armhf (1.6.0-1) ...
Selecting previously unselected package libxrandr2:armhf.
Preparing to unpack .../084-libxrandr2_2%3a1.5.2-2+b1_armhf.deb ...
Unpacking libxrandr2:armhf (2:1.5.2-2+b1) ...
Selecting previously unselected package libgtk-3-common.
Preparing to unpack .../085-libgtk-3-common_3.24.41-1_all.deb ...
Unpacking libgtk-3-common (3.24.41-1) ...
Selecting previously unselected package libgtk-3-0:armhf.
Preparing to unpack .../086-libgtk-3-0_3.24.41-1_armhf.deb ...
Unpacking libgtk-3-0:armhf (3.24.41-1) ...
Selecting previously unselected package gir1.2-gtk-3.0:armhf.
Preparing to unpack .../087-gir1.2-gtk-3.0_3.24.41-1_armhf.deb ...
Unpacking gir1.2-gtk-3.0:armhf (3.24.41-1) ...
Selecting previously unselected package libibus-1.0-5:armhf.
Preparing to unpack .../088-libibus-1.0-5_1.5.29-1_armhf.deb ...
Unpacking libibus-1.0-5:armhf (1.5.29-1) ...
Selecting previously unselected package gir1.2-ibus-1.0:armhf.
Preparing to unpack .../089-gir1.2-ibus-1.0_1.5.29-1_armhf.deb ...
Unpacking gir1.2-ibus-1.0:armhf (1.5.29-1) ...
Selecting previously unselected package libdbusmenu-glib4:armhf.
Preparing to unpack .../090-libdbusmenu-glib4_18.10.20180917~bzr492+repack1-3.1_armhf.deb ...
Unpacking libdbusmenu-glib4:armhf (18.10.20180917~bzr492+repack1-3.1) ...
Selecting previously unselected package libdbusmenu-gtk3-4:armhf.
Preparing to unpack .../091-libdbusmenu-gtk3-4_18.10.20180917~bzr492+repack1-3.1_armhf.deb ...
Unpacking libdbusmenu-gtk3-4:armhf (18.10.20180917~bzr492+repack1-3.1) ...
Selecting previously unselected package libnotify4:armhf.
Preparing to unpack .../092-libnotify4_0.8.3-1_armhf.deb ...
Unpacking libnotify4:armhf (0.8.3-1) ...
Selecting previously unselected package librsvg2-2:armhf.
Preparing to unpack .../093-librsvg2-2_2.54.7+dfsg-2_armhf.deb ...
Unpacking librsvg2-2:armhf (2.54.7+dfsg-2) ...
Selecting previously unselected package librsvg2-common:armhf.
Preparing to unpack .../094-librsvg2-common_2.54.7+dfsg-2_armhf.deb ...
Unpacking librsvg2-common:armhf (2.54.7+dfsg-2) ...
Selecting previously unselected package ibus-data.
Preparing to unpack .../095-ibus-data_1.5.29-1_all.deb ...
Unpacking ibus-data (1.5.29-1) ...
Selecting previously unselected package python3-gi.
Preparing to unpack .../096-python3-gi_3.46.0-3_armhf.deb ...
Unpacking python3-gi (3.46.0-3) ...
Selecting previously unselected package python3-ibus-1.0.
Preparing to unpack .../097-python3-ibus-1.0_1.5.29-1_all.deb ...
Unpacking python3-ibus-1.0 (1.5.29-1) ...
Selecting previously unselected package ibus.
Preparing to unpack .../098-ibus_1.5.29-1_armhf.deb ...
Unpacking ibus (1.5.29-1) ...
Selecting previously unselected package ibus-anthy.
Preparing to unpack .../099-ibus-anthy_1.5.15-1_armhf.deb ...
Unpacking ibus-anthy (1.5.15-1) ...
Selecting previously unselected package ibus-anthy-dev.
Preparing to unpack .../100-ibus-anthy-dev_1.5.15-1_armhf.deb ...
Unpacking ibus-anthy-dev (1.5.15-1) ...
Selecting previously unselected package libanthy-dev:armhf.
Preparing to unpack .../101-libanthy-dev_1%3a0.4-2+b1_armhf.deb ...
Unpacking libanthy-dev:armhf (1:0.4-2+b1) ...
Selecting previously unselected package uuid-dev:armhf.
Preparing to unpack .../102-uuid-dev_2.39.3-6_armhf.deb ...
Unpacking uuid-dev:armhf (2.39.3-6) ...
Selecting previously unselected package libblkid-dev:armhf.
Preparing to unpack .../103-libblkid-dev_2.39.3-6_armhf.deb ...
Unpacking libblkid-dev:armhf (2.39.3-6) ...
Selecting previously unselected package libffi-dev:armhf.
Preparing to unpack .../104-libffi-dev_3.4.4-2_armhf.deb ...
Unpacking libffi-dev:armhf (3.4.4-2) ...
Selecting previously unselected package libglib2.0-data.
Preparing to unpack .../105-libglib2.0-data_2.78.3-2_all.deb ...
Unpacking libglib2.0-data (2.78.3-2) ...
Selecting previously unselected package libglib2.0-bin.
Preparing to unpack .../106-libglib2.0-bin_2.78.3-2_armhf.deb ...
Unpacking libglib2.0-bin (2.78.3-2) ...
Selecting previously unselected package python3-packaging.
Preparing to unpack .../107-python3-packaging_23.2-1_all.deb ...
Unpacking python3-packaging (23.2-1) ...
Selecting previously unselected package libglib2.0-dev-bin.
Preparing to unpack .../108-libglib2.0-dev-bin_2.78.3-2_armhf.deb ...
Unpacking libglib2.0-dev-bin (2.78.3-2) ...
Selecting previously unselected package libsepol-dev:armhf.
Preparing to unpack .../109-libsepol-dev_3.5-2_armhf.deb ...
Unpacking libsepol-dev:armhf (3.5-2) ...
Selecting previously unselected package libpcre2-16-0:armhf.
Preparing to unpack .../110-libpcre2-16-0_10.42-4_armhf.deb ...
Unpacking libpcre2-16-0:armhf (10.42-4) ...
Selecting previously unselected package libpcre2-32-0:armhf.
Preparing to unpack .../111-libpcre2-32-0_10.42-4_armhf.deb ...
Unpacking libpcre2-32-0:armhf (10.42-4) ...
Selecting previously unselected package libpcre2-posix3:armhf.
Preparing to unpack .../112-libpcre2-posix3_10.42-4_armhf.deb ...
Unpacking libpcre2-posix3:armhf (10.42-4) ...
Selecting previously unselected package libpcre2-dev:armhf.
Preparing to unpack .../113-libpcre2-dev_10.42-4_armhf.deb ...
Unpacking libpcre2-dev:armhf (10.42-4) ...
Selecting previously unselected package libselinux1-dev:armhf.
Preparing to unpack .../114-libselinux1-dev_3.5-2_armhf.deb ...
Unpacking libselinux1-dev:armhf (3.5-2) ...
Selecting previously unselected package libmount-dev:armhf.
Preparing to unpack .../115-libmount-dev_2.39.3-6_armhf.deb ...
Unpacking libmount-dev:armhf (2.39.3-6) ...
Selecting previously unselected package libpkgconf3:armhf.
Preparing to unpack .../116-libpkgconf3_1.8.1-1+b2_armhf.deb ...
Unpacking libpkgconf3:armhf (1.8.1-1+b2) ...
Selecting previously unselected package pkgconf-bin.
Preparing to unpack .../117-pkgconf-bin_1.8.1-1+b2_armhf.deb ...
Unpacking pkgconf-bin (1.8.1-1+b2) ...
Selecting previously unselected package pkgconf:armhf.
Preparing to unpack .../118-pkgconf_1.8.1-1+b2_armhf.deb ...
Unpacking pkgconf:armhf (1.8.1-1+b2) ...
Selecting previously unselected package pkg-config:armhf.
Preparing to unpack .../119-pkg-config_1.8.1-1+b2_armhf.deb ...
Unpacking pkg-config:armhf (1.8.1-1+b2) ...
Selecting previously unselected package libglib2.0-dev:armhf.
Preparing to unpack .../120-libglib2.0-dev_2.78.3-2_armhf.deb ...
Unpacking libglib2.0-dev:armhf (2.78.3-2) ...
Setting up libgraphite2-3:armhf (1.3.14-2) ...
Setting up liblcms2-2:armhf (2.14-2) ...
Setting up libpixman-1-0:armhf (0.42.2-1) ...
Setting up libsharpyuv0:armhf (1.3.2-0.3) ...
Setting up libxau6:armhf (1:1.0.9-1) ...
Setting up libxdmcp6:armhf (1:1.1.2-3) ...
Setting up libxcb1:armhf (1.15-1) ...
Setting up liblerc4:armhf (4.0.0+ds-4) ...
Setting up hicolor-icon-theme (0.17-2) ...
Setting up libdatrie1:armhf (0.2.13-3) ...
Setting up libxcb-render0:armhf (1.15-1) ...
Setting up libdbusmenu-glib4:armhf (18.10.20180917~bzr492+repack1-3.1) ...
Setting up libbrotli1:armhf (1.1.0-2+b3) ...
Setting up libgdk-pixbuf2.0-common (2.42.10+dfsg-3) ...
Setting up libibus-1.0-5:armhf (1.5.29-1) ...
Setting up libdeflate0:armhf (1.18-1) ...
Setting up libcloudproviders0:armhf (0.3.5-1) ...
Setting up xkb-data (2.38-2) ...
Setting up libxcb-shm0:armhf (1.15-1) ...
Setting up libffi-dev:armhf (3.4.4-2) ...
Setting up libjbig0:armhf (2.1-6.1) ...
Setting up libpcre2-16-0:armhf (10.42-4) ...
Setting up libcolord2:armhf (1.4.6-5) ...
Setting up libdconf1:armhf (0.40.0-4+b1) ...
Setting up libpcre2-32-0:armhf (10.42-4) ...
Setting up libglib2.0-data (2.78.3-2) ...
Setting up python3-packaging (23.2-1) ...
Setting up anthy-common (1:0.4-2) ...
Setting up libpkgconf3:armhf (1.8.1-1+b2) ...
Setting up libjpeg62-turbo:armhf (1:2.1.5-2+b2) ...
Setting up libx11-data (2:1.8.7-1) ...
Setting up libepoxy0:armhf (1.5.10-1+b2) ...
Setting up libanthy1:armhf (1:0.4-2+b1) ...
Setting up uuid-dev:armhf (2.39.3-6) ...
Setting up libavahi-common-data:armhf (0.8-13+b1) ...
Setting up libfribidi0:armhf (1.0.13-3+b1) ...
Setting up shared-mime-info (2.4-1) ...
Setting up fonts-dejavu-mono (2.37-8) ...
Setting up libpng16-16:armhf (1.6.42-1) ...
Setting up fonts-dejavu-core (2.37-8) ...
Setting up libsepol-dev:armhf (3.5-2) ...
Setting up pkgconf-bin (1.8.1-1+b2) ...
Setting up gir1.2-glib-2.0:armhf (1.78.1-12) ...
Setting up libwebp7:armhf (1.3.2-0.3) ...
Setting up libpcre2-posix3:armhf (10.42-4) ...
Setting up at-spi2-common (2.50.0-1) ...
Setting up libtiff6:armhf (4.5.1+git230720-4) ...
Setting up libx11-6:armhf (2:1.8.7-1) ...
Setting up libthai-data (0.1.29-2) ...
Setting up libgirepository-1.0-1:armhf (1.78.1-12) ...
Setting up libgdk-pixbuf-2.0-0:armhf (2.42.10+dfsg-3) ...
Setting up libatk1.0-0:armhf (2.50.0-1+b1) ...
Setting up libwayland-egl1:armhf (1.22.0-2.1) ...
Setting up libanthyinput0:armhf (1:0.4-2+b1) ...
Setting up gir1.2-ibus-1.0:armhf (1.5.29-1) ...
Setting up libxcomposite1:armhf (1:0.4.5-1) ...
Setting up libxkbcommon0:armhf (1.6.0-1) ...
Setting up libwayland-client0:armhf (1.22.0-2.1) ...
Setting up libglib2.0-dev-bin (2.78.3-2) ...
Setting up libblkid-dev:armhf (2.39.3-6) ...
Setting up gtk-update-icon-cache (3.24.41-1) ...
Setting up libanthy-dev:armhf (1:0.4-2+b1) ...
Setting up libxdamage1:armhf (1:1.1.6-1) ...
Setting up dconf-cli (0.40.0-4+b1) ...
Setting up libpcre2-dev:armhf (10.42-4) ...
Setting up anthy (1:0.4-2+b1) ...
Setting up libxrender1:armhf (1:0.9.10-1.1) ...
Setting up gir1.2-gdkpixbuf-2.0:armhf (2.42.10+dfsg-3) ...
Setting up gir1.2-atk-1.0:armhf (2.50.0-1+b1) ...
Setting up libselinux1-dev:armhf (3.5-2) ...
Setting up fontconfig-config (2.14.2-6+b1) ...
Setting up libavahi-common3:armhf (0.8-13+b1) ...
Setting up libxext6:armhf (2:1.3.4-1+b1) ...
Setting up libglib2.0-bin (2.78.3-2) ...
Setting up dconf-service (0.40.0-4+b1) ...
Setting up pkgconf:armhf (1.8.1-1+b2) ...
Setting up libthai0:armhf (0.1.29-2) ...
Setting up libfreetype6:armhf (2.13.2+dfsg-1+b1) ...
Setting up adwaita-icon-theme (45.0-2) ...
update-alternatives: using /usr/share/icons/Adwaita/cursor.theme to provide /usr/share/icons/default/index.theme (x-cursor-theme) in auto mode
Setting up libxfixes3:armhf (1:6.0.0-2) ...
Setting up gir1.2-girepository-2.0:armhf (1.78.1-12) ...
Setting up libnotify4:armhf (0.8.3-1) ...
Setting up python3-gi (3.46.0-3) ...
Setting up libxinerama1:armhf (2:1.1.4-3) ...
Setting up libxrandr2:armhf (2:1.5.2-2+b1) ...
Setting up pkg-config:armhf (1.8.1-1+b2) ...
Setting up libwayland-cursor0:armhf (1.22.0-2.1) ...
Setting up libharfbuzz0b:armhf (8.3.0-2) ...
Setting up python3-ibus-1.0 (1.5.29-1) ...
Setting up libavahi-client3:armhf (0.8-13+b1) ...
Setting up libmount-dev:armhf (2.39.3-6) ...
Setting up libxi6:armhf (2:1.8-1+b1) ...
Setting up dconf-gsettings-backend:armhf (0.40.0-4+b1) ...
Setting up libxcursor1:armhf (1:1.2.1-1) ...
Setting up libharfbuzz-gobject0:armhf (8.3.0-2) ...
Setting up libatspi2.0-0:armhf (2.50.0-1+b1) ...
Setting up libatk-bridge2.0-0:armhf (2.50.0-1+b1) ...
Setting up libglib2.0-dev:armhf (2.78.3-2) ...
Setting up libcups2:armhf (2.4.7-1+b1) ...
Setting up libgtk-3-common (3.24.41-1) ...
Processing triggers for libglib2.0-0:armhf (2.78.3-2) ...
Processing triggers for libc-bin (2.37-13) ...
Processing triggers for sgml-base (1.31) ...
Setting up libfontconfig1:armhf (2.14.2-6+b1) ...
Setting up fontconfig (2.14.2-6+b1) ...
Regenerating fonts cache... done.
Setting up libxft2:armhf (2.3.6-1) ...
Setting up libpango-1.0-0:armhf (1.51.0+ds-4) ...
Setting up libcairo2:armhf (1.18.0-1+b1) ...
Setting up libcairo-gobject2:armhf (1.18.0-1+b1) ...
Setting up libpangoft2-1.0-0:armhf (1.51.0+ds-4) ...
Setting up libpangocairo-1.0-0:armhf (1.51.0+ds-4) ...
Setting up libdbusmenu-gtk3-4:armhf (18.10.20180917~bzr492+repack1-3.1) ...
Setting up gir1.2-freedesktop:armhf (1.78.1-12) ...
Setting up libpangoxft-1.0-0:armhf (1.51.0+ds-4) ...
Setting up libgtk-3-0:armhf (3.24.41-1) ...
Setting up gir1.2-harfbuzz-0.0:armhf (8.3.0-2) ...
Setting up librsvg2-2:armhf (2.54.7+dfsg-2) ...
Setting up gir1.2-pango-1.0:armhf (1.51.0+ds-4) ...
Setting up librsvg2-common:armhf (2.54.7+dfsg-2) ...
Setting up gir1.2-gtk-3.0:armhf (3.24.41-1) ...
Setting up ibus-data (1.5.29-1) ...
Setting up ibus (1.5.29-1) ...
Created symlink /etc/systemd/user/gnome-session.target.wants/org.freedesktop.IBus.session.GNOME.service → /usr/lib/systemd/user/org.freedesktop.IBus.session.GNOME.service.
Unit /usr/lib/systemd/user/org.freedesktop.IBus.session.GNOME.service is added as a dependency to a non-existent unit gnome-session.target.
Setting up ibus-anthy (1.5.15-1) ...
Setting up ibus-anthy-dev (1.5.15-1) ...
Processing triggers for libc-bin (2.37-13) ...
Processing triggers for libgdk-pixbuf-2.0-0:armhf (2.42.10+dfsg-3) ...
Reading package lists...
Building dependency tree...
Reading state information...
The following packages will be REMOVED:
  ibacm* ibverbs-providers* libibumad-dev* libibumad3* libibverbs-dev*
  libibverbs1* libnl-3-200* libnl-3-dev* libnl-route-3-200* libnl-route-3-dev*
  rdma-core* udev*
0 upgraded, 0 newly installed, 12 to remove and 53 not upgraded.
After this operation, 13.8 MB disk space will be freed.
(Reading database ... (Reading database ... 5%(Reading database ... 10%(Reading database ... 15%(Reading database ... 20%(Reading database ... 25%(Reading database ... 30%(Reading database ... 35%(Reading database ... 40%(Reading database ... 45%(Reading database ... 50%(Reading database ... 55%(Reading database ... 60%(Reading database ... 65%(Reading database ... 70%(Reading database ... 75%(Reading database ... 80%(Reading database ... 85%(Reading database ... 90%(Reading database ... 95%(Reading database ... 100%(Reading database ... 25227 files and directories currently installed.)
Removing ibacm (48.0-1.1) ...
Removing libibverbs-dev:armhf (48.0-1.1) ...
Removing ibverbs-providers:armhf (48.0-1.1) ...
Removing libibumad-dev:armhf (48.0-1.1) ...
Removing libibumad3:armhf (48.0-1.1) ...
Removing libibverbs1:armhf (48.0-1.1) ...
Removing rdma-core (48.0-1.1) ...
invoke-rc.d: could not determine current runlevel
Stopping iwpm daemon: NO (iwpm is already stopped)
Removing libnl-route-3-dev:armhf (3.7.0-0.3) ...
Removing libnl-route-3-200:armhf (3.7.0-0.3) ...
Removing libnl-3-dev:armhf (3.7.0-0.3) ...
Removing udev (255.3-2) ...
Removing libnl-3-200:armhf (3.7.0-0.3) ...
Processing triggers for libc-bin (2.37-13) ...
(Reading database ... (Reading database ... 5%(Reading database ... 10%(Reading database ... 15%(Reading database ... 20%(Reading database ... 25%(Reading database ... 30%(Reading database ... 35%(Reading database ... 40%(Reading database ... 45%(Reading database ... 50%(Reading database ... 55%(Reading database ... 60%(Reading database ... 65%(Reading database ... 70%(Reading database ... 75%(Reading database ... 80%(Reading database ... 85%(Reading database ... 90%(Reading database ... 95%(Reading database ... 100%(Reading database ... 24664 files and directories currently installed.)
Purging configuration files for ibverbs-providers:armhf (48.0-1.1) ...
Purging configuration files for udev (255.3-2) ...
Purging configuration files for ibacm (48.0-1.1) ...
Purging configuration files for libnl-3-200:armhf (3.7.0-0.3) ...
Purging configuration files for rdma-core (48.0-1.1) ...
