[2024-01-07T12:51:07+00:00] apt-get install libjack-dev abi-compliance-checker
Reading package lists...
Building dependency tree...
Reading state information...
abi-compliance-checker is already the newest version (2.3-2).
The following packages were automatically installed and are no longer required:
  libboost1.81-dev libixion-0.18-0 libixion-dev
Use 'apt autoremove' to remove them.
The following additional packages will be installed:
  libjack0 libpkgconf3 pkg-config pkgconf pkgconf-bin
Suggested packages:
  jackd1
The following NEW packages will be installed:
  libjack-dev libjack0 libpkgconf3 pkg-config pkgconf pkgconf-bin
0 upgraded, 6 newly installed, 0 to remove and 31 not upgraded.
Need to get 331 kB of archives.
After this operation, 2708 kB of additional disk space will be used.
Get:1 http://deb.debian.org/debian unstable/main armhf libjack0 armhf 1:0.126.0-2 [82.0 kB]
Get:2 http://deb.debian.org/debian unstable/main armhf libpkgconf3 armhf 1.8.1-1+b2 [31.9 kB]
Get:3 http://deb.debian.org/debian unstable/main armhf pkgconf-bin armhf 1.8.1-1+b2 [28.9 kB]
Get:4 http://deb.debian.org/debian unstable/main armhf pkgconf armhf 1.8.1-1+b2 [26.2 kB]
Get:5 http://deb.debian.org/debian unstable/main armhf pkg-config armhf 1.8.1-1+b2 [14.0 kB]
Get:6 http://deb.debian.org/debian unstable/main armhf libjack-dev armhf 1:0.126.0-2 [148 kB]
debconf: delaying package configuration, since apt-utils is not installed
Fetched 331 kB in 0s (874 kB/s)
Selecting previously unselected package libjack0:armhf.
(Reading database ... (Reading database ... 5%(Reading database ... 10%(Reading database ... 15%(Reading database ... 20%(Reading database ... 25%(Reading database ... 30%(Reading database ... 35%(Reading database ... 40%(Reading database ... 45%(Reading database ... 50%(Reading database ... 55%(Reading database ... 60%(Reading database ... 65%(Reading database ... 70%(Reading database ... 75%(Reading database ... 80%(Reading database ... 85%(Reading database ... 90%(Reading database ... 95%(Reading database ... 100%(Reading database ... 32107 files and directories currently installed.)
Preparing to unpack .../0-libjack0_1%3a0.126.0-2_armhf.deb ...
Unpacking libjack0:armhf (1:0.126.0-2) ...
Selecting previously unselected package libpkgconf3:armhf.
Preparing to unpack .../1-libpkgconf3_1.8.1-1+b2_armhf.deb ...
Unpacking libpkgconf3:armhf (1.8.1-1+b2) ...
Selecting previously unselected package pkgconf-bin.
Preparing to unpack .../2-pkgconf-bin_1.8.1-1+b2_armhf.deb ...
Unpacking pkgconf-bin (1.8.1-1+b2) ...
Selecting previously unselected package pkgconf:armhf.
Preparing to unpack .../3-pkgconf_1.8.1-1+b2_armhf.deb ...
Unpacking pkgconf:armhf (1.8.1-1+b2) ...
Selecting previously unselected package pkg-config:armhf.
Preparing to unpack .../4-pkg-config_1.8.1-1+b2_armhf.deb ...
Unpacking pkg-config:armhf (1.8.1-1+b2) ...
Selecting previously unselected package libjack-dev:armhf.
Preparing to unpack .../5-libjack-dev_1%3a0.126.0-2_armhf.deb ...
Unpacking libjack-dev:armhf (1:0.126.0-2) ...
Setting up libpkgconf3:armhf (1.8.1-1+b2) ...
Setting up libjack0:armhf (1:0.126.0-2) ...
Setting up pkgconf-bin (1.8.1-1+b2) ...
Setting up pkgconf:armhf (1.8.1-1+b2) ...
Setting up pkg-config:armhf (1.8.1-1+b2) ...
Setting up libjack-dev:armhf (1:0.126.0-2) ...
Processing triggers for libc-bin (2.37-13) ...
Reading package lists...
Building dependency tree...
Reading state information...
The following packages will be REMOVED:
  libboost1.81-dev* libixion-0.18-0* libixion-dev*
0 upgraded, 0 newly installed, 3 to remove and 31 not upgraded.
After this operation, 162 MB disk space will be freed.
(Reading database ... (Reading database ... 5%(Reading database ... 10%(Reading database ... 15%(Reading database ... 20%(Reading database ... 25%(Reading database ... 30%(Reading database ... 35%(Reading database ... 40%(Reading database ... 45%(Reading database ... 50%(Reading database ... 55%(Reading database ... 60%(Reading database ... 65%(Reading database ... 70%(Reading database ... 75%(Reading database ... 80%(Reading database ... 85%(Reading database ... 90%(Reading database ... 95%(Reading database ... 100%(Reading database ... 32277 files and directories currently installed.)
Removing libboost1.81-dev:armhf (1.81.0-7+b1) ...
Removing libixion-dev:armhf (0.19.0-4) ...
Removing libixion-0.18-0:armhf (0.19.0-4) ...
Processing triggers for libc-bin (2.37-13) ...
