[2024-01-07T21:01:19+00:00] apt-get install libmm-glib-dev libglib2.0-dev abi-compliance-checker
Reading package lists...
Building dependency tree...
Reading state information...
abi-compliance-checker is already the newest version (2.3-2).
The following packages were automatically installed and are no longer required:
  libmm-dev libmm14
Use 'apt autoremove' to remove them.
The following additional packages will be installed:
  bsdutils gir1.2-glib-2.0 gir1.2-modemmanager-1.0 libblkid-dev libblkid1
  libffi-dev libgirepository-1.0-1 libglib2.0-0 libglib2.0-bin libglib2.0-data
  libglib2.0-dev-bin libmm-glib0 libmount-dev libmount1 libpcre2-16-0
  libpcre2-32-0 libpcre2-dev libpcre2-posix3 libpkgconf3 libselinux1
  libselinux1-dev libsepol-dev libsmartcols1 libuuid1 modemmanager-dev mount
  pkg-config pkgconf pkgconf-bin python3-distutils python3-lib2to3 util-linux
  uuid-dev zlib1g-dev
Suggested packages:
  low-memory-monitor libgirepository1.0-dev libglib2.0-doc
  libgdk-pixbuf2.0-bin libxml2-utils libmm-glib-doc cryptsetup-bin
  modemmanager-doc nfs-common dosfstools kbd util-linux-extra
  util-linux-locales
Recommended packages:
  bsdextrautils shared-mime-info xdg-user-dirs modemmanager uuid-runtime
  sensible-utils
The following NEW packages will be installed:
  gir1.2-glib-2.0 gir1.2-modemmanager-1.0 libblkid-dev libffi-dev
  libgirepository-1.0-1 libglib2.0-0 libglib2.0-bin libglib2.0-data
  libglib2.0-dev libglib2.0-dev-bin libmm-glib-dev libmm-glib0 libmount-dev
  libpcre2-16-0 libpcre2-32-0 libpcre2-dev libpcre2-posix3 libpkgconf3
  libselinux1-dev libsepol-dev modemmanager-dev pkg-config pkgconf pkgconf-bin
  python3-distutils python3-lib2to3 uuid-dev zlib1g-dev
The following packages will be upgraded:
  bsdutils libblkid1 libmount1 libselinux1 libsmartcols1 libuuid1 mount
  util-linux
8 upgraded, 28 newly installed, 0 to remove and 56 not upgraded.
Need to get 10.1 MB of archives.
After this operation, 38.1 MB of additional disk space will be used.
Get:1 http://deb.debian.org/debian unstable/main armhf bsdutils armhf 1:2.39.3-6 [88.6 kB]
Get:2 http://deb.debian.org/debian unstable/main armhf util-linux armhf 2.39.3-6 [1143 kB]
Get:3 http://deb.debian.org/debian unstable/main armhf mount armhf 2.39.3-6 [134 kB]
Get:4 http://deb.debian.org/debian unstable/main armhf libblkid1 armhf 2.39.3-6 [144 kB]
Get:5 http://deb.debian.org/debian unstable/main armhf libselinux1 armhf 3.5-1+b2 [65.0 kB]
Get:6 http://deb.debian.org/debian unstable/main armhf libmount1 armhf 2.39.3-6 [171 kB]
Get:7 http://deb.debian.org/debian unstable/main armhf libsmartcols1 armhf 2.39.3-6 [104 kB]
Get:8 http://deb.debian.org/debian unstable/main armhf libuuid1 armhf 2.39.3-6 [28.5 kB]
Get:9 http://deb.debian.org/debian unstable/main armhf libglib2.0-0 armhf 2.78.3-1 [1282 kB]
Get:10 http://deb.debian.org/debian unstable/main armhf libgirepository-1.0-1 armhf 1.78.1-6 [94.8 kB]
Get:11 http://deb.debian.org/debian unstable/main armhf gir1.2-glib-2.0 armhf 1.78.1-6 [165 kB]
Get:12 http://deb.debian.org/debian unstable/main armhf libmm-glib0 armhf 1.22.0-2 [190 kB]
Get:13 http://deb.debian.org/debian unstable/main armhf gir1.2-modemmanager-1.0 armhf 1.22.0-2 [64.4 kB]
Get:14 http://deb.debian.org/debian unstable/main armhf uuid-dev armhf 2.39.3-6 [39.6 kB]
Get:15 http://deb.debian.org/debian unstable/main armhf libblkid-dev armhf 2.39.3-6 [186 kB]
Get:16 http://deb.debian.org/debian unstable/main armhf libffi-dev armhf 3.4.4-2 [55.7 kB]
Get:17 http://deb.debian.org/debian unstable/main armhf libglib2.0-data all 2.78.3-1 [1223 kB]
Get:18 http://deb.debian.org/debian unstable/main armhf libglib2.0-bin armhf 2.78.3-1 [108 kB]
Get:19 http://deb.debian.org/debian unstable/main armhf python3-lib2to3 all 3.11.5-1 [77.5 kB]
Get:20 http://deb.debian.org/debian unstable/main armhf python3-distutils all 3.11.5-1 [131 kB]
Get:21 http://deb.debian.org/debian unstable/main armhf libglib2.0-dev-bin armhf 2.78.3-1 [154 kB]
Get:22 http://deb.debian.org/debian unstable/main armhf libsepol-dev armhf 3.5-2 [319 kB]
Get:23 http://deb.debian.org/debian unstable/main armhf libpcre2-16-0 armhf 10.42-4 [211 kB]
Get:24 http://deb.debian.org/debian unstable/main armhf libpcre2-32-0 armhf 10.42-4 [202 kB]
Get:25 http://deb.debian.org/debian unstable/main armhf libpcre2-posix3 armhf 10.42-4 [55.0 kB]
Get:26 http://deb.debian.org/debian unstable/main armhf libpcre2-dev armhf 10.42-4 [668 kB]
Get:27 http://deb.debian.org/debian unstable/main armhf libselinux1-dev armhf 3.5-1+b2 [151 kB]
Get:28 http://deb.debian.org/debian unstable/main armhf libmount-dev armhf 2.39.3-6 [23.6 kB]
Get:29 http://deb.debian.org/debian unstable/main armhf libpkgconf3 armhf 1.8.1-1+b2 [31.9 kB]
Get:30 http://deb.debian.org/debian unstable/main armhf pkgconf-bin armhf 1.8.1-1+b2 [28.9 kB]
Get:31 http://deb.debian.org/debian unstable/main armhf pkgconf armhf 1.8.1-1+b2 [26.2 kB]
Get:32 http://deb.debian.org/debian unstable/main armhf pkg-config armhf 1.8.1-1+b2 [14.0 kB]
Get:33 http://deb.debian.org/debian unstable/main armhf zlib1g-dev armhf 1:1.3.dfsg-3 [904 kB]
Get:34 http://deb.debian.org/debian unstable/main armhf libglib2.0-dev armhf 2.78.3-1 [1526 kB]
Get:35 http://deb.debian.org/debian unstable/main armhf modemmanager-dev armhf 1.22.0-2 [63.3 kB]
Get:36 http://deb.debian.org/debian unstable/main armhf libmm-glib-dev armhf 1.22.0-2 [249 kB]
debconf: delaying package configuration, since apt-utils is not installed
Fetched 10.1 MB in 1s (10.1 MB/s)
(Reading database ... (Reading database ... 5%(Reading database ... 10%(Reading database ... 15%(Reading database ... 20%(Reading database ... 25%(Reading database ... 30%(Reading database ... 35%(Reading database ... 40%(Reading database ... 45%(Reading database ... 50%(Reading database ... 55%(Reading database ... 60%(Reading database ... 65%(Reading database ... 70%(Reading database ... 75%(Reading database ... 80%(Reading database ... 85%(Reading database ... 90%(Reading database ... 95%(Reading database ... 100%(Reading database ... 12836 files and directories currently installed.)
Preparing to unpack .../bsdutils_1%3a2.39.3-6_armhf.deb ...
Unpacking bsdutils (1:2.39.3-6) over (1:2.39.3-2) ...
Setting up bsdutils (1:2.39.3-6) ...
(Reading database ... (Reading database ... 5%(Reading database ... 10%(Reading database ... 15%(Reading database ... 20%(Reading database ... 25%(Reading database ... 30%(Reading database ... 35%(Reading database ... 40%(Reading database ... 45%(Reading database ... 50%(Reading database ... 55%(Reading database ... 60%(Reading database ... 65%(Reading database ... 70%(Reading database ... 75%(Reading database ... 80%(Reading database ... 85%(Reading database ... 90%(Reading database ... 95%(Reading database ... 100%(Reading database ... 12836 files and directories currently installed.)
Preparing to unpack .../util-linux_2.39.3-6_armhf.deb ...
Unpacking util-linux (2.39.3-6) over (2.39.3-2) ...
Setting up util-linux (2.39.3-6) ...
(Reading database ... (Reading database ... 5%(Reading database ... 10%(Reading database ... 15%(Reading database ... 20%(Reading database ... 25%(Reading database ... 30%(Reading database ... 35%(Reading database ... 40%(Reading database ... 45%(Reading database ... 50%(Reading database ... 55%(Reading database ... 60%(Reading database ... 65%(Reading database ... 70%(Reading database ... 75%(Reading database ... 80%(Reading database ... 85%(Reading database ... 90%(Reading database ... 95%(Reading database ... 100%(Reading database ... 12836 files and directories currently installed.)
Preparing to unpack .../mount_2.39.3-6_armhf.deb ...
Unpacking mount (2.39.3-6) over (2.39.3-2) ...
Preparing to unpack .../libblkid1_2.39.3-6_armhf.deb ...
Unpacking libblkid1:armhf (2.39.3-6) over (2.39.3-2) ...
Setting up libblkid1:armhf (2.39.3-6) ...
(Reading database ... (Reading database ... 5%(Reading database ... 10%(Reading database ... 15%(Reading database ... 20%(Reading database ... 25%(Reading database ... 30%(Reading database ... 35%(Reading database ... 40%(Reading database ... 45%(Reading database ... 50%(Reading database ... 55%(Reading database ... 60%(Reading database ... 65%(Reading database ... 70%(Reading database ... 75%(Reading database ... 80%(Reading database ... 85%(Reading database ... 90%(Reading database ... 95%(Reading database ... 100%(Reading database ... 12836 files and directories currently installed.)
Preparing to unpack .../libselinux1_3.5-1+b2_armhf.deb ...
Unpacking libselinux1:armhf (3.5-1+b2) over (3.5-1+b1) ...
Setting up libselinux1:armhf (3.5-1+b2) ...
(Reading database ... (Reading database ... 5%(Reading database ... 10%(Reading database ... 15%(Reading database ... 20%(Reading database ... 25%(Reading database ... 30%(Reading database ... 35%(Reading database ... 40%(Reading database ... 45%(Reading database ... 50%(Reading database ... 55%(Reading database ... 60%(Reading database ... 65%(Reading database ... 70%(Reading database ... 75%(Reading database ... 80%(Reading database ... 85%(Reading database ... 90%(Reading database ... 95%(Reading database ... 100%(Reading database ... 12836 files and directories currently installed.)
Preparing to unpack .../libmount1_2.39.3-6_armhf.deb ...
Unpacking libmount1:armhf (2.39.3-6) over (2.39.3-2) ...
Setting up libmount1:armhf (2.39.3-6) ...
(Reading database ... (Reading database ... 5%(Reading database ... 10%(Reading database ... 15%(Reading database ... 20%(Reading database ... 25%(Reading database ... 30%(Reading database ... 35%(Reading database ... 40%(Reading database ... 45%(Reading database ... 50%(Reading database ... 55%(Reading database ... 60%(Reading database ... 65%(Reading database ... 70%(Reading database ... 75%(Reading database ... 80%(Reading database ... 85%(Reading database ... 90%(Reading database ... 95%(Reading database ... 100%(Reading database ... 12836 files and directories currently installed.)
Preparing to unpack .../libsmartcols1_2.39.3-6_armhf.deb ...
Unpacking libsmartcols1:armhf (2.39.3-6) over (2.39.3-2) ...
Setting up libsmartcols1:armhf (2.39.3-6) ...
(Reading database ... (Reading database ... 5%(Reading database ... 10%(Reading database ... 15%(Reading database ... 20%(Reading database ... 25%(Reading database ... 30%(Reading database ... 35%(Reading database ... 40%(Reading database ... 45%(Reading database ... 50%(Reading database ... 55%(Reading database ... 60%(Reading database ... 65%(Reading database ... 70%(Reading database ... 75%(Reading database ... 80%(Reading database ... 85%(Reading database ... 90%(Reading database ... 95%(Reading database ... 100%(Reading database ... 12836 files and directories currently installed.)
Preparing to unpack .../libuuid1_2.39.3-6_armhf.deb ...
Unpacking libuuid1:armhf (2.39.3-6) over (2.39.3-2) ...
Setting up libuuid1:armhf (2.39.3-6) ...
Selecting previously unselected package libglib2.0-0:armhf.
(Reading database ... (Reading database ... 5%(Reading database ... 10%(Reading database ... 15%(Reading database ... 20%(Reading database ... 25%(Reading database ... 30%(Reading database ... 35%(Reading database ... 40%(Reading database ... 45%(Reading database ... 50%(Reading database ... 55%(Reading database ... 60%(Reading database ... 65%(Reading database ... 70%(Reading database ... 75%(Reading database ... 80%(Reading database ... 85%(Reading database ... 90%(Reading database ... 95%(Reading database ... 100%(Reading database ... 12836 files and directories currently installed.)
Preparing to unpack .../00-libglib2.0-0_2.78.3-1_armhf.deb ...
Unpacking libglib2.0-0:armhf (2.78.3-1) ...
Selecting previously unselected package libgirepository-1.0-1:armhf.
Preparing to unpack .../01-libgirepository-1.0-1_1.78.1-6_armhf.deb ...
Unpacking libgirepository-1.0-1:armhf (1.78.1-6) ...
Selecting previously unselected package gir1.2-glib-2.0:armhf.
Preparing to unpack .../02-gir1.2-glib-2.0_1.78.1-6_armhf.deb ...
Unpacking gir1.2-glib-2.0:armhf (1.78.1-6) ...
Selecting previously unselected package libmm-glib0:armhf.
Preparing to unpack .../03-libmm-glib0_1.22.0-2_armhf.deb ...
Unpacking libmm-glib0:armhf (1.22.0-2) ...
Selecting previously unselected package gir1.2-modemmanager-1.0:armhf.
Preparing to unpack .../04-gir1.2-modemmanager-1.0_1.22.0-2_armhf.deb ...
Unpacking gir1.2-modemmanager-1.0:armhf (1.22.0-2) ...
Selecting previously unselected package uuid-dev:armhf.
Preparing to unpack .../05-uuid-dev_2.39.3-6_armhf.deb ...
Unpacking uuid-dev:armhf (2.39.3-6) ...
Selecting previously unselected package libblkid-dev:armhf.
Preparing to unpack .../06-libblkid-dev_2.39.3-6_armhf.deb ...
Unpacking libblkid-dev:armhf (2.39.3-6) ...
Selecting previously unselected package libffi-dev:armhf.
Preparing to unpack .../07-libffi-dev_3.4.4-2_armhf.deb ...
Unpacking libffi-dev:armhf (3.4.4-2) ...
Selecting previously unselected package libglib2.0-data.
Preparing to unpack .../08-libglib2.0-data_2.78.3-1_all.deb ...
Unpacking libglib2.0-data (2.78.3-1) ...
Selecting previously unselected package libglib2.0-bin.
Preparing to unpack .../09-libglib2.0-bin_2.78.3-1_armhf.deb ...
Unpacking libglib2.0-bin (2.78.3-1) ...
Selecting previously unselected package python3-lib2to3.
Preparing to unpack .../10-python3-lib2to3_3.11.5-1_all.deb ...
Unpacking python3-lib2to3 (3.11.5-1) ...
Selecting previously unselected package python3-distutils.
Preparing to unpack .../11-python3-distutils_3.11.5-1_all.deb ...
Unpacking python3-distutils (3.11.5-1) ...
Selecting previously unselected package libglib2.0-dev-bin.
Preparing to unpack .../12-libglib2.0-dev-bin_2.78.3-1_armhf.deb ...
Unpacking libglib2.0-dev-bin (2.78.3-1) ...
Selecting previously unselected package libsepol-dev:armhf.
Preparing to unpack .../13-libsepol-dev_3.5-2_armhf.deb ...
Unpacking libsepol-dev:armhf (3.5-2) ...
Selecting previously unselected package libpcre2-16-0:armhf.
Preparing to unpack .../14-libpcre2-16-0_10.42-4_armhf.deb ...
Unpacking libpcre2-16-0:armhf (10.42-4) ...
Selecting previously unselected package libpcre2-32-0:armhf.
Preparing to unpack .../15-libpcre2-32-0_10.42-4_armhf.deb ...
Unpacking libpcre2-32-0:armhf (10.42-4) ...
Selecting previously unselected package libpcre2-posix3:armhf.
Preparing to unpack .../16-libpcre2-posix3_10.42-4_armhf.deb ...
Unpacking libpcre2-posix3:armhf (10.42-4) ...
Selecting previously unselected package libpcre2-dev:armhf.
Preparing to unpack .../17-libpcre2-dev_10.42-4_armhf.deb ...
Unpacking libpcre2-dev:armhf (10.42-4) ...
Selecting previously unselected package libselinux1-dev:armhf.
Preparing to unpack .../18-libselinux1-dev_3.5-1+b2_armhf.deb ...
Unpacking libselinux1-dev:armhf (3.5-1+b2) ...
Selecting previously unselected package libmount-dev:armhf.
Preparing to unpack .../19-libmount-dev_2.39.3-6_armhf.deb ...
Unpacking libmount-dev:armhf (2.39.3-6) ...
Selecting previously unselected package libpkgconf3:armhf.
Preparing to unpack .../20-libpkgconf3_1.8.1-1+b2_armhf.deb ...
Unpacking libpkgconf3:armhf (1.8.1-1+b2) ...
Selecting previously unselected package pkgconf-bin.
Preparing to unpack .../21-pkgconf-bin_1.8.1-1+b2_armhf.deb ...
Unpacking pkgconf-bin (1.8.1-1+b2) ...
Selecting previously unselected package pkgconf:armhf.
Preparing to unpack .../22-pkgconf_1.8.1-1+b2_armhf.deb ...
Unpacking pkgconf:armhf (1.8.1-1+b2) ...
Selecting previously unselected package pkg-config:armhf.
Preparing to unpack .../23-pkg-config_1.8.1-1+b2_armhf.deb ...
Unpacking pkg-config:armhf (1.8.1-1+b2) ...
Selecting previously unselected package zlib1g-dev:armhf.
Preparing to unpack .../24-zlib1g-dev_1%3a1.3.dfsg-3_armhf.deb ...
Unpacking zlib1g-dev:armhf (1:1.3.dfsg-3) ...
Selecting previously unselected package libglib2.0-dev:armhf.
Preparing to unpack .../25-libglib2.0-dev_2.78.3-1_armhf.deb ...
Unpacking libglib2.0-dev:armhf (2.78.3-1) ...
Selecting previously unselected package modemmanager-dev:armhf.
Preparing to unpack .../26-modemmanager-dev_1.22.0-2_armhf.deb ...
Unpacking modemmanager-dev:armhf (1.22.0-2) ...
Selecting previously unselected package libmm-glib-dev:armhf.
Preparing to unpack .../27-libmm-glib-dev_1.22.0-2_armhf.deb ...
Unpacking libmm-glib-dev:armhf (1.22.0-2) ...
Setting up libglib2.0-0:armhf (2.78.3-1) ...
No schema files found: doing nothing.
Setting up libffi-dev:armhf (3.4.4-2) ...
Setting up libpcre2-16-0:armhf (10.42-4) ...
Setting up modemmanager-dev:armhf (1.22.0-2) ...
Setting up libpcre2-32-0:armhf (10.42-4) ...
Setting up libglib2.0-data (2.78.3-1) ...
Setting up libpkgconf3:armhf (1.8.1-1+b2) ...
Setting up uuid-dev:armhf (2.39.3-6) ...
Setting up libsepol-dev:armhf (3.5-2) ...
Setting up pkgconf-bin (1.8.1-1+b2) ...
Setting up zlib1g-dev:armhf (1:1.3.dfsg-3) ...
Setting up libpcre2-posix3:armhf (10.42-4) ...
Setting up mount (2.39.3-6) ...
Setting up libmm-glib0:armhf (1.22.0-2) ...
Setting up libgirepository-1.0-1:armhf (1.78.1-6) ...
Setting up python3-lib2to3 (3.11.5-1) ...
Setting up python3-distutils (3.11.5-1) ...
Setting up libglib2.0-dev-bin (2.78.3-1) ...
Setting up libblkid-dev:armhf (2.39.3-6) ...
Setting up libpcre2-dev:armhf (10.42-4) ...
Setting up libselinux1-dev:armhf (3.5-1+b2) ...
Setting up libglib2.0-bin (2.78.3-1) ...
Setting up pkgconf:armhf (1.8.1-1+b2) ...
Setting up pkg-config:armhf (1.8.1-1+b2) ...
Setting up gir1.2-glib-2.0:armhf (1.78.1-6) ...
Setting up libmount-dev:armhf (2.39.3-6) ...
Setting up gir1.2-modemmanager-1.0:armhf (1.22.0-2) ...
Setting up libglib2.0-dev:armhf (2.78.3-1) ...
Setting up libmm-glib-dev:armhf (1.22.0-2) ...
Processing triggers for libc-bin (2.37-13) ...
Reading package lists...
Building dependency tree...
Reading state information...
The following packages will be REMOVED:
  libmm-dev* libmm14*
0 upgraded, 0 newly installed, 2 to remove and 56 not upgraded.
After this operation, 115 kB disk space will be freed.
(Reading database ... (Reading database ... 5%(Reading database ... 10%(Reading database ... 15%(Reading database ... 20%(Reading database ... 25%(Reading database ... 30%(Reading database ... 35%(Reading database ... 40%(Reading database ... 45%(Reading database ... 50%(Reading database ... 55%(Reading database ... 60%(Reading database ... 65%(Reading database ... 70%(Reading database ... 75%(Reading database ... 80%(Reading database ... 85%(Reading database ... 90%(Reading database ... 95%(Reading database ... 100%(Reading database ... 14296 files and directories currently installed.)
Removing libmm-dev (1.4.2-7) ...
Removing libmm14 (1.4.2-7) ...
Processing triggers for libc-bin (2.37-13) ...
