[2024-02-21T01:28:21+00:00] apt-get install libosmo-sabp-dev osmo-libasn1c-dev libosmocore-dev abi-compliance-checker
Reading package lists...
Building dependency tree...
Reading state information...
osmo-libasn1c-dev is already the newest version (0.9.36-1).
osmo-libasn1c-dev set to manually installed.
libosmocore-dev is already the newest version (1.7.0-3).
libosmocore-dev set to manually installed.
abi-compliance-checker is already the newest version (2.3-2).
The following packages were automatically installed and are no longer required:
  libosmo-rua-dev libosmo-rua0
Use 'apt autoremove' to remove them.
The following additional packages will be installed:
  libosmo-sabp1
The following NEW packages will be installed:
  libosmo-sabp-dev libosmo-sabp1
0 upgraded, 2 newly installed, 0 to remove and 33 not upgraded.
Need to get 44.0 kB of archives.
After this operation, 318 kB of additional disk space will be used.
Get:1 http://deb.debian.org/debian unstable/main armhf libosmo-sabp1 armhf 1.3.0+dfsg1-5 [30.2 kB]
Get:2 http://deb.debian.org/debian unstable/main armhf libosmo-sabp-dev armhf 1.3.0+dfsg1-5 [13.8 kB]
debconf: delaying package configuration, since apt-utils is not installed
Fetched 44.0 kB in 0s (356 kB/s)
Selecting previously unselected package libosmo-sabp1:armhf.
(Reading database ... (Reading database ... 5%(Reading database ... 10%(Reading database ... 15%(Reading database ... 20%(Reading database ... 25%(Reading database ... 30%(Reading database ... 35%(Reading database ... 40%(Reading database ... 45%(Reading database ... 50%(Reading database ... 55%(Reading database ... 60%(Reading database ... 65%(Reading database ... 70%(Reading database ... 75%(Reading database ... 80%(Reading database ... 85%(Reading database ... 90%(Reading database ... 95%(Reading database ... 100%(Reading database ... 18545 files and directories currently installed.)
Preparing to unpack .../libosmo-sabp1_1.3.0+dfsg1-5_armhf.deb ...
Unpacking libosmo-sabp1:armhf (1.3.0+dfsg1-5) ...
Selecting previously unselected package libosmo-sabp-dev:armhf.
Preparing to unpack .../libosmo-sabp-dev_1.3.0+dfsg1-5_armhf.deb ...
Unpacking libosmo-sabp-dev:armhf (1.3.0+dfsg1-5) ...
Setting up libosmo-sabp1:armhf (1.3.0+dfsg1-5) ...
Setting up libosmo-sabp-dev:armhf (1.3.0+dfsg1-5) ...
Processing triggers for libc-bin (2.37-15) ...
Reading package lists...
Building dependency tree...
Reading state information...
The following packages will be REMOVED:
  libosmo-rua-dev* libosmo-rua0*
0 upgraded, 0 newly installed, 2 to remove and 33 not upgraded.
After this operation, 201 kB disk space will be freed.
(Reading database ... (Reading database ... 5%(Reading database ... 10%(Reading database ... 15%(Reading database ... 20%(Reading database ... 25%(Reading database ... 30%(Reading database ... 35%(Reading database ... 40%(Reading database ... 45%(Reading database ... 50%(Reading database ... 55%(Reading database ... 60%(Reading database ... 65%(Reading database ... 70%(Reading database ... 75%(Reading database ... 80%(Reading database ... 85%(Reading database ... 90%(Reading database ... 95%(Reading database ... 100%(Reading database ... 18619 files and directories currently installed.)
Removing libosmo-rua-dev:armhf (1.3.0+dfsg1-5) ...
Removing libosmo-rua0:armhf (1.3.0+dfsg1-5) ...
Processing triggers for libc-bin (2.37-15) ...
