[2024-01-07T22:07:47+00:00] apt-get install libmrpt-topography-dev libmrpt-apps-dev libmrpt-containers-dev libmrpt-graphslam-dev libmrpt-gui-dev libmrpt-hwdrivers-dev libmrpt-img-dev libmrpt-io-dev libmrpt-maps-dev libmrpt-math-dev libmrpt-nanogui-dev libmrpt-opengl-dev libmrpt-poses-dev libmrpt-ros1bridge-dev libmrpt-serialization-dev libmrpt-slam-dev abi-compliance-checker
Reading package lists...
Building dependency tree...
Reading state information...
libmrpt-apps-dev is already the newest version (1:2.11.3+ds-1+b1).
libmrpt-apps-dev set to manually installed.
libmrpt-containers-dev is already the newest version (1:2.11.3+ds-1+b1).
libmrpt-containers-dev set to manually installed.
libmrpt-graphslam-dev is already the newest version (1:2.11.3+ds-1+b1).
libmrpt-graphslam-dev set to manually installed.
libmrpt-gui-dev is already the newest version (1:2.11.3+ds-1+b1).
libmrpt-gui-dev set to manually installed.
libmrpt-hwdrivers-dev is already the newest version (1:2.11.3+ds-1+b1).
libmrpt-hwdrivers-dev set to manually installed.
libmrpt-img-dev is already the newest version (1:2.11.3+ds-1+b1).
libmrpt-img-dev set to manually installed.
libmrpt-io-dev is already the newest version (1:2.11.3+ds-1+b1).
libmrpt-io-dev set to manually installed.
libmrpt-maps-dev is already the newest version (1:2.11.3+ds-1+b1).
libmrpt-maps-dev set to manually installed.
libmrpt-math-dev is already the newest version (1:2.11.3+ds-1+b1).
libmrpt-math-dev set to manually installed.
libmrpt-nanogui-dev is already the newest version (1:2.11.3+ds-1+b1).
libmrpt-nanogui-dev set to manually installed.
libmrpt-opengl-dev is already the newest version (1:2.11.3+ds-1+b1).
libmrpt-opengl-dev set to manually installed.
libmrpt-poses-dev is already the newest version (1:2.11.3+ds-1+b1).
libmrpt-poses-dev set to manually installed.
libmrpt-ros1bridge-dev is already the newest version (1:2.11.3+ds-1+b1).
libmrpt-ros1bridge-dev set to manually installed.
libmrpt-serialization-dev is already the newest version (1:2.11.3+ds-1+b1).
libmrpt-serialization-dev set to manually installed.
libmrpt-slam-dev is already the newest version (1:2.11.3+ds-1+b1).
libmrpt-slam-dev set to manually installed.
abi-compliance-checker is already the newest version (2.3-2).
The following NEW packages will be installed:
  libmrpt-topography-dev
0 upgraded, 1 newly installed, 0 to remove and 39 not upgraded.
Need to get 32.8 kB of archives.
After this operation, 134 kB of additional disk space will be used.
Get:1 http://deb.debian.org/debian unstable/main armhf libmrpt-topography-dev armhf 1:2.11.3+ds-1+b1 [32.8 kB]
debconf: delaying package configuration, since apt-utils is not installed
Fetched 32.8 kB in 1s (59.4 kB/s)
Selecting previously unselected package libmrpt-topography-dev:armhf.
(Reading database ... (Reading database ... 5%(Reading database ... 10%(Reading database ... 15%(Reading database ... 20%(Reading database ... 25%(Reading database ... 30%(Reading database ... 35%(Reading database ... 40%(Reading database ... 45%(Reading database ... 50%(Reading database ... 55%(Reading database ... 60%(Reading database ... 65%(Reading database ... 70%(Reading database ... 75%(Reading database ... 80%(Reading database ... 85%(Reading database ... 90%(Reading database ... 95%(Reading database ... 100%(Reading database ... 55158 files and directories currently installed.)
Preparing to unpack .../libmrpt-topography-dev_1%3a2.11.3+ds-1+b1_armhf.deb ...
Unpacking libmrpt-topography-dev:armhf (1:2.11.3+ds-1+b1) ...
Setting up libmrpt-topography-dev:armhf (1:2.11.3+ds-1+b1) ...
Reading package lists...
Building dependency tree...
Reading state information...
0 upgraded, 0 newly installed, 0 to remove and 39 not upgraded.
