[2024-01-06T20:08:01+00:00] apt-get install libeis-dev abi-compliance-checker
Reading package lists...
Building dependency tree...
Reading state information...
abi-compliance-checker is already the newest version (2.3-2).
The following packages were automatically installed and are no longer required:
  libeinfo-dev libeinfo1
Use 'apt autoremove' to remove them.
The following NEW packages will be installed:
  libeis-dev libeis1
0 upgraded, 2 newly installed, 0 to remove and 12 not upgraded.
Need to get 43.4 kB of archives.
After this operation, 154 kB of additional disk space will be used.
Get:1 http://deb.debian.org/debian unstable/main armhf libeis1 armhf 1.2.0-1 [31.2 kB]
Get:2 http://deb.debian.org/debian unstable/main armhf libeis-dev armhf 1.2.0-1 [12.2 kB]
debconf: delaying package configuration, since apt-utils is not installed
Fetched 43.4 kB in 0s (342 kB/s)
Selecting previously unselected package libeis1:armhf.
(Reading database ... (Reading database ... 5%(Reading database ... 10%(Reading database ... 15%(Reading database ... 20%(Reading database ... 25%(Reading database ... 30%(Reading database ... 35%(Reading database ... 40%(Reading database ... 45%(Reading database ... 50%(Reading database ... 55%(Reading database ... 60%(Reading database ... 65%(Reading database ... 70%(Reading database ... 75%(Reading database ... 80%(Reading database ... 85%(Reading database ... 90%(Reading database ... 95%(Reading database ... 100%(Reading database ... 20241 files and directories currently installed.)
Preparing to unpack .../libeis1_1.2.0-1_armhf.deb ...
Unpacking libeis1:armhf (1.2.0-1) ...
Selecting previously unselected package libeis-dev:armhf.
Preparing to unpack .../libeis-dev_1.2.0-1_armhf.deb ...
Unpacking libeis-dev:armhf (1.2.0-1) ...
Setting up libeis1:armhf (1.2.0-1) ...
Setting up libeis-dev:armhf (1.2.0-1) ...
Processing triggers for libc-bin (2.37-13) ...
Reading package lists...
Building dependency tree...
Reading state information...
The following packages will be REMOVED:
  libeinfo-dev* libeinfo1*
0 upgraded, 0 newly installed, 2 to remove and 12 not upgraded.
After this operation, 86.0 kB disk space will be freed.
(Reading database ... (Reading database ... 5%(Reading database ... 10%(Reading database ... 15%(Reading database ... 20%(Reading database ... 25%(Reading database ... 30%(Reading database ... 35%(Reading database ... 40%(Reading database ... 45%(Reading database ... 50%(Reading database ... 55%(Reading database ... 60%(Reading database ... 65%(Reading database ... 70%(Reading database ... 75%(Reading database ... 80%(Reading database ... 85%(Reading database ... 90%(Reading database ... 95%(Reading database ... 100%(Reading database ... 20253 files and directories currently installed.)
Removing libeinfo-dev:armhf (0.52.1-1) ...
Removing libeinfo1:armhf (0.52.1-1) ...
Processing triggers for libc-bin (2.37-13) ...
