Temporary header file '/tmp/bfCqGRj5uW/dump1.h' with the following content will be compiled to create GCC translation unit dump:

  // add defines
  #define __STDC_VERSION__ 201710L
#define _GXX_NULLPTR_T
#define CLUTTER_ENABLE_COMPOSITOR_API 1
#define _REGEX_NELTS(n)
#define _Atomic
#define PACKED
#ifdef __cplusplus
// C17 compat layer
#define _Alignof(type) alignof(type)
#endif
#define getaddrinfo_a(a,b,c,d)

  // add includes
  #include "/usr/include/gtk-3.0/gtk/gtk.h"
  #include "/usr/include/devhelp-3/devhelp/devhelp.h"
  #include "/usr/include/devhelp-3/devhelp/dh-application-window.h"
  #include "/usr/include/devhelp-3/devhelp/dh-assistant-view.h"
  #include "/usr/include/devhelp-3/devhelp/dh-book-list-builder.h"
  #include "/usr/include/devhelp-3/devhelp/dh-book-list-directory.h"
  #include "/usr/include/devhelp-3/devhelp/dh-book-list.h"
  #include "/usr/include/devhelp-3/devhelp/dh-book-manager.h"
  #include "/usr/include/devhelp-3/devhelp/dh-book-tree.h"
  #include "/usr/include/devhelp-3/devhelp/dh-book.h"
  #include "/usr/include/devhelp-3/devhelp/dh-completion.h"
  #include "/usr/include/devhelp-3/devhelp/dh-enum-types.h"
  #include "/usr/include/devhelp-3/devhelp/dh-init.h"
  #include "/usr/include/devhelp-3/devhelp/dh-keyword-model.h"
  #include "/usr/include/devhelp-3/devhelp/dh-link.h"
  #include "/usr/include/devhelp-3/devhelp/dh-notebook.h"
  #include "/usr/include/devhelp-3/devhelp/dh-profile-builder.h"
  #include "/usr/include/devhelp-3/devhelp/dh-profile.h"
  #include "/usr/include/devhelp-3/devhelp/dh-search-bar.h"
  #include "/usr/include/devhelp-3/devhelp/dh-settings-builder.h"
  #include "/usr/include/devhelp-3/devhelp/dh-settings.h"
  #include "/usr/include/devhelp-3/devhelp/dh-sidebar.h"
  #include "/usr/include/devhelp-3/devhelp/dh-tab-label.h"
  #include "/usr/include/devhelp-3/devhelp/dh-tab.h"
  #include "/usr/include/devhelp-3/devhelp/dh-web-view.h"

  // add classes
  _AtkActionIface* tmp_add_class_0;
  _AtkAttribute* tmp_add_class_1;
  _AtkComponentIface* tmp_add_class_2;
  _AtkDocumentIface* tmp_add_class_3;
  _AtkEditableTextIface* tmp_add_class_4;
  _AtkGObjectAccessible* tmp_add_class_5;
  _AtkGObjectAccessibleClass* tmp_add_class_6;
  _AtkHyperlink* tmp_add_class_7;
  _AtkHyperlinkClass* tmp_add_class_8;
  _AtkHyperlinkImplIface* tmp_add_class_9;
  _AtkHypertextIface* tmp_add_class_10;
  _AtkImageIface* tmp_add_class_11;
  _AtkImplementorIface* tmp_add_class_12;
  _AtkKeyEventStruct* tmp_add_class_13;
  _AtkMisc* tmp_add_class_14;
  _AtkMiscClass* tmp_add_class_15;
  _AtkNoOpObject* tmp_add_class_16;
  _AtkNoOpObjectClass* tmp_add_class_17;
  _AtkNoOpObjectFactory* tmp_add_class_18;
  _AtkNoOpObjectFactoryClass* tmp_add_class_19;
  _AtkObject* tmp_add_class_20;
  _AtkObjectClass* tmp_add_class_21;
  _AtkObjectFactory* tmp_add_class_22;
  _AtkObjectFactoryClass* tmp_add_class_23;
  _AtkPlug* tmp_add_class_24;
  _AtkPlugClass* tmp_add_class_25;
  _AtkPropertyValues* tmp_add_class_26;
  _AtkRectangle* tmp_add_class_27;
  _AtkRegistry* tmp_add_class_28;
  _AtkRegistryClass* tmp_add_class_29;
  _AtkRelation* tmp_add_class_30;
  _AtkRelationClass* tmp_add_class_31;
  _AtkRelationSet* tmp_add_class_32;
  _AtkRelationSetClass* tmp_add_class_33;
  _AtkSelectionIface* tmp_add_class_34;
  _AtkSocket* tmp_add_class_35;
  _AtkSocketClass* tmp_add_class_36;
  _AtkStateSet* tmp_add_class_37;
  _AtkStateSetClass* tmp_add_class_38;
  _AtkStreamableContentIface* tmp_add_class_39;
  _AtkTableCellIface* tmp_add_class_40;
  _AtkTableIface* tmp_add_class_41;
  _AtkTextIface* tmp_add_class_42;
  _AtkTextRange* tmp_add_class_43;
  _AtkTextRectangle* tmp_add_class_44;
  _AtkUtil* tmp_add_class_45;
  _AtkUtilClass* tmp_add_class_46;
  _AtkValueIface* tmp_add_class_47;
  _AtkWindowIface* tmp_add_class_48;
  _DhAssistantView* tmp_add_class_49;
  _DhAssistantViewClass* tmp_add_class_50;
  _DhBook* tmp_add_class_51;
  _DhBookClass* tmp_add_class_52;
  _DhBookList* tmp_add_class_53;
  _DhBookListBuilder* tmp_add_class_54;
  _DhBookListBuilderClass* tmp_add_class_55;
  _DhBookListClass* tmp_add_class_56;
  _DhBookListDirectory* tmp_add_class_57;
  _DhBookListDirectoryClass* tmp_add_class_58;
  _DhBookManager* tmp_add_class_59;
  _DhBookManagerClass* tmp_add_class_60;
  _DhBookTree* tmp_add_class_61;
  _DhBookTreeClass* tmp_add_class_62;
  _DhCompletion* tmp_add_class_63;
  _DhCompletionClass* tmp_add_class_64;
  _DhKeywordModel* tmp_add_class_65;
  _DhKeywordModelClass* tmp_add_class_66;
  _DhNotebook* tmp_add_class_67;
  _DhNotebookClass* tmp_add_class_68;
  _DhProfile* tmp_add_class_69;
  _DhProfileBuilder* tmp_add_class_70;
  _DhProfileBuilderClass* tmp_add_class_71;
  _DhProfileClass* tmp_add_class_72;
  _DhSearchBar* tmp_add_class_73;
  _DhSearchBarClass* tmp_add_class_74;
  _DhSettings* tmp_add_class_75;
  _DhSettingsBuilder* tmp_add_class_76;
  _DhSettingsBuilderClass* tmp_add_class_77;
  _DhSettingsClass* tmp_add_class_78;
  _DhSidebar* tmp_add_class_79;
  _DhSidebarClass* tmp_add_class_80;
  _DhTab* tmp_add_class_81;
  _DhTabClass* tmp_add_class_82;
  _DhTabLabel* tmp_add_class_83;
  _DhTabLabelClass* tmp_add_class_84;
  _DhWebView* tmp_add_class_85;
  _DhWebViewClass* tmp_add_class_86;
  _GActionEntry* tmp_add_class_87;
  _GActionGroupInterface* tmp_add_class_88;
  _GActionInterface* tmp_add_class_89;
  _GActionMapInterface* tmp_add_class_90;
  _GAppInfoIface* tmp_add_class_91;
  _GAppLaunchContext* tmp_add_class_92;
  _GAppLaunchContextClass* tmp_add_class_93;
  _GApplication* tmp_add_class_94;
  _GApplicationClass* tmp_add_class_95;
  _GApplicationCommandLine* tmp_add_class_96;
  _GApplicationCommandLineClass* tmp_add_class_97;
  _GArray* tmp_add_class_98;
  _GAsyncInitableIface* tmp_add_class_99;
  _GAsyncResultIface* tmp_add_class_100;
  _GBufferedInputStream* tmp_add_class_101;
  _GBufferedInputStreamClass* tmp_add_class_102;
  _GBufferedOutputStream* tmp_add_class_103;
  _GBufferedOutputStreamClass* tmp_add_class_104;
  _GByteArray* tmp_add_class_105;
  _GCClosure* tmp_add_class_106;
  _GCancellable* tmp_add_class_107;
  _GCancellableClass* tmp_add_class_108;
  _GCharsetConverterClass* tmp_add_class_109;
  _GClosure* tmp_add_class_110;
  _GClosureNotifyData* tmp_add_class_111;
  _GCompletion* tmp_add_class_112;
  _GCond* tmp_add_class_113;
  _GConverterIface* tmp_add_class_114;
  _GConverterInputStream* tmp_add_class_115;
  _GConverterInputStreamClass* tmp_add_class_116;
  _GConverterOutputStream* tmp_add_class_117;
  _GConverterOutputStreamClass* tmp_add_class_118;
  _GDBusAnnotationInfo* tmp_add_class_119;
  _GDBusArgInfo* tmp_add_class_120;
  _GDBusErrorEntry* tmp_add_class_121;
  _GDBusInterfaceIface* tmp_add_class_122;
  _GDBusInterfaceInfo* tmp_add_class_123;
  _GDBusInterfaceSkeleton* tmp_add_class_124;
  _GDBusInterfaceSkeletonClass* tmp_add_class_125;
  _GDBusInterfaceVTable* tmp_add_class_126;
  _GDBusMethodInfo* tmp_add_class_127;
  _GDBusNodeInfo* tmp_add_class_128;
  _GDBusObjectIface* tmp_add_class_129;
  _GDBusObjectManagerClient* tmp_add_class_130;
  _GDBusObjectManagerClientClass* tmp_add_class_131;
  _GDBusObjectManagerIface* tmp_add_class_132;
  _GDBusObjectManagerServer* tmp_add_class_133;
  _GDBusObjectManagerServerClass* tmp_add_class_134;
  _GDBusObjectProxy* tmp_add_class_135;
  _GDBusObjectProxyClass* tmp_add_class_136;
  _GDBusObjectSkeleton* tmp_add_class_137;
  _GDBusObjectSkeletonClass* tmp_add_class_138;
  _GDBusPropertyInfo* tmp_add_class_139;
  _GDBusProxy* tmp_add_class_140;
  _GDBusProxyClass* tmp_add_class_141;
  _GDBusSignalInfo* tmp_add_class_142;
  _GDBusSubtreeVTable* tmp_add_class_143;
  _GDataInputStream* tmp_add_class_144;
  _GDataInputStreamClass* tmp_add_class_145;
  _GDataOutputStream* tmp_add_class_146;
  _GDataOutputStreamClass* tmp_add_class_147;
  _GDatagramBasedInterface* tmp_add_class_148;
  _GDate* tmp_add_class_149;
  _GDebugControllerDBus* tmp_add_class_150;
  _GDebugControllerDBusClass* tmp_add_class_151;
  _GDebugControllerInterface* tmp_add_class_152;
  _GDebugKey* tmp_add_class_153;
  _GDoubleIEEE754* tmp_add_class_154;
  _GDriveIface* tmp_add_class_155;
  _GDtlsClientConnectionInterface* tmp_add_class_156;
  _GDtlsConnectionInterface* tmp_add_class_157;
  _GDtlsServerConnectionInterface* tmp_add_class_158;
  _GEmblemedIcon* tmp_add_class_159;
  _GEmblemedIconClass* tmp_add_class_160;
  _GEnumClass* tmp_add_class_161;
  _GEnumValue* tmp_add_class_162;
  _GError* tmp_add_class_163;
  _GFileAttributeInfo* tmp_add_class_164;
  _GFileAttributeInfoList* tmp_add_class_165;
  _GFileEnumerator* tmp_add_class_166;
  _GFileEnumeratorClass* tmp_add_class_167;
  _GFileIOStream* tmp_add_class_168;
  _GFileIOStreamClass* tmp_add_class_169;
  _GFileIface* tmp_add_class_170;
  _GFileInputStream* tmp_add_class_171;
  _GFileInputStreamClass* tmp_add_class_172;
  _GFileMonitor* tmp_add_class_173;
  _GFileMonitorClass* tmp_add_class_174;
  _GFileOutputStream* tmp_add_class_175;
  _GFileOutputStreamClass* tmp_add_class_176;
  _GFilenameCompleterClass* tmp_add_class_177;
  _GFilterInputStream* tmp_add_class_178;
  _GFilterInputStreamClass* tmp_add_class_179;
  _GFilterOutputStream* tmp_add_class_180;
  _GFilterOutputStreamClass* tmp_add_class_181;
  _GFlagsClass* tmp_add_class_182;
  _GFlagsValue* tmp_add_class_183;
  _GFloatIEEE754* tmp_add_class_184;
  _GHashTableIter* tmp_add_class_185;
  _GHook* tmp_add_class_186;
  _GHookList* tmp_add_class_187;
  _GIOChannel* tmp_add_class_188;
  _GIOFuncs* tmp_add_class_189;
  _GIOStream* tmp_add_class_190;
  _GIOStreamClass* tmp_add_class_191;
  _GIconIface* tmp_add_class_192;
  _GInetAddress* tmp_add_class_193;
  _GInetAddressClass* tmp_add_class_194;
  _GInetAddressMask* tmp_add_class_195;
  _GInetAddressMaskClass* tmp_add_class_196;
  _GInetSocketAddress* tmp_add_class_197;
  _GInetSocketAddressClass* tmp_add_class_198;
  _GInitableIface* tmp_add_class_199;
  _GInputMessage* tmp_add_class_200;
  _GInputStream* tmp_add_class_201;
  _GInputStreamClass* tmp_add_class_202;
  _GInputVector* tmp_add_class_203;
  _GInterfaceInfo* tmp_add_class_204;
  _GList* tmp_add_class_205;
  _GListModelInterface* tmp_add_class_206;
  _GLoadableIconIface* tmp_add_class_207;
  _GLogField* tmp_add_class_208;
  _GMarkupParser* tmp_add_class_209;
  _GMemVTable* tmp_add_class_210;
  _GMemoryInputStream* tmp_add_class_211;
  _GMemoryInputStreamClass* tmp_add_class_212;
  _GMemoryMonitorInterface* tmp_add_class_213;
  _GMemoryOutputStream* tmp_add_class_214;
  _GMemoryOutputStreamClass* tmp_add_class_215;
  _GMenuAttributeIter* tmp_add_class_216;
  _GMenuAttributeIterClass* tmp_add_class_217;
  _GMenuLinkIter* tmp_add_class_218;
  _GMenuLinkIterClass* tmp_add_class_219;
  _GMenuModel* tmp_add_class_220;
  _GMenuModelClass* tmp_add_class_221;
  _GMountIface* tmp_add_class_222;
  _GMountOperation* tmp_add_class_223;
  _GMountOperationClass* tmp_add_class_224;
  _GMutex* tmp_add_class_225;
  _GNativeSocketAddress* tmp_add_class_226;
  _GNativeSocketAddressClass* tmp_add_class_227;
  _GNativeVolumeMonitor* tmp_add_class_228;
  _GNativeVolumeMonitorClass* tmp_add_class_229;
  _GNetworkAddress* tmp_add_class_230;
  _GNetworkAddressClass* tmp_add_class_231;
  _GNetworkMonitorInterface* tmp_add_class_232;
  _GNetworkService* tmp_add_class_233;
  _GNetworkServiceClass* tmp_add_class_234;
  _GNode* tmp_add_class_235;
  _GObject* tmp_add_class_236;
  _GObjectClass* tmp_add_class_237;
  _GObjectConstructParam* tmp_add_class_238;
  _GOnce* tmp_add_class_239;
  _GOptionEntry* tmp_add_class_240;
  _GOutputMessage* tmp_add_class_241;
  _GOutputStream* tmp_add_class_242;
  _GOutputStreamClass* tmp_add_class_243;
  _GOutputVector* tmp_add_class_244;
  _GParamSpec* tmp_add_class_245;
  _GParamSpecBoolean* tmp_add_class_246;
  _GParamSpecBoxed* tmp_add_class_247;
  _GParamSpecChar* tmp_add_class_248;
  _GParamSpecClass* tmp_add_class_249;
  _GParamSpecDouble* tmp_add_class_250;
  _GParamSpecEnum* tmp_add_class_251;
  _GParamSpecFlags* tmp_add_class_252;
  _GParamSpecFloat* tmp_add_class_253;
  _GParamSpecGType* tmp_add_class_254;
  _GParamSpecInt* tmp_add_class_255;
  _GParamSpecInt64* tmp_add_class_256;
  _GParamSpecLong* tmp_add_class_257;
  _GParamSpecObject* tmp_add_class_258;
  _GParamSpecOverride* tmp_add_class_259;
  _GParamSpecParam* tmp_add_class_260;
  _GParamSpecPointer* tmp_add_class_261;
  _GParamSpecString* tmp_add_class_262;
  _GParamSpecTypeInfo* tmp_add_class_263;
  _GParamSpecUChar* tmp_add_class_264;
  _GParamSpecUInt* tmp_add_class_265;
  _GParamSpecUInt64* tmp_add_class_266;
  _GParamSpecULong* tmp_add_class_267;
  _GParamSpecUnichar* tmp_add_class_268;
  _GParamSpecValueArray* tmp_add_class_269;
  _GParamSpecVariant* tmp_add_class_270;
  _GParameter* tmp_add_class_271;
  _GPathBuf* tmp_add_class_272;
  _GPermission* tmp_add_class_273;
  _GPermissionClass* tmp_add_class_274;
  _GPollFD* tmp_add_class_275;
  _GPollableInputStreamInterface* tmp_add_class_276;
  _GPollableOutputStreamInterface* tmp_add_class_277;
  _GPowerProfileMonitorInterface* tmp_add_class_278;
  _GPrivate* tmp_add_class_279;
  _GProxyAddress* tmp_add_class_280;
  _GProxyAddressClass* tmp_add_class_281;
  _GProxyAddressEnumerator* tmp_add_class_282;
  _GProxyAddressEnumeratorClass* tmp_add_class_283;
  _GProxyInterface* tmp_add_class_284;
  _GProxyResolverInterface* tmp_add_class_285;
  _GPtrArray* tmp_add_class_286;
  _GQueue* tmp_add_class_287;
  _GRWLock* tmp_add_class_288;
  _GRecMutex* tmp_add_class_289;
  _GRemoteActionGroupInterface* tmp_add_class_290;
  _GResolver* tmp_add_class_291;
  _GResolverClass* tmp_add_class_292;
  _GSList* tmp_add_class_293;
  _GScanner* tmp_add_class_294;
  _GScannerConfig* tmp_add_class_295;
  _GSeekableIface* tmp_add_class_296;
  _GSettings* tmp_add_class_297;
  _GSettingsClass* tmp_add_class_298;
  _GSignalInvocationHint* tmp_add_class_299;
  _GSignalQuery* tmp_add_class_300;
  _GSimpleActionGroup* tmp_add_class_301;
  _GSimpleActionGroupClass* tmp_add_class_302;
  _GSimpleProxyResolver* tmp_add_class_303;
  _GSimpleProxyResolverClass* tmp_add_class_304;
  _GSocket* tmp_add_class_305;
  _GSocketAddress* tmp_add_class_306;
  _GSocketAddressClass* tmp_add_class_307;
  _GSocketAddressEnumerator* tmp_add_class_308;
  _GSocketAddressEnumeratorClass* tmp_add_class_309;
  _GSocketClass* tmp_add_class_310;
  _GSocketClient* tmp_add_class_311;
  _GSocketClientClass* tmp_add_class_312;
  _GSocketConnectableIface* tmp_add_class_313;
  _GSocketConnection* tmp_add_class_314;
  _GSocketConnectionClass* tmp_add_class_315;
  _GSocketControlMessage* tmp_add_class_316;
  _GSocketControlMessageClass* tmp_add_class_317;
  _GSocketListener* tmp_add_class_318;
  _GSocketListenerClass* tmp_add_class_319;
  _GSocketService* tmp_add_class_320;
  _GSocketServiceClass* tmp_add_class_321;
  _GSource* tmp_add_class_322;
  _GSourceCallbackFuncs* tmp_add_class_323;
  _GSourceFuncs* tmp_add_class_324;
  _GStaticPrivate* tmp_add_class_325;
  _GStaticRWLock* tmp_add_class_326;
  _GStaticRecMutex* tmp_add_class_327;
  _GStaticResource* tmp_add_class_328;
  _GString* tmp_add_class_329;
  _GTcpConnection* tmp_add_class_330;
  _GTcpConnectionClass* tmp_add_class_331;
  _GTcpWrapperConnection* tmp_add_class_332;
  _GTcpWrapperConnectionClass* tmp_add_class_333;
  _GThread* tmp_add_class_334;
  _GThreadFunctions* tmp_add_class_335;
  _GThreadPool* tmp_add_class_336;
  _GThreadedSocketService* tmp_add_class_337;
  _GThreadedSocketServiceClass* tmp_add_class_338;
  _GTimeVal* tmp_add_class_339;
  _GTlsBackendInterface* tmp_add_class_340;
  _GTlsCertificate* tmp_add_class_341;
  _GTlsCertificateClass* tmp_add_class_342;
  _GTlsClientConnectionInterface* tmp_add_class_343;
  _GTlsConnection* tmp_add_class_344;
  _GTlsConnectionClass* tmp_add_class_345;
  _GTlsDatabase* tmp_add_class_346;
  _GTlsDatabaseClass* tmp_add_class_347;
  _GTlsFileDatabaseInterface* tmp_add_class_348;
  _GTlsInteraction* tmp_add_class_349;
  _GTlsInteractionClass* tmp_add_class_350;
  _GTlsPassword* tmp_add_class_351;
  _GTlsPasswordClass* tmp_add_class_352;
  _GTlsServerConnectionInterface* tmp_add_class_353;
  _GTokenValue* tmp_add_class_354;
  _GTrashStack* tmp_add_class_355;
  _GTuples* tmp_add_class_356;
  _GTypeClass* tmp_add_class_357;
  _GTypeFundamentalInfo* tmp_add_class_358;
  _GTypeInfo* tmp_add_class_359;
  _GTypeInstance* tmp_add_class_360;
  _GTypeInterface* tmp_add_class_361;
  _GTypeModule* tmp_add_class_362;
  _GTypeModuleClass* tmp_add_class_363;
  _GTypePluginClass* tmp_add_class_364;
  _GTypeQuery* tmp_add_class_365;
  _GTypeValueTable* tmp_add_class_366;
  _GUnixConnection* tmp_add_class_367;
  _GUnixConnectionClass* tmp_add_class_368;
  _GUnixCredentialsMessage* tmp_add_class_369;
  _GUnixCredentialsMessageClass* tmp_add_class_370;
  _GUnixFDList* tmp_add_class_371;
  _GUnixFDListClass* tmp_add_class_372;
  _GUnixSocketAddress* tmp_add_class_373;
  _GUnixSocketAddressClass* tmp_add_class_374;
  _GUriParamsIter* tmp_add_class_375;
  _GValue* tmp_add_class_376;
  _GValueArray* tmp_add_class_377;
  _GVariantBuilder* tmp_add_class_378;
  _GVariantDict* tmp_add_class_379;
  _GVariantIter* tmp_add_class_380;
  _GVfs* tmp_add_class_381;
  _GVfsClass* tmp_add_class_382;
  _GVolumeIface* tmp_add_class_383;
  _GVolumeMonitor* tmp_add_class_384;
  _GVolumeMonitorClass* tmp_add_class_385;
  _GZlibCompressorClass* tmp_add_class_386;
  _GZlibDecompressorClass* tmp_add_class_387;
  _G_fpos64_t* tmp_add_class_388;
  _G_fpos_t* tmp_add_class_389;
  _GdkColor* tmp_add_class_390;
  _GdkEvent* tmp_add_class_391;
  _GdkEventAny* tmp_add_class_392;
  _GdkEventButton* tmp_add_class_393;
  _GdkEventConfigure* tmp_add_class_394;
  _GdkEventCrossing* tmp_add_class_395;
  _GdkEventDND* tmp_add_class_396;
  _GdkEventExpose* tmp_add_class_397;
  _GdkEventFocus* tmp_add_class_398;
  _GdkEventGrabBroken* tmp_add_class_399;
  _GdkEventKey* tmp_add_class_400;
  _GdkEventMotion* tmp_add_class_401;
  _GdkEventOwnerChange* tmp_add_class_402;
  _GdkEventPadAxis* tmp_add_class_403;
  _GdkEventPadButton* tmp_add_class_404;
  _GdkEventPadGroupMode* tmp_add_class_405;
  _GdkEventProperty* tmp_add_class_406;
  _GdkEventProximity* tmp_add_class_407;
  _GdkEventScroll* tmp_add_class_408;
  _GdkEventSelection* tmp_add_class_409;
  _GdkEventSetting* tmp_add_class_410;
  _GdkEventTouch* tmp_add_class_411;
  _GdkEventTouchpadPinch* tmp_add_class_412;
  _GdkEventTouchpadSwipe* tmp_add_class_413;
  _GdkEventVisibility* tmp_add_class_414;
  _GdkEventWindowState* tmp_add_class_415;
  _GdkGeometry* tmp_add_class_416;
  _GdkKeymapKey* tmp_add_class_417;
  _GdkPixbufLoader* tmp_add_class_418;
  _GdkPixbufLoaderClass* tmp_add_class_419;
  _GdkPoint* tmp_add_class_420;
  _GdkRGBA* tmp_add_class_421;
  _GdkSeat* tmp_add_class_422;
  _GdkTimeCoord* tmp_add_class_423;
  _GdkWindowAttr* tmp_add_class_424;
  _GdkWindowClass* tmp_add_class_425;
  _GtkAboutDialog* tmp_add_class_426;
  _GtkAboutDialogClass* tmp_add_class_427;
  _GtkAccelGroup* tmp_add_class_428;
  _GtkAccelGroupClass* tmp_add_class_429;
  _GtkAccelGroupEntry* tmp_add_class_430;
  _GtkAccelKey* tmp_add_class_431;
  _GtkAccelLabel* tmp_add_class_432;
  _GtkAccelLabelClass* tmp_add_class_433;
  _GtkAccessible* tmp_add_class_434;
  _GtkAccessibleClass* tmp_add_class_435;
  _GtkAction* tmp_add_class_436;
  _GtkActionBar* tmp_add_class_437;
  _GtkActionBarClass* tmp_add_class_438;
  _GtkActionClass* tmp_add_class_439;
  _GtkActionEntry* tmp_add_class_440;
  _GtkActionGroup* tmp_add_class_441;
  _GtkActionGroupClass* tmp_add_class_442;
  _GtkActionableInterface* tmp_add_class_443;
  _GtkActivatableIface* tmp_add_class_444;
  _GtkAdjustment* tmp_add_class_445;
  _GtkAdjustmentClass* tmp_add_class_446;
  _GtkAlignment* tmp_add_class_447;
  _GtkAlignmentClass* tmp_add_class_448;
  _GtkAppChooserButton* tmp_add_class_449;
  _GtkAppChooserButtonClass* tmp_add_class_450;
  _GtkAppChooserDialog* tmp_add_class_451;
  _GtkAppChooserDialogClass* tmp_add_class_452;
  _GtkAppChooserWidget* tmp_add_class_453;
  _GtkAppChooserWidgetClass* tmp_add_class_454;
  _GtkApplication* tmp_add_class_455;
  _GtkApplicationClass* tmp_add_class_456;
  _GtkApplicationWindow* tmp_add_class_457;
  _GtkApplicationWindowClass* tmp_add_class_458;
  _GtkArrow* tmp_add_class_459;
  _GtkArrowClass* tmp_add_class_460;
  _GtkAspectFrame* tmp_add_class_461;
  _GtkAspectFrameClass* tmp_add_class_462;
  _GtkAssistant* tmp_add_class_463;
  _GtkAssistantClass* tmp_add_class_464;
  _GtkBin* tmp_add_class_465;
  _GtkBinClass* tmp_add_class_466;
  _GtkBindingArg* tmp_add_class_467;
  _GtkBindingEntry* tmp_add_class_468;
  _GtkBindingSet* tmp_add_class_469;
  _GtkBindingSignal* tmp_add_class_470;
  _GtkBorder* tmp_add_class_471;
  _GtkBox* tmp_add_class_472;
  _GtkBoxClass* tmp_add_class_473;
  _GtkBuildableIface* tmp_add_class_474;
  _GtkBuilder* tmp_add_class_475;
  _GtkBuilderClass* tmp_add_class_476;
  _GtkButton* tmp_add_class_477;
  _GtkButtonBox* tmp_add_class_478;
  _GtkButtonBoxClass* tmp_add_class_479;
  _GtkButtonClass* tmp_add_class_480;
  _GtkCalendar* tmp_add_class_481;
  _GtkCalendarClass* tmp_add_class_482;
  _GtkCellArea* tmp_add_class_483;
  _GtkCellAreaBox* tmp_add_class_484;
  _GtkCellAreaBoxClass* tmp_add_class_485;
  _GtkCellAreaClass* tmp_add_class_486;
  _GtkCellAreaContext* tmp_add_class_487;
  _GtkCellAreaContextClass* tmp_add_class_488;
  _GtkCellEditableIface* tmp_add_class_489;
  _GtkCellLayoutIface* tmp_add_class_490;
  _GtkCellRenderer* tmp_add_class_491;
  _GtkCellRendererAccel* tmp_add_class_492;
  _GtkCellRendererAccelClass* tmp_add_class_493;
  _GtkCellRendererClass* tmp_add_class_494;
  _GtkCellRendererCombo* tmp_add_class_495;
  _GtkCellRendererComboClass* tmp_add_class_496;
  _GtkCellRendererPixbuf* tmp_add_class_497;
  _GtkCellRendererPixbufClass* tmp_add_class_498;
  _GtkCellRendererProgress* tmp_add_class_499;
  _GtkCellRendererProgressClass* tmp_add_class_500;
  _GtkCellRendererSpin* tmp_add_class_501;
  _GtkCellRendererSpinClass* tmp_add_class_502;
  _GtkCellRendererSpinner* tmp_add_class_503;
  _GtkCellRendererSpinnerClass* tmp_add_class_504;
  _GtkCellRendererText* tmp_add_class_505;
  _GtkCellRendererTextClass* tmp_add_class_506;
  _GtkCellRendererToggle* tmp_add_class_507;
  _GtkCellRendererToggleClass* tmp_add_class_508;
  _GtkCellView* tmp_add_class_509;
  _GtkCellViewClass* tmp_add_class_510;
  _GtkCheckButton* tmp_add_class_511;
  _GtkCheckButtonClass* tmp_add_class_512;
  _GtkCheckMenuItem* tmp_add_class_513;
  _GtkCheckMenuItemClass* tmp_add_class_514;
  _GtkColorButton* tmp_add_class_515;
  _GtkColorButtonClass* tmp_add_class_516;
  _GtkColorChooserDialog* tmp_add_class_517;
  _GtkColorChooserDialogClass* tmp_add_class_518;
  _GtkColorChooserInterface* tmp_add_class_519;
  _GtkColorChooserWidget* tmp_add_class_520;
  _GtkColorChooserWidgetClass* tmp_add_class_521;
  _GtkColorSelection* tmp_add_class_522;
  _GtkColorSelectionClass* tmp_add_class_523;
  _GtkColorSelectionDialog* tmp_add_class_524;
  _GtkColorSelectionDialogClass* tmp_add_class_525;
  _GtkComboBox* tmp_add_class_526;
  _GtkComboBoxClass* tmp_add_class_527;
  _GtkComboBoxText* tmp_add_class_528;
  _GtkComboBoxTextClass* tmp_add_class_529;
  _GtkContainer* tmp_add_class_530;
  _GtkContainerClass* tmp_add_class_531;
  _GtkCssProvider* tmp_add_class_532;
  _GtkCssProviderClass* tmp_add_class_533;
  _GtkDialog* tmp_add_class_534;
  _GtkDialogClass* tmp_add_class_535;
  _GtkDrawingArea* tmp_add_class_536;
  _GtkDrawingAreaClass* tmp_add_class_537;
  _GtkEditableInterface* tmp_add_class_538;
  _GtkEntry* tmp_add_class_539;
  _GtkEntryBuffer* tmp_add_class_540;
  _GtkEntryBufferClass* tmp_add_class_541;
  _GtkEntryClass* tmp_add_class_542;
  _GtkEntryCompletion* tmp_add_class_543;
  _GtkEntryCompletionClass* tmp_add_class_544;
  _GtkEventBox* tmp_add_class_545;
  _GtkEventBoxClass* tmp_add_class_546;
  _GtkExpander* tmp_add_class_547;
  _GtkExpanderClass* tmp_add_class_548;
  _GtkFileChooserButton* tmp_add_class_549;
  _GtkFileChooserButtonClass* tmp_add_class_550;
  _GtkFileChooserDialog* tmp_add_class_551;
  _GtkFileChooserDialogClass* tmp_add_class_552;
  _GtkFileChooserWidget* tmp_add_class_553;
  _GtkFileChooserWidgetClass* tmp_add_class_554;
  _GtkFileFilterInfo* tmp_add_class_555;
  _GtkFixed* tmp_add_class_556;
  _GtkFixedChild* tmp_add_class_557;
  _GtkFixedClass* tmp_add_class_558;
  _GtkFlowBox* tmp_add_class_559;
  _GtkFlowBoxChild* tmp_add_class_560;
  _GtkFlowBoxChildClass* tmp_add_class_561;
  _GtkFlowBoxClass* tmp_add_class_562;
  _GtkFontButton* tmp_add_class_563;
  _GtkFontButtonClass* tmp_add_class_564;
  _GtkFontChooserDialog* tmp_add_class_565;
  _GtkFontChooserDialogClass* tmp_add_class_566;
  _GtkFontChooserIface* tmp_add_class_567;
  _GtkFontChooserWidget* tmp_add_class_568;
  _GtkFontChooserWidgetClass* tmp_add_class_569;
  _GtkFontSelection* tmp_add_class_570;
  _GtkFontSelectionClass* tmp_add_class_571;
  _GtkFontSelectionDialog* tmp_add_class_572;
  _GtkFontSelectionDialogClass* tmp_add_class_573;
  _GtkFrame* tmp_add_class_574;
  _GtkFrameClass* tmp_add_class_575;
  _GtkGLArea* tmp_add_class_576;
  _GtkGLAreaClass* tmp_add_class_577;
  _GtkGrid* tmp_add_class_578;
  _GtkGridClass* tmp_add_class_579;
  _GtkHBox* tmp_add_class_580;
  _GtkHBoxClass* tmp_add_class_581;
  _GtkHButtonBox* tmp_add_class_582;
  _GtkHButtonBoxClass* tmp_add_class_583;
  _GtkHPaned* tmp_add_class_584;
  _GtkHPanedClass* tmp_add_class_585;
  _GtkHSV* tmp_add_class_586;
  _GtkHSVClass* tmp_add_class_587;
  _GtkHScale* tmp_add_class_588;
  _GtkHScaleClass* tmp_add_class_589;
  _GtkHScrollbar* tmp_add_class_590;
  _GtkHScrollbarClass* tmp_add_class_591;
  _GtkHSeparator* tmp_add_class_592;
  _GtkHSeparatorClass* tmp_add_class_593;
  _GtkHandleBox* tmp_add_class_594;
  _GtkHandleBoxClass* tmp_add_class_595;
  _GtkHeaderBar* tmp_add_class_596;
  _GtkHeaderBarClass* tmp_add_class_597;
  _GtkIMContext* tmp_add_class_598;
  _GtkIMContextClass* tmp_add_class_599;
  _GtkIMContextInfo* tmp_add_class_600;
  _GtkIMContextSimple* tmp_add_class_601;
  _GtkIMContextSimpleClass* tmp_add_class_602;
  _GtkIMMulticontext* tmp_add_class_603;
  _GtkIMMulticontextClass* tmp_add_class_604;
  _GtkIconFactory* tmp_add_class_605;
  _GtkIconFactoryClass* tmp_add_class_606;
  _GtkIconTheme* tmp_add_class_607;
  _GtkIconThemeClass* tmp_add_class_608;
  _GtkIconView* tmp_add_class_609;
  _GtkIconViewClass* tmp_add_class_610;
  _GtkImage* tmp_add_class_611;
  _GtkImageClass* tmp_add_class_612;
  _GtkImageMenuItem* tmp_add_class_613;
  _GtkImageMenuItemClass* tmp_add_class_614;
  _GtkInfoBar* tmp_add_class_615;
  _GtkInfoBarClass* tmp_add_class_616;
  _GtkInvisible* tmp_add_class_617;
  _GtkInvisibleClass* tmp_add_class_618;
  _GtkLabel* tmp_add_class_619;
  _GtkLabelClass* tmp_add_class_620;
  _GtkLayout* tmp_add_class_621;
  _GtkLayoutClass* tmp_add_class_622;
  _GtkLevelBar* tmp_add_class_623;
  _GtkLevelBarClass* tmp_add_class_624;
  _GtkLinkButton* tmp_add_class_625;
  _GtkLinkButtonClass* tmp_add_class_626;
  _GtkListBox* tmp_add_class_627;
  _GtkListBoxClass* tmp_add_class_628;
  _GtkListBoxRow* tmp_add_class_629;
  _GtkListBoxRowClass* tmp_add_class_630;
  _GtkListStore* tmp_add_class_631;
  _GtkListStoreClass* tmp_add_class_632;
  _GtkLockButton* tmp_add_class_633;
  _GtkLockButtonClass* tmp_add_class_634;
  _GtkMenu* tmp_add_class_635;
  _GtkMenuBar* tmp_add_class_636;
  _GtkMenuBarClass* tmp_add_class_637;
  _GtkMenuButton* tmp_add_class_638;
  _GtkMenuButtonClass* tmp_add_class_639;
  _GtkMenuClass* tmp_add_class_640;
  _GtkMenuItem* tmp_add_class_641;
  _GtkMenuItemClass* tmp_add_class_642;
  _GtkMenuShell* tmp_add_class_643;
  _GtkMenuShellClass* tmp_add_class_644;
  _GtkMenuToolButton* tmp_add_class_645;
  _GtkMenuToolButtonClass* tmp_add_class_646;
  _GtkMessageDialog* tmp_add_class_647;
  _GtkMessageDialogClass* tmp_add_class_648;
  _GtkMisc* tmp_add_class_649;
  _GtkMiscClass* tmp_add_class_650;
  _GtkMountOperation* tmp_add_class_651;
  _GtkMountOperationClass* tmp_add_class_652;
  _GtkNativeDialog* tmp_add_class_653;
  _GtkNativeDialogClass* tmp_add_class_654;
  _GtkNotebook* tmp_add_class_655;
  _GtkNotebookClass* tmp_add_class_656;
  _GtkNumerableIcon* tmp_add_class_657;
  _GtkNumerableIconClass* tmp_add_class_658;
  _GtkOffscreenWindow* tmp_add_class_659;
  _GtkOffscreenWindowClass* tmp_add_class_660;
  _GtkOrientableIface* tmp_add_class_661;
  _GtkOverlay* tmp_add_class_662;
  _GtkOverlayClass* tmp_add_class_663;
  _GtkPadActionEntry* tmp_add_class_664;
  _GtkPageRange* tmp_add_class_665;
  _GtkPaned* tmp_add_class_666;
  _GtkPanedClass* tmp_add_class_667;
  _GtkPopover* tmp_add_class_668;
  _GtkPopoverClass* tmp_add_class_669;
  _GtkPopoverMenuClass* tmp_add_class_670;
  _GtkPrintOperation* tmp_add_class_671;
  _GtkPrintOperationClass* tmp_add_class_672;
  _GtkPrintOperationPreviewIface* tmp_add_class_673;
  _GtkProgressBar* tmp_add_class_674;
  _GtkProgressBarClass* tmp_add_class_675;
  _GtkRadioAction* tmp_add_class_676;
  _GtkRadioActionClass* tmp_add_class_677;
  _GtkRadioActionEntry* tmp_add_class_678;
  _GtkRadioButton* tmp_add_class_679;
  _GtkRadioButtonClass* tmp_add_class_680;
  _GtkRadioMenuItem* tmp_add_class_681;
  _GtkRadioMenuItemClass* tmp_add_class_682;
  _GtkRadioToolButton* tmp_add_class_683;
  _GtkRadioToolButtonClass* tmp_add_class_684;
  _GtkRange* tmp_add_class_685;
  _GtkRangeClass* tmp_add_class_686;
  _GtkRcProperty* tmp_add_class_687;
  _GtkRcStyle* tmp_add_class_688;
  _GtkRcStyleClass* tmp_add_class_689;
  _GtkRecentAction* tmp_add_class_690;
  _GtkRecentActionClass* tmp_add_class_691;
  _GtkRecentChooserDialog* tmp_add_class_692;
  _GtkRecentChooserDialogClass* tmp_add_class_693;
  _GtkRecentChooserIface* tmp_add_class_694;
  _GtkRecentChooserMenu* tmp_add_class_695;
  _GtkRecentChooserMenuClass* tmp_add_class_696;
  _GtkRecentChooserWidget* tmp_add_class_697;
  _GtkRecentChooserWidgetClass* tmp_add_class_698;
  _GtkRecentData* tmp_add_class_699;
  _GtkRecentFilterInfo* tmp_add_class_700;
  _GtkRecentManager* tmp_add_class_701;
  _GtkRecentManagerClass* tmp_add_class_702;
  _GtkRequestedSize* tmp_add_class_703;
  _GtkRequisition* tmp_add_class_704;
  _GtkRevealer* tmp_add_class_705;
  _GtkRevealerClass* tmp_add_class_706;
  _GtkScale* tmp_add_class_707;
  _GtkScaleButton* tmp_add_class_708;
  _GtkScaleButtonClass* tmp_add_class_709;
  _GtkScaleClass* tmp_add_class_710;
  _GtkScrollableInterface* tmp_add_class_711;
  _GtkScrollbar* tmp_add_class_712;
  _GtkScrollbarClass* tmp_add_class_713;
  _GtkScrolledWindow* tmp_add_class_714;
  _GtkScrolledWindowClass* tmp_add_class_715;
  _GtkSearchBar* tmp_add_class_716;
  _GtkSearchBarClass* tmp_add_class_717;
  _GtkSearchEntry* tmp_add_class_718;
  _GtkSearchEntryClass* tmp_add_class_719;
  _GtkSeparator* tmp_add_class_720;
  _GtkSeparatorClass* tmp_add_class_721;
  _GtkSeparatorMenuItem* tmp_add_class_722;
  _GtkSeparatorMenuItemClass* tmp_add_class_723;
  _GtkSeparatorToolItem* tmp_add_class_724;
  _GtkSeparatorToolItemClass* tmp_add_class_725;
  _GtkSettings* tmp_add_class_726;
  _GtkSettingsClass* tmp_add_class_727;
  _GtkSettingsValue* tmp_add_class_728;
  _GtkShortcutsWindow* tmp_add_class_729;
  _GtkShortcutsWindowClass* tmp_add_class_730;
  _GtkSizeGroup* tmp_add_class_731;
  _GtkSizeGroupClass* tmp_add_class_732;
  _GtkSpinButton* tmp_add_class_733;
  _GtkSpinButtonClass* tmp_add_class_734;
  _GtkSpinner* tmp_add_class_735;
  _GtkSpinnerClass* tmp_add_class_736;
  _GtkStack* tmp_add_class_737;
  _GtkStackClass* tmp_add_class_738;
  _GtkStackSidebar* tmp_add_class_739;
  _GtkStackSidebarClass* tmp_add_class_740;
  _GtkStackSwitcher* tmp_add_class_741;
  _GtkStackSwitcherClass* tmp_add_class_742;
  _GtkStatusIcon* tmp_add_class_743;
  _GtkStatusIconClass* tmp_add_class_744;
  _GtkStatusbar* tmp_add_class_745;
  _GtkStatusbarClass* tmp_add_class_746;
  _GtkStockItem* tmp_add_class_747;
  _GtkStyle* tmp_add_class_748;
  _GtkStyleClass* tmp_add_class_749;
  _GtkStyleContext* tmp_add_class_750;
  _GtkStyleContextClass* tmp_add_class_751;
  _GtkStyleProperties* tmp_add_class_752;
  _GtkStylePropertiesClass* tmp_add_class_753;
  _GtkStyleProviderIface* tmp_add_class_754;
  _GtkSwitch* tmp_add_class_755;
  _GtkSwitchClass* tmp_add_class_756;
  _GtkTable* tmp_add_class_757;
  _GtkTableChild* tmp_add_class_758;
  _GtkTableClass* tmp_add_class_759;
  _GtkTableRowCol* tmp_add_class_760;
  _GtkTargetEntry* tmp_add_class_761;
  _GtkTargetPair* tmp_add_class_762;
  _GtkTearoffMenuItem* tmp_add_class_763;
  _GtkTearoffMenuItemClass* tmp_add_class_764;
  _GtkTextAppearance* tmp_add_class_765;
  _GtkTextAttributes* tmp_add_class_766;
  _GtkTextBuffer* tmp_add_class_767;
  _GtkTextBufferClass* tmp_add_class_768;
  _GtkTextChildAnchor* tmp_add_class_769;
  _GtkTextChildAnchorClass* tmp_add_class_770;
  _GtkTextIter* tmp_add_class_771;
  _GtkTextMark* tmp_add_class_772;
  _GtkTextMarkClass* tmp_add_class_773;
  _GtkTextTag* tmp_add_class_774;
  _GtkTextTagClass* tmp_add_class_775;
  _GtkTextTagTable* tmp_add_class_776;
  _GtkTextTagTableClass* tmp_add_class_777;
  _GtkTextView* tmp_add_class_778;
  _GtkTextViewClass* tmp_add_class_779;
  _GtkThemingEngine* tmp_add_class_780;
  _GtkThemingEngineClass* tmp_add_class_781;
  _GtkToggleAction* tmp_add_class_782;
  _GtkToggleActionClass* tmp_add_class_783;
  _GtkToggleActionEntry* tmp_add_class_784;
  _GtkToggleButton* tmp_add_class_785;
  _GtkToggleButtonClass* tmp_add_class_786;
  _GtkToggleToolButton* tmp_add_class_787;
  _GtkToggleToolButtonClass* tmp_add_class_788;
  _GtkToolButton* tmp_add_class_789;
  _GtkToolButtonClass* tmp_add_class_790;
  _GtkToolItem* tmp_add_class_791;
  _GtkToolItemClass* tmp_add_class_792;
  _GtkToolItemGroup* tmp_add_class_793;
  _GtkToolItemGroupClass* tmp_add_class_794;
  _GtkToolPalette* tmp_add_class_795;
  _GtkToolPaletteClass* tmp_add_class_796;
  _GtkToolShellIface* tmp_add_class_797;
  _GtkToolbar* tmp_add_class_798;
  _GtkToolbarClass* tmp_add_class_799;
  _GtkTreeDragDestIface* tmp_add_class_800;
  _GtkTreeDragSourceIface* tmp_add_class_801;
  _GtkTreeIter* tmp_add_class_802;
  _GtkTreeModelFilter* tmp_add_class_803;
  _GtkTreeModelFilterClass* tmp_add_class_804;
  _GtkTreeModelIface* tmp_add_class_805;
  _GtkTreeModelSort* tmp_add_class_806;
  _GtkTreeModelSortClass* tmp_add_class_807;
  _GtkTreeSelection* tmp_add_class_808;
  _GtkTreeSelectionClass* tmp_add_class_809;
  _GtkTreeSortableIface* tmp_add_class_810;
  _GtkTreeStore* tmp_add_class_811;
  _GtkTreeStoreClass* tmp_add_class_812;
  _GtkTreeView* tmp_add_class_813;
  _GtkTreeViewClass* tmp_add_class_814;
  _GtkTreeViewColumn* tmp_add_class_815;
  _GtkTreeViewColumnClass* tmp_add_class_816;
  _GtkUIManager* tmp_add_class_817;
  _GtkUIManagerClass* tmp_add_class_818;
  _GtkVBox* tmp_add_class_819;
  _GtkVBoxClass* tmp_add_class_820;
  _GtkVButtonBox* tmp_add_class_821;
  _GtkVButtonBoxClass* tmp_add_class_822;
  _GtkVPaned* tmp_add_class_823;
  _GtkVPanedClass* tmp_add_class_824;
  _GtkVScale* tmp_add_class_825;
  _GtkVScaleClass* tmp_add_class_826;
  _GtkVScrollbar* tmp_add_class_827;
  _GtkVScrollbarClass* tmp_add_class_828;
  _GtkVSeparator* tmp_add_class_829;
  _GtkVSeparatorClass* tmp_add_class_830;
  _GtkViewport* tmp_add_class_831;
  _GtkViewportClass* tmp_add_class_832;
  _GtkVolumeButton* tmp_add_class_833;
  _GtkVolumeButtonClass* tmp_add_class_834;
  _GtkWidget* tmp_add_class_835;
  _GtkWidgetClass* tmp_add_class_836;
  _GtkWindow* tmp_add_class_837;
  _GtkWindowClass* tmp_add_class_838;
  _GtkWindowGroup* tmp_add_class_839;
  _GtkWindowGroupClass* tmp_add_class_840;
  _IO_cookie_io_functions_t* tmp_add_class_841;
  _JSCClass* tmp_add_class_842;
  _JSCContext* tmp_add_class_843;
  _JSCContextClass* tmp_add_class_844;
  _JSCException* tmp_add_class_845;
  _JSCExceptionClass* tmp_add_class_846;
  _JSCValue* tmp_add_class_847;
  _JSCValueClass* tmp_add_class_848;
  _JSCVirtualMachine* tmp_add_class_849;
  _JSCVirtualMachineClass* tmp_add_class_850;
  _JSCWeakValue* tmp_add_class_851;
  _JSCWeakValueClass* tmp_add_class_852;
  _PangoAnalysis* tmp_add_class_853;
  _PangoAttrClass* tmp_add_class_854;
  _PangoAttrColor* tmp_add_class_855;
  _PangoAttrFloat* tmp_add_class_856;
  _PangoAttrFontDesc* tmp_add_class_857;
  _PangoAttrFontFeatures* tmp_add_class_858;
  _PangoAttrInt* tmp_add_class_859;
  _PangoAttrLanguage* tmp_add_class_860;
  _PangoAttrShape* tmp_add_class_861;
  _PangoAttrSize* tmp_add_class_862;
  _PangoAttrString* tmp_add_class_863;
  _PangoAttribute* tmp_add_class_864;
  _PangoColor* tmp_add_class_865;
  _PangoEngine* tmp_add_class_866;
  _PangoEngineClass* tmp_add_class_867;
  _PangoEngineInfo* tmp_add_class_868;
  _PangoEngineLang* tmp_add_class_869;
  _PangoEngineLangClass* tmp_add_class_870;
  _PangoEngineScriptInfo* tmp_add_class_871;
  _PangoEngineShape* tmp_add_class_872;
  _PangoEngineShapeClass* tmp_add_class_873;
  _PangoFont* tmp_add_class_874;
  _PangoFontClass* tmp_add_class_875;
  _PangoFontFace* tmp_add_class_876;
  _PangoFontFaceClass* tmp_add_class_877;
  _PangoFontFamily* tmp_add_class_878;
  _PangoFontFamilyClass* tmp_add_class_879;
  _PangoFontMap* tmp_add_class_880;
  _PangoFontMapClass* tmp_add_class_881;
  _PangoFontMetrics* tmp_add_class_882;
  _PangoFontset* tmp_add_class_883;
  _PangoFontsetClass* tmp_add_class_884;
  _PangoGlyphGeometry* tmp_add_class_885;
  _PangoGlyphInfo* tmp_add_class_886;
  _PangoGlyphItem* tmp_add_class_887;
  _PangoGlyphItemIter* tmp_add_class_888;
  _PangoGlyphString* tmp_add_class_889;
  _PangoGlyphVisAttr* tmp_add_class_890;
  _PangoItem* tmp_add_class_891;
  _PangoLayoutLine* tmp_add_class_892;
  _PangoLogAttr* tmp_add_class_893;
  _PangoMatrix* tmp_add_class_894;
  _PangoRectangle* tmp_add_class_895;
  _PangoRenderer* tmp_add_class_896;
  _PangoRendererClass* tmp_add_class_897;
  _SoupAuth* tmp_add_class_898;
  _SoupAuthClass* tmp_add_class_899;
  _SoupAuthDomain* tmp_add_class_900;
  _SoupAuthDomainClass* tmp_add_class_901;
  _SoupCache* tmp_add_class_902;
  _SoupCacheClass* tmp_add_class_903;
  _SoupCookieJar* tmp_add_class_904;
  _SoupCookieJarClass* tmp_add_class_905;
  _SoupHSTSEnforcer* tmp_add_class_906;
  _SoupHSTSEnforcerClass* tmp_add_class_907;
  _SoupServer* tmp_add_class_908;
  _SoupServerClass* tmp_add_class_909;
  _SoupSession* tmp_add_class_910;
  _SoupSessionClass* tmp_add_class_911;
  _SoupWebsocketExtension* tmp_add_class_912;
  _SoupWebsocketExtensionClass* tmp_add_class_913;
  _WebKitAuthenticationRequest* tmp_add_class_914;
  _WebKitAuthenticationRequestClass* tmp_add_class_915;
  _WebKitAutomationSession* tmp_add_class_916;
  _WebKitAutomationSessionClass* tmp_add_class_917;
  _WebKitBackForwardList* tmp_add_class_918;
  _WebKitBackForwardListClass* tmp_add_class_919;
  _WebKitBackForwardListItem* tmp_add_class_920;
  _WebKitBackForwardListItemClass* tmp_add_class_921;
  _WebKitClipboardPermissionRequest* tmp_add_class_922;
  _WebKitClipboardPermissionRequestClass* tmp_add_class_923;
  _WebKitColorChooserRequest* tmp_add_class_924;
  _WebKitColorChooserRequestClass* tmp_add_class_925;
  _WebKitContextMenu* tmp_add_class_926;
  _WebKitContextMenuClass* tmp_add_class_927;
  _WebKitContextMenuItem* tmp_add_class_928;
  _WebKitContextMenuItemClass* tmp_add_class_929;
  _WebKitCookieManager* tmp_add_class_930;
  _WebKitCookieManagerClass* tmp_add_class_931;
  _WebKitDeviceInfoPermissionRequest* tmp_add_class_932;
  _WebKitDeviceInfoPermissionRequestClass* tmp_add_class_933;
  _WebKitDownload* tmp_add_class_934;
  _WebKitDownloadClass* tmp_add_class_935;
  _WebKitEditorState* tmp_add_class_936;
  _WebKitEditorStateClass* tmp_add_class_937;
  _WebKitFaviconDatabase* tmp_add_class_938;
  _WebKitFaviconDatabaseClass* tmp_add_class_939;
  _WebKitFileChooserRequest* tmp_add_class_940;
  _WebKitFileChooserRequestClass* tmp_add_class_941;
  _WebKitFindController* tmp_add_class_942;
  _WebKitFindControllerClass* tmp_add_class_943;
  _WebKitFormSubmissionRequest* tmp_add_class_944;
  _WebKitFormSubmissionRequestClass* tmp_add_class_945;
  _WebKitGeolocationManager* tmp_add_class_946;
  _WebKitGeolocationManagerClass* tmp_add_class_947;
  _WebKitGeolocationPermissionRequest* tmp_add_class_948;
  _WebKitGeolocationPermissionRequestClass* tmp_add_class_949;
  _WebKitHitTestResult* tmp_add_class_950;
  _WebKitHitTestResultClass* tmp_add_class_951;
  _WebKitInputMethodContext* tmp_add_class_952;
  _WebKitInputMethodContextClass* tmp_add_class_953;
  _WebKitInstallMissingMediaPluginsPermissionRequest* tmp_add_class_954;
  _WebKitInstallMissingMediaPluginsPermissionRequestClass* tmp_add_class_955;
  _WebKitMediaKeySystemPermissionRequest* tmp_add_class_956;
  _WebKitMediaKeySystemPermissionRequestClass* tmp_add_class_957;
  _WebKitNavigationPolicyDecision* tmp_add_class_958;
  _WebKitNavigationPolicyDecisionClass* tmp_add_class_959;
  _WebKitNotification* tmp_add_class_960;
  _WebKitNotificationClass* tmp_add_class_961;
  _WebKitNotificationPermissionRequest* tmp_add_class_962;
  _WebKitNotificationPermissionRequestClass* tmp_add_class_963;
  _WebKitOptionMenu* tmp_add_class_964;
  _WebKitOptionMenuClass* tmp_add_class_965;
  _WebKitPermissionRequestIface* tmp_add_class_966;
  _WebKitPlugin* tmp_add_class_967;
  _WebKitPluginClass* tmp_add_class_968;
  _WebKitPointerLockPermissionRequest* tmp_add_class_969;
  _WebKitPointerLockPermissionRequestClass* tmp_add_class_970;
  _WebKitPolicyDecision* tmp_add_class_971;
  _WebKitPolicyDecisionClass* tmp_add_class_972;
  _WebKitPrintCustomWidget* tmp_add_class_973;
  _WebKitPrintCustomWidgetClass* tmp_add_class_974;
  _WebKitPrintOperation* tmp_add_class_975;
  _WebKitPrintOperationClass* tmp_add_class_976;
  _WebKitResponsePolicyDecision* tmp_add_class_977;
  _WebKitResponsePolicyDecisionClass* tmp_add_class_978;
  _WebKitSecurityManager* tmp_add_class_979;
  _WebKitSecurityManagerClass* tmp_add_class_980;
  _WebKitSettings* tmp_add_class_981;
  _WebKitSettingsClass* tmp_add_class_982;
  _WebKitURIRequest* tmp_add_class_983;
  _WebKitURIRequestClass* tmp_add_class_984;
  _WebKitURIResponse* tmp_add_class_985;
  _WebKitURIResponseClass* tmp_add_class_986;
  _WebKitURISchemeRequest* tmp_add_class_987;
  _WebKitURISchemeRequestClass* tmp_add_class_988;
  _WebKitURISchemeResponse* tmp_add_class_989;
  _WebKitURISchemeResponseClass* tmp_add_class_990;
  _WebKitUserContentFilterStore* tmp_add_class_991;
  _WebKitUserContentFilterStoreClass* tmp_add_class_992;
  _WebKitUserContentManager* tmp_add_class_993;
  _WebKitUserContentManagerClass* tmp_add_class_994;
  _WebKitUserMediaPermissionRequest* tmp_add_class_995;
  _WebKitUserMediaPermissionRequestClass* tmp_add_class_996;
  _WebKitUserMessage* tmp_add_class_997;
  _WebKitUserMessageClass* tmp_add_class_998;
  _WebKitWebContext* tmp_add_class_999;
  _WebKitWebContextClass* tmp_add_class_1000;
  _WebKitWebInspector* tmp_add_class_1001;
  _WebKitWebInspectorClass* tmp_add_class_1002;
  _WebKitWebResource* tmp_add_class_1003;
  _WebKitWebResourceClass* tmp_add_class_1004;
  _WebKitWebView* tmp_add_class_1005;
  _WebKitWebViewBase* tmp_add_class_1006;
  _WebKitWebViewBaseClass* tmp_add_class_1007;
  _WebKitWebViewClass* tmp_add_class_1008;
  _WebKitWebsiteDataAccessPermissionRequest* tmp_add_class_1009;
  _WebKitWebsiteDataAccessPermissionRequestClass* tmp_add_class_1010;
  _WebKitWebsiteDataManager* tmp_add_class_1011;
  _WebKitWebsiteDataManagerClass* tmp_add_class_1012;
  _WebKitWebsitePolicies* tmp_add_class_1013;
  _WebKitWebsitePoliciesClass* tmp_add_class_1014;
  _WebKitWindowProperties* tmp_add_class_1015;
  _WebKitWindowPropertiesClass* tmp_add_class_1016;
  _cairo_matrix* tmp_add_class_1017;
  _cairo_path_data_t* tmp_add_class_1018;
  _cairo_rectangle* tmp_add_class_1019;
  _cairo_rectangle_int* tmp_add_class_1020;
  _cairo_rectangle_list* tmp_add_class_1021;
  _cairo_user_data_key* tmp_add_class_1022;
  _hb_var_int_t* tmp_add_class_1023;
  _hb_var_num_t* tmp_add_class_1024;
  cairo_path* tmp_add_class_1025;
  hb_color_line_t* tmp_add_class_1026;
  hb_draw_state_t* tmp_add_class_1027;
  hb_feature_t* tmp_add_class_1028;
  hb_font_extents_t* tmp_add_class_1029;
  hb_glyph_extents_t* tmp_add_class_1030;
  hb_glyph_info_t* tmp_add_class_1031;
  hb_glyph_position_t* tmp_add_class_1032;
  hb_segment_properties_t* tmp_add_class_1033;
  hb_user_data_key_t* tmp_add_class_1034;
  hb_variation_t* tmp_add_class_1035;
  ucontext_t* tmp_add_class_1036;

The GCC parameters:
  gcc -fdump-lang-raw -fkeep-inline-functions -c -x c++ -fpermissive -w "/tmp/bfCqGRj5uW/dump1.h"  -I/usr/include/gtk-3.0 -I/usr/include/webkitgtk-4.1 -I/usr/include/pango-1.0 -I/usr/include/libsoup-3.0 -I/usr/include/harfbuzz -I/usr/include/glib-2.0 -I/usr/include/gdk-pixbuf-2.0 -I/usr/include/devhelp-3 -I/usr/include/cairo -I/usr/include/atk-1.0 -I/lib/arm-linux-gnueabihf/glib-2.0/include

