[2024-01-07T15:20:25+00:00] apt-get install libkshark-dev libjson-c-dev libgl-dev libglu1-mesa-dev abi-compliance-checker
Reading package lists...
Building dependency tree...
Reading state information...
libgl-dev is already the newest version (1.7.0-1).
libgl-dev set to manually installed.
abi-compliance-checker is already the newest version (2.3-2).
The following packages were automatically installed and are no longer required:
  libavahi-client3 libavahi-common-data libavahi-common3 libcups2 libegl-dev
  libgles-dev libgles1 libkf5i18n-data libkf5i18n5 libkseexpr-data
  libkseexpr-dev libkseexpr4 libkseexprui4 libqt5concurrent5
  libqt5printsupport5 libqt5qml5 libqt5sql5 libqt5test5 libqt5xml5
  libvulkan-dev libxext-dev qt5-qmake qt5-qmake-bin qtbase5-dev
  qtbase5-dev-tools qtchooser
Use 'apt autoremove' to remove them.
The following additional packages will be installed:
  libglu1-mesa libglut3.12 libkshark2 libopengl-dev libopengl0 libtracecmd1
  libtraceevent1 libtracefs1 libxi6
The following NEW packages will be installed:
  libglu1-mesa libglu1-mesa-dev libglut3.12 libjson-c-dev libkshark-dev
  libkshark2 libopengl-dev libopengl0 libtracecmd1 libtraceevent1 libtracefs1
  libxi6
0 upgraded, 12 newly installed, 0 to remove and 30 not upgraded.
Need to get 1131 kB of archives.
After this operation, 3720 kB of additional disk space will be used.
Get:1 http://deb.debian.org/debian unstable/main armhf libopengl0 armhf 1.7.0-1 [31.9 kB]
Get:2 http://deb.debian.org/debian unstable/main armhf libglu1-mesa armhf 9.0.2-1.1 [137 kB]
Get:3 http://deb.debian.org/debian unstable/main armhf libopengl-dev armhf 1.7.0-1 [5104 B]
Get:4 http://deb.debian.org/debian unstable/main armhf libglu1-mesa-dev armhf 9.0.2-1.1 [177 kB]
Get:5 http://deb.debian.org/debian unstable/main armhf libxi6 armhf 2:1.8-1+b1 [78.6 kB]
Get:6 http://deb.debian.org/debian unstable/main armhf libglut3.12 armhf 3.4.0-1+b1 [125 kB]
Get:7 http://deb.debian.org/debian unstable/main armhf libjson-c-dev armhf 0.17-1 [68.0 kB]
Get:8 http://deb.debian.org/debian unstable/main armhf libtraceevent1 armhf 1:1.7.3-1 [43.5 kB]
Get:9 http://deb.debian.org/debian unstable/main armhf libtracefs1 armhf 1.7.0-1 [47.7 kB]
Get:10 http://deb.debian.org/debian unstable/main armhf libtracecmd1 armhf 3.2-1 [82.0 kB]
Get:11 http://deb.debian.org/debian unstable/main armhf libkshark2 armhf 2.2.1-1 [272 kB]
Get:12 http://deb.debian.org/debian unstable/main armhf libkshark-dev armhf 2.2.1-1 [64.6 kB]
debconf: delaying package configuration, since apt-utils is not installed
Fetched 1131 kB in 1s (1861 kB/s)
Selecting previously unselected package libopengl0:armhf.
(Reading database ... (Reading database ... 5%(Reading database ... 10%(Reading database ... 15%(Reading database ... 20%(Reading database ... 25%(Reading database ... 30%(Reading database ... 35%(Reading database ... 40%(Reading database ... 45%(Reading database ... 50%(Reading database ... 55%(Reading database ... 60%(Reading database ... 65%(Reading database ... 70%(Reading database ... 75%(Reading database ... 80%(Reading database ... 85%(Reading database ... 90%(Reading database ... 95%(Reading database ... 100%(Reading database ... 21561 files and directories currently installed.)
Preparing to unpack .../00-libopengl0_1.7.0-1_armhf.deb ...
Unpacking libopengl0:armhf (1.7.0-1) ...
Selecting previously unselected package libglu1-mesa:armhf.
Preparing to unpack .../01-libglu1-mesa_9.0.2-1.1_armhf.deb ...
Unpacking libglu1-mesa:armhf (9.0.2-1.1) ...
Selecting previously unselected package libopengl-dev:armhf.
Preparing to unpack .../02-libopengl-dev_1.7.0-1_armhf.deb ...
Unpacking libopengl-dev:armhf (1.7.0-1) ...
Selecting previously unselected package libglu1-mesa-dev:armhf.
Preparing to unpack .../03-libglu1-mesa-dev_9.0.2-1.1_armhf.deb ...
Unpacking libglu1-mesa-dev:armhf (9.0.2-1.1) ...
Selecting previously unselected package libxi6:armhf.
Preparing to unpack .../04-libxi6_2%3a1.8-1+b1_armhf.deb ...
Unpacking libxi6:armhf (2:1.8-1+b1) ...
Selecting previously unselected package libglut3.12:armhf.
Preparing to unpack .../05-libglut3.12_3.4.0-1+b1_armhf.deb ...
Unpacking libglut3.12:armhf (3.4.0-1+b1) ...
Selecting previously unselected package libjson-c-dev:armhf.
Preparing to unpack .../06-libjson-c-dev_0.17-1_armhf.deb ...
Unpacking libjson-c-dev:armhf (0.17-1) ...
Selecting previously unselected package libtraceevent1:armhf.
Preparing to unpack .../07-libtraceevent1_1%3a1.7.3-1_armhf.deb ...
Unpacking libtraceevent1:armhf (1:1.7.3-1) ...
Selecting previously unselected package libtracefs1:armhf.
Preparing to unpack .../08-libtracefs1_1.7.0-1_armhf.deb ...
Unpacking libtracefs1:armhf (1.7.0-1) ...
Selecting previously unselected package libtracecmd1:armhf.
Preparing to unpack .../09-libtracecmd1_3.2-1_armhf.deb ...
Unpacking libtracecmd1:armhf (3.2-1) ...
Selecting previously unselected package libkshark2.
Preparing to unpack .../10-libkshark2_2.2.1-1_armhf.deb ...
Unpacking libkshark2 (2.2.1-1) ...
Selecting previously unselected package libkshark-dev.
Preparing to unpack .../11-libkshark-dev_2.2.1-1_armhf.deb ...
Unpacking libkshark-dev (2.2.1-1) ...
Setting up libxi6:armhf (2:1.8-1+b1) ...
Setting up libjson-c-dev:armhf (0.17-1) ...
Setting up libopengl0:armhf (1.7.0-1) ...
Setting up libglut3.12:armhf (3.4.0-1+b1) ...
Setting up libtraceevent1:armhf (1:1.7.3-1) ...
Setting up libglu1-mesa:armhf (9.0.2-1.1) ...
Setting up libopengl-dev:armhf (1.7.0-1) ...
Setting up libglu1-mesa-dev:armhf (9.0.2-1.1) ...
Setting up libtracefs1:armhf (1.7.0-1) ...
Setting up libtracecmd1:armhf (3.2-1) ...
Setting up libkshark2 (2.2.1-1) ...
Setting up libkshark-dev (2.2.1-1) ...
Processing triggers for libc-bin (2.37-13) ...
Reading package lists...
Building dependency tree...
Reading state information...
The following packages will be REMOVED:
  libavahi-client3* libavahi-common-data* libavahi-common3* libcups2*
  libegl-dev* libgles-dev* libgles1* libkf5i18n-data* libkf5i18n5*
  libkseexpr-data* libkseexpr-dev* libkseexpr4* libkseexprui4*
  libqt5concurrent5* libqt5printsupport5* libqt5qml5* libqt5sql5* libqt5test5*
  libqt5xml5* libvulkan-dev* libxext-dev* qt5-qmake* qt5-qmake-bin*
  qtbase5-dev* qtbase5-dev-tools* qtchooser*
0 upgraded, 0 newly installed, 26 to remove and 30 not upgraded.
After this operation, 74.0 MB disk space will be freed.
(Reading database ... (Reading database ... 5%(Reading database ... 10%(Reading database ... 15%(Reading database ... 20%(Reading database ... 25%(Reading database ... 30%(Reading database ... 35%(Reading database ... 40%(Reading database ... 45%(Reading database ... 50%(Reading database ... 55%(Reading database ... 60%(Reading database ... 65%(Reading database ... 70%(Reading database ... 75%(Reading database ... 80%(Reading database ... 85%(Reading database ... 90%(Reading database ... 95%(Reading database ... 100%(Reading database ... 21684 files and directories currently installed.)
Removing libkseexpr-dev:armhf (4.0.4.0-6) ...
Removing qtbase5-dev:armhf (5.15.10+dfsg-5) ...
Removing libqt5printsupport5:armhf (5.15.10+dfsg-5) ...
Removing libcups2:armhf (2.4.7-1+b1) ...
Removing libavahi-client3:armhf (0.8-13+b1) ...
Removing libavahi-common3:armhf (0.8-13+b1) ...
Removing libavahi-common-data:armhf (0.8-13+b1) ...
Removing libgles-dev:armhf (1.7.0-1) ...
Removing libegl-dev:armhf (1.7.0-1) ...
Removing libgles1:armhf (1.7.0-1) ...
Removing libkseexprui4:armhf (4.0.4.0-6) ...
Removing libkf5i18n5:armhf (5.107.0-1+b1) ...
Removing libkf5i18n-data (5.107.0-1) ...
Removing libkseexpr4:armhf (4.0.4.0-6) ...
Removing libkseexpr-data (4.0.4.0-6) ...
Removing libqt5concurrent5:armhf (5.15.10+dfsg-5) ...
Removing libqt5qml5:armhf (5.15.10+dfsg-2) ...
Removing libqt5sql5:armhf (5.15.10+dfsg-5) ...
Removing libqt5test5:armhf (5.15.10+dfsg-5) ...
Removing libqt5xml5:armhf (5.15.10+dfsg-5) ...
Removing libvulkan-dev:armhf (1.3.268.0-1) ...
Removing libxext-dev:armhf (2:1.3.4-1+b1) ...
Removing qt5-qmake:armhf (5.15.10+dfsg-5) ...
Removing qt5-qmake-bin (5.15.10+dfsg-5) ...
Removing qtbase5-dev-tools (5.15.10+dfsg-5) ...
Removing qtchooser (66-2) ...
Processing triggers for libc-bin (2.37-13) ...
