[2024-01-31T19:03:17+00:00] apt-get install libbabl-dev abi-compliance-checker
Reading package lists...
Building dependency tree...
Reading state information...
abi-compliance-checker is already the newest version (2.3-2).
The following packages were automatically installed and are no longer required:
  libbabeltrace2-0 libbabeltrace2-dev libdw1
Use 'apt autoremove' to remove them.
The following additional packages will be installed:
  gir1.2-babl-0.1 libbabl-0.1-0 liblcms2-2 liblcms2-dev
Suggested packages:
  liblcms2-utils
The following NEW packages will be installed:
  gir1.2-babl-0.1 libbabl-0.1-0 libbabl-dev liblcms2-2 liblcms2-dev
0 upgraded, 5 newly installed, 0 to remove and 45 not upgraded.
Need to get 2245 kB of archives.
After this operation, 3227 kB of additional disk space will be used.
Get:1 http://deb.debian.org/debian unstable/main armhf liblcms2-2 armhf 2.14-2 [125 kB]
Get:2 http://deb.debian.org/debian unstable/main armhf libbabl-0.1-0 armhf 1:0.1.106-3+b2 [279 kB]
Get:3 http://deb.debian.org/debian unstable/main armhf gir1.2-babl-0.1 armhf 1:0.1.106-3+b2 [7692 B]
Get:4 http://deb.debian.org/debian unstable/main armhf liblcms2-dev armhf 2.14-2 [1815 kB]
Get:5 http://deb.debian.org/debian unstable/main armhf libbabl-dev armhf 1:0.1.106-3+b2 [17.7 kB]
debconf: delaying package configuration, since apt-utils is not installed
Fetched 2245 kB in 0s (13.9 MB/s)
Selecting previously unselected package liblcms2-2:armhf.
(Reading database ... (Reading database ... 5%(Reading database ... 10%(Reading database ... 15%(Reading database ... 20%(Reading database ... 25%(Reading database ... 30%(Reading database ... 35%(Reading database ... 40%(Reading database ... 45%(Reading database ... 50%(Reading database ... 55%(Reading database ... 60%(Reading database ... 65%(Reading database ... 70%(Reading database ... 75%(Reading database ... 80%(Reading database ... 85%(Reading database ... 90%(Reading database ... 95%(Reading database ... 100%(Reading database ... 19860 files and directories currently installed.)
Preparing to unpack .../liblcms2-2_2.14-2_armhf.deb ...
Unpacking liblcms2-2:armhf (2.14-2) ...
Selecting previously unselected package libbabl-0.1-0:armhf.
Preparing to unpack .../libbabl-0.1-0_1%3a0.1.106-3+b2_armhf.deb ...
Unpacking libbabl-0.1-0:armhf (1:0.1.106-3+b2) ...
Selecting previously unselected package gir1.2-babl-0.1:armhf.
Preparing to unpack .../gir1.2-babl-0.1_1%3a0.1.106-3+b2_armhf.deb ...
Unpacking gir1.2-babl-0.1:armhf (1:0.1.106-3+b2) ...
Selecting previously unselected package liblcms2-dev:armhf.
Preparing to unpack .../liblcms2-dev_2.14-2_armhf.deb ...
Unpacking liblcms2-dev:armhf (2.14-2) ...
Selecting previously unselected package libbabl-dev:armhf.
Preparing to unpack .../libbabl-dev_1%3a0.1.106-3+b2_armhf.deb ...
Unpacking libbabl-dev:armhf (1:0.1.106-3+b2) ...
Setting up liblcms2-2:armhf (2.14-2) ...
Setting up libbabl-0.1-0:armhf (1:0.1.106-3+b2) ...
Setting up liblcms2-dev:armhf (2.14-2) ...
Setting up gir1.2-babl-0.1:armhf (1:0.1.106-3+b2) ...
Setting up libbabl-dev:armhf (1:0.1.106-3+b2) ...
Processing triggers for libc-bin (2.37-13) ...
Reading package lists...
Building dependency tree...
Reading state information...
The following packages will be REMOVED:
  libbabeltrace2-0* libbabeltrace2-dev* libdw1*
0 upgraded, 0 newly installed, 3 to remove and 45 not upgraded.
After this operation, 4486 kB disk space will be freed.
(Reading database ... (Reading database ... 5%(Reading database ... 10%(Reading database ... 15%(Reading database ... 20%(Reading database ... 25%(Reading database ... 30%(Reading database ... 35%(Reading database ... 40%(Reading database ... 45%(Reading database ... 50%(Reading database ... 55%(Reading database ... 60%(Reading database ... 65%(Reading database ... 70%(Reading database ... 75%(Reading database ... 80%(Reading database ... 85%(Reading database ... 90%(Reading database ... 95%(Reading database ... 100%(Reading database ... 19957 files and directories currently installed.)
Removing libbabeltrace2-dev:armhf (2.0.5-3) ...
Removing libbabeltrace2-0:armhf (2.0.5-3) ...
Removing libdw1:armhf (0.190-1+b1) ...
Processing triggers for libc-bin (2.37-13) ...
