[2024-01-08T06:02:55+00:00] apt-get install librocm-smi-dev abi-compliance-checker
Reading package lists...
Building dependency tree...
Reading state information...
abi-compliance-checker is already the newest version (2.3-2).
The following packages were automatically installed and are no longer required:
  libbz2-dev libgflags-dev libgflags2.2 liblua5.4-0 liblua5.4-dev liblz4-dev
  libncurses-dev libncurses6 libreadline-dev librocksdb-dev librocksdb8.9
  libsnappy-dev libsnappy1v5 libzstd-dev zlib1g-dev
Use 'apt autoremove' to remove them.
The following NEW packages will be installed:
  librocm-smi-dev librocm-smi64-1
0 upgraded, 2 newly installed, 0 to remove and 24 not upgraded.
Need to get 923 kB of archives.
After this operation, 2717 kB of additional disk space will be used.
Get:1 http://deb.debian.org/debian unstable/main armhf librocm-smi64-1 armhf 5.2.3-3 [352 kB]
Get:2 http://deb.debian.org/debian unstable/main armhf librocm-smi-dev armhf 5.2.3-3 [570 kB]
debconf: delaying package configuration, since apt-utils is not installed
Fetched 923 kB in 0s (2242 kB/s)
Selecting previously unselected package librocm-smi64-1.
(Reading database ... (Reading database ... 5%(Reading database ... 10%(Reading database ... 15%(Reading database ... 20%(Reading database ... 25%(Reading database ... 30%(Reading database ... 35%(Reading database ... 40%(Reading database ... 45%(Reading database ... 50%(Reading database ... 55%(Reading database ... 60%(Reading database ... 65%(Reading database ... 70%(Reading database ... 75%(Reading database ... 80%(Reading database ... 85%(Reading database ... 90%(Reading database ... 95%(Reading database ... 100%(Reading database ... 17385 files and directories currently installed.)
Preparing to unpack .../librocm-smi64-1_5.2.3-3_armhf.deb ...
Unpacking librocm-smi64-1 (5.2.3-3) ...
Selecting previously unselected package librocm-smi-dev.
Preparing to unpack .../librocm-smi-dev_5.2.3-3_armhf.deb ...
Unpacking librocm-smi-dev (5.2.3-3) ...
Setting up librocm-smi64-1 (5.2.3-3) ...
Setting up librocm-smi-dev (5.2.3-3) ...
Processing triggers for libc-bin (2.37-13) ...
Reading package lists...
Building dependency tree...
Reading state information...
The following packages will be REMOVED:
  libbz2-dev* libgflags-dev* libgflags2.2* liblua5.4-0* liblua5.4-dev*
  liblz4-dev* libncurses-dev* libncurses6* libreadline-dev* librocksdb-dev*
  librocksdb8.9* libsnappy-dev* libsnappy1v5* libzstd-dev* zlib1g-dev*
0 upgraded, 0 newly installed, 15 to remove and 24 not upgraded.
After this operation, 46.8 MB disk space will be freed.
(Reading database ... (Reading database ... 5%(Reading database ... 10%(Reading database ... 15%(Reading database ... 20%(Reading database ... 25%(Reading database ... 30%(Reading database ... 35%(Reading database ... 40%(Reading database ... 45%(Reading database ... 50%(Reading database ... 55%(Reading database ... 60%(Reading database ... 65%(Reading database ... 70%(Reading database ... 75%(Reading database ... 80%(Reading database ... 85%(Reading database ... 90%(Reading database ... 95%(Reading database ... 100%(Reading database ... 17405 files and directories currently installed.)
Removing librocksdb-dev (8.9.1-2) ...
Removing libbz2-dev:armhf (1.0.8-5+b2) ...
Removing libgflags-dev (2.2.2-2) ...
Removing librocksdb8.9 (8.9.1-2) ...
Removing libgflags2.2 (2.2.2-2) ...
Removing liblua5.4-dev:armhf (5.4.6-1) ...
Removing liblua5.4-0:armhf (5.4.6-1) ...
Removing liblz4-dev:armhf (1.9.4-1+b2) ...
Removing libreadline-dev:armhf (8.2-3) ...
Removing libncurses-dev:armhf (6.4+20231209-1) ...
Removing libncurses6:armhf (6.4+20231209-1) ...
Removing libsnappy-dev:armhf (1.1.10-1) ...
Removing libsnappy1v5:armhf (1.1.10-1) ...
Removing libzstd-dev:armhf (1.5.5+dfsg2-2) ...
Removing zlib1g-dev:armhf (1:1.3.dfsg-3) ...
Processing triggers for libc-bin (2.37-13) ...
