[2024-01-07T22:41:50+00:00] apt-get install libnng-dev abi-compliance-checker
Reading package lists...
Building dependency tree...
Reading state information...
abi-compliance-checker is already the newest version (2.3-2).
The following packages were automatically installed and are no longer required:
  libnmz7 libnmz7-dev
Use 'apt autoremove' to remove them.
The following additional packages will be installed:
  libmbedcrypto7 libmbedtls-dev libmbedtls14 libmbedx509-1 libnng1
Suggested packages:
  libmbedtls-doc
The following NEW packages will be installed:
  libmbedcrypto7 libmbedtls-dev libmbedtls14 libmbedx509-1 libnng-dev libnng1
0 upgraded, 6 newly installed, 0 to remove and 36 not upgraded.
Need to get 1493 kB of archives.
After this operation, 5339 kB of additional disk space will be used.
Get:1 http://deb.debian.org/debian unstable/main armhf libmbedcrypto7 armhf 2.28.6-1 [247 kB]
Get:2 http://deb.debian.org/debian unstable/main armhf libmbedx509-1 armhf 2.28.6-1 [126 kB]
Get:3 http://deb.debian.org/debian unstable/main armhf libmbedtls14 armhf 2.28.6-1 [156 kB]
Get:4 http://deb.debian.org/debian unstable/main armhf libmbedtls-dev armhf 2.28.6-1 [654 kB]
Get:5 http://deb.debian.org/debian unstable/main armhf libnng1 armhf 1.7.1-1 [118 kB]
Get:6 http://deb.debian.org/debian unstable/main armhf libnng-dev armhf 1.7.1-1 [191 kB]
debconf: delaying package configuration, since apt-utils is not installed
Fetched 1493 kB in 1s (1841 kB/s)
Selecting previously unselected package libmbedcrypto7:armhf.
(Reading database ... (Reading database ... 5%(Reading database ... 10%(Reading database ... 15%(Reading database ... 20%(Reading database ... 25%(Reading database ... 30%(Reading database ... 35%(Reading database ... 40%(Reading database ... 45%(Reading database ... 50%(Reading database ... 55%(Reading database ... 60%(Reading database ... 65%(Reading database ... 70%(Reading database ... 75%(Reading database ... 80%(Reading database ... 85%(Reading database ... 90%(Reading database ... 95%(Reading database ... 100%(Reading database ... 14875 files and directories currently installed.)
Preparing to unpack .../0-libmbedcrypto7_2.28.6-1_armhf.deb ...
Unpacking libmbedcrypto7:armhf (2.28.6-1) ...
Selecting previously unselected package libmbedx509-1:armhf.
Preparing to unpack .../1-libmbedx509-1_2.28.6-1_armhf.deb ...
Unpacking libmbedx509-1:armhf (2.28.6-1) ...
Selecting previously unselected package libmbedtls14:armhf.
Preparing to unpack .../2-libmbedtls14_2.28.6-1_armhf.deb ...
Unpacking libmbedtls14:armhf (2.28.6-1) ...
Selecting previously unselected package libmbedtls-dev:armhf.
Preparing to unpack .../3-libmbedtls-dev_2.28.6-1_armhf.deb ...
Unpacking libmbedtls-dev:armhf (2.28.6-1) ...
Selecting previously unselected package libnng1:armhf.
Preparing to unpack .../4-libnng1_1.7.1-1_armhf.deb ...
Unpacking libnng1:armhf (1.7.1-1) ...
Selecting previously unselected package libnng-dev:armhf.
Preparing to unpack .../5-libnng-dev_1.7.1-1_armhf.deb ...
Unpacking libnng-dev:armhf (1.7.1-1) ...
Setting up libmbedcrypto7:armhf (2.28.6-1) ...
Setting up libmbedx509-1:armhf (2.28.6-1) ...
Setting up libmbedtls14:armhf (2.28.6-1) ...
Setting up libmbedtls-dev:armhf (2.28.6-1) ...
Setting up libnng1:armhf (1.7.1-1) ...
Setting up libnng-dev:armhf (1.7.1-1) ...
Processing triggers for libc-bin (2.37-13) ...
Reading package lists...
Building dependency tree...
Reading state information...
The following packages will be REMOVED:
  libnmz7* libnmz7-dev*
0 upgraded, 0 newly installed, 2 to remove and 36 not upgraded.
After this operation, 494 kB disk space will be freed.
(Reading database ... (Reading database ... 5%(Reading database ... 10%(Reading database ... 15%(Reading database ... 20%(Reading database ... 25%(Reading database ... 30%(Reading database ... 35%(Reading database ... 40%(Reading database ... 45%(Reading database ... 50%(Reading database ... 55%(Reading database ... 60%(Reading database ... 65%(Reading database ... 70%(Reading database ... 75%(Reading database ... 80%(Reading database ... 85%(Reading database ... 90%(Reading database ... 95%(Reading database ... 100%(Reading database ... 15074 files and directories currently installed.)
Removing libnmz7-dev (2.0.21-23) ...
Removing libnmz7 (2.0.21-23) ...
Processing triggers for libc-bin (2.37-13) ...
