[2024-01-08T11:32:05+00:00] apt-get install libuhd-dev libboost-dev libflatbuffers-dev pybind11-dev libpython3-dev abi-compliance-checker
Reading package lists...
Building dependency tree...
Reading state information...
abi-compliance-checker is already the newest version (2.3-2).
The following packages were automatically installed and are no longer required:
  libssl-dev libufpidentity-dev libufpidentity1
Use 'apt autoremove' to remove them.
The following additional packages will be installed:
  flatbuffers-compiler flatbuffers-compiler-dev libboost-chrono1.83.0
  libboost-filesystem1.83.0 libboost-serialization1.83.0 libboost-thread1.83.0
  libboost1.83-dev libexpat1-dev libflatbuffers2 libpython3.11
  libpython3.11-dev libuhd4.6.0 libusb-1.0-0 zlib1g-dev
Suggested packages:
  libboost-doc libboost1.83-doc libboost-atomic1.83-dev
  libboost-chrono1.83-dev libboost-container1.83-dev libboost-context1.83-dev
  libboost-contract1.83-dev libboost-coroutine1.83-dev
  libboost-date-time1.83-dev libboost-exception1.83-dev libboost-fiber1.83-dev
  libboost-filesystem1.83-dev libboost-graph-parallel1.83-dev
  libboost-graph1.83-dev libboost-iostreams1.83-dev libboost-json1.83-dev
  libboost-locale1.83-dev libboost-log1.83-dev libboost-math1.83-dev
  libboost-mpi-python1.83-dev libboost-mpi1.83-dev libboost-nowide1.83-dev
  libboost-numpy1.83-dev libboost-program-options1.83-dev
  libboost-python1.83-dev libboost-random1.83-dev libboost-regex1.83-dev
  libboost-serialization1.83-dev libboost-stacktrace1.83-dev
  libboost-system1.83-dev libboost-test1.83-dev libboost-thread1.83-dev
  libboost-timer1.83-dev libboost-type-erasure1.83-dev libboost-url1.83-dev
  libboost-wave1.83-dev libboost1.83-tools-dev libmpfrc++-dev libntl-dev
  uhd-doc uhd-host pybind11-doc
Recommended packages:
  gnuradio-dev libeigen3-dev
The following NEW packages will be installed:
  flatbuffers-compiler flatbuffers-compiler-dev libboost-chrono1.83.0
  libboost-dev libboost-filesystem1.83.0 libboost-serialization1.83.0
  libboost-thread1.83.0 libboost1.83-dev libexpat1-dev libflatbuffers-dev
  libflatbuffers2 libpython3-dev libpython3.11 libpython3.11-dev libuhd-dev
  libuhd4.6.0 libusb-1.0-0 pybind11-dev zlib1g-dev
0 upgraded, 19 newly installed, 0 to remove and 18 not upgraded.
Need to get 22.8 MB of archives.
After this operation, 209 MB of additional disk space will be used.
Get:1 http://deb.debian.org/debian unstable/main armhf libflatbuffers2 armhf 2.0.8+dfsg1-6+b1 [159 kB]
Get:2 http://deb.debian.org/debian unstable/main armhf flatbuffers-compiler armhf 2.0.8+dfsg1-6+b1 [813 kB]
Get:3 http://deb.debian.org/debian unstable/main armhf flatbuffers-compiler-dev armhf 2.0.8+dfsg1-6+b1 [12.2 kB]
Get:4 http://deb.debian.org/debian unstable/main armhf libboost-chrono1.83.0 armhf 1.83.0-2+b2 [238 kB]
Get:5 http://deb.debian.org/debian unstable/main armhf libboost1.83-dev armhf 1.83.0-2+b2 [10.6 MB]
Get:6 http://deb.debian.org/debian unstable/main armhf libboost-dev armhf 1.83.0.2 [3552 B]
Get:7 http://deb.debian.org/debian unstable/main armhf libboost-filesystem1.83.0 armhf 1.83.0-2+b2 [271 kB]
Get:8 http://deb.debian.org/debian unstable/main armhf libboost-serialization1.83.0 armhf 1.83.0-2+b2 [315 kB]
Get:9 http://deb.debian.org/debian unstable/main armhf libboost-thread1.83.0 armhf 1.83.0-2+b2 [261 kB]
Get:10 http://deb.debian.org/debian unstable/main armhf libexpat1-dev armhf 2.5.0-2+b2 [134 kB]
Get:11 http://deb.debian.org/debian unstable/main armhf libflatbuffers-dev armhf 2.0.8+dfsg1-6+b1 [262 kB]
Get:12 http://deb.debian.org/debian unstable/main armhf libpython3.11 armhf 3.11.7-2 [1710 kB]
Get:13 http://deb.debian.org/debian unstable/main armhf zlib1g-dev armhf 1:1.3.dfsg-3 [904 kB]
Get:14 http://deb.debian.org/debian unstable/main armhf libpython3.11-dev armhf 3.11.7-2 [3423 kB]
Get:15 http://deb.debian.org/debian unstable/main armhf libpython3-dev armhf 3.11.6-1 [9456 B]
Get:16 http://deb.debian.org/debian unstable/main armhf libusb-1.0-0 armhf 2:1.0.26-1 [56.3 kB]
Get:17 http://deb.debian.org/debian unstable/main armhf libuhd4.6.0 armhf 4.6.0.0+ds1-5+b1 [3230 kB]
Get:18 http://deb.debian.org/debian unstable/main armhf libuhd-dev armhf 4.6.0.0+ds1-5+b1 [230 kB]
Get:19 http://deb.debian.org/debian unstable/main armhf pybind11-dev all 2.11.1-2 [191 kB]
debconf: delaying package configuration, since apt-utils is not installed
Fetched 22.8 MB in 2s (12.4 MB/s)
Selecting previously unselected package libflatbuffers2:armhf.
(Reading database ... (Reading database ... 5%(Reading database ... 10%(Reading database ... 15%(Reading database ... 20%(Reading database ... 25%(Reading database ... 30%(Reading database ... 35%(Reading database ... 40%(Reading database ... 45%(Reading database ... 50%(Reading database ... 55%(Reading database ... 60%(Reading database ... 65%(Reading database ... 70%(Reading database ... 75%(Reading database ... 80%(Reading database ... 85%(Reading database ... 90%(Reading database ... 95%(Reading database ... 100%(Reading database ... 17207 files and directories currently installed.)
Preparing to unpack .../00-libflatbuffers2_2.0.8+dfsg1-6+b1_armhf.deb ...
Unpacking libflatbuffers2:armhf (2.0.8+dfsg1-6+b1) ...
Selecting previously unselected package flatbuffers-compiler.
Preparing to unpack .../01-flatbuffers-compiler_2.0.8+dfsg1-6+b1_armhf.deb ...
Unpacking flatbuffers-compiler (2.0.8+dfsg1-6+b1) ...
Selecting previously unselected package flatbuffers-compiler-dev:armhf.
Preparing to unpack .../02-flatbuffers-compiler-dev_2.0.8+dfsg1-6+b1_armhf.deb ...
Unpacking flatbuffers-compiler-dev:armhf (2.0.8+dfsg1-6+b1) ...
Selecting previously unselected package libboost-chrono1.83.0:armhf.
Preparing to unpack .../03-libboost-chrono1.83.0_1.83.0-2+b2_armhf.deb ...
Unpacking libboost-chrono1.83.0:armhf (1.83.0-2+b2) ...
Selecting previously unselected package libboost1.83-dev:armhf.
Preparing to unpack .../04-libboost1.83-dev_1.83.0-2+b2_armhf.deb ...
Unpacking libboost1.83-dev:armhf (1.83.0-2+b2) ...
Selecting previously unselected package libboost-dev:armhf.
Preparing to unpack .../05-libboost-dev_1.83.0.2_armhf.deb ...
Unpacking libboost-dev:armhf (1.83.0.2) ...
Selecting previously unselected package libboost-filesystem1.83.0:armhf.
Preparing to unpack .../06-libboost-filesystem1.83.0_1.83.0-2+b2_armhf.deb ...
Unpacking libboost-filesystem1.83.0:armhf (1.83.0-2+b2) ...
Selecting previously unselected package libboost-serialization1.83.0:armhf.
Preparing to unpack .../07-libboost-serialization1.83.0_1.83.0-2+b2_armhf.deb ...
Unpacking libboost-serialization1.83.0:armhf (1.83.0-2+b2) ...
Selecting previously unselected package libboost-thread1.83.0:armhf.
Preparing to unpack .../08-libboost-thread1.83.0_1.83.0-2+b2_armhf.deb ...
Unpacking libboost-thread1.83.0:armhf (1.83.0-2+b2) ...
Selecting previously unselected package libexpat1-dev:armhf.
Preparing to unpack .../09-libexpat1-dev_2.5.0-2+b2_armhf.deb ...
Unpacking libexpat1-dev:armhf (2.5.0-2+b2) ...
Selecting previously unselected package libflatbuffers-dev:armhf.
Preparing to unpack .../10-libflatbuffers-dev_2.0.8+dfsg1-6+b1_armhf.deb ...
Unpacking libflatbuffers-dev:armhf (2.0.8+dfsg1-6+b1) ...
Selecting previously unselected package libpython3.11:armhf.
Preparing to unpack .../11-libpython3.11_3.11.7-2_armhf.deb ...
Unpacking libpython3.11:armhf (3.11.7-2) ...
Selecting previously unselected package zlib1g-dev:armhf.
Preparing to unpack .../12-zlib1g-dev_1%3a1.3.dfsg-3_armhf.deb ...
Unpacking zlib1g-dev:armhf (1:1.3.dfsg-3) ...
Selecting previously unselected package libpython3.11-dev:armhf.
Preparing to unpack .../13-libpython3.11-dev_3.11.7-2_armhf.deb ...
Unpacking libpython3.11-dev:armhf (3.11.7-2) ...
Selecting previously unselected package libpython3-dev:armhf.
Preparing to unpack .../14-libpython3-dev_3.11.6-1_armhf.deb ...
Unpacking libpython3-dev:armhf (3.11.6-1) ...
Selecting previously unselected package libusb-1.0-0:armhf.
Preparing to unpack .../15-libusb-1.0-0_2%3a1.0.26-1_armhf.deb ...
Unpacking libusb-1.0-0:armhf (2:1.0.26-1) ...
Selecting previously unselected package libuhd4.6.0:armhf.
Preparing to unpack .../16-libuhd4.6.0_4.6.0.0+ds1-5+b1_armhf.deb ...
Unpacking libuhd4.6.0:armhf (4.6.0.0+ds1-5+b1) ...
Selecting previously unselected package libuhd-dev:armhf.
Preparing to unpack .../17-libuhd-dev_4.6.0.0+ds1-5+b1_armhf.deb ...
Unpacking libuhd-dev:armhf (4.6.0.0+ds1-5+b1) ...
Selecting previously unselected package pybind11-dev.
Preparing to unpack .../18-pybind11-dev_2.11.1-2_all.deb ...
Unpacking pybind11-dev (2.11.1-2) ...
Setting up libboost1.83-dev:armhf (1.83.0-2+b2) ...
Setting up libpython3.11:armhf (3.11.7-2) ...
Setting up libboost-thread1.83.0:armhf (1.83.0-2+b2) ...
Setting up libboost-filesystem1.83.0:armhf (1.83.0-2+b2) ...
Setting up libboost-serialization1.83.0:armhf (1.83.0-2+b2) ...
Setting up libexpat1-dev:armhf (2.5.0-2+b2) ...
Setting up libflatbuffers2:armhf (2.0.8+dfsg1-6+b1) ...
Setting up zlib1g-dev:armhf (1:1.3.dfsg-3) ...
Setting up libboost-chrono1.83.0:armhf (1.83.0-2+b2) ...
Setting up flatbuffers-compiler (2.0.8+dfsg1-6+b1) ...
Setting up libboost-dev:armhf (1.83.0.2) ...
Setting up libusb-1.0-0:armhf (2:1.0.26-1) ...
Setting up libpython3.11-dev:armhf (3.11.7-2) ...
Setting up flatbuffers-compiler-dev:armhf (2.0.8+dfsg1-6+b1) ...
Setting up libuhd4.6.0:armhf (4.6.0.0+ds1-5+b1) ...
Setting up libuhd-dev:armhf (4.6.0.0+ds1-5+b1) ...
Setting up libflatbuffers-dev:armhf (2.0.8+dfsg1-6+b1) ...
Setting up libpython3-dev:armhf (3.11.6-1) ...
Setting up pybind11-dev (2.11.1-2) ...
Processing triggers for libc-bin (2.37-13) ...
Reading package lists...
Building dependency tree...
Reading state information...
The following packages will be REMOVED:
  libssl-dev* libufpidentity-dev* libufpidentity1*
0 upgraded, 0 newly installed, 3 to remove and 18 not upgraded.
After this operation, 8574 kB disk space will be freed.
(Reading database ... (Reading database ... 5%(Reading database ... 10%(Reading database ... 15%(Reading database ... 20%(Reading database ... 25%(Reading database ... 30%(Reading database ... 35%(Reading database ... 40%(Reading database ... 45%(Reading database ... 50%(Reading database ... 55%(Reading database ... 60%(Reading database ... 65%(Reading database ... 70%(Reading database ... 75%(Reading database ... 80%(Reading database ... 85%(Reading database ... 90%(Reading database ... 95%(Reading database ... 100%(Reading database ... 34861 files and directories currently installed.)
Removing libssl-dev:armhf (3.1.4-2) ...
Removing libufpidentity-dev:armhf (1.0-1+b2) ...
Removing libufpidentity1:armhf (1.0-1+b2) ...
Processing triggers for libc-bin (2.37-13) ...
