[2024-01-07T13:28:33+00:00] apt-get install libkf5contacts-dev abi-compliance-checker
Reading package lists...
Building dependency tree...
Reading state information...
abi-compliance-checker is already the newest version (2.3-2).
The following packages were automatically installed and are no longer required:
  akonadi-contacts-data kded5 kio libasound2 libasound2-data libcanberra0
  libdbusmenu-qt5-2 libgpgme11 libgpgmepp6 libimobiledevice6
  libkf5akonadi-data libkf5akonadicore5abi2 libkf5akonadiprivate5abi2
  libkf5akonadiwidgets5abi1 libkf5archive-data libkf5archive5 libkf5auth-data
  libkf5auth-dev libkf5auth-dev-bin libkf5auth5 libkf5authcore5
  libkf5completion-data libkf5completion-dev libkf5completion5
  libkf5configwidgets-data libkf5configwidgets-dev libkf5configwidgets5
  libkf5contacteditor-dev libkf5contacteditor5 libkf5crash5
  libkf5dbusaddons-data libkf5dbusaddons-dev libkf5dbusaddons5 libkf5doctools5
  libkf5globalaccel-bin libkf5globalaccel-data libkf5globalaccel5
  libkf5globalaccelprivate5 libkf5guiaddons-data libkf5guiaddons-dev
  libkf5guiaddons5 libkf5iconthemes-data libkf5iconthemes-dev
  libkf5iconthemes5 libkf5itemmodels5 libkf5itemviews-data libkf5itemviews-dev
  libkf5itemviews5 libkf5jobwidgets-data libkf5jobwidgets5 libkf5kiocore5
  libkf5kiogui5 libkf5kiontlm5 libkf5kiowidgets5 libkf5mime-data
  libkf5mime-dev libkf5mime5abi1 libkf5notifications-data libkf5notifications5
  libkf5service-bin libkf5service-data libkf5service-dev libkf5service5
  libkf5solid5 libkf5solid5-data libkf5sonnet-dev libkf5sonnet-dev-bin
  libkf5sonnet5-data libkf5sonnetcore5 libkf5sonnetui5 libkf5textwidgets-data
  libkf5textwidgets-dev libkf5textwidgets5 libkf5wallet-bin libkf5wallet-data
  libkf5wallet5 libkf5widgetsaddons-data libkf5widgetsaddons-dev
  libkf5widgetsaddons5 libkf5windowsystem-data libkf5windowsystem5
  libkf5xmlgui-data libkf5xmlgui5 libkwalletbackend5-5 libltdl7 libogg0
  libplist3 libpolkit-agent-1-0 libpolkit-gobject-1-0 libpolkit-qt5-1-1
  libqca-qt5-2 libqt5qmlworkerscript5 libqt5quickparticles5 libqt5quickshapes5
  libqt5quicktest5 libqt5quickwidgets5 libqt5svg5 libqt5texttospeech5
  libqt5waylandclient5 libqt5x11extras5 libtdb1 libusbmuxd6 libvorbis0a
  libvorbisfile3 libwayland-cursor0 libxcb-record0 libxcb-res0 libxslt1.1
  qtdeclarative5-dev qtdeclarative5-dev-tools sound-theme-freedesktop
Use 'apt autoremove' to remove them.
The following NEW packages will be installed:
  libkf5contacts-dev
0 upgraded, 1 newly installed, 0 to remove and 30 not upgraded.
Need to get 32.6 kB of archives.
After this operation, 245 kB of additional disk space will be used.
Get:1 http://deb.debian.org/debian unstable/main armhf libkf5contacts-dev armhf 5:5.107.0-1 [32.6 kB]
debconf: delaying package configuration, since apt-utils is not installed
Fetched 32.6 kB in 0s (1167 kB/s)
Selecting previously unselected package libkf5contacts-dev:armhf.
(Reading database ... (Reading database ... 5%(Reading database ... 10%(Reading database ... 15%(Reading database ... 20%(Reading database ... 25%(Reading database ... 30%(Reading database ... 35%(Reading database ... 40%(Reading database ... 45%(Reading database ... 50%(Reading database ... 55%(Reading database ... 60%(Reading database ... 65%(Reading database ... 70%(Reading database ... 75%(Reading database ... 80%(Reading database ... 85%(Reading database ... 90%(Reading database ... 95%(Reading database ... 100%(Reading database ... 28202 files and directories currently installed.)
Preparing to unpack .../libkf5contacts-dev_5%3a5.107.0-1_armhf.deb ...
Unpacking libkf5contacts-dev:armhf (5:5.107.0-1) ...
Setting up libkf5contacts-dev:armhf (5:5.107.0-1) ...
Reading package lists...
Building dependency tree...
Reading state information...
The following packages will be REMOVED:
  akonadi-contacts-data* kded5* kio* libasound2* libasound2-data*
  libcanberra0* libdbusmenu-qt5-2* libgpgme11* libgpgmepp6* libimobiledevice6*
  libkf5akonadi-data* libkf5akonadicore5abi2* libkf5akonadiprivate5abi2*
  libkf5akonadiwidgets5abi1* libkf5archive-data* libkf5archive5*
  libkf5auth-data* libkf5auth-dev* libkf5auth-dev-bin* libkf5auth5*
  libkf5authcore5* libkf5completion-data* libkf5completion-dev*
  libkf5completion5* libkf5configwidgets-data* libkf5configwidgets-dev*
  libkf5configwidgets5* libkf5contacteditor-dev* libkf5contacteditor5*
  libkf5crash5* libkf5dbusaddons-data* libkf5dbusaddons-dev*
  libkf5dbusaddons5* libkf5doctools5* libkf5globalaccel-bin*
  libkf5globalaccel-data* libkf5globalaccel5* libkf5globalaccelprivate5*
  libkf5guiaddons-data* libkf5guiaddons-dev* libkf5guiaddons5*
  libkf5iconthemes-data* libkf5iconthemes-dev* libkf5iconthemes5*
  libkf5itemmodels5* libkf5itemviews-data* libkf5itemviews-dev*
  libkf5itemviews5* libkf5jobwidgets-data* libkf5jobwidgets5* libkf5kiocore5*
  libkf5kiogui5* libkf5kiontlm5* libkf5kiowidgets5* libkf5mime-data*
  libkf5mime-dev* libkf5mime5abi1* libkf5notifications-data*
  libkf5notifications5* libkf5service-bin* libkf5service-data*
  libkf5service-dev* libkf5service5* libkf5solid5* libkf5solid5-data*
  libkf5sonnet-dev* libkf5sonnet-dev-bin* libkf5sonnet5-data*
  libkf5sonnetcore5* libkf5sonnetui5* libkf5textwidgets-data*
  libkf5textwidgets-dev* libkf5textwidgets5* libkf5wallet-bin*
  libkf5wallet-data* libkf5wallet5* libkf5widgetsaddons-data*
  libkf5widgetsaddons-dev* libkf5widgetsaddons5* libkf5windowsystem-data*
  libkf5windowsystem5* libkf5xmlgui-data* libkf5xmlgui5* libkwalletbackend5-5*
  libltdl7* libogg0* libplist3* libpolkit-agent-1-0* libpolkit-gobject-1-0*
  libpolkit-qt5-1-1* libqca-qt5-2* libqt5qmlworkerscript5*
  libqt5quickparticles5* libqt5quickshapes5* libqt5quicktest5*
  libqt5quickwidgets5* libqt5svg5* libqt5texttospeech5* libqt5waylandclient5*
  libqt5x11extras5* libtdb1* libusbmuxd6* libvorbis0a* libvorbisfile3*
  libwayland-cursor0* libxcb-record0* libxcb-res0* libxslt1.1*
  qtdeclarative5-dev* qtdeclarative5-dev-tools* sound-theme-freedesktop*
0 upgraded, 0 newly installed, 111 to remove and 30 not upgraded.
After this operation, 74.4 MB disk space will be freed.
(Reading database ... (Reading database ... 5%(Reading database ... 10%(Reading database ... 15%(Reading database ... 20%(Reading database ... 25%(Reading database ... 30%(Reading database ... 35%(Reading database ... 40%(Reading database ... 45%(Reading database ... 50%(Reading database ... 55%(Reading database ... 60%(Reading database ... 65%(Reading database ... 70%(Reading database ... 75%(Reading database ... 80%(Reading database ... 85%(Reading database ... 90%(Reading database ... 95%(Reading database ... 100%(Reading database ... 28283 files and directories currently installed.)
Removing libkf5contacteditor-dev:armhf (4:22.12.3-1+b1) ...
Removing libkf5contacteditor5:armhf (4:22.12.3-1+b1) ...
Removing akonadi-contacts-data (4:22.12.3-1) ...
Removing libkf5akonadiwidgets5abi1:armhf (4:22.12.3-1+b1) ...
Removing libkf5akonadicore5abi2:armhf (4:22.12.3-1+b1) ...
Removing kio (5.107.0-1) ...
Removing kded5 (5.107.0-1) ...
Removing libkf5wallet-bin (5.107.0-1) ...
Removing libkf5wallet5:armhf (5.107.0-1) ...
Removing libkwalletbackend5-5:armhf (5.107.0-1) ...
Removing libkf5notifications5:armhf (5.107.0-1) ...
Removing libcanberra0:armhf (0.30-11) ...
Removing libasound2:armhf (1.2.10-3) ...
Removing libasound2-data (1.2.10-3) ...
Removing libdbusmenu-qt5-2:armhf (0.9.3+16.04.20160218-2+b1) ...
Removing libgpgmepp6:armhf (1.18.0-4+b1) ...
Removing libgpgme11:armhf (1.18.0-4+b1) ...
Removing libkf5kiowidgets5:armhf (5.107.0-1) ...
Removing libkf5solid5:armhf (5.107.0-1) ...
Removing libimobiledevice6:armhf (1.3.0-7.1) ...
Removing libkf5akonadi-data (4:22.12.3-1) ...
Removing libkf5akonadiprivate5abi2:armhf (4:22.12.3-1+b1) ...
Removing libkf5xmlgui5:armhf (5.107.0-1+b1) ...
Removing libkf5iconthemes-dev (5.107.0-1+b1) ...
Removing libkf5iconthemes5:armhf (5.107.0-1+b1) ...
Removing libkf5doctools5:armhf (5.107.0-1) ...
Removing libkf5archive5:armhf (5.107.0-1) ...
Removing libkf5archive-data (5.107.0-1) ...
Removing libkf5textwidgets-dev (5.107.0-1) ...
Removing libkf5configwidgets-dev (5.107.0-2) ...
Removing libkf5auth-dev:armhf (5.107.0-1) ...
Removing libkf5auth5:armhf (5.107.0-1) ...
Removing libkf5kiogui5:armhf (5.107.0-1) ...
Removing libkf5kiocore5:armhf (5.107.0-1) ...
Removing libkf5auth-dev-bin (5.107.0-1) ...
Removing libkf5textwidgets5:armhf (5.107.0-1) ...
Removing libkf5completion-dev (5.107.0-1) ...
Removing libkf5completion5:armhf (5.107.0-1) ...
Removing libkf5completion-data (5.107.0-1) ...
Removing libkf5configwidgets5:armhf (5.107.0-2) ...
Removing libkf5configwidgets-data (5.107.0-2) ...
Removing libkf5globalaccel-bin (5.107.0-2) ...
Removing libkf5crash5:armhf (5.107.0-1) ...
Removing libkf5service-dev:armhf (5.107.0-1) ...
Removing libkf5service-bin (5.107.0-1) ...
Removing libkf5service5:armhf (5.107.0-1) ...
Removing libkf5dbusaddons-dev (5.107.0-1) ...
Removing libkf5dbusaddons5:armhf (5.107.0-1) ...
Removing libkf5dbusaddons-data (5.107.0-1) ...
Removing libkf5globalaccelprivate5:armhf (5.107.0-2) ...
Removing libkf5globalaccel5:armhf (5.107.0-2) ...
Removing libkf5globalaccel-data (5.107.0-2) ...
Removing libkf5guiaddons-dev (5.107.0-1) ...
Removing libkf5guiaddons5:armhf (5.107.0-1) ...
Removing libkf5guiaddons-data (5.107.0-1) ...
Removing libkf5iconthemes-data (5.107.0-1) ...
Removing libkf5itemmodels5:armhf (5.107.0-1) ...
Removing libkf5itemviews-dev (5.107.0-1) ...
Removing libkf5itemviews5:armhf (5.107.0-1) ...
Removing libkf5itemviews-data (5.107.0-1) ...
Removing libkf5jobwidgets5:armhf (5.107.0-1) ...
Removing libkf5jobwidgets-data (5.107.0-1) ...
Removing libkf5kiontlm5:armhf (5.107.0-1) ...
Removing libkf5mime-dev:armhf (22.12.3-1) ...
Removing libkf5mime5abi1:armhf (22.12.3-1) ...
Removing libkf5mime-data (22.12.3-1) ...
Removing libkf5notifications-data (5.107.0-1) ...
Removing libkf5service-data (5.107.0-1) ...
Removing libkf5solid5-data (5.107.0-1) ...
Removing libkf5sonnet-dev:armhf (5.107.0-1) ...
Removing libkf5sonnet-dev-bin (5.107.0-1) ...
Removing libkf5sonnetui5:armhf (5.107.0-1) ...
Removing libkf5sonnetcore5:armhf (5.107.0-1) ...
Removing libkf5sonnet5-data (5.107.0-1) ...
Removing libkf5textwidgets-data (5.107.0-1) ...
Removing libkf5wallet-data (5.107.0-1) ...
Removing libkf5widgetsaddons-dev (5.107.0-1) ...
Removing libkf5widgetsaddons5:armhf (5.107.0-1) ...
Removing libkf5widgetsaddons-data (5.107.0-1) ...
Removing libkf5windowsystem5:armhf (5.107.0-1) ...
Removing libkf5windowsystem-data (5.107.0-1) ...
Removing libkf5xmlgui-data (5.107.0-1) ...
Removing libltdl7:armhf (2.4.7-7) ...
Removing libvorbisfile3:armhf (1.3.7-1) ...
Removing libvorbis0a:armhf (1.3.7-1) ...
Removing libogg0:armhf (1.3.5-3) ...
Removing libusbmuxd6:armhf (2.0.2-4) ...
Removing libplist3:armhf (2.2.0-6+b2) ...
Removing libqca-qt5-2:armhf (2.3.7-1) ...
Removing qtdeclarative5-dev:armhf (5.15.10+dfsg-2) ...
Removing libqt5qmlworkerscript5:armhf (5.15.10+dfsg-2) ...
Removing libqt5quickparticles5:armhf (5.15.10+dfsg-2) ...
Removing libqt5quickshapes5:armhf (5.15.10+dfsg-2) ...
Removing qtdeclarative5-dev-tools (5.15.10+dfsg-2) ...
Removing libqt5quicktest5:armhf (5.15.10+dfsg-2) ...
Removing libqt5quickwidgets5:armhf (5.15.10+dfsg-2) ...
Removing libqt5svg5:armhf (5.15.10-2) ...
Removing libqt5texttospeech5:armhf (5.15.10-2) ...
Removing libqt5waylandclient5:armhf (5.15.10-2) ...
Removing libqt5x11extras5:armhf (5.15.10-2) ...
Removing libtdb1:armhf (1.4.9-2) ...
Removing libwayland-cursor0:armhf (1.22.0-2.1) ...
Removing libxcb-record0:armhf (1.15-1) ...
Removing libxcb-res0:armhf (1.15-1) ...
Removing libxslt1.1:armhf (1.1.35-1) ...
Removing sound-theme-freedesktop (0.8-3) ...
Removing libkf5authcore5:armhf (5.107.0-1) ...
Removing libkf5auth-data (5.107.0-1) ...
Removing libpolkit-qt5-1-1:armhf (0.114.0-2) ...
Removing libpolkit-agent-1-0:armhf (123-3) ...
Removing libpolkit-gobject-1-0:armhf (123-3) ...
Processing triggers for dbus (1.14.10-3+b1) ...
Processing triggers for libc-bin (2.37-13) ...
(Reading database ... (Reading database ... 5%(Reading database ... 10%(Reading database ... 15%(Reading database ... 20%(Reading database ... 25%(Reading database ... 30%(Reading database ... 35%(Reading database ... 40%(Reading database ... 45%(Reading database ... 50%(Reading database ... 55%(Reading database ... 60%(Reading database ... 65%(Reading database ... 70%(Reading database ... 75%(Reading database ... 80%(Reading database ... 85%(Reading database ... 90%(Reading database ... 95%(Reading database ... 100%(Reading database ... 23485 files and directories currently installed.)
Purging configuration files for libkf5service-data (5.107.0-1) ...
Purging configuration files for akonadi-contacts-data (4:22.12.3-1) ...
Purging configuration files for libkf5notifications5:armhf (5.107.0-1) ...
Purging configuration files for libkf5auth-data (5.107.0-1) ...
Purging configuration files for libkf5archive5:armhf (5.107.0-1) ...
Purging configuration files for libkf5windowsystem-data (5.107.0-1) ...
Purging configuration files for kded5 (5.107.0-1) ...
Purging configuration files for libkf5xmlgui-data (5.107.0-1) ...
Purging configuration files for libkf5xmlgui5:armhf (5.107.0-1+b1) ...
Purging configuration files for libkf5itemmodels5:armhf (5.107.0-1) ...
Purging configuration files for libkf5kiocore5:armhf (5.107.0-1) ...
Purging configuration files for libkf5dbusaddons-data (5.107.0-1) ...
Purging configuration files for libkf5notifications-data (5.107.0-1) ...
Purging configuration files for libkf5crash5:armhf (5.107.0-1) ...
Purging configuration files for libkf5wallet-data (5.107.0-1) ...
Purging configuration files for libkf5jobwidgets-data (5.107.0-1) ...
Purging configuration files for kio (5.107.0-1) ...
Purging configuration files for libkf5sonnet5-data (5.107.0-1) ...
Purging configuration files for libkf5iconthemes-data (5.107.0-1) ...
Purging configuration files for libkf5solid5:armhf (5.107.0-1) ...
