[2024-01-08T10:38:44+00:00] apt-get install libtermpaint-dev abi-compliance-checker
Reading package lists...
Building dependency tree...
Reading state information...
abi-compliance-checker is already the newest version (2.3-2).
The following packages were automatically installed and are no longer required:
  libtermkey-dev libtermkey1 libunibilium4
Use 'apt autoremove' to remove them.
The following additional packages will be installed:
  libjs-jquery libjs-sphinxdoc libjs-underscore libtermpaint0a
Recommended packages:
  javascript-common
The following NEW packages will be installed:
  libjs-jquery libjs-sphinxdoc libjs-underscore libtermpaint-dev
  libtermpaint0a
0 upgraded, 5 newly installed, 0 to remove and 18 not upgraded.
Need to get 778 kB of archives.
After this operation, 2550 kB of additional disk space will be used.
Get:1 http://deb.debian.org/debian unstable/main armhf libjs-jquery all 3.6.1+dfsg+~3.5.14-1 [326 kB]
Get:2 http://deb.debian.org/debian unstable/main armhf libjs-underscore all 1.13.4~dfsg+~1.11.4-3 [116 kB]
Get:3 http://deb.debian.org/debian unstable/main armhf libjs-sphinxdoc all 7.2.6-3 [149 kB]
Get:4 http://deb.debian.org/debian unstable/main armhf libtermpaint0a armhf 0.3.0-3 [79.6 kB]
Get:5 http://deb.debian.org/debian unstable/main armhf libtermpaint-dev armhf 0.3.0-3 [107 kB]
debconf: delaying package configuration, since apt-utils is not installed
Fetched 778 kB in 0s (3673 kB/s)
Selecting previously unselected package libjs-jquery.
(Reading database ... (Reading database ... 5%(Reading database ... 10%(Reading database ... 15%(Reading database ... 20%(Reading database ... 25%(Reading database ... 30%(Reading database ... 35%(Reading database ... 40%(Reading database ... 45%(Reading database ... 50%(Reading database ... 55%(Reading database ... 60%(Reading database ... 65%(Reading database ... 70%(Reading database ... 75%(Reading database ... 80%(Reading database ... 85%(Reading database ... 90%(Reading database ... 95%(Reading database ... 100%(Reading database ... 17057 files and directories currently installed.)
Preparing to unpack .../libjs-jquery_3.6.1+dfsg+~3.5.14-1_all.deb ...
Unpacking libjs-jquery (3.6.1+dfsg+~3.5.14-1) ...
Selecting previously unselected package libjs-underscore.
Preparing to unpack .../libjs-underscore_1.13.4~dfsg+~1.11.4-3_all.deb ...
Unpacking libjs-underscore (1.13.4~dfsg+~1.11.4-3) ...
Selecting previously unselected package libjs-sphinxdoc.
Preparing to unpack .../libjs-sphinxdoc_7.2.6-3_all.deb ...
Unpacking libjs-sphinxdoc (7.2.6-3) ...
Selecting previously unselected package libtermpaint0a:armhf.
Preparing to unpack .../libtermpaint0a_0.3.0-3_armhf.deb ...
Unpacking libtermpaint0a:armhf (0.3.0-3) ...
Selecting previously unselected package libtermpaint-dev:armhf.
Preparing to unpack .../libtermpaint-dev_0.3.0-3_armhf.deb ...
Unpacking libtermpaint-dev:armhf (0.3.0-3) ...
Setting up libtermpaint0a:armhf (0.3.0-3) ...
Setting up libjs-jquery (3.6.1+dfsg+~3.5.14-1) ...
Setting up libjs-underscore (1.13.4~dfsg+~1.11.4-3) ...
Setting up libjs-sphinxdoc (7.2.6-3) ...
Setting up libtermpaint-dev:armhf (0.3.0-3) ...
Processing triggers for libc-bin (2.37-13) ...
Reading package lists...
Building dependency tree...
Reading state information...
The following packages will be REMOVED:
  libtermkey-dev* libtermkey1* libunibilium4*
0 upgraded, 0 newly installed, 3 to remove and 18 not upgraded.
After this operation, 161 kB disk space will be freed.
(Reading database ... (Reading database ... 5%(Reading database ... 10%(Reading database ... 15%(Reading database ... 20%(Reading database ... 25%(Reading database ... 30%(Reading database ... 35%(Reading database ... 40%(Reading database ... 45%(Reading database ... 50%(Reading database ... 55%(Reading database ... 60%(Reading database ... 65%(Reading database ... 70%(Reading database ... 75%(Reading database ... 80%(Reading database ... 85%(Reading database ... 90%(Reading database ... 95%(Reading database ... 100%(Reading database ... 17181 files and directories currently installed.)
Removing libtermkey-dev:armhf (0.22-1) ...
Removing libtermkey1:armhf (0.22-1) ...
Removing libunibilium4:armhf (2.1.0-3) ...
Processing triggers for libc-bin (2.37-13) ...
