Temporary header file '/tmp/eJCwGJg9Wu/dump1.h' with the following content will be compiled to create GCC translation unit dump:

  // add defines
  #define __STDC_VERSION__ 201710L
#define _GXX_NULLPTR_T
#define CLUTTER_ENABLE_COMPOSITOR_API 1
#define _REGEX_NELTS(n)
#define _Atomic
#define PACKED
#ifdef __cplusplus
// C17 compat layer
#define _Alignof(type) alignof(type)
#endif
#define getaddrinfo_a(a,b,c,d) 
#define PD
#define FLEXT_SYS 2
#define FLEXT_SHARED
#define FLEXT_USE_CMEM
#define FLEXT_THREADS 1

  // add includes
  #include "/usr/include/flext/flprefix.h"
  #include "/usr/include/flext/fldefs_hdr.h"
  #include "/usr/include/flext/fldefs.h"
  #include "/usr/include/pthread.h"
  #include "/usr/include/flext/flbase.h"
  #include "/usr/include/flext/flclass.h"
  #include "/usr/include/flext/flcontainers.h"
  #include "/usr/include/flext/fldefs_attradd.h"
  #include "/usr/include/flext/fldefs_attrcb.h"
  #include "/usr/include/flext/fldefs_attrvar.h"
  #include "/usr/include/flext/fldefs_methadd.h"
  #include "/usr/include/flext/fldefs_methbind.h"
  #include "/usr/include/flext/fldefs_methcall.h"
  #include "/usr/include/flext/fldefs_methcb.h"
  #include "/usr/include/flext/fldefs_meththr.h"
  #include "/usr/include/flext/fldefs_setup.h"
  #include "/usr/include/flext/fldsp.h"
  #include "/usr/include/flext/flext.h"
  #include "/usr/include/flext/flfeatures.h"
  #include "/usr/include/flext/flinternal.h"
  #include "/usr/include/flext/flmap.h"
  #include "/usr/include/flext/flmspbuffer.h"
  #include "/usr/include/flext/flpopns.h"
  #include "/usr/include/flext/flpushns.h"
  #include "/usr/include/flext/flsndobj.h"
  #include "/usr/include/flext/flstdc.h"
  #include "/usr/include/flext/flstk.h"
  #include "/usr/include/flext/flsupport.h"
  #include "/usr/include/flext/lockfree/atomic_int.hpp"
  #include "/usr/include/flext/lockfree/atomic_ptr.hpp"
  #include "/usr/include/flext/lockfree/branch_hints.hpp"
  #include "/usr/include/flext/lockfree/cas.hpp"
  #include "/usr/include/flext/lockfree/fifo.hpp"
  #include "/usr/include/flext/lockfree/prefix.hpp"
  #include "/usr/include/flext/lockfree/stack.hpp"

  // add namespaces
  namespace lockfree{typedef int tmp_add_type_1;}
  lockfree::tmp_add_type_1 tmp_add_func_1(){return 0;};
  namespace stk{typedef int tmp_add_type_2;}
  stk::tmp_add_type_2 tmp_add_func_2(){return 0;};

  // add classes
  Fifo* tmp_add_class_0;
  FifoCell* tmp_add_class_1;
  Lifo* tmp_add_class_2;
  LifoCell* tmp_add_class_3;
  SndIO* tmp_add_class_4;
  SndObj* tmp_add_class_5;
  TableAnyMap* tmp_add_class_6;
  _24Bit* tmp_add_class_7;
  _G_fpos64_t* tmp_add_class_8;
  _G_fpos_t* tmp_add_class_9;
  _IO_cookie_io_functions_t* tmp_add_class_10;
  _atom* tmp_add_class_11;
  _gobj* tmp_add_class_12;
  _gpointer* tmp_add_class_13;
  _gstub* tmp_add_class_14;
  _pdinstance* tmp_add_class_15;
  _resample* tmp_add_class_16;
  _sampleint_union* tmp_add_class_17;
  _scalar* tmp_add_class_18;
  _signal* tmp_add_class_19;
  _symbol* tmp_add_class_20;
  _text* tmp_add_class_21;
  flext_base_shared* tmp_add_class_22;
  flext_dsp_shared* tmp_add_class_23;
  flext_hdr* tmp_add_class_24;
  flext_obj_shared* tmp_add_class_25;
  flext_root_shared* tmp_add_class_26;
  flext_shared* tmp_add_class_27;
  flext_sndobj* tmp_add_class_28;
  flext_stk* tmp_add_class_29;
  msg_link* tmp_add_class_30;
  word* tmp_add_class_31;

The GCC parameters:
  gcc -fdump-lang-raw -fkeep-inline-functions -c -x c++ -fpermissive -w "/tmp/eJCwGJg9Wu/dump1.h"  -I/usr/include/stk -I/usr/include/pd -I/usr/include/linux/iio

