[2024-01-07T12:59:08+00:00] apt-get install libkcapi-dev abi-compliance-checker
Reading package lists...
Building dependency tree...
Reading state information...
abi-compliance-checker is already the newest version (2.3-2).
The following packages were automatically installed and are no longer required:
  libkaz-dev libkaz1
Use 'apt autoremove' to remove them.
The following NEW packages will be installed:
  libkcapi-dev libkcapi1
0 upgraded, 2 newly installed, 0 to remove and 31 not upgraded.
Need to get 180 kB of archives.
After this operation, 444 kB of additional disk space will be used.
Get:1 http://deb.debian.org/debian unstable/main armhf libkcapi1 armhf 1.4.0-1 [27.6 kB]
Get:2 http://deb.debian.org/debian unstable/main armhf libkcapi-dev armhf 1.4.0-1 [152 kB]
debconf: delaying package configuration, since apt-utils is not installed
Fetched 180 kB in 0s (1111 kB/s)
Selecting previously unselected package libkcapi1:armhf.
(Reading database ... (Reading database ... 5%(Reading database ... 10%(Reading database ... 15%(Reading database ... 20%(Reading database ... 25%(Reading database ... 30%(Reading database ... 35%(Reading database ... 40%(Reading database ... 45%(Reading database ... 50%(Reading database ... 55%(Reading database ... 60%(Reading database ... 65%(Reading database ... 70%(Reading database ... 75%(Reading database ... 80%(Reading database ... 85%(Reading database ... 90%(Reading database ... 95%(Reading database ... 100%(Reading database ... 15671 files and directories currently installed.)
Preparing to unpack .../libkcapi1_1.4.0-1_armhf.deb ...
Unpacking libkcapi1:armhf (1.4.0-1) ...
Selecting previously unselected package libkcapi-dev:armhf.
Preparing to unpack .../libkcapi-dev_1.4.0-1_armhf.deb ...
Unpacking libkcapi-dev:armhf (1.4.0-1) ...
Setting up libkcapi1:armhf (1.4.0-1) ...
Setting up libkcapi-dev:armhf (1.4.0-1) ...
Processing triggers for libc-bin (2.37-13) ...
Reading package lists...
Building dependency tree...
Reading state information...
The following packages will be REMOVED:
  libkaz-dev* libkaz1*
0 upgraded, 0 newly installed, 2 to remove and 31 not upgraded.
After this operation, 140 kB disk space will be freed.
(Reading database ... (Reading database ... 5%(Reading database ... 10%(Reading database ... 15%(Reading database ... 20%(Reading database ... 25%(Reading database ... 30%(Reading database ... 35%(Reading database ... 40%(Reading database ... 45%(Reading database ... 50%(Reading database ... 55%(Reading database ... 60%(Reading database ... 65%(Reading database ... 70%(Reading database ... 75%(Reading database ... 80%(Reading database ... 85%(Reading database ... 90%(Reading database ... 95%(Reading database ... 100%(Reading database ... 15798 files and directories currently installed.)
Removing libkaz-dev (1.21-2+b2) ...
Removing libkaz1 (1.21-2+b2) ...
Processing triggers for libc-bin (2.37-13) ...
