[2024-01-08T13:12:37+00:00] apt-get install libvoikko-dev abi-compliance-checker
Reading package lists...
Building dependency tree...
Reading state information...
abi-compliance-checker is already the newest version (2.3-2).
The following packages were automatically installed and are no longer required:
  libvo-amrwbenc-dev libvo-amrwbenc0
Use 'apt autoremove' to remove them.
The following additional packages will be installed:
  libarchive13 libhfstospell11 libvoikko1
Suggested packages:
  lrzip voikko-fi
The following NEW packages will be installed:
  libarchive13 libhfstospell11 libvoikko-dev libvoikko1
0 upgraded, 4 newly installed, 0 to remove and 16 not upgraded.
Need to get 648 kB of archives.
After this operation, 1800 kB of additional disk space will be used.
Get:1 http://deb.debian.org/debian unstable/main armhf libarchive13 armhf 3.7.2-1 [301 kB]
Get:2 http://deb.debian.org/debian unstable/main armhf libhfstospell11 armhf 0.5.3-2 [71.7 kB]
Get:3 http://deb.debian.org/debian unstable/main armhf libvoikko1 armhf 4.3.2-1 [99.0 kB]
Get:4 http://deb.debian.org/debian unstable/main armhf libvoikko-dev armhf 4.3.2-1 [176 kB]
debconf: delaying package configuration, since apt-utils is not installed
Fetched 648 kB in 0s (4337 kB/s)
Selecting previously unselected package libarchive13:armhf.
(Reading database ... (Reading database ... 5%(Reading database ... 10%(Reading database ... 15%(Reading database ... 20%(Reading database ... 25%(Reading database ... 30%(Reading database ... 35%(Reading database ... 40%(Reading database ... 45%(Reading database ... 50%(Reading database ... 55%(Reading database ... 60%(Reading database ... 65%(Reading database ... 70%(Reading database ... 75%(Reading database ... 80%(Reading database ... 85%(Reading database ... 90%(Reading database ... 95%(Reading database ... 100%(Reading database ... 17064 files and directories currently installed.)
Preparing to unpack .../libarchive13_3.7.2-1_armhf.deb ...
Unpacking libarchive13:armhf (3.7.2-1) ...
Selecting previously unselected package libhfstospell11:armhf.
Preparing to unpack .../libhfstospell11_0.5.3-2_armhf.deb ...
Unpacking libhfstospell11:armhf (0.5.3-2) ...
Selecting previously unselected package libvoikko1:armhf.
Preparing to unpack .../libvoikko1_4.3.2-1_armhf.deb ...
Unpacking libvoikko1:armhf (4.3.2-1) ...
Selecting previously unselected package libvoikko-dev.
Preparing to unpack .../libvoikko-dev_4.3.2-1_armhf.deb ...
Unpacking libvoikko-dev (4.3.2-1) ...
Setting up libarchive13:armhf (3.7.2-1) ...
Setting up libhfstospell11:armhf (0.5.3-2) ...
Setting up libvoikko1:armhf (4.3.2-1) ...
Setting up libvoikko-dev (4.3.2-1) ...
Processing triggers for libc-bin (2.37-13) ...
Reading package lists...
Building dependency tree...
Reading state information...
The following packages will be REMOVED:
  libvo-amrwbenc-dev* libvo-amrwbenc0*
0 upgraded, 0 newly installed, 2 to remove and 16 not upgraded.
After this operation, 255 kB disk space will be freed.
(Reading database ... (Reading database ... 5%(Reading database ... 10%(Reading database ... 15%(Reading database ... 20%(Reading database ... 25%(Reading database ... 30%(Reading database ... 35%(Reading database ... 40%(Reading database ... 45%(Reading database ... 50%(Reading database ... 55%(Reading database ... 60%(Reading database ... 65%(Reading database ... 70%(Reading database ... 75%(Reading database ... 80%(Reading database ... 85%(Reading database ... 90%(Reading database ... 95%(Reading database ... 100%(Reading database ... 17104 files and directories currently installed.)
Removing libvo-amrwbenc-dev:armhf (0.1.3-2) ...
Removing libvo-amrwbenc0:armhf (0.1.3-2) ...
Processing triggers for libc-bin (2.37-13) ...
