Temporary header file '/tmp/5dne08UpsM/dump1.h' with the following content will be compiled to create GCC translation unit dump:

  // add defines
  #define __STDC_VERSION__ 201710L
#define _FILE_OFFSET_BITS 64
#define _GXX_NULLPTR_T
#define CLUTTER_ENABLE_COMPOSITOR_API 1
#define _REGEX_NELTS(n)
#define _Atomic
#define PACKED
#ifdef __cplusplus
// C17 compat layer
#define _Alignof(type) alignof(type)
#endif
#define getaddrinfo_a(a,b,c,d) 
typedef float _Float32;
typedef long double _Float64;
typedef double _Float32x;
#define TYPE float
#define ATL_rone 1.0f
#define ATL_rnone -1.0f
#define ATL_rzero 0.0f
#define ATL_Cachelen 32

  // add includes
  #include "/usr/include/arm-linux-gnueabihf/clapack.h"
  #include "/usr/include/arm-linux-gnueabihf/atlas/atlas_cr2.h"
  #include "/usr/include/arm-linux-gnueabihf/atlas/atlas_buildinfo.h"
  #include "/usr/include/arm-linux-gnueabihf/atlas/atlas_cGetNB_gelqf.h"
  #include "/usr/include/arm-linux-gnueabihf/atlas/atlas_cGetNB_geqlf.h"
  #include "/usr/include/arm-linux-gnueabihf/atlas/atlas_cGetNB_geqrf.h"
  #include "/usr/include/arm-linux-gnueabihf/atlas/atlas_cGetNB_gerqf.h"
  #include "/usr/include/arm-linux-gnueabihf/atlas/atlas_cNCmm.h"
  #include "/usr/include/arm-linux-gnueabihf/atlas/atlas_cacheedge.h"
  #include "/usr/include/arm-linux-gnueabihf/atlas/atlas_cmvn.h"
  #include "/usr/include/arm-linux-gnueabihf/atlas/atlas_cmvnkernels.h"
  #include "/usr/include/arm-linux-gnueabihf/atlas/atlas_cmvt.h"
  #include "/usr/include/arm-linux-gnueabihf/atlas/atlas_cmvtkernels.h"
  #include "/usr/include/arm-linux-gnueabihf/atlas/atlas_cr1.h"
  #include "/usr/include/arm-linux-gnueabihf/atlas/atlas_cr1kernels.h"
  #include "/usr/include/arm-linux-gnueabihf/atlas/atlas_cr2kernels.h"
  #include "/usr/include/arm-linux-gnueabihf/atlas/atlas_csNKB.h"
  #include "/usr/include/arm-linux-gnueabihf/atlas/atlas_csysinfo.h"
  #include "/usr/include/arm-linux-gnueabihf/atlas/atlas_ctGetNB_gelqf.h"
  #include "/usr/include/arm-linux-gnueabihf/atlas/atlas_ctGetNB_geqlf.h"
  #include "/usr/include/arm-linux-gnueabihf/atlas/atlas_ctGetNB_geqrf.h"
  #include "/usr/include/arm-linux-gnueabihf/atlas/atlas_ctGetNB_gerqf.h"
  #include "/usr/include/arm-linux-gnueabihf/atlas/atlas_ctrsmXover.h"
  #include "/usr/include/arm-linux-gnueabihf/atlas/atlas_dGetNB_gelqf.h"
  #include "/usr/include/arm-linux-gnueabihf/atlas/atlas_dGetNB_geqlf.h"
  #include "/usr/include/arm-linux-gnueabihf/atlas/atlas_dGetNB_geqrf.h"
  #include "/usr/include/arm-linux-gnueabihf/atlas/atlas_dGetNB_gerqf.h"
  #include "/usr/include/arm-linux-gnueabihf/atlas/atlas_dNCmm.h"
  #include "/usr/include/arm-linux-gnueabihf/atlas/atlas_dlamch.h"
  #include "/usr/include/arm-linux-gnueabihf/atlas/atlas_dmvnkernels.h"
  #include "/usr/include/arm-linux-gnueabihf/atlas/atlas_dmvtkernels.h"
  #include "/usr/include/arm-linux-gnueabihf/atlas/atlas_dr1kernels.h"
  #include "/usr/include/arm-linux-gnueabihf/atlas/atlas_dr2kernels.h"
  #include "/usr/include/arm-linux-gnueabihf/atlas/atlas_dsysinfo.h"
  #include "/usr/include/arm-linux-gnueabihf/atlas/atlas_dtGetNB_gelqf.h"
  #include "/usr/include/arm-linux-gnueabihf/atlas/atlas_dtGetNB_geqlf.h"
  #include "/usr/include/arm-linux-gnueabihf/atlas/atlas_dtGetNB_geqrf.h"
  #include "/usr/include/arm-linux-gnueabihf/atlas/atlas_dtGetNB_gerqf.h"
  #include "/usr/include/arm-linux-gnueabihf/atlas/atlas_dtrsmXover.h"
  #include "/usr/include/arm-linux-gnueabihf/atlas/atlas_sGetNB_gelqf.h"
  #include "/usr/include/arm-linux-gnueabihf/atlas/atlas_sGetNB_geqlf.h"
  #include "/usr/include/arm-linux-gnueabihf/atlas/atlas_sGetNB_geqrf.h"
  #include "/usr/include/arm-linux-gnueabihf/atlas/atlas_sGetNB_gerqf.h"
  #include "/usr/include/arm-linux-gnueabihf/atlas/atlas_sNCmm.h"
  #include "/usr/include/arm-linux-gnueabihf/atlas/atlas_slamch.h"
  #include "/usr/include/arm-linux-gnueabihf/atlas/atlas_smvnkernels.h"
  #include "/usr/include/arm-linux-gnueabihf/atlas/atlas_smvtkernels.h"
  #include "/usr/include/arm-linux-gnueabihf/atlas/atlas_sr1kernels.h"
  #include "/usr/include/arm-linux-gnueabihf/atlas/atlas_sr2kernels.h"
  #include "/usr/include/arm-linux-gnueabihf/atlas/atlas_ssysinfo.h"
  #include "/usr/include/arm-linux-gnueabihf/atlas/atlas_stGetNB_gelqf.h"
  #include "/usr/include/arm-linux-gnueabihf/atlas/atlas_stGetNB_geqlf.h"
  #include "/usr/include/arm-linux-gnueabihf/atlas/atlas_stGetNB_geqrf.h"
  #include "/usr/include/arm-linux-gnueabihf/atlas/atlas_stGetNB_gerqf.h"
  #include "/usr/include/arm-linux-gnueabihf/atlas/atlas_strsmXover.h"
  #include "/usr/include/arm-linux-gnueabihf/atlas/atlas_taffinity.h"
  #include "/usr/include/arm-linux-gnueabihf/atlas/atlas_tcacheedge.h"
  #include "/usr/include/arm-linux-gnueabihf/atlas/atlas_trsmNB.h"
  #include "/usr/include/arm-linux-gnueabihf/atlas/atlas_tsumm.h"
  #include "/usr/include/arm-linux-gnueabihf/atlas/atlas_type.h"
  #include "/usr/include/arm-linux-gnueabihf/atlas/atlas_zGetNB_gelqf.h"
  #include "/usr/include/arm-linux-gnueabihf/atlas/atlas_zGetNB_geqlf.h"
  #include "/usr/include/arm-linux-gnueabihf/atlas/atlas_zGetNB_geqrf.h"
  #include "/usr/include/arm-linux-gnueabihf/atlas/atlas_zGetNB_gerqf.h"
  #include "/usr/include/arm-linux-gnueabihf/atlas/atlas_zNCmm.h"
  #include "/usr/include/arm-linux-gnueabihf/atlas/atlas_zdNKB.h"
  #include "/usr/include/arm-linux-gnueabihf/atlas/atlas_zmvnkernels.h"
  #include "/usr/include/arm-linux-gnueabihf/atlas/atlas_zmvtkernels.h"
  #include "/usr/include/arm-linux-gnueabihf/atlas/atlas_zr1kernels.h"
  #include "/usr/include/arm-linux-gnueabihf/atlas/atlas_zr2kernels.h"
  #include "/usr/include/arm-linux-gnueabihf/atlas/atlas_zsysinfo.h"
  #include "/usr/include/arm-linux-gnueabihf/atlas/atlas_ztGetNB_gelqf.h"
  #include "/usr/include/arm-linux-gnueabihf/atlas/atlas_ztGetNB_geqlf.h"
  #include "/usr/include/arm-linux-gnueabihf/atlas/atlas_ztGetNB_geqrf.h"
  #include "/usr/include/arm-linux-gnueabihf/atlas/atlas_ztGetNB_gerqf.h"
  #include "/usr/include/arm-linux-gnueabihf/atlas/atlas_ztrsmXover.h"
  #include "/usr/include/arm-linux-gnueabihf/atlas/cXover.h"
  #include "/usr/include/arm-linux-gnueabihf/atlas/cmm.h"
  #include "/usr/include/arm-linux-gnueabihf/atlas/dXover.h"
  #include "/usr/include/arm-linux-gnueabihf/atlas/dmm.h"
  #include "/usr/include/arm-linux-gnueabihf/atlas/sXover.h"
  #include "/usr/include/arm-linux-gnueabihf/atlas/smm.h"
  #include "/usr/include/arm-linux-gnueabihf/atlas/zXover.h"
  #include "/usr/include/arm-linux-gnueabihf/atlas/zmm.h"
  #include "/usr/include/arm-linux-gnueabihf/cblas-atlas.h"

The GCC parameters:
  gcc -fdump-lang-raw -fkeep-inline-functions -c -U__cplusplus -D_Bool="bool" -x c++ -fpermissive -w "/tmp/5dne08UpsM/dump1.h"

