Temporary header file '/tmp/G5u8Mp7UAF/dump1.h' with the following content will be compiled to create GCC translation unit dump:

  // add defines
  #define __STDC_VERSION__ 201710L
#define _FILE_OFFSET_BITS 64
#define _GXX_NULLPTR_T
#define CLUTTER_ENABLE_COMPOSITOR_API 1
#define _REGEX_NELTS(n)
#define _Atomic
#define PACKED
#ifdef __cplusplus
// C17 compat layer
#define _Alignof(type) alignof(type)
#endif
#define getaddrinfo_a(a,b,c,d)

  // add includes
  #include "/usr/include/phonon4qt6/phonon/abstractaudiooutput.h"
  #include "/usr/include/phonon4qt6/phonon/abstractmediastream.h"
  #include "/usr/include/phonon4qt6/phonon/abstractvideooutput.h"
  #include "/usr/include/phonon4qt6/phonon/addoninterface.h"
  #include "/usr/include/phonon4qt6/phonon/audiodataoutput.h"
  #include "/usr/include/phonon4qt6/phonon/audiodataoutputinterface.h"
  #include "/usr/include/phonon4qt6/phonon/audiooutput.h"
  #include "/usr/include/phonon4qt6/phonon/audiooutputinterface.h"
  #include "/usr/include/phonon4qt6/phonon/backendcapabilities.h"
  #include "/usr/include/phonon4qt6/phonon/backendinterface.h"
  #include "/usr/include/phonon4qt6/phonon/effect.h"
  #include "/usr/include/phonon4qt6/phonon/effectinterface.h"
  #include "/usr/include/phonon4qt6/phonon/effectparameter.h"
  #include "/usr/include/phonon4qt6/phonon/effectwidget.h"
  #include "/usr/include/phonon4qt6/phonon/globalconfig.h"
  #include "/usr/include/phonon4qt6/phonon/globaldescriptioncontainer.h"
  #include "/usr/include/phonon4qt6/phonon/mediacontroller.h"
  #include "/usr/include/phonon4qt6/phonon/medianode.h"
  #include "/usr/include/phonon4qt6/phonon/mediaobject.h"
  #include "/usr/include/phonon4qt6/phonon/mediaobjectinterface.h"
  #include "/usr/include/phonon4qt6/phonon/mediasource.h"
  #include "/usr/include/phonon4qt6/phonon/mrl.h"
  #include "/usr/include/phonon4qt6/phonon/objectdescription.h"
  #include "/usr/include/phonon4qt6/phonon/objectdescriptionmodel.h"
  #include "/usr/include/phonon4qt6/phonon/path.h"
  #include "/usr/include/phonon4qt6/phonon/phonon_export.h"
  #include "/usr/include/phonon4qt6/phonon/phonon_version.h"
  #include "/usr/include/phonon4qt6/phonon/phonondefs.h"
  #include "/usr/include/phonon4qt6/phonon/phononnamespace.h"
  #include "/usr/include/phonon4qt6/phonon/platformplugin.h"
  #include "/usr/include/phonon4qt6/phonon/pulsesupport.h"
  #include "/usr/include/phonon4qt6/phonon/seekslider.h"
  #include "/usr/include/phonon4qt6/phonon/streaminterface.h"
  #include "/usr/include/phonon4qt6/phonon/videoplayer.h"
  #include "/usr/include/phonon4qt6/phonon/videowidget.h"
  #include "/usr/include/phonon4qt6/phonon/videowidgetinterface.h"
  #include "/usr/include/phonon4qt6/phonon/volumefadereffect.h"
  #include "/usr/include/phonon4qt6/phonon/volumefaderinterface.h"
  #include "/usr/include/phonon4qt6/phonon/volumeslider.h"

  // add namespaces
  namespace Phonon{typedef int tmp_add_type_1;}
  Phonon::tmp_add_type_1 tmp_add_func_1(){return 0;};
  namespace Phonon{namespace BackendCapabilities{typedef int tmp_add_type_2;}}
  Phonon::BackendCapabilities::tmp_add_type_2 tmp_add_func_2(){return 0;};
  namespace Phonon{namespace Capture{typedef int tmp_add_type_3;}}
  Phonon::Capture::tmp_add_type_3 tmp_add_func_3(){return 0;};
  namespace Phonon{namespace Experimental{typedef int tmp_add_type_4;}}
  Phonon::Experimental::tmp_add_type_4 tmp_add_func_4(){return 0;};
  namespace QAlgorithmsPrivate{typedef int tmp_add_type_5;}
  QAlgorithmsPrivate::tmp_add_type_5 tmp_add_func_5(){return 0;};
  namespace QColorConstants{typedef int tmp_add_type_6;}
  QColorConstants::tmp_add_type_6 tmp_add_func_6(){return 0;};
  namespace QColorConstants{namespace Svg{typedef int tmp_add_type_7;}}
  QColorConstants::Svg::tmp_add_type_7 tmp_add_func_7(){return 0;};
  namespace QContainerInfo{typedef int tmp_add_type_8;}
  QContainerInfo::tmp_add_type_8 tmp_add_func_8(){return 0;};
  namespace QHashPrivate{typedef int tmp_add_type_9;}
  QHashPrivate::tmp_add_type_9 tmp_add_func_9(){return 0;};
  namespace QHashPrivate{namespace GrowthPolicy{typedef int tmp_add_type_10;}}
  QHashPrivate::GrowthPolicy::tmp_add_type_10 tmp_add_func_10(){return 0;};
  namespace Qt{typedef int tmp_add_type_11;}
  Qt::tmp_add_type_11 tmp_add_func_11(){return 0;};
  namespace Qt{namespace Literals{typedef int tmp_add_type_12;}}
  Qt::Literals::tmp_add_type_12 tmp_add_func_12(){return 0;};
  namespace Qt{namespace Literals{namespace StringLiterals{typedef int tmp_add_type_13;}}}
  Qt::Literals::StringLiterals::tmp_add_type_13 tmp_add_func_13(){return 0;};
  namespace QtGlobalStatic{typedef int tmp_add_type_14;}
  QtGlobalStatic::tmp_add_type_14 tmp_add_func_14(){return 0;};
  namespace QtLiterals{typedef int tmp_add_type_15;}
  QtLiterals::tmp_add_type_15 tmp_add_func_15(){return 0;};
  namespace QtMetaContainerPrivate{typedef int tmp_add_type_16;}
  QtMetaContainerPrivate::tmp_add_type_16 tmp_add_func_16(){return 0;};
  namespace QtMetaTypePrivate{typedef int tmp_add_type_17;}
  QtMetaTypePrivate::tmp_add_type_17 tmp_add_func_17(){return 0;};
  namespace QtPrivate{typedef int tmp_add_type_18;}
  QtPrivate::tmp_add_type_18 tmp_add_func_18(){return 0;};
  namespace QtPrivate{namespace detail{typedef int tmp_add_type_19;}}
  QtPrivate::detail::tmp_add_type_19 tmp_add_func_19(){return 0;};
  namespace QtPrivate{namespace SwapExceptionTester{typedef int tmp_add_type_20;}}
  QtPrivate::SwapExceptionTester::tmp_add_type_20 tmp_add_func_20(){return 0;};
  namespace QtPrivate{namespace Tok{typedef int tmp_add_type_21;}}
  QtPrivate::Tok::tmp_add_type_21 tmp_add_func_21(){return 0;};
  namespace QtSharedPointer{typedef int tmp_add_type_22;}
  QtSharedPointer::tmp_add_type_22 tmp_add_func_22(){return 0;};
  namespace QTypeTraits{typedef int tmp_add_type_23;}
  QTypeTraits::tmp_add_type_23 tmp_add_func_23(){return 0;};
  namespace QTypeTraits{namespace detail{typedef int tmp_add_type_24;}}
  QTypeTraits::detail::tmp_add_type_24 tmp_add_func_24(){return 0;};
  namespace q_has_char8_t{typedef int tmp_add_type_25;}
  q_has_char8_t::tmp_add_type_25 tmp_add_func_25(){return 0;};
  namespace q_no_char8_t{typedef int tmp_add_type_26;}
  q_no_char8_t::tmp_add_type_26 tmp_add_func_26(){return 0;};

  // add classes
  QAbstractItemModel* tmp_add_class_0;
  QAbstractListModel* tmp_add_class_1;
  QAbstractTableModel* tmp_add_class_2;
  QAction* tmp_add_class_3;
  QAdoptSharedDataTag* tmp_add_class_4;
  QAnyStringView* tmp_add_class_5;
  QArrayData* tmp_add_class_6;
  QAtomicInt* tmp_add_class_7;
  QBindingStatus* tmp_add_class_8;
  QBindingStorage* tmp_add_class_9;
  QBitmap* tmp_add_class_10;
  QBrush* tmp_add_class_11;
  QBrushData* tmp_add_class_12;
  QBrushDataPointerDeleter* tmp_add_class_13;
  QByteArray* tmp_add_class_14;
  QByteArrayView* tmp_add_class_15;
  QChar* tmp_add_class_16;
  QColor* tmp_add_class_17;
  QConicalGradient* tmp_add_class_18;
  QContiguousCacheData* tmp_add_class_19;
  QCursor* tmp_add_class_20;
  QDataStream* tmp_add_class_21;
  QDebug* tmp_add_class_22;
  QDebugStateSaver* tmp_add_class_23;
  QFlag* tmp_add_class_24;
  QFont* tmp_add_class_25;
  QFontInfo* tmp_add_class_26;
  QFontMetrics* tmp_add_class_27;
  QFontMetricsF* tmp_add_class_28;
  QGenericArgument* tmp_add_class_29;
  QGenericReturnArgument* tmp_add_class_30;
  QGradient* tmp_add_class_31;
  QHashDummyValue* tmp_add_class_32;
  QHashSeed* tmp_add_class_33;
  QIODeviceBase* tmp_add_class_34;
  QIcon* tmp_add_class_35;
  QImage* tmp_add_class_36;
  QIncompatibleFlag* tmp_add_class_37;
  QInternal* tmp_add_class_38;
  QKeyCombination* tmp_add_class_39;
  QKeySequence* tmp_add_class_40;
  QLatin1Char* tmp_add_class_41;
  QLatin1String* tmp_add_class_42;
  QLine* tmp_add_class_43;
  QLineF* tmp_add_class_44;
  QLinearGradient* tmp_add_class_45;
  QMargins* tmp_add_class_46;
  QMarginsF* tmp_add_class_47;
  QMessageLogContext* tmp_add_class_48;
  QMessageLogger* tmp_add_class_49;
  QMetaAssociation* tmp_add_class_50;
  QMetaContainer* tmp_add_class_51;
  QMetaObject* tmp_add_class_52;
  QMetaSequence* tmp_add_class_53;
  QMetaType* tmp_add_class_54;
  QMethodRawArguments* tmp_add_class_55;
  QModelIndex* tmp_add_class_56;
  QModelRoleData* tmp_add_class_57;
  QModelRoleDataSpan* tmp_add_class_58;
  QNoDebug* tmp_add_class_59;
  QObject* tmp_add_class_60;
  QObjectData* tmp_add_class_61;
  QPaintDevice* tmp_add_class_62;
  QPalette* tmp_add_class_63;
  QPartialOrdering* tmp_add_class_64;
  QPersistentModelIndex* tmp_add_class_65;
  QPixelFormat* tmp_add_class_66;
  QPixmap* tmp_add_class_67;
  QPoint* tmp_add_class_68;
  QPointF* tmp_add_class_69;
  QPolygon* tmp_add_class_70;
  QPolygonF* tmp_add_class_71;
  QRadialGradient* tmp_add_class_72;
  QRect* tmp_add_class_73;
  QRectF* tmp_add_class_74;
  QRegion* tmp_add_class_75;
  QRgba64* tmp_add_class_76;
  QScopedPointerPodDeleter* tmp_add_class_77;
  QSharedData* tmp_add_class_78;
  QSignalBlocker* tmp_add_class_79;
  QSize* tmp_add_class_80;
  QSizeF* tmp_add_class_81;
  QSizePolicy* tmp_add_class_82;
  QString* tmp_add_class_83;
  QStringConverter* tmp_add_class_84;
  QStringConverterBase* tmp_add_class_85;
  QStringMatcher* tmp_add_class_86;
  QStringTokenizerBaseBase* tmp_add_class_87;
  QStringView* tmp_add_class_88;
  QSysInfo* tmp_add_class_89;
  QTextStream* tmp_add_class_90;
  QTextStreamManipulator* tmp_add_class_91;
  QTransform* tmp_add_class_92;
  QUrl* tmp_add_class_93;
  QVLABaseBase* tmp_add_class_94;
  QVariant* tmp_add_class_95;
  QVariantConstPointer* tmp_add_class_96;
  QWidget* tmp_add_class_97;
  QWidgetData* tmp_add_class_98;
  _G_fpos64_t* tmp_add_class_99;
  _G_fpos_t* tmp_add_class_100;
  _IO_cookie_io_functions_t* tmp_add_class_101;

The GCC parameters:
  gcc -fdump-lang-raw -fkeep-inline-functions -c -x c++ -fpermissive -w "/tmp/G5u8Mp7UAF/dump1.h"  -I/usr/include/phonon4qt6 -I/usr/include/arm-linux-gnueabihf/qt6 -I/usr/include/arm-linux-gnueabihf/qt6/QtWidgets -I/usr/include/arm-linux-gnueabihf/qt6/QtCore

