Using GCC 13 (arm-linux-gnueabihf, target: arm)
WARNING: May not work properly with GCC 4.8.[0-2], 6.* and higher due to bug #78040 in GCC. Please try other GCC versions with the help of --gcc-path=PATH option or create ABI dumps by ABI Dumper tool instead to avoid using GCC. Test selected GCC version first by -test option.
Checking header(s) time_t ...
Temporary header file '/tmp/JZtv5s6yv_/dump1.h' with the following content will be compiled to create GCC translation unit dump:

  // add defines
  #define __STDC_VERSION__ 201710L
#define _TIME_BITS 64
#define _FILE_OFFSET_BITS 64
#define _GXX_NULLPTR_T
#define CLUTTER_ENABLE_COMPOSITOR_API 1
#define _REGEX_NELTS(n)
#define _Atomic
#define PACKED
#ifdef __cplusplus
// C17 compat layer
#define _Alignof(type) alignof(type)
#endif
#define getaddrinfo_a(a,b,c,d)

  // add includes
  #include "/usr/include/ignition/common4/gz/common/graphics/Export.hh"
  #include "/usr/include/ignition/common4/gz/common/graphics/Types.hh"
  #include "/usr/include/ignition/common4/gz/common/graphics/detail/Export.hh"
  #include "/usr/include/ignition/common4/gz/common/graphics.hh"
  #include "/usr/include/ignition/common4/ignition/common/graphics/Export.hh"
  #include "/usr/include/ignition/common4/ignition/common/graphics/Types.hh"
  #include "/usr/include/ignition/common4/ignition/common/graphics.hh"

  // add namespaces
  namespace gz{typedef int tmp_add_type_1;}
  gz::tmp_add_type_1 tmp_add_func_1(){return 0;};
  namespace ignition{typedef int tmp_add_type_2;}
  ignition::tmp_add_type_2 tmp_add_func_2(){return 0;};
  namespace ignition{namespace common{typedef int tmp_add_type_3;}}
  ignition::common::tmp_add_type_3 tmp_add_func_3(){return 0;};
  namespace ignition{namespace math{typedef int tmp_add_type_4;}}
  ignition::math::tmp_add_type_4 tmp_add_func_4(){return 0;};
  namespace ignition{namespace math{namespace v6{typedef int tmp_add_type_5;}}}
  ignition::math::v6::tmp_add_type_5 tmp_add_func_5(){return 0;};
  namespace ignition{namespace utils{typedef int tmp_add_type_6;}}
  ignition::utils::tmp_add_type_6 tmp_add_func_6(){return 0;};
  namespace ignition{namespace utils{namespace detail{typedef int tmp_add_type_7;}}}
  ignition::utils::detail::tmp_add_type_7 tmp_add_func_7(){return 0;};

  // add classes
  _G_fpos64_t* tmp_add_class_0;
  _G_fpos_t* tmp_add_class_1;
  _IO_cookie_io_functions_t* tmp_add_class_2;

The GCC parameters:
  gcc -fdump-lang-raw -fkeep-inline-functions -c -x c++ -fpermissive -w "/tmp/JZtv5s6yv_/dump1.h"  -I/usr/include/ignition/utils1 -I/usr/include/ignition/math6 -I/usr/include/ignition/common4

In file included from /usr/include/ignition/common4/gz/common/graphics.hh:50,
                 from /usr/include/ignition/common4/gz/common/graphics.hh:50,
                 from /usr/include/ignition/common4/gz/common/graphics.hh:50,
                 from /usr/include/ignition/common4/gz/common/graphics.hh:50,
                 from /usr/include/ignition/common4/gz/common/graphics.hh:50,
                 from /usr/include/ignition/common4/gz/common/graphics.hh:50,
                 from /usr/include/ignition/common4/gz/common/graphics.hh:50,
                 from /usr/include/ignition/common4/gz/common/graphics.hh:50,
                 from /usr/include/ignition/common4/gz/common/graphics.hh:50,
                 from /usr/include/ignition/common4/gz/common/graphics.hh:50,
                 from /usr/include/ignition/common4/gz/common/graphics.hh:50,
                 from /usr/include/ignition/common4/gz/common/graphics.hh:50,
                 from /usr/include/ignition/common4/gz/common/graphics.hh:50,
                 from /usr/include/ignition/common4/gz/common/graphics.hh:50,
                 from /usr/include/ignition/common4/gz/common/graphics.hh:50,
                 from /usr/include/ignition/common4/gz/common/graphics.hh:50,
                 from /usr/include/ignition/common4/gz/common/graphics.hh:50,
                 from /usr/include/ignition/common4/gz/common/graphics.hh:50,
                 from /usr/include/ignition/common4/gz/common/graphics.hh:50,
                 from /usr/include/ignition/common4/gz/common/graphics.hh:50,
                 from /usr/include/ignition/common4/gz/common/graphics.hh:50,
                 from /usr/include/ignition/common4/gz/common/graphics.hh:50,
                 from /usr/include/ignition/common4/gz/common/graphics.hh:50,
                 from /usr/include/ignition/common4/gz/common/graphics.hh:50,
                 from /usr/include/ignition/common4/gz/common/graphics.hh:50,
                 from /usr/include/ignition/common4/gz/common/graphics.hh:50,
                 from /usr/include/ignition/common4/gz/common/graphics.hh:50,
                 from /usr/include/ignition/common4/gz/common/graphics.hh:50,
                 from /usr/include/ignition/common4/gz/common/graphics.hh:50,
                 from /usr/include/ignition/common4/gz/common/graphics.hh:50,
                 from /usr/include/ignition/common4/gz/common/graphics.hh:50,
                 from /usr/include/ignition/common4/gz/common/graphics.hh:50,
                 from /usr/include/ignition/common4/gz/common/graphics.hh:50,
                 from /usr/include/ignition/common4/gz/common/graphics.hh:50,
                 from /usr/include/ignition/common4/gz/common/graphics.hh:50,
                 from /usr/include/ignition/common4/gz/common/graphics.hh:50,
                 from /usr/include/ignition/common4/gz/common/graphics.hh:50,
                 from /usr/include/ignition/common4/gz/common/graphics.hh:50,
                 from /usr/include/ignition/common4/gz/common/graphics.hh:50,
                 from /usr/include/ignition/common4/gz/common/graphics.hh:50,
                 from /usr/include/ignition/common4/gz/common/graphics.hh:50,
                 from /usr/include/ignition/common4/gz/common/graphics.hh:50,
                 from /usr/include/ignition/common4/gz/common/graphics.hh:50,
                 from /usr/include/ignition/common4/gz/common/graphics.hh:50,
                 from /usr/include/ignition/common4/gz/common/graphics.hh:50,
                 from /usr/include/ignition/common4/gz/common/graphics.hh:50,
                 from /usr/include/ignition/common4/gz/common/graphics.hh:50,
                 from /usr/include/ignition/common4/gz/common/graphics.hh:50,
                 from /usr/include/ignition/common4/gz/common/graphics.hh:50,
                 from /usr/include/ignition/common4/gz/common/graphics.hh:50,
                 from /usr/include/ignition/common4/gz/common/graphics.hh:50,
                 from /usr/include/ignition/common4/gz/common/graphics.hh:50,
                 from /usr/include/ignition/common4/gz/common/graphics.hh:50,
                 from /usr/include/ignition/common4/gz/common/graphics.hh:50,
                 from /usr/include/ignition/common4/gz/common/graphics.hh:50,
                 from /usr/include/ignition/common4/gz/common/graphics.hh:50,
                 from /usr/include/ignition/common4/gz/common/graphics.hh:50,
                 from /usr/include/ignition/common4/gz/common/graphics.hh:50,
                 from /usr/include/ignition/common4/gz/common/graphics.hh:50,
                 from /usr/include/ignition/common4/gz/common/graphics.hh:50,
                 from /usr/include/ignition/common4/gz/common/graphics.hh:50,
                 from /usr/include/ignition/common4/gz/common/graphics.hh:50,
                 from /usr/include/ignition/common4/gz/common/graphics.hh:50,
                 from /usr/include/ignition/common4/gz/common/graphics.hh:50,
                 from /usr/include/ignition/common4/gz/common/graphics.hh:50,
                 from /usr/include/ignition/common4/gz/common/graphics.hh:50,
                 from /usr/include/ignition/common4/gz/common/graphics.hh:50,
                 from /usr/include/ignition/common4/gz/common/graphics.hh:50,
                 from /usr/include/ignition/common4/gz/common/graphics.hh:50,
                 from /usr/include/ignition/common4/gz/common/graphics.hh:50,
                 from /usr/include/ignition/common4/gz/common/graphics.hh:50,
                 from /usr/include/ignition/common4/gz/common/graphics.hh:50,
                 from /usr/include/ignition/common4/gz/common/graphics.hh:50,
                 from /usr/include/ignition/common4/gz/common/graphics.hh:50,
                 from /usr/include/ignition/common4/gz/common/graphics.hh:50,
                 from /usr/include/ignition/common4/gz/common/graphics.hh:50,
                 from /usr/include/ignition/common4/gz/common/graphics.hh:50,
                 from /usr/include/ignition/common4/gz/common/graphics.hh:50,
                 from /usr/include/ignition/common4/gz/common/graphics.hh:50,
                 from /usr/include/ignition/common4/gz/common/graphics.hh:50,
                 from /usr/include/ignition/common4/gz/common/graphics.hh:50,
                 from /usr/include/ignition/common4/gz/common/graphics.hh:50,
                 from /usr/include/ignition/common4/gz/common/graphics.hh:50,
                 from /usr/include/ignition/common4/gz/common/graphics.hh:50,
                 from /usr/include/ignition/common4/gz/common/graphics.hh:50,
                 from /usr/include/ignition/common4/gz/common/graphics.hh:50,
                 from /usr/include/ignition/common4/gz/common/graphics.hh:50,
                 from /usr/include/ignition/common4/gz/common/graphics.hh:50,
                 from /usr/include/ignition/common4/gz/common/graphics.hh:50,
                 from /usr/include/ignition/common4/gz/common/graphics.hh:50,
                 from /usr/include/ignition/common4/gz/common/graphics.hh:50,
                 from /usr/include/ignition/common4/gz/common/graphics.hh:50,
                 from /usr/include/ignition/common4/gz/common/graphics.hh:50,
                 from /usr/include/ignition/common4/gz/common/graphics.hh:50,
                 from /usr/include/ignition/common4/gz/common/graphics.hh:50,
                 from /usr/include/ignition/common4/gz/common/graphics.hh:50,
                 from /usr/include/ignition/common4/gz/common/graphics.hh:50,
                 from /usr/include/ignition/common4/gz/common/graphics.hh:50,
                 from /usr/include/ignition/common4/gz/common/graphics.hh:50,
                 from /usr/include/ignition/common4/gz/common/graphics.hh:50,
                 from /usr/include/ignition/common4/gz/common/graphics.hh:50,
                 from /usr/include/ignition/common4/gz/common/graphics.hh:50,
                 from /usr/include/ignition/common4/gz/common/graphics.hh:50,
                 from /usr/include/ignition/common4/gz/common/graphics.hh:50,
                 from /usr/include/ignition/common4/gz/common/graphics.hh:50,
                 from /usr/include/ignition/common4/gz/common/graphics.hh:50,
                 from /usr/include/ignition/common4/gz/common/graphics.hh:50,
                 from /usr/include/ignition/common4/gz/common/graphics.hh:50,
                 from /usr/include/ignition/common4/gz/common/graphics.hh:50,
                 from /usr/include/ignition/common4/gz/common/graphics.hh:50,
                 from /usr/include/ignition/common4/gz/common/graphics.hh:50,
                 from /usr/include/ignition/common4/gz/common/graphics.hh:50,
                 from /usr/include/ignition/common4/gz/common/graphics.hh:50,
                 from /usr/include/ignition/common4/gz/common/graphics.hh:50,
                 from /usr/include/ignition/common4/gz/common/graphics.hh:50,
                 from /usr/include/ignition/common4/gz/common/graphics.hh:50,
                 from /usr/include/ignition/common4/gz/common/graphics.hh:50,
                 from /usr/include/ignition/common4/gz/common/graphics.hh:50,
                 from /usr/include/ignition/common4/gz/common/graphics.hh:50,
                 from /usr/include/ignition/common4/gz/common/graphics.hh:50,
                 from /usr/include/ignition/common4/gz/common/graphics.hh:50,
                 from /usr/include/ignition/common4/gz/common/graphics.hh:50,
                 from /usr/include/ignition/common4/gz/common/graphics.hh:50,
                 from /usr/include/ignition/common4/gz/common/graphics.hh:50,
                 from /usr/include/ignition/common4/gz/common/graphics.hh:50,
                 from /usr/include/ignition/common4/gz/common/graphics.hh:50,
                 from /usr/include/ignition/common4/gz/common/graphics.hh:50,
                 from /usr/include/ignition/common4/gz/common/graphics.hh:50,
                 from /usr/include/ignition/common4/gz/common/graphics.hh:50,
                 from /usr/include/ignition/common4/gz/common/graphics.hh:50,
                 from /usr/include/ignition/common4/gz/common/graphics.hh:50,
                 from /usr/include/ignition/common4/gz/common/graphics.hh:50,
                 from /usr/include/ignition/common4/gz/common/graphics.hh:50,
                 from /usr/include/ignition/common4/gz/common/graphics.hh:50,
                 from /usr/include/ignition/common4/gz/common/graphics.hh:50,
                 from /usr/include/ignition/common4/gz/common/graphics.hh:50,
                 from /usr/include/ignition/common4/gz/common/graphics.hh:50,
                 from /usr/include/ignition/common4/gz/common/graphics.hh:50,
                 from /usr/include/ignition/common4/gz/common/graphics.hh:50,
                 from /usr/include/ignition/common4/gz/common/graphics.hh:50,
                 from /usr/include/ignition/common4/gz/common/graphics.hh:50,
                 from /usr/include/ignition/common4/gz/common/graphics.hh:50,
                 from /usr/include/ignition/common4/gz/common/graphics.hh:50,
                 from /usr/include/ignition/common4/gz/common/graphics.hh:50,
                 from /usr/include/ignition/common4/gz/common/graphics.hh:50,
                 from /usr/include/ignition/common4/gz/common/graphics.hh:50,
                 from /usr/include/ignition/common4/gz/common/graphics.hh:50,
                 from /usr/include/ignition/common4/gz/common/graphics.hh:50,
                 from /usr/include/ignition/common4/gz/common/graphics.hh:50,
                 from /usr/include/ignition/common4/gz/common/graphics.hh:50,
                 from /usr/include/ignition/common4/gz/common/graphics.hh:50,
                 from /usr/include/ignition/common4/gz/common/graphics.hh:50,
                 from /usr/include/ignition/common4/gz/common/graphics.hh:50,
                 from /usr/include/ignition/common4/gz/common/graphics.hh:50,
                 from /usr/include/ignition/common4/gz/common/graphics.hh:50,
                 from /usr/include/ignition/common4/gz/common/graphics.hh:50,
                 from /usr/include/ignition/common4/gz/common/graphics.hh:50,
                 from /usr/include/ignition/common4/gz/common/graphics.hh:50,
                 from /usr/include/ignition/common4/gz/common/graphics.hh:50,
                 from /usr/include/ignition/common4/gz/common/graphics.hh:50,
                 from /usr/include/ignition/common4/gz/common/graphics.hh:50,
                 from /usr/include/ignition/common4/gz/common/graphics.hh:50,
                 from /usr/include/ignition/common4/gz/common/graphics.hh:50,
                 from /usr/include/ignition/common4/gz/common/graphics.hh:50,
                 from /usr/include/ignition/common4/gz/common/graphics.hh:50,
                 from /usr/include/ignition/common4/gz/common/graphics.hh:50,
                 from /usr/include/ignition/common4/gz/common/graphics.hh:50,
                 from /usr/include/ignition/common4/gz/common/graphics.hh:50,
                 from /usr/include/ignition/common4/gz/common/graphics.hh:50,
                 from /usr/include/ignition/common4/gz/common/graphics.hh:50,
                 from /usr/include/ignition/common4/gz/common/graphics.hh:50,
                 from /usr/include/ignition/common4/gz/common/graphics.hh:50,
                 from /usr/include/ignition/common4/gz/common/graphics.hh:50,
                 from /usr/include/ignition/common4/gz/common/graphics.hh:50,
                 from /usr/include/ignition/common4/gz/common/graphics.hh:50,
                 from /usr/include/ignition/common4/gz/common/graphics.hh:50,
                 from /usr/include/ignition/common4/gz/common/graphics.hh:50,
                 from /usr/include/ignition/common4/gz/common/graphics.hh:50,
                 from /usr/include/ignition/common4/gz/common/graphics.hh:50,
                 from /usr/include/ignition/common4/gz/common/graphics.hh:50,
                 from /usr/include/ignition/common4/gz/common/graphics.hh:50,
                 from /usr/include/ignition/common4/gz/common/graphics.hh:50,
                 from /usr/include/ignition/common4/gz/common/graphics.hh:50,
                 from /usr/include/ignition/common4/gz/common/graphics.hh:50,
                 from /usr/include/ignition/common4/gz/common/graphics.hh:50,
                 from /usr/include/ignition/common4/gz/common/graphics.hh:50,
                 from /usr/include/ignition/common4/gz/common/graphics.hh:50,
                 from /usr/include/ignition/common4/gz/common/graphics.hh:50,
                 from /usr/include/ignition/common4/gz/common/graphics.hh:50,
                 from /usr/include/ignition/common4/gz/common/graphics.hh:50,
                 from /usr/include/ignition/common4/gz/common/graphics.hh:50,
                 from /usr/include/ignition/common4/gz/common/graphics.hh:50,
                 from /usr/include/ignition/common4/gz/common/graphics.hh:50,
                 from /usr/include/ignition/common4/gz/common/graphics.hh:50,
                 from /usr/include/ignition/common4/gz/common/graphics.hh:50,
                 from /usr/include/ignition/common4/gz/common/graphics.hh:50,
                 from /usr/include/ignition/common4/gz/common/graphics.hh:50,
                 from /usr/include/ignition/common4/gz/common/graphics.hh:50,
                 from /tmp/JZtv5s6yv_/dump1.h:21:
/usr/include/ignition/common4/gz/common/graphics.hh:22:31: error: #include nested depth 200 exceeds maximum of 200 (use -fmax-include-depth=DEPTH to increase the maximum)
   22 | #include <gz/common/config.hh>
      |                               ^
/usr/include/ignition/common4/gz/common/graphics.hh:23:39: error: #include nested depth 200 exceeds maximum of 200 (use -fmax-include-depth=DEPTH to increase the maximum)
   23 | #include <gz/common/graphics/Types.hh>
      |                                       ^
/usr/include/ignition/common4/gz/common/graphics.hh:24:34: error: #include nested depth 200 exceeds maximum of 200 (use -fmax-include-depth=DEPTH to increase the maximum)
   24 | #include <gz/common/Animation.hh>
      |                                  ^
/usr/include/ignition/common4/gz/common/graphics.hh:25:34: error: #include nested depth 200 exceeds maximum of 200 (use -fmax-include-depth=DEPTH to increase the maximum)
   25 | #include <gz/common/BVHLoader.hh>
      |                                  ^
/usr/include/ignition/common4/gz/common/graphics.hh:26:40: error: #include nested depth 200 exceeds maximum of 200 (use -fmax-include-depth=DEPTH to increase the maximum)
   26 | #include <gz/common/ColladaExporter.hh>
      |                                        ^
/usr/include/ignition/common4/gz/common/graphics.hh:27:38: error: #include nested depth 200 exceeds maximum of 200 (use -fmax-include-depth=DEPTH to increase the maximum)
   27 | #include <gz/common/ColladaLoader.hh>
      |                                      ^
/usr/include/ignition/common4/gz/common/graphics.hh:28:28: error: #include nested depth 200 exceeds maximum of 200 (use -fmax-include-depth=DEPTH to increase the maximum)
   28 | #include <gz/common/Dem.hh>
      |                            ^
/usr/include/ignition/common4/gz/common/graphics.hh:29:37: error: #include nested depth 200 exceeds maximum of 200 (use -fmax-include-depth=DEPTH to increase the maximum)
   29 | #include <gz/common/GTSMeshUtils.hh>
      |                                     ^
/usr/include/ignition/common4/gz/common/graphics.hh:30:38: error: #include nested depth 200 exceeds maximum of 200 (use -fmax-include-depth=DEPTH to increase the maximum)
   30 | #include <gz/common/HeightmapData.hh>
      |                                      ^
/usr/include/ignition/common4/gz/common/graphics.hh:31:30: error: #include nested depth 200 exceeds maximum of 200 (use -fmax-include-depth=DEPTH to increase the maximum)
   31 | #include <gz/common/Image.hh>
      |                              ^
/usr/include/ignition/common4/gz/common/graphics.hh:32:39: error: #include nested depth 200 exceeds maximum of 200 (use -fmax-include-depth=DEPTH to increase the maximum)
   32 | #include <gz/common/ImageHeightmap.hh>
      |                                       ^
/usr/include/ignition/common4/gz/common/graphics.hh:33:33: error: #include nested depth 200 exceeds maximum of 200 (use -fmax-include-depth=DEPTH to increase the maximum)
   33 | #include <gz/common/KeyFrame.hh>
      |                                 ^
/usr/include/ignition/common4/gz/common/graphics.hh:34:33: error: #include nested depth 200 exceeds maximum of 200 (use -fmax-include-depth=DEPTH to increase the maximum)
   34 | #include <gz/common/Material.hh>
      |                                 ^
/usr/include/ignition/common4/gz/common/graphics.hh:35:29: error: #include nested depth 200 exceeds maximum of 200 (use -fmax-include-depth=DEPTH to increase the maximum)
   35 | #include <gz/common/Mesh.hh>
      |                             ^
/usr/include/ignition/common4/gz/common/graphics.hh:36:32: error: #include nested depth 200 exceeds maximum of 200 (use -fmax-include-depth=DEPTH to increase the maximum)
   36 | #include <gz/common/MeshCSG.hh>
      |                                ^
/usr/include/ignition/common4/gz/common/graphics.hh:37:37: error: #include nested depth 200 exceeds maximum of 200 (use -fmax-include-depth=DEPTH to increase the maximum)
   37 | #include <gz/common/MeshExporter.hh>
      |                                     ^
/usr/include/ignition/common4/gz/common/graphics.hh:38:35: error: #include nested depth 200 exceeds maximum of 200 (use -fmax-include-depth=DEPTH to increase the maximum)
   38 | #include <gz/common/MeshLoader.hh>
      |                                   ^
/usr/include/ignition/common4/gz/common/graphics.hh:39:36: error: #include nested depth 200 exceeds maximum of 200 (use -fmax-include-depth=DEPTH to increase the maximum)
   39 | #include <gz/common/MeshManager.hh>
      |                                    ^
/usr/include/ignition/common4/gz/common/graphics.hh:40:38: error: #include nested depth 200 exceeds maximum of 200 (use -fmax-include-depth=DEPTH to increase the maximum)
   40 | #include <gz/common/NodeAnimation.hh>
      |                                      ^
/usr/include/ignition/common4/gz/common/graphics.hh:41:38: error: #include nested depth 200 exceeds maximum of 200 (use -fmax-include-depth=DEPTH to increase the maximum)
   41 | #include <gz/common/NodeTransform.hh>
      |                                      ^
/usr/include/ignition/common4/gz/common/graphics.hh:42:34: error: #include nested depth 200 exceeds maximum of 200 (use -fmax-include-depth=DEPTH to increase the maximum)
   42 | #include <gz/common/OBJLoader.hh>
      |                                  ^
/usr/include/ignition/common4/gz/common/graphics.hh:43:28: error: #include nested depth 200 exceeds maximum of 200 (use -fmax-include-depth=DEPTH to increase the maximum)
   43 | #include <gz/common/Pbr.hh>
      |                            ^
/usr/include/ignition/common4/gz/common/graphics.hh:44:34: error: #include nested depth 200 exceeds maximum of 200 (use -fmax-include-depth=DEPTH to increase the maximum)
   44 | #include <gz/common/STLLoader.hh>
      |                                  ^
/usr/include/ignition/common4/gz/common/graphics.hh:45:34: error: #include nested depth 200 exceeds maximum of 200 (use -fmax-include-depth=DEPTH to increase the maximum)
   45 | #include <gz/common/SVGLoader.hh>
      |                                  ^
/usr/include/ignition/common4/gz/common/graphics.hh:46:33: error: #include nested depth 200 exceeds maximum of 200 (use -fmax-include-depth=DEPTH to increase the maximum)
   46 | #include <gz/common/Skeleton.hh>
      |                                 ^
/usr/include/ignition/common4/gz/common/graphics.hh:47:42: error: #include nested depth 200 exceeds maximum of 200 (use -fmax-include-depth=DEPTH to increase the maximum)
   47 | #include <gz/common/SkeletonAnimation.hh>
      |                                          ^
/usr/include/ignition/common4/gz/common/graphics.hh:48:37: error: #include nested depth 200 exceeds maximum of 200 (use -fmax-include-depth=DEPTH to increase the maximum)
   48 | #include <gz/common/SkeletonNode.hh>
      |                                     ^
/usr/include/ignition/common4/gz/common/graphics.hh:49:32: error: #include nested depth 200 exceeds maximum of 200 (use -fmax-include-depth=DEPTH to increase the maximum)
   49 | #include <gz/common/SubMesh.hh>
      |                                ^
/usr/include/ignition/common4/gz/common/graphics.hh:50:33: error: #include nested depth 200 exceeds maximum of 200 (use -fmax-include-depth=DEPTH to increase the maximum)
   50 | #include <gz/common/graphics.hh>
      |                                 ^
In file included from /usr/include/ignition/common4/gz/common/graphics.hh:50,
                 from /usr/include/ignition/common4/gz/common/graphics.hh:50,
                 from /usr/include/ignition/common4/gz/common/graphics.hh:50,
                 from /usr/include/ignition/common4/gz/common/graphics.hh:50,
                 from /usr/include/ignition/common4/gz/common/graphics.hh:50,
                 from /usr/include/ignition/common4/gz/common/graphics.hh:50,
                 from /usr/include/ignition/common4/gz/common/graphics.hh:50,
                 from /usr/include/ignition/common4/gz/common/graphics.hh:50,
                 from /usr/include/ignition/common4/gz/common/graphics.hh:50,
                 from /usr/include/ignition/common4/gz/common/graphics.hh:50,
                 from /usr/include/ignition/common4/gz/common/graphics.hh:50,
                 from /usr/include/ignition/common4/gz/common/graphics.hh:50,
                 from /usr/include/ignition/common4/gz/common/graphics.hh:50,
                 from /usr/include/ignition/common4/gz/common/graphics.hh:50,
                 from /usr/include/ignition/common4/gz/common/graphics.hh:50,
                 from /usr/include/ignition/common4/gz/common/graphics.hh:50,
                 from /usr/include/ignition/common4/gz/common/graphics.hh:50,
                 from /usr/include/ignition/common4/gz/common/graphics.hh:50,
                 from /usr/include/ignition/common4/gz/common/graphics.hh:50,
                 from /usr/include/ignition/common4/gz/common/graphics.hh:50,
                 from /usr/include/ignition/common4/gz/common/graphics.hh:50,
                 from /usr/include/ignition/common4/gz/common/graphics.hh:50,
                 from /usr/include/ignition/common4/gz/common/graphics.hh:50,
                 from /usr/include/ignition/common4/gz/common/graphics.hh:50,
                 from /usr/include/ignition/common4/gz/common/graphics.hh:50,
                 from /usr/include/ignition/common4/gz/common/graphics.hh:50,
                 from /usr/include/ignition/common4/gz/common/graphics.hh:50,
                 from /usr/include/ignition/common4/gz/common/graphics.hh:50,
                 from /usr/include/ignition/common4/gz/common/graphics.hh:50,
                 from /usr/include/ignition/common4/gz/common/graphics.hh:50,
                 from /usr/include/ignition/common4/gz/common/graphics.hh:50,
                 from /usr/include/ignition/common4/gz/common/graphics.hh:50,
                 from /usr/include/ignition/common4/gz/common/graphics.hh:50,
                 from /usr/include/ignition/common4/gz/common/graphics.hh:50,
                 from /usr/include/ignition/common4/gz/common/graphics.hh:50,
                 from /usr/include/ignition/common4/gz/common/graphics.hh:50,
                 from /usr/include/ignition/common4/gz/common/graphics.hh:50,
                 from /usr/include/ignition/common4/gz/common/graphics.hh:50,
                 from /usr/include/ignition/common4/gz/common/graphics.hh:50,
                 from /usr/include/ignition/common4/gz/common/graphics.hh:50,
                 from /usr/include/ignition/common4/gz/common/graphics.hh:50,
                 from /usr/include/ignition/common4/gz/common/graphics.hh:50,
                 from /usr/include/ignition/common4/gz/common/graphics.hh:50,
                 from /usr/include/ignition/common4/gz/common/graphics.hh:50,
                 from /usr/include/ignition/common4/gz/common/graphics.hh:50,
                 from /usr/include/ignition/common4/gz/common/graphics.hh:50,
                 from /usr/include/ignition/common4/gz/common/graphics.hh:50,
                 from /usr/include/ignition/common4/gz/common/graphics.hh:50,
                 from /usr/include/ignition/common4/gz/common/graphics.hh:50,
                 from /usr/include/ignition/common4/gz/common/graphics.hh:50,
                 from /usr/include/ignition/common4/gz/common/graphics.hh:50,
                 from /usr/include/ignition/common4/gz/common/graphics.hh:50,
                 from /usr/include/ignition/common4/gz/common/graphics.hh:50,
                 from /usr/include/ignition/common4/gz/common/graphics.hh:50,
                 from /usr/include/ignition/common4/gz/common/graphics.hh:50,
                 from /usr/include/ignition/common4/gz/common/graphics.hh:50,
                 from /usr/include/ignition/common4/gz/common/graphics.hh:50,
                 from /usr/include/ignition/common4/gz/common/graphics.hh:50,
                 from /usr/include/ignition/common4/gz/common/graphics.hh:50,
                 from /usr/include/ignition/common4/gz/common/graphics.hh:50,
                 from /usr/include/ignition/common4/gz/common/graphics.hh:50,
                 from /usr/include/ignition/common4/gz/common/graphics.hh:50,
                 from /usr/include/ignition/common4/gz/common/graphics.hh:50,
                 from /usr/include/ignition/common4/gz/common/graphics.hh:50,
                 from /usr/include/ignition/common4/gz/common/graphics.hh:50,
                 from /usr/include/ignition/common4/gz/common/graphics.hh:50,
                 from /usr/include/ignition/common4/gz/common/graphics.hh:50,
                 from /usr/include/ignition/common4/gz/common/graphics.hh:50,
                 from /usr/include/ignition/common4/gz/common/graphics.hh:50,
                 from /usr/include/ignition/common4/gz/common/graphics.hh:50,
                 from /usr/include/ignition/common4/gz/common/graphics.hh:50,
                 from /usr/include/ignition/common4/gz/common/graphics.hh:50,
                 from /usr/include/ignition/common4/gz/common/graphics.hh:50,
                 from /usr/include/ignition/common4/gz/common/graphics.hh:50,
                 from /usr/include/ignition/common4/gz/common/graphics.hh:50,
                 from /usr/include/ignition/common4/gz/common/graphics.hh:50,
                 from /usr/include/ignition/common4/gz/common/graphics.hh:50,
                 from /usr/include/ignition/common4/gz/common/graphics.hh:50,
                 from /usr/include/ignition/common4/gz/common/graphics.hh:50,
                 from /usr/include/ignition/common4/gz/common/graphics.hh:50,
                 from /usr/include/ignition/common4/gz/common/graphics.hh:50,
                 from /usr/include/ignition/common4/gz/common/graphics.hh:50,
                 from /usr/include/ignition/common4/gz/common/graphics.hh:50,
                 from /usr/include/ignition/common4/gz/common/graphics.hh:50,
                 from /usr/include/ignition/common4/gz/common/graphics.hh:50,
                 from /usr/include/ignition/common4/gz/common/graphics.hh:50,
                 from /usr/include/ignition/common4/gz/common/graphics.hh:50,
                 from /usr/include/ignition/common4/gz/common/graphics.hh:50,
                 from /usr/include/ignition/common4/gz/common/graphics.hh:50,
                 from /usr/include/ignition/common4/gz/common/graphics.hh:50,
                 from /usr/include/ignition/common4/gz/common/graphics.hh:50,
                 from /usr/include/ignition/common4/gz/common/graphics.hh:50,
                 from /usr/include/ignition/common4/gz/common/graphics.hh:50,
                 from /usr/include/ignition/common4/gz/common/graphics.hh:50,
                 from /usr/include/ignition/common4/gz/common/graphics.hh:50,
                 from /usr/include/ignition/common4/gz/common/graphics.hh:50,
                 from /usr/include/ignition/common4/gz/common/graphics.hh:50,
                 from /usr/include/ignition/common4/gz/common/graphics.hh:50,
                 from /usr/include/ignition/common4/gz/common/graphics.hh:50,
                 from /usr/include/ignition/common4/gz/common/graphics.hh:50,
                 from /usr/include/ignition/common4/gz/common/graphics.hh:50,
                 from /usr/include/ignition/common4/gz/common/graphics.hh:50,
                 from /usr/include/ignition/common4/gz/common/graphics.hh:50,
                 from /usr/include/ignition/common4/gz/common/graphics.hh:50,
                 from /usr/include/ignition/common4/gz/common/graphics.hh:50,
                 from /usr/include/ignition/common4/gz/common/graphics.hh:50,
                 from /usr/include/ignition/common4/gz/common/graphics.hh:50,
                 from /usr/include/ignition/common4/gz/common/graphics.hh:50,
                 from /usr/include/ignition/common4/gz/common/graphics.hh:50,
                 from /usr/include/ignition/common4/gz/common/graphics.hh:50,
                 from /usr/include/ignition/common4/gz/common/graphics.hh:50,
                 from /usr/include/ignition/common4/gz/common/graphics.hh:50,
                 from /usr/include/ignition/common4/gz/common/graphics.hh:50,
                 from /usr/include/ignition/common4/gz/common/graphics.hh:50,
                 from /usr/include/ignition/common4/gz/common/graphics.hh:50,
                 from /usr/include/ignition/common4/gz/common/graphics.hh:50,
                 from /usr/include/ignition/common4/gz/common/graphics.hh:50,
                 from /usr/include/ignition/common4/gz/common/graphics.hh:50,
                 from /usr/include/ignition/common4/gz/common/graphics.hh:50,
                 from /usr/include/ignition/common4/gz/common/graphics.hh:50,
                 from /usr/include/ignition/common4/gz/common/graphics.hh:50,
                 from /usr/include/ignition/common4/gz/common/graphics.hh:50,
                 from /usr/include/ignition/common4/gz/common/graphics.hh:50,
                 from /usr/include/ignition/common4/gz/common/graphics.hh:50,
                 from /usr/include/ignition/common4/gz/common/graphics.hh:50,
                 from /usr/include/ignition/common4/gz/common/graphics.hh:50,
                 from /usr/include/ignition/common4/gz/common/graphics.hh:50,
                 from /usr/include/ignition/common4/gz/common/graphics.hh:50,
                 from /usr/include/ignition/common4/gz/common/graphics.hh:50,
                 from /usr/include/ignition/common4/gz/common/graphics.hh:50,
                 from /usr/include/ignition/common4/gz/common/graphics.hh:50,
                 from /usr/include/ignition/common4/gz/common/graphics.hh:50,
                 from /usr/include/ignition/common4/gz/common/graphics.hh:50,
                 from /usr/include/ignition/common4/gz/common/graphics.hh:50,
                 from /usr/include/ignition/common4/gz/common/graphics.hh:50,
                 from /usr/include/ignition/common4/gz/common/graphics.hh:50,
                 from /usr/include/ignition/common4/gz/common/graphics.hh:50,
                 from /usr/include/ignition/common4/gz/common/graphics.hh:50,
                 from /usr/include/ignition/common4/gz/common/graphics.hh:50,
                 from /usr/include/ignition/common4/gz/common/graphics.hh:50,
                 from /usr/include/ignition/common4/gz/common/graphics.hh:50,
                 from /usr/include/ignition/common4/gz/common/graphics.hh:50,
                 from /usr/include/ignition/common4/gz/common/graphics.hh:50,
                 from /usr/include/ignition/common4/gz/common/graphics.hh:50,
                 from /usr/include/ignition/common4/gz/common/graphics.hh:50,
                 from /usr/include/ignition/common4/gz/common/graphics.hh:50,
                 from /usr/include/ignition/common4/gz/common/graphics.hh:50,
                 from /usr/include/ignition/common4/gz/common/graphics.hh:50,
                 from /usr/include/ignition/common4/gz/common/graphics.hh:50,
                 from /usr/include/ignition/common4/gz/common/graphics.hh:50,
                 from /usr/include/ignition/common4/gz/common/graphics.hh:50,
                 from /usr/include/ignition/common4/gz/common/graphics.hh:50,
                 from /usr/include/ignition/common4/gz/common/graphics.hh:50,
                 from /usr/include/ignition/common4/gz/common/graphics.hh:50,
                 from /usr/include/ignition/common4/gz/common/graphics.hh:50,
                 from /usr/include/ignition/common4/gz/common/graphics.hh:50,
                 from /usr/include/ignition/common4/gz/common/graphics.hh:50,
                 from /usr/include/ignition/common4/gz/common/graphics.hh:50,
                 from /usr/include/ignition/common4/gz/common/graphics.hh:50,
                 from /usr/include/ignition/common4/gz/common/graphics.hh:50,
                 from /usr/include/ignition/common4/gz/common/graphics.hh:50,
                 from /usr/include/ignition/common4/gz/common/graphics.hh:50,
                 from /usr/include/ignition/common4/gz/common/graphics.hh:50,
                 from /usr/include/ignition/common4/gz/common/graphics.hh:50,
                 from /usr/include/ignition/common4/gz/common/graphics.hh:50,
                 from /usr/include/ignition/common4/gz/common/graphics.hh:50,
                 from /usr/include/ignition/common4/gz/common/graphics.hh:50,
                 from /usr/include/ignition/common4/gz/common/graphics.hh:50,
                 from /usr/include/ignition/common4/gz/common/graphics.hh:50,
                 from /usr/include/ignition/common4/gz/common/graphics.hh:50,
                 from /usr/include/ignition/common4/gz/common/graphics.hh:50,
                 from /usr/include/ignition/common4/gz/common/graphics.hh:50,
                 from /usr/include/ignition/common4/gz/common/graphics.hh:50,
                 from /usr/include/ignition/common4/gz/common/graphics.hh:50,
                 from /usr/include/ignition/common4/gz/common/graphics.hh:50,
                 from /usr/include/ignition/common4/gz/common/graphics.hh:50,
                 from /usr/include/ignition/common4/gz/common/graphics.hh:50,
                 from /usr/include/ignition/common4/gz/common/graphics.hh:50,
                 from /usr/include/ignition/common4/gz/common/graphics.hh:50,
                 from /usr/include/ignition/common4/gz/common/graphics.hh:50,
                 from /usr/include/ignition/common4/gz/common/graphics.hh:50,
                 from /usr/include/ignition/common4/gz/common/graphics.hh:50,
                 from /usr/include/ignition/common4/gz/common/graphics.hh:50,
                 from /usr/include/ignition/common4/gz/common/graphics.hh:50,
                 from /usr/include/ignition/common4/gz/common/graphics.hh:50,
                 from /usr/include/ignition/common4/gz/common/graphics.hh:50,
                 from /usr/include/ignition/common4/gz/common/graphics.hh:50,
                 from /usr/include/ignition/common4/gz/common/graphics.hh:50,
                 from /usr/include/ignition/common4/gz/common/graphics.hh:50,
                 from /usr/include/ignition/common4/gz/common/graphics.hh:50,
                 from /usr/include/ignition/common4/gz/common/graphics.hh:50,
                 from /usr/include/ignition/common4/gz/common/graphics.hh:50,
                 from /usr/include/ignition/common4/gz/common/graphics.hh:50,
                 from /usr/include/ignition/common4/gz/common/graphics.hh:50,
                 from /usr/include/ignition/common4/gz/common/graphics.hh:50,
                 from /usr/include/ignition/common4/gz/common/graphics.hh:50,
                 from /usr/include/ignition/common4/gz/common/graphics.hh:50,
                 from /usr/include/ignition/common4/ignition/common/graphics.hh:18,
                 from /tmp/JZtv5s6yv_/dump1.h:24:
/usr/include/ignition/common4/gz/common/graphics.hh:22:31: error: #include nested depth 200 exceeds maximum of 200 (use -fmax-include-depth=DEPTH to increase the maximum)
   22 | #include <gz/common/config.hh>
      |                               ^
/usr/include/ignition/common4/gz/common/graphics.hh:23:39: error: #include nested depth 200 exceeds maximum of 200 (use -fmax-include-depth=DEPTH to increase the maximum)
   23 | #include <gz/common/graphics/Types.hh>
      |                                       ^
/usr/include/ignition/common4/gz/common/graphics.hh:24:34: error: #include nested depth 200 exceeds maximum of 200 (use -fmax-include-depth=DEPTH to increase the maximum)
   24 | #include <gz/common/Animation.hh>
      |                                  ^
/usr/include/ignition/common4/gz/common/graphics.hh:25:34: error: #include nested depth 200 exceeds maximum of 200 (use -fmax-include-depth=DEPTH to increase the maximum)
   25 | #include <gz/common/BVHLoader.hh>
      |                                  ^
/usr/include/ignition/common4/gz/common/graphics.hh:26:40: error: #include nested depth 200 exceeds maximum of 200 (use -fmax-include-depth=DEPTH to increase the maximum)
   26 | #include <gz/common/ColladaExporter.hh>
      |                                        ^
/usr/include/ignition/common4/gz/common/graphics.hh:27:38: error: #include nested depth 200 exceeds maximum of 200 (use -fmax-include-depth=DEPTH to increase the maximum)
   27 | #include <gz/common/ColladaLoader.hh>
      |                                      ^
/usr/include/ignition/common4/gz/common/graphics.hh:28:28: error: #include nested depth 200 exceeds maximum of 200 (use -fmax-include-depth=DEPTH to increase the maximum)
   28 | #include <gz/common/Dem.hh>
      |                            ^
/usr/include/ignition/common4/gz/common/graphics.hh:29:37: error: #include nested depth 200 exceeds maximum of 200 (use -fmax-include-depth=DEPTH to increase the maximum)
   29 | #include <gz/common/GTSMeshUtils.hh>
      |                                     ^
/usr/include/ignition/common4/gz/common/graphics.hh:30:38: error: #include nested depth 200 exceeds maximum of 200 (use -fmax-include-depth=DEPTH to increase the maximum)
   30 | #include <gz/common/HeightmapData.hh>
      |                                      ^
/usr/include/ignition/common4/gz/common/graphics.hh:31:30: error: #include nested depth 200 exceeds maximum of 200 (use -fmax-include-depth=DEPTH to increase the maximum)
   31 | #include <gz/common/Image.hh>
      |                              ^
/usr/include/ignition/common4/gz/common/graphics.hh:32:39: error: #include nested depth 200 exceeds maximum of 200 (use -fmax-include-depth=DEPTH to increase the maximum)
   32 | #include <gz/common/ImageHeightmap.hh>
      |                                       ^
/usr/include/ignition/common4/gz/common/graphics.hh:33:33: error: #include nested depth 200 exceeds maximum of 200 (use -fmax-include-depth=DEPTH to increase the maximum)
   33 | #include <gz/common/KeyFrame.hh>
      |                                 ^
/usr/include/ignition/common4/gz/common/graphics.hh:34:33: error: #include nested depth 200 exceeds maximum of 200 (use -fmax-include-depth=DEPTH to increase the maximum)
   34 | #include <gz/common/Material.hh>
      |                                 ^
/usr/include/ignition/common4/gz/common/graphics.hh:35:29: error: #include nested depth 200 exceeds maximum of 200 (use -fmax-include-depth=DEPTH to increase the maximum)
   35 | #include <gz/common/Mesh.hh>
      |                             ^
/usr/include/ignition/common4/gz/common/graphics.hh:36:32: error: #include nested depth 200 exceeds maximum of 200 (use -fmax-include-depth=DEPTH to increase the maximum)
   36 | #include <gz/common/MeshCSG.hh>
      |                                ^
/usr/include/ignition/common4/gz/common/graphics.hh:37:37: error: #include nested depth 200 exceeds maximum of 200 (use -fmax-include-depth=DEPTH to increase the maximum)
   37 | #include <gz/common/MeshExporter.hh>
      |                                     ^
/usr/include/ignition/common4/gz/common/graphics.hh:38:35: error: #include nested depth 200 exceeds maximum of 200 (use -fmax-include-depth=DEPTH to increase the maximum)
   38 | #include <gz/common/MeshLoader.hh>
      |                                   ^
/usr/include/ignition/common4/gz/common/graphics.hh:39:36: error: #include nested depth 200 exceeds maximum of 200 (use -fmax-include-depth=DEPTH to increase the maximum)
   39 | #include <gz/common/MeshManager.hh>
      |                                    ^
/usr/include/ignition/common4/gz/common/graphics.hh:40:38: error: #include nested depth 200 exceeds maximum of 200 (use -fmax-include-depth=DEPTH to increase the maximum)
   40 | #include <gz/common/NodeAnimation.hh>
      |                                      ^
/usr/include/ignition/common4/gz/common/graphics.hh:41:38: error: #include nested depth 200 exceeds maximum of 200 (use -fmax-include-depth=DEPTH to increase the maximum)
   41 | #include <gz/common/NodeTransform.hh>
      |                                      ^
/usr/include/ignition/common4/gz/common/graphics.hh:42:34: error: #include nested depth 200 exceeds maximum of 200 (use -fmax-include-depth=DEPTH to increase the maximum)
   42 | #include <gz/common/OBJLoader.hh>
      |                                  ^
/usr/include/ignition/common4/gz/common/graphics.hh:43:28: error: #include nested depth 200 exceeds maximum of 200 (use -fmax-include-depth=DEPTH to increase the maximum)
   43 | #include <gz/common/Pbr.hh>
      |                            ^
/usr/include/ignition/common4/gz/common/graphics.hh:44:34: error: #include nested depth 200 exceeds maximum of 200 (use -fmax-include-depth=DEPTH to increase the maximum)
   44 | #include <gz/common/STLLoader.hh>
      |                                  ^
/usr/include/ignition/common4/gz/common/graphics.hh:45:34: error: #include nested depth 200 exceeds maximum of 200 (use -fmax-include-depth=DEPTH to increase the maximum)
   45 | #include <gz/common/SVGLoader.hh>
      |                                  ^
/usr/include/ignition/common4/gz/common/graphics.hh:46:33: error: #include nested depth 200 exceeds maximum of 200 (use -fmax-include-depth=DEPTH to increase the maximum)
   46 | #include <gz/common/Skeleton.hh>
      |                                 ^
/usr/include/ignition/common4/gz/common/graphics.hh:47:42: error: #include nested depth 200 exceeds maximum of 200 (use -fmax-include-depth=DEPTH to increase the maximum)
   47 | #include <gz/common/SkeletonAnimation.hh>
      |                                          ^
/usr/include/ignition/common4/gz/common/graphics.hh:48:37: error: #include nested depth 200 exceeds maximum of 200 (use -fmax-include-depth=DEPTH to increase the maximum)
   48 | #include <gz/common/SkeletonNode.hh>
      |                                     ^
/usr/include/ignition/common4/gz/common/graphics.hh:49:32: error: #include nested depth 200 exceeds maximum of 200 (use -fmax-include-depth=DEPTH to increase the maximum)
   49 | #include <gz/common/SubMesh.hh>
      |                                ^
/usr/include/ignition/common4/gz/common/graphics.hh:50:33: error: #include nested depth 200 exceeds maximum of 200 (use -fmax-include-depth=DEPTH to increase the maximum)
   50 | #include <gz/common/graphics.hh>
      |                                 ^
ERROR: some errors occurred when compiling headers
ERROR: see log for details:
  /home/adrien/armhf-time_t/out/logs/libignition-common-graphics-dev/time_t/abi-compliance-checker.log


Creating library ABI dump ...
Dump path: out/logs/libignition-common-graphics-dev/libignition-common-graphics-dev_time_t.dump
