[2024-02-20T11:00:55+00:00] apt-get install libclhep-dev libgsl-dev abi-compliance-checker
Reading package lists...
Building dependency tree...
Reading state information...
abi-compliance-checker is already the newest version (2.3-2).
The following package was automatically installed and is no longer required:
  libclc-17-dev
Use 'apt autoremove' to remove it.
The following additional packages will be installed:
  libclhep2.1v5 libgsl27 libgslcblas0
Suggested packages:
  clhep-doc gsl-ref-psdoc | gsl-doc-pdf | gsl-doc-info | gsl-ref-html
The following NEW packages will be installed:
  libclhep-dev libclhep2.1v5 libgsl-dev libgsl27 libgslcblas0
0 upgraded, 5 newly installed, 0 to remove and 44 not upgraded.
Need to get 2843 kB of archives.
After this operation, 12.3 MB of additional disk space will be used.
Get:1 http://deb.debian.org/debian unstable/main armhf libclhep2.1v5 armhf 2.1.4.1+dfsg-1.1+b1 [393 kB]
Get:2 http://deb.debian.org/debian unstable/main armhf libclhep-dev armhf 2.1.4.1+dfsg-1.1+b1 [629 kB]
Get:3 http://deb.debian.org/debian unstable/main armhf libgslcblas0 armhf 2.7.1+dfsg-6+b1 [79.6 kB]
Get:4 http://deb.debian.org/debian unstable/main armhf libgsl27 armhf 2.7.1+dfsg-6+b1 [767 kB]
Get:5 http://deb.debian.org/debian unstable/main armhf libgsl-dev armhf 2.7.1+dfsg-6+b1 [975 kB]
debconf: delaying package configuration, since apt-utils is not installed
Fetched 2843 kB in 1s (4638 kB/s)
Selecting previously unselected package libclhep2.1v5:armhf.
(Reading database ... (Reading database ... 5%(Reading database ... 10%(Reading database ... 15%(Reading database ... 20%(Reading database ... 25%(Reading database ... 30%(Reading database ... 35%(Reading database ... 40%(Reading database ... 45%(Reading database ... 50%(Reading database ... 55%(Reading database ... 60%(Reading database ... 65%(Reading database ... 70%(Reading database ... 75%(Reading database ... 80%(Reading database ... 85%(Reading database ... 90%(Reading database ... 95%(Reading database ... 100%(Reading database ... 18007 files and directories currently installed.)
Preparing to unpack .../libclhep2.1v5_2.1.4.1+dfsg-1.1+b1_armhf.deb ...
Unpacking libclhep2.1v5:armhf (2.1.4.1+dfsg-1.1+b1) ...
Selecting previously unselected package libclhep-dev.
Preparing to unpack .../libclhep-dev_2.1.4.1+dfsg-1.1+b1_armhf.deb ...
Unpacking libclhep-dev (2.1.4.1+dfsg-1.1+b1) ...
Selecting previously unselected package libgslcblas0:armhf.
Preparing to unpack .../libgslcblas0_2.7.1+dfsg-6+b1_armhf.deb ...
Unpacking libgslcblas0:armhf (2.7.1+dfsg-6+b1) ...
Selecting previously unselected package libgsl27:armhf.
Preparing to unpack .../libgsl27_2.7.1+dfsg-6+b1_armhf.deb ...
Unpacking libgsl27:armhf (2.7.1+dfsg-6+b1) ...
Selecting previously unselected package libgsl-dev.
Preparing to unpack .../libgsl-dev_2.7.1+dfsg-6+b1_armhf.deb ...
Unpacking libgsl-dev (2.7.1+dfsg-6+b1) ...
Setting up libclhep2.1v5:armhf (2.1.4.1+dfsg-1.1+b1) ...
Setting up libgslcblas0:armhf (2.7.1+dfsg-6+b1) ...
Setting up libgsl27:armhf (2.7.1+dfsg-6+b1) ...
Setting up libclhep-dev (2.1.4.1+dfsg-1.1+b1) ...
Setting up libgsl-dev (2.7.1+dfsg-6+b1) ...
Processing triggers for libc-bin (2.37-13) ...
Reading package lists...
Building dependency tree...
Reading state information...
The following packages will be REMOVED:
  libclc-17-dev*
0 upgraded, 0 newly installed, 1 to remove and 44 not upgraded.
After this operation, 456 kB disk space will be freed.
(Reading database ... (Reading database ... 5%(Reading database ... 10%(Reading database ... 15%(Reading database ... 20%(Reading database ... 25%(Reading database ... 30%(Reading database ... 35%(Reading database ... 40%(Reading database ... 45%(Reading database ... 50%(Reading database ... 55%(Reading database ... 60%(Reading database ... 65%(Reading database ... 70%(Reading database ... 75%(Reading database ... 80%(Reading database ... 85%(Reading database ... 90%(Reading database ... 95%(Reading database ... 100%(Reading database ... 18627 files and directories currently installed.)
Removing libclc-17-dev (1:17.0.6-5) ...
