Using GCC 13 (arm-linux-gnueabihf, target: arm)
WARNING: May not work properly with GCC 4.8.[0-2], 6.* and higher due to bug #78040 in GCC. Please try other GCC versions with the help of --gcc-path=PATH option or create ABI dumps by ABI Dumper tool instead to avoid using GCC. Test selected GCC version first by -test option.
Checking header(s) lfs ...
Temporary header file '/tmp/nS8QZICNXw/dump1.h' with the following content will be compiled to create GCC translation unit dump:

  // add defines
  #define __STDC_VERSION__ 201710L
#define _FILE_OFFSET_BITS 64
#define _GXX_NULLPTR_T
#define CLUTTER_ENABLE_COMPOSITOR_API 1
#define _REGEX_NELTS(n)
#define _Atomic
#define PACKED
#ifdef __cplusplus
// C17 compat layer
#define _Alignof(type) alignof(type)
#endif
#define getaddrinfo_a(a,b,c,d)

  // add includes
  #include "/usr/share/gsoap/custom/chrono_duration.h"
  #include "/usr/share/gsoap/custom/chrono_time_point.h"
  #include "/usr/share/gsoap/custom/duration.h"
  #include "/usr/share/gsoap/custom/float128.h"
  #include "/usr/share/gsoap/custom/int128.h"
  #include "/usr/share/gsoap/custom/long_double.h"
  #include "/usr/share/gsoap/custom/long_time.h"
  #include "/usr/share/gsoap/custom/qbytearray_base64.h"
  #include "/usr/share/gsoap/custom/qbytearray_hex.h"
  #include "/usr/share/gsoap/custom/qdate.h"
  #include "/usr/share/gsoap/custom/qdatetime.h"
  #include "/usr/share/gsoap/custom/qstring.h"
  #include "/usr/share/gsoap/custom/qtime.h"
  #include "/usr/share/gsoap/custom/struct_timeval.h"
  #include "/usr/share/gsoap/custom/struct_tm.h"
  #include "/usr/share/gsoap/custom/struct_tm_date.h"
  #include "/usr/share/gsoap/import/WS-Header.h"
  #include "/usr/share/gsoap/import/WS-example.h"
  #include "/usr/share/gsoap/import/c14n.h"
  #include "/usr/share/gsoap/import/dom.h"
  #include "/usr/share/gsoap/import/ds.h"
  #include "/usr/share/gsoap/import/ds2.h"
  #include "/usr/share/gsoap/import/plnk.h"
  #include "/usr/share/gsoap/import/ref.h"
  #include "/usr/share/gsoap/import/saml1.h"
  #include "/usr/share/gsoap/import/saml2.h"
  #include "/usr/share/gsoap/import/ser.h"
  #include "/usr/share/gsoap/import/soap12.h"
  #include "/usr/share/gsoap/import/stdstring.h"
  #include "/usr/share/gsoap/import/stl.h"
  #include "/usr/share/gsoap/import/stldeque.h"
  #include "/usr/share/gsoap/import/stllist.h"
  #include "/usr/share/gsoap/import/stlset.h"
  #include "/usr/share/gsoap/import/stlvector.h"
  #include "/usr/share/gsoap/import/vprop.h"
  #include "/usr/share/gsoap/import/wsa.h"
  #include "/usr/share/gsoap/import/wsa3.h"
  #include "/usr/share/gsoap/import/wsa4.h"
  #include "/usr/share/gsoap/import/wsa5.h"
  #include "/usr/share/gsoap/import/wsc.h"
  #include "/usr/share/gsoap/import/wsc2.h"
  #include "/usr/share/gsoap/import/wsdd.h"
  #include "/usr/share/gsoap/import/wsdd10.h"
  #include "/usr/share/gsoap/import/wsdd5.h"
  #include "/usr/share/gsoap/import/wsdx.h"
  #include "/usr/share/gsoap/import/wsp.h"
  #include "/usr/share/gsoap/import/wsp_appliesto.h"
  #include "/usr/share/gsoap/import/wsrm.h"
  #include "/usr/share/gsoap/import/wsrm4.h"
  #include "/usr/share/gsoap/import/wsrm5.h"
  #include "/usr/share/gsoap/import/wsrp.h"
  #include "/usr/share/gsoap/import/wsrx.h"
  #include "/usr/share/gsoap/import/wsrx5.h"
  #include "/usr/share/gsoap/import/wsse.h"
  #include "/usr/share/gsoap/import/wsse11.h"
  #include "/usr/share/gsoap/import/wsse2.h"
  #include "/usr/share/gsoap/import/wst.h"
  #include "/usr/share/gsoap/import/wst2.h"
  #include "/usr/share/gsoap/import/wstx.h"
  #include "/usr/share/gsoap/import/wstx2.h"
  #include "/usr/share/gsoap/import/wsu.h"
  #include "/usr/share/gsoap/import/xenc.h"
  #include "/usr/share/gsoap/import/xenc2.h"
  #include "/usr/share/gsoap/import/xlink.h"
  #include "/usr/share/gsoap/import/xmime.h"
  #include "/usr/share/gsoap/import/xmime4.h"
  #include "/usr/share/gsoap/import/xmime5.h"
  #include "/usr/share/gsoap/import/xml.h"
  #include "/usr/share/gsoap/import/xmlmime.h"
  #include "/usr/share/gsoap/import/xmlmime5.h"
  #include "/usr/share/gsoap/import/xop.h"
  #include "/usr/share/gsoap/import/xsd.h"
  #include "/usr/share/gsoap/plugin/cacerts.h"
  #include "/usr/share/gsoap/plugin/calcrest.h"
  #include "/usr/share/gsoap/plugin/curlapi.h"
  #include "/usr/share/gsoap/plugin/httpda.h"
  #include "/usr/share/gsoap/plugin/httpdatest.h"
  #include "/usr/share/gsoap/plugin/httpform.h"
  #include "/usr/share/gsoap/plugin/httpget.h"
  #include "/usr/share/gsoap/plugin/httpgettest.h"
  #include "/usr/share/gsoap/plugin/httpmd5.h"
  #include "/usr/share/gsoap/plugin/httpmd5test.h"
  #include "/usr/share/gsoap/plugin/httppipe.h"
  #include "/usr/share/gsoap/plugin/httppost.h"
  #include "/usr/share/gsoap/plugin/httpposttest.h"
  #include "/usr/share/gsoap/plugin/logging.h"
  #include "/usr/share/gsoap/plugin/md5evp.h"
  #include "/usr/share/gsoap/plugin/mecevp.h"
  #include "/usr/share/gsoap/plugin/mq.h"
  #include "/usr/share/gsoap/plugin/plugin.h"
  #include "/usr/share/gsoap/plugin/sessions.h"
  #include "/usr/share/gsoap/plugin/smdevp.h"
  #include "/usr/share/gsoap/plugin/threads.h"
  #include "/usr/share/gsoap/plugin/wsaapi.h"
  #include "/usr/share/gsoap/plugin/wsddapi.h"
  #include "/usr/share/gsoap/plugin/wsrmapi.h"
  #include "/usr/share/gsoap/plugin/wsse2api.h"
  #include "/usr/share/gsoap/plugin/wsseapi-lite.h"
  #include "/usr/share/gsoap/plugin/wsseapi.h"
  #include "/usr/share/gsoap/plugin/wstapi.h"

The GCC parameters:
  gcc -fdump-lang-raw -fkeep-inline-functions -c -x c++ -fpermissive -w "/tmp/nS8QZICNXw/dump1.h"  -I/usr/share/gsoap

In file included from /tmp/nS8QZICNXw/dump1.h:20:
/usr/share/gsoap/custom/float128.h:63:10: fatal error: quadmath.h: No such file or directory
   63 | #include <quadmath.h>
      |          ^~~~~~~~~~~~
compilation terminated.
ERROR: some errors occurred when compiling headers
ERROR: see log for details:
  /home/adrien/armhf-time_t/out/logs/gsoap/lfs/abi-compliance-checker.log


ERROR: can't compile header(s)
