Using GCC 13 (arm-linux-gnueabihf, target: arm)
WARNING: May not work properly with GCC 4.8.[0-2], 6.* and higher due to bug #78040 in GCC. Please try other GCC versions with the help of --gcc-path=PATH option or create ABI dumps by ABI Dumper tool instead to avoid using GCC. Test selected GCC version first by -test option.
Checking header(s) time_t ...
Temporary header file '/tmp/jEx3Ywf5Cr/dump1.h' with the following content will be compiled to create GCC translation unit dump:

  // add defines
  #define __STDC_VERSION__ 201710L
#define _TIME_BITS 64
#define _FILE_OFFSET_BITS 64
#define _GXX_NULLPTR_T
#define CLUTTER_ENABLE_COMPOSITOR_API 1
#define _REGEX_NELTS(n)
#define _Atomic
#define PACKED
#ifdef __cplusplus
// C17 compat layer
#define _Alignof(type) alignof(type)
#endif
#define getaddrinfo_a(a,b,c,d)

  // add includes
  #include "/usr/include/clippoly/graphadd.h"
  #include "/usr/include/clippoly/graphmat++.h"
  #include "/usr/include/clippoly/graphmat.h"
  #include "/usr/include/clippoly/nclip.h"
  #include "/usr/include/clippoly/poly.h"
  #include "/usr/include/clippoly/poly_io.h"
  #include "/usr/include/clippoly/posadder.h"
  #include "/usr/include/clippoly/primitives.h"
  #include "/usr/include/clippoly/set.h"
  #include "/usr/include/clippoly/version.h"

  // add classes
  ConstPolyIter* tmp_add_class_0;
  DirPolyIter* tmp_add_class_1;
  Edge* tmp_add_class_2;
  NodePEdge* tmp_add_class_3;
  Point* tmp_add_class_4;
  PointList* tmp_add_class_5;
  PointListIter* tmp_add_class_6;
  Poly* tmp_add_class_7;
  PolyIter* tmp_add_class_8;
  PolyNode* tmp_add_class_9;
  PosAdder* tmp_add_class_10;
  _G_fpos64_t* tmp_add_class_11;
  _G_fpos_t* tmp_add_class_12;
  _IO_cookie_io_functions_t* tmp_add_class_13;
  hmat2_t* tmp_add_class_14;
  hmat3_t* tmp_add_class_15;
  hvec2_t* tmp_add_class_16;
  hvec3_t* tmp_add_class_17;

The GCC parameters:
  gcc -fdump-lang-raw -fkeep-inline-functions -c -x c++ -fpermissive -w "/tmp/jEx3Ywf5Cr/dump1.h"  -I/usr/include/clippoly

In file included from /tmp/jEx3Ywf5Cr/dump1.h:21:
/usr/include/clippoly/nclip.h:51:25: error: 'PolyPList' has not been declared
   51 |                         PolyPList &a_min_b, PolyPList &b_min_a, PolyPList &a_and_b );
      |                         ^~~~~~~~~
/usr/include/clippoly/nclip.h:51:45: error: 'PolyPList' has not been declared
   51 |                         PolyPList &a_min_b, PolyPList &b_min_a, PolyPList &a_and_b );
      |                                             ^~~~~~~~~
/usr/include/clippoly/nclip.h:51:65: error: 'PolyPList' has not been declared
   51 |                         PolyPList &a_min_b, PolyPList &b_min_a, PolyPList &a_and_b );
      |                                                                 ^~~~~~~~~
/usr/include/clippoly/nclip.h:56:25: error: 'PolyPList' has not been declared
   56 |                         PolyPList &polylist, NodePEdgeList &done );
      |                         ^~~~~~~~~
/usr/include/clippoly/nclip.h:56:46: error: 'NodePEdgeList' has not been declared
   56 |                         PolyPList &polylist, NodePEdgeList &done );
      |                                              ^~~~~~~~~~~~~
/usr/include/clippoly/nclip.h:58:46: error: 'NodePEdgeList' has not been declared
   58 |                         DirPolyIter &follow, NodePEdgeList &done,
      |                                              ^~~~~~~~~~~~~
/usr/include/clippoly/nclip.h:60:59: error: 'PolyPList' does not name a type
   60 | void    assign_polys( const Poly &a, const Poly &b, const PolyPList &in_list,
      |                                                           ^~~~~~~~~
/usr/include/clippoly/nclip.h:61:25: error: 'PolyPList' has not been declared
   61 |                         PolyPList &a_min_b, PolyPList &b_min_a, PolyPList &a_and_b );
      |                         ^~~~~~~~~
/usr/include/clippoly/nclip.h:61:45: error: 'PolyPList' has not been declared
   61 |                         PolyPList &a_min_b, PolyPList &b_min_a, PolyPList &a_and_b );
      |                                             ^~~~~~~~~
/usr/include/clippoly/nclip.h:61:65: error: 'PolyPList' has not been declared
   61 |                         PolyPList &a_min_b, PolyPList &b_min_a, PolyPList &a_and_b );
      |                                                                 ^~~~~~~~~
/usr/include/clippoly/nclip.h:62:54: error: 'PolyPList' has not been declared
   62 | void    poly_min_poly( const Poly &a, const Poly &b, PolyPList &a_min_b );
      |                                                      ^~~~~~~~~
ERROR: some errors occurred when compiling headers
ERROR: see log for details:
  /home/adrien/armhf-time_t/out/logs/libclippoly-dev/time_t/abi-compliance-checker.log


Creating library ABI dump ...
Dump path: out/logs/libclippoly-dev/libclippoly-dev_time_t.dump
