Temporary header file '/tmp/ATEAGlZ_3l/dump1.h' with the following content will be compiled to create GCC translation unit dump:

  // add defines
  #define __STDC_VERSION__ 201710L
#define _FILE_OFFSET_BITS 64
#define _GXX_NULLPTR_T
#define CLUTTER_ENABLE_COMPOSITOR_API 1
#define _REGEX_NELTS(n)
#define _Atomic
#define PACKED
#ifdef __cplusplus
// C17 compat layer
#define _Alignof(type) alignof(type)
#endif
#define getaddrinfo_a(a,b,c,d)

  // add includes
  #include "/usr/include/KF5/kjs/CommonIdentifiers.h"
  #include "/usr/include/KF5/kjs/CompileState.h"
  #include "/usr/include/KF5/kjs/ExecState.h"
  #include "/usr/include/KF5/kjs/JSImmediate.h"
  #include "/usr/include/KF5/kjs/JSLock.h"
  #include "/usr/include/KF5/kjs/JSType.h"
  #include "/usr/include/KF5/kjs/JSVariableObject.h"
  #include "/usr/include/KF5/kjs/JSWrapperObject.h"
  #include "/usr/include/KF5/kjs/LocalStorage.h"
  #include "/usr/include/KF5/kjs/Parser.h"
  #include "/usr/include/KF5/kjs/PropertyNameArray.h"
  #include "/usr/include/KF5/kjs/SavedBuiltins.h"
  #include "/usr/include/KF5/kjs/SymbolTable.h"
  #include "/usr/include/KF5/kjs/array_instance.h"
  #include "/usr/include/KF5/kjs/array_object.h"
  #include "/usr/include/KF5/kjs/bool_object.h"
  #include "/usr/include/KF5/kjs/bytecode/opargs.h"
  #include "/usr/include/KF5/kjs/collector.h"
  #include "/usr/include/KF5/kjs/commonunicode.h"
  #include "/usr/include/KF5/kjs/completion.h"
  #include "/usr/include/KF5/kjs/context.h"
  #include "/usr/include/KF5/kjs/date_object.h"
  #include "/usr/include/KF5/kjs/debugger.h"
  #include "/usr/include/KF5/kjs/dtoa.h"
  #include "/usr/include/KF5/kjs/error_object.h"
  #include "/usr/include/KF5/kjs/function.h"
  #include "/usr/include/KF5/kjs/function_object.h"
  #include "/usr/include/KF5/kjs/global.h"
  #include "/usr/include/KF5/kjs/identifier.h"
  #include "/usr/include/KF5/kjs/internal.h"
  #include "/usr/include/KF5/kjs/interpreter.h"
  #include "/usr/include/KF5/kjs/json_object.h"
  #include "/usr/include/KF5/kjs/jsonlexer.h"
  #include "/usr/include/KF5/kjs/jsonstringify.h"
  #include "/usr/include/KF5/kjs/kjsapi_export.h"
  #include "/usr/include/KF5/kjs/kjsarguments.h"
  #include "/usr/include/KF5/kjs/kjscontext.h"
  #include "/usr/include/KF5/kjs/kjsinterpreter.h"
  #include "/usr/include/KF5/kjs/kjsobject.h"
  #include "/usr/include/KF5/kjs/kjsprototype.h"
  #include "/usr/include/KF5/kjs/lexer.h"
  #include "/usr/include/KF5/kjs/list.h"
  #include "/usr/include/KF5/kjs/lookup.h"
  #include "/usr/include/KF5/kjs/makenodes.h"
  #include "/usr/include/KF5/kjs/math_object.h"
  #include "/usr/include/KF5/kjs/nodes.h"
  #include "/usr/include/KF5/kjs/nodes2bytecode.h"
  #include "/usr/include/KF5/kjs/number_object.h"
  #include "/usr/include/KF5/kjs/object.h"
  #include "/usr/include/KF5/kjs/object_object.h"
  #include "/usr/include/KF5/kjs/opcodes.h"
  #include "/usr/include/KF5/kjs/operations.h"
  #include "/usr/include/KF5/kjs/package.h"
  #include "/usr/include/KF5/kjs/property_map.h"
  #include "/usr/include/KF5/kjs/property_slot.h"
  #include "/usr/include/KF5/kjs/propertydescriptor.h"
  #include "/usr/include/KF5/kjs/protect.h"
  #include "/usr/include/KF5/kjs/regexp.h"
  #include "/usr/include/KF5/kjs/regexp_object.h"
  #include "/usr/include/KF5/kjs/scope_chain.h"
  #include "/usr/include/KF5/kjs/scriptfunction.h"
  #include "/usr/include/KF5/kjs/string_object.h"
  #include "/usr/include/KF5/kjs/types.h"
  #include "/usr/include/KF5/kjs/ustring.h"
  #include "/usr/include/KF5/kjs/value.h"
  #include "/usr/include/KF5/kjs_version.h"
  #include "/usr/include/KF5/wtf/ASCIICType.h"
  #include "/usr/include/KF5/wtf/AlwaysInline.h"
  #include "/usr/include/KF5/wtf/Assertions.h"
  #include "/usr/include/KF5/wtf/DisallowCType.h"
  #include "/usr/include/KF5/wtf/FastMalloc.h"
  #include "/usr/include/KF5/wtf/Forward.h"
  #include "/usr/include/KF5/wtf/GetPtr.h"
  #include "/usr/include/KF5/wtf/HashCountedSet.h"
  #include "/usr/include/KF5/wtf/HashFunctions.h"
  #include "/usr/include/KF5/wtf/HashIterators.h"
  #include "/usr/include/KF5/wtf/HashMap.h"
  #include "/usr/include/KF5/wtf/HashSet.h"
  #include "/usr/include/KF5/wtf/HashTable.h"
  #include "/usr/include/KF5/wtf/HashTraits.h"
  #include "/usr/include/KF5/wtf/ListRefPtr.h"
  #include "/usr/include/KF5/wtf/MathExtras.h"
  #include "/usr/include/KF5/wtf/Noncopyable.h"
  #include "/usr/include/KF5/wtf/OwnArrayPtr.h"
  #include "/usr/include/KF5/wtf/OwnPtr.h"
  #include "/usr/include/KF5/wtf/PassRefPtr.h"
  #include "/usr/include/KF5/wtf/Platform.h"
  #include "/usr/include/KF5/wtf/RefCounted.h"
  #include "/usr/include/KF5/wtf/RefPtr.h"
  #include "/usr/include/KF5/wtf/RefPtrHashMap.h"
  #include "/usr/include/KF5/wtf/SharedPtr.h"
  #include "/usr/include/KF5/wtf/UnusedParam.h"
  #include "/usr/include/KF5/wtf/Vector.h"
  #include "/usr/include/KF5/wtf/VectorTraits.h"

  // add namespaces
  namespace DOM{typedef int tmp_add_type_1;}
  DOM::tmp_add_type_1 tmp_add_func_1(){return 0;};
  namespace KJS{typedef int tmp_add_type_2;}
  KJS::tmp_add_type_2 tmp_add_func_2(){return 0;};
  namespace KJS{namespace CommonUnicode{typedef int tmp_add_type_3;}}
  KJS::CommonUnicode::tmp_add_type_3 tmp_add_func_3(){return 0;};
  namespace KJS{namespace JSONParserState{typedef int tmp_add_type_4;}}
  KJS::JSONParserState::tmp_add_type_4 tmp_add_func_4(){return 0;};
  namespace Qt{typedef int tmp_add_type_5;}
  Qt::tmp_add_type_5 tmp_add_func_5(){return 0;};
  namespace QtGlobalStatic{typedef int tmp_add_type_6;}
  QtGlobalStatic::tmp_add_type_6 tmp_add_func_6(){return 0;};
  namespace QtPrivate{typedef int tmp_add_type_7;}
  QtPrivate::tmp_add_type_7 tmp_add_func_7(){return 0;};
  namespace QtPrivate{namespace DeprecatedRefClassBehavior{typedef int tmp_add_type_8;}}
  QtPrivate::DeprecatedRefClassBehavior::tmp_add_type_8 tmp_add_func_8(){return 0;};
  namespace QtPrivate{namespace SwapExceptionTester{typedef int tmp_add_type_9;}}
  QtPrivate::SwapExceptionTester::tmp_add_type_9 tmp_add_func_9(){return 0;};
  namespace WTF{typedef int tmp_add_type_10;}
  WTF::tmp_add_type_10 tmp_add_func_10(){return 0;};
  namespace WTFNoncopyable{typedef int tmp_add_type_11;}
  WTFNoncopyable::tmp_add_type_11 tmp_add_func_11(){return 0;};

  // add classes
  KJSArguments* tmp_add_class_0;
  KJSArray* tmp_add_class_1;
  KJSBoolean* tmp_add_class_2;
  KJSContext* tmp_add_class_3;
  KJSDate* tmp_add_class_4;
  KJSGlobalObject* tmp_add_class_5;
  KJSInterpreter* tmp_add_class_6;
  KJSNull* tmp_add_class_7;
  KJSNumber* tmp_add_class_8;
  KJSObject* tmp_add_class_9;
  KJSPrototype* tmp_add_class_10;
  KJSResult* tmp_add_class_11;
  KJSString* tmp_add_class_12;
  KJSUndefined* tmp_add_class_13;
  QArrayData* tmp_add_class_14;
  QAtomicInt* tmp_add_class_15;
  QByteArray* tmp_add_class_16;
  QByteArrayDataPtr* tmp_add_class_17;
  QByteRef* tmp_add_class_18;
  QChar* tmp_add_class_19;
  QCharRef* tmp_add_class_20;
  QFlag* tmp_add_class_21;
  QIncompatibleFlag* tmp_add_class_22;
  QInternal* tmp_add_class_23;
  QLatin1Char* tmp_add_class_24;
  QLatin1String* tmp_add_class_25;
  QMessageLogContext* tmp_add_class_26;
  QMessageLogger* tmp_add_class_27;
  QString* tmp_add_class_28;
  QStringDataPtr* tmp_add_class_29;
  QStringRef* tmp_add_class_30;
  QStringView* tmp_add_class_31;
  QSysInfo* tmp_add_class_32;
  _G_fpos64_t* tmp_add_class_33;
  _G_fpos_t* tmp_add_class_34;
  _IO_cookie_io_functions_t* tmp_add_class_35;
  pcre16_callout_block* tmp_add_class_36;
  pcre16_extra* tmp_add_class_37;
  pcre32_callout_block* tmp_add_class_38;
  pcre32_extra* tmp_add_class_39;
  pcre_callout_block* tmp_add_class_40;
  pcre_extra* tmp_add_class_41;
  rlimit64* tmp_add_class_42;

The GCC parameters:
  gcc -fdump-lang-raw -fkeep-inline-functions -c -x c++ -fpermissive -w "/tmp/ATEAGlZ_3l/dump1.h"  -I/usr/include/KF5 -I/usr/include/KF5/wtf -I/usr/include/KF5/kjs -I/usr/include/arm-linux-gnueabihf/qt5 -I/usr/include/arm-linux-gnueabihf/qt5/QtCore

