[2024-01-08T04:07:51+00:00] apt-get install libprotobuf-dev abi-compliance-checker
Reading package lists...
Building dependency tree...
Reading state information...
abi-compliance-checker is already the newest version (2.3-2).
The following packages were automatically installed and are no longer required:
  libprotobuf-c-dev libprotobuf-c1
Use 'apt autoremove' to remove them.
The following additional packages will be installed:
  libprotobuf-lite32 libprotobuf32 zlib1g-dev
The following NEW packages will be installed:
  libprotobuf-dev libprotobuf-lite32 libprotobuf32 zlib1g-dev
0 upgraded, 4 newly installed, 0 to remove and 25 not upgraded.
Need to get 3301 kB of archives.
After this operation, 14.2 MB of additional disk space will be used.
Get:1 http://deb.debian.org/debian unstable/main armhf zlib1g-dev armhf 1:1.3.dfsg-3 [904 kB]
Get:2 http://deb.debian.org/debian unstable/main armhf libprotobuf32 armhf 3.21.12-8+b1 [864 kB]
Get:3 http://deb.debian.org/debian unstable/main armhf libprotobuf-lite32 armhf 3.21.12-8+b1 [253 kB]
Get:4 http://deb.debian.org/debian unstable/main armhf libprotobuf-dev armhf 3.21.12-8+b1 [1281 kB]
debconf: delaying package configuration, since apt-utils is not installed
Fetched 3301 kB in 0s (26.8 MB/s)
Selecting previously unselected package zlib1g-dev:armhf.
(Reading database ... (Reading database ... 5%(Reading database ... 10%(Reading database ... 15%(Reading database ... 20%(Reading database ... 25%(Reading database ... 30%(Reading database ... 35%(Reading database ... 40%(Reading database ... 45%(Reading database ... 50%(Reading database ... 55%(Reading database ... 60%(Reading database ... 65%(Reading database ... 70%(Reading database ... 75%(Reading database ... 80%(Reading database ... 85%(Reading database ... 90%(Reading database ... 95%(Reading database ... 100%(Reading database ... 16687 files and directories currently installed.)
Preparing to unpack .../zlib1g-dev_1%3a1.3.dfsg-3_armhf.deb ...
Unpacking zlib1g-dev:armhf (1:1.3.dfsg-3) ...
Selecting previously unselected package libprotobuf32:armhf.
Preparing to unpack .../libprotobuf32_3.21.12-8+b1_armhf.deb ...
Unpacking libprotobuf32:armhf (3.21.12-8+b1) ...
Selecting previously unselected package libprotobuf-lite32:armhf.
Preparing to unpack .../libprotobuf-lite32_3.21.12-8+b1_armhf.deb ...
Unpacking libprotobuf-lite32:armhf (3.21.12-8+b1) ...
Selecting previously unselected package libprotobuf-dev:armhf.
Preparing to unpack .../libprotobuf-dev_3.21.12-8+b1_armhf.deb ...
Unpacking libprotobuf-dev:armhf (3.21.12-8+b1) ...
Setting up zlib1g-dev:armhf (1:1.3.dfsg-3) ...
Setting up libprotobuf32:armhf (3.21.12-8+b1) ...
Setting up libprotobuf-lite32:armhf (3.21.12-8+b1) ...
Setting up libprotobuf-dev:armhf (3.21.12-8+b1) ...
Processing triggers for libc-bin (2.37-13) ...
Reading package lists...
Building dependency tree...
Reading state information...
The following packages will be REMOVED:
  libprotobuf-c-dev* libprotobuf-c1*
0 upgraded, 0 newly installed, 2 to remove and 25 not upgraded.
After this operation, 188 kB disk space will be freed.
(Reading database ... (Reading database ... 5%(Reading database ... 10%(Reading database ... 15%(Reading database ... 20%(Reading database ... 25%(Reading database ... 30%(Reading database ... 35%(Reading database ... 40%(Reading database ... 45%(Reading database ... 50%(Reading database ... 55%(Reading database ... 60%(Reading database ... 65%(Reading database ... 70%(Reading database ... 75%(Reading database ... 80%(Reading database ... 85%(Reading database ... 90%(Reading database ... 95%(Reading database ... 100%(Reading database ... 16848 files and directories currently installed.)
Removing libprotobuf-c-dev:armhf (1.4.1-1+b1) ...
Removing libprotobuf-c1:armhf (1.4.1-1+b1) ...
Processing triggers for libc-bin (2.37-13) ...
