Using GCC 13 (arm-linux-gnueabihf, target: arm)
WARNING: May not work properly with GCC 4.8.[0-2], 6.* and higher due to bug #78040 in GCC. Please try other GCC versions with the help of --gcc-path=PATH option or create ABI dumps by ABI Dumper tool instead to avoid using GCC. Test selected GCC version first by -test option.
Checking header(s) time_t ...
Temporary header file '/tmp/G0_KWdEy6T/dump1.h' with the following content will be compiled to create GCC translation unit dump:

  // add defines
  #define __STDC_VERSION__ 201710L
#define _TIME_BITS 64
#define _FILE_OFFSET_BITS 64
#define _GXX_NULLPTR_T
#define CLUTTER_ENABLE_COMPOSITOR_API 1
#define _REGEX_NELTS(n)
#define _Atomic
#define PACKED
#ifdef __cplusplus
// C17 compat layer
#define _Alignof(type) alignof(type)
#endif
#define getaddrinfo_a(a,b,c,d) 
  #define restrict

  // add includes
  #include "/usr/include/aircrack-ng/adt/avl_tree.h"
  #include "/usr/include/aircrack-ng/adt/circular_buffer.h"
  #include "/usr/include/aircrack-ng/adt/circular_queue.h"
  #include "/usr/include/aircrack-ng/aircrack-ng.h"
  #include "/usr/include/aircrack-ng/ce-wep/uniqueiv.h"
  #include "/usr/include/aircrack-ng/ce-wpa/aligned.h"
  #include "/usr/include/aircrack-ng/ce-wpa/arch.h"
  #include "/usr/include/aircrack-ng/ce-wpa/crypto_engine.h"
  #include "/usr/include/aircrack-ng/ce-wpa/jcommon.h"
  #include "/usr/include/aircrack-ng/ce-wpa/johnswap.h"
  #include "/usr/include/aircrack-ng/ce-wpa/memory.h"
  #include "/usr/include/aircrack-ng/ce-wpa/misc.h"
  #include "/usr/include/aircrack-ng/ce-wpa/pseudo_intrinsics.h"
  #include "/usr/include/aircrack-ng/ce-wpa/simd-intrinsics-load-flags.h"
  #include "/usr/include/aircrack-ng/ce-wpa/simd-intrinsics.h"
  #include "/usr/include/aircrack-ng/ce-wpa/wpapsk.h"
  #include "/usr/include/aircrack-ng/compat.h"
  #include "/usr/include/aircrack-ng/cowpatty/cowpatty.h"
  #include "/usr/include/aircrack-ng/cpu/cpuset.h"
  #include "/usr/include/aircrack-ng/cpu/simd_cpuid.h"
  #include "/usr/include/aircrack-ng/cpu/trampoline.h"
  #include "/usr/include/aircrack-ng/crypto/crctable.h"
  #include "/usr/include/aircrack-ng/crypto/crypto.h"
  #include "/usr/include/aircrack-ng/crypto/gcrypt-openssl-wrapper.h"
  #include "/usr/include/aircrack-ng/crypto/sha1-git.h"
  #include "/usr/include/aircrack-ng/crypto/sha1-sse2.h"
  #include "/usr/include/aircrack-ng/defs.h"
  #include "/usr/include/aircrack-ng/osdep/byteorder.h"
  #include "/usr/include/aircrack-ng/osdep/channel.h"
  #include "/usr/include/aircrack-ng/osdep/common.h"
  #include "/usr/include/aircrack-ng/osdep/network.h"
  #include "/usr/include/aircrack-ng/osdep/osdep.h"
  #include "/usr/include/aircrack-ng/osdep/packed.h"
  #include "/usr/include/aircrack-ng/ptw/aircrack-ptw-lib.h"
  #include "/usr/include/aircrack-ng/support/common.h"
  #include "/usr/include/aircrack-ng/support/communications.h"
  #include "/usr/include/aircrack-ng/support/crypto_engine_loader.h"
  #include "/usr/include/aircrack-ng/support/fragments.h"
  #include "/usr/include/aircrack-ng/support/mcs_index_rates.h"
  #include "/usr/include/aircrack-ng/support/pcap_local.h"
  #include "/usr/include/aircrack-ng/support/station.h"
  #include "/usr/include/aircrack-ng/third-party/eapol.h"
  #include "/usr/include/aircrack-ng/third-party/ethernet.h"
  #include "/usr/include/aircrack-ng/third-party/hashcat.h"
  #include "/usr/include/aircrack-ng/third-party/ieee80211.h"
  #include "/usr/include/aircrack-ng/third-party/if_arp.h"
  #include "/usr/include/aircrack-ng/third-party/if_llc.h"
  #include "/usr/include/aircrack-ng/tui/console.h"
  #include "/usr/include/aircrack-ng/utf8/verifyssid.h"
  #include "/usr/include/aircrack-ng/version.h"

  // add classes
  AP_info* tmp_add_class_0;
  ASN1_ENCODING_st* tmp_add_class_1;
  BIO_sock_info_u* tmp_add_class_2;
  BIT_STRING_BITNAME_st* tmp_add_class_3;
  Fragment_list* tmp_add_class_4;
  MD5state_st* tmp_add_class_5;
  Michael* tmp_add_class_6;
  SHA256state_st* tmp_add_class_7;
  SHA512state_st* tmp_add_class_8;
  SHAstate_st* tmp_add_class_9;
  ST_info* tmp_add_class_10;
  WEP_data* tmp_add_class_11;
  WPA_ST_info* tmp_add_class_12;
  WPA_data* tmp_add_class_13;
  WPA_hdsk* tmp_add_class_14;
  WPS_info* tmp_add_class_15;
  _G_fpos64_t* tmp_add_class_16;
  _G_fpos_t* tmp_add_class_17;
  _IO_cookie_io_functions_t* tmp_add_class_18;
  _cpuinfo* tmp_add_class_19;
  _gpgrt__stream* tmp_add_class_20;
  _gpgrt_cookie_io_functions* tmp_add_class_21;
  _gpgrt_poll_s* tmp_add_class_22;
  _gpgrt_syshd* tmp_add_class_23;
  ac_channel_info* tmp_add_class_24;
  ac_crypto_engine* tmp_add_class_25;
  ac_crypto_engine_perthread* tmp_add_class_26;
  aes_key_st* tmp_add_class_27;
  arphdr* tmp_add_class_28;
  arpreq* tmp_add_class_29;
  arpstat* tmp_add_class_30;
  asn1_string_st* tmp_add_class_31;
  asn1_string_table_st* tmp_add_class_32;
  asn1_type_st* tmp_add_class_33;
  cmsghdr* tmp_add_class_34;
  communication_options* tmp_add_class_35;
  cowpatty_file* tmp_add_class_36;
  crypto_ex_data_st* tmp_add_class_37;
  crypto_threadid_st* tmp_add_class_38;
  devices* tmp_add_class_39;
  dictfiles* tmp_add_class_40;
  ether_addr* tmp_add_class_41;
  ether_header* tmp_add_class_42;
  evp_cipher_info_st* tmp_add_class_43;
  frmrinfo* tmp_add_class_44;
  gcry_kdf_thread_ops* tmp_add_class_45;
  gcry_md_handle* tmp_add_class_46;
  gcry_thread_cbs* tmp_add_class_47;
  group_filter* tmp_add_class_48;
  group_req* tmp_add_class_49;
  group_source_req* tmp_add_class_50;
  hashdb_head* tmp_add_class_51;
  hashdb_rec* tmp_add_class_52;
  hccapx* tmp_add_class_53;
  ieee80211_band* tmp_add_class_54;
  ieee80211_country_ie* tmp_add_class_55;
  ieee80211_duration* tmp_add_class_56;
  ieee80211_frame* tmp_add_class_57;
  ieee80211_frame_ack* tmp_add_class_58;
  ieee80211_frame_addr4* tmp_add_class_59;
  ieee80211_frame_cfend* tmp_add_class_60;
  ieee80211_frame_cts* tmp_add_class_61;
  ieee80211_frame_min* tmp_add_class_62;
  ieee80211_frame_pspoll* tmp_add_class_63;
  ieee80211_frame_rts* tmp_add_class_64;
  ieee80211_ie_wpa* tmp_add_class_65;
  ieee80211_mnf* tmp_add_class_66;
  ieee80211_plcp_hdr* tmp_add_class_67;
  ieee80211_qoscntl* tmp_add_class_68;
  ieee80211_qosframe* tmp_add_class_69;
  ieee80211_qosframe_addr4* tmp_add_class_70;
  ieee80211_tim_ie* tmp_add_class_71;
  ieee80211_wme_acparams* tmp_add_class_72;
  ieee80211_wme_info* tmp_add_class_73;
  ieee80211_wme_param* tmp_add_class_74;
  ieee80211_wme_tspec* tmp_add_class_75;
  in6_addr* tmp_add_class_76;
  in6_pktinfo* tmp_add_class_77;
  in_addr* tmp_add_class_78;
  in_pktinfo* tmp_add_class_79;
  iovec* tmp_add_class_80;
  ip6_mtuinfo* tmp_add_class_81;
  ip_mreq* tmp_add_class_82;
  ip_mreq_source* tmp_add_class_83;
  ip_mreqn* tmp_add_class_84;
  ip_msfilter* tmp_add_class_85;
  ip_opts* tmp_add_class_86;
  ipv6_mreq* tmp_add_class_87;
  itimerval* tmp_add_class_88;
  ivs2_filehdr* tmp_add_class_89;
  ivs2_pkthdr* tmp_add_class_90;
  linger* tmp_add_class_91;
  llc* tmp_add_class_92;
  mergeBSSID* tmp_add_class_93;
  mmsghdr* tmp_add_class_94;
  msghdr* tmp_add_class_95;
  n_channel_info* tmp_add_class_96;
  net_hdr* tmp_add_class_97;
  obj_name_st* tmp_add_class_98;
  options* tmp_add_class_99;
  osockaddr* tmp_add_class_100;
  ossl_algorithm_st* tmp_add_class_101;
  ossl_dispatch_st* tmp_add_class_102;
  ossl_item_st* tmp_add_class_103;
  ossl_param_st* tmp_add_class_104;
  pcap_file_header* tmp_add_class_105;
  pcap_pkthdr* tmp_add_class_106;
  rc4_key_st* tmp_add_class_107;
  rc4_state* tmp_add_class_108;
  rx_info* tmp_add_class_109;
  sockaddr* tmp_add_class_110;
  sockaddr_in* tmp_add_class_111;
  sockaddr_in6* tmp_add_class_112;
  sockaddr_storage* tmp_add_class_113;
  tif* tmp_add_class_114;
  tx_info* tmp_add_class_115;
  ucred* tmp_add_class_116;
  wif* tmp_add_class_117;

The GCC parameters:
  gcc -fdump-lang-raw -fkeep-inline-functions -c -x c++ -fpermissive -w "/tmp/G0_KWdEy6T/dump1.h"

In file included from /usr/include/aircrack-ng/ce-wpa/wpapsk.h:60,
                 from /tmp/G0_KWdEy6T/dump1.h:34:
/usr/include/aircrack-ng/crypto/crypto.h:127:59: error: expected primary-expression before 'static'
  127 | void calc_pmk(char * key, char * essid, unsigned char pmk[static 40]);
      |                                                           ^~~~~~
/usr/include/aircrack-ng/crypto/crypto.h:127:59: error: expected ']' before 'static'
  127 | void calc_pmk(char * key, char * essid, unsigned char pmk[static 40]);
      |                                                           ^~~~~~
      |                                                           ]
/usr/include/aircrack-ng/crypto/crypto.h:127:59: error: expected ')' before 'static'
  127 | void calc_pmk(char * key, char * essid, unsigned char pmk[static 40]);
      |              ~                                            ^~~~~~
      |                                                           )
/usr/include/aircrack-ng/crypto/crypto.h:127:59: error: expected initializer before 'static'
  127 | void calc_pmk(char * key, char * essid, unsigned char pmk[static 40]);
      |                                                           ^~~~~~
/usr/include/aircrack-ng/crypto/crypto.h:133:45: error: expected primary-expression before 'static'
  133 |                           unsigned char pmk[static 32],
      |                                             ^~~~~~
/usr/include/aircrack-ng/crypto/crypto.h:133:45: error: expected ']' before 'static'
  133 |                           unsigned char pmk[static 32],
      |                                             ^~~~~~
      |                                             ]
/usr/include/aircrack-ng/crypto/crypto.h:133:45: error: expected ')' before 'static'
  133 |                           unsigned char pmk[static 32],
      |                                             ^~~~~~
      |                                             )
/usr/include/aircrack-ng/crypto/crypto.h:132:14: note: to match this '('
  132 | void calc_mic(struct AP_info * ap,
      |              ^
/usr/include/aircrack-ng/crypto/crypto.h:133:45: error: expected initializer before 'static'
  133 |                           unsigned char pmk[static 32],
      |                                             ^~~~~~
/usr/include/aircrack-ng/crypto/crypto.h:145:53: error: expected primary-expression before 'static'
  145 |                                   unsigned char TK1[static 16],
      |                                                     ^~~~~~
/usr/include/aircrack-ng/crypto/crypto.h:145:53: error: expected ']' before 'static'
  145 |                                   unsigned char TK1[static 16],
      |                                                     ^~~~~~
      |                                                     ]
/usr/include/aircrack-ng/crypto/crypto.h:145:53: error: expected ')' before 'static'
  145 |                                   unsigned char TK1[static 16],
      |                                                     ^~~~~~
      |                                                     )
/usr/include/aircrack-ng/crypto/crypto.h:143:18: note: to match this '('
  143 | int calc_tkip_ppk(unsigned char * h80211,
      |                  ^
/usr/include/aircrack-ng/crypto/crypto.h:145:53: error: expected initializer before 'static'
  145 |                                   unsigned char TK1[static 16],
      |                                                     ^~~~~~
/usr/include/aircrack-ng/crypto/crypto.h:147:73: error: expected primary-expression before 'static'
  147 | void encrypt_tkip(unsigned char * h80211, int caplen, unsigned char PTK[static 80]);
      |                                                                         ^~~~~~
/usr/include/aircrack-ng/crypto/crypto.h:147:73: error: expected ']' before 'static'
  147 | void encrypt_tkip(unsigned char * h80211, int caplen, unsigned char PTK[static 80]);
      |                                                                         ^~~~~~
      |                                                                         ]
/usr/include/aircrack-ng/crypto/crypto.h:147:73: error: expected ')' before 'static'
  147 | void encrypt_tkip(unsigned char * h80211, int caplen, unsigned char PTK[static 80]);
      |                  ~                                                      ^~~~~~
      |                                                                         )
/usr/include/aircrack-ng/crypto/crypto.h:147:73: error: expected initializer before 'static'
  147 | void encrypt_tkip(unsigned char * h80211, int caplen, unsigned char PTK[static 80]);
      |                                                                         ^~~~~~
/usr/include/aircrack-ng/crypto/crypto.h:148:72: error: expected primary-expression before 'static'
  148 | int decrypt_tkip(unsigned char * h80211, int caplen, unsigned char TK1[static 16]);
      |                                                                        ^~~~~~
/usr/include/aircrack-ng/crypto/crypto.h:148:72: error: expected ']' before 'static'
  148 | int decrypt_tkip(unsigned char * h80211, int caplen, unsigned char TK1[static 16]);
      |                                                                        ^~~~~~
      |                                                                        ]
/usr/include/aircrack-ng/crypto/crypto.h:148:72: error: expected ')' before 'static'
  148 | int decrypt_tkip(unsigned char * h80211, int caplen, unsigned char TK1[static 16]);
      |                 ~                                                      ^~~~~~
      |                                                                        )
/usr/include/aircrack-ng/crypto/crypto.h:148:72: error: expected initializer before 'static'
  148 | int decrypt_tkip(unsigned char * h80211, int caplen, unsigned char TK1[static 16]);
      |                                                                        ^~~~~~
/usr/include/aircrack-ng/crypto/crypto.h:151:52: error: expected primary-expression before 'static'
  151 |                                  unsigned char TK1[static 16],
      |                                                    ^~~~~~
/usr/include/aircrack-ng/crypto/crypto.h:151:52: error: expected ']' before 'static'
  151 |                                  unsigned char TK1[static 16],
      |                                                    ^~~~~~
      |                                                    ]
/usr/include/aircrack-ng/crypto/crypto.h:151:52: error: expected ')' before 'static'
  151 |                                  unsigned char TK1[static 16],
      |                                                    ^~~~~~
      |                                                    )
/usr/include/aircrack-ng/crypto/crypto.h:149:17: note: to match this '('
  149 | int encrypt_ccmp(unsigned char * h80211,
      |                 ^
/usr/include/aircrack-ng/crypto/crypto.h:151:52: error: expected initializer before 'static'
  151 |                                  unsigned char TK1[static 16],
      |                                                    ^~~~~~
/usr/include/aircrack-ng/crypto/crypto.h:153:72: error: expected primary-expression before 'static'
  153 | int decrypt_ccmp(unsigned char * h80211, int caplen, unsigned char TK1[static 16]);
      |                                                                        ^~~~~~
/usr/include/aircrack-ng/crypto/crypto.h:153:72: error: expected ']' before 'static'
  153 | int decrypt_ccmp(unsigned char * h80211, int caplen, unsigned char TK1[static 16]);
      |                                                                        ^~~~~~
      |                                                                        ]
/usr/include/aircrack-ng/crypto/crypto.h:153:72: error: expected ')' before 'static'
  153 | int decrypt_ccmp(unsigned char * h80211, int caplen, unsigned char TK1[static 16]);
      |                 ~                                                      ^~~~~~
      |                                                                        )
/usr/include/aircrack-ng/crypto/crypto.h:153:72: error: expected initializer before 'static'
  153 | int decrypt_ccmp(unsigned char * h80211, int caplen, unsigned char TK1[static 16]);
      |                                                                        ^~~~~~
/usr/include/aircrack-ng/crypto/crypto.h:154:58: error: expected primary-expression before 'static'
  154 | int calc_ptk(struct WPA_ST_info * wpa, unsigned char pmk[static 32]);
      |                                                          ^~~~~~
/usr/include/aircrack-ng/crypto/crypto.h:154:58: error: expected ']' before 'static'
  154 | int calc_ptk(struct WPA_ST_info * wpa, unsigned char pmk[static 32]);
      |                                                          ^~~~~~
      |                                                          ]
/usr/include/aircrack-ng/crypto/crypto.h:154:58: error: expected ')' before 'static'
  154 | int calc_ptk(struct WPA_ST_info * wpa, unsigned char pmk[static 32]);
      |             ~                                            ^~~~~~
      |                                                          )
/usr/include/aircrack-ng/crypto/crypto.h:154:58: error: expected initializer before 'static'
  154 | int calc_ptk(struct WPA_ST_info * wpa, unsigned char pmk[static 32]);
      |                                                          ^~~~~~
/usr/include/aircrack-ng/crypto/crypto.h:157:53: error: expected primary-expression before 'static'
  157 |                                   unsigned char ptk[static 80],
      |                                                     ^~~~~~
/usr/include/aircrack-ng/crypto/crypto.h:157:53: error: expected ']' before 'static'
  157 |                                   unsigned char ptk[static 80],
      |                                                     ^~~~~~
      |                                                     ]
/usr/include/aircrack-ng/crypto/crypto.h:157:53: error: expected ')' before 'static'
  157 |                                   unsigned char ptk[static 80],
      |                                                     ^~~~~~
      |                                                     )
/usr/include/aircrack-ng/crypto/crypto.h:155:18: note: to match this '('
  155 | int calc_tkip_mic(unsigned char * packet,
      |                  ^
/usr/include/aircrack-ng/crypto/crypto.h:157:53: error: expected initializer before 'static'
  157 |                                   unsigned char ptk[static 80],
      |                                                     ^~~~~~
/usr/include/aircrack-ng/crypto/crypto.h:159:36: error: expected primary-expression before 'static'
  159 | int michael_test(unsigned char key[static 8],
      |                                    ^~~~~~
/usr/include/aircrack-ng/crypto/crypto.h:159:36: error: expected ']' before 'static'
  159 | int michael_test(unsigned char key[static 8],
      |                                    ^~~~~~
      |                                    ]
/usr/include/aircrack-ng/crypto/crypto.h:159:36: error: expected ')' before 'static'
  159 | int michael_test(unsigned char key[static 8],
      |                 ~                  ^~~~~~
      |                                    )
/usr/include/aircrack-ng/crypto/crypto.h:159:36: error: expected initializer before 'static'
  159 | int michael_test(unsigned char key[static 8],
      |                                    ^~~~~~
/usr/include/aircrack-ng/crypto/crypto.h:163:77: error: expected primary-expression before 'static'
  163 | int calc_tkip_mic_key(unsigned char * packet, int length, unsigned char key[static 8]);
      |                                                                             ^~~~~~
/usr/include/aircrack-ng/crypto/crypto.h:163:77: error: expected ']' before 'static'
  163 | int calc_tkip_mic_key(unsigned char * packet, int length, unsigned char key[static 8]);
      |                                                                             ^~~~~~
      |                                                                             ]
/usr/include/aircrack-ng/crypto/crypto.h:163:77: error: expected ')' before 'static'
  163 | int calc_tkip_mic_key(unsigned char * packet, int length, unsigned char key[static 8]);
      |                      ~                                                      ^~~~~~
      |                                                                             )
/usr/include/aircrack-ng/crypto/crypto.h:163:77: error: expected initializer before 'static'
  163 | int calc_tkip_mic_key(unsigned char * packet, int length, unsigned char key[static 8]);
      |                                                                             ^~~~~~
In file included from /tmp/G0_KWdEy6T/dump1.h:46:
/usr/include/aircrack-ng/osdep/byteorder.h:44:21: error: expected ')' before '(' token
   44 |         ((u_int32_t)((((u_int32_t)(x) & (u_int32_t) 0x000000ffUL) << 24u)          \
      |         ~           ^
/usr/include/aircrack-ng/osdep/byteorder.h:41:21: error: expected ')' before '(' token
   41 |         ((u_int16_t)((((u_int16_t)(x) & (u_int16_t) 0x00ffU) << 8u)                \
      |         ~           ^
/usr/include/aircrack-ng/osdep/byteorder.h:44:21: error: expected ')' before '(' token
   44 |         ((u_int32_t)((((u_int32_t)(x) & (u_int32_t) 0x000000ffUL) << 24u)          \
      |         ~           ^
/usr/include/aircrack-ng/osdep/byteorder.h:41:21: error: expected ')' before '(' token
   41 |         ((u_int16_t)((((u_int16_t)(x) & (u_int16_t) 0x00ffU) << 8u)                \
      |         ~           ^
ERROR: some errors occurred when compiling headers
ERROR: see log for details:
  /home/adrien/armhf-time_t/out/logs/aircrack-ng/time_t/abi-compliance-checker.log


Creating library ABI dump ...
Dump path: out/logs/aircrack-ng/aircrack-ng_time_t.dump
