[2024-01-09T21:25:46+00:00] apt-get install qt6-sensors-dev qt6-base-dev abi-compliance-checker
Reading package lists...
Building dependency tree...
Reading state information...
qt6-base-dev is already the newest version (6.4.2+dfsg-20).
qt6-base-dev set to manually installed.
abi-compliance-checker is already the newest version (2.3-2).
The following packages were automatically installed and are no longer required:
  libqt6scxml6 libqt6scxml6-bin libqt6scxmlqml6 libqt6statemachine6
  libqt6statemachineqml6 qt6-scxml-dev
Use 'apt autoremove' to remove them.
The following NEW packages will be installed:
  libqt6sensors6 libqt6sensorsquick6 qt6-sensors-dev
0 upgraded, 3 newly installed, 0 to remove and 75 not upgraded.
Need to get 168 kB of archives.
After this operation, 1026 kB of additional disk space will be used.
Get:1 http://deb.debian.org/debian unstable/main armhf libqt6sensors6 armhf 6.4.2-4 [84.5 kB]
Get:2 http://deb.debian.org/debian unstable/main armhf libqt6sensorsquick6 armhf 6.4.2-4 [55.0 kB]
Get:3 http://deb.debian.org/debian unstable/main armhf qt6-sensors-dev armhf 6.4.2-4 [28.9 kB]
debconf: delaying package configuration, since apt-utils is not installed
Fetched 168 kB in 0s (402 kB/s)
Selecting previously unselected package libqt6sensors6:armhf.
(Reading database ... (Reading database ... 5%(Reading database ... 10%(Reading database ... 15%(Reading database ... 20%(Reading database ... 25%(Reading database ... 30%(Reading database ... 35%(Reading database ... 40%(Reading database ... 45%(Reading database ... 50%(Reading database ... 55%(Reading database ... 60%(Reading database ... 65%(Reading database ... 70%(Reading database ... 75%(Reading database ... 80%(Reading database ... 85%(Reading database ... 90%(Reading database ... 95%(Reading database ... 100%(Reading database ... 18878 files and directories currently installed.)
Preparing to unpack .../libqt6sensors6_6.4.2-4_armhf.deb ...
Unpacking libqt6sensors6:armhf (6.4.2-4) ...
Selecting previously unselected package libqt6sensorsquick6:armhf.
Preparing to unpack .../libqt6sensorsquick6_6.4.2-4_armhf.deb ...
Unpacking libqt6sensorsquick6:armhf (6.4.2-4) ...
Selecting previously unselected package qt6-sensors-dev:armhf.
Preparing to unpack .../qt6-sensors-dev_6.4.2-4_armhf.deb ...
Unpacking qt6-sensors-dev:armhf (6.4.2-4) ...
Setting up libqt6sensors6:armhf (6.4.2-4) ...
Setting up libqt6sensorsquick6:armhf (6.4.2-4) ...
Setting up qt6-sensors-dev:armhf (6.4.2-4) ...
Processing triggers for libc-bin (2.37-13) ...
Reading package lists...
Building dependency tree...
Reading state information...
The following packages will be REMOVED:
  libqt6scxml6* libqt6scxml6-bin* libqt6scxmlqml6* libqt6statemachine6*
  libqt6statemachineqml6* qt6-scxml-dev*
0 upgraded, 0 newly installed, 6 to remove and 75 not upgraded.
After this operation, 1669 kB disk space will be freed.
(Reading database ... (Reading database ... 5%(Reading database ... 10%(Reading database ... 15%(Reading database ... 20%(Reading database ... 25%(Reading database ... 30%(Reading database ... 35%(Reading database ... 40%(Reading database ... 45%(Reading database ... 50%(Reading database ... 55%(Reading database ... 60%(Reading database ... 65%(Reading database ... 70%(Reading database ... 75%(Reading database ... 80%(Reading database ... 85%(Reading database ... 90%(Reading database ... 95%(Reading database ... 100%(Reading database ... 19044 files and directories currently installed.)
Removing qt6-scxml-dev:armhf (6.4.2-4) ...
Removing libqt6scxml6-bin (6.4.2-4) ...
Removing libqt6scxmlqml6:armhf (6.4.2-4) ...
Removing libqt6scxml6:armhf (6.4.2-4) ...
Removing libqt6statemachineqml6:armhf (6.4.2-4) ...
Removing libqt6statemachine6:armhf (6.4.2-4) ...
Processing triggers for libc-bin (2.37-13) ...
