[2024-01-09T22:05:26+00:00] apt-get install qtdeclarative5-dev abi-compliance-checker
Reading package lists...
Building dependency tree...
Reading state information...
abi-compliance-checker is already the newest version (2.3-2).
The following packages were automatically installed and are no longer required:
  libqt5datavisualization5 qml-module-qtdatavisualization qml-module-qtquick2
  qtdatavisualization5-examples
Use 'apt autoremove' to remove them.
The following additional packages will be installed:
  libavahi-client3 libavahi-common-data libavahi-common3 libcups2
  libdrm-amdgpu1 libdrm-nouveau2 libdrm-radeon1 libedit2 libegl-dev libgl-dev
  libgl1 libgl1-mesa-dri libgles-dev libgles1 libglx-dev libglx-mesa0 libglx0
  libllvm17 libpthread-stubs0-dev libqt5concurrent5 libqt5printsupport5
  libqt5quickparticles5 libqt5quickshapes5 libqt5quicktest5
  libqt5quickwidgets5 libqt5sql5 libqt5test5 libqt5xml5 libsensors-config
  libsensors5 libvulkan-dev libvulkan1 libx11-dev libxau-dev libxcb-glx0
  libxcb1-dev libxdmcp-dev libxext-dev libxext6 libxfixes3 libxxf86vm1 libz3-4
  qt5-qmake qt5-qmake-bin qt5-qmltooling-plugins qtbase5-dev qtbase5-dev-tools
  qtchooser qtdeclarative5-dev-tools x11proto-dev xorg-sgml-doctools
  xtrans-dev
Suggested packages:
  cups-common lm-sensors libx11-doc libxcb-doc libxext-doc
  default-libmysqlclient-dev firebird-dev libpq-dev libsqlite3-dev
  unixodbc-dev
Recommended packages:
  libqt5sql5-sqlite | libqt5sql5-mysql | libqt5sql5-odbc | libqt5sql5-psql
  | libqt5sql5-tds | libqt5sql5-ibase mesa-vulkan-drivers | vulkan-icd
  libqt5opengl5-dev
The following NEW packages will be installed:
  libavahi-client3 libavahi-common-data libavahi-common3 libcups2
  libdrm-amdgpu1 libdrm-nouveau2 libdrm-radeon1 libedit2 libegl-dev libgl-dev
  libgl1 libgl1-mesa-dri libgles-dev libgles1 libglx-dev libglx-mesa0 libglx0
  libllvm17 libpthread-stubs0-dev libqt5concurrent5 libqt5printsupport5
  libqt5quickparticles5 libqt5quickshapes5 libqt5quicktest5
  libqt5quickwidgets5 libqt5sql5 libqt5test5 libqt5xml5 libsensors-config
  libsensors5 libvulkan-dev libvulkan1 libx11-dev libxau-dev libxcb-glx0
  libxcb1-dev libxdmcp-dev libxext-dev libxext6 libxfixes3 libxxf86vm1 libz3-4
  qt5-qmake qt5-qmake-bin qt5-qmltooling-plugins qtbase5-dev qtbase5-dev-tools
  qtchooser qtdeclarative5-dev qtdeclarative5-dev-tools x11proto-dev
  xorg-sgml-doctools xtrans-dev
0 upgraded, 53 newly installed, 0 to remove and 73 not upgraded.
Need to get 43.7 MB of archives.
After this operation, 216 MB of additional disk space will be used.
Get:1 http://deb.debian.org/debian unstable/main armhf libavahi-common-data armhf 0.8-13+b1 [111 kB]
Get:2 http://deb.debian.org/debian unstable/main armhf libavahi-common3 armhf 0.8-13+b1 [40.1 kB]
Get:3 http://deb.debian.org/debian unstable/main armhf libavahi-client3 armhf 0.8-13+b1 [43.4 kB]
Get:4 http://deb.debian.org/debian unstable/main armhf libcups2 armhf 2.4.7-1+b1 [212 kB]
Get:5 http://deb.debian.org/debian unstable/main armhf libdrm-amdgpu1 armhf 2.4.117-1 [19.6 kB]
Get:6 http://deb.debian.org/debian unstable/main armhf libdrm-nouveau2 armhf 2.4.117-1 [16.6 kB]
Get:7 http://deb.debian.org/debian unstable/main armhf libdrm-radeon1 armhf 2.4.117-1 [19.1 kB]
Get:8 http://deb.debian.org/debian unstable/main armhf libedit2 armhf 3.1-20230828-1 [76.8 kB]
Get:9 http://deb.debian.org/debian unstable/main armhf libxcb-glx0 armhf 1.15-1 [120 kB]
Get:10 http://deb.debian.org/debian unstable/main armhf libxext6 armhf 2:1.3.4-1+b1 [47.8 kB]
Get:11 http://deb.debian.org/debian unstable/main armhf libxfixes3 armhf 1:6.0.0-2 [21.1 kB]
Get:12 http://deb.debian.org/debian unstable/main armhf libxxf86vm1 armhf 1:1.1.4-1+b2 [20.2 kB]
Get:13 http://deb.debian.org/debian unstable/main armhf libvulkan1 armhf 1.3.268.0-1 [107 kB]
Get:14 http://deb.debian.org/debian unstable/main armhf libz3-4 armhf 4.8.12-3.1+b2 [6324 kB]
Get:15 http://deb.debian.org/debian unstable/main armhf libllvm17 armhf 1:17.0.6-3 [21.6 MB]
Get:16 http://deb.debian.org/debian unstable/main armhf libsensors-config all 1:3.6.0-8 [14.4 kB]
Get:17 http://deb.debian.org/debian unstable/main armhf libsensors5 armhf 1:3.6.0-8 [31.6 kB]
Get:18 http://deb.debian.org/debian unstable/main armhf libgl1-mesa-dri armhf 23.3.2-2 [6398 kB]
Get:19 http://deb.debian.org/debian unstable/main armhf libglx-mesa0 armhf 23.3.2-2 [129 kB]
Get:20 http://deb.debian.org/debian unstable/main armhf libglx0 armhf 1.7.0-1 [32.2 kB]
Get:21 http://deb.debian.org/debian unstable/main armhf libgl1 armhf 1.7.0-1 [90.8 kB]
Get:22 http://deb.debian.org/debian unstable/main armhf xorg-sgml-doctools all 1:1.11-1.1 [22.1 kB]
Get:23 http://deb.debian.org/debian unstable/main armhf x11proto-dev all 2023.2-1 [598 kB]
Get:24 http://deb.debian.org/debian unstable/main armhf libxau-dev armhf 1:1.0.9-1 [22.4 kB]
Get:25 http://deb.debian.org/debian unstable/main armhf libxdmcp-dev armhf 1:1.1.2-3 [40.7 kB]
Get:26 http://deb.debian.org/debian unstable/main armhf xtrans-dev all 1.4.0-1 [98.7 kB]
Get:27 http://deb.debian.org/debian unstable/main armhf libpthread-stubs0-dev armhf 0.4-1 [5344 B]
Get:28 http://deb.debian.org/debian unstable/main armhf libxcb1-dev armhf 1.15-1 [179 kB]
Get:29 http://deb.debian.org/debian unstable/main armhf libx11-dev armhf 2:1.8.7-1 [816 kB]
Get:30 http://deb.debian.org/debian unstable/main armhf libglx-dev armhf 1.7.0-1 [15.5 kB]
Get:31 http://deb.debian.org/debian unstable/main armhf libgl-dev armhf 1.7.0-1 [100 kB]
Get:32 http://deb.debian.org/debian unstable/main armhf libegl-dev armhf 1.7.0-1 [19.2 kB]
Get:33 http://deb.debian.org/debian unstable/main armhf libgles1 armhf 1.7.0-1 [12.0 kB]
Get:34 http://deb.debian.org/debian unstable/main armhf libgles-dev armhf 1.7.0-1 [50.5 kB]
Get:35 http://deb.debian.org/debian unstable/main armhf libqt5concurrent5 armhf 5.15.10+dfsg-5 [41.8 kB]
Get:36 http://deb.debian.org/debian unstable/main armhf libqt5printsupport5 armhf 5.15.10+dfsg-5 [186 kB]
Get:37 http://deb.debian.org/debian unstable/main armhf libqt5quickparticles5 armhf 5.15.10+dfsg-2 [184 kB]
Get:38 http://deb.debian.org/debian unstable/main armhf libqt5quickshapes5 armhf 5.15.10+dfsg-2 [84.8 kB]
Get:39 http://deb.debian.org/debian unstable/main armhf libqt5test5 armhf 5.15.10+dfsg-5 [133 kB]
Get:40 http://deb.debian.org/debian unstable/main armhf libqt5quicktest5 armhf 5.15.10+dfsg-2 [51.7 kB]
Get:41 http://deb.debian.org/debian unstable/main armhf libqt5quickwidgets5 armhf 5.15.10+dfsg-2 [36.1 kB]
Get:42 http://deb.debian.org/debian unstable/main armhf libqt5sql5 armhf 5.15.10+dfsg-5 [110 kB]
Get:43 http://deb.debian.org/debian unstable/main armhf libqt5xml5 armhf 5.15.10+dfsg-5 [110 kB]
Get:44 http://deb.debian.org/debian unstable/main armhf libvulkan-dev armhf 1.3.268.0-1 [1270 kB]
Get:45 http://deb.debian.org/debian unstable/main armhf libxext-dev armhf 2:1.3.4-1+b1 [103 kB]
Get:46 http://deb.debian.org/debian unstable/main armhf qt5-qmake-bin armhf 5.15.10+dfsg-5 [901 kB]
Get:47 http://deb.debian.org/debian unstable/main armhf qtchooser armhf 66-2 [23.6 kB]
Get:48 http://deb.debian.org/debian unstable/main armhf qt5-qmake armhf 5.15.10+dfsg-5 [222 kB]
Get:49 http://deb.debian.org/debian unstable/main armhf qt5-qmltooling-plugins armhf 5.15.10+dfsg-2 [154 kB]
Get:50 http://deb.debian.org/debian unstable/main armhf qtbase5-dev-tools armhf 5.15.10+dfsg-5 [650 kB]
Get:51 http://deb.debian.org/debian unstable/main armhf qtbase5-dev armhf 5.15.10+dfsg-5 [1068 kB]
Get:52 http://deb.debian.org/debian unstable/main armhf qtdeclarative5-dev-tools armhf 5.15.10+dfsg-2 [519 kB]
Get:53 http://deb.debian.org/debian unstable/main armhf qtdeclarative5-dev armhf 5.15.10+dfsg-2 [426 kB]
debconf: delaying package configuration, since apt-utils is not installed
Fetched 43.7 MB in 1s (35.8 MB/s)
Selecting previously unselected package libavahi-common-data:armhf.
(Reading database ... (Reading database ... 5%(Reading database ... 10%(Reading database ... 15%(Reading database ... 20%(Reading database ... 25%(Reading database ... 30%(Reading database ... 35%(Reading database ... 40%(Reading database ... 45%(Reading database ... 50%(Reading database ... 55%(Reading database ... 60%(Reading database ... 65%(Reading database ... 70%(Reading database ... 75%(Reading database ... 80%(Reading database ... 85%(Reading database ... 90%(Reading database ... 95%(Reading database ... 100%(Reading database ... 14942 files and directories currently installed.)
Preparing to unpack .../00-libavahi-common-data_0.8-13+b1_armhf.deb ...
Unpacking libavahi-common-data:armhf (0.8-13+b1) ...
Selecting previously unselected package libavahi-common3:armhf.
Preparing to unpack .../01-libavahi-common3_0.8-13+b1_armhf.deb ...
Unpacking libavahi-common3:armhf (0.8-13+b1) ...
Selecting previously unselected package libavahi-client3:armhf.
Preparing to unpack .../02-libavahi-client3_0.8-13+b1_armhf.deb ...
Unpacking libavahi-client3:armhf (0.8-13+b1) ...
Selecting previously unselected package libcups2:armhf.
Preparing to unpack .../03-libcups2_2.4.7-1+b1_armhf.deb ...
Unpacking libcups2:armhf (2.4.7-1+b1) ...
Selecting previously unselected package libdrm-amdgpu1:armhf.
Preparing to unpack .../04-libdrm-amdgpu1_2.4.117-1_armhf.deb ...
Unpacking libdrm-amdgpu1:armhf (2.4.117-1) ...
Selecting previously unselected package libdrm-nouveau2:armhf.
Preparing to unpack .../05-libdrm-nouveau2_2.4.117-1_armhf.deb ...
Unpacking libdrm-nouveau2:armhf (2.4.117-1) ...
Selecting previously unselected package libdrm-radeon1:armhf.
Preparing to unpack .../06-libdrm-radeon1_2.4.117-1_armhf.deb ...
Unpacking libdrm-radeon1:armhf (2.4.117-1) ...
Selecting previously unselected package libedit2:armhf.
Preparing to unpack .../07-libedit2_3.1-20230828-1_armhf.deb ...
Unpacking libedit2:armhf (3.1-20230828-1) ...
Selecting previously unselected package libxcb-glx0:armhf.
Preparing to unpack .../08-libxcb-glx0_1.15-1_armhf.deb ...
Unpacking libxcb-glx0:armhf (1.15-1) ...
Selecting previously unselected package libxext6:armhf.
Preparing to unpack .../09-libxext6_2%3a1.3.4-1+b1_armhf.deb ...
Unpacking libxext6:armhf (2:1.3.4-1+b1) ...
Selecting previously unselected package libxfixes3:armhf.
Preparing to unpack .../10-libxfixes3_1%3a6.0.0-2_armhf.deb ...
Unpacking libxfixes3:armhf (1:6.0.0-2) ...
Selecting previously unselected package libxxf86vm1:armhf.
Preparing to unpack .../11-libxxf86vm1_1%3a1.1.4-1+b2_armhf.deb ...
Unpacking libxxf86vm1:armhf (1:1.1.4-1+b2) ...
Selecting previously unselected package libvulkan1:armhf.
Preparing to unpack .../12-libvulkan1_1.3.268.0-1_armhf.deb ...
Unpacking libvulkan1:armhf (1.3.268.0-1) ...
Selecting previously unselected package libz3-4:armhf.
Preparing to unpack .../13-libz3-4_4.8.12-3.1+b2_armhf.deb ...
Unpacking libz3-4:armhf (4.8.12-3.1+b2) ...
Selecting previously unselected package libllvm17:armhf.
Preparing to unpack .../14-libllvm17_1%3a17.0.6-3_armhf.deb ...
Unpacking libllvm17:armhf (1:17.0.6-3) ...
Selecting previously unselected package libsensors-config.
Preparing to unpack .../15-libsensors-config_1%3a3.6.0-8_all.deb ...
Unpacking libsensors-config (1:3.6.0-8) ...
Selecting previously unselected package libsensors5:armhf.
Preparing to unpack .../16-libsensors5_1%3a3.6.0-8_armhf.deb ...
Unpacking libsensors5:armhf (1:3.6.0-8) ...
Selecting previously unselected package libgl1-mesa-dri:armhf.
Preparing to unpack .../17-libgl1-mesa-dri_23.3.2-2_armhf.deb ...
Unpacking libgl1-mesa-dri:armhf (23.3.2-2) ...
Selecting previously unselected package libglx-mesa0:armhf.
Preparing to unpack .../18-libglx-mesa0_23.3.2-2_armhf.deb ...
Unpacking libglx-mesa0:armhf (23.3.2-2) ...
Selecting previously unselected package libglx0:armhf.
Preparing to unpack .../19-libglx0_1.7.0-1_armhf.deb ...
Unpacking libglx0:armhf (1.7.0-1) ...
Selecting previously unselected package libgl1:armhf.
Preparing to unpack .../20-libgl1_1.7.0-1_armhf.deb ...
Unpacking libgl1:armhf (1.7.0-1) ...
Selecting previously unselected package xorg-sgml-doctools.
Preparing to unpack .../21-xorg-sgml-doctools_1%3a1.11-1.1_all.deb ...
Unpacking xorg-sgml-doctools (1:1.11-1.1) ...
Selecting previously unselected package x11proto-dev.
Preparing to unpack .../22-x11proto-dev_2023.2-1_all.deb ...
Unpacking x11proto-dev (2023.2-1) ...
Selecting previously unselected package libxau-dev:armhf.
Preparing to unpack .../23-libxau-dev_1%3a1.0.9-1_armhf.deb ...
Unpacking libxau-dev:armhf (1:1.0.9-1) ...
Selecting previously unselected package libxdmcp-dev:armhf.
Preparing to unpack .../24-libxdmcp-dev_1%3a1.1.2-3_armhf.deb ...
Unpacking libxdmcp-dev:armhf (1:1.1.2-3) ...
Selecting previously unselected package xtrans-dev.
Preparing to unpack .../25-xtrans-dev_1.4.0-1_all.deb ...
Unpacking xtrans-dev (1.4.0-1) ...
Selecting previously unselected package libpthread-stubs0-dev:armhf.
Preparing to unpack .../26-libpthread-stubs0-dev_0.4-1_armhf.deb ...
Unpacking libpthread-stubs0-dev:armhf (0.4-1) ...
Selecting previously unselected package libxcb1-dev:armhf.
Preparing to unpack .../27-libxcb1-dev_1.15-1_armhf.deb ...
Unpacking libxcb1-dev:armhf (1.15-1) ...
Selecting previously unselected package libx11-dev:armhf.
Preparing to unpack .../28-libx11-dev_2%3a1.8.7-1_armhf.deb ...
Unpacking libx11-dev:armhf (2:1.8.7-1) ...
Selecting previously unselected package libglx-dev:armhf.
Preparing to unpack .../29-libglx-dev_1.7.0-1_armhf.deb ...
Unpacking libglx-dev:armhf (1.7.0-1) ...
Selecting previously unselected package libgl-dev:armhf.
Preparing to unpack .../30-libgl-dev_1.7.0-1_armhf.deb ...
Unpacking libgl-dev:armhf (1.7.0-1) ...
Selecting previously unselected package libegl-dev:armhf.
Preparing to unpack .../31-libegl-dev_1.7.0-1_armhf.deb ...
Unpacking libegl-dev:armhf (1.7.0-1) ...
Selecting previously unselected package libgles1:armhf.
Preparing to unpack .../32-libgles1_1.7.0-1_armhf.deb ...
Unpacking libgles1:armhf (1.7.0-1) ...
Selecting previously unselected package libgles-dev:armhf.
Preparing to unpack .../33-libgles-dev_1.7.0-1_armhf.deb ...
Unpacking libgles-dev:armhf (1.7.0-1) ...
Selecting previously unselected package libqt5concurrent5:armhf.
Preparing to unpack .../34-libqt5concurrent5_5.15.10+dfsg-5_armhf.deb ...
Unpacking libqt5concurrent5:armhf (5.15.10+dfsg-5) ...
Selecting previously unselected package libqt5printsupport5:armhf.
Preparing to unpack .../35-libqt5printsupport5_5.15.10+dfsg-5_armhf.deb ...
Unpacking libqt5printsupport5:armhf (5.15.10+dfsg-5) ...
Selecting previously unselected package libqt5quickparticles5:armhf.
Preparing to unpack .../36-libqt5quickparticles5_5.15.10+dfsg-2_armhf.deb ...
Unpacking libqt5quickparticles5:armhf (5.15.10+dfsg-2) ...
Selecting previously unselected package libqt5quickshapes5:armhf.
Preparing to unpack .../37-libqt5quickshapes5_5.15.10+dfsg-2_armhf.deb ...
Unpacking libqt5quickshapes5:armhf (5.15.10+dfsg-2) ...
Selecting previously unselected package libqt5test5:armhf.
Preparing to unpack .../38-libqt5test5_5.15.10+dfsg-5_armhf.deb ...
Unpacking libqt5test5:armhf (5.15.10+dfsg-5) ...
Selecting previously unselected package libqt5quicktest5:armhf.
Preparing to unpack .../39-libqt5quicktest5_5.15.10+dfsg-2_armhf.deb ...
Unpacking libqt5quicktest5:armhf (5.15.10+dfsg-2) ...
Selecting previously unselected package libqt5quickwidgets5:armhf.
Preparing to unpack .../40-libqt5quickwidgets5_5.15.10+dfsg-2_armhf.deb ...
Unpacking libqt5quickwidgets5:armhf (5.15.10+dfsg-2) ...
Selecting previously unselected package libqt5sql5:armhf.
Preparing to unpack .../41-libqt5sql5_5.15.10+dfsg-5_armhf.deb ...
Unpacking libqt5sql5:armhf (5.15.10+dfsg-5) ...
Selecting previously unselected package libqt5xml5:armhf.
Preparing to unpack .../42-libqt5xml5_5.15.10+dfsg-5_armhf.deb ...
Unpacking libqt5xml5:armhf (5.15.10+dfsg-5) ...
Selecting previously unselected package libvulkan-dev:armhf.
Preparing to unpack .../43-libvulkan-dev_1.3.268.0-1_armhf.deb ...
Unpacking libvulkan-dev:armhf (1.3.268.0-1) ...
Selecting previously unselected package libxext-dev:armhf.
Preparing to unpack .../44-libxext-dev_2%3a1.3.4-1+b1_armhf.deb ...
Unpacking libxext-dev:armhf (2:1.3.4-1+b1) ...
Selecting previously unselected package qt5-qmake-bin.
Preparing to unpack .../45-qt5-qmake-bin_5.15.10+dfsg-5_armhf.deb ...
Unpacking qt5-qmake-bin (5.15.10+dfsg-5) ...
Selecting previously unselected package qtchooser.
Preparing to unpack .../46-qtchooser_66-2_armhf.deb ...
Unpacking qtchooser (66-2) ...
Selecting previously unselected package qt5-qmake:armhf.
Preparing to unpack .../47-qt5-qmake_5.15.10+dfsg-5_armhf.deb ...
Unpacking qt5-qmake:armhf (5.15.10+dfsg-5) ...
Selecting previously unselected package qt5-qmltooling-plugins:armhf.
Preparing to unpack .../48-qt5-qmltooling-plugins_5.15.10+dfsg-2_armhf.deb ...
Unpacking qt5-qmltooling-plugins:armhf (5.15.10+dfsg-2) ...
Selecting previously unselected package qtbase5-dev-tools.
Preparing to unpack .../49-qtbase5-dev-tools_5.15.10+dfsg-5_armhf.deb ...
Unpacking qtbase5-dev-tools (5.15.10+dfsg-5) ...
Selecting previously unselected package qtbase5-dev:armhf.
Preparing to unpack .../50-qtbase5-dev_5.15.10+dfsg-5_armhf.deb ...
Unpacking qtbase5-dev:armhf (5.15.10+dfsg-5) ...
Selecting previously unselected package qtdeclarative5-dev-tools.
Preparing to unpack .../51-qtdeclarative5-dev-tools_5.15.10+dfsg-2_armhf.deb ...
Unpacking qtdeclarative5-dev-tools (5.15.10+dfsg-2) ...
Selecting previously unselected package qtdeclarative5-dev:armhf.
Preparing to unpack .../52-qtdeclarative5-dev_5.15.10+dfsg-2_armhf.deb ...
Unpacking qtdeclarative5-dev:armhf (5.15.10+dfsg-2) ...
Setting up libqt5quickshapes5:armhf (5.15.10+dfsg-2) ...
Setting up libdrm-nouveau2:armhf (2.4.117-1) ...
Setting up libdrm-radeon1:armhf (2.4.117-1) ...
Setting up libxcb-glx0:armhf (1.15-1) ...
Setting up libedit2:armhf (3.1-20230828-1) ...
Setting up libsensors-config (1:3.6.0-8) ...
Setting up libxext6:armhf (2:1.3.4-1+b1) ...
Setting up libpthread-stubs0-dev:armhf (0.4-1) ...
Setting up libxxf86vm1:armhf (1:1.1.4-1+b2) ...
Setting up qt5-qmltooling-plugins:armhf (5.15.10+dfsg-2) ...
Setting up libqt5quickwidgets5:armhf (5.15.10+dfsg-2) ...
Setting up libqt5sql5:armhf (5.15.10+dfsg-5) ...
Setting up xtrans-dev (1.4.0-1) ...
Setting up libqt5xml5:armhf (5.15.10+dfsg-5) ...
Setting up libz3-4:armhf (4.8.12-3.1+b2) ...
Setting up qt5-qmake-bin (5.15.10+dfsg-5) ...
Setting up libxfixes3:armhf (1:6.0.0-2) ...
Setting up libavahi-common-data:armhf (0.8-13+b1) ...
Setting up libgles1:armhf (1.7.0-1) ...
Setting up libsensors5:armhf (1:3.6.0-8) ...
Setting up libvulkan1:armhf (1.3.268.0-1) ...
Setting up xorg-sgml-doctools (1:1.11-1.1) ...
Setting up libqt5quickparticles5:armhf (5.15.10+dfsg-2) ...
Setting up libqt5test5:armhf (5.15.10+dfsg-5) ...
Setting up libllvm17:armhf (1:17.0.6-3) ...
Setting up libqt5concurrent5:armhf (5.15.10+dfsg-5) ...
Setting up qtchooser (66-2) ...
Setting up libdrm-amdgpu1:armhf (2.4.117-1) ...
Setting up x11proto-dev (2023.2-1) ...
Setting up libqt5quicktest5:armhf (5.15.10+dfsg-2) ...
Setting up libvulkan-dev:armhf (1.3.268.0-1) ...
Setting up libxau-dev:armhf (1:1.0.9-1) ...
Setting up qt5-qmake:armhf (5.15.10+dfsg-5) ...
Setting up qtdeclarative5-dev-tools (5.15.10+dfsg-2) ...
Setting up libgl1-mesa-dri:armhf (23.3.2-2) ...
Setting up libavahi-common3:armhf (0.8-13+b1) ...
Setting up qtbase5-dev-tools (5.15.10+dfsg-5) ...
Setting up libxdmcp-dev:armhf (1:1.1.2-3) ...
Setting up libavahi-client3:armhf (0.8-13+b1) ...
Setting up libglx-mesa0:armhf (23.3.2-2) ...
Setting up libxcb1-dev:armhf (1.15-1) ...
Setting up libglx0:armhf (1.7.0-1) ...
Setting up libx11-dev:armhf (2:1.8.7-1) ...
Setting up libgl1:armhf (1.7.0-1) ...
Setting up libxext-dev:armhf (2:1.3.4-1+b1) ...
Setting up libcups2:armhf (2.4.7-1+b1) ...
Setting up libglx-dev:armhf (1.7.0-1) ...
Setting up libgl-dev:armhf (1.7.0-1) ...
Setting up libegl-dev:armhf (1.7.0-1) ...
Setting up libqt5printsupport5:armhf (5.15.10+dfsg-5) ...
Setting up libgles-dev:armhf (1.7.0-1) ...
Setting up qtbase5-dev:armhf (5.15.10+dfsg-5) ...
Setting up qtdeclarative5-dev:armhf (5.15.10+dfsg-2) ...
Processing triggers for libc-bin (2.37-13) ...
Reading package lists...
Building dependency tree...
Reading state information...
The following packages will be REMOVED:
  libqt5datavisualization5* qml-module-qtdatavisualization*
  qml-module-qtquick2* qtdatavisualization5-examples*
0 upgraded, 0 newly installed, 4 to remove and 73 not upgraded.
After this operation, 6423 kB disk space will be freed.
(Reading database ... (Reading database ... 5%(Reading database ... 10%(Reading database ... 15%(Reading database ... 20%(Reading database ... 25%(Reading database ... 30%(Reading database ... 35%(Reading database ... 40%(Reading database ... 45%(Reading database ... 50%(Reading database ... 55%(Reading database ... 60%(Reading database ... 65%(Reading database ... 70%(Reading database ... 75%(Reading database ... 80%(Reading database ... 85%(Reading database ... 90%(Reading database ... 95%(Reading database ... 100%(Reading database ... 18834 files and directories currently installed.)
Removing qtdatavisualization5-examples:armhf (5.15.10-2) ...
Removing qml-module-qtdatavisualization:armhf (5.15.10-2) ...
Removing libqt5datavisualization5:armhf (5.15.10-2) ...
Removing qml-module-qtquick2:armhf (5.15.10+dfsg-2) ...
Processing triggers for libc-bin (2.37-13) ...
