Temporary header file '/tmp/89xHmTpkf3/dump1.h' with the following content will be compiled to create GCC translation unit dump:

  // add defines
  #define __STDC_VERSION__ 201710L
#define _TIME_BITS 64
#define _FILE_OFFSET_BITS 64
#define _GXX_NULLPTR_T
#define CLUTTER_ENABLE_COMPOSITOR_API 1
#define _REGEX_NELTS(n)
#define _Atomic
#define PACKED
#ifdef __cplusplus
// C17 compat layer
#define _Alignof(type) alignof(type)
#endif
#define getaddrinfo_a(a,b,c,d)

  // add includes
  #include "/usr/include/arm-linux-gnueabihf/qt5/MprisQt/mpris.h"
  #include "/usr/include/arm-linux-gnueabihf/qt5/MprisQt/mpriscontroller.h"
  #include "/usr/include/arm-linux-gnueabihf/qt5/MprisQt/mprismanager.h"
  #include "/usr/include/arm-linux-gnueabihf/qt5/MprisQt/mprisplayer.h"
  #include "/usr/include/arm-linux-gnueabihf/qt5/MprisQt/mprisqt.h"

  // add namespaces
  namespace QAlgorithmsPrivate{typedef int tmp_add_type_1;}
  QAlgorithmsPrivate::tmp_add_type_1 tmp_add_func_1(){return 0;};
  namespace QDBus{typedef int tmp_add_type_2;}
  QDBus::tmp_add_type_2 tmp_add_func_2(){return 0;};
  namespace Qt{typedef int tmp_add_type_3;}
  Qt::tmp_add_type_3 tmp_add_func_3(){return 0;};
  namespace QtGlobalStatic{typedef int tmp_add_type_4;}
  QtGlobalStatic::tmp_add_type_4 tmp_add_func_4(){return 0;};
  namespace QtMetaTypePrivate{typedef int tmp_add_type_5;}
  QtMetaTypePrivate::tmp_add_type_5 tmp_add_func_5(){return 0;};
  namespace QtMetaTypePrivate{namespace QtPrivate{typedef int tmp_add_type_6;}}
  QtMetaTypePrivate::QtPrivate::tmp_add_type_6 tmp_add_func_6(){return 0;};
  namespace QtMetaTypePrivate{namespace QtPrivate{namespace ContainerCapabilitiesMetaProgrammingHelper{typedef int tmp_add_type_7;}}}
  QtMetaTypePrivate::QtPrivate::ContainerCapabilitiesMetaProgrammingHelper::tmp_add_type_7 tmp_add_func_7(){return 0;};
  namespace QtPrivate{typedef int tmp_add_type_8;}
  QtPrivate::tmp_add_type_8 tmp_add_func_8(){return 0;};
  namespace QtPrivate{namespace DeprecatedRefClassBehavior{typedef int tmp_add_type_9;}}
  QtPrivate::DeprecatedRefClassBehavior::tmp_add_type_9 tmp_add_func_9(){return 0;};
  namespace QtPrivate{namespace SwapExceptionTester{typedef int tmp_add_type_10;}}
  QtPrivate::SwapExceptionTester::tmp_add_type_10 tmp_add_func_10(){return 0;};
  namespace QtSharedPointer{typedef int tmp_add_type_11;}
  QtSharedPointer::tmp_add_type_11 tmp_add_func_11(){return 0;};

  // add classes
  Mpris* tmp_add_class_0;
  MprisController* tmp_add_class_1;
  MprisManager* tmp_add_class_2;
  MprisPlayer* tmp_add_class_3;
  QArrayData* tmp_add_class_4;
  QAssociativeIterable* tmp_add_class_5;
  QAtomicInt* tmp_add_class_6;
  QByteArray* tmp_add_class_7;
  QByteArrayDataPtr* tmp_add_class_8;
  QByteRef* tmp_add_class_9;
  QChar* tmp_add_class_10;
  QCharRef* tmp_add_class_11;
  QDBusConnection* tmp_add_class_12;
  QDBusContext* tmp_add_class_13;
  QDBusError* tmp_add_class_14;
  QDBusMessage* tmp_add_class_15;
  QDBusObjectPath* tmp_add_class_16;
  QDBusPendingCall* tmp_add_class_17;
  QDBusPendingCallWatcher* tmp_add_class_18;
  QDBusSignature* tmp_add_class_19;
  QDBusVariant* tmp_add_class_20;
  QFlag* tmp_add_class_21;
  QGenericArgument* tmp_add_class_22;
  QGenericReturnArgument* tmp_add_class_23;
  QHashData* tmp_add_class_24;
  QHashDummyValue* tmp_add_class_25;
  QIncompatibleFlag* tmp_add_class_26;
  QInternal* tmp_add_class_27;
  QLatin1Char* tmp_add_class_28;
  QLatin1String* tmp_add_class_29;
  QListData* tmp_add_class_30;
  QMapDataBase* tmp_add_class_31;
  QMapNodeBase* tmp_add_class_32;
  QMessageLogContext* tmp_add_class_33;
  QMessageLogger* tmp_add_class_34;
  QMetaObject* tmp_add_class_35;
  QMetaType* tmp_add_class_36;
  QObject* tmp_add_class_37;
  QObjectData* tmp_add_class_38;
  QObjectUserData* tmp_add_class_39;
  QRegExp* tmp_add_class_40;
  QScopedPointerPodDeleter* tmp_add_class_41;
  QSequentialIterable* tmp_add_class_42;
  QSharedData* tmp_add_class_43;
  QSignalBlocker* tmp_add_class_44;
  QString* tmp_add_class_45;
  QStringDataPtr* tmp_add_class_46;
  QStringList* tmp_add_class_47;
  QStringMatcher* tmp_add_class_48;
  QStringRef* tmp_add_class_49;
  QStringView* tmp_add_class_50;
  QSysInfo* tmp_add_class_51;
  QVariant* tmp_add_class_52;
  QVariantComparisonHelper* tmp_add_class_53;
  _G_fpos64_t* tmp_add_class_54;
  _G_fpos_t* tmp_add_class_55;
  _IO_cookie_io_functions_t* tmp_add_class_56;

The GCC parameters:
  gcc -fdump-lang-raw -fkeep-inline-functions -c -x c++ -fpermissive -w "/tmp/89xHmTpkf3/dump1.h"  -I/usr/include/arm-linux-gnueabihf/qt5/MprisQt -I/usr/include/arm-linux-gnueabihf/qt5 -I/usr/include/arm-linux-gnueabihf/qt5/QtDBus

