[2024-02-20T17:01:06+00:00] apt-get install libfshfs-dev libbfio-dev abi-compliance-checker
Reading package lists...
Building dependency tree...
Reading state information...
libbfio-dev is already the newest version (20170123-6).
libbfio-dev set to manually installed.
abi-compliance-checker is already the newest version (2.3-2).
The following packages were automatically installed and are no longer required:
  libfsext-dev libfsext1
Use 'apt autoremove' to remove them.
The following additional packages will be installed:
  libfshfs1
The following NEW packages will be installed:
  libfshfs-dev libfshfs1
0 upgraded, 2 newly installed, 0 to remove and 35 not upgraded.
Need to get 812 kB of archives.
After this operation, 2805 kB of additional disk space will be used.
Get:1 http://deb.debian.org/debian unstable/main armhf libfshfs1 armhf 20201104-1+b4 [395 kB]
Get:2 http://deb.debian.org/debian unstable/main armhf libfshfs-dev armhf 20201104-1+b4 [418 kB]
debconf: delaying package configuration, since apt-utils is not installed
Fetched 812 kB in 0s (4612 kB/s)
Selecting previously unselected package libfshfs1:armhf.
(Reading database ... (Reading database ... 5%(Reading database ... 10%(Reading database ... 15%(Reading database ... 20%(Reading database ... 25%(Reading database ... 30%(Reading database ... 35%(Reading database ... 40%(Reading database ... 45%(Reading database ... 50%(Reading database ... 55%(Reading database ... 60%(Reading database ... 65%(Reading database ... 70%(Reading database ... 75%(Reading database ... 80%(Reading database ... 85%(Reading database ... 90%(Reading database ... 95%(Reading database ... 100%(Reading database ... 17784 files and directories currently installed.)
Preparing to unpack .../libfshfs1_20201104-1+b4_armhf.deb ...
Unpacking libfshfs1:armhf (20201104-1+b4) ...
Selecting previously unselected package libfshfs-dev:armhf.
Preparing to unpack .../libfshfs-dev_20201104-1+b4_armhf.deb ...
Unpacking libfshfs-dev:armhf (20201104-1+b4) ...
Setting up libfshfs1:armhf (20201104-1+b4) ...
Setting up libfshfs-dev:armhf (20201104-1+b4) ...
Processing triggers for libc-bin (2.37-15) ...
Reading package lists...
Building dependency tree...
Reading state information...
The following packages will be REMOVED:
  libfsext-dev* libfsext1*
0 upgraded, 0 newly installed, 2 to remove and 35 not upgraded.
After this operation, 2482 kB disk space will be freed.
(Reading database ... (Reading database ... 5%(Reading database ... 10%(Reading database ... 15%(Reading database ... 20%(Reading database ... 25%(Reading database ... 30%(Reading database ... 35%(Reading database ... 40%(Reading database ... 45%(Reading database ... 50%(Reading database ... 55%(Reading database ... 60%(Reading database ... 65%(Reading database ... 70%(Reading database ... 75%(Reading database ... 80%(Reading database ... 85%(Reading database ... 90%(Reading database ... 95%(Reading database ... 100%(Reading database ... 17808 files and directories currently installed.)
Removing libfsext-dev:armhf (20201107-1+b4) ...
Removing libfsext1:armhf (20201107-1+b4) ...
Processing triggers for libc-bin (2.37-15) ...
