[2024-01-08T01:12:20+00:00] apt-get install libopeniscsiusr-dev abi-compliance-checker
Reading package lists...
Building dependency tree...
Reading state information...
abi-compliance-checker is already the newest version (2.3-2).
The following packages were automatically installed and are no longer required:
  libgdbm-dev libncurses6 libopenipmi-dev libopenipmi0
Use 'apt autoremove' to remove them.
The following NEW packages will be installed:
  libopeniscsiusr libopeniscsiusr-dev
0 upgraded, 2 newly installed, 0 to remove and 33 not upgraded.
Need to get 112 kB of archives.
After this operation, 284 kB of additional disk space will be used.
Get:1 http://deb.debian.org/debian unstable/main armhf libopeniscsiusr armhf 2.1.9-3 [54.8 kB]
Get:2 http://deb.debian.org/debian unstable/main armhf libopeniscsiusr-dev all 2.1.9-3 [56.8 kB]
debconf: delaying package configuration, since apt-utils is not installed
Fetched 112 kB in 0s (988 kB/s)
Selecting previously unselected package libopeniscsiusr.
(Reading database ... (Reading database ... 5%(Reading database ... 10%(Reading database ... 15%(Reading database ... 20%(Reading database ... 25%(Reading database ... 30%(Reading database ... 35%(Reading database ... 40%(Reading database ... 45%(Reading database ... 50%(Reading database ... 55%(Reading database ... 60%(Reading database ... 65%(Reading database ... 70%(Reading database ... 75%(Reading database ... 80%(Reading database ... 85%(Reading database ... 90%(Reading database ... 95%(Reading database ... 100%(Reading database ... 15587 files and directories currently installed.)
Preparing to unpack .../libopeniscsiusr_2.1.9-3_armhf.deb ...
Unpacking libopeniscsiusr (2.1.9-3) ...
Selecting previously unselected package libopeniscsiusr-dev.
Preparing to unpack .../libopeniscsiusr-dev_2.1.9-3_all.deb ...
Unpacking libopeniscsiusr-dev (2.1.9-3) ...
Setting up libopeniscsiusr (2.1.9-3) ...
Setting up libopeniscsiusr-dev (2.1.9-3) ...
Processing triggers for libc-bin (2.37-13) ...
Reading package lists...
Building dependency tree...
Reading state information...
The following packages will be REMOVED:
  libgdbm-dev* libncurses6* libopenipmi-dev* libopenipmi0*
0 upgraded, 0 newly installed, 4 to remove and 33 not upgraded.
After this operation, 4361 kB disk space will be freed.
(Reading database ... (Reading database ... 5%(Reading database ... 10%(Reading database ... 15%(Reading database ... 20%(Reading database ... 25%(Reading database ... 30%(Reading database ... 35%(Reading database ... 40%(Reading database ... 45%(Reading database ... 50%(Reading database ... 55%(Reading database ... 60%(Reading database ... 65%(Reading database ... 70%(Reading database ... 75%(Reading database ... 80%(Reading database ... 85%(Reading database ... 90%(Reading database ... 95%(Reading database ... 100%(Reading database ... 15661 files and directories currently installed.)
Removing libopenipmi-dev (2.0.33-1) ...
Removing libgdbm-dev:armhf (1.23-5) ...
Removing libopenipmi0 (2.0.33-1) ...
Removing libncurses6:armhf (6.4+20231209-1) ...
Processing triggers for libc-bin (2.37-13) ...
