[2024-01-06T19:23:26+00:00] apt-get install libdmalloc-dev abi-compliance-checker
Reading package lists...
Building dependency tree...
Reading state information...
abi-compliance-checker is already the newest version (2.3-2).
The following packages were automatically installed and are no longer required:
  libdlt-dev libdlt2
Use 'apt autoremove' to remove them.
Suggested packages:
  gdb
The following NEW packages will be installed:
  libdmalloc-dev libdmalloc5
0 upgraded, 2 newly installed, 0 to remove and 12 not upgraded.
Need to get 674 kB of archives.
After this operation, 1541 kB of additional disk space will be used.
Get:1 http://deb.debian.org/debian unstable/main armhf libdmalloc5 armhf 5.5.2-14 [74.2 kB]
Get:2 http://deb.debian.org/debian unstable/main armhf libdmalloc-dev armhf 5.5.2-14 [600 kB]
debconf: delaying package configuration, since apt-utils is not installed
Fetched 674 kB in 0s (4262 kB/s)
Selecting previously unselected package libdmalloc5:armhf.
(Reading database ... (Reading database ... 5%(Reading database ... 10%(Reading database ... 15%(Reading database ... 20%(Reading database ... 25%(Reading database ... 30%(Reading database ... 35%(Reading database ... 40%(Reading database ... 45%(Reading database ... 50%(Reading database ... 55%(Reading database ... 60%(Reading database ... 65%(Reading database ... 70%(Reading database ... 75%(Reading database ... 80%(Reading database ... 85%(Reading database ... 90%(Reading database ... 95%(Reading database ... 100%(Reading database ... 20222 files and directories currently installed.)
Preparing to unpack .../libdmalloc5_5.5.2-14_armhf.deb ...
Unpacking libdmalloc5:armhf (5.5.2-14) ...
Selecting previously unselected package libdmalloc-dev:armhf.
Preparing to unpack .../libdmalloc-dev_5.5.2-14_armhf.deb ...
Unpacking libdmalloc-dev:armhf (5.5.2-14) ...
Setting up libdmalloc5:armhf (5.5.2-14) ...
Setting up libdmalloc-dev:armhf (5.5.2-14) ...
update-alternatives: using /usr/lib/arm-linux-gnueabihf/dmalloc/bin/dmalloc to provide /usr/bin/dmalloc (dmalloc) in auto mode
Processing triggers for libc-bin (2.37-13) ...
Reading package lists...
Building dependency tree...
Reading state information...
The following packages will be REMOVED:
  libdlt-dev* libdlt2*
0 upgraded, 0 newly installed, 2 to remove and 12 not upgraded.
After this operation, 598 kB disk space will be freed.
(Reading database ... (Reading database ... 5%(Reading database ... 10%(Reading database ... 15%(Reading database ... 20%(Reading database ... 25%(Reading database ... 30%(Reading database ... 35%(Reading database ... 40%(Reading database ... 45%(Reading database ... 50%(Reading database ... 55%(Reading database ... 60%(Reading database ... 65%(Reading database ... 70%(Reading database ... 75%(Reading database ... 80%(Reading database ... 85%(Reading database ... 90%(Reading database ... 95%(Reading database ... 100%(Reading database ... 20281 files and directories currently installed.)
Removing libdlt-dev:armhf (2.18.10-9) ...
Removing libdlt2:armhf (2.18.10-9) ...
Processing triggers for libc-bin (2.37-13) ...
