Using GCC 13 (arm-linux-gnueabihf, target: arm)
WARNING: May not work properly with GCC 4.8.[0-2], 6.* and higher due to bug #78040 in GCC. Please try other GCC versions with the help of --gcc-path=PATH option or create ABI dumps by ABI Dumper tool instead to avoid using GCC. Test selected GCC version first by -test option.
Checking header(s) base ...
Temporary header file '/tmp/wpbJoZu7qp/dump1.h' with the following content will be compiled to create GCC translation unit dump:

  // add defines
  #define __STDC_VERSION__ 201710L
#define _GXX_NULLPTR_T
#define CLUTTER_ENABLE_COMPOSITOR_API 1
#define _REGEX_NELTS(n)
#define _Atomic
#define PACKED
#ifdef __cplusplus
// C17 compat layer
#define _Alignof(type) alignof(type)
#endif
#define getaddrinfo_a(a,b,c,d)

  // add includes
  #include "/usr/include/sbml/AlgebraicRule.h"
  #include "/usr/include/sbml/AssignmentRule.h"
  #include "/usr/include/sbml/Compartment.h"
  #include "/usr/include/sbml/CompartmentType.h"
  #include "/usr/include/sbml/Constraint.h"
  #include "/usr/include/sbml/Delay.h"
  #include "/usr/include/sbml/Event.h"
  #include "/usr/include/sbml/EventAssignment.h"
  #include "/usr/include/sbml/ExpectedAttributes.h"
  #include "/usr/include/sbml/FunctionDefinition.h"
  #include "/usr/include/sbml/InitialAssignment.h"
  #include "/usr/include/sbml/KineticLaw.h"
  #include "/usr/include/sbml/ListOf.h"
  #include "/usr/include/sbml/LocalParameter.h"
  #include "/usr/include/sbml/Model.h"
  #include "/usr/include/sbml/ModifierSpeciesReference.h"
  #include "/usr/include/sbml/Parameter.h"
  #include "/usr/include/sbml/Priority.h"
  #include "/usr/include/sbml/RateRule.h"
  #include "/usr/include/sbml/Reaction.h"
  #include "/usr/include/sbml/Rule.h"
  #include "/usr/include/sbml/SBMLConstructorException.h"
  #include "/usr/include/sbml/SBMLDocument.h"
  #include "/usr/include/sbml/SBMLError.h"
  #include "/usr/include/sbml/SBMLErrorLog.h"
  #include "/usr/include/sbml/SBMLErrorTable.h"
  #include "/usr/include/sbml/SBMLNamespaces.h"
  #include "/usr/include/sbml/SBMLReader.h"
  #include "/usr/include/sbml/SBMLTransforms.h"
  #include "/usr/include/sbml/SBMLTypeCodes.h"
  #include "/usr/include/sbml/SBMLTypes.h"
  #include "/usr/include/sbml/SBMLVisitor.h"
  #include "/usr/include/sbml/SBMLWriter.h"
  #include "/usr/include/sbml/SBO.h"
  #include "/usr/include/sbml/SBase.h"
  #include "/usr/include/sbml/SimpleSpeciesReference.h"
  #include "/usr/include/sbml/Species.h"
  #include "/usr/include/sbml/SpeciesReference.h"
  #include "/usr/include/sbml/SpeciesType.h"
  #include "/usr/include/sbml/StoichiometryMath.h"
  #include "/usr/include/sbml/SyntaxChecker.h"
  #include "/usr/include/sbml/Trigger.h"
  #include "/usr/include/sbml/Unit.h"
  #include "/usr/include/sbml/UnitDefinition.h"
  #include "/usr/include/sbml/UnitKind.h"
  #include "/usr/include/sbml/annotation/CVTerm.h"
  #include "/usr/include/sbml/annotation/Date.h"
  #include "/usr/include/sbml/annotation/ModelCreator.h"
  #include "/usr/include/sbml/annotation/ModelHistory.h"
  #include "/usr/include/sbml/annotation/RDFAnnotation.h"
  #include "/usr/include/sbml/annotation/RDFAnnotationParser.h"
  #include "/usr/include/sbml/common/common-documentation.h"
  #include "/usr/include/sbml/common/common-sbmlerror-codes.h"
  #include "/usr/include/sbml/common/common.h"
  #include "/usr/include/sbml/common/extern.h"
  #include "/usr/include/sbml/common/libsbml-config-common.h"
  #include "/usr/include/sbml/common/libsbml-config-packages.h"
  #include "/usr/include/sbml/common/libsbml-config.h"
  #include "/usr/include/sbml/common/libsbml-namespace.h"
  #include "/usr/include/sbml/common/libsbml-package.h"
  #include "/usr/include/sbml/common/libsbml-version.h"
  #include "/usr/include/sbml/common/operationReturnValues.h"
  #include "/usr/include/sbml/common/sbmlfwd.h"
  #include "/usr/include/sbml/compress/CompressCommon.h"
  #include "/usr/include/sbml/compress/InputDecompressor.h"
  #include "/usr/include/sbml/compress/OutputCompressor.h"
  #include "/usr/include/sbml/compress/bzfstream.h"
  #include "/usr/include/sbml/compress/crypt.h"
  #include "/usr/include/sbml/compress/ioapi.h"
  #include "/usr/include/sbml/compress/ioapi_mem.h"
  #include "/usr/include/sbml/compress/unzip.h"
  #include "/usr/include/sbml/compress/zfstream.h"
  #include "/usr/include/sbml/compress/zip.h"
  #include "/usr/include/sbml/compress/zipfstream.h"
  #include "/usr/include/sbml/conversion/ConversionOption.h"
  #include "/usr/include/sbml/conversion/ConversionProperties.h"
  #include "/usr/include/sbml/conversion/ExpressionAnalyser.h"
  #include "/usr/include/sbml/conversion/SBMLConverter.h"
  #include "/usr/include/sbml/conversion/SBMLConverterRegister.h"
  #include "/usr/include/sbml/conversion/SBMLConverterRegistry.h"
  #include "/usr/include/sbml/conversion/SBMLConverterTypes.h"
  #include "/usr/include/sbml/conversion/SBMLFunctionDefinitionConverter.h"
  #include "/usr/include/sbml/conversion/SBMLIdConverter.h"
  #include "/usr/include/sbml/conversion/SBMLInferUnitsConverter.h"
  #include "/usr/include/sbml/conversion/SBMLInitialAssignmentConverter.h"
  #include "/usr/include/sbml/conversion/SBMLLevel1Version1Converter.h"
  #include "/usr/include/sbml/conversion/SBMLLevelVersionConverter.h"
  #include "/usr/include/sbml/conversion/SBMLLocalParameterConverter.h"
  #include "/usr/include/sbml/conversion/SBMLRateOfConverter.h"
  #include "/usr/include/sbml/conversion/SBMLRateRuleConverter.h"
  #include "/usr/include/sbml/conversion/SBMLReactionConverter.h"
  #include "/usr/include/sbml/conversion/SBMLRuleConverter.h"
  #include "/usr/include/sbml/conversion/SBMLStripPackageConverter.h"
  #include "/usr/include/sbml/conversion/SBMLUnitsConverter.h"
  #include "/usr/include/sbml/extension/ASTBasePlugin.h"
  #include "/usr/include/sbml/extension/ISBMLExtensionNamespaces.h"
  #include "/usr/include/sbml/extension/RegisterExtensions.h"
  #include "/usr/include/sbml/extension/SBMLDocumentPlugin.h"
  #include "/usr/include/sbml/extension/SBMLDocumentPluginNotRequired.h"
  #include "/usr/include/sbml/extension/SBMLExtension.h"
  #include "/usr/include/sbml/extension/SBMLExtensionException.h"
  #include "/usr/include/sbml/extension/SBMLExtensionNamespaces.h"
  #include "/usr/include/sbml/extension/SBMLExtensionRegister.h"
  #include "/usr/include/sbml/extension/SBMLExtensionRegistry.h"
  #include "/usr/include/sbml/extension/SBaseExtensionPoint.h"
  #include "/usr/include/sbml/extension/SBasePlugin.h"
  #include "/usr/include/sbml/extension/SBasePluginCreator.h"
  #include "/usr/include/sbml/extension/SBasePluginCreatorBase.h"
  #include "/usr/include/sbml/math/ASTNode.h"
  #include "/usr/include/sbml/math/ASTNodeType.h"
  #include "/usr/include/sbml/math/DefinitionURLRegistry.h"
  #include "/usr/include/sbml/math/FormulaFormatter.h"
  #include "/usr/include/sbml/math/FormulaParser.h"
  #include "/usr/include/sbml/math/FormulaTokenizer.h"
  #include "/usr/include/sbml/math/L3FormulaFormatter.h"
  #include "/usr/include/sbml/math/L3Parser.h"
  #include "/usr/include/sbml/math/L3ParserSettings.h"
  #include "/usr/include/sbml/math/MathML.h"
  #include "/usr/include/sbml/packages/comp/common/CompExtensionTypes.h"
  #include "/usr/include/sbml/packages/comp/common/compfwd.h"
  #include "/usr/include/sbml/packages/comp/extension/CompExtension.h"
  #include "/usr/include/sbml/packages/comp/extension/CompModelPlugin.h"
  #include "/usr/include/sbml/packages/comp/extension/CompSBMLDocumentPlugin.h"
  #include "/usr/include/sbml/packages/comp/extension/CompSBasePlugin.h"
  #include "/usr/include/sbml/packages/comp/sbml/CompBase.h"
  #include "/usr/include/sbml/packages/comp/sbml/Deletion.h"
  #include "/usr/include/sbml/packages/comp/sbml/ExternalModelDefinition.h"
  #include "/usr/include/sbml/packages/comp/sbml/ListOfDeletions.h"
  #include "/usr/include/sbml/packages/comp/sbml/ListOfExternalModelDefinitions.h"
  #include "/usr/include/sbml/packages/comp/sbml/ListOfModelDefinitions.h"
  #include "/usr/include/sbml/packages/comp/sbml/ListOfPorts.h"
  #include "/usr/include/sbml/packages/comp/sbml/ListOfReplacedElements.h"
  #include "/usr/include/sbml/packages/comp/sbml/ListOfSubmodels.h"
  #include "/usr/include/sbml/packages/comp/sbml/ModelDefinition.h"
  #include "/usr/include/sbml/packages/comp/sbml/Port.h"
  #include "/usr/include/sbml/packages/comp/sbml/ReplacedBy.h"
  #include "/usr/include/sbml/packages/comp/sbml/ReplacedElement.h"
  #include "/usr/include/sbml/packages/comp/sbml/Replacing.h"
  #include "/usr/include/sbml/packages/comp/sbml/SBaseRef.h"
  #include "/usr/include/sbml/packages/comp/sbml/Submodel.h"
  #include "/usr/include/sbml/packages/comp/util/CompFlatteningConverter.h"
  #include "/usr/include/sbml/packages/comp/util/SBMLFileResolver.h"
  #include "/usr/include/sbml/packages/comp/util/SBMLResolver.h"
  #include "/usr/include/sbml/packages/comp/util/SBMLResolverRegistry.h"
  #include "/usr/include/sbml/packages/comp/util/SBMLUri.h"
  #include "/usr/include/sbml/packages/comp/validator/CompConsistencyValidator.h"
  #include "/usr/include/sbml/packages/comp/validator/CompIdentifierConsistencyValidator.h"
  #include "/usr/include/sbml/packages/comp/validator/CompSBMLError.h"
  #include "/usr/include/sbml/packages/comp/validator/CompSBMLErrorTable.h"
  #include "/usr/include/sbml/packages/comp/validator/CompUnitConsistencyValidator.h"
  #include "/usr/include/sbml/packages/comp/validator/CompValidator.h"
  #include "/usr/include/sbml/packages/comp/validator/constraints/ClassReplacements.h"
  #include "/usr/include/sbml/packages/comp/validator/constraints/CompIdBase.h"
  #include "/usr/include/sbml/packages/comp/validator/constraints/ExtModelReferenceCycles.h"
  #include "/usr/include/sbml/packages/comp/validator/constraints/PackageIdReplacementCheck.h"
  #include "/usr/include/sbml/packages/comp/validator/constraints/SubmodelReferenceCycles.h"
  #include "/usr/include/sbml/packages/comp/validator/constraints/UniqueCompIdBase.h"
  #include "/usr/include/sbml/packages/comp/validator/constraints/UniqueComponentIds.h"
  #include "/usr/include/sbml/packages/comp/validator/constraints/UniqueModelIds.h"
  #include "/usr/include/sbml/packages/comp/validator/constraints/UniquePortIds.h"
  #include "/usr/include/sbml/packages/comp/validator/constraints/UniquePortReferences.h"
  #include "/usr/include/sbml/packages/comp/validator/constraints/UniqueReplacedReferences.h"
  #include "/usr/include/sbml/packages/comp/validator/constraints/UnitReplacementCheck.h"
  #include "/usr/include/sbml/packages/fbc/common/FbcExtensionTypes.h"
  #include "/usr/include/sbml/packages/fbc/common/fbcfwd.h"
  #include "/usr/include/sbml/packages/fbc/extension/FbcExtension.h"
  #include "/usr/include/sbml/packages/fbc/extension/FbcModelPlugin.h"
  #include "/usr/include/sbml/packages/fbc/extension/FbcReactionPlugin.h"
  #include "/usr/include/sbml/packages/fbc/extension/FbcSBMLDocumentPlugin.h"
  #include "/usr/include/sbml/packages/fbc/extension/FbcSBasePlugin.h"
  #include "/usr/include/sbml/packages/fbc/extension/FbcSpeciesPlugin.h"
  #include "/usr/include/sbml/packages/fbc/sbml/Association.h"
  #include "/usr/include/sbml/packages/fbc/sbml/FbcAnd.h"
  #include "/usr/include/sbml/packages/fbc/sbml/FbcAssociation.h"
  #include "/usr/include/sbml/packages/fbc/sbml/FbcOr.h"
  #include "/usr/include/sbml/packages/fbc/sbml/FluxBound.h"
  #include "/usr/include/sbml/packages/fbc/sbml/FluxObjective.h"
  #include "/usr/include/sbml/packages/fbc/sbml/GeneAssociation.h"
  #include "/usr/include/sbml/packages/fbc/sbml/GeneProduct.h"
  #include "/usr/include/sbml/packages/fbc/sbml/GeneProductAssociation.h"
  #include "/usr/include/sbml/packages/fbc/sbml/GeneProductRef.h"
  #include "/usr/include/sbml/packages/fbc/sbml/KeyValuePair.h"
  #include "/usr/include/sbml/packages/fbc/sbml/ListOfKeyValuePairs.h"
  #include "/usr/include/sbml/packages/fbc/sbml/ListOfUserDefinedConstraintComponents.h"
  #include "/usr/include/sbml/packages/fbc/sbml/ListOfUserDefinedConstraints.h"
  #include "/usr/include/sbml/packages/fbc/sbml/Objective.h"
  #include "/usr/include/sbml/packages/fbc/sbml/UserDefinedConstraint.h"
  #include "/usr/include/sbml/packages/fbc/sbml/UserDefinedConstraintComponent.h"
  #include "/usr/include/sbml/packages/fbc/util/CobraToFbcConverter.h"
  #include "/usr/include/sbml/packages/fbc/util/FbcToCobraConverter.h"
  #include "/usr/include/sbml/packages/fbc/util/FbcV1ToV2Converter.h"
  #include "/usr/include/sbml/packages/fbc/util/FbcV2ToV1Converter.h"
  #include "/usr/include/sbml/packages/fbc/validator/FbcConsistencyValidator.h"
  #include "/usr/include/sbml/packages/fbc/validator/FbcIdentifierConsistencyValidator.h"
  #include "/usr/include/sbml/packages/fbc/validator/FbcSBMLError.h"
  #include "/usr/include/sbml/packages/fbc/validator/FbcSBMLErrorTable.h"
  #include "/usr/include/sbml/packages/fbc/validator/FbcValidator.h"
  #include "/usr/include/sbml/packages/fbc/validator/constraints/FluxBoundsConsistent.h"
  #include "/usr/include/sbml/packages/fbc/validator/constraints/UniqueGeneProductLabels.h"
  #include "/usr/include/sbml/packages/fbc/validator/constraints/UniqueModelWideIds.h"
  #include "/usr/include/sbml/packages/groups/common/GroupsExtensionTypes.h"
  #include "/usr/include/sbml/packages/groups/common/groupsfwd.h"
  #include "/usr/include/sbml/packages/groups/extension/GroupsExtension.h"
  #include "/usr/include/sbml/packages/groups/extension/GroupsModelPlugin.h"
  #include "/usr/include/sbml/packages/groups/extension/GroupsSBMLDocumentPlugin.h"
  #include "/usr/include/sbml/packages/groups/sbml/Group.h"
  #include "/usr/include/sbml/packages/groups/sbml/ListOfGroups.h"
  #include "/usr/include/sbml/packages/groups/sbml/ListOfMembers.h"
  #include "/usr/include/sbml/packages/groups/sbml/Member.h"
  #include "/usr/include/sbml/packages/groups/validator/GroupsConsistencyValidator.h"
  #include "/usr/include/sbml/packages/groups/validator/GroupsIdentifierConsistencyValidator.h"
  #include "/usr/include/sbml/packages/groups/validator/GroupsSBMLError.h"
  #include "/usr/include/sbml/packages/groups/validator/GroupsSBMLErrorTable.h"
  #include "/usr/include/sbml/packages/groups/validator/GroupsValidator.h"
  #include "/usr/include/sbml/packages/groups/validator/constraints/GroupCircularReferences.h"
  #include "/usr/include/sbml/packages/groups/validator/constraints/GroupsUniqueModelWideIds.h"
  #include "/usr/include/sbml/packages/groups/validator/constraints/LOMembersConsistentReferences.h"
  #include "/usr/include/sbml/packages/l3v2extendedmath/common/L3v2extendedmathExtensionTypes.h"
  #include "/usr/include/sbml/packages/l3v2extendedmath/common/l3v2extendedmathfwd.h"
  #include "/usr/include/sbml/packages/l3v2extendedmath/extension/L3v2extendedmathASTPlugin.h"
  #include "/usr/include/sbml/packages/l3v2extendedmath/extension/L3v2extendedmathExtension.h"
  #include "/usr/include/sbml/packages/l3v2extendedmath/extension/L3v2extendedmathSBMLDocumentPlugin.h"
  #include "/usr/include/sbml/packages/l3v2extendedmath/validator/L3v2extendedmathMathMLConsistencyValidator.h"
  #include "/usr/include/sbml/packages/l3v2extendedmath/validator/L3v2extendedmathSBMLError.h"
  #include "/usr/include/sbml/packages/l3v2extendedmath/validator/L3v2extendedmathSBMLErrorTable.h"
  #include "/usr/include/sbml/packages/l3v2extendedmath/validator/L3v2extendedmathUnitConsistencyValidator.h"
  #include "/usr/include/sbml/packages/l3v2extendedmath/validator/L3v2extendedmathValidator.h"
  #include "/usr/include/sbml/packages/l3v2extendedmath/validator/constraints/L3v2EMArgumentsUnitsCheck.h"
  #include "/usr/include/sbml/packages/l3v2extendedmath/validator/constraints/L3v2EMNumberArgsMathCheck.h"
  #include "/usr/include/sbml/packages/layout/common/LayoutExtensionTypes.h"
  #include "/usr/include/sbml/packages/layout/common/layoutfwd.h"
  #include "/usr/include/sbml/packages/layout/extension/LayoutExtension.h"
  #include "/usr/include/sbml/packages/layout/extension/LayoutModelPlugin.h"
  #include "/usr/include/sbml/packages/layout/extension/LayoutSBMLDocumentPlugin.h"
  #include "/usr/include/sbml/packages/layout/extension/LayoutSpeciesReferencePlugin.h"
  #include "/usr/include/sbml/packages/layout/sbml/BoundingBox.h"
  #include "/usr/include/sbml/packages/layout/sbml/CompartmentGlyph.h"
  #include "/usr/include/sbml/packages/layout/sbml/CubicBezier.h"
  #include "/usr/include/sbml/packages/layout/sbml/Curve.h"
  #include "/usr/include/sbml/packages/layout/sbml/Dimensions.h"
  #include "/usr/include/sbml/packages/layout/sbml/GeneralGlyph.h"
  #include "/usr/include/sbml/packages/layout/sbml/GraphicalObject.h"
  #include "/usr/include/sbml/packages/layout/sbml/Layout.h"
  #include "/usr/include/sbml/packages/layout/sbml/LineSegment.h"
  #include "/usr/include/sbml/packages/layout/sbml/Point.h"
  #include "/usr/include/sbml/packages/layout/sbml/ReactionGlyph.h"
  #include "/usr/include/sbml/packages/layout/sbml/ReferenceGlyph.h"
  #include "/usr/include/sbml/packages/layout/sbml/SpeciesGlyph.h"
  #include "/usr/include/sbml/packages/layout/sbml/SpeciesReferenceGlyph.h"
  #include "/usr/include/sbml/packages/layout/sbml/SpeciesReferenceRole.h"
  #include "/usr/include/sbml/packages/layout/sbml/TextGlyph.h"
  #include "/usr/include/sbml/packages/layout/util/LayoutAnnotation.h"
  #include "/usr/include/sbml/packages/layout/util/LayoutUtilities.h"
  #include "/usr/include/sbml/packages/layout/validator/LayoutConsistencyValidator.h"
  #include "/usr/include/sbml/packages/layout/validator/LayoutIdentifierConsistencyValidator.h"
  #include "/usr/include/sbml/packages/layout/validator/LayoutSBMLError.h"
  #include "/usr/include/sbml/packages/layout/validator/LayoutSBMLErrorTable.h"
  #include "/usr/include/sbml/packages/layout/validator/LayoutValidator.h"
  #include "/usr/include/sbml/packages/layout/validator/constraints/UniqueIdsLayout.h"
  #include "/usr/include/sbml/packages/qual/common/QualExtensionTypes.h"
  #include "/usr/include/sbml/packages/qual/common/qualfwd.h"
  #include "/usr/include/sbml/packages/qual/extension/QualExtension.h"
  #include "/usr/include/sbml/packages/qual/extension/QualModelPlugin.h"
  #include "/usr/include/sbml/packages/qual/extension/QualSBMLDocumentPlugin.h"
  #include "/usr/include/sbml/packages/qual/sbml/DefaultTerm.h"
  #include "/usr/include/sbml/packages/qual/sbml/FunctionTerm.h"
  #include "/usr/include/sbml/packages/qual/sbml/Input.h"
  #include "/usr/include/sbml/packages/qual/sbml/Output.h"
  #include "/usr/include/sbml/packages/qual/sbml/QualitativeSpecies.h"
  #include "/usr/include/sbml/packages/qual/sbml/Transition.h"
  #include "/usr/include/sbml/packages/qual/validator/QualConsistencyValidator.h"
  #include "/usr/include/sbml/packages/qual/validator/QualIdentifierConsistencyValidator.h"
  #include "/usr/include/sbml/packages/qual/validator/QualMathConsistencyValidator.h"
  #include "/usr/include/sbml/packages/qual/validator/QualSBMLError.h"
  #include "/usr/include/sbml/packages/qual/validator/QualSBMLErrorTable.h"
  #include "/usr/include/sbml/packages/qual/validator/QualValidator.h"
  #include "/usr/include/sbml/packages/qual/validator/constraints/QSAssignedOnce.h"
  #include "/usr/include/sbml/packages/qual/validator/constraints/QualCSymbolMathCheck.h"
  #include "/usr/include/sbml/packages/qual/validator/constraints/QualUniqueModelWideIds.h"
  #include "/usr/include/sbml/packages/qual/validator/constraints/ResultBecomesNegative.h"
  #include "/usr/include/sbml/packages/qual/validator/constraints/ResultExceedsMaximum.h"
  #include "/usr/include/sbml/packages/render/common/RenderExtensionTypes.h"
  #include "/usr/include/sbml/packages/render/common/renderfwd.h"
  #include "/usr/include/sbml/packages/render/extension/RenderExtension.h"
  #include "/usr/include/sbml/packages/render/extension/RenderGraphicalObjectPlugin.h"
  #include "/usr/include/sbml/packages/render/extension/RenderLayoutPlugin.h"
  #include "/usr/include/sbml/packages/render/extension/RenderListOfLayoutsPlugin.h"
  #include "/usr/include/sbml/packages/render/extension/RenderSBMLDocumentPlugin.h"
  #include "/usr/include/sbml/packages/render/sbml/ColorDefinition.h"
  #include "/usr/include/sbml/packages/render/sbml/DefaultValues.h"
  #include "/usr/include/sbml/packages/render/sbml/Ellipse.h"
  #include "/usr/include/sbml/packages/render/sbml/GlobalRenderInformation.h"
  #include "/usr/include/sbml/packages/render/sbml/GlobalStyle.h"
  #include "/usr/include/sbml/packages/render/sbml/GradientBase.h"
  #include "/usr/include/sbml/packages/render/sbml/GradientStop.h"
  #include "/usr/include/sbml/packages/render/sbml/GraphicalPrimitive1D.h"
  #include "/usr/include/sbml/packages/render/sbml/GraphicalPrimitive2D.h"
  #include "/usr/include/sbml/packages/render/sbml/Image.h"
  #include "/usr/include/sbml/packages/render/sbml/LineEnding.h"
  #include "/usr/include/sbml/packages/render/sbml/LinearGradient.h"
  #include "/usr/include/sbml/packages/render/sbml/ListOfColorDefinitions.h"
  #include "/usr/include/sbml/packages/render/sbml/ListOfCurveElements.h"
  #include "/usr/include/sbml/packages/render/sbml/ListOfDrawables.h"
  #include "/usr/include/sbml/packages/render/sbml/ListOfGlobalRenderInformation.h"
  #include "/usr/include/sbml/packages/render/sbml/ListOfGlobalStyles.h"
  #include "/usr/include/sbml/packages/render/sbml/ListOfGradientDefinitions.h"
  #include "/usr/include/sbml/packages/render/sbml/ListOfGradientStops.h"
  #include "/usr/include/sbml/packages/render/sbml/ListOfLineEndings.h"
  #include "/usr/include/sbml/packages/render/sbml/ListOfLocalRenderInformation.h"
  #include "/usr/include/sbml/packages/render/sbml/ListOfLocalStyles.h"
  #include "/usr/include/sbml/packages/render/sbml/LocalRenderInformation.h"
  #include "/usr/include/sbml/packages/render/sbml/LocalStyle.h"
  #include "/usr/include/sbml/packages/render/sbml/Polygon.h"
  #include "/usr/include/sbml/packages/render/sbml/RadialGradient.h"
  #include "/usr/include/sbml/packages/render/sbml/Rectangle.h"
  #include "/usr/include/sbml/packages/render/sbml/RelAbsVector.h"
  #include "/usr/include/sbml/packages/render/sbml/RenderCubicBezier.h"
  #include "/usr/include/sbml/packages/render/sbml/RenderCurve.h"
  #include "/usr/include/sbml/packages/render/sbml/RenderGroup.h"
  #include "/usr/include/sbml/packages/render/sbml/RenderInformationBase.h"
  #include "/usr/include/sbml/packages/render/sbml/RenderPoint.h"
  #include "/usr/include/sbml/packages/render/sbml/Style.h"
  #include "/usr/include/sbml/packages/render/sbml/Text.h"
  #include "/usr/include/sbml/packages/render/sbml/Transformation.h"
  #include "/usr/include/sbml/packages/render/sbml/Transformation2D.h"
  #include "/usr/include/sbml/packages/render/util/RenderLayoutConverter.h"
  #include "/usr/include/sbml/packages/render/util/RenderUtilities.h"
  #include "/usr/include/sbml/packages/render/validator/RenderConsistencyValidator.h"
  #include "/usr/include/sbml/packages/render/validator/RenderIdentifierConsistencyValidator.h"
  #include "/usr/include/sbml/packages/render/validator/RenderSBMLError.h"
  #include "/usr/include/sbml/packages/render/validator/RenderSBMLErrorTable.h"
  #include "/usr/include/sbml/packages/render/validator/RenderValidator.h"
  #include "/usr/include/sbml/units/FormulaUnitsData.h"
  #include "/usr/include/sbml/units/UnitFormulaFormatter.h"
  #include "/usr/include/sbml/units/UnitKindList.h"
  #include "/usr/include/sbml/util/CallbackRegistry.h"
  #include "/usr/include/sbml/util/ElementFilter.h"
  #include "/usr/include/sbml/util/IdFilter.h"
  #include "/usr/include/sbml/util/IdList.h"
  #include "/usr/include/sbml/util/IdentifierTransformer.h"
  #include "/usr/include/sbml/util/List.h"
  #include "/usr/include/sbml/util/MathFilter.h"
  #include "/usr/include/sbml/util/MetaIdFilter.h"
  #include "/usr/include/sbml/util/PrefixTransformer.h"
  #include "/usr/include/sbml/util/Stack.h"
  #include "/usr/include/sbml/util/StringBuffer.h"
  #include "/usr/include/sbml/util/memory.h"
  #include "/usr/include/sbml/util/util.h"
  #include "/usr/include/sbml/validator/ConsistencyValidator.h"
  #include "/usr/include/sbml/validator/ConstraintMacros.h"
  #include "/usr/include/sbml/validator/IdentifierConsistencyValidator.h"
  #include "/usr/include/sbml/validator/InternalConsistencyValidator.h"
  #include "/usr/include/sbml/validator/L1CompatibilityValidator.h"
  #include "/usr/include/sbml/validator/L2v1CompatibilityValidator.h"
  #include "/usr/include/sbml/validator/L2v2CompatibilityValidator.h"
  #include "/usr/include/sbml/validator/L2v3CompatibilityValidator.h"
  #include "/usr/include/sbml/validator/L2v4CompatibilityValidator.h"
  #include "/usr/include/sbml/validator/L3v1CompatibilityValidator.h"
  #include "/usr/include/sbml/validator/L3v2CompatibilityValidator.h"
  #include "/usr/include/sbml/validator/MathMLConsistencyValidator.h"
  #include "/usr/include/sbml/validator/ModelingPracticeValidator.h"
  #include "/usr/include/sbml/validator/OverdeterminedValidator.h"
  #include "/usr/include/sbml/validator/SBMLExternalValidator.h"
  #include "/usr/include/sbml/validator/SBMLInternalValidator.h"
  #include "/usr/include/sbml/validator/SBMLValidator.h"
  #include "/usr/include/sbml/validator/SBOConsistencyValidator.h"
  #include "/usr/include/sbml/validator/StrictUnitConsistencyValidator.h"
  #include "/usr/include/sbml/validator/UnitConsistencyValidator.h"
  #include "/usr/include/sbml/validator/VConstraint.h"
  #include "/usr/include/sbml/validator/Validator.h"
  #include "/usr/include/sbml/xml/ExpatAttributes.h"
  #include "/usr/include/sbml/xml/ExpatHandler.h"
  #include "/usr/include/sbml/xml/ExpatParser.h"
  #include "/usr/include/sbml/xml/LibXMLAttributes.h"
  #include "/usr/include/sbml/xml/LibXMLHandler.h"
  #include "/usr/include/sbml/xml/LibXMLNamespaces.h"
  #include "/usr/include/sbml/xml/LibXMLParser.h"
  #include "/usr/include/sbml/xml/LibXMLTranscode.h"
  #include "/usr/include/sbml/xml/XMLAttributes.h"
  #include "/usr/include/sbml/xml/XMLBuffer.h"
  #include "/usr/include/sbml/xml/XMLConstructorException.h"
  #include "/usr/include/sbml/xml/XMLError.h"
  #include "/usr/include/sbml/xml/XMLErrorLog.h"
  #include "/usr/include/sbml/xml/XMLExtern.h"
  #include "/usr/include/sbml/xml/XMLFileBuffer.h"
  #include "/usr/include/sbml/xml/XMLHandler.h"
  #include "/usr/include/sbml/xml/XMLInputStream.h"
  #include "/usr/include/sbml/xml/XMLLogOverride.h"
  #include "/usr/include/sbml/xml/XMLMemoryBuffer.h"
  #include "/usr/include/sbml/xml/XMLNamespaces.h"
  #include "/usr/include/sbml/xml/XMLNode.h"
  #include "/usr/include/sbml/xml/XMLOutputStream.h"
  #include "/usr/include/sbml/xml/XMLParser.h"
  #include "/usr/include/sbml/xml/XMLToken.h"
  #include "/usr/include/sbml/xml/XMLTokenizer.h"
  #include "/usr/include/sbml/xml/XMLTriple.h"
  #include "/usr/include/sbml/xml/XercesAttributes.h"
  #include "/usr/include/sbml/xml/XercesHandler.h"
  #include "/usr/include/sbml/xml/XercesNamespaces.h"
  #include "/usr/include/sbml/xml/XercesParser.h"
  #include "/usr/include/sbml/xml/XercesTranscode.h"

The GCC parameters:
  gcc -fdump-lang-raw -fkeep-inline-functions -c -x c++ -fpermissive -w "/tmp/wpbJoZu7qp/dump1.h"

In file included from /tmp/wpbJoZu7qp/dump1.h:112:
/usr/include/sbml/extension/RegisterExtensions.h:4:10: fatal error: sbml/packages/arrays-register.h: No such file or directory
    4 | #include <sbml/packages/arrays-register.h>
      |          ^~~~~~~~~~~~~~~~~~~~~~~~~~~~~~~~~
compilation terminated.
ERROR: some errors occurred when compiling headers
ERROR: see log for details:
  /home/adrien/armhf-time_t/out/logs/libsbml5-dev/base/abi-compliance-checker.log


ERROR: can't compile header(s)
