[2024-01-06T15:59:32+00:00] apt-get install libcdio++-dev abi-compliance-checker
Reading package lists...
Building dependency tree...
Reading state information...
abi-compliance-checker is already the newest version (2.3-2).
The following packages were automatically installed and are no longer required:
  libcddb2 libcddb2-dev
Use 'apt autoremove' to remove them.
The following additional packages will be installed:
  libcdio++1 libcdio-dev libcdio19
The following NEW packages will be installed:
  libcdio++-dev libcdio++1 libcdio-dev libcdio19
0 upgraded, 4 newly installed, 0 to remove and 15 not upgraded.
Need to get 816 kB of archives.
After this operation, 1411 kB of additional disk space will be used.
Get:1 http://deb.debian.org/debian unstable/main armhf libcdio19 armhf 2.1.0-4 [196 kB]
Get:2 http://deb.debian.org/debian unstable/main armhf libcdio++1 armhf 2.1.0-4 [152 kB]
Get:3 http://deb.debian.org/debian unstable/main armhf libcdio-dev armhf 2.1.0-4 [307 kB]
Get:4 http://deb.debian.org/debian unstable/main armhf libcdio++-dev armhf 2.1.0-4 [161 kB]
debconf: delaying package configuration, since apt-utils is not installed
Fetched 816 kB in 0s (3875 kB/s)
Selecting previously unselected package libcdio19:armhf.
(Reading database ... (Reading database ... 5%(Reading database ... 10%(Reading database ... 15%(Reading database ... 20%(Reading database ... 25%(Reading database ... 30%(Reading database ... 35%(Reading database ... 40%(Reading database ... 45%(Reading database ... 50%(Reading database ... 55%(Reading database ... 60%(Reading database ... 65%(Reading database ... 70%(Reading database ... 75%(Reading database ... 80%(Reading database ... 85%(Reading database ... 90%(Reading database ... 95%(Reading database ... 100%(Reading database ... 18561 files and directories currently installed.)
Preparing to unpack .../libcdio19_2.1.0-4_armhf.deb ...
Unpacking libcdio19:armhf (2.1.0-4) ...
Selecting previously unselected package libcdio++1:armhf.
Preparing to unpack .../libcdio++1_2.1.0-4_armhf.deb ...
Unpacking libcdio++1:armhf (2.1.0-4) ...
Selecting previously unselected package libcdio-dev.
Preparing to unpack .../libcdio-dev_2.1.0-4_armhf.deb ...
Unpacking libcdio-dev (2.1.0-4) ...
Selecting previously unselected package libcdio++-dev:armhf.
Preparing to unpack .../libcdio++-dev_2.1.0-4_armhf.deb ...
Unpacking libcdio++-dev:armhf (2.1.0-4) ...
Setting up libcdio19:armhf (2.1.0-4) ...
Setting up libcdio++1:armhf (2.1.0-4) ...
Setting up libcdio-dev (2.1.0-4) ...
Setting up libcdio++-dev:armhf (2.1.0-4) ...
Processing triggers for libc-bin (2.37-13) ...
Reading package lists...
Building dependency tree...
Reading state information...
The following packages will be REMOVED:
  libcddb2* libcddb2-dev*
0 upgraded, 0 newly installed, 2 to remove and 15 not upgraded.
After this operation, 323 kB disk space will be freed.
(Reading database ... (Reading database ... 5%(Reading database ... 10%(Reading database ... 15%(Reading database ... 20%(Reading database ... 25%(Reading database ... 30%(Reading database ... 35%(Reading database ... 40%(Reading database ... 45%(Reading database ... 50%(Reading database ... 55%(Reading database ... 60%(Reading database ... 65%(Reading database ... 70%(Reading database ... 75%(Reading database ... 80%(Reading database ... 85%(Reading database ... 90%(Reading database ... 95%(Reading database ... 100%(Reading database ... 18628 files and directories currently installed.)
Removing libcddb2-dev (1.3.2-7) ...
Removing libcddb2 (1.3.2-7) ...
Processing triggers for libc-bin (2.37-13) ...
