[2024-01-08T06:53:26+00:00] apt-get install libsexp-dev abi-compliance-checker
Reading package lists...
Building dependency tree...
Reading state information...
abi-compliance-checker is already the newest version (2.3-2).
The following packages were automatically installed and are no longer required:
  libasound2 libasound2-data libbrotli1 libdrm-amdgpu1 libdrm-common
  libdrm-nouveau2 libdrm-radeon1 libdrm2 libflac12 libfreetype6 libgl-dev
  libgl1 libgl1-mesa-dri libglapi-mesa libglvnd0 libglx-dev libglx-mesa0
  libglx0 libllvm17 libogg0 libopenal-data libopenal1 libpng16-16
  libpthread-stubs0-dev libsensors-config libsensors5 libseriousproton-dev
  libseriousproton0 libsfml-audio2.5 libsfml-audio2.6 libsfml-dev
  libsfml-graphics2.5 libsfml-graphics2.6 libsfml-network2.5
  libsfml-network2.6 libsfml-system2.5 libsfml-system2.6 libsfml-window2.5
  libsfml-window2.6 libsndio7.0 libstb0 libvorbis0a libvorbisenc2
  libvorbisfile3 libvulkan1 libx11-dev libx11-xcb1 libxau-dev libxcb-dri2-0
  libxcb-dri3-0 libxcb-glx0 libxcb-present0 libxcb-randr0 libxcb-shm0
  libxcb-sync1 libxcb-xfixes0 libxcb1-dev libxcursor1 libxdmcp-dev libxext6
  libxfixes3 libxrandr2 libxrender1 libxshmfence1 libxxf86vm1 x11proto-dev
  xorg-sgml-doctools xtrans-dev
Use 'apt autoremove' to remove them.
The following NEW packages will be installed:
  libsexp-dev libsexp2
0 upgraded, 2 newly installed, 0 to remove and 20 not upgraded.
Need to get 40.7 kB of archives.
After this operation, 155 kB of additional disk space will be used.
Get:1 http://deb.debian.org/debian unstable/main armhf libsexp2 armhf 1.4.1-2 [19.7 kB]
Get:2 http://deb.debian.org/debian unstable/main armhf libsexp-dev armhf 1.4.1-2 [21.0 kB]
debconf: delaying package configuration, since apt-utils is not installed
Fetched 40.7 kB in 0s (399 kB/s)
Selecting previously unselected package libsexp2:armhf.
(Reading database ... (Reading database ... 5%(Reading database ... 10%(Reading database ... 15%(Reading database ... 20%(Reading database ... 25%(Reading database ... 30%(Reading database ... 35%(Reading database ... 40%(Reading database ... 45%(Reading database ... 50%(Reading database ... 55%(Reading database ... 60%(Reading database ... 65%(Reading database ... 70%(Reading database ... 75%(Reading database ... 80%(Reading database ... 85%(Reading database ... 90%(Reading database ... 95%(Reading database ... 100%(Reading database ... 18030 files and directories currently installed.)
Preparing to unpack .../libsexp2_1.4.1-2_armhf.deb ...
Unpacking libsexp2:armhf (1.4.1-2) ...
Selecting previously unselected package libsexp-dev:armhf.
Preparing to unpack .../libsexp-dev_1.4.1-2_armhf.deb ...
Unpacking libsexp-dev:armhf (1.4.1-2) ...
Setting up libsexp2:armhf (1.4.1-2) ...
Setting up libsexp-dev:armhf (1.4.1-2) ...
Processing triggers for libc-bin (2.37-13) ...
Reading package lists...
Building dependency tree...
Reading state information...
The following packages will be REMOVED:
  libasound2* libasound2-data* libbrotli1* libdrm-amdgpu1* libdrm-common*
  libdrm-nouveau2* libdrm-radeon1* libdrm2* libflac12* libfreetype6*
  libgl-dev* libgl1* libgl1-mesa-dri* libglapi-mesa* libglvnd0* libglx-dev*
  libglx-mesa0* libglx0* libllvm17* libogg0* libopenal-data* libopenal1*
  libpng16-16* libpthread-stubs0-dev* libsensors-config* libsensors5*
  libseriousproton-dev* libseriousproton0* libsfml-audio2.5* libsfml-audio2.6*
  libsfml-dev* libsfml-graphics2.5* libsfml-graphics2.6* libsfml-network2.5*
  libsfml-network2.6* libsfml-system2.5* libsfml-system2.6* libsfml-window2.5*
  libsfml-window2.6* libsndio7.0* libstb0* libvorbis0a* libvorbisenc2*
  libvorbisfile3* libvulkan1* libx11-dev* libx11-xcb1* libxau-dev*
  libxcb-dri2-0* libxcb-dri3-0* libxcb-glx0* libxcb-present0* libxcb-randr0*
  libxcb-shm0* libxcb-sync1* libxcb-xfixes0* libxcb1-dev* libxcursor1*
  libxdmcp-dev* libxext6* libxfixes3* libxrandr2* libxrender1* libxshmfence1*
  libxxf86vm1* x11proto-dev* xorg-sgml-doctools* xtrans-dev*
0 upgraded, 0 newly installed, 68 to remove and 20 not upgraded.
After this operation, 153 MB disk space will be freed.
(Reading database ... (Reading database ... 5%(Reading database ... 10%(Reading database ... 15%(Reading database ... 20%(Reading database ... 25%(Reading database ... 30%(Reading database ... 35%(Reading database ... 40%(Reading database ... 45%(Reading database ... 50%(Reading database ... 55%(Reading database ... 60%(Reading database ... 65%(Reading database ... 70%(Reading database ... 75%(Reading database ... 80%(Reading database ... 85%(Reading database ... 90%(Reading database ... 95%(Reading database ... 100%(Reading database ... 18048 files and directories currently installed.)
Removing libsfml-dev:armhf (2.6.1+dfsg-2) ...
Removing libsfml-audio2.6:armhf (2.6.1+dfsg-2) ...
Removing libseriousproton-dev (2020.01.15+dfsg-1) ...
Removing libseriousproton0 (2020.01.15+dfsg-1) ...
Removing libsfml-audio2.5:armhf (2.5.1+dfsg-2+b2) ...
Removing libopenal1:armhf (1:1.23.1-4) ...
Removing libsndio7.0:armhf (1.9.0-0.3+b3) ...
Removing libasound2:armhf (1.2.10-3) ...
Removing libasound2-data (1.2.10-3) ...
Removing libsfml-graphics2.6:armhf (2.6.1+dfsg-2) ...
Removing libsfml-graphics2.5:armhf (2.5.1+dfsg-2+b2) ...
Removing libfreetype6:armhf (2.13.2+dfsg-1+b1) ...
Removing libbrotli1:armhf (1.1.0-2+b3) ...
Removing libgl-dev:armhf (1.7.0-1) ...
Removing libsfml-window2.6:armhf (2.6.1+dfsg-2) ...
Removing libglx-dev:armhf (1.7.0-1) ...
Removing libflac12:armhf (1.4.3+ds-2+b1) ...
Removing libvorbisfile3:armhf (1.3.7-1) ...
Removing libvorbisenc2:armhf (1.3.7-1) ...
Removing libvorbis0a:armhf (1.3.7-1) ...
Removing libogg0:armhf (1.3.5-3) ...
Removing libopenal-data (1:1.23.1-4) ...
Removing libpng16-16:armhf (1.6.40-3) ...
Removing libx11-dev:armhf (2:1.8.7-1) ...
Removing libxcb1-dev:armhf (1.15-1) ...
Removing libpthread-stubs0-dev:armhf (0.4-1) ...
Removing libsfml-network2.5:armhf (2.5.1+dfsg-2+b2) ...
Removing libsfml-network2.6:armhf (2.6.1+dfsg-2) ...
Removing libsfml-window2.5:armhf (2.5.1+dfsg-2+b2) ...
Removing libsfml-system2.5:armhf (2.5.1+dfsg-2+b2) ...
Removing libsfml-system2.6:armhf (2.6.1+dfsg-2) ...
Removing libstb0:armhf (0.0~git20230129.5736b15+ds-1) ...
Removing libxau-dev:armhf (1:1.0.9-1) ...
Removing libxcursor1:armhf (1:1.2.1-1) ...
Removing libxdmcp-dev:armhf (1:1.1.2-3) ...
Removing libxrandr2:armhf (2:1.5.2-2+b1) ...
Removing libxrender1:armhf (1:0.9.10-1.1) ...
Removing x11proto-dev (2023.2-1) ...
Removing xorg-sgml-doctools (1:1.11-1.1) ...
Removing xtrans-dev (1.4.0-1) ...
Removing libgl1:armhf (1.7.0-1) ...
Removing libglx0:armhf (1.7.0-1) ...
Removing libglx-mesa0:armhf (23.3.2-2) ...
Removing libgl1-mesa-dri:armhf (23.3.2-2) ...
Removing libdrm-amdgpu1:armhf (2.4.117-1) ...
Removing libdrm-radeon1:armhf (2.4.117-1) ...
Removing libdrm-nouveau2:armhf (2.4.117-1) ...
Removing libdrm2:armhf (2.4.117-1) ...
Removing libdrm-common (2.4.117-1) ...
Removing libglapi-mesa:armhf (23.3.2-2) ...
Removing libglvnd0:armhf (1.7.0-1) ...
Removing libllvm17:armhf (1:17.0.6-3) ...
Removing libsensors5:armhf (1:3.6.0-8) ...
Removing libsensors-config (1:3.6.0-8) ...
Removing libvulkan1:armhf (1.3.268.0-1) ...
Removing libx11-xcb1:armhf (2:1.8.7-1) ...
Removing libxcb-dri2-0:armhf (1.15-1) ...
Removing libxcb-dri3-0:armhf (1.15-1) ...
Removing libxcb-glx0:armhf (1.15-1) ...
Removing libxcb-present0:armhf (1.15-1) ...
Removing libxcb-randr0:armhf (1.15-1) ...
Removing libxcb-shm0:armhf (1.15-1) ...
Removing libxcb-sync1:armhf (1.15-1) ...
Removing libxcb-xfixes0:armhf (1.15-1) ...
Removing libxxf86vm1:armhf (1:1.1.4-1+b2) ...
Removing libxext6:armhf (2:1.3.4-1+b1) ...
Removing libxfixes3:armhf (1:6.0.0-2) ...
Removing libxshmfence1:armhf (1.3-1) ...
Processing triggers for libc-bin (2.37-13) ...
(Reading database ... (Reading database ... 5%(Reading database ... 10%(Reading database ... 15%(Reading database ... 20%(Reading database ... 25%(Reading database ... 30%(Reading database ... 35%(Reading database ... 40%(Reading database ... 45%(Reading database ... 50%(Reading database ... 55%(Reading database ... 60%(Reading database ... 65%(Reading database ... 70%(Reading database ... 75%(Reading database ... 80%(Reading database ... 85%(Reading database ... 90%(Reading database ... 95%(Reading database ... 100%(Reading database ... 17036 files and directories currently installed.)
Purging configuration files for libgl1-mesa-dri:armhf (23.3.2-2) ...
Purging configuration files for libsensors-config (1:3.6.0-8) ...
Purging configuration files for libopenal-data (1:1.23.1-4) ...
