[2024-01-08T11:55:58+00:00] apt-get install libventrilo-dev abi-compliance-checker
Reading package lists...
Building dependency tree...
Reading state information...
abi-compliance-checker is already the newest version (2.3-2).
The following packages were automatically installed and are no longer required:
  libvecgeom-dev libvecgeom1.2 vc-dev veccore-dev
Use 'apt autoremove' to remove them.
The following additional packages will be installed:
  libgsm1 libopus0 libspeex1 libventrilo3-0
Suggested packages:
  opus-tools speex
The following NEW packages will be installed:
  libgsm1 libopus0 libspeex1 libventrilo-dev libventrilo3-0
0 upgraded, 5 newly installed, 0 to remove and 16 not upgraded.
Need to get 377 kB of archives.
After this operation, 1149 kB of additional disk space will be used.
Get:1 http://deb.debian.org/debian unstable/main armhf libgsm1 armhf 1.0.22-1 [27.9 kB]
Get:2 http://deb.debian.org/debian unstable/main armhf libopus0 armhf 1.4-1 [172 kB]
Get:3 http://deb.debian.org/debian unstable/main armhf libspeex1 armhf 1.2.1-2 [45.8 kB]
Get:4 http://deb.debian.org/debian unstable/main armhf libventrilo3-0 armhf 1.2.5-5 [59.9 kB]
Get:5 http://deb.debian.org/debian unstable/main armhf libventrilo-dev armhf 1.2.5-5 [71.1 kB]
debconf: delaying package configuration, since apt-utils is not installed
Fetched 377 kB in 0s (2301 kB/s)
Selecting previously unselected package libgsm1:armhf.
(Reading database ... (Reading database ... 5%(Reading database ... 10%(Reading database ... 15%(Reading database ... 20%(Reading database ... 25%(Reading database ... 30%(Reading database ... 35%(Reading database ... 40%(Reading database ... 45%(Reading database ... 50%(Reading database ... 55%(Reading database ... 60%(Reading database ... 65%(Reading database ... 70%(Reading database ... 75%(Reading database ... 80%(Reading database ... 85%(Reading database ... 90%(Reading database ... 95%(Reading database ... 100%(Reading database ... 17600 files and directories currently installed.)
Preparing to unpack .../libgsm1_1.0.22-1_armhf.deb ...
Unpacking libgsm1:armhf (1.0.22-1) ...
Selecting previously unselected package libopus0:armhf.
Preparing to unpack .../libopus0_1.4-1_armhf.deb ...
Unpacking libopus0:armhf (1.4-1) ...
Selecting previously unselected package libspeex1:armhf.
Preparing to unpack .../libspeex1_1.2.1-2_armhf.deb ...
Unpacking libspeex1:armhf (1.2.1-2) ...
Selecting previously unselected package libventrilo3-0:armhf.
Preparing to unpack .../libventrilo3-0_1.2.5-5_armhf.deb ...
Unpacking libventrilo3-0:armhf (1.2.5-5) ...
Selecting previously unselected package libventrilo-dev:armhf.
Preparing to unpack .../libventrilo-dev_1.2.5-5_armhf.deb ...
Unpacking libventrilo-dev:armhf (1.2.5-5) ...
Setting up libspeex1:armhf (1.2.1-2) ...
Setting up libgsm1:armhf (1.0.22-1) ...
Setting up libopus0:armhf (1.4-1) ...
Setting up libventrilo3-0:armhf (1.2.5-5) ...
Setting up libventrilo-dev:armhf (1.2.5-5) ...
Processing triggers for libc-bin (2.37-13) ...
Reading package lists...
Building dependency tree...
Reading state information...
The following packages will be REMOVED:
  libvecgeom-dev* libvecgeom1.2* vc-dev* veccore-dev*
0 upgraded, 0 newly installed, 4 to remove and 16 not upgraded.
After this operation, 7715 kB disk space will be freed.
(Reading database ... (Reading database ... 5%(Reading database ... 10%(Reading database ... 15%(Reading database ... 20%(Reading database ... 25%(Reading database ... 30%(Reading database ... 35%(Reading database ... 40%(Reading database ... 45%(Reading database ... 50%(Reading database ... 55%(Reading database ... 60%(Reading database ... 65%(Reading database ... 70%(Reading database ... 75%(Reading database ... 80%(Reading database ... 85%(Reading database ... 90%(Reading database ... 95%(Reading database ... 100%(Reading database ... 17633 files and directories currently installed.)
Removing libvecgeom-dev (1.2.5+dfsg-1) ...
Removing libvecgeom1.2:armhf (1.2.5+dfsg-1) ...
Removing vc-dev (1.4.4-1) ...
Removing veccore-dev:armhf (0.8.1+ds1-1) ...
Processing triggers for libc-bin (2.37-13) ...
