[2024-01-06T16:09:42+00:00] apt-get install libcidr-dev abi-compliance-checker
Reading package lists...
Building dependency tree...
Reading state information...
abi-compliance-checker is already the newest version (2.3-2).
The following packages were automatically installed and are no longer required:
  fontconfig fontconfig-config fonts-dejavu-core fonts-dejavu-mono libaom3
  libavcodec60 libavutil58 libbrotli1 libcairo-gobject2 libcairo2
  libchromaprint-dev libchromaprint1 libcodec2-1.2 libdatrie1 libdav1d7
  libdeflate0 libdrm-common libdrm2 libfontconfig1 libfreetype6 libfribidi0
  libgdk-pixbuf-2.0-0 libgdk-pixbuf2.0-common libgraphite2-3 libgsm1
  libharfbuzz0b libhwy1 libjbig0 libjpeg62-turbo libjxl0.7 liblcms2-2 liblerc4
  libmp3lame0 libogg0 libopenjp2-7 libopus0 libpango-1.0-0 libpangocairo-1.0-0
  libpangoft2-1.0-0 libpixman-1-0 libpng16-16 librav1e0 librsvg2-2
  libsharpyuv0 libshine3 libsnappy1v5 libsoxr0 libspeex1 libsvtav1enc1d1
  libswresample4 libthai-data libthai0 libtheora0 libtiff6 libtwolame0
  libva-drm2 libva-x11-2 libva2 libvdpau1 libvorbis0a libvorbisenc2 libvpx8
  libwebp7 libwebpmux3 libx11-6 libx11-data libx11-xcb1 libx264-164
  libx265-199 libxau6 libxcb-dri3-0 libxcb-render0 libxcb-shm0 libxcb1
  libxdmcp6 libxext6 libxfixes3 libxrender1 libxvidcore4 libzvbi-common
  libzvbi0 ocl-icd-libopencl1 shared-mime-info
Use 'apt autoremove' to remove them.
The following NEW packages will be installed:
  libcidr-dev libcidr0
0 upgraded, 2 newly installed, 0 to remove and 15 not upgraded.
Need to get 18.6 kB of archives.
After this operation, 61.4 kB of additional disk space will be used.
Get:1 http://deb.debian.org/debian unstable/main armhf libcidr0 armhf 1.2.3-3 [12.1 kB]
Get:2 http://deb.debian.org/debian unstable/main armhf libcidr-dev armhf 1.2.3-3 [6568 B]
debconf: delaying package configuration, since apt-utils is not installed
Fetched 18.6 kB in 0s (102 kB/s)
Selecting previously unselected package libcidr0:armhf.
(Reading database ... (Reading database ... 5%(Reading database ... 10%(Reading database ... 15%(Reading database ... 20%(Reading database ... 25%(Reading database ... 30%(Reading database ... 35%(Reading database ... 40%(Reading database ... 45%(Reading database ... 50%(Reading database ... 55%(Reading database ... 60%(Reading database ... 65%(Reading database ... 70%(Reading database ... 75%(Reading database ... 80%(Reading database ... 85%(Reading database ... 90%(Reading database ... 95%(Reading database ... 100%(Reading database ... 19750 files and directories currently installed.)
Preparing to unpack .../libcidr0_1.2.3-3_armhf.deb ...
Unpacking libcidr0:armhf (1.2.3-3) ...
Selecting previously unselected package libcidr-dev:armhf.
Preparing to unpack .../libcidr-dev_1.2.3-3_armhf.deb ...
Unpacking libcidr-dev:armhf (1.2.3-3) ...
Setting up libcidr0:armhf (1.2.3-3) ...
Setting up libcidr-dev:armhf (1.2.3-3) ...
Processing triggers for libc-bin (2.37-13) ...
Reading package lists...
Building dependency tree...
Reading state information...
The following packages will be REMOVED:
  fontconfig* fontconfig-config* fonts-dejavu-core* fonts-dejavu-mono*
  libaom3* libavcodec60* libavutil58* libbrotli1* libcairo-gobject2*
  libcairo2* libchromaprint-dev* libchromaprint1* libcodec2-1.2* libdatrie1*
  libdav1d7* libdeflate0* libdrm-common* libdrm2* libfontconfig1*
  libfreetype6* libfribidi0* libgdk-pixbuf-2.0-0* libgdk-pixbuf2.0-common*
  libgraphite2-3* libgsm1* libharfbuzz0b* libhwy1* libjbig0* libjpeg62-turbo*
  libjxl0.7* liblcms2-2* liblerc4* libmp3lame0* libogg0* libopenjp2-7*
  libopus0* libpango-1.0-0* libpangocairo-1.0-0* libpangoft2-1.0-0*
  libpixman-1-0* libpng16-16* librav1e0* librsvg2-2* libsharpyuv0* libshine3*
  libsnappy1v5* libsoxr0* libspeex1* libsvtav1enc1d1* libswresample4*
  libthai-data* libthai0* libtheora0* libtiff6* libtwolame0* libva-drm2*
  libva-x11-2* libva2* libvdpau1* libvorbis0a* libvorbisenc2* libvpx8*
  libwebp7* libwebpmux3* libx11-6* libx11-data* libx11-xcb1* libx264-164*
  libx265-199* libxau6* libxcb-dri3-0* libxcb-render0* libxcb-shm0* libxcb1*
  libxdmcp6* libxext6* libxfixes3* libxrender1* libxvidcore4* libzvbi-common*
  libzvbi0* ocl-icd-libopencl1* shared-mime-info*
0 upgraded, 0 newly installed, 83 to remove and 15 not upgraded.
After this operation, 88.5 MB disk space will be freed.
(Reading database ... (Reading database ... 5%(Reading database ... 10%(Reading database ... 15%(Reading database ... 20%(Reading database ... 25%(Reading database ... 30%(Reading database ... 35%(Reading database ... 40%(Reading database ... 45%(Reading database ... 50%(Reading database ... 55%(Reading database ... 60%(Reading database ... 65%(Reading database ... 70%(Reading database ... 75%(Reading database ... 80%(Reading database ... 85%(Reading database ... 90%(Reading database ... 95%(Reading database ... 100%(Reading database ... 19760 files and directories currently installed.)
Removing libchromaprint-dev:armhf (1.5.1-4) ...
Removing libchromaprint1:armhf (1.5.1-4) ...
Removing libavcodec60:armhf (7:6.1.1-1) ...
Removing librsvg2-2:armhf (2.54.7+dfsg-2) ...
Removing libpangocairo-1.0-0:armhf (1.51.0+ds-3) ...
Removing libpangoft2-1.0-0:armhf (1.51.0+ds-3) ...
Removing libpango-1.0-0:armhf (1.51.0+ds-3) ...
Removing fontconfig (2.14.2-6) ...
Removing libtheora0:armhf (1.1.1+dfsg.1-16.1+b1) ...
Removing libcairo-gobject2:armhf (1.18.0-1) ...
Removing libcairo2:armhf (1.18.0-1) ...
Removing libfontconfig1:armhf (2.14.2-6) ...
Removing fontconfig-config (2.14.2-6) ...
Removing fonts-dejavu-core (2.37-8) ...
Removing fonts-dejavu-mono (2.37-8) ...
Removing libaom3:armhf (3.7.1-1+b1) ...
Removing libswresample4:armhf (7:6.1.1-1) ...
Removing libavutil58:armhf (7:6.1.1-1) ...
Removing libjxl0.7:armhf (0.7.0-10.2) ...
Removing libharfbuzz0b:armhf (8.0.1-1) ...
Removing libfreetype6:armhf (2.13.2+dfsg-1) ...
Removing libbrotli1:armhf (1.1.0-2+b1) ...
Removing libcodec2-1.2:armhf (1.2.0-2) ...
Removing libthai0:armhf (0.1.29-2) ...
Removing libdatrie1:armhf (0.2.13-3) ...
Removing libdav1d7:armhf (1.3.0-2) ...
Removing libgdk-pixbuf-2.0-0:armhf (2.42.10+dfsg-3) ...
Removing libtiff6:armhf (4.5.1+git230720-3) ...
Removing libdeflate0:armhf (1.18-1) ...
Removing libva-drm2:armhf (2.20.0-2) ...
Removing libva-x11-2:armhf (2.20.0-2) ...
Removing libdrm2:armhf (2.4.117-1) ...
Removing libdrm-common (2.4.117-1) ...
Removing libfribidi0:armhf (1.0.13-3) ...
Removing libgdk-pixbuf2.0-common (2.42.10+dfsg-3) ...
Removing libgraphite2-3:armhf (1.3.14-2) ...
Removing libgsm1:armhf (1.0.22-1) ...
Removing libhwy1:armhf (1.0.7-8) ...
Removing libjbig0:armhf (2.1-6.1) ...
Removing libjpeg62-turbo:armhf (1:2.1.5-2) ...
Removing liblcms2-2:armhf (2.14-2) ...
Removing liblerc4:armhf (4.0.0+ds-4) ...
Removing libmp3lame0:armhf (3.100-6) ...
Removing libvorbisenc2:armhf (1.3.7-1) ...
Removing libvorbis0a:armhf (1.3.7-1) ...
Removing libogg0:armhf (1.3.5-3) ...
Removing libopenjp2-7:armhf (2.5.0-2) ...
Removing libopus0:armhf (1.4-1) ...
Removing libpixman-1-0:armhf (0.42.2-1) ...
Removing libzvbi0:armhf (0.2.42-1) ...
Removing libpng16-16:armhf (1.6.40-3) ...
Removing librav1e0:armhf (0.6.6-4) ...
Removing libwebpmux3:armhf (1.3.2-0.3) ...
Removing libwebp7:armhf (1.3.2-0.3) ...
Removing libsharpyuv0:armhf (1.3.2-0.3) ...
Removing libshine3:armhf (3.1.1-2) ...
Removing libsnappy1v5:armhf (1.1.10-1) ...
Removing libsoxr0:armhf (0.1.3-4) ...
Removing libspeex1:armhf (1.2.1-2) ...
Removing libsvtav1enc1d1:armhf (1.7.0+dfsg-2) ...
Removing libthai-data (0.1.29-2) ...
Removing libtwolame0:armhf (0.4.0-2) ...
Removing libva2:armhf (2.20.0-2) ...
Removing libvdpau1:armhf (1.5-2) ...
Removing libvpx8:armhf (1.13.1-2) ...
Removing libxrender1:armhf (1:0.9.10-1.1) ...
Removing libxfixes3:armhf (1:6.0.0-2) ...
Removing libx11-xcb1:armhf (2:1.8.7-1) ...
Removing libx264-164:armhf (2:0.164.3095+gitbaee400-3+b1) ...
Removing libx265-199:armhf (3.5-2+b1) ...
Removing libxcb-shm0:armhf (1.15-1) ...
Removing libxcb-render0:armhf (1.15-1) ...
Removing libxcb-dri3-0:armhf (1.15-1) ...
Removing libxext6:armhf (2:1.3.4-1+b1) ...
Removing libxvidcore4:armhf (2:1.3.7-1) ...
Removing libzvbi-common (0.2.42-1) ...
Removing ocl-icd-libopencl1:armhf (2.3.2-1) ...
Removing shared-mime-info (2.4-1) ...
Removing libx11-6:armhf (2:1.8.7-1) ...
Removing libx11-data (2:1.8.7-1) ...
Removing libxcb1:armhf (1.15-1) ...
Removing libxau6:armhf (1:1.0.9-1) ...
Removing libxdmcp6:armhf (1:1.1.2-3) ...
Processing triggers for sgml-base (1.31) ...
Processing triggers for libc-bin (2.37-13) ...
(Reading database ... (Reading database ... 5%(Reading database ... 10%(Reading database ... 15%(Reading database ... 20%(Reading database ... 25%(Reading database ... 30%(Reading database ... 35%(Reading database ... 40%(Reading database ... 45%(Reading database ... 50%(Reading database ... 55%(Reading database ... 60%(Reading database ... 65%(Reading database ... 70%(Reading database ... 75%(Reading database ... 80%(Reading database ... 85%(Reading database ... 90%(Reading database ... 95%(Reading database ... 100%(Reading database ... 18549 files and directories currently installed.)
Purging configuration files for fontconfig (2.14.2-6) ...
Purging configuration files for fontconfig-config (2.14.2-6) ...
Purging configuration files for shared-mime-info (2.4-1) ...
Purging configuration files for fonts-dejavu-mono (2.37-8) ...
Purging configuration files for fonts-dejavu-core (2.37-8) ...
Purging configuration files for libvdpau1:armhf (1.5-2) ...
Purging configuration files for libgdk-pixbuf-2.0-0:armhf (2.42.10+dfsg-3) ...
