Temporary header file '/tmp/QzKsiw5c8B/dump1.h' with the following content will be compiled to create GCC translation unit dump:

  // add defines
  #define __STDC_VERSION__ 201710L
#define _TIME_BITS 64
#define _FILE_OFFSET_BITS 64
#define _GXX_NULLPTR_T
#define CLUTTER_ENABLE_COMPOSITOR_API 1
#define _REGEX_NELTS(n)
#define _Atomic
#define PACKED
#ifdef __cplusplus
// C17 compat layer
#define _Alignof(type) alignof(type)
#endif
#define getaddrinfo_a(a,b,c,d)

  // add includes
  #include "/usr/include/rados/librados.h"
  #include "/usr/include/rados/rados_types.h"

  // add classes
  cmsghdr* tmp_add_class_0;
  group_filter* tmp_add_class_1;
  group_req* tmp_add_class_2;
  group_source_req* tmp_add_class_3;
  in6_addr* tmp_add_class_4;
  in6_pktinfo* tmp_add_class_5;
  in_addr* tmp_add_class_6;
  in_pktinfo* tmp_add_class_7;
  iovec* tmp_add_class_8;
  ip6_mtuinfo* tmp_add_class_9;
  ip_mreq* tmp_add_class_10;
  ip_mreq_source* tmp_add_class_11;
  ip_mreqn* tmp_add_class_12;
  ip_msfilter* tmp_add_class_13;
  ip_opts* tmp_add_class_14;
  ipv6_mreq* tmp_add_class_15;
  itimerval* tmp_add_class_16;
  linger* tmp_add_class_17;
  mmsghdr* tmp_add_class_18;
  msghdr* tmp_add_class_19;
  notify_ack_t* tmp_add_class_20;
  notify_timeout_t* tmp_add_class_21;
  obj_watch_t* tmp_add_class_22;
  osockaddr* tmp_add_class_23;
  rados_cluster_stat_t* tmp_add_class_24;
  rados_pool_stat_t* tmp_add_class_25;
  sockaddr* tmp_add_class_26;
  sockaddr_in* tmp_add_class_27;
  sockaddr_in6* tmp_add_class_28;
  sockaddr_storage* tmp_add_class_29;
  ucred* tmp_add_class_30;

The GCC parameters:
  gcc -fdump-lang-raw -fkeep-inline-functions -c -x c++ -fpermissive -w "/tmp/QzKsiw5c8B/dump1.h"

