[2024-02-01T08:29:12+00:00] apt-get install libinjeqt-dev qtbase5-dev abi-compliance-checker
Reading package lists...
Building dependency tree...
Reading state information...
libinjeqt-dev is already the newest version (1.1.0-1.1).
libinjeqt-dev set to manually installed.
abi-compliance-checker is already the newest version (2.3-2).
The following additional packages will be installed:
  fontconfig fontconfig-config fonts-dejavu-core fonts-dejavu-mono
  libavahi-client3 libavahi-common-data libavahi-common3 libbrotli1 libcups2
  libdbus-1-3 libdrm-amdgpu1 libdrm-common libdrm-nouveau2 libdrm-radeon1
  libdrm2 libedit2 libegl-dev libegl-mesa0 libegl1 libevdev2 libfontconfig1
  libfreetype6 libgbm1 libgl-dev libgl1 libgl1-mesa-dri libglapi-mesa
  libgles-dev libgles1 libgles2 libglvnd0 libglx-dev libglx-mesa0 libglx0
  libgraphite2-3 libgudev-1.0-0 libharfbuzz0b libice6 libinput-bin libinput10
  libjpeg62-turbo libllvm17 libmd4c0 libmtdev1 libpng16-16
  libpthread-stubs0-dev libqt5concurrent5 libqt5dbus5 libqt5gui5
  libqt5network5 libqt5printsupport5 libqt5sql5 libqt5test5 libqt5widgets5
  libqt5xml5 libsensors-config libsensors5 libsm6 libvulkan-dev libvulkan1
  libwacom-common libwacom9 libwayland-client0 libwayland-server0 libx11-6
  libx11-data libx11-dev libx11-xcb1 libxau-dev libxau6 libxcb-dri2-0
  libxcb-dri3-0 libxcb-glx0 libxcb-icccm4 libxcb-image0 libxcb-keysyms1
  libxcb-present0 libxcb-randr0 libxcb-render-util0 libxcb-render0
  libxcb-shape0 libxcb-shm0 libxcb-sync1 libxcb-util1 libxcb-xfixes0
  libxcb-xinerama0 libxcb-xinput0 libxcb-xkb1 libxcb1 libxcb1-dev libxdmcp-dev
  libxdmcp6 libxext-dev libxext6 libxfixes3 libxkbcommon-x11-0 libxkbcommon0
  libxrender1 libxshmfence1 libxxf86vm1 libz3-4 qt5-qmake qt5-qmake-bin
  qtbase5-dev-tools qtchooser x11-common x11proto-dev xkb-data
  xorg-sgml-doctools xtrans-dev
Suggested packages:
  cups-common qgnomeplatform-qt5 qt5-image-formats-plugins lm-sensors
  libwacom-bin libx11-doc libxcb-doc libxext-doc default-libmysqlclient-dev
  firebird-dev libpq-dev libsqlite3-dev unixodbc-dev
Recommended packages:
  dbus libqt5svg5 qt5-gtk-platformtheme qtwayland5 libqt5sql5-sqlite
  | libqt5sql5-mysql | libqt5sql5-odbc | libqt5sql5-psql | libqt5sql5-tds
  | libqt5sql5-ibase mesa-vulkan-drivers | vulkan-icd libqt5opengl5-dev
The following NEW packages will be installed:
  fontconfig fontconfig-config fonts-dejavu-core fonts-dejavu-mono
  libavahi-client3 libavahi-common-data libavahi-common3 libbrotli1 libcups2
  libdbus-1-3 libdrm-amdgpu1 libdrm-common libdrm-nouveau2 libdrm-radeon1
  libdrm2 libedit2 libegl-dev libegl-mesa0 libegl1 libevdev2 libfontconfig1
  libfreetype6 libgbm1 libgl-dev libgl1 libgl1-mesa-dri libglapi-mesa
  libgles-dev libgles1 libgles2 libglvnd0 libglx-dev libglx-mesa0 libglx0
  libgraphite2-3 libgudev-1.0-0 libharfbuzz0b libice6 libinput-bin libinput10
  libjpeg62-turbo libllvm17 libmd4c0 libmtdev1 libpng16-16
  libpthread-stubs0-dev libqt5concurrent5 libqt5dbus5 libqt5gui5
  libqt5network5 libqt5printsupport5 libqt5sql5 libqt5test5 libqt5widgets5
  libqt5xml5 libsensors-config libsensors5 libsm6 libvulkan-dev libvulkan1
  libwacom-common libwacom9 libwayland-client0 libwayland-server0 libx11-6
  libx11-data libx11-dev libx11-xcb1 libxau-dev libxau6 libxcb-dri2-0
  libxcb-dri3-0 libxcb-glx0 libxcb-icccm4 libxcb-image0 libxcb-keysyms1
  libxcb-present0 libxcb-randr0 libxcb-render-util0 libxcb-render0
  libxcb-shape0 libxcb-shm0 libxcb-sync1 libxcb-util1 libxcb-xfixes0
  libxcb-xinerama0 libxcb-xinput0 libxcb-xkb1 libxcb1 libxcb1-dev libxdmcp-dev
  libxdmcp6 libxext-dev libxext6 libxfixes3 libxkbcommon-x11-0 libxkbcommon0
  libxrender1 libxshmfence1 libxxf86vm1 libz3-4 qt5-qmake qt5-qmake-bin
  qtbase5-dev qtbase5-dev-tools qtchooser x11-common x11proto-dev xkb-data
  xorg-sgml-doctools xtrans-dev
0 upgraded, 111 newly installed, 0 to remove and 73 not upgraded.
Need to get 58.6 MB of archives.
After this operation, 254 MB of additional disk space will be used.
Get:1 http://deb.debian.org/debian unstable/main armhf libbrotli1 armhf 1.1.0-2+b3 [284 kB]
Get:2 http://deb.debian.org/debian unstable/main armhf libpng16-16 armhf 1.6.42-1 [261 kB]
Get:3 http://deb.debian.org/debian unstable/main armhf libfreetype6 armhf 2.13.2+dfsg-1+b1 [371 kB]
Get:4 http://deb.debian.org/debian unstable/main armhf fonts-dejavu-mono all 2.37-8 [489 kB]
Get:5 http://deb.debian.org/debian unstable/main armhf fonts-dejavu-core all 2.37-8 [840 kB]
Get:6 http://deb.debian.org/debian unstable/main armhf fontconfig-config armhf 2.14.2-6+b1 [316 kB]
Get:7 http://deb.debian.org/debian unstable/main armhf libfontconfig1 armhf 2.14.2-6+b1 [369 kB]
Get:8 http://deb.debian.org/debian unstable/main armhf fontconfig armhf 2.14.2-6+b1 [461 kB]
Get:9 http://deb.debian.org/debian unstable/main armhf libavahi-common-data armhf 0.8-13+b1 [111 kB]
Get:10 http://deb.debian.org/debian unstable/main armhf libavahi-common3 armhf 0.8-13+b1 [40.1 kB]
Get:11 http://deb.debian.org/debian unstable/main armhf libdbus-1-3 armhf 1.14.10-4 [180 kB]
Get:12 http://deb.debian.org/debian unstable/main armhf libavahi-client3 armhf 0.8-13+b1 [43.4 kB]
Get:13 http://deb.debian.org/debian unstable/main armhf libcups2 armhf 2.4.7-1+b1 [212 kB]
Get:14 http://deb.debian.org/debian unstable/main armhf libdrm-common all 2.4.120-1 [7620 B]
Get:15 http://deb.debian.org/debian unstable/main armhf libdrm2 armhf 2.4.120-1 [33.7 kB]
Get:16 http://deb.debian.org/debian unstable/main armhf libdrm-amdgpu1 armhf 2.4.120-1 [19.9 kB]
Get:17 http://deb.debian.org/debian unstable/main armhf libdrm-nouveau2 armhf 2.4.120-1 [16.8 kB]
Get:18 http://deb.debian.org/debian unstable/main armhf libdrm-radeon1 armhf 2.4.120-1 [19.5 kB]
Get:19 http://deb.debian.org/debian unstable/main armhf libedit2 armhf 3.1-20230828-1 [76.8 kB]
Get:20 http://deb.debian.org/debian unstable/main armhf libglvnd0 armhf 1.7.0-1 [52.3 kB]
Get:21 http://deb.debian.org/debian unstable/main armhf libwayland-server0 armhf 1.22.0-2.1 [26.1 kB]
Get:22 http://deb.debian.org/debian unstable/main armhf libxau6 armhf 1:1.0.9-1 [19.0 kB]
Get:23 http://deb.debian.org/debian unstable/main armhf libxdmcp6 armhf 1:1.1.2-3 [24.9 kB]
Get:24 http://deb.debian.org/debian unstable/main armhf libxcb1 armhf 1.15-1 [140 kB]
Get:25 http://deb.debian.org/debian unstable/main armhf libxcb-randr0 armhf 1.15-1 [116 kB]
Get:26 http://deb.debian.org/debian unstable/main armhf libgbm1 armhf 23.3.4-1 [36.6 kB]
Get:27 http://deb.debian.org/debian unstable/main armhf libglapi-mesa armhf 23.3.4-1 [42.4 kB]
Get:28 http://deb.debian.org/debian unstable/main armhf libwayland-client0 armhf 1.22.0-2.1 [20.0 kB]
Get:29 http://deb.debian.org/debian unstable/main armhf libx11-data all 2:1.8.7-1 [328 kB]
Get:30 http://deb.debian.org/debian unstable/main armhf libx11-6 armhf 2:1.8.7-1 [735 kB]
Get:31 http://deb.debian.org/debian unstable/main armhf libx11-xcb1 armhf 2:1.8.7-1 [231 kB]
Get:32 http://deb.debian.org/debian unstable/main armhf libxcb-dri2-0 armhf 1.15-1 [107 kB]
Get:33 http://deb.debian.org/debian unstable/main armhf libxcb-dri3-0 armhf 1.15-1 [107 kB]
Get:34 http://deb.debian.org/debian unstable/main armhf libxcb-present0 armhf 1.15-1 [105 kB]
Get:35 http://deb.debian.org/debian unstable/main armhf libxcb-sync1 armhf 1.15-1 [108 kB]
Get:36 http://deb.debian.org/debian unstable/main armhf libxcb-xfixes0 armhf 1.15-1 [110 kB]
Get:37 http://deb.debian.org/debian unstable/main armhf libxshmfence1 armhf 1.3-1 [8592 B]
Get:38 http://deb.debian.org/debian unstable/main armhf libegl-mesa0 armhf 23.3.4-1 [97.8 kB]
Get:39 http://deb.debian.org/debian unstable/main armhf libegl1 armhf 1.7.0-1 [28.7 kB]
Get:40 http://deb.debian.org/debian unstable/main armhf libxcb-glx0 armhf 1.15-1 [120 kB]
Get:41 http://deb.debian.org/debian unstable/main armhf libxcb-shm0 armhf 1.15-1 [106 kB]
Get:42 http://deb.debian.org/debian unstable/main armhf libxext6 armhf 2:1.3.4-1+b1 [47.8 kB]
Get:43 http://deb.debian.org/debian unstable/main armhf libxfixes3 armhf 1:6.0.0-2 [21.1 kB]
Get:44 http://deb.debian.org/debian unstable/main armhf libxxf86vm1 armhf 1:1.1.4-1+b2 [20.2 kB]
Get:45 http://deb.debian.org/debian unstable/main armhf libvulkan1 armhf 1.3.275.0-1 [109 kB]
Get:46 http://deb.debian.org/debian unstable/main armhf libz3-4 armhf 4.8.12-3.1+b2 [6324 kB]
Get:47 http://deb.debian.org/debian unstable/main armhf libllvm17 armhf 1:17.0.6-5 [21.6 MB]
Get:48 http://deb.debian.org/debian unstable/main armhf libsensors-config all 1:3.6.0-8 [14.4 kB]
Get:49 http://deb.debian.org/debian unstable/main armhf libsensors5 armhf 1:3.6.0-8 [31.6 kB]
Get:50 http://deb.debian.org/debian unstable/main armhf libgl1-mesa-dri armhf 23.3.4-1 [6400 kB]
Get:51 http://deb.debian.org/debian unstable/main armhf libglx-mesa0 armhf 23.3.4-1 [130 kB]
Get:52 http://deb.debian.org/debian unstable/main armhf libglx0 armhf 1.7.0-1 [32.2 kB]
Get:53 http://deb.debian.org/debian unstable/main armhf libgl1 armhf 1.7.0-1 [90.8 kB]
Get:54 http://deb.debian.org/debian unstable/main armhf xorg-sgml-doctools all 1:1.11-1.1 [22.1 kB]
Get:55 http://deb.debian.org/debian unstable/main armhf x11proto-dev all 2023.2-1 [598 kB]
Get:56 http://deb.debian.org/debian unstable/main armhf libxau-dev armhf 1:1.0.9-1 [22.4 kB]
Get:57 http://deb.debian.org/debian unstable/main armhf libxdmcp-dev armhf 1:1.1.2-3 [40.7 kB]
Get:58 http://deb.debian.org/debian unstable/main armhf xtrans-dev all 1.4.0-1 [98.7 kB]
Get:59 http://deb.debian.org/debian unstable/main armhf libpthread-stubs0-dev armhf 0.4-1 [5344 B]
Get:60 http://deb.debian.org/debian unstable/main armhf libxcb1-dev armhf 1.15-1 [179 kB]
Get:61 http://deb.debian.org/debian unstable/main armhf libx11-dev armhf 2:1.8.7-1 [816 kB]
Get:62 http://deb.debian.org/debian unstable/main armhf libglx-dev armhf 1.7.0-1 [15.5 kB]
Get:63 http://deb.debian.org/debian unstable/main armhf libgl-dev armhf 1.7.0-1 [100 kB]
Get:64 http://deb.debian.org/debian unstable/main armhf libegl-dev armhf 1.7.0-1 [19.2 kB]
Get:65 http://deb.debian.org/debian unstable/main armhf libevdev2 armhf 1.13.1+dfsg-1 [25.9 kB]
Get:66 http://deb.debian.org/debian unstable/main armhf libgles1 armhf 1.7.0-1 [12.0 kB]
Get:67 http://deb.debian.org/debian unstable/main armhf libgles2 armhf 1.7.0-1 [17.4 kB]
Get:68 http://deb.debian.org/debian unstable/main armhf libgles-dev armhf 1.7.0-1 [50.5 kB]
Get:69 http://deb.debian.org/debian unstable/main armhf libgraphite2-3 armhf 1.3.14-2 [63.2 kB]
Get:70 http://deb.debian.org/debian unstable/main armhf libgudev-1.0-0 armhf 238-3 [12.5 kB]
Get:71 http://deb.debian.org/debian unstable/main armhf libharfbuzz0b armhf 8.3.0-2 [2155 kB]
Get:72 http://deb.debian.org/debian unstable/main armhf x11-common all 1:7.7+23 [252 kB]
Get:73 http://deb.debian.org/debian unstable/main armhf libice6 armhf 2:1.0.10-1 [51.9 kB]
Get:74 http://deb.debian.org/debian unstable/main armhf libwacom-common all 2.9.0-2 [61.7 kB]
Get:75 http://deb.debian.org/debian unstable/main armhf libwacom9 armhf 2.9.0-2 [19.5 kB]
Get:76 http://deb.debian.org/debian unstable/main armhf libinput-bin armhf 1.23.0-2.1 [22.1 kB]
Get:77 http://deb.debian.org/debian unstable/main armhf libmtdev1 armhf 1.1.6-1 [21.9 kB]
Get:78 http://deb.debian.org/debian unstable/main armhf libinput10 armhf 1.23.0-2.1 [109 kB]
Get:79 http://deb.debian.org/debian unstable/main armhf libjpeg62-turbo armhf 1:2.1.5-2+b2 [143 kB]
Get:80 http://deb.debian.org/debian unstable/main armhf libmd4c0 armhf 0.4.8-1 [40.0 kB]
Get:81 http://deb.debian.org/debian unstable/main armhf libqt5concurrent5 armhf 5.15.10+dfsg-6 [41.9 kB]
Get:82 http://deb.debian.org/debian unstable/main armhf libqt5dbus5 armhf 5.15.10+dfsg-6 [189 kB]
Get:83 http://deb.debian.org/debian unstable/main armhf libqt5network5 armhf 5.15.10+dfsg-6 [597 kB]
Get:84 http://deb.debian.org/debian unstable/main armhf libsm6 armhf 2:1.2.3-1 [33.0 kB]
Get:85 http://deb.debian.org/debian unstable/main armhf libxcb-icccm4 armhf 0.4.1-1.1 [26.3 kB]
Get:86 http://deb.debian.org/debian unstable/main armhf libxcb-util1 armhf 0.4.0-1+b1 [22.2 kB]
Get:87 http://deb.debian.org/debian unstable/main armhf libxcb-image0 armhf 0.4.0-2 [21.7 kB]
Get:88 http://deb.debian.org/debian unstable/main armhf libxcb-keysyms1 armhf 0.4.0-1+b2 [15.8 kB]
Get:89 http://deb.debian.org/debian unstable/main armhf libxcb-render0 armhf 1.15-1 [114 kB]
Get:90 http://deb.debian.org/debian unstable/main armhf libxcb-render-util0 armhf 0.3.9-1+b1 [17.4 kB]
Get:91 http://deb.debian.org/debian unstable/main armhf libxcb-shape0 armhf 1.15-1 [106 kB]
Get:92 http://deb.debian.org/debian unstable/main armhf libxcb-xinerama0 armhf 1.15-1 [105 kB]
Get:93 http://deb.debian.org/debian unstable/main armhf libxcb-xinput0 armhf 1.15-1 [127 kB]
Get:94 http://deb.debian.org/debian unstable/main armhf libxcb-xkb1 armhf 1.15-1 [127 kB]
Get:95 http://deb.debian.org/debian unstable/main armhf xkb-data all 2.38-2 [782 kB]
Get:96 http://deb.debian.org/debian unstable/main armhf libxkbcommon0 armhf 1.6.0-1 [96.3 kB]
Get:97 http://deb.debian.org/debian unstable/main armhf libxkbcommon-x11-0 armhf 1.6.0-1 [14.1 kB]
Get:98 http://deb.debian.org/debian unstable/main armhf libxrender1 armhf 1:0.9.10-1.1 [30.1 kB]
Get:99 http://deb.debian.org/debian unstable/main armhf libqt5gui5 armhf 5.15.10+dfsg-6 [2648 kB]
Get:100 http://deb.debian.org/debian unstable/main armhf libqt5widgets5 armhf 5.15.10+dfsg-6 [2105 kB]
Get:101 http://deb.debian.org/debian unstable/main armhf libqt5printsupport5 armhf 5.15.10+dfsg-6 [187 kB]
Get:102 http://deb.debian.org/debian unstable/main armhf libqt5sql5 armhf 5.15.10+dfsg-6 [109 kB]
Get:103 http://deb.debian.org/debian unstable/main armhf libqt5test5 armhf 5.15.10+dfsg-6 [133 kB]
Get:104 http://deb.debian.org/debian unstable/main armhf libqt5xml5 armhf 5.15.10+dfsg-6 [110 kB]
Get:105 http://deb.debian.org/debian unstable/main armhf libvulkan-dev armhf 1.3.275.0-1 [1310 kB]
Get:106 http://deb.debian.org/debian unstable/main armhf libxext-dev armhf 2:1.3.4-1+b1 [103 kB]
Get:107 http://deb.debian.org/debian unstable/main armhf qt5-qmake-bin armhf 5.15.10+dfsg-6 [901 kB]
Get:108 http://deb.debian.org/debian unstable/main armhf qtchooser armhf 66-2 [23.6 kB]
Get:109 http://deb.debian.org/debian unstable/main armhf qt5-qmake armhf 5.15.10+dfsg-6 [222 kB]
Get:110 http://deb.debian.org/debian unstable/main armhf qtbase5-dev-tools armhf 5.15.10+dfsg-6 [650 kB]
Get:111 http://deb.debian.org/debian unstable/main armhf qtbase5-dev armhf 5.15.10+dfsg-6 [1068 kB]
debconf: delaying package configuration, since apt-utils is not installed
Fetched 58.6 MB in 2s (29.5 MB/s)
Selecting previously unselected package libbrotli1:armhf.
(Reading database ... (Reading database ... 5%(Reading database ... 10%(Reading database ... 15%(Reading database ... 20%(Reading database ... 25%(Reading database ... 30%(Reading database ... 35%(Reading database ... 40%(Reading database ... 45%(Reading database ... 50%(Reading database ... 55%(Reading database ... 60%(Reading database ... 65%(Reading database ... 70%(Reading database ... 75%(Reading database ... 80%(Reading database ... 85%(Reading database ... 90%(Reading database ... 95%(Reading database ... 100%(Reading database ... 13303 files and directories currently installed.)
Preparing to unpack .../000-libbrotli1_1.1.0-2+b3_armhf.deb ...
Unpacking libbrotli1:armhf (1.1.0-2+b3) ...
Selecting previously unselected package libpng16-16:armhf.
Preparing to unpack .../001-libpng16-16_1.6.42-1_armhf.deb ...
Unpacking libpng16-16:armhf (1.6.42-1) ...
Selecting previously unselected package libfreetype6:armhf.
Preparing to unpack .../002-libfreetype6_2.13.2+dfsg-1+b1_armhf.deb ...
Unpacking libfreetype6:armhf (2.13.2+dfsg-1+b1) ...
Selecting previously unselected package fonts-dejavu-mono.
Preparing to unpack .../003-fonts-dejavu-mono_2.37-8_all.deb ...
Unpacking fonts-dejavu-mono (2.37-8) ...
Selecting previously unselected package fonts-dejavu-core.
Preparing to unpack .../004-fonts-dejavu-core_2.37-8_all.deb ...
Unpacking fonts-dejavu-core (2.37-8) ...
Selecting previously unselected package fontconfig-config.
Preparing to unpack .../005-fontconfig-config_2.14.2-6+b1_armhf.deb ...
Unpacking fontconfig-config (2.14.2-6+b1) ...
Selecting previously unselected package libfontconfig1:armhf.
Preparing to unpack .../006-libfontconfig1_2.14.2-6+b1_armhf.deb ...
Unpacking libfontconfig1:armhf (2.14.2-6+b1) ...
Selecting previously unselected package fontconfig.
Preparing to unpack .../007-fontconfig_2.14.2-6+b1_armhf.deb ...
Unpacking fontconfig (2.14.2-6+b1) ...
Selecting previously unselected package libavahi-common-data:armhf.
Preparing to unpack .../008-libavahi-common-data_0.8-13+b1_armhf.deb ...
Unpacking libavahi-common-data:armhf (0.8-13+b1) ...
Selecting previously unselected package libavahi-common3:armhf.
Preparing to unpack .../009-libavahi-common3_0.8-13+b1_armhf.deb ...
Unpacking libavahi-common3:armhf (0.8-13+b1) ...
Selecting previously unselected package libdbus-1-3:armhf.
Preparing to unpack .../010-libdbus-1-3_1.14.10-4_armhf.deb ...
Unpacking libdbus-1-3:armhf (1.14.10-4) ...
Selecting previously unselected package libavahi-client3:armhf.
Preparing to unpack .../011-libavahi-client3_0.8-13+b1_armhf.deb ...
Unpacking libavahi-client3:armhf (0.8-13+b1) ...
Selecting previously unselected package libcups2:armhf.
Preparing to unpack .../012-libcups2_2.4.7-1+b1_armhf.deb ...
Unpacking libcups2:armhf (2.4.7-1+b1) ...
Selecting previously unselected package libdrm-common.
Preparing to unpack .../013-libdrm-common_2.4.120-1_all.deb ...
Unpacking libdrm-common (2.4.120-1) ...
Selecting previously unselected package libdrm2:armhf.
Preparing to unpack .../014-libdrm2_2.4.120-1_armhf.deb ...
Unpacking libdrm2:armhf (2.4.120-1) ...
Selecting previously unselected package libdrm-amdgpu1:armhf.
Preparing to unpack .../015-libdrm-amdgpu1_2.4.120-1_armhf.deb ...
Unpacking libdrm-amdgpu1:armhf (2.4.120-1) ...
Selecting previously unselected package libdrm-nouveau2:armhf.
Preparing to unpack .../016-libdrm-nouveau2_2.4.120-1_armhf.deb ...
Unpacking libdrm-nouveau2:armhf (2.4.120-1) ...
Selecting previously unselected package libdrm-radeon1:armhf.
Preparing to unpack .../017-libdrm-radeon1_2.4.120-1_armhf.deb ...
Unpacking libdrm-radeon1:armhf (2.4.120-1) ...
Selecting previously unselected package libedit2:armhf.
Preparing to unpack .../018-libedit2_3.1-20230828-1_armhf.deb ...
Unpacking libedit2:armhf (3.1-20230828-1) ...
Selecting previously unselected package libglvnd0:armhf.
Preparing to unpack .../019-libglvnd0_1.7.0-1_armhf.deb ...
Unpacking libglvnd0:armhf (1.7.0-1) ...
Selecting previously unselected package libwayland-server0:armhf.
Preparing to unpack .../020-libwayland-server0_1.22.0-2.1_armhf.deb ...
Unpacking libwayland-server0:armhf (1.22.0-2.1) ...
Selecting previously unselected package libxau6:armhf.
Preparing to unpack .../021-libxau6_1%3a1.0.9-1_armhf.deb ...
Unpacking libxau6:armhf (1:1.0.9-1) ...
Selecting previously unselected package libxdmcp6:armhf.
Preparing to unpack .../022-libxdmcp6_1%3a1.1.2-3_armhf.deb ...
Unpacking libxdmcp6:armhf (1:1.1.2-3) ...
Selecting previously unselected package libxcb1:armhf.
Preparing to unpack .../023-libxcb1_1.15-1_armhf.deb ...
Unpacking libxcb1:armhf (1.15-1) ...
Selecting previously unselected package libxcb-randr0:armhf.
Preparing to unpack .../024-libxcb-randr0_1.15-1_armhf.deb ...
Unpacking libxcb-randr0:armhf (1.15-1) ...
Selecting previously unselected package libgbm1:armhf.
Preparing to unpack .../025-libgbm1_23.3.4-1_armhf.deb ...
Unpacking libgbm1:armhf (23.3.4-1) ...
Selecting previously unselected package libglapi-mesa:armhf.
Preparing to unpack .../026-libglapi-mesa_23.3.4-1_armhf.deb ...
Unpacking libglapi-mesa:armhf (23.3.4-1) ...
Selecting previously unselected package libwayland-client0:armhf.
Preparing to unpack .../027-libwayland-client0_1.22.0-2.1_armhf.deb ...
Unpacking libwayland-client0:armhf (1.22.0-2.1) ...
Selecting previously unselected package libx11-data.
Preparing to unpack .../028-libx11-data_2%3a1.8.7-1_all.deb ...
Unpacking libx11-data (2:1.8.7-1) ...
Selecting previously unselected package libx11-6:armhf.
Preparing to unpack .../029-libx11-6_2%3a1.8.7-1_armhf.deb ...
Unpacking libx11-6:armhf (2:1.8.7-1) ...
Selecting previously unselected package libx11-xcb1:armhf.
Preparing to unpack .../030-libx11-xcb1_2%3a1.8.7-1_armhf.deb ...
Unpacking libx11-xcb1:armhf (2:1.8.7-1) ...
Selecting previously unselected package libxcb-dri2-0:armhf.
Preparing to unpack .../031-libxcb-dri2-0_1.15-1_armhf.deb ...
Unpacking libxcb-dri2-0:armhf (1.15-1) ...
Selecting previously unselected package libxcb-dri3-0:armhf.
Preparing to unpack .../032-libxcb-dri3-0_1.15-1_armhf.deb ...
Unpacking libxcb-dri3-0:armhf (1.15-1) ...
Selecting previously unselected package libxcb-present0:armhf.
Preparing to unpack .../033-libxcb-present0_1.15-1_armhf.deb ...
Unpacking libxcb-present0:armhf (1.15-1) ...
Selecting previously unselected package libxcb-sync1:armhf.
Preparing to unpack .../034-libxcb-sync1_1.15-1_armhf.deb ...
Unpacking libxcb-sync1:armhf (1.15-1) ...
Selecting previously unselected package libxcb-xfixes0:armhf.
Preparing to unpack .../035-libxcb-xfixes0_1.15-1_armhf.deb ...
Unpacking libxcb-xfixes0:armhf (1.15-1) ...
Selecting previously unselected package libxshmfence1:armhf.
Preparing to unpack .../036-libxshmfence1_1.3-1_armhf.deb ...
Unpacking libxshmfence1:armhf (1.3-1) ...
Selecting previously unselected package libegl-mesa0:armhf.
Preparing to unpack .../037-libegl-mesa0_23.3.4-1_armhf.deb ...
Unpacking libegl-mesa0:armhf (23.3.4-1) ...
Selecting previously unselected package libegl1:armhf.
Preparing to unpack .../038-libegl1_1.7.0-1_armhf.deb ...
Unpacking libegl1:armhf (1.7.0-1) ...
Selecting previously unselected package libxcb-glx0:armhf.
Preparing to unpack .../039-libxcb-glx0_1.15-1_armhf.deb ...
Unpacking libxcb-glx0:armhf (1.15-1) ...
Selecting previously unselected package libxcb-shm0:armhf.
Preparing to unpack .../040-libxcb-shm0_1.15-1_armhf.deb ...
Unpacking libxcb-shm0:armhf (1.15-1) ...
Selecting previously unselected package libxext6:armhf.
Preparing to unpack .../041-libxext6_2%3a1.3.4-1+b1_armhf.deb ...
Unpacking libxext6:armhf (2:1.3.4-1+b1) ...
Selecting previously unselected package libxfixes3:armhf.
Preparing to unpack .../042-libxfixes3_1%3a6.0.0-2_armhf.deb ...
Unpacking libxfixes3:armhf (1:6.0.0-2) ...
Selecting previously unselected package libxxf86vm1:armhf.
Preparing to unpack .../043-libxxf86vm1_1%3a1.1.4-1+b2_armhf.deb ...
Unpacking libxxf86vm1:armhf (1:1.1.4-1+b2) ...
Selecting previously unselected package libvulkan1:armhf.
Preparing to unpack .../044-libvulkan1_1.3.275.0-1_armhf.deb ...
Unpacking libvulkan1:armhf (1.3.275.0-1) ...
Selecting previously unselected package libz3-4:armhf.
Preparing to unpack .../045-libz3-4_4.8.12-3.1+b2_armhf.deb ...
Unpacking libz3-4:armhf (4.8.12-3.1+b2) ...
Selecting previously unselected package libllvm17:armhf.
Preparing to unpack .../046-libllvm17_1%3a17.0.6-5_armhf.deb ...
Unpacking libllvm17:armhf (1:17.0.6-5) ...
Selecting previously unselected package libsensors-config.
Preparing to unpack .../047-libsensors-config_1%3a3.6.0-8_all.deb ...
Unpacking libsensors-config (1:3.6.0-8) ...
Selecting previously unselected package libsensors5:armhf.
Preparing to unpack .../048-libsensors5_1%3a3.6.0-8_armhf.deb ...
Unpacking libsensors5:armhf (1:3.6.0-8) ...
Selecting previously unselected package libgl1-mesa-dri:armhf.
Preparing to unpack .../049-libgl1-mesa-dri_23.3.4-1_armhf.deb ...
Unpacking libgl1-mesa-dri:armhf (23.3.4-1) ...
Selecting previously unselected package libglx-mesa0:armhf.
Preparing to unpack .../050-libglx-mesa0_23.3.4-1_armhf.deb ...
Unpacking libglx-mesa0:armhf (23.3.4-1) ...
Selecting previously unselected package libglx0:armhf.
Preparing to unpack .../051-libglx0_1.7.0-1_armhf.deb ...
Unpacking libglx0:armhf (1.7.0-1) ...
Selecting previously unselected package libgl1:armhf.
Preparing to unpack .../052-libgl1_1.7.0-1_armhf.deb ...
Unpacking libgl1:armhf (1.7.0-1) ...
Selecting previously unselected package xorg-sgml-doctools.
Preparing to unpack .../053-xorg-sgml-doctools_1%3a1.11-1.1_all.deb ...
Unpacking xorg-sgml-doctools (1:1.11-1.1) ...
Selecting previously unselected package x11proto-dev.
Preparing to unpack .../054-x11proto-dev_2023.2-1_all.deb ...
Unpacking x11proto-dev (2023.2-1) ...
Selecting previously unselected package libxau-dev:armhf.
Preparing to unpack .../055-libxau-dev_1%3a1.0.9-1_armhf.deb ...
Unpacking libxau-dev:armhf (1:1.0.9-1) ...
Selecting previously unselected package libxdmcp-dev:armhf.
Preparing to unpack .../056-libxdmcp-dev_1%3a1.1.2-3_armhf.deb ...
Unpacking libxdmcp-dev:armhf (1:1.1.2-3) ...
Selecting previously unselected package xtrans-dev.
Preparing to unpack .../057-xtrans-dev_1.4.0-1_all.deb ...
Unpacking xtrans-dev (1.4.0-1) ...
Selecting previously unselected package libpthread-stubs0-dev:armhf.
Preparing to unpack .../058-libpthread-stubs0-dev_0.4-1_armhf.deb ...
Unpacking libpthread-stubs0-dev:armhf (0.4-1) ...
Selecting previously unselected package libxcb1-dev:armhf.
Preparing to unpack .../059-libxcb1-dev_1.15-1_armhf.deb ...
Unpacking libxcb1-dev:armhf (1.15-1) ...
Selecting previously unselected package libx11-dev:armhf.
Preparing to unpack .../060-libx11-dev_2%3a1.8.7-1_armhf.deb ...
Unpacking libx11-dev:armhf (2:1.8.7-1) ...
Selecting previously unselected package libglx-dev:armhf.
Preparing to unpack .../061-libglx-dev_1.7.0-1_armhf.deb ...
Unpacking libglx-dev:armhf (1.7.0-1) ...
Selecting previously unselected package libgl-dev:armhf.
Preparing to unpack .../062-libgl-dev_1.7.0-1_armhf.deb ...
Unpacking libgl-dev:armhf (1.7.0-1) ...
Selecting previously unselected package libegl-dev:armhf.
Preparing to unpack .../063-libegl-dev_1.7.0-1_armhf.deb ...
Unpacking libegl-dev:armhf (1.7.0-1) ...
Selecting previously unselected package libevdev2:armhf.
Preparing to unpack .../064-libevdev2_1.13.1+dfsg-1_armhf.deb ...
Unpacking libevdev2:armhf (1.13.1+dfsg-1) ...
Selecting previously unselected package libgles1:armhf.
Preparing to unpack .../065-libgles1_1.7.0-1_armhf.deb ...
Unpacking libgles1:armhf (1.7.0-1) ...
Selecting previously unselected package libgles2:armhf.
Preparing to unpack .../066-libgles2_1.7.0-1_armhf.deb ...
Unpacking libgles2:armhf (1.7.0-1) ...
Selecting previously unselected package libgles-dev:armhf.
Preparing to unpack .../067-libgles-dev_1.7.0-1_armhf.deb ...
Unpacking libgles-dev:armhf (1.7.0-1) ...
Selecting previously unselected package libgraphite2-3:armhf.
Preparing to unpack .../068-libgraphite2-3_1.3.14-2_armhf.deb ...
Unpacking libgraphite2-3:armhf (1.3.14-2) ...
Selecting previously unselected package libgudev-1.0-0:armhf.
Preparing to unpack .../069-libgudev-1.0-0_238-3_armhf.deb ...
Unpacking libgudev-1.0-0:armhf (238-3) ...
Selecting previously unselected package libharfbuzz0b:armhf.
Preparing to unpack .../070-libharfbuzz0b_8.3.0-2_armhf.deb ...
Unpacking libharfbuzz0b:armhf (8.3.0-2) ...
Selecting previously unselected package x11-common.
Preparing to unpack .../071-x11-common_1%3a7.7+23_all.deb ...
Unpacking x11-common (1:7.7+23) ...
Selecting previously unselected package libice6:armhf.
Preparing to unpack .../072-libice6_2%3a1.0.10-1_armhf.deb ...
Unpacking libice6:armhf (2:1.0.10-1) ...
Selecting previously unselected package libwacom-common.
Preparing to unpack .../073-libwacom-common_2.9.0-2_all.deb ...
Unpacking libwacom-common (2.9.0-2) ...
Selecting previously unselected package libwacom9:armhf.
Preparing to unpack .../074-libwacom9_2.9.0-2_armhf.deb ...
Unpacking libwacom9:armhf (2.9.0-2) ...
Selecting previously unselected package libinput-bin.
Preparing to unpack .../075-libinput-bin_1.23.0-2.1_armhf.deb ...
Unpacking libinput-bin (1.23.0-2.1) ...
Selecting previously unselected package libmtdev1:armhf.
Preparing to unpack .../076-libmtdev1_1.1.6-1_armhf.deb ...
Unpacking libmtdev1:armhf (1.1.6-1) ...
Selecting previously unselected package libinput10:armhf.
Preparing to unpack .../077-libinput10_1.23.0-2.1_armhf.deb ...
Unpacking libinput10:armhf (1.23.0-2.1) ...
Selecting previously unselected package libjpeg62-turbo:armhf.
Preparing to unpack .../078-libjpeg62-turbo_1%3a2.1.5-2+b2_armhf.deb ...
Unpacking libjpeg62-turbo:armhf (1:2.1.5-2+b2) ...
Selecting previously unselected package libmd4c0:armhf.
Preparing to unpack .../079-libmd4c0_0.4.8-1_armhf.deb ...
Unpacking libmd4c0:armhf (0.4.8-1) ...
Selecting previously unselected package libqt5concurrent5:armhf.
Preparing to unpack .../080-libqt5concurrent5_5.15.10+dfsg-6_armhf.deb ...
Unpacking libqt5concurrent5:armhf (5.15.10+dfsg-6) ...
Selecting previously unselected package libqt5dbus5:armhf.
Preparing to unpack .../081-libqt5dbus5_5.15.10+dfsg-6_armhf.deb ...
Unpacking libqt5dbus5:armhf (5.15.10+dfsg-6) ...
Selecting previously unselected package libqt5network5:armhf.
Preparing to unpack .../082-libqt5network5_5.15.10+dfsg-6_armhf.deb ...
Unpacking libqt5network5:armhf (5.15.10+dfsg-6) ...
Selecting previously unselected package libsm6:armhf.
Preparing to unpack .../083-libsm6_2%3a1.2.3-1_armhf.deb ...
Unpacking libsm6:armhf (2:1.2.3-1) ...
Selecting previously unselected package libxcb-icccm4:armhf.
Preparing to unpack .../084-libxcb-icccm4_0.4.1-1.1_armhf.deb ...
Unpacking libxcb-icccm4:armhf (0.4.1-1.1) ...
Selecting previously unselected package libxcb-util1:armhf.
Preparing to unpack .../085-libxcb-util1_0.4.0-1+b1_armhf.deb ...
Unpacking libxcb-util1:armhf (0.4.0-1+b1) ...
Selecting previously unselected package libxcb-image0:armhf.
Preparing to unpack .../086-libxcb-image0_0.4.0-2_armhf.deb ...
Unpacking libxcb-image0:armhf (0.4.0-2) ...
Selecting previously unselected package libxcb-keysyms1:armhf.
Preparing to unpack .../087-libxcb-keysyms1_0.4.0-1+b2_armhf.deb ...
Unpacking libxcb-keysyms1:armhf (0.4.0-1+b2) ...
Selecting previously unselected package libxcb-render0:armhf.
Preparing to unpack .../088-libxcb-render0_1.15-1_armhf.deb ...
Unpacking libxcb-render0:armhf (1.15-1) ...
Selecting previously unselected package libxcb-render-util0:armhf.
Preparing to unpack .../089-libxcb-render-util0_0.3.9-1+b1_armhf.deb ...
Unpacking libxcb-render-util0:armhf (0.3.9-1+b1) ...
Selecting previously unselected package libxcb-shape0:armhf.
Preparing to unpack .../090-libxcb-shape0_1.15-1_armhf.deb ...
Unpacking libxcb-shape0:armhf (1.15-1) ...
Selecting previously unselected package libxcb-xinerama0:armhf.
Preparing to unpack .../091-libxcb-xinerama0_1.15-1_armhf.deb ...
Unpacking libxcb-xinerama0:armhf (1.15-1) ...
Selecting previously unselected package libxcb-xinput0:armhf.
Preparing to unpack .../092-libxcb-xinput0_1.15-1_armhf.deb ...
Unpacking libxcb-xinput0:armhf (1.15-1) ...
Selecting previously unselected package libxcb-xkb1:armhf.
Preparing to unpack .../093-libxcb-xkb1_1.15-1_armhf.deb ...
Unpacking libxcb-xkb1:armhf (1.15-1) ...
Selecting previously unselected package xkb-data.
Preparing to unpack .../094-xkb-data_2.38-2_all.deb ...
Unpacking xkb-data (2.38-2) ...
Selecting previously unselected package libxkbcommon0:armhf.
Preparing to unpack .../095-libxkbcommon0_1.6.0-1_armhf.deb ...
Unpacking libxkbcommon0:armhf (1.6.0-1) ...
Selecting previously unselected package libxkbcommon-x11-0:armhf.
Preparing to unpack .../096-libxkbcommon-x11-0_1.6.0-1_armhf.deb ...
Unpacking libxkbcommon-x11-0:armhf (1.6.0-1) ...
Selecting previously unselected package libxrender1:armhf.
Preparing to unpack .../097-libxrender1_1%3a0.9.10-1.1_armhf.deb ...
Unpacking libxrender1:armhf (1:0.9.10-1.1) ...
Selecting previously unselected package libqt5gui5:armhf.
Preparing to unpack .../098-libqt5gui5_5.15.10+dfsg-6_armhf.deb ...
Unpacking libqt5gui5:armhf (5.15.10+dfsg-6) ...
Selecting previously unselected package libqt5widgets5:armhf.
Preparing to unpack .../099-libqt5widgets5_5.15.10+dfsg-6_armhf.deb ...
Unpacking libqt5widgets5:armhf (5.15.10+dfsg-6) ...
Selecting previously unselected package libqt5printsupport5:armhf.
Preparing to unpack .../100-libqt5printsupport5_5.15.10+dfsg-6_armhf.deb ...
Unpacking libqt5printsupport5:armhf (5.15.10+dfsg-6) ...
Selecting previously unselected package libqt5sql5:armhf.
Preparing to unpack .../101-libqt5sql5_5.15.10+dfsg-6_armhf.deb ...
Unpacking libqt5sql5:armhf (5.15.10+dfsg-6) ...
Selecting previously unselected package libqt5test5:armhf.
Preparing to unpack .../102-libqt5test5_5.15.10+dfsg-6_armhf.deb ...
Unpacking libqt5test5:armhf (5.15.10+dfsg-6) ...
Selecting previously unselected package libqt5xml5:armhf.
Preparing to unpack .../103-libqt5xml5_5.15.10+dfsg-6_armhf.deb ...
Unpacking libqt5xml5:armhf (5.15.10+dfsg-6) ...
Selecting previously unselected package libvulkan-dev:armhf.
Preparing to unpack .../104-libvulkan-dev_1.3.275.0-1_armhf.deb ...
Unpacking libvulkan-dev:armhf (1.3.275.0-1) ...
Selecting previously unselected package libxext-dev:armhf.
Preparing to unpack .../105-libxext-dev_2%3a1.3.4-1+b1_armhf.deb ...
Unpacking libxext-dev:armhf (2:1.3.4-1+b1) ...
Selecting previously unselected package qt5-qmake-bin.
Preparing to unpack .../106-qt5-qmake-bin_5.15.10+dfsg-6_armhf.deb ...
Unpacking qt5-qmake-bin (5.15.10+dfsg-6) ...
Selecting previously unselected package qtchooser.
Preparing to unpack .../107-qtchooser_66-2_armhf.deb ...
Unpacking qtchooser (66-2) ...
Selecting previously unselected package qt5-qmake:armhf.
Preparing to unpack .../108-qt5-qmake_5.15.10+dfsg-6_armhf.deb ...
Unpacking qt5-qmake:armhf (5.15.10+dfsg-6) ...
Selecting previously unselected package qtbase5-dev-tools.
Preparing to unpack .../109-qtbase5-dev-tools_5.15.10+dfsg-6_armhf.deb ...
Unpacking qtbase5-dev-tools (5.15.10+dfsg-6) ...
Selecting previously unselected package qtbase5-dev:armhf.
Preparing to unpack .../110-qtbase5-dev_5.15.10+dfsg-6_armhf.deb ...
Unpacking qtbase5-dev:armhf (5.15.10+dfsg-6) ...
Setting up libgraphite2-3:armhf (1.3.14-2) ...
Setting up libwayland-server0:armhf (1.22.0-2.1) ...
Setting up libxau6:armhf (1:1.0.9-1) ...
Setting up libxdmcp6:armhf (1:1.1.2-3) ...
Setting up libxcb1:armhf (1.15-1) ...
Setting up libxcb-xfixes0:armhf (1.15-1) ...
Setting up libxcb-xinput0:armhf (1.15-1) ...
Setting up libxcb-render0:armhf (1.15-1) ...
Setting up libglvnd0:armhf (1.7.0-1) ...
Setting up libxcb-glx0:armhf (1.15-1) ...
Setting up libbrotli1:armhf (1.1.0-2+b3) ...
Setting up libedit2:armhf (3.1-20230828-1) ...
Setting up libxcb-keysyms1:armhf (0.4.0-1+b2) ...
Setting up libxcb-shape0:armhf (1.15-1) ...
Setting up x11-common (1:7.7+23) ...
invoke-rc.d: could not determine current runlevel
invoke-rc.d: WARNING: No init system and policy-rc.d missing! Defaulting to block.
Setting up libsensors-config (1:3.6.0-8) ...
Setting up libxcb-render-util0:armhf (0.3.9-1+b1) ...
Setting up xkb-data (2.38-2) ...
Setting up libxcb-shm0:armhf (1.15-1) ...
Setting up libxcb-icccm4:armhf (0.4.1-1.1) ...
Setting up libpthread-stubs0-dev:armhf (0.4-1) ...
Setting up libxcb-util1:armhf (0.4.0-1+b1) ...
Setting up libxcb-xkb1:armhf (1.15-1) ...
Setting up libxcb-image0:armhf (0.4.0-2) ...
Setting up libxcb-present0:armhf (1.15-1) ...
Setting up libqt5sql5:armhf (5.15.10+dfsg-6) ...
Setting up xtrans-dev (1.4.0-1) ...
Setting up libqt5xml5:armhf (5.15.10+dfsg-6) ...
Setting up libz3-4:armhf (4.8.12-3.1+b2) ...
Setting up libxcb-xinerama0:armhf (1.15-1) ...
Setting up libgles2:armhf (1.7.0-1) ...
Setting up libjpeg62-turbo:armhf (1:2.1.5-2+b2) ...
Setting up qt5-qmake-bin (5.15.10+dfsg-6) ...
Setting up libx11-data (2:1.8.7-1) ...
Setting up libxcb-sync1:armhf (1.15-1) ...
Setting up libavahi-common-data:armhf (0.8-13+b1) ...
Setting up libgles1:armhf (1.7.0-1) ...
Setting up libdbus-1-3:armhf (1.14.10-4) ...
Setting up fonts-dejavu-mono (2.37-8) ...
Setting up libpng16-16:armhf (1.6.42-1) ...
Setting up fonts-dejavu-core (2.37-8) ...
Setting up libsensors5:armhf (1:3.6.0-8) ...
Setting up libglapi-mesa:armhf (23.3.4-1) ...
Setting up libmtdev1:armhf (1.1.6-1) ...
Setting up libvulkan1:armhf (1.3.275.0-1) ...
Setting up libxcb-dri2-0:armhf (1.15-1) ...
Setting up libxshmfence1:armhf (1.3-1) ...
Setting up libqt5dbus5:armhf (5.15.10+dfsg-6) ...
Setting up libxcb-randr0:armhf (1.15-1) ...
Setting up libmd4c0:armhf (0.4.8-1) ...
Setting up libx11-6:armhf (2:1.8.7-1) ...
Setting up xorg-sgml-doctools (1:1.11-1.1) ...
Setting up libqt5test5:armhf (5.15.10+dfsg-6) ...
Setting up libllvm17:armhf (1:17.0.6-5) ...
Setting up libdrm-common (2.4.120-1) ...
Setting up libevdev2:armhf (1.13.1+dfsg-1) ...
Setting up libqt5concurrent5:armhf (5.15.10+dfsg-6) ...
Setting up libgudev-1.0-0:armhf (238-3) ...
Setting up qtchooser (66-2) ...
Setting up libwacom-common (2.9.0-2) ...
Setting up libxkbcommon0:armhf (1.6.0-1) ...
Setting up libwayland-client0:armhf (1.22.0-2.1) ...
Setting up x11proto-dev (2023.2-1) ...
Setting up libxcb-dri3-0:armhf (1.15-1) ...
Setting up libx11-xcb1:armhf (2:1.8.7-1) ...
Setting up libice6:armhf (2:1.0.10-1) ...
Setting up libvulkan-dev:armhf (1.3.275.0-1) ...
Setting up libxau-dev:armhf (1:1.0.9-1) ...
Setting up qt5-qmake:armhf (5.15.10+dfsg-6) ...
Setting up libxrender1:armhf (1:0.9.10-1.1) ...
Setting up libwacom9:armhf (2.9.0-2) ...
Setting up fontconfig-config (2.14.2-6+b1) ...
Setting up libavahi-common3:armhf (0.8-13+b1) ...
Setting up libxext6:armhf (2:1.3.4-1+b1) ...
Setting up libqt5network5:armhf (5.15.10+dfsg-6) ...
Setting up libxxf86vm1:armhf (1:1.1.4-1+b2) ...
Setting up libinput-bin (1.23.0-2.1) ...
Setting up qtbase5-dev-tools (5.15.10+dfsg-6) ...
Setting up libxdmcp-dev:armhf (1:1.1.2-3) ...
Setting up libfreetype6:armhf (2.13.2+dfsg-1+b1) ...
Setting up libxfixes3:armhf (1:6.0.0-2) ...
Setting up libxkbcommon-x11-0:armhf (1.6.0-1) ...
Setting up libdrm2:armhf (2.4.120-1) ...
Setting up libharfbuzz0b:armhf (8.3.0-2) ...
Setting up libfontconfig1:armhf (2.14.2-6+b1) ...
Setting up libsm6:armhf (2:1.2.3-1) ...
Setting up libavahi-client3:armhf (0.8-13+b1) ...
Setting up libdrm-amdgpu1:armhf (2.4.120-1) ...
Setting up libinput10:armhf (1.23.0-2.1) ...
Setting up fontconfig (2.14.2-6+b1) ...
Regenerating fonts cache... done.
Setting up libdrm-nouveau2:armhf (2.4.120-1) ...
Setting up libxcb1-dev:armhf (1.15-1) ...
Setting up libgbm1:armhf (23.3.4-1) ...
Setting up libdrm-radeon1:armhf (2.4.120-1) ...
Setting up libgl1-mesa-dri:armhf (23.3.4-1) ...
Setting up libx11-dev:armhf (2:1.8.7-1) ...
Setting up libegl-mesa0:armhf (23.3.4-1) ...
Setting up libxext-dev:armhf (2:1.3.4-1+b1) ...
Setting up libcups2:armhf (2.4.7-1+b1) ...
Setting up libegl1:armhf (1.7.0-1) ...
Setting up libglx-mesa0:armhf (23.3.4-1) ...
Setting up libglx0:armhf (1.7.0-1) ...
Setting up libqt5gui5:armhf (5.15.10+dfsg-6) ...
Setting up libqt5widgets5:armhf (5.15.10+dfsg-6) ...
Setting up libqt5printsupport5:armhf (5.15.10+dfsg-6) ...
Setting up libgl1:armhf (1.7.0-1) ...
Setting up libglx-dev:armhf (1.7.0-1) ...
Setting up libgl-dev:armhf (1.7.0-1) ...
Setting up libegl-dev:armhf (1.7.0-1) ...
Setting up libgles-dev:armhf (1.7.0-1) ...
Setting up qtbase5-dev:armhf (5.15.10+dfsg-6) ...
Processing triggers for libc-bin (2.37-13) ...
Reading package lists...
Building dependency tree...
Reading state information...
0 upgraded, 0 newly installed, 0 to remove and 73 not upgraded.
