[2024-02-09T10:18:43+00:00] apt-get install libpg-query-dev libprotobuf-c-dev abi-compliance-checker
Reading package lists...
Building dependency tree...
Reading state information...
abi-compliance-checker is already the newest version (2.3-2).
The following additional packages will be installed:
  libpg-query1605.1 libprotobuf-c1
The following NEW packages will be installed:
  libpg-query-dev libpg-query1605.1 libprotobuf-c-dev libprotobuf-c1
0 upgraded, 4 newly installed, 0 to remove and 104 not upgraded.
Need to get 1861 kB of archives.
After this operation, 9615 kB of additional disk space will be used.
Get:1 http://deb.debian.org/debian unstable/main armhf libpg-query1605.1 armhf 16-5.1.0-2 [527 kB]
Get:2 http://deb.debian.org/debian unstable/main armhf libpg-query-dev armhf 16-5.1.0-2 [1277 kB]
Get:3 http://deb.debian.org/debian unstable/main armhf libprotobuf-c1 armhf 1.4.1-1+b1 [24.6 kB]
Get:4 http://deb.debian.org/debian unstable/main armhf libprotobuf-c-dev armhf 1.4.1-1+b1 [32.6 kB]
debconf: delaying package configuration, since apt-utils is not installed
Fetched 1861 kB in 0s (20.8 MB/s)
Selecting previously unselected package libpg-query1605.1:armhf.
(Reading database ... (Reading database ... 5%(Reading database ... 10%(Reading database ... 15%(Reading database ... 20%(Reading database ... 25%(Reading database ... 30%(Reading database ... 35%(Reading database ... 40%(Reading database ... 45%(Reading database ... 50%(Reading database ... 55%(Reading database ... 60%(Reading database ... 65%(Reading database ... 70%(Reading database ... 75%(Reading database ... 80%(Reading database ... 85%(Reading database ... 90%(Reading database ... 95%(Reading database ... 100%(Reading database ... 12127 files and directories currently installed.)
Preparing to unpack .../libpg-query1605.1_16-5.1.0-2_armhf.deb ...
Unpacking libpg-query1605.1:armhf (16-5.1.0-2) ...
Selecting previously unselected package libpg-query-dev:armhf.
Preparing to unpack .../libpg-query-dev_16-5.1.0-2_armhf.deb ...
Unpacking libpg-query-dev:armhf (16-5.1.0-2) ...
Selecting previously unselected package libprotobuf-c1:armhf.
Preparing to unpack .../libprotobuf-c1_1.4.1-1+b1_armhf.deb ...
Unpacking libprotobuf-c1:armhf (1.4.1-1+b1) ...
Selecting previously unselected package libprotobuf-c-dev:armhf.
Preparing to unpack .../libprotobuf-c-dev_1.4.1-1+b1_armhf.deb ...
Unpacking libprotobuf-c-dev:armhf (1.4.1-1+b1) ...
Setting up libpg-query1605.1:armhf (16-5.1.0-2) ...
Setting up libprotobuf-c1:armhf (1.4.1-1+b1) ...
Setting up libprotobuf-c-dev:armhf (1.4.1-1+b1) ...
Setting up libpg-query-dev:armhf (16-5.1.0-2) ...
Processing triggers for libc-bin (2.37-13) ...
Reading package lists...
Building dependency tree...
Reading state information...
0 upgraded, 0 newly installed, 0 to remove and 104 not upgraded.
