[2024-01-08T02:51:26+00:00] apt-get install libpillowfight-dev libpython3-dev abi-compliance-checker
Reading package lists...
Building dependency tree...
Reading state information...
abi-compliance-checker is already the newest version (2.3-2).
The following packages were automatically installed and are no longer required:
  libpigpiod-if-dev libpigpiod-if1 libpigpiod-if2-1
Use 'apt autoremove' to remove them.
The following additional packages will be installed:
  libexpat1-dev libpillowfight0 libpython3.11 libpython3.11-dev zlib1g-dev
The following NEW packages will be installed:
  libexpat1-dev libpillowfight-dev libpillowfight0 libpython3-dev
  libpython3.11 libpython3.11-dev zlib1g-dev
0 upgraded, 7 newly installed, 0 to remove and 27 not upgraded.
Need to get 6205 kB of archives.
After this operation, 22.7 MB of additional disk space will be used.
Get:1 http://deb.debian.org/debian unstable/main armhf libexpat1-dev armhf 2.5.0-2+b2 [134 kB]
Get:2 http://deb.debian.org/debian unstable/main armhf libpillowfight0 armhf 0.3.0-5+b3 [18.2 kB]
Get:3 http://deb.debian.org/debian unstable/main armhf libpillowfight-dev armhf 0.3.0-5+b3 [6788 B]
Get:4 http://deb.debian.org/debian unstable/main armhf libpython3.11 armhf 3.11.7-2 [1710 kB]
Get:5 http://deb.debian.org/debian unstable/main armhf zlib1g-dev armhf 1:1.3.dfsg-3 [904 kB]
Get:6 http://deb.debian.org/debian unstable/main armhf libpython3.11-dev armhf 3.11.7-2 [3423 kB]
Get:7 http://deb.debian.org/debian unstable/main armhf libpython3-dev armhf 3.11.6-1 [9456 B]
debconf: delaying package configuration, since apt-utils is not installed
Fetched 6205 kB in 0s (14.0 MB/s)
Selecting previously unselected package libexpat1-dev:armhf.
(Reading database ... (Reading database ... 5%(Reading database ... 10%(Reading database ... 15%(Reading database ... 20%(Reading database ... 25%(Reading database ... 30%(Reading database ... 35%(Reading database ... 40%(Reading database ... 45%(Reading database ... 50%(Reading database ... 55%(Reading database ... 60%(Reading database ... 65%(Reading database ... 70%(Reading database ... 75%(Reading database ... 80%(Reading database ... 85%(Reading database ... 90%(Reading database ... 95%(Reading database ... 100%(Reading database ... 16361 files and directories currently installed.)
Preparing to unpack .../0-libexpat1-dev_2.5.0-2+b2_armhf.deb ...
Unpacking libexpat1-dev:armhf (2.5.0-2+b2) ...
Selecting previously unselected package libpillowfight0:armhf.
Preparing to unpack .../1-libpillowfight0_0.3.0-5+b3_armhf.deb ...
Unpacking libpillowfight0:armhf (0.3.0-5+b3) ...
Selecting previously unselected package libpillowfight-dev:armhf.
Preparing to unpack .../2-libpillowfight-dev_0.3.0-5+b3_armhf.deb ...
Unpacking libpillowfight-dev:armhf (0.3.0-5+b3) ...
Selecting previously unselected package libpython3.11:armhf.
Preparing to unpack .../3-libpython3.11_3.11.7-2_armhf.deb ...
Unpacking libpython3.11:armhf (3.11.7-2) ...
Selecting previously unselected package zlib1g-dev:armhf.
Preparing to unpack .../4-zlib1g-dev_1%3a1.3.dfsg-3_armhf.deb ...
Unpacking zlib1g-dev:armhf (1:1.3.dfsg-3) ...
Selecting previously unselected package libpython3.11-dev:armhf.
Preparing to unpack .../5-libpython3.11-dev_3.11.7-2_armhf.deb ...
Unpacking libpython3.11-dev:armhf (3.11.7-2) ...
Selecting previously unselected package libpython3-dev:armhf.
Preparing to unpack .../6-libpython3-dev_3.11.6-1_armhf.deb ...
Unpacking libpython3-dev:armhf (3.11.6-1) ...
Setting up libpython3.11:armhf (3.11.7-2) ...
Setting up libexpat1-dev:armhf (2.5.0-2+b2) ...
Setting up zlib1g-dev:armhf (1:1.3.dfsg-3) ...
Setting up libpillowfight0:armhf (0.3.0-5+b3) ...
Setting up libpillowfight-dev:armhf (0.3.0-5+b3) ...
Setting up libpython3.11-dev:armhf (3.11.7-2) ...
Setting up libpython3-dev:armhf (3.11.6-1) ...
Processing triggers for libc-bin (2.37-13) ...
Reading package lists...
Building dependency tree...
Reading state information...
The following packages will be REMOVED:
  libpigpiod-if-dev* libpigpiod-if1* libpigpiod-if2-1*
0 upgraded, 0 newly installed, 3 to remove and 27 not upgraded.
After this operation, 394 kB disk space will be freed.
(Reading database ... (Reading database ... 5%(Reading database ... 10%(Reading database ... 15%(Reading database ... 20%(Reading database ... 25%(Reading database ... 30%(Reading database ... 35%(Reading database ... 40%(Reading database ... 45%(Reading database ... 50%(Reading database ... 55%(Reading database ... 60%(Reading database ... 65%(Reading database ... 70%(Reading database ... 75%(Reading database ... 80%(Reading database ... 85%(Reading database ... 90%(Reading database ... 95%(Reading database ... 100%(Reading database ... 16673 files and directories currently installed.)
Removing libpigpiod-if-dev (1.78-1) ...
Removing libpigpiod-if1 (1.78-1) ...
Removing libpigpiod-if2-1 (1.78-1) ...
Processing triggers for libc-bin (2.37-13) ...
