[2024-01-07T09:26:16+00:00] apt-get install libgedit-gtksourceview-dev abi-compliance-checker
Reading package lists...
Building dependency tree...
Reading state information...
abi-compliance-checker is already the newest version (2.3-2).
The following packages were automatically installed and are no longer required:
  gir1.2-amtk-5 libgedit-amtk-5-0 libgedit-amtk-5-common libgedit-amtk-dev
Use 'apt autoremove' to remove them.
The following additional packages will be installed:
  gir1.2-gtksource-300 libgedit-gtksourceview-300-0
  libgedit-gtksourceview-300-common libxml2-dev
Suggested packages:
  libgedit-gtksourceview-300-doc
The following NEW packages will be installed:
  gir1.2-gtksource-300 libgedit-gtksourceview-300-0
  libgedit-gtksourceview-300-common libgedit-gtksourceview-dev libxml2-dev
0 upgraded, 5 newly installed, 0 to remove and 40 not upgraded.
Need to get 1268 kB of archives.
After this operation, 6226 kB of additional disk space will be used.
Get:1 http://deb.debian.org/debian unstable/main armhf libgedit-gtksourceview-300-common all 299.0.4-3 [265 kB]
Get:2 http://deb.debian.org/debian unstable/main armhf libgedit-gtksourceview-300-0 armhf 299.0.4-3 [180 kB]
Get:3 http://deb.debian.org/debian unstable/main armhf gir1.2-gtksource-300 armhf 299.0.4-3 [20.1 kB]
Get:4 http://deb.debian.org/debian unstable/main armhf libxml2-dev armhf 2.9.14+dfsg-1.3+b2 [717 kB]
Get:5 http://deb.debian.org/debian unstable/main armhf libgedit-gtksourceview-dev armhf 299.0.4-3 [85.7 kB]
debconf: delaying package configuration, since apt-utils is not installed
Fetched 1268 kB in 0s (11.4 MB/s)
Selecting previously unselected package libgedit-gtksourceview-300-common.
(Reading database ... (Reading database ... 5%(Reading database ... 10%(Reading database ... 15%(Reading database ... 20%(Reading database ... 25%(Reading database ... 30%(Reading database ... 35%(Reading database ... 40%(Reading database ... 45%(Reading database ... 50%(Reading database ... 55%(Reading database ... 60%(Reading database ... 65%(Reading database ... 70%(Reading database ... 75%(Reading database ... 80%(Reading database ... 85%(Reading database ... 90%(Reading database ... 95%(Reading database ... 100%(Reading database ... 22462 files and directories currently installed.)
Preparing to unpack .../libgedit-gtksourceview-300-common_299.0.4-3_all.deb ...
Unpacking libgedit-gtksourceview-300-common (299.0.4-3) ...
Selecting previously unselected package libgedit-gtksourceview-300-0:armhf.
Preparing to unpack .../libgedit-gtksourceview-300-0_299.0.4-3_armhf.deb ...
Unpacking libgedit-gtksourceview-300-0:armhf (299.0.4-3) ...
Selecting previously unselected package gir1.2-gtksource-300:armhf.
Preparing to unpack .../gir1.2-gtksource-300_299.0.4-3_armhf.deb ...
Unpacking gir1.2-gtksource-300:armhf (299.0.4-3) ...
Selecting previously unselected package libxml2-dev:armhf.
Preparing to unpack .../libxml2-dev_2.9.14+dfsg-1.3+b2_armhf.deb ...
Unpacking libxml2-dev:armhf (2.9.14+dfsg-1.3+b2) ...
Selecting previously unselected package libgedit-gtksourceview-dev:armhf.
Preparing to unpack .../libgedit-gtksourceview-dev_299.0.4-3_armhf.deb ...
Unpacking libgedit-gtksourceview-dev:armhf (299.0.4-3) ...
Setting up libxml2-dev:armhf (2.9.14+dfsg-1.3+b2) ...
Setting up libgedit-gtksourceview-300-common (299.0.4-3) ...
Setting up libgedit-gtksourceview-300-0:armhf (299.0.4-3) ...
Setting up gir1.2-gtksource-300:armhf (299.0.4-3) ...
Setting up libgedit-gtksourceview-dev:armhf (299.0.4-3) ...
Processing triggers for libc-bin (2.37-13) ...
Reading package lists...
Building dependency tree...
Reading state information...
The following packages will be REMOVED:
  gir1.2-amtk-5* libgedit-amtk-5-0* libgedit-amtk-5-common* libgedit-amtk-dev*
0 upgraded, 0 newly installed, 4 to remove and 40 not upgraded.
After this operation, 810 kB disk space will be freed.
(Reading database ... (Reading database ... 5%(Reading database ... 10%(Reading database ... 15%(Reading database ... 20%(Reading database ... 25%(Reading database ... 30%(Reading database ... 35%(Reading database ... 40%(Reading database ... 45%(Reading database ... 50%(Reading database ... 55%(Reading database ... 60%(Reading database ... 65%(Reading database ... 70%(Reading database ... 75%(Reading database ... 80%(Reading database ... 85%(Reading database ... 90%(Reading database ... 95%(Reading database ... 100%(Reading database ... 22813 files and directories currently installed.)
Removing libgedit-amtk-dev:armhf (5.8.0-4) ...
Removing gir1.2-amtk-5:armhf (5.8.0-4) ...
Removing libgedit-amtk-5-0:armhf (5.8.0-4) ...
Removing libgedit-amtk-5-common (5.8.0-4) ...
Processing triggers for libc-bin (2.37-13) ...
