[2024-01-08T11:06:27+00:00] apt-get install libtirpc-dev libkrb5-dev abi-compliance-checker
Reading package lists...
Building dependency tree...
Reading state information...
libtirpc-dev is already the newest version (1.3.4+ds-1).
libtirpc-dev set to manually installed.
abi-compliance-checker is already the newest version (2.3-2).
The following packages were automatically installed and are no longer required:
  libtinyxml2-10 libtinyxml2-dev
Use 'apt autoremove' to remove them.
The following additional packages will be installed:
  comerr-dev krb5-multidev libgssrpc4 libkadm5clnt-mit12 libkadm5srv-mit12
  libkdb5-10
Suggested packages:
  doc-base krb5-doc krb5-user
The following NEW packages will be installed:
  comerr-dev krb5-multidev libgssrpc4 libkadm5clnt-mit12 libkadm5srv-mit12
  libkdb5-10 libkrb5-dev
0 upgraded, 7 newly installed, 0 to remove and 18 not upgraded.
Need to get 360 kB of archives.
After this operation, 1726 kB of additional disk space will be used.
Get:1 http://deb.debian.org/debian unstable/main armhf comerr-dev armhf 2.1-1.47.0-2+b1 [51.2 kB]
Get:2 http://deb.debian.org/debian unstable/main armhf libgssrpc4 armhf 1.20.1-5 [50.8 kB]
Get:3 http://deb.debian.org/debian unstable/main armhf libkadm5clnt-mit12 armhf 1.20.1-5 [36.2 kB]
Get:4 http://deb.debian.org/debian unstable/main armhf libkdb5-10 armhf 1.20.1-5 [35.9 kB]
Get:5 http://deb.debian.org/debian unstable/main armhf libkadm5srv-mit12 armhf 1.20.1-5 [46.1 kB]
Get:6 http://deb.debian.org/debian unstable/main armhf krb5-multidev armhf 1.20.1-5 [125 kB]
Get:7 http://deb.debian.org/debian unstable/main armhf libkrb5-dev armhf 1.20.1-5 [15.0 kB]
debconf: delaying package configuration, since apt-utils is not installed
Fetched 360 kB in 0s (2764 kB/s)
Selecting previously unselected package comerr-dev:armhf.
(Reading database ... (Reading database ... 5%(Reading database ... 10%(Reading database ... 15%(Reading database ... 20%(Reading database ... 25%(Reading database ... 30%(Reading database ... 35%(Reading database ... 40%(Reading database ... 45%(Reading database ... 50%(Reading database ... 55%(Reading database ... 60%(Reading database ... 65%(Reading database ... 70%(Reading database ... 75%(Reading database ... 80%(Reading database ... 85%(Reading database ... 90%(Reading database ... 95%(Reading database ... 100%(Reading database ... 17058 files and directories currently installed.)
Preparing to unpack .../0-comerr-dev_2.1-1.47.0-2+b1_armhf.deb ...
Unpacking comerr-dev:armhf (2.1-1.47.0-2+b1) ...
Selecting previously unselected package libgssrpc4:armhf.
Preparing to unpack .../1-libgssrpc4_1.20.1-5_armhf.deb ...
Unpacking libgssrpc4:armhf (1.20.1-5) ...
Selecting previously unselected package libkadm5clnt-mit12:armhf.
Preparing to unpack .../2-libkadm5clnt-mit12_1.20.1-5_armhf.deb ...
Unpacking libkadm5clnt-mit12:armhf (1.20.1-5) ...
Selecting previously unselected package libkdb5-10:armhf.
Preparing to unpack .../3-libkdb5-10_1.20.1-5_armhf.deb ...
Unpacking libkdb5-10:armhf (1.20.1-5) ...
Selecting previously unselected package libkadm5srv-mit12:armhf.
Preparing to unpack .../4-libkadm5srv-mit12_1.20.1-5_armhf.deb ...
Unpacking libkadm5srv-mit12:armhf (1.20.1-5) ...
Selecting previously unselected package krb5-multidev:armhf.
Preparing to unpack .../5-krb5-multidev_1.20.1-5_armhf.deb ...
Unpacking krb5-multidev:armhf (1.20.1-5) ...
Selecting previously unselected package libkrb5-dev:armhf.
Preparing to unpack .../6-libkrb5-dev_1.20.1-5_armhf.deb ...
Unpacking libkrb5-dev:armhf (1.20.1-5) ...
Setting up libgssrpc4:armhf (1.20.1-5) ...
Setting up comerr-dev:armhf (2.1-1.47.0-2+b1) ...
Setting up libkadm5clnt-mit12:armhf (1.20.1-5) ...
Setting up libkdb5-10:armhf (1.20.1-5) ...
Setting up libkadm5srv-mit12:armhf (1.20.1-5) ...
Setting up krb5-multidev:armhf (1.20.1-5) ...
Setting up libkrb5-dev:armhf (1.20.1-5) ...
Processing triggers for libc-bin (2.37-13) ...
Processing triggers for install-info (7.1-2) ...
Reading package lists...
Building dependency tree...
Reading state information...
The following packages will be REMOVED:
  libtinyxml2-10* libtinyxml2-dev*
0 upgraded, 0 newly installed, 2 to remove and 18 not upgraded.
After this operation, 193 kB disk space will be freed.
(Reading database ... (Reading database ... 5%(Reading database ... 10%(Reading database ... 15%(Reading database ... 20%(Reading database ... 25%(Reading database ... 30%(Reading database ... 35%(Reading database ... 40%(Reading database ... 45%(Reading database ... 50%(Reading database ... 55%(Reading database ... 60%(Reading database ... 65%(Reading database ... 70%(Reading database ... 75%(Reading database ... 80%(Reading database ... 85%(Reading database ... 90%(Reading database ... 95%(Reading database ... 100%(Reading database ... 17244 files and directories currently installed.)
Removing libtinyxml2-dev:armhf (10.0.0+dfsg-2+b1) ...
Removing libtinyxml2-10:armhf (10.0.0+dfsg-2+b1) ...
Processing triggers for libc-bin (2.37-13) ...
