Using GCC 13 (arm-linux-gnueabihf, target: arm)
WARNING: May not work properly with GCC 4.8.[0-2], 6.* and higher due to bug #78040 in GCC. Please try other GCC versions with the help of --gcc-path=PATH option or create ABI dumps by ABI Dumper tool instead to avoid using GCC. Test selected GCC version first by -test option.
Checking header(s) base ...
Temporary header file '/tmp/iR4er1haMf/dump1.h' with the following content will be compiled to create GCC translation unit dump:

  // add defines
  #define __STDC_VERSION__ 201710L
#define _GXX_NULLPTR_T
#define CLUTTER_ENABLE_COMPOSITOR_API 1
#define _REGEX_NELTS(n)
#define _Atomic
#define PACKED
#ifdef __cplusplus
// C17 compat layer
#define _Alignof(type) alignof(type)
#endif
#define getaddrinfo_a(a,b,c,d)

  // add includes
  #include "/usr/include/libGkArrays-2.1.0/binvect.hxx"
  #include "/usr/include/libGkArrays-2.1.0/bitvector.hxx"
  #include "/usr/include/libGkArrays-2.1.0/config.h"
  #include "/usr/include/libGkArrays-2.1.0/gkArrays.h"
  #include "/usr/include/libGkArrays-2.1.0/gkArraysBuilder.h"
  #include "/usr/include/libGkArrays-2.1.0/gkArraysTypes.h"
  #include "/usr/include/libGkArrays-2.1.0/gkCFPSBuilder.h"
  #include "/usr/include/libGkArrays-2.1.0/gkIFABuilder.h"
  #include "/usr/include/libGkArrays-2.1.0/gkSABuilder.h"
  #include "/usr/include/libGkArrays-2.1.0/kseq/kseq.h"
  #include "/usr/include/libGkArrays-2.1.0/largebinvect.hxx"
  #include "/usr/include/libGkArrays-2.1.0/readsReader.h"
  #include "/usr/include/libGkArrays-2.1.0/solArray.h"
  #include "/usr/include/libGkArrays-2.1.0/sux/macros.h"
  #include "/usr/include/libGkArrays-2.1.0/sux/popcount.h"
  #include "/usr/include/libGkArrays-2.1.0/sux/rank9b.h"
  #include "/usr/include/libProgressBar-1.2.0/config.h"
  #include "/usr/include/libProgressBar-1.2.0/progressBar.h"

  // add namespaces
  namespace gkarrays{typedef int tmp_add_type_1;}
  gkarrays::tmp_add_type_1 tmp_add_func_1(){return 0;};

The GCC parameters:
  gcc -fdump-lang-raw -fkeep-inline-functions -c -x c++ -fpermissive -w "/tmp/iR4er1haMf/dump1.h"  -I/usr/include/libProgressBar-1.2.0 -I/usr/include/libGkArrays-2.1.0

In file included from /tmp/iR4er1haMf/dump1.h:22:
/usr/include/libGkArrays-2.1.0/gkCFPSBuilder.h:106:10: fatal error: basic.h: No such file or directory
  106 | #include "basic.h"
      |          ^~~~~~~~~
compilation terminated.
ERROR: some errors occurred when compiling headers
ERROR: see log for details:
  /home/adrien/armhf-time_t/out/logs/libgkarrays-dev/base/abi-compliance-checker.log


ERROR: can't compile header(s)
