Temporary header file '/tmp/AWYYY0LTCL/dump1.h' with the following content will be compiled to create GCC translation unit dump:

  // add defines
  #define __STDC_VERSION__ 201710L
#define _TIME_BITS 64
#define _FILE_OFFSET_BITS 64
#define _GXX_NULLPTR_T
#define CLUTTER_ENABLE_COMPOSITOR_API 1
#define _REGEX_NELTS(n)
#define _Atomic
#define PACKED
#ifdef __cplusplus
// C17 compat layer
#define _Alignof(type) alignof(type)
#endif
#define getaddrinfo_a(a,b,c,d)

  // add includes
  #include "/usr/include/arm-linux-gnueabihf/visp/visp_modules.h"
  #include "/usr/include/arm-linux-gnueabihf/visp/vp1394CMUGrabber.h"
  #include "/usr/include/arm-linux-gnueabihf/visp/vp1394TwoGrabber.h"
  #include "/usr/include/arm-linux-gnueabihf/visp/vpAR.h"
  #include "/usr/include/arm-linux-gnueabihf/visp/vpAROgre.h"
  #include "/usr/include/arm-linux-gnueabihf/visp/vpAdaptiveGain.h"
  #include "/usr/include/arm-linux-gnueabihf/visp/vpAfma4.h"
  #include "/usr/include/arm-linux-gnueabihf/visp/vpAfma6.h"
  #include "/usr/include/arm-linux-gnueabihf/visp/vpArray2D.h"
  #include "/usr/include/arm-linux-gnueabihf/visp/vpBSpline.h"
  #include "/usr/include/arm-linux-gnueabihf/visp/vpBasicFeature.h"
  #include "/usr/include/arm-linux-gnueabihf/visp/vpBasicKeyPoint.h"
  #include "/usr/include/arm-linux-gnueabihf/visp/vpBiclops.h"
  #include "/usr/include/arm-linux-gnueabihf/visp/vpCPUFeatures.h"
  #include "/usr/include/arm-linux-gnueabihf/visp/vpCalibration.h"
  #include "/usr/include/arm-linux-gnueabihf/visp/vpCalibrationException.h"
  #include "/usr/include/arm-linux-gnueabihf/visp/vpCameraParameters.h"
  #include "/usr/include/arm-linux-gnueabihf/visp/vpCannyEdgeDetection.h"
  #include "/usr/include/arm-linux-gnueabihf/visp/vpCircle.h"
  #include "/usr/include/arm-linux-gnueabihf/visp/vpCircleHoughTransform.h"
  #include "/usr/include/arm-linux-gnueabihf/visp/vpClient.h"
  #include "/usr/include/arm-linux-gnueabihf/visp/vpColVector.h"
  #include "/usr/include/arm-linux-gnueabihf/visp/vpColor.h"
  #include "/usr/include/arm-linux-gnueabihf/visp/vpColorBlindFriendlyPalette.h"
  #include "/usr/include/arm-linux-gnueabihf/visp/vpColorDepthConversion.h"
  #include "/usr/include/arm-linux-gnueabihf/visp/vpColormap.h"
  #include "/usr/include/arm-linux-gnueabihf/visp/vpComedi.h"
  #include "/usr/include/arm-linux-gnueabihf/visp/vpConfig.h"
  #include "/usr/include/arm-linux-gnueabihf/visp/vpContours.h"
  #include "/usr/include/arm-linux-gnueabihf/visp/vpConvert.h"
  #include "/usr/include/arm-linux-gnueabihf/visp/vpCylinder.h"
  #include "/usr/include/arm-linux-gnueabihf/visp/vpD3DRenderer.h"
  #include "/usr/include/arm-linux-gnueabihf/visp/vpDebug.h"
  #include "/usr/include/arm-linux-gnueabihf/visp/vpDetectorAprilTag.h"
  #include "/usr/include/arm-linux-gnueabihf/visp/vpDetectorBase.h"
  #include "/usr/include/arm-linux-gnueabihf/visp/vpDetectorDNNOpenCV.h"
  #include "/usr/include/arm-linux-gnueabihf/visp/vpDetectorDataMatrixCode.h"
  #include "/usr/include/arm-linux-gnueabihf/visp/vpDetectorFace.h"
  #include "/usr/include/arm-linux-gnueabihf/visp/vpDetectorQRCode.h"
  #include "/usr/include/arm-linux-gnueabihf/visp/vpDirectShowDevice.h"
  #include "/usr/include/arm-linux-gnueabihf/visp/vpDirectShowGrabber.h"
  #include "/usr/include/arm-linux-gnueabihf/visp/vpDirectShowGrabberImpl.h"
  #include "/usr/include/arm-linux-gnueabihf/visp/vpDirectShowSampleGrabberI.h"
  #include "/usr/include/arm-linux-gnueabihf/visp/vpDiskGrabber.h"
  #include "/usr/include/arm-linux-gnueabihf/visp/vpDisplay.h"
  #include "/usr/include/arm-linux-gnueabihf/visp/vpDisplayD3D.h"
  #include "/usr/include/arm-linux-gnueabihf/visp/vpDisplayException.h"
  #include "/usr/include/arm-linux-gnueabihf/visp/vpDisplayGDI.h"
  #include "/usr/include/arm-linux-gnueabihf/visp/vpDisplayGTK.h"
  #include "/usr/include/arm-linux-gnueabihf/visp/vpDisplayOpenCV.h"
  #include "/usr/include/arm-linux-gnueabihf/visp/vpDisplayWin32.h"
  #include "/usr/include/arm-linux-gnueabihf/visp/vpDisplayX.h"
  #include "/usr/include/arm-linux-gnueabihf/visp/vpDot.h"
  #include "/usr/include/arm-linux-gnueabihf/visp/vpDot2.h"
  #include "/usr/include/arm-linux-gnueabihf/visp/vpEigenConversion.h"
  #include "/usr/include/arm-linux-gnueabihf/visp/vpEndian.h"
  #include "/usr/include/arm-linux-gnueabihf/visp/vpException.h"
  #include "/usr/include/arm-linux-gnueabihf/visp/vpExponentialMap.h"
  #include "/usr/include/arm-linux-gnueabihf/visp/vpFeatureBuilder.h"
  #include "/usr/include/arm-linux-gnueabihf/visp/vpFeatureDepth.h"
  #include "/usr/include/arm-linux-gnueabihf/visp/vpFeatureDisplay.h"
  #include "/usr/include/arm-linux-gnueabihf/visp/vpFeatureEllipse.h"
  #include "/usr/include/arm-linux-gnueabihf/visp/vpFeatureException.h"
  #include "/usr/include/arm-linux-gnueabihf/visp/vpFeatureLine.h"
  #include "/usr/include/arm-linux-gnueabihf/visp/vpFeatureLuminance.h"
  #include "/usr/include/arm-linux-gnueabihf/visp/vpFeatureMoment.h"
  #include "/usr/include/arm-linux-gnueabihf/visp/vpFeatureMomentAlpha.h"
  #include "/usr/include/arm-linux-gnueabihf/visp/vpFeatureMomentArea.h"
  #include "/usr/include/arm-linux-gnueabihf/visp/vpFeatureMomentAreaNormalized.h"
  #include "/usr/include/arm-linux-gnueabihf/visp/vpFeatureMomentBasic.h"
  #include "/usr/include/arm-linux-gnueabihf/visp/vpFeatureMomentCInvariant.h"
  #include "/usr/include/arm-linux-gnueabihf/visp/vpFeatureMomentCentered.h"
  #include "/usr/include/arm-linux-gnueabihf/visp/vpFeatureMomentCommon.h"
  #include "/usr/include/arm-linux-gnueabihf/visp/vpFeatureMomentDatabase.h"
  #include "/usr/include/arm-linux-gnueabihf/visp/vpFeatureMomentGravityCenter.h"
  #include "/usr/include/arm-linux-gnueabihf/visp/vpFeatureMomentGravityCenterNormalized.h"
  #include "/usr/include/arm-linux-gnueabihf/visp/vpFeaturePoint.h"
  #include "/usr/include/arm-linux-gnueabihf/visp/vpFeaturePoint3D.h"
  #include "/usr/include/arm-linux-gnueabihf/visp/vpFeaturePointPolar.h"
  #include "/usr/include/arm-linux-gnueabihf/visp/vpFeatureSegment.h"
  #include "/usr/include/arm-linux-gnueabihf/visp/vpFeatureThetaU.h"
  #include "/usr/include/arm-linux-gnueabihf/visp/vpFeatureTranslation.h"
  #include "/usr/include/arm-linux-gnueabihf/visp/vpFeatureVanishingPoint.h"
  #include "/usr/include/arm-linux-gnueabihf/visp/vpFernClassifier.h"
  #include "/usr/include/arm-linux-gnueabihf/visp/vpFlyCaptureGrabber.h"
  #include "/usr/include/arm-linux-gnueabihf/visp/vpFont.h"
  #include "/usr/include/arm-linux-gnueabihf/visp/vpForceTorqueAtiNetFTSensor.h"
  #include "/usr/include/arm-linux-gnueabihf/visp/vpForceTorqueAtiSensor.h"
  #include "/usr/include/arm-linux-gnueabihf/visp/vpForceTorqueIitSensor.h"
  #include "/usr/include/arm-linux-gnueabihf/visp/vpForceTwistMatrix.h"
  #include "/usr/include/arm-linux-gnueabihf/visp/vpForwardProjection.h"
  #include "/usr/include/arm-linux-gnueabihf/visp/vpFrameGrabber.h"
  #include "/usr/include/arm-linux-gnueabihf/visp/vpFrameGrabberException.h"
  #include "/usr/include/arm-linux-gnueabihf/visp/vpGDIRenderer.h"
  #include "/usr/include/arm-linux-gnueabihf/visp/vpGEMM.h"
  #include "/usr/include/arm-linux-gnueabihf/visp/vpGaussRand.h"
  #include "/usr/include/arm-linux-gnueabihf/visp/vpGaussianFilter.h"
  #include "/usr/include/arm-linux-gnueabihf/visp/vpGenericFeature.h"
  #include "/usr/include/arm-linux-gnueabihf/visp/vpHandEyeCalibration.h"
  #include "/usr/include/arm-linux-gnueabihf/visp/vpHinkley.h"
  #include "/usr/include/arm-linux-gnueabihf/visp/vpHistogram.h"
  #include "/usr/include/arm-linux-gnueabihf/visp/vpHistogramPeak.h"
  #include "/usr/include/arm-linux-gnueabihf/visp/vpHistogramValey.h"
  #include "/usr/include/arm-linux-gnueabihf/visp/vpHomogeneousMatrix.h"
  #include "/usr/include/arm-linux-gnueabihf/visp/vpHomography.h"
  #include "/usr/include/arm-linux-gnueabihf/visp/vpImage.h"
  #include "/usr/include/arm-linux-gnueabihf/visp/vpImageCircle.h"
  #include "/usr/include/arm-linux-gnueabihf/visp/vpImageConvert.h"
  #include "/usr/include/arm-linux-gnueabihf/visp/vpImageDraw.h"
  #include "/usr/include/arm-linux-gnueabihf/visp/vpImageException.h"
  #include "/usr/include/arm-linux-gnueabihf/visp/vpImageFilter.h"
  #include "/usr/include/arm-linux-gnueabihf/visp/vpImageIo.h"
  #include "/usr/include/arm-linux-gnueabihf/visp/vpImageMorphology.h"
  #include "/usr/include/arm-linux-gnueabihf/visp/vpImagePoint.h"
  #include "/usr/include/arm-linux-gnueabihf/visp/vpImageQueue.h"
  #include "/usr/include/arm-linux-gnueabihf/visp/vpImageSimulator.h"
  #include "/usr/include/arm-linux-gnueabihf/visp/vpImageStorageWorker.h"
  #include "/usr/include/arm-linux-gnueabihf/visp/vpImageTools.h"
  #include "/usr/include/arm-linux-gnueabihf/visp/vpImgproc.h"
  #include "/usr/include/arm-linux-gnueabihf/visp/vpIoException.h"
  #include "/usr/include/arm-linux-gnueabihf/visp/vpIoTools.h"
  #include "/usr/include/arm-linux-gnueabihf/visp/vpJsonArgumentParser.h"
  #include "/usr/include/arm-linux-gnueabihf/visp/vpJsonParsing.h"
  #include "/usr/include/arm-linux-gnueabihf/visp/vpKalmanFilter.h"
  #include "/usr/include/arm-linux-gnueabihf/visp/vpKeyPoint.h"
  #include "/usr/include/arm-linux-gnueabihf/visp/vpKeyboard.h"
  #include "/usr/include/arm-linux-gnueabihf/visp/vpKinect.h"
  #include "/usr/include/arm-linux-gnueabihf/visp/vpKltOpencv.h"
  #include "/usr/include/arm-linux-gnueabihf/visp/vpLaserScan.h"
  #include "/usr/include/arm-linux-gnueabihf/visp/vpLaserScanner.h"
  #include "/usr/include/arm-linux-gnueabihf/visp/vpLevenbergMarquartd.h"
  #include "/usr/include/arm-linux-gnueabihf/visp/vpLinProg.h"
  #include "/usr/include/arm-linux-gnueabihf/visp/vpLine.h"
  #include "/usr/include/arm-linux-gnueabihf/visp/vpLinearKalmanFilterInstantiation.h"
  #include "/usr/include/arm-linux-gnueabihf/visp/vpList.h"
  #include "/usr/include/arm-linux-gnueabihf/visp/vpMath.h"
  #include "/usr/include/arm-linux-gnueabihf/visp/vpMatrix.h"
  #include "/usr/include/arm-linux-gnueabihf/visp/vpMatrixException.h"
  #include "/usr/include/arm-linux-gnueabihf/visp/vpMbDepthDenseTracker.h"
  #include "/usr/include/arm-linux-gnueabihf/visp/vpMbDepthNormalTracker.h"
  #include "/usr/include/arm-linux-gnueabihf/visp/vpMbEdgeKltTracker.h"
  #include "/usr/include/arm-linux-gnueabihf/visp/vpMbEdgeTracker.h"
  #include "/usr/include/arm-linux-gnueabihf/visp/vpMbGenericTracker.h"
  #include "/usr/include/arm-linux-gnueabihf/visp/vpMbHiddenFaces.h"
  #include "/usr/include/arm-linux-gnueabihf/visp/vpMbKltTracker.h"
  #include "/usr/include/arm-linux-gnueabihf/visp/vpMbScanLine.h"
  #include "/usr/include/arm-linux-gnueabihf/visp/vpMbTracker.h"
  #include "/usr/include/arm-linux-gnueabihf/visp/vpMbtDistanceCircle.h"
  #include "/usr/include/arm-linux-gnueabihf/visp/vpMbtDistanceCylinder.h"
  #include "/usr/include/arm-linux-gnueabihf/visp/vpMbtDistanceKltCylinder.h"
  #include "/usr/include/arm-linux-gnueabihf/visp/vpMbtDistanceKltPoints.h"
  #include "/usr/include/arm-linux-gnueabihf/visp/vpMbtDistanceLine.h"
  #include "/usr/include/arm-linux-gnueabihf/visp/vpMbtFaceDepthDense.h"
  #include "/usr/include/arm-linux-gnueabihf/visp/vpMbtFaceDepthNormal.h"
  #include "/usr/include/arm-linux-gnueabihf/visp/vpMbtMeEllipse.h"
  #include "/usr/include/arm-linux-gnueabihf/visp/vpMbtMeLine.h"
  #include "/usr/include/arm-linux-gnueabihf/visp/vpMbtPolygon.h"
  #include "/usr/include/arm-linux-gnueabihf/visp/vpMbtTukeyEstimator.h"
  #include "/usr/include/arm-linux-gnueabihf/visp/vpMbtXmlGenericParser.h"
  #include "/usr/include/arm-linux-gnueabihf/visp/vpMe.h"
  #include "/usr/include/arm-linux-gnueabihf/visp/vpMeEllipse.h"
  #include "/usr/include/arm-linux-gnueabihf/visp/vpMeLine.h"
  #include "/usr/include/arm-linux-gnueabihf/visp/vpMeNurbs.h"
  #include "/usr/include/arm-linux-gnueabihf/visp/vpMeSite.h"
  #include "/usr/include/arm-linux-gnueabihf/visp/vpMeTracker.h"
  #include "/usr/include/arm-linux-gnueabihf/visp/vpMegaPose.h"
  #include "/usr/include/arm-linux-gnueabihf/visp/vpMegaPoseTracker.h"
  #include "/usr/include/arm-linux-gnueabihf/visp/vpMeterPixelConversion.h"
  #include "/usr/include/arm-linux-gnueabihf/visp/vpMocap.h"
  #include "/usr/include/arm-linux-gnueabihf/visp/vpMocapQualisys.h"
  #include "/usr/include/arm-linux-gnueabihf/visp/vpMocapVicon.h"
  #include "/usr/include/arm-linux-gnueabihf/visp/vpMoment.h"
  #include "/usr/include/arm-linux-gnueabihf/visp/vpMomentAlpha.h"
  #include "/usr/include/arm-linux-gnueabihf/visp/vpMomentArea.h"
  #include "/usr/include/arm-linux-gnueabihf/visp/vpMomentAreaNormalized.h"
  #include "/usr/include/arm-linux-gnueabihf/visp/vpMomentBasic.h"
  #include "/usr/include/arm-linux-gnueabihf/visp/vpMomentCInvariant.h"
  #include "/usr/include/arm-linux-gnueabihf/visp/vpMomentCentered.h"
  #include "/usr/include/arm-linux-gnueabihf/visp/vpMomentCommon.h"
  #include "/usr/include/arm-linux-gnueabihf/visp/vpMomentDatabase.h"
  #include "/usr/include/arm-linux-gnueabihf/visp/vpMomentGravityCenter.h"
  #include "/usr/include/arm-linux-gnueabihf/visp/vpMomentGravityCenterNormalized.h"
  #include "/usr/include/arm-linux-gnueabihf/visp/vpMomentObject.h"
  #include "/usr/include/arm-linux-gnueabihf/visp/vpMouseButton.h"
  #include "/usr/include/arm-linux-gnueabihf/visp/vpMunkres.h"
  #include "/usr/include/arm-linux-gnueabihf/visp/vpMutex.h"
  #include "/usr/include/arm-linux-gnueabihf/visp/vpNetwork.h"
  #include "/usr/include/arm-linux-gnueabihf/visp/vpNoise.h"
  #include "/usr/include/arm-linux-gnueabihf/visp/vpNurbs.h"
  #include "/usr/include/arm-linux-gnueabihf/visp/vpOccipitalStructure.h"
  #include "/usr/include/arm-linux-gnueabihf/visp/vpParallelPort.h"
  #include "/usr/include/arm-linux-gnueabihf/visp/vpParallelPortException.h"
  #include "/usr/include/arm-linux-gnueabihf/visp/vpParseArgv.h"
  #include "/usr/include/arm-linux-gnueabihf/visp/vpPclViewer.h"
  #include "/usr/include/arm-linux-gnueabihf/visp/vpPioneer.h"
  #include "/usr/include/arm-linux-gnueabihf/visp/vpPioneerPan.h"
  #include "/usr/include/arm-linux-gnueabihf/visp/vpPixelMeterConversion.h"
  #include "/usr/include/arm-linux-gnueabihf/visp/vpPlanarObjectDetector.h"
  #include "/usr/include/arm-linux-gnueabihf/visp/vpPlane.h"
  #include "/usr/include/arm-linux-gnueabihf/visp/vpPlaneEstimation.h"
  #include "/usr/include/arm-linux-gnueabihf/visp/vpPlot.h"
  #include "/usr/include/arm-linux-gnueabihf/visp/vpPlotCurve.h"
  #include "/usr/include/arm-linux-gnueabihf/visp/vpPlotGraph.h"
  #include "/usr/include/arm-linux-gnueabihf/visp/vpPoint.h"
  #include "/usr/include/arm-linux-gnueabihf/visp/vpPolygon.h"
  #include "/usr/include/arm-linux-gnueabihf/visp/vpPolygon3D.h"
  #include "/usr/include/arm-linux-gnueabihf/visp/vpPose.h"
  #include "/usr/include/arm-linux-gnueabihf/visp/vpPoseException.h"
  #include "/usr/include/arm-linux-gnueabihf/visp/vpPoseFeatures.h"
  #include "/usr/include/arm-linux-gnueabihf/visp/vpPoseVector.h"
  #include "/usr/include/arm-linux-gnueabihf/visp/vpProjectionDisplay.h"
  #include "/usr/include/arm-linux-gnueabihf/visp/vpPtu46.h"
  #include "/usr/include/arm-linux-gnueabihf/visp/vpPylonFactory.h"
  #include "/usr/include/arm-linux-gnueabihf/visp/vpPylonGrabber.h"
  #include "/usr/include/arm-linux-gnueabihf/visp/vpQbDevice.h"
  #include "/usr/include/arm-linux-gnueabihf/visp/vpQbSoftHand.h"
  #include "/usr/include/arm-linux-gnueabihf/visp/vpQuadProg.h"
  #include "/usr/include/arm-linux-gnueabihf/visp/vpQuaternionVector.h"
  #include "/usr/include/arm-linux-gnueabihf/visp/vpRGBa.h"
  #include "/usr/include/arm-linux-gnueabihf/visp/vpRGBf.h"
  #include "/usr/include/arm-linux-gnueabihf/visp/vpRansac.h"
  #include "/usr/include/arm-linux-gnueabihf/visp/vpRealSense.h"
  #include "/usr/include/arm-linux-gnueabihf/visp/vpRealSense2.h"
  #include "/usr/include/arm-linux-gnueabihf/visp/vpRect.h"
  #include "/usr/include/arm-linux-gnueabihf/visp/vpRectOriented.h"
  #include "/usr/include/arm-linux-gnueabihf/visp/vpReflexTakktile2.h"
  #include "/usr/include/arm-linux-gnueabihf/visp/vpRequest.h"
  #include "/usr/include/arm-linux-gnueabihf/visp/vpRingLight.h"
  #include "/usr/include/arm-linux-gnueabihf/visp/vpRobot.h"
  #include "/usr/include/arm-linux-gnueabihf/visp/vpRobotAfma4.h"
  #include "/usr/include/arm-linux-gnueabihf/visp/vpRobotAfma6.h"
  #include "/usr/include/arm-linux-gnueabihf/visp/vpRobotBebop2.h"
  #include "/usr/include/arm-linux-gnueabihf/visp/vpRobotBiclops.h"
  #include "/usr/include/arm-linux-gnueabihf/visp/vpRobotBiclopsController.h"
  #include "/usr/include/arm-linux-gnueabihf/visp/vpRobotCamera.h"
  #include "/usr/include/arm-linux-gnueabihf/visp/vpRobotException.h"
  #include "/usr/include/arm-linux-gnueabihf/visp/vpRobotFlirPtu.h"
  #include "/usr/include/arm-linux-gnueabihf/visp/vpRobotFranka.h"
  #include "/usr/include/arm-linux-gnueabihf/visp/vpRobotKinova.h"
  #include "/usr/include/arm-linux-gnueabihf/visp/vpRobotMavsdk.h"
  #include "/usr/include/arm-linux-gnueabihf/visp/vpRobotPioneer.h"
  #include "/usr/include/arm-linux-gnueabihf/visp/vpRobotPtu46.h"
  #include "/usr/include/arm-linux-gnueabihf/visp/vpRobotSimulator.h"
  #include "/usr/include/arm-linux-gnueabihf/visp/vpRobotTemplate.h"
  #include "/usr/include/arm-linux-gnueabihf/visp/vpRobotUniversalRobots.h"
  #include "/usr/include/arm-linux-gnueabihf/visp/vpRobotViper650.h"
  #include "/usr/include/arm-linux-gnueabihf/visp/vpRobotViper850.h"
  #include "/usr/include/arm-linux-gnueabihf/visp/vpRobotWireFrameSimulator.h"
  #include "/usr/include/arm-linux-gnueabihf/visp/vpRobust.h"
  #include "/usr/include/arm-linux-gnueabihf/visp/vpRotationMatrix.h"
  #include "/usr/include/arm-linux-gnueabihf/visp/vpRotationVector.h"
  #include "/usr/include/arm-linux-gnueabihf/visp/vpRowVector.h"
  #include "/usr/include/arm-linux-gnueabihf/visp/vpRxyzVector.h"
  #include "/usr/include/arm-linux-gnueabihf/visp/vpRzyxVector.h"
  #include "/usr/include/arm-linux-gnueabihf/visp/vpRzyzVector.h"
  #include "/usr/include/arm-linux-gnueabihf/visp/vpScale.h"
  #include "/usr/include/arm-linux-gnueabihf/visp/vpScanPoint.h"
  #include "/usr/include/arm-linux-gnueabihf/visp/vpSerial.h"
  #include "/usr/include/arm-linux-gnueabihf/visp/vpServer.h"
  #include "/usr/include/arm-linux-gnueabihf/visp/vpServo.h"
  #include "/usr/include/arm-linux-gnueabihf/visp/vpServoData.h"
  #include "/usr/include/arm-linux-gnueabihf/visp/vpServoDisplay.h"
  #include "/usr/include/arm-linux-gnueabihf/visp/vpServoException.h"
  #include "/usr/include/arm-linux-gnueabihf/visp/vpServolens.h"
  #include "/usr/include/arm-linux-gnueabihf/visp/vpSickLDMRS.h"
  #include "/usr/include/arm-linux-gnueabihf/visp/vpSimulator.h"
  #include "/usr/include/arm-linux-gnueabihf/visp/vpSimulatorAfma6.h"
  #include "/usr/include/arm-linux-gnueabihf/visp/vpSimulatorCamera.h"
  #include "/usr/include/arm-linux-gnueabihf/visp/vpSimulatorException.h"
  #include "/usr/include/arm-linux-gnueabihf/visp/vpSimulatorPioneer.h"
  #include "/usr/include/arm-linux-gnueabihf/visp/vpSimulatorPioneerPan.h"
  #include "/usr/include/arm-linux-gnueabihf/visp/vpSimulatorViper850.h"
  #include "/usr/include/arm-linux-gnueabihf/visp/vpSphere.h"
  #include "/usr/include/arm-linux-gnueabihf/visp/vpSubColVector.h"
  #include "/usr/include/arm-linux-gnueabihf/visp/vpSubMatrix.h"
  #include "/usr/include/arm-linux-gnueabihf/visp/vpSubRowVector.h"
  #include "/usr/include/arm-linux-gnueabihf/visp/vpTemplateTracker.h"
  #include "/usr/include/arm-linux-gnueabihf/visp/vpTemplateTrackerBSpline.h"
  #include "/usr/include/arm-linux-gnueabihf/visp/vpTemplateTrackerHeader.h"
  #include "/usr/include/arm-linux-gnueabihf/visp/vpTemplateTrackerMI.h"
  #include "/usr/include/arm-linux-gnueabihf/visp/vpTemplateTrackerMIBSpline.h"
  #include "/usr/include/arm-linux-gnueabihf/visp/vpTemplateTrackerMIESM.h"
  #include "/usr/include/arm-linux-gnueabihf/visp/vpTemplateTrackerMIForwardAdditional.h"
  #include "/usr/include/arm-linux-gnueabihf/visp/vpTemplateTrackerMIForwardCompositional.h"
  #include "/usr/include/arm-linux-gnueabihf/visp/vpTemplateTrackerMIInverseCompositional.h"
  #include "/usr/include/arm-linux-gnueabihf/visp/vpTemplateTrackerSSD.h"
  #include "/usr/include/arm-linux-gnueabihf/visp/vpTemplateTrackerSSDESM.h"
  #include "/usr/include/arm-linux-gnueabihf/visp/vpTemplateTrackerSSDForwardAdditional.h"
  #include "/usr/include/arm-linux-gnueabihf/visp/vpTemplateTrackerSSDForwardCompositional.h"
  #include "/usr/include/arm-linux-gnueabihf/visp/vpTemplateTrackerSSDInverseCompositional.h"
  #include "/usr/include/arm-linux-gnueabihf/visp/vpTemplateTrackerTriangle.h"
  #include "/usr/include/arm-linux-gnueabihf/visp/vpTemplateTrackerWarp.h"
  #include "/usr/include/arm-linux-gnueabihf/visp/vpTemplateTrackerWarpAffine.h"
  #include "/usr/include/arm-linux-gnueabihf/visp/vpTemplateTrackerWarpHomography.h"
  #include "/usr/include/arm-linux-gnueabihf/visp/vpTemplateTrackerWarpHomographySL3.h"
  #include "/usr/include/arm-linux-gnueabihf/visp/vpTemplateTrackerWarpRT.h"
  #include "/usr/include/arm-linux-gnueabihf/visp/vpTemplateTrackerWarpSRT.h"
  #include "/usr/include/arm-linux-gnueabihf/visp/vpTemplateTrackerWarpTranslation.h"
  #include "/usr/include/arm-linux-gnueabihf/visp/vpTemplateTrackerZNCC.h"
  #include "/usr/include/arm-linux-gnueabihf/visp/vpTemplateTrackerZNCCForwardAdditional.h"
  #include "/usr/include/arm-linux-gnueabihf/visp/vpTemplateTrackerZNCCInverseCompositional.h"
  #include "/usr/include/arm-linux-gnueabihf/visp/vpTemplateTrackerZone.h"
  #include "/usr/include/arm-linux-gnueabihf/visp/vpThetaUVector.h"
  #include "/usr/include/arm-linux-gnueabihf/visp/vpThread.h"
  #include "/usr/include/arm-linux-gnueabihf/visp/vpTime.h"
  #include "/usr/include/arm-linux-gnueabihf/visp/vpTracker.h"
  #include "/usr/include/arm-linux-gnueabihf/visp/vpTrackingException.h"
  #include "/usr/include/arm-linux-gnueabihf/visp/vpTranslationVector.h"
  #include "/usr/include/arm-linux-gnueabihf/visp/vpTriangle.h"
  #include "/usr/include/arm-linux-gnueabihf/visp/vpUDPClient.h"
  #include "/usr/include/arm-linux-gnueabihf/visp/vpUDPServer.h"
  #include "/usr/include/arm-linux-gnueabihf/visp/vpUeyeGrabber.h"
  #include "/usr/include/arm-linux-gnueabihf/visp/vpUniRand.h"
  #include "/usr/include/arm-linux-gnueabihf/visp/vpUnicycle.h"
  #include "/usr/include/arm-linux-gnueabihf/visp/vpV4l2Grabber.h"
  #include "/usr/include/arm-linux-gnueabihf/visp/vpVelocityTwistMatrix.h"
  #include "/usr/include/arm-linux-gnueabihf/visp/vpVideoReader.h"
  #include "/usr/include/arm-linux-gnueabihf/visp/vpVideoWriter.h"
  #include "/usr/include/arm-linux-gnueabihf/visp/vpViewer.h"
  #include "/usr/include/arm-linux-gnueabihf/visp/vpViper.h"
  #include "/usr/include/arm-linux-gnueabihf/visp/vpViper650.h"
  #include "/usr/include/arm-linux-gnueabihf/visp/vpViper850.h"
  #include "/usr/include/arm-linux-gnueabihf/visp/vpVirtuose.h"
  #include "/usr/include/arm-linux-gnueabihf/visp/vpWin32API.h"
  #include "/usr/include/arm-linux-gnueabihf/visp/vpWin32Renderer.h"
  #include "/usr/include/arm-linux-gnueabihf/visp/vpWin32Window.h"
  #include "/usr/include/arm-linux-gnueabihf/visp/vpWireFrameSimulator.h"
  #include "/usr/include/arm-linux-gnueabihf/visp/vpWireFrameSimulatorTypes.h"
  #include "/usr/include/arm-linux-gnueabihf/visp/vpXmlConfigParserKeyPoint.h"
  #include "/usr/include/arm-linux-gnueabihf/visp/vpXmlParser.h"
  #include "/usr/include/arm-linux-gnueabihf/visp/vpXmlParserCamera.h"
  #include "/usr/include/arm-linux-gnueabihf/visp/vpXmlParserHomogeneousMatrix.h"
  #include "/usr/include/arm-linux-gnueabihf/visp/vpXmlParserRectOriented.h"
  #include "/usr/include/arm-linux-gnueabihf/visp3/visp.h"

  // add namespaces
  namespace cv{typedef int tmp_add_type_1;}
  cv::tmp_add_type_1 tmp_add_func_1(){return 0;};
  namespace cv{namespace cuda{typedef int tmp_add_type_2;}}
  cv::cuda::tmp_add_type_2 tmp_add_func_2(){return 0;};
  namespace cv{namespace cudev{typedef int tmp_add_type_3;}}
  cv::cudev::tmp_add_type_3 tmp_add_func_3(){return 0;};
  namespace cv{namespace detail{typedef int tmp_add_type_4;}}
  cv::detail::tmp_add_type_4 tmp_add_func_4(){return 0;};
  namespace cv{namespace details{typedef int tmp_add_type_5;}}
  cv::details::tmp_add_type_5 tmp_add_func_5(){return 0;};
  namespace cv{namespace dnn{typedef int tmp_add_type_6;}}
  cv::dnn::tmp_add_type_6 tmp_add_func_6(){return 0;};
  namespace cv{namespace Error{typedef int tmp_add_type_7;}}
  cv::Error::tmp_add_type_7 tmp_add_func_7(){return 0;};
  namespace cv{namespace fisheye{typedef int tmp_add_type_8;}}
  cv::fisheye::tmp_add_type_8 tmp_add_func_8(){return 0;};
  namespace cv{namespace flann{typedef int tmp_add_type_9;}}
  cv::flann::tmp_add_type_9 tmp_add_func_9(){return 0;};
  namespace cv{namespace internal{typedef int tmp_add_type_10;}}
  cv::internal::tmp_add_type_10 tmp_add_func_10(){return 0;};
  namespace cv{namespace ipp{typedef int tmp_add_type_11;}}
  cv::ipp::tmp_add_type_11 tmp_add_func_11(){return 0;};
  namespace cv{namespace ml{typedef int tmp_add_type_12;}}
  cv::ml::tmp_add_type_12 tmp_add_func_12(){return 0;};
  namespace cv{namespace ogl{typedef int tmp_add_type_13;}}
  cv::ogl::tmp_add_type_13 tmp_add_func_13(){return 0;};
  namespace cv{namespace samples{typedef int tmp_add_type_14;}}
  cv::samples::tmp_add_type_14 tmp_add_func_14(){return 0;};
  namespace cv{namespace segmentation{typedef int tmp_add_type_15;}}
  cv::segmentation::tmp_add_type_15 tmp_add_func_15(){return 0;};
  namespace cv{namespace sfinae{typedef int tmp_add_type_16;}}
  cv::sfinae::tmp_add_type_16 tmp_add_func_16(){return 0;};
  namespace cv{namespace traits{typedef int tmp_add_type_17;}}
  cv::traits::tmp_add_type_17 tmp_add_func_17(){return 0;};
  namespace cv{namespace traits{namespace internal{typedef int tmp_add_type_18;}}}
  cv::traits::internal::tmp_add_type_18 tmp_add_func_18(){return 0;};
  namespace cv{namespace utils{typedef int tmp_add_type_19;}}
  cv::utils::tmp_add_type_19 tmp_add_func_19(){return 0;};
  namespace cvflann{typedef int tmp_add_type_20;}
  cvflann::tmp_add_type_20 tmp_add_func_20(){return 0;};
  namespace cvflann{namespace anyimpl{typedef int tmp_add_type_21;}}
  cvflann::anyimpl::tmp_add_type_21 tmp_add_func_21(){return 0;};
  namespace cvflann{namespace lsh{typedef int tmp_add_type_22;}}
  cvflann::lsh::tmp_add_type_22 tmp_add_func_22(){return 0;};
  namespace Eigen{typedef int tmp_add_type_23;}
  Eigen::tmp_add_type_23 tmp_add_func_23(){return 0;};
  namespace Eigen{namespace Architecture{typedef int tmp_add_type_24;}}
  Eigen::Architecture::tmp_add_type_24 tmp_add_func_24(){return 0;};
  namespace Eigen{namespace indexing{typedef int tmp_add_type_25;}}
  Eigen::indexing::tmp_add_type_25 tmp_add_func_25(){return 0;};
  namespace Eigen{namespace internal{typedef int tmp_add_type_26;}}
  Eigen::internal::tmp_add_type_26 tmp_add_func_26(){return 0;};
  namespace Eigen{namespace numext{typedef int tmp_add_type_27;}}
  Eigen::numext::tmp_add_type_27 tmp_add_func_27(){return 0;};
  namespace Eigen{namespace placeholders{typedef int tmp_add_type_28;}}
  Eigen::placeholders::tmp_add_type_28 tmp_add_func_28(){return 0;};
  namespace Eigen{namespace symbolic{typedef int tmp_add_type_29;}}
  Eigen::symbolic::tmp_add_type_29 tmp_add_func_29(){return 0;};
  namespace nlohmann{typedef int tmp_add_type_30;}
  nlohmann::tmp_add_type_30 tmp_add_func_30(){return 0;};
  namespace vp{typedef int tmp_add_type_31;}
  vp::tmp_add_type_31 tmp_add_func_31(){return 0;};
  namespace vpCPUFeatures{typedef int tmp_add_type_32;}
  vpCPUFeatures::tmp_add_type_32 tmp_add_func_32(){return 0;};
  namespace vpEndian{typedef int tmp_add_type_33;}
  vpEndian::tmp_add_type_33 tmp_add_func_33(){return 0;};
  namespace vpTime{typedef int tmp_add_type_34;}
  vpTime::tmp_add_type_34 tmp_add_func_34(){return 0;};
  namespace cv{namespace dnn{namespace dnn4_v20220524{typedef int tmp_add_type_35;}}}
  cv::dnn::dnn4_v20220524::tmp_add_type_35 tmp_add_func_35(){return 0;};
  namespace Eigen{namespace bfloat16_impl{typedef int tmp_add_type_36;}}
  Eigen::bfloat16_impl::tmp_add_type_36 tmp_add_func_36(){return 0;};
  namespace Eigen{namespace half_impl{typedef int tmp_add_type_37;}}
  Eigen::half_impl::tmp_add_type_37 tmp_add_func_37(){return 0;};
  namespace Eigen{namespace internal{namespace std_fallback{typedef int tmp_add_type_38;}}}
  Eigen::internal::std_fallback::tmp_add_type_38 tmp_add_func_38(){return 0;};
  namespace icu_72{typedef int tmp_add_type_39;}
  icu_72::tmp_add_type_39 tmp_add_func_39(){return 0;};
  namespace nlohmann{namespace json_abi_v3_11_3{typedef int tmp_add_type_40;}}
  nlohmann::json_abi_v3_11_3::tmp_add_type_40 tmp_add_func_40(){return 0;};
  namespace nlohmann{namespace json_abi_v3_11_3{namespace detail{typedef int tmp_add_type_41;}}}
  nlohmann::json_abi_v3_11_3::detail::tmp_add_type_41 tmp_add_func_41(){return 0;};
  namespace nlohmann{namespace json_abi_v3_11_3{namespace detail2{typedef int tmp_add_type_42;}}}
  nlohmann::json_abi_v3_11_3::detail2::tmp_add_type_42 tmp_add_func_42(){return 0;};
  namespace nlohmann{namespace json_abi_v3_11_3{namespace detail{namespace container_input_adapter_factory_impl{typedef int tmp_add_type_43;}}}}
  nlohmann::json_abi_v3_11_3::detail::container_input_adapter_factory_impl::tmp_add_type_43 tmp_add_func_43(){return 0;};
  namespace nlohmann{namespace json_abi_v3_11_3{namespace detail{namespace dtoa_impl{typedef int tmp_add_type_44;}}}}
  nlohmann::json_abi_v3_11_3::detail::dtoa_impl::tmp_add_type_44 tmp_add_func_44(){return 0;};
  namespace nlohmann{namespace json_abi_v3_11_3{namespace detail{namespace impl{typedef int tmp_add_type_45;}}}}
  nlohmann::json_abi_v3_11_3::detail::impl::tmp_add_type_45 tmp_add_func_45(){return 0;};
  namespace nlohmann{namespace json_abi_v3_11_3{namespace literals{typedef int tmp_add_type_46;}}}
  nlohmann::json_abi_v3_11_3::literals::tmp_add_type_46 tmp_add_func_46(){return 0;};
  namespace nlohmann{namespace json_abi_v3_11_3{namespace literals{namespace json_literals{typedef int tmp_add_type_47;}}}}
  nlohmann::json_abi_v3_11_3::literals::json_literals::tmp_add_type_47 tmp_add_func_47(){return 0;};

  // add classes
  Cv16suf* tmp_add_class_0;
  Cv32suf* tmp_add_class_1;
  Cv64suf* tmp_add_class_2;
  CvBox2D* tmp_add_class_3;
  CvChain* tmp_add_class_4;
  CvChainPtReader* tmp_add_class_5;
  CvConnectedComp* tmp_add_class_6;
  CvContour* tmp_add_class_7;
  CvConvexityDefect* tmp_add_class_8;
  CvFont* tmp_add_class_9;
  CvGraph* tmp_add_class_10;
  CvGraphEdge* tmp_add_class_11;
  CvGraphScanner* tmp_add_class_12;
  CvGraphVtx* tmp_add_class_13;
  CvGraphVtx2D* tmp_add_class_14;
  CvHistogram* tmp_add_class_15;
  CvHuMoments* tmp_add_class_16;
  CvLineIterator* tmp_add_class_17;
  CvMat* tmp_add_class_18;
  CvMatND* tmp_add_class_19;
  CvMemBlock* tmp_add_class_20;
  CvMemStorage* tmp_add_class_21;
  CvMemStoragePos* tmp_add_class_22;
  CvMoments* tmp_add_class_23;
  CvNArrayIterator* tmp_add_class_24;
  CvPoint* tmp_add_class_25;
  CvPoint2D32f* tmp_add_class_26;
  CvPoint2D64f* tmp_add_class_27;
  CvPoint3D32f* tmp_add_class_28;
  CvPoint3D64f* tmp_add_class_29;
  CvRect* tmp_add_class_30;
  CvScalar* tmp_add_class_31;
  CvSeq* tmp_add_class_32;
  CvSeqBlock* tmp_add_class_33;
  CvSeqReader* tmp_add_class_34;
  CvSeqWriter* tmp_add_class_35;
  CvSet* tmp_add_class_36;
  CvSetElem* tmp_add_class_37;
  CvSize* tmp_add_class_38;
  CvSize2D32f* tmp_add_class_39;
  CvSlice* tmp_add_class_40;
  CvSparseMat* tmp_add_class_41;
  CvSparseMatIterator* tmp_add_class_42;
  CvSparseNode* tmp_add_class_43;
  CvTermCriteria* tmp_add_class_44;
  CvTreeNodeIterator* tmp_add_class_45;
  SbBox3f* tmp_add_class_46;
  SbByteBuffer* tmp_add_class_47;
  SbDict* tmp_add_class_48;
  SbIntList* tmp_add_class_49;
  SbMatrix* tmp_add_class_50;
  SbName* tmp_add_class_51;
  SbPList* tmp_add_class_52;
  SbRotation* tmp_add_class_53;
  SbString* tmp_add_class_54;
  SbVec2f* tmp_add_class_55;
  SbVec2s* tmp_add_class_56;
  SbVec3f* tmp_add_class_57;
  SbVec4f* tmp_add_class_58;
  SbViewportRegion* tmp_add_class_59;
  SoAction* tmp_add_class_60;
  SoActionMethodList* tmp_add_class_61;
  SoAuditorList* tmp_add_class_62;
  SoBase* tmp_add_class_63;
  SoBaseList* tmp_add_class_64;
  SoChildList* tmp_add_class_65;
  SoDB* tmp_add_class_66;
  SoDebugError* tmp_add_class_67;
  SoDecimationTypeElement* tmp_add_class_68;
  SoDetailList* tmp_add_class_69;
  SoElement* tmp_add_class_70;
  SoEnabledElementsList* tmp_add_class_71;
  SoEngineList* tmp_add_class_72;
  SoEngineOutputList* tmp_add_class_73;
  SoError* tmp_add_class_74;
  SoField* tmp_add_class_75;
  SoFieldContainer* tmp_add_class_76;
  SoFieldData* tmp_add_class_77;
  SoFieldList* tmp_add_class_78;
  SoFullPath* tmp_add_class_79;
  SoGetMatrixAction* tmp_add_class_80;
  SoGetPrimitiveCountAction* tmp_add_class_81;
  SoGroup* tmp_add_class_82;
  SoInput* tmp_add_class_83;
  SoInt32Element* tmp_add_class_84;
  SoLightPath* tmp_add_class_85;
  SoMFInt32* tmp_add_class_86;
  SoMFNode* tmp_add_class_87;
  SoMFVec3f* tmp_add_class_88;
  SoMField* tmp_add_class_89;
  SoMaterialBindingElement* tmp_add_class_90;
  SoMultiTextureCoordinateElement* tmp_add_class_91;
  SoNode* tmp_add_class_92;
  SoNodeList* tmp_add_class_93;
  SoNotList* tmp_add_class_94;
  SoNotRec* tmp_add_class_95;
  SoOutput* tmp_add_class_96;
  SoPath* tmp_add_class_97;
  SoPathList* tmp_add_class_98;
  SoPickedPointList* tmp_add_class_99;
  SoSFBool* tmp_add_class_100;
  SoSFEnum* tmp_add_class_101;
  SoSFFloat* tmp_add_class_102;
  SoSFNode* tmp_add_class_103;
  SoSFVec3f* tmp_add_class_104;
  SoSField* tmp_add_class_105;
  SoSearchAction* tmp_add_class_106;
  SoSensorManager* tmp_add_class_107;
  SoSeparator* tmp_add_class_108;
  SoShape* tmp_add_class_109;
  SoState* tmp_add_class_110;
  SoTempPath* tmp_add_class_111;
  SoToVRML2Action* tmp_add_class_112;
  SoToVRMLAction* tmp_add_class_113;
  SoType* tmp_add_class_114;
  SoTypeList* tmp_add_class_115;
  SoVRMLCoordinate* tmp_add_class_116;
  SoVRMLGeometry* tmp_add_class_117;
  SoVRMLGroup* tmp_add_class_118;
  SoVRMLIndexedFaceSet* tmp_add_class_119;
  SoVRMLIndexedLine* tmp_add_class_120;
  SoVRMLIndexedLineSet* tmp_add_class_121;
  SoVRMLIndexedShape* tmp_add_class_122;
  SoVRMLParent* tmp_add_class_123;
  SoVRMLShape* tmp_add_class_124;
  SoVRMLVertexLine* tmp_add_class_125;
  SoVRMLVertexShape* tmp_add_class_126;
  SoWriteAction* tmp_add_class_127;
  _G_fpos64_t* tmp_add_class_128;
  _G_fpos_t* tmp_add_class_129;
  _IO_cookie_io_functions_t* tmp_add_class_130;
  _IplConvKernel* tmp_add_class_131;
  _IplConvKernelFP* tmp_add_class_132;
  _IplImage* tmp_add_class_133;
  _IplROI* tmp_add_class_134;
  _uconv_t* tmp_add_class_135;
  _xlinkHandler* tmp_add_class_136;
  _xmlAttr* tmp_add_class_137;
  _xmlAttribute* tmp_add_class_138;
  _xmlBuffer* tmp_add_class_139;
  _xmlCharEncodingHandler* tmp_add_class_140;
  _xmlDOMWrapCtxt* tmp_add_class_141;
  _xmlDoc* tmp_add_class_142;
  _xmlDtd* tmp_add_class_143;
  _xmlElement* tmp_add_class_144;
  _xmlElementContent* tmp_add_class_145;
  _xmlEntity* tmp_add_class_146;
  _xmlEnumeration* tmp_add_class_147;
  _xmlError* tmp_add_class_148;
  _xmlGlobalState* tmp_add_class_149;
  _xmlID* tmp_add_class_150;
  _xmlNode* tmp_add_class_151;
  _xmlNotation* tmp_add_class_152;
  _xmlNs* tmp_add_class_153;
  _xmlOutputBuffer* tmp_add_class_154;
  _xmlParserCtxt* tmp_add_class_155;
  _xmlParserInput* tmp_add_class_156;
  _xmlParserInputBuffer* tmp_add_class_157;
  _xmlParserNodeInfo* tmp_add_class_158;
  _xmlParserNodeInfoSeq* tmp_add_class_159;
  _xmlRef* tmp_add_class_160;
  _xmlSAXHandler* tmp_add_class_161;
  _xmlSAXHandlerV1* tmp_add_class_162;
  _xmlSAXLocator* tmp_add_class_163;
  _xmlValidCtxt* tmp_add_class_164;
  addrinfo* tmp_add_class_165;
  cc_debugerror* tmp_add_class_166;
  cc_error* tmp_add_class_167;
  cc_rbptree* tmp_add_class_168;
  cc_string* tmp_add_class_169;
  cmsghdr* tmp_add_class_170;
  gaicb* tmp_add_class_171;
  group_filter* tmp_add_class_172;
  group_req* tmp_add_class_173;
  group_source_req* tmp_add_class_174;
  hostent* tmp_add_class_175;
  in6_addr* tmp_add_class_176;
  in6_pktinfo* tmp_add_class_177;
  in_addr* tmp_add_class_178;
  in_pktinfo* tmp_add_class_179;
  iovec* tmp_add_class_180;
  ip6_mtuinfo* tmp_add_class_181;
  ip_mreq* tmp_add_class_182;
  ip_mreq_source* tmp_add_class_183;
  ip_mreqn* tmp_add_class_184;
  ip_msfilter* tmp_add_class_185;
  ip_opts* tmp_add_class_186;
  ipv6_mreq* tmp_add_class_187;
  itimerval* tmp_add_class_188;
  linger* tmp_add_class_189;
  mmsghdr* tmp_add_class_190;
  msghdr* tmp_add_class_191;
  netent* tmp_add_class_192;
  osockaddr* tmp_add_class_193;
  ppdev_frob_struct* tmp_add_class_194;
  protoent* tmp_add_class_195;
  rpcent* tmp_add_class_196;
  servent* tmp_add_class_197;
  sockaddr* tmp_add_class_198;
  sockaddr_in* tmp_add_class_199;
  sockaddr_in6* tmp_add_class_200;
  sockaddr_storage* tmp_add_class_201;
  termios* tmp_add_class_202;
  ucred* tmp_add_class_203;
  v4l2_area* tmp_add_class_204;
  v4l2_audio* tmp_add_class_205;
  v4l2_audioout* tmp_add_class_206;
  v4l2_av1_cdef* tmp_add_class_207;
  v4l2_av1_global_motion* tmp_add_class_208;
  v4l2_av1_loop_filter* tmp_add_class_209;
  v4l2_av1_loop_restoration* tmp_add_class_210;
  v4l2_av1_quantization* tmp_add_class_211;
  v4l2_av1_segmentation* tmp_add_class_212;
  v4l2_av1_tile_info* tmp_add_class_213;
  v4l2_bt_timings* tmp_add_class_214;
  v4l2_bt_timings_cap* tmp_add_class_215;
  v4l2_buffer* tmp_add_class_216;
  v4l2_capability* tmp_add_class_217;
  v4l2_captureparm* tmp_add_class_218;
  v4l2_clip* tmp_add_class_219;
  v4l2_control* tmp_add_class_220;
  v4l2_create_buffers* tmp_add_class_221;
  v4l2_crop* tmp_add_class_222;
  v4l2_cropcap* tmp_add_class_223;
  v4l2_ctrl_av1_film_grain* tmp_add_class_224;
  v4l2_ctrl_av1_frame* tmp_add_class_225;
  v4l2_ctrl_av1_sequence* tmp_add_class_226;
  v4l2_ctrl_av1_tile_group_entry* tmp_add_class_227;
  v4l2_ctrl_fwht_params* tmp_add_class_228;
  v4l2_ctrl_h264_decode_params* tmp_add_class_229;
  v4l2_ctrl_h264_pps* tmp_add_class_230;
  v4l2_ctrl_h264_pred_weights* tmp_add_class_231;
  v4l2_ctrl_h264_scaling_matrix* tmp_add_class_232;
  v4l2_ctrl_h264_slice_params* tmp_add_class_233;
  v4l2_ctrl_h264_sps* tmp_add_class_234;
  v4l2_ctrl_hdr10_cll_info* tmp_add_class_235;
  v4l2_ctrl_hdr10_mastering_display* tmp_add_class_236;
  v4l2_ctrl_hevc_decode_params* tmp_add_class_237;
  v4l2_ctrl_hevc_pps* tmp_add_class_238;
  v4l2_ctrl_hevc_scaling_matrix* tmp_add_class_239;
  v4l2_ctrl_hevc_slice_params* tmp_add_class_240;
  v4l2_ctrl_hevc_sps* tmp_add_class_241;
  v4l2_ctrl_mpeg2_picture* tmp_add_class_242;
  v4l2_ctrl_mpeg2_quantisation* tmp_add_class_243;
  v4l2_ctrl_mpeg2_sequence* tmp_add_class_244;
  v4l2_ctrl_vp8_frame* tmp_add_class_245;
  v4l2_ctrl_vp9_compressed_hdr* tmp_add_class_246;
  v4l2_ctrl_vp9_frame* tmp_add_class_247;
  v4l2_dbg_chip_info* tmp_add_class_248;
  v4l2_dbg_match* tmp_add_class_249;
  v4l2_dbg_register* tmp_add_class_250;
  v4l2_decoder_cmd* tmp_add_class_251;
  v4l2_dv_timings* tmp_add_class_252;
  v4l2_dv_timings_cap* tmp_add_class_253;
  v4l2_edid* tmp_add_class_254;
  v4l2_enc_idx* tmp_add_class_255;
  v4l2_enc_idx_entry* tmp_add_class_256;
  v4l2_encoder_cmd* tmp_add_class_257;
  v4l2_enum_dv_timings* tmp_add_class_258;
  v4l2_event* tmp_add_class_259;
  v4l2_event_ctrl* tmp_add_class_260;
  v4l2_event_frame_sync* tmp_add_class_261;
  v4l2_event_motion_det* tmp_add_class_262;
  v4l2_event_src_change* tmp_add_class_263;
  v4l2_event_subscription* tmp_add_class_264;
  v4l2_event_vsync* tmp_add_class_265;
  v4l2_exportbuffer* tmp_add_class_266;
  v4l2_ext_control* tmp_add_class_267;
  v4l2_ext_controls* tmp_add_class_268;
  v4l2_fmtdesc* tmp_add_class_269;
  v4l2_format* tmp_add_class_270;
  v4l2_fract* tmp_add_class_271;
  v4l2_framebuffer* tmp_add_class_272;
  v4l2_frequency* tmp_add_class_273;
  v4l2_frequency_band* tmp_add_class_274;
  v4l2_frmival_stepwise* tmp_add_class_275;
  v4l2_frmivalenum* tmp_add_class_276;
  v4l2_frmsize_discrete* tmp_add_class_277;
  v4l2_frmsize_stepwise* tmp_add_class_278;
  v4l2_frmsizeenum* tmp_add_class_279;
  v4l2_h264_dpb_entry* tmp_add_class_280;
  v4l2_h264_reference* tmp_add_class_281;
  v4l2_h264_weight_factors* tmp_add_class_282;
  v4l2_hevc_dpb_entry* tmp_add_class_283;
  v4l2_hevc_pred_weight_table* tmp_add_class_284;
  v4l2_hw_freq_seek* tmp_add_class_285;
  v4l2_input* tmp_add_class_286;
  v4l2_jpegcompression* tmp_add_class_287;
  v4l2_meta_format* tmp_add_class_288;
  v4l2_modulator* tmp_add_class_289;
  v4l2_mpeg_vbi_ITV0* tmp_add_class_290;
  v4l2_mpeg_vbi_fmt_ivtv* tmp_add_class_291;
  v4l2_mpeg_vbi_itv0* tmp_add_class_292;
  v4l2_mpeg_vbi_itv0_line* tmp_add_class_293;
  v4l2_output* tmp_add_class_294;
  v4l2_outputparm* tmp_add_class_295;
  v4l2_pix_format* tmp_add_class_296;
  v4l2_pix_format_mplane* tmp_add_class_297;
  v4l2_plane* tmp_add_class_298;
  v4l2_plane_pix_format* tmp_add_class_299;
  v4l2_query_ext_ctrl* tmp_add_class_300;
  v4l2_queryctrl* tmp_add_class_301;
  v4l2_querymenu* tmp_add_class_302;
  v4l2_rds_data* tmp_add_class_303;
  v4l2_rect* tmp_add_class_304;
  v4l2_requestbuffers* tmp_add_class_305;
  v4l2_sdr_format* tmp_add_class_306;
  v4l2_selection* tmp_add_class_307;
  v4l2_sliced_vbi_cap* tmp_add_class_308;
  v4l2_sliced_vbi_data* tmp_add_class_309;
  v4l2_sliced_vbi_format* tmp_add_class_310;
  v4l2_standard* tmp_add_class_311;
  v4l2_streamparm* tmp_add_class_312;
  v4l2_timecode* tmp_add_class_313;
  v4l2_tuner* tmp_add_class_314;
  v4l2_vbi_format* tmp_add_class_315;
  v4l2_vp8_entropy* tmp_add_class_316;
  v4l2_vp8_entropy_coder_state* tmp_add_class_317;
  v4l2_vp8_loop_filter* tmp_add_class_318;
  v4l2_vp8_quantization* tmp_add_class_319;
  v4l2_vp8_segment* tmp_add_class_320;
  v4l2_vp9_loop_filter* tmp_add_class_321;
  v4l2_vp9_mv_probs* tmp_add_class_322;
  v4l2_vp9_quantization* tmp_add_class_323;
  v4l2_vp9_segmentation* tmp_add_class_324;
  v4l2_window* tmp_add_class_325;
  vp1394TwoGrabber* tmp_add_class_326;
  vpAdaptiveGain* tmp_add_class_327;
  vpAfma4* tmp_add_class_328;
  vpAfma6* tmp_add_class_329;
  vpBSpline* tmp_add_class_330;
  vpBasicFeature* tmp_add_class_331;
  vpBasicKeyPoint* tmp_add_class_332;
  vpBasisFunction* tmp_add_class_333;
  vpBiclops* tmp_add_class_334;
  vpCalibration* tmp_add_class_335;
  vpCalibrationException* tmp_add_class_336;
  vpCameraParameters* tmp_add_class_337;
  vpCannyEdgeDetection* tmp_add_class_338;
  vpChrono* tmp_add_class_339;
  vpCircle* tmp_add_class_340;
  vpCircleHoughTransform* tmp_add_class_341;
  vpClient* tmp_add_class_342;
  vpColVector* tmp_add_class_343;
  vpColor* tmp_add_class_344;
  vpColorBlindFriendlyPalette* tmp_add_class_345;
  vpColorDepthConversion* tmp_add_class_346;
  vpColormap* tmp_add_class_347;
  vpConvert* tmp_add_class_348;
  vpCylinder* tmp_add_class_349;
  vpDetectorAprilTag* tmp_add_class_350;
  vpDetectorBase* tmp_add_class_351;
  vpDetectorDNNOpenCV* tmp_add_class_352;
  vpDetectorDataMatrixCode* tmp_add_class_353;
  vpDetectorFace* tmp_add_class_354;
  vpDiskGrabber* tmp_add_class_355;
  vpDisplay* tmp_add_class_356;
  vpDisplayException* tmp_add_class_357;
  vpDisplayOpenCV* tmp_add_class_358;
  vpDisplayX* tmp_add_class_359;
  vpDot* tmp_add_class_360;
  vpDot2* tmp_add_class_361;
  vpException* tmp_add_class_362;
  vpExponentialMap* tmp_add_class_363;
  vpFeatureBuilder* tmp_add_class_364;
  vpFeatureDepth* tmp_add_class_365;
  vpFeatureDisplay* tmp_add_class_366;
  vpFeatureEllipse* tmp_add_class_367;
  vpFeatureException* tmp_add_class_368;
  vpFeatureLine* tmp_add_class_369;
  vpFeatureLuminance* tmp_add_class_370;
  vpFeatureMoment* tmp_add_class_371;
  vpFeatureMomentAlpha* tmp_add_class_372;
  vpFeatureMomentArea* tmp_add_class_373;
  vpFeatureMomentAreaNormalized* tmp_add_class_374;
  vpFeatureMomentBasic* tmp_add_class_375;
  vpFeatureMomentCInvariant* tmp_add_class_376;
  vpFeatureMomentCentered* tmp_add_class_377;
  vpFeatureMomentCommon* tmp_add_class_378;
  vpFeatureMomentDatabase* tmp_add_class_379;
  vpFeatureMomentGravityCenter* tmp_add_class_380;
  vpFeatureMomentGravityCenterNormalized* tmp_add_class_381;
  vpFeaturePoint* tmp_add_class_382;
  vpFeaturePoint3D* tmp_add_class_383;
  vpFeaturePointPolar* tmp_add_class_384;
  vpFeatureSegment* tmp_add_class_385;
  vpFeatureThetaU* tmp_add_class_386;
  vpFeatureTranslation* tmp_add_class_387;
  vpFeatureVanishingPoint* tmp_add_class_388;
  vpFont* tmp_add_class_389;
  vpForceTorqueAtiNetFTSensor* tmp_add_class_390;
  vpForceTwistMatrix* tmp_add_class_391;
  vpForwardProjection* tmp_add_class_392;
  vpFrameGrabber* tmp_add_class_393;
  vpFrameGrabberException* tmp_add_class_394;
  vpGaussRand* tmp_add_class_395;
  vpGaussianFilter* tmp_add_class_396;
  vpGenericFeature* tmp_add_class_397;
  vpHandEyeCalibration* tmp_add_class_398;
  vpHinkley* tmp_add_class_399;
  vpHistogram* tmp_add_class_400;
  vpHistogramPeak* tmp_add_class_401;
  vpHistogramValey* tmp_add_class_402;
  vpHomogeneousMatrix* tmp_add_class_403;
  vpHomography* tmp_add_class_404;
  vpImageCircle* tmp_add_class_405;
  vpImageConvert* tmp_add_class_406;
  vpImageDraw* tmp_add_class_407;
  vpImageException* tmp_add_class_408;
  vpImageFilter* tmp_add_class_409;
  vpImageIo* tmp_add_class_410;
  vpImageMorphology* tmp_add_class_411;
  vpImagePoint* tmp_add_class_412;
  vpImageSimulator* tmp_add_class_413;
  vpImageTools* tmp_add_class_414;
  vpIoException* tmp_add_class_415;
  vpIoTools* tmp_add_class_416;
  vpJsonArgumentParser* tmp_add_class_417;
  vpKalmanFilter* tmp_add_class_418;
  vpKeyPoint* tmp_add_class_419;
  vpKeyboard* tmp_add_class_420;
  vpKltOpencv* tmp_add_class_421;
  vpLaserScan* tmp_add_class_422;
  vpLaserScanner* tmp_add_class_423;
  vpLinProg* tmp_add_class_424;
  vpLine* tmp_add_class_425;
  vpLinearKalmanFilterInstantiation* tmp_add_class_426;
  vpLuminance* tmp_add_class_427;
  vpMath* tmp_add_class_428;
  vpMatrix* tmp_add_class_429;
  vpMatrixException* tmp_add_class_430;
  vpMbDepthDenseTracker* tmp_add_class_431;
  vpMbDepthNormalTracker* tmp_add_class_432;
  vpMbEdgeKltTracker* tmp_add_class_433;
  vpMbEdgeTracker* tmp_add_class_434;
  vpMbGenericTracker* tmp_add_class_435;
  vpMbKltTracker* tmp_add_class_436;
  vpMbScanLine* tmp_add_class_437;
  vpMbTracker* tmp_add_class_438;
  vpMbtDistanceCircle* tmp_add_class_439;
  vpMbtDistanceCylinder* tmp_add_class_440;
  vpMbtDistanceKltCylinder* tmp_add_class_441;
  vpMbtDistanceKltPoints* tmp_add_class_442;
  vpMbtDistanceLine* tmp_add_class_443;
  vpMbtFaceDepthDense* tmp_add_class_444;
  vpMbtFaceDepthNormal* tmp_add_class_445;
  vpMbtMeEllipse* tmp_add_class_446;
  vpMbtMeLine* tmp_add_class_447;
  vpMbtPolygon* tmp_add_class_448;
  vpMbtXmlGenericParser* tmp_add_class_449;
  vpMe* tmp_add_class_450;
  vpMeEllipse* tmp_add_class_451;
  vpMeLine* tmp_add_class_452;
  vpMeNurbs* tmp_add_class_453;
  vpMeSite* tmp_add_class_454;
  vpMeTracker* tmp_add_class_455;
  vpMegaPose* tmp_add_class_456;
  vpMegaPoseEstimate* tmp_add_class_457;
  vpMegaPoseTracker* tmp_add_class_458;
  vpMeterPixelConversion* tmp_add_class_459;
  vpMocap* tmp_add_class_460;
  vpMoment* tmp_add_class_461;
  vpMomentAlpha* tmp_add_class_462;
  vpMomentArea* tmp_add_class_463;
  vpMomentAreaNormalized* tmp_add_class_464;
  vpMomentBasic* tmp_add_class_465;
  vpMomentCInvariant* tmp_add_class_466;
  vpMomentCentered* tmp_add_class_467;
  vpMomentCommon* tmp_add_class_468;
  vpMomentDatabase* tmp_add_class_469;
  vpMomentGenericFeature* tmp_add_class_470;
  vpMomentGravityCenter* tmp_add_class_471;
  vpMomentGravityCenterNormalized* tmp_add_class_472;
  vpMomentObject* tmp_add_class_473;
  vpMouseButton* tmp_add_class_474;
  vpMunkres* tmp_add_class_475;
  vpMutex* tmp_add_class_476;
  vpNetwork* tmp_add_class_477;
  vpNurbs* tmp_add_class_478;
  vpParallelPort* tmp_add_class_479;
  vpParallelPortException* tmp_add_class_480;
  vpParseArgv* tmp_add_class_481;
  vpPioneer* tmp_add_class_482;
  vpPioneerPan* tmp_add_class_483;
  vpPixelMeterConversion* tmp_add_class_484;
  vpPlane* tmp_add_class_485;
  vpPlaneEstimation* tmp_add_class_486;
  vpPlot* tmp_add_class_487;
  vpPlotCurve* tmp_add_class_488;
  vpPlotGraph* tmp_add_class_489;
  vpPoint* tmp_add_class_490;
  vpPolygon* tmp_add_class_491;
  vpPolygon3D* tmp_add_class_492;
  vpPose* tmp_add_class_493;
  vpPoseException* tmp_add_class_494;
  vpPoseFeatures* tmp_add_class_495;
  vpPoseSpecificFeature* tmp_add_class_496;
  vpPoseVector* tmp_add_class_497;
  vpProjectionDisplay* tmp_add_class_498;
  vpPtu46* tmp_add_class_499;
  vpQbDevice* tmp_add_class_500;
  vpQbSoftHand* tmp_add_class_501;
  vpQuadProg* tmp_add_class_502;
  vpQuaternionVector* tmp_add_class_503;
  vpRGBa* tmp_add_class_504;
  vpRGBf* tmp_add_class_505;
  vpRect* tmp_add_class_506;
  vpRectOriented* tmp_add_class_507;
  vpReflexTakktile2* tmp_add_class_508;
  vpRequest* tmp_add_class_509;
  vpRingLight* tmp_add_class_510;
  vpRobot* tmp_add_class_511;
  vpRobotCamera* tmp_add_class_512;
  vpRobotException* tmp_add_class_513;
  vpRobotSimulator* tmp_add_class_514;
  vpRobotTemplate* tmp_add_class_515;
  vpRobotWireFrameSimulator* tmp_add_class_516;
  vpRobust* tmp_add_class_517;
  vpRotationMatrix* tmp_add_class_518;
  vpRotationVector* tmp_add_class_519;
  vpRowVector* tmp_add_class_520;
  vpRxyzVector* tmp_add_class_521;
  vpRzyxVector* tmp_add_class_522;
  vpRzyzVector* tmp_add_class_523;
  vpScale* tmp_add_class_524;
  vpScanPoint* tmp_add_class_525;
  vpSerial* tmp_add_class_526;
  vpServer* tmp_add_class_527;
  vpServo* tmp_add_class_528;
  vpServoData* tmp_add_class_529;
  vpServoDisplay* tmp_add_class_530;
  vpServoException* tmp_add_class_531;
  vpServolens* tmp_add_class_532;
  vpSickLDMRS* tmp_add_class_533;
  vpSimulatorAfma6* tmp_add_class_534;
  vpSimulatorCamera* tmp_add_class_535;
  vpSimulatorException* tmp_add_class_536;
  vpSimulatorPioneer* tmp_add_class_537;
  vpSimulatorPioneerPan* tmp_add_class_538;
  vpSimulatorViper850* tmp_add_class_539;
  vpSphere* tmp_add_class_540;
  vpSubColVector* tmp_add_class_541;
  vpSubMatrix* tmp_add_class_542;
  vpSubRowVector* tmp_add_class_543;
  vpTemplateTracker* tmp_add_class_544;
  vpTemplateTrackerBSpline* tmp_add_class_545;
  vpTemplateTrackerDPoint* tmp_add_class_546;
  vpTemplateTrackerMI* tmp_add_class_547;
  vpTemplateTrackerMIBSpline* tmp_add_class_548;
  vpTemplateTrackerMIESM* tmp_add_class_549;
  vpTemplateTrackerMIForwardAdditional* tmp_add_class_550;
  vpTemplateTrackerMIForwardCompositional* tmp_add_class_551;
  vpTemplateTrackerMIInverseCompositional* tmp_add_class_552;
  vpTemplateTrackerPoint* tmp_add_class_553;
  vpTemplateTrackerPointCompo* tmp_add_class_554;
  vpTemplateTrackerPointSuppMIInv* tmp_add_class_555;
  vpTemplateTrackerSSD* tmp_add_class_556;
  vpTemplateTrackerSSDESM* tmp_add_class_557;
  vpTemplateTrackerSSDForwardAdditional* tmp_add_class_558;
  vpTemplateTrackerSSDForwardCompositional* tmp_add_class_559;
  vpTemplateTrackerSSDInverseCompositional* tmp_add_class_560;
  vpTemplateTrackerTriangle* tmp_add_class_561;
  vpTemplateTrackerWarp* tmp_add_class_562;
  vpTemplateTrackerWarpAffine* tmp_add_class_563;
  vpTemplateTrackerWarpHomography* tmp_add_class_564;
  vpTemplateTrackerWarpHomographySL3* tmp_add_class_565;
  vpTemplateTrackerWarpRT* tmp_add_class_566;
  vpTemplateTrackerWarpSRT* tmp_add_class_567;
  vpTemplateTrackerWarpTranslation* tmp_add_class_568;
  vpTemplateTrackerZNCC* tmp_add_class_569;
  vpTemplateTrackerZNCCForwardAdditional* tmp_add_class_570;
  vpTemplateTrackerZNCCInverseCompositional* tmp_add_class_571;
  vpTemplateTrackerZPoint* tmp_add_class_572;
  vpTemplateTrackerZone* tmp_add_class_573;
  vpThetaUVector* tmp_add_class_574;
  vpThread* tmp_add_class_575;
  vpTraceOutput* tmp_add_class_576;
  vpTracker* tmp_add_class_577;
  vpTrackingException* tmp_add_class_578;
  vpTranslationVector* tmp_add_class_579;
  vpTriangle* tmp_add_class_580;
  vpUDPClient* tmp_add_class_581;
  vpUDPServer* tmp_add_class_582;
  vpUniRand* tmp_add_class_583;
  vpUnicycle* tmp_add_class_584;
  vpV4l2Grabber* tmp_add_class_585;
  vpVelocityTwistMatrix* tmp_add_class_586;
  vpVideoReader* tmp_add_class_587;
  vpVideoWriter* tmp_add_class_588;
  vpViper* tmp_add_class_589;
  vpViper650* tmp_add_class_590;
  vpViper850* tmp_add_class_591;
  vpWireFrameSimulator* tmp_add_class_592;
  vpXmlConfigParserKeyPoint* tmp_add_class_593;
  vpXmlParser* tmp_add_class_594;
  vpXmlParserCamera* tmp_add_class_595;
  vpXmlParserHomogeneousMatrix* tmp_add_class_596;
  vpXmlParserRectOriented* tmp_add_class_597;

The GCC parameters:
  gcc -fdump-lang-raw -fkeep-inline-functions -c -x c++ -fpermissive -w "/tmp/AWYYY0LTCL/dump1.h"  -I/usr/include/opencv4 -I/usr/include/libxml2 -I/usr/include/eigen3 -I/usr/include/arm-linux-gnueabihf/opencv4/opencv2 -I/usr/include/eigen3/Eigen/src/Core/arch/HIP/hcc

