[2024-01-07T11:25:55+00:00] apt-get install libhinoko-dev libhinawa-dev abi-compliance-checker
Reading package lists...
Building dependency tree...
Reading state information...
libhinawa-dev is already the newest version (4.0.0-2).
libhinawa-dev set to manually installed.
abi-compliance-checker is already the newest version (2.3-2).
The following NEW packages will be installed:
  gir1.2-hinoko-1.0 libhinoko-dev libhinoko1
0 upgraded, 3 newly installed, 0 to remove and 35 not upgraded.
Need to get 123 kB of archives.
After this operation, 1046 kB of additional disk space will be used.
Get:1 http://deb.debian.org/debian unstable/main armhf libhinoko1 armhf 1.0.1-1 [20.0 kB]
Get:2 http://deb.debian.org/debian unstable/main armhf gir1.2-hinoko-1.0 armhf 1.0.1-1 [4896 B]
Get:3 http://deb.debian.org/debian unstable/main armhf libhinoko-dev armhf 1.0.1-1 [97.7 kB]
debconf: delaying package configuration, since apt-utils is not installed
Fetched 123 kB in 0s (491 kB/s)
Selecting previously unselected package libhinoko1:armhf.
(Reading database ... (Reading database ... 5%(Reading database ... 10%(Reading database ... 15%(Reading database ... 20%(Reading database ... 25%(Reading database ... 30%(Reading database ... 35%(Reading database ... 40%(Reading database ... 45%(Reading database ... 50%(Reading database ... 55%(Reading database ... 60%(Reading database ... 65%(Reading database ... 70%(Reading database ... 75%(Reading database ... 80%(Reading database ... 85%(Reading database ... 90%(Reading database ... 95%(Reading database ... 100%(Reading database ... 17621 files and directories currently installed.)
Preparing to unpack .../libhinoko1_1.0.1-1_armhf.deb ...
Unpacking libhinoko1:armhf (1.0.1-1) ...
Selecting previously unselected package gir1.2-hinoko-1.0:armhf.
Preparing to unpack .../gir1.2-hinoko-1.0_1.0.1-1_armhf.deb ...
Unpacking gir1.2-hinoko-1.0:armhf (1.0.1-1) ...
Selecting previously unselected package libhinoko-dev.
Preparing to unpack .../libhinoko-dev_1.0.1-1_armhf.deb ...
Unpacking libhinoko-dev (1.0.1-1) ...
Setting up libhinoko1:armhf (1.0.1-1) ...
Setting up gir1.2-hinoko-1.0:armhf (1.0.1-1) ...
Setting up libhinoko-dev (1.0.1-1) ...
Processing triggers for libc-bin (2.37-13) ...
Reading package lists...
Building dependency tree...
Reading state information...
0 upgraded, 0 newly installed, 0 to remove and 35 not upgraded.
