[2024-01-06T20:04:46+00:00] apt-get install libedataserverui4-dev abi-compliance-checker
Reading package lists...
Building dependency tree...
Reading state information...
libedataserverui4-dev is already the newest version (3.50.2-1).
libedataserverui4-dev set to manually installed.
abi-compliance-checker is already the newest version (2.3-2).
The following packages were automatically installed and are no longer required:
  at-spi2-common gir1.2-atk-1.0 gir1.2-atspi-2.0 gir1.2-cloudproviders-0.3.0
  gir1.2-edataserverui-1.2 gir1.2-gtk-3.0 libatk-bridge2.0-0
  libatk-bridge2.0-dev libatk1.0-0 libatk1.0-dev libatspi2.0-0 libatspi2.0-dev
  libcloudproviders-dev libdbus-1-dev libedataserverui-1.2-4
  libedataserverui1.2-dev libgtk-3-0 libgtk-3-common libgtk-3-dev
  libjavascriptcoregtk-4.1-0 libwebkit2gtk-4.1-0 libxtst-dev libxtst6
Use 'apt autoremove' to remove them.
0 upgraded, 0 newly installed, 0 to remove and 12 not upgraded.
Reading package lists...
Building dependency tree...
Reading state information...
The following packages will be REMOVED:
  at-spi2-common* gir1.2-atk-1.0* gir1.2-atspi-2.0*
  gir1.2-cloudproviders-0.3.0* gir1.2-edataserverui-1.2* gir1.2-gtk-3.0*
  libatk-bridge2.0-0* libatk-bridge2.0-dev* libatk1.0-0* libatk1.0-dev*
  libatspi2.0-0* libatspi2.0-dev* libcloudproviders-dev* libdbus-1-dev*
  libedataserverui-1.2-4* libedataserverui1.2-dev* libgtk-3-0*
  libgtk-3-common* libgtk-3-dev* libjavascriptcoregtk-4.1-0*
  libwebkit2gtk-4.1-0* libxtst-dev* libxtst6*
0 upgraded, 0 newly installed, 23 to remove and 12 not upgraded.
After this operation, 122 MB disk space will be freed.
(Reading database ... (Reading database ... 5%(Reading database ... 10%(Reading database ... 15%(Reading database ... 20%(Reading database ... 25%(Reading database ... 30%(Reading database ... 35%(Reading database ... 40%(Reading database ... 45%(Reading database ... 50%(Reading database ... 55%(Reading database ... 60%(Reading database ... 65%(Reading database ... 70%(Reading database ... 75%(Reading database ... 80%(Reading database ... 85%(Reading database ... 90%(Reading database ... 95%(Reading database ... 100%(Reading database ... 32882 files and directories currently installed.)
Removing libedataserverui1.2-dev:armhf (3.50.2-1) ...
Removing gir1.2-edataserverui-1.2:armhf (3.50.2-1) ...
Removing libedataserverui-1.2-4:armhf (3.50.2-1) ...
Removing libwebkit2gtk-4.1-0:armhf (2.42.4-1) ...
Removing libgtk-3-dev:armhf (3.24.39-1) ...
Removing gir1.2-gtk-3.0:armhf (3.24.39-1) ...
Removing libgtk-3-0:armhf (3.24.39-1) ...
Removing libatk-bridge2.0-dev:armhf (2.50.0-1+b1) ...
Removing libatk1.0-dev:armhf (2.50.0-1+b1) ...
Removing gir1.2-atk-1.0:armhf (2.50.0-1+b1) ...
Removing libatspi2.0-dev:armhf (2.50.0-1+b1) ...
Removing gir1.2-atspi-2.0:armhf (2.50.0-1+b1) ...
Removing libcloudproviders-dev:armhf (0.3.5-1) ...
Removing gir1.2-cloudproviders-0.3.0:armhf (0.3.5-1) ...
Removing libatk-bridge2.0-0:armhf (2.50.0-1+b1) ...
Removing libatspi2.0-0:armhf (2.50.0-1+b1) ...
Removing libdbus-1-dev:armhf (1.14.10-3) ...
Removing libgtk-3-common (3.24.39-1) ...
Removing libjavascriptcoregtk-4.1-0:armhf (2.42.4-1) ...
Removing libxtst-dev:armhf (2:1.2.3-1.1) ...
Removing libxtst6:armhf (2:1.2.3-1.1) ...
Removing libatk1.0-0:armhf (2.50.0-1+b1) ...
Removing at-spi2-common (2.50.0-1) ...
Processing triggers for libc-bin (2.37-13) ...
Processing triggers for sgml-base (1.31) ...
Processing triggers for libglib2.0-0:armhf (2.78.3-1) ...
(Reading database ... (Reading database ... 5%(Reading database ... 10%(Reading database ... 15%(Reading database ... 20%(Reading database ... 25%(Reading database ... 30%(Reading database ... 35%(Reading database ... 40%(Reading database ... 45%(Reading database ... 50%(Reading database ... 55%(Reading database ... 60%(Reading database ... 65%(Reading database ... 70%(Reading database ... 75%(Reading database ... 80%(Reading database ... 85%(Reading database ... 90%(Reading database ... 95%(Reading database ... 100%(Reading database ... 31728 files and directories currently installed.)
Purging configuration files for libgtk-3-0:armhf (3.24.39-1) ...
Purging configuration files for libdbus-1-dev:armhf (1.14.10-3) ...
Purging configuration files for libgtk-3-common (3.24.39-1) ...
