[2024-02-20T09:41:08+00:00] apt-get install gfortran-9 abi-compliance-checker
Reading package lists...
Building dependency tree...
Reading state information...
abi-compliance-checker is already the newest version (2.3-2).
Suggested packages:
  gfortran-9-doc libcoarrays-dev
The following NEW packages will be installed:
  gfortran-9 libgfortran-9-dev
0 upgraded, 2 newly installed, 0 to remove and 58 not upgraded.
Need to get 8418 kB of archives.
After this operation, 18.9 MB of additional disk space will be used.
Get:1 http://deb.debian.org/debian unstable/main armhf libgfortran-9-dev armhf 9.5.0-5 [289 kB]
Get:2 http://deb.debian.org/debian unstable/main armhf gfortran-9 armhf 9.5.0-5 [8129 kB]
debconf: delaying package configuration, since apt-utils is not installed
Fetched 8418 kB in 0s (45.9 MB/s)
Selecting previously unselected package libgfortran-9-dev:armhf.
(Reading database ... (Reading database ... 5%(Reading database ... 10%(Reading database ... 15%(Reading database ... 20%(Reading database ... 25%(Reading database ... 30%(Reading database ... 35%(Reading database ... 40%(Reading database ... 45%(Reading database ... 50%(Reading database ... 55%(Reading database ... 60%(Reading database ... 65%(Reading database ... 70%(Reading database ... 75%(Reading database ... 80%(Reading database ... 85%(Reading database ... 90%(Reading database ... 95%(Reading database ... 100%(Reading database ... 17665 files and directories currently installed.)
Preparing to unpack .../libgfortran-9-dev_9.5.0-5_armhf.deb ...
Unpacking libgfortran-9-dev:armhf (9.5.0-5) ...
Selecting previously unselected package gfortran-9.
Preparing to unpack .../gfortran-9_9.5.0-5_armhf.deb ...
Unpacking gfortran-9 (9.5.0-5) ...
Setting up libgfortran-9-dev:armhf (9.5.0-5) ...
Setting up gfortran-9 (9.5.0-5) ...
Reading package lists...
Building dependency tree...
Reading state information...
0 upgraded, 0 newly installed, 0 to remove and 58 not upgraded.
