[2024-01-08T13:54:13+00:00] apt-get install libx11-xcb-dev abi-compliance-checker
Reading package lists...
Building dependency tree...
Reading state information...
abi-compliance-checker is already the newest version (2.3-2).
The following NEW packages will be installed:
  libx11-xcb-dev libx11-xcb1
0 upgraded, 2 newly installed, 0 to remove and 16 not upgraded.
Need to get 465 kB of archives.
After this operation, 580 kB of additional disk space will be used.
Get:1 http://deb.debian.org/debian unstable/main armhf libx11-xcb1 armhf 2:1.8.7-1 [231 kB]
Get:2 http://deb.debian.org/debian unstable/main armhf libx11-xcb-dev armhf 2:1.8.7-1 [234 kB]
debconf: delaying package configuration, since apt-utils is not installed
Fetched 465 kB in 0s (1531 kB/s)
Selecting previously unselected package libx11-xcb1:armhf.
(Reading database ... (Reading database ... 5%(Reading database ... 10%(Reading database ... 15%(Reading database ... 20%(Reading database ... 25%(Reading database ... 30%(Reading database ... 35%(Reading database ... 40%(Reading database ... 45%(Reading database ... 50%(Reading database ... 55%(Reading database ... 60%(Reading database ... 65%(Reading database ... 70%(Reading database ... 75%(Reading database ... 80%(Reading database ... 85%(Reading database ... 90%(Reading database ... 95%(Reading database ... 100%(Reading database ... 17351 files and directories currently installed.)
Preparing to unpack .../libx11-xcb1_2%3a1.8.7-1_armhf.deb ...
Unpacking libx11-xcb1:armhf (2:1.8.7-1) ...
Selecting previously unselected package libx11-xcb-dev:armhf.
Preparing to unpack .../libx11-xcb-dev_2%3a1.8.7-1_armhf.deb ...
Unpacking libx11-xcb-dev:armhf (2:1.8.7-1) ...
Setting up libx11-xcb1:armhf (2:1.8.7-1) ...
Setting up libx11-xcb-dev:armhf (2:1.8.7-1) ...
Processing triggers for libc-bin (2.37-13) ...
Reading package lists...
Building dependency tree...
Reading state information...
0 upgraded, 0 newly installed, 0 to remove and 16 not upgraded.
