[2024-01-31T18:29:34+00:00] apt-get install libags-gui-dev libglib2.0-dev libcairo2-dev libgtk-4-dev abi-compliance-checker
Reading package lists...
Building dependency tree...
Reading state information...
libglib2.0-dev is already the newest version (2.78.3-2).
libglib2.0-dev set to manually installed.
abi-compliance-checker is already the newest version (2.3-2).
The following packages were automatically installed and are no longer required:
  libnghttp2-dev libpsl-dev libsoup-3.0-dev libsqlite3-dev
  libsysprof-capture-4-dev libxml2-dev
Use 'apt autoremove' to remove them.
The following additional packages will be installed:
  adwaita-icon-theme fontconfig gir1.2-agsgui-6.0 gir1.2-freedesktop-dev
  gir1.2-gdkpixbuf-2.0 gir1.2-graphene-1.0 gir1.2-gtk-4.0 gir1.2-harfbuzz-0.0
  gir1.2-pango-1.0 gtk-update-icon-cache hicolor-icon-theme libags-gui6
  libavahi-client3 libavahi-common-data libavahi-common3 libbz2-dev
  libcairo-script-interpreter2 libcloudproviders0 libcolord2 libcups2
  libdatrie-dev libdatrie1 libdeflate-dev libdeflate0 libdrm-amdgpu1
  libdrm-common libdrm-nouveau2 libdrm-radeon1 libdrm2 libedit2 libegl-dev
  libegl-mesa0 libegl1 libegl1-mesa-dev libepoxy-dev libepoxy0
  libfontconfig-dev libfreetype-dev libfribidi-dev libfribidi0 libgbm1
  libgdk-pixbuf-2.0-0 libgdk-pixbuf-2.0-dev libgdk-pixbuf2.0-bin
  libgdk-pixbuf2.0-common libgl-dev libgl1 libgl1-mesa-dri libglapi-mesa
  libgles-dev libgles1 libgles2 libglvnd-core-dev libglvnd-dev libglvnd0
  libglx-dev libglx-mesa0 libglx0 libgraphene-1.0-0 libgraphene-1.0-dev
  libgraphite2-3 libgraphite2-dev libgtk-4-1 libgtk-4-common
  libharfbuzz-cairo0 libharfbuzz-dev libharfbuzz-gobject0 libharfbuzz-icu0
  libharfbuzz-subset0 libharfbuzz0b libice-dev libice6 libjbig-dev libjbig0
  libjpeg-dev libjpeg62-turbo libjpeg62-turbo-dev liblcms2-2 liblerc-dev
  liblerc4 libllvm17 liblzma-dev liblzo2-2 libopengl-dev libopengl0
  libpango-1.0-0 libpango1.0-dev libpangocairo-1.0-0 libpangoft2-1.0-0
  libpangoxft-1.0-0 libpixman-1-dev libpng-dev libpthread-stubs0-dev
  libsensors-config libsensors5 libsharpyuv-dev libsharpyuv0 libsm-dev libsm6
  libthai-data libthai-dev libthai0 libtiff-dev libtiff6 libtiffxx6
  libvulkan-dev libvulkan1 libwayland-bin libwayland-client0
  libwayland-cursor0 libwayland-dev libwayland-egl1 libwayland-server0
  libwebp-dev libwebp7 libwebpdecoder3 libwebpdemux2 libwebpmux3 libx11-dev
  libx11-xcb1 libxau-dev libxcb-dri2-0 libxcb-dri3-0 libxcb-glx0
  libxcb-present0 libxcb-randr0 libxcb-render0-dev libxcb-shm0-dev
  libxcb-sync1 libxcb-xfixes0 libxcb1-dev libxcomposite-dev libxcomposite1
  libxcursor-dev libxcursor1 libxdamage-dev libxdamage1 libxdmcp-dev
  libxext-dev libxfixes-dev libxfixes3 libxft-dev libxft2 libxi-dev libxi6
  libxinerama-dev libxinerama1 libxkbcommon-dev libxkbcommon0 libxrandr-dev
  libxrandr2 libxrender-dev libxshmfence1 libxxf86vm1 libz3-4 libzstd-dev
  pango1.0-tools shared-mime-info wayland-protocols x11-common
  x11proto-core-dev x11proto-dev xkb-data xorg-sgml-doctools xtrans-dev
Suggested packages:
  libags-gui-doc libcairo2-doc colord cups-common libdatrie-doc freetype2-doc
  libgraphene-doc libgraphite2-utils gvfs libgtk-4-doc gtk-4-examples
  libice-doc liblcms2-utils liblzma-doc libpango1.0-doc lm-sensors libsm-doc
  libthai-doc libwayland-doc libx11-doc libxcb-doc libxext-doc graphicsmagick
Recommended packages:
  librsvg2-common bzip2-doc libgtk-4-bin iso-codes libgtk-4-media-gstreamer
  libpng-tools mesa-vulkan-drivers | vulkan-icd
The following NEW packages will be installed:
  adwaita-icon-theme fontconfig gir1.2-agsgui-6.0 gir1.2-freedesktop-dev
  gir1.2-gdkpixbuf-2.0 gir1.2-graphene-1.0 gir1.2-gtk-4.0 gir1.2-harfbuzz-0.0
  gir1.2-pango-1.0 gtk-update-icon-cache hicolor-icon-theme libags-gui-dev
  libags-gui6 libavahi-client3 libavahi-common-data libavahi-common3
  libbz2-dev libcairo-script-interpreter2 libcairo2-dev libcloudproviders0
  libcolord2 libcups2 libdatrie-dev libdatrie1 libdeflate-dev libdeflate0
  libdrm-amdgpu1 libdrm-common libdrm-nouveau2 libdrm-radeon1 libdrm2 libedit2
  libegl-dev libegl-mesa0 libegl1 libegl1-mesa-dev libepoxy-dev libepoxy0
  libfontconfig-dev libfreetype-dev libfribidi-dev libfribidi0 libgbm1
  libgdk-pixbuf-2.0-0 libgdk-pixbuf-2.0-dev libgdk-pixbuf2.0-bin
  libgdk-pixbuf2.0-common libgl-dev libgl1 libgl1-mesa-dri libglapi-mesa
  libgles-dev libgles1 libgles2 libglvnd-core-dev libglvnd-dev libglvnd0
  libglx-dev libglx-mesa0 libglx0 libgraphene-1.0-0 libgraphene-1.0-dev
  libgraphite2-3 libgraphite2-dev libgtk-4-1 libgtk-4-common libgtk-4-dev
  libharfbuzz-cairo0 libharfbuzz-dev libharfbuzz-gobject0 libharfbuzz-icu0
  libharfbuzz-subset0 libharfbuzz0b libice-dev libice6 libjbig-dev libjbig0
  libjpeg-dev libjpeg62-turbo libjpeg62-turbo-dev liblcms2-2 liblerc-dev
  liblerc4 libllvm17 liblzma-dev liblzo2-2 libopengl-dev libopengl0
  libpango-1.0-0 libpango1.0-dev libpangocairo-1.0-0 libpangoft2-1.0-0
  libpangoxft-1.0-0 libpixman-1-dev libpng-dev libpthread-stubs0-dev
  libsensors-config libsensors5 libsharpyuv-dev libsharpyuv0 libsm-dev libsm6
  libthai-data libthai-dev libthai0 libtiff-dev libtiff6 libtiffxx6
  libvulkan-dev libvulkan1 libwayland-bin libwayland-client0
  libwayland-cursor0 libwayland-dev libwayland-egl1 libwayland-server0
  libwebp-dev libwebp7 libwebpdecoder3 libwebpdemux2 libwebpmux3 libx11-dev
  libx11-xcb1 libxau-dev libxcb-dri2-0 libxcb-dri3-0 libxcb-glx0
  libxcb-present0 libxcb-randr0 libxcb-render0-dev libxcb-shm0-dev
  libxcb-sync1 libxcb-xfixes0 libxcb1-dev libxcomposite-dev libxcomposite1
  libxcursor-dev libxcursor1 libxdamage-dev libxdamage1 libxdmcp-dev
  libxext-dev libxfixes-dev libxfixes3 libxft-dev libxft2 libxi-dev libxi6
  libxinerama-dev libxinerama1 libxkbcommon-dev libxkbcommon0 libxrandr-dev
  libxrandr2 libxrender-dev libxshmfence1 libxxf86vm1 libz3-4 libzstd-dev
  pango1.0-tools shared-mime-info wayland-protocols x11-common
  x11proto-core-dev x11proto-dev xkb-data xorg-sgml-doctools xtrans-dev
0 upgraded, 168 newly installed, 0 to remove and 50 not upgraded.
Need to get 71.9 MB of archives.
After this operation, 318 MB of additional disk space will be used.
Get:1 http://deb.debian.org/debian unstable/main armhf hicolor-icon-theme all 0.17-2 [11.4 kB]
Get:2 http://deb.debian.org/debian unstable/main armhf libgdk-pixbuf2.0-common all 2.42.10+dfsg-3 [307 kB]
Get:3 http://deb.debian.org/debian unstable/main armhf shared-mime-info armhf 2.4-1 [746 kB]
Get:4 http://deb.debian.org/debian unstable/main armhf libjpeg62-turbo armhf 1:2.1.5-2+b2 [143 kB]
Get:5 http://deb.debian.org/debian unstable/main armhf libdeflate0 armhf 1.18-1 [38.5 kB]
Get:6 http://deb.debian.org/debian unstable/main armhf libjbig0 armhf 2.1-6.1 [27.1 kB]
Get:7 http://deb.debian.org/debian unstable/main armhf liblerc4 armhf 4.0.0+ds-4 [137 kB]
Get:8 http://deb.debian.org/debian unstable/main armhf libsharpyuv0 armhf 1.3.2-0.3 [105 kB]
Get:9 http://deb.debian.org/debian unstable/main armhf libwebp7 armhf 1.3.2-0.3 [260 kB]
Get:10 http://deb.debian.org/debian unstable/main armhf libtiff6 armhf 4.5.1+git230720-4 [301 kB]
Get:11 http://deb.debian.org/debian unstable/main armhf libgdk-pixbuf-2.0-0 armhf 2.42.10+dfsg-3 [123 kB]
Get:12 http://deb.debian.org/debian unstable/main armhf gtk-update-icon-cache armhf 3.24.41-1 [44.6 kB]
Get:13 http://deb.debian.org/debian unstable/main armhf adwaita-icon-theme all 45.0-2 [739 kB]
Get:14 http://deb.debian.org/debian unstable/main armhf fontconfig armhf 2.14.2-6+b1 [461 kB]
Get:15 http://deb.debian.org/debian unstable/main armhf gir1.2-gdkpixbuf-2.0 armhf 2.42.10+dfsg-3 [13.8 kB]
Get:16 http://deb.debian.org/debian unstable/main armhf libgraphene-1.0-0 armhf 1.10.8-3 [42.5 kB]
Get:17 http://deb.debian.org/debian unstable/main armhf gir1.2-graphene-1.0 armhf 1.10.8-3 [12.7 kB]
Get:18 http://deb.debian.org/debian unstable/main armhf libgraphite2-3 armhf 1.3.14-2 [63.2 kB]
Get:19 http://deb.debian.org/debian unstable/main armhf libharfbuzz0b armhf 8.3.0-2 [2155 kB]
Get:20 http://deb.debian.org/debian unstable/main armhf libharfbuzz-gobject0 armhf 8.3.0-2 [1782 kB]
Get:21 http://deb.debian.org/debian unstable/main armhf gir1.2-harfbuzz-0.0 armhf 8.3.0-2 [1794 kB]
Get:22 http://deb.debian.org/debian unstable/main armhf libfribidi0 armhf 1.0.13-3+b1 [69.4 kB]
Get:23 http://deb.debian.org/debian unstable/main armhf libthai-data all 0.1.29-2 [168 kB]
Get:24 http://deb.debian.org/debian unstable/main armhf libdatrie1 armhf 0.2.13-3 [34.4 kB]
Get:25 http://deb.debian.org/debian unstable/main armhf libthai0 armhf 0.1.29-2 [45.8 kB]
Get:26 http://deb.debian.org/debian unstable/main armhf libpango-1.0-0 armhf 1.51.0+ds-4 [192 kB]
Get:27 http://deb.debian.org/debian unstable/main armhf libpangoft2-1.0-0 armhf 1.51.0+ds-4 [41.2 kB]
Get:28 http://deb.debian.org/debian unstable/main armhf libpangocairo-1.0-0 armhf 1.51.0+ds-4 [31.3 kB]
Get:29 http://deb.debian.org/debian unstable/main armhf libxft2 armhf 2.3.6-1 [53.8 kB]
Get:30 http://deb.debian.org/debian unstable/main armhf libpangoxft-1.0-0 armhf 1.51.0+ds-4 [25.0 kB]
Get:31 http://deb.debian.org/debian unstable/main armhf gir1.2-pango-1.0 armhf 1.51.0+ds-4 [38.4 kB]
Get:32 http://deb.debian.org/debian unstable/main armhf liblzo2-2 armhf 2.10-2 [50.7 kB]
Get:33 http://deb.debian.org/debian unstable/main armhf libcairo-script-interpreter2 armhf 1.18.0-1+b1 [49.7 kB]
Get:34 http://deb.debian.org/debian unstable/main armhf libcloudproviders0 armhf 0.3.5-1 [24.0 kB]
Get:35 http://deb.debian.org/debian unstable/main armhf liblcms2-2 armhf 2.14-2 [125 kB]
Get:36 http://deb.debian.org/debian unstable/main armhf libcolord2 armhf 1.4.6-5 [121 kB]
Get:37 http://deb.debian.org/debian unstable/main armhf libavahi-common-data armhf 0.8-13+b1 [111 kB]
Get:38 http://deb.debian.org/debian unstable/main armhf libavahi-common3 armhf 0.8-13+b1 [40.1 kB]
Get:39 http://deb.debian.org/debian unstable/main armhf libavahi-client3 armhf 0.8-13+b1 [43.4 kB]
Get:40 http://deb.debian.org/debian unstable/main armhf libcups2 armhf 2.4.7-1+b1 [212 kB]
Get:41 http://deb.debian.org/debian unstable/main armhf libepoxy0 armhf 1.5.10-1+b2 [167 kB]
Get:42 http://deb.debian.org/debian unstable/main armhf libwayland-client0 armhf 1.22.0-2.1 [20.0 kB]
Get:43 http://deb.debian.org/debian unstable/main armhf libwayland-egl1 armhf 1.22.0-2.1 [5124 B]
Get:44 http://deb.debian.org/debian unstable/main armhf libxfixes3 armhf 1:6.0.0-2 [21.1 kB]
Get:45 http://deb.debian.org/debian unstable/main armhf libxcursor1 armhf 1:1.2.1-1 [37.9 kB]
Get:46 http://deb.debian.org/debian unstable/main armhf libxdamage1 armhf 1:1.1.6-1 [14.6 kB]
Get:47 http://deb.debian.org/debian unstable/main armhf libxi6 armhf 2:1.8-1+b1 [78.6 kB]
Get:48 http://deb.debian.org/debian unstable/main armhf libxinerama1 armhf 2:1.1.4-3 [17.4 kB]
Get:49 http://deb.debian.org/debian unstable/main armhf xkb-data all 2.38-2 [782 kB]
Get:50 http://deb.debian.org/debian unstable/main armhf libxkbcommon0 armhf 1.6.0-1 [96.3 kB]
Get:51 http://deb.debian.org/debian unstable/main armhf libxrandr2 armhf 2:1.5.2-2+b1 [36.0 kB]
Get:52 http://deb.debian.org/debian unstable/main armhf libgtk-4-common all 4.12.5+ds-2 [2184 kB]
Get:53 http://deb.debian.org/debian unstable/main armhf libgtk-4-1 armhf 4.12.5+ds-2 [2363 kB]
Get:54 http://deb.debian.org/debian unstable/main armhf gir1.2-gtk-4.0 armhf 4.12.5+ds-2 [202 kB]
Get:55 http://deb.debian.org/debian unstable/main armhf libags-gui6 armhf 6.3.5-1 [107 kB]
Get:56 http://deb.debian.org/debian unstable/main armhf gir1.2-agsgui-6.0 armhf 6.3.5-1 [80.9 kB]
Get:57 http://deb.debian.org/debian unstable/main armhf gir1.2-freedesktop-dev armhf 1.78.1-12 [40.2 kB]
Get:58 http://deb.debian.org/debian unstable/main armhf libags-gui-dev armhf 6.3.5-1 [102 kB]
Get:59 http://deb.debian.org/debian unstable/main armhf libbz2-dev armhf 1.0.8-5+b2 [28.2 kB]
Get:60 http://deb.debian.org/debian unstable/main armhf libpng-dev armhf 1.6.42-1 [344 kB]
Get:61 http://deb.debian.org/debian unstable/main armhf libfreetype-dev armhf 2.13.2+dfsg-1+b1 [546 kB]
Get:62 http://deb.debian.org/debian unstable/main armhf libfontconfig-dev armhf 2.14.2-6+b1 [394 kB]
Get:63 http://deb.debian.org/debian unstable/main armhf libpixman-1-dev armhf 0.42.2-1 [487 kB]
Get:64 http://deb.debian.org/debian unstable/main armhf x11-common all 1:7.7+23 [252 kB]
Get:65 http://deb.debian.org/debian unstable/main armhf libice6 armhf 2:1.0.10-1 [51.9 kB]
Get:66 http://deb.debian.org/debian unstable/main armhf libsm6 armhf 2:1.2.3-1 [33.0 kB]
Get:67 http://deb.debian.org/debian unstable/main armhf xorg-sgml-doctools all 1:1.11-1.1 [22.1 kB]
Get:68 http://deb.debian.org/debian unstable/main armhf x11proto-dev all 2023.2-1 [598 kB]
Get:69 http://deb.debian.org/debian unstable/main armhf x11proto-core-dev all 2023.2-1 [3288 B]
Get:70 http://deb.debian.org/debian unstable/main armhf libice-dev armhf 2:1.0.10-1 [61.9 kB]
Get:71 http://deb.debian.org/debian unstable/main armhf libsm-dev armhf 2:1.2.3-1 [36.1 kB]
Get:72 http://deb.debian.org/debian unstable/main armhf libxau-dev armhf 1:1.0.9-1 [22.4 kB]
Get:73 http://deb.debian.org/debian unstable/main armhf libxdmcp-dev armhf 1:1.1.2-3 [40.7 kB]
Get:74 http://deb.debian.org/debian unstable/main armhf xtrans-dev all 1.4.0-1 [98.7 kB]
Get:75 http://deb.debian.org/debian unstable/main armhf libpthread-stubs0-dev armhf 0.4-1 [5344 B]
Get:76 http://deb.debian.org/debian unstable/main armhf libxcb1-dev armhf 1.15-1 [179 kB]
Get:77 http://deb.debian.org/debian unstable/main armhf libx11-dev armhf 2:1.8.7-1 [816 kB]
Get:78 http://deb.debian.org/debian unstable/main armhf libxcb-render0-dev armhf 1.15-1 [118 kB]
Get:79 http://deb.debian.org/debian unstable/main armhf libxcb-shm0-dev armhf 1.15-1 [107 kB]
Get:80 http://deb.debian.org/debian unstable/main armhf libxext-dev armhf 2:1.3.4-1+b1 [103 kB]
Get:81 http://deb.debian.org/debian unstable/main armhf libxrender-dev armhf 1:0.9.10-1.1 [38.1 kB]
Get:82 http://deb.debian.org/debian unstable/main armhf libcairo2-dev armhf 1.18.0-1+b1 [43.0 kB]
Get:83 http://deb.debian.org/debian unstable/main armhf libdatrie-dev armhf 0.2.13-3 [15.2 kB]
Get:84 http://deb.debian.org/debian unstable/main armhf libdeflate-dev armhf 1.18-1 [46.5 kB]
Get:85 http://deb.debian.org/debian unstable/main armhf libdrm-common all 2.4.120-1 [7620 B]
Get:86 http://deb.debian.org/debian unstable/main armhf libdrm2 armhf 2.4.120-1 [33.7 kB]
Get:87 http://deb.debian.org/debian unstable/main armhf libdrm-amdgpu1 armhf 2.4.120-1 [19.9 kB]
Get:88 http://deb.debian.org/debian unstable/main armhf libdrm-nouveau2 armhf 2.4.120-1 [16.8 kB]
Get:89 http://deb.debian.org/debian unstable/main armhf libdrm-radeon1 armhf 2.4.120-1 [19.5 kB]
Get:90 http://deb.debian.org/debian unstable/main armhf libedit2 armhf 3.1-20230828-1 [76.8 kB]
Get:91 http://deb.debian.org/debian unstable/main armhf libglvnd0 armhf 1.7.0-1 [52.3 kB]
Get:92 http://deb.debian.org/debian unstable/main armhf libwayland-server0 armhf 1.22.0-2.1 [26.1 kB]
Get:93 http://deb.debian.org/debian unstable/main armhf libxcb-randr0 armhf 1.15-1 [116 kB]
Get:94 http://deb.debian.org/debian unstable/main armhf libgbm1 armhf 23.3.4-1 [36.6 kB]
Get:95 http://deb.debian.org/debian unstable/main armhf libglapi-mesa armhf 23.3.4-1 [42.4 kB]
Get:96 http://deb.debian.org/debian unstable/main armhf libx11-xcb1 armhf 2:1.8.7-1 [231 kB]
Get:97 http://deb.debian.org/debian unstable/main armhf libxcb-dri2-0 armhf 1.15-1 [107 kB]
Get:98 http://deb.debian.org/debian unstable/main armhf libxcb-dri3-0 armhf 1.15-1 [107 kB]
Get:99 http://deb.debian.org/debian unstable/main armhf libxcb-present0 armhf 1.15-1 [105 kB]
Get:100 http://deb.debian.org/debian unstable/main armhf libxcb-sync1 armhf 1.15-1 [108 kB]
Get:101 http://deb.debian.org/debian unstable/main armhf libxcb-xfixes0 armhf 1.15-1 [110 kB]
Get:102 http://deb.debian.org/debian unstable/main armhf libxshmfence1 armhf 1.3-1 [8592 B]
Get:103 http://deb.debian.org/debian unstable/main armhf libegl-mesa0 armhf 23.3.4-1 [97.8 kB]
Get:104 http://deb.debian.org/debian unstable/main armhf libegl1 armhf 1.7.0-1 [28.7 kB]
Get:105 http://deb.debian.org/debian unstable/main armhf libxcb-glx0 armhf 1.15-1 [120 kB]
Get:106 http://deb.debian.org/debian unstable/main armhf libxxf86vm1 armhf 1:1.1.4-1+b2 [20.2 kB]
Get:107 http://deb.debian.org/debian unstable/main armhf libvulkan1 armhf 1.3.275.0-1 [109 kB]
Get:108 http://deb.debian.org/debian unstable/main armhf libz3-4 armhf 4.8.12-3.1+b2 [6324 kB]
Get:109 http://deb.debian.org/debian unstable/main armhf libllvm17 armhf 1:17.0.6-5 [21.6 MB]
Get:110 http://deb.debian.org/debian unstable/main armhf libsensors-config all 1:3.6.0-8 [14.4 kB]
Get:111 http://deb.debian.org/debian unstable/main armhf libsensors5 armhf 1:3.6.0-8 [31.6 kB]
Get:112 http://deb.debian.org/debian unstable/main armhf libgl1-mesa-dri armhf 23.3.4-1 [6400 kB]
Get:113 http://deb.debian.org/debian unstable/main armhf libglx-mesa0 armhf 23.3.4-1 [130 kB]
Get:114 http://deb.debian.org/debian unstable/main armhf libglx0 armhf 1.7.0-1 [32.2 kB]
Get:115 http://deb.debian.org/debian unstable/main armhf libgl1 armhf 1.7.0-1 [90.8 kB]
Get:116 http://deb.debian.org/debian unstable/main armhf libglx-dev armhf 1.7.0-1 [15.5 kB]
Get:117 http://deb.debian.org/debian unstable/main armhf libgl-dev armhf 1.7.0-1 [100 kB]
Get:118 http://deb.debian.org/debian unstable/main armhf libegl-dev armhf 1.7.0-1 [19.2 kB]
Get:119 http://deb.debian.org/debian unstable/main armhf libglvnd-core-dev armhf 1.7.0-1 [13.1 kB]
Get:120 http://deb.debian.org/debian unstable/main armhf libgles1 armhf 1.7.0-1 [12.0 kB]
Get:121 http://deb.debian.org/debian unstable/main armhf libgles2 armhf 1.7.0-1 [17.4 kB]
Get:122 http://deb.debian.org/debian unstable/main armhf libgles-dev armhf 1.7.0-1 [50.5 kB]
Get:123 http://deb.debian.org/debian unstable/main armhf libopengl0 armhf 1.7.0-1 [31.9 kB]
Get:124 http://deb.debian.org/debian unstable/main armhf libopengl-dev armhf 1.7.0-1 [5104 B]
Get:125 http://deb.debian.org/debian unstable/main armhf libglvnd-dev armhf 1.7.0-1 [4868 B]
Get:126 http://deb.debian.org/debian unstable/main armhf libegl1-mesa-dev armhf 23.3.4-1 [20.4 kB]
Get:127 http://deb.debian.org/debian unstable/main armhf libepoxy-dev armhf 1.5.10-1+b2 [127 kB]
Get:128 http://deb.debian.org/debian unstable/main armhf libfribidi-dev armhf 1.0.13-3+b1 [109 kB]
Get:129 http://deb.debian.org/debian unstable/main armhf libgdk-pixbuf2.0-bin armhf 2.42.10+dfsg-3 [17.5 kB]
Get:130 http://deb.debian.org/debian unstable/main armhf libjpeg62-turbo-dev armhf 1:2.1.5-2+b2 [260 kB]
Get:131 http://deb.debian.org/debian unstable/main armhf libjpeg-dev armhf 1:2.1.5-2+b2 [72.1 kB]
Get:132 http://deb.debian.org/debian unstable/main armhf libjbig-dev armhf 2.1-6.1 [27.5 kB]
Get:133 http://deb.debian.org/debian unstable/main armhf liblzma-dev armhf 5.4.5-0.3 [281 kB]
Get:134 http://deb.debian.org/debian unstable/main armhf libzstd-dev armhf 1.5.5+dfsg2-2 [322 kB]
Get:135 http://deb.debian.org/debian unstable/main armhf libwebpdemux2 armhf 1.3.2-0.3 [106 kB]
Get:136 http://deb.debian.org/debian unstable/main armhf libwebpmux3 armhf 1.3.2-0.3 [116 kB]
Get:137 http://deb.debian.org/debian unstable/main armhf libwebpdecoder3 armhf 1.3.2-0.3 [176 kB]
Get:138 http://deb.debian.org/debian unstable/main armhf libsharpyuv-dev armhf 1.3.2-0.3 [108 kB]
Get:139 http://deb.debian.org/debian unstable/main armhf libwebp-dev armhf 1.3.2-0.3 [381 kB]
Get:140 http://deb.debian.org/debian unstable/main armhf libtiffxx6 armhf 4.5.1+git230720-4 [149 kB]
Get:141 http://deb.debian.org/debian unstable/main armhf liblerc-dev armhf 4.0.0+ds-4 [153 kB]
Get:142 http://deb.debian.org/debian unstable/main armhf libtiff-dev armhf 4.5.1+git230720-4 [441 kB]
Get:143 http://deb.debian.org/debian unstable/main armhf libgdk-pixbuf-2.0-dev armhf 2.42.10+dfsg-3 [52.1 kB]
Get:144 http://deb.debian.org/debian unstable/main armhf libgraphene-1.0-dev armhf 1.10.8-3 [61.4 kB]
Get:145 http://deb.debian.org/debian unstable/main armhf libgraphite2-dev armhf 1.3.14-2 [20.0 kB]
Get:146 http://deb.debian.org/debian unstable/main armhf libharfbuzz-icu0 armhf 8.3.0-2 [1768 kB]
Get:147 http://deb.debian.org/debian unstable/main armhf libharfbuzz-subset0 armhf 8.3.0-2 [2159 kB]
Get:148 http://deb.debian.org/debian unstable/main armhf libharfbuzz-cairo0 armhf 8.3.0-2 [1791 kB]
Get:149 http://deb.debian.org/debian unstable/main armhf libharfbuzz-dev armhf 8.3.0-2 [1896 kB]
Get:150 http://deb.debian.org/debian unstable/main armhf libthai-dev armhf 0.1.29-2 [21.5 kB]
Get:151 http://deb.debian.org/debian unstable/main armhf libxft-dev armhf 2.3.6-1 [73.2 kB]
Get:152 http://deb.debian.org/debian unstable/main armhf pango1.0-tools armhf 1.51.0+ds-4 [38.0 kB]
Get:153 http://deb.debian.org/debian unstable/main armhf libpango1.0-dev armhf 1.51.0+ds-4 [153 kB]
Get:154 http://deb.debian.org/debian unstable/main armhf libwayland-cursor0 armhf 1.22.0-2.1 [9908 B]
Get:155 http://deb.debian.org/debian unstable/main armhf libwayland-bin armhf 1.22.0-2.1 [17.7 kB]
Get:156 http://deb.debian.org/debian unstable/main armhf libwayland-dev armhf 1.22.0-2.1 [70.3 kB]
Get:157 http://deb.debian.org/debian unstable/main armhf libxcomposite1 armhf 1:0.4.5-1 [16.1 kB]
Get:158 http://deb.debian.org/debian unstable/main armhf libxfixes-dev armhf 1:6.0.0-2 [23.3 kB]
Get:159 http://deb.debian.org/debian unstable/main armhf libxcomposite-dev armhf 1:0.4.5-1 [19.8 kB]
Get:160 http://deb.debian.org/debian unstable/main armhf libxcursor-dev armhf 1:1.2.1-1 [49.3 kB]
Get:161 http://deb.debian.org/debian unstable/main armhf libxdamage-dev armhf 1:1.1.6-1 [14.5 kB]
Get:162 http://deb.debian.org/debian unstable/main armhf libxi-dev armhf 2:1.8-1+b1 [239 kB]
Get:163 http://deb.debian.org/debian unstable/main armhf libxinerama-dev armhf 2:1.1.4-3 [19.8 kB]
Get:164 http://deb.debian.org/debian unstable/main armhf libxkbcommon-dev armhf 1.6.0-1 [52.6 kB]
Get:165 http://deb.debian.org/debian unstable/main armhf libxrandr-dev armhf 2:1.5.2-2+b1 [44.3 kB]
Get:166 http://deb.debian.org/debian unstable/main armhf libvulkan-dev armhf 1.3.275.0-1 [1310 kB]
Get:167 http://deb.debian.org/debian unstable/main armhf wayland-protocols all 1.33-1 [80.2 kB]
Get:168 http://deb.debian.org/debian unstable/main armhf libgtk-4-dev armhf 4.12.5+ds-2 [936 kB]
debconf: delaying package configuration, since apt-utils is not installed
Fetched 71.9 MB in 4s (18.8 MB/s)
Selecting previously unselected package hicolor-icon-theme.
(Reading database ... (Reading database ... 5%(Reading database ... 10%(Reading database ... 15%(Reading database ... 20%(Reading database ... 25%(Reading database ... 30%(Reading database ... 35%(Reading database ... 40%(Reading database ... 45%(Reading database ... 50%(Reading database ... 55%(Reading database ... 60%(Reading database ... 65%(Reading database ... 70%(Reading database ... 75%(Reading database ... 80%(Reading database ... 85%(Reading database ... 90%(Reading database ... 95%(Reading database ... 100%(Reading database ... 22262 files and directories currently installed.)
Preparing to unpack .../000-hicolor-icon-theme_0.17-2_all.deb ...
Unpacking hicolor-icon-theme (0.17-2) ...
Selecting previously unselected package libgdk-pixbuf2.0-common.
Preparing to unpack .../001-libgdk-pixbuf2.0-common_2.42.10+dfsg-3_all.deb ...
Unpacking libgdk-pixbuf2.0-common (2.42.10+dfsg-3) ...
Selecting previously unselected package shared-mime-info.
Preparing to unpack .../002-shared-mime-info_2.4-1_armhf.deb ...
Unpacking shared-mime-info (2.4-1) ...
Selecting previously unselected package libjpeg62-turbo:armhf.
Preparing to unpack .../003-libjpeg62-turbo_1%3a2.1.5-2+b2_armhf.deb ...
Unpacking libjpeg62-turbo:armhf (1:2.1.5-2+b2) ...
Selecting previously unselected package libdeflate0:armhf.
Preparing to unpack .../004-libdeflate0_1.18-1_armhf.deb ...
Unpacking libdeflate0:armhf (1.18-1) ...
Selecting previously unselected package libjbig0:armhf.
Preparing to unpack .../005-libjbig0_2.1-6.1_armhf.deb ...
Unpacking libjbig0:armhf (2.1-6.1) ...
Selecting previously unselected package liblerc4:armhf.
Preparing to unpack .../006-liblerc4_4.0.0+ds-4_armhf.deb ...
Unpacking liblerc4:armhf (4.0.0+ds-4) ...
Selecting previously unselected package libsharpyuv0:armhf.
Preparing to unpack .../007-libsharpyuv0_1.3.2-0.3_armhf.deb ...
Unpacking libsharpyuv0:armhf (1.3.2-0.3) ...
Selecting previously unselected package libwebp7:armhf.
Preparing to unpack .../008-libwebp7_1.3.2-0.3_armhf.deb ...
Unpacking libwebp7:armhf (1.3.2-0.3) ...
Selecting previously unselected package libtiff6:armhf.
Preparing to unpack .../009-libtiff6_4.5.1+git230720-4_armhf.deb ...
Unpacking libtiff6:armhf (4.5.1+git230720-4) ...
Selecting previously unselected package libgdk-pixbuf-2.0-0:armhf.
Preparing to unpack .../010-libgdk-pixbuf-2.0-0_2.42.10+dfsg-3_armhf.deb ...
Unpacking libgdk-pixbuf-2.0-0:armhf (2.42.10+dfsg-3) ...
Selecting previously unselected package gtk-update-icon-cache.
Preparing to unpack .../011-gtk-update-icon-cache_3.24.41-1_armhf.deb ...
Unpacking gtk-update-icon-cache (3.24.41-1) ...
Selecting previously unselected package adwaita-icon-theme.
Preparing to unpack .../012-adwaita-icon-theme_45.0-2_all.deb ...
Unpacking adwaita-icon-theme (45.0-2) ...
Selecting previously unselected package fontconfig.
Preparing to unpack .../013-fontconfig_2.14.2-6+b1_armhf.deb ...
Unpacking fontconfig (2.14.2-6+b1) ...
Selecting previously unselected package gir1.2-gdkpixbuf-2.0:armhf.
Preparing to unpack .../014-gir1.2-gdkpixbuf-2.0_2.42.10+dfsg-3_armhf.deb ...
Unpacking gir1.2-gdkpixbuf-2.0:armhf (2.42.10+dfsg-3) ...
Selecting previously unselected package libgraphene-1.0-0:armhf.
Preparing to unpack .../015-libgraphene-1.0-0_1.10.8-3_armhf.deb ...
Unpacking libgraphene-1.0-0:armhf (1.10.8-3) ...
Selecting previously unselected package gir1.2-graphene-1.0:armhf.
Preparing to unpack .../016-gir1.2-graphene-1.0_1.10.8-3_armhf.deb ...
Unpacking gir1.2-graphene-1.0:armhf (1.10.8-3) ...
Selecting previously unselected package libgraphite2-3:armhf.
Preparing to unpack .../017-libgraphite2-3_1.3.14-2_armhf.deb ...
Unpacking libgraphite2-3:armhf (1.3.14-2) ...
Selecting previously unselected package libharfbuzz0b:armhf.
Preparing to unpack .../018-libharfbuzz0b_8.3.0-2_armhf.deb ...
Unpacking libharfbuzz0b:armhf (8.3.0-2) ...
Selecting previously unselected package libharfbuzz-gobject0:armhf.
Preparing to unpack .../019-libharfbuzz-gobject0_8.3.0-2_armhf.deb ...
Unpacking libharfbuzz-gobject0:armhf (8.3.0-2) ...
Selecting previously unselected package gir1.2-harfbuzz-0.0:armhf.
Preparing to unpack .../020-gir1.2-harfbuzz-0.0_8.3.0-2_armhf.deb ...
Unpacking gir1.2-harfbuzz-0.0:armhf (8.3.0-2) ...
Selecting previously unselected package libfribidi0:armhf.
Preparing to unpack .../021-libfribidi0_1.0.13-3+b1_armhf.deb ...
Unpacking libfribidi0:armhf (1.0.13-3+b1) ...
Selecting previously unselected package libthai-data.
Preparing to unpack .../022-libthai-data_0.1.29-2_all.deb ...
Unpacking libthai-data (0.1.29-2) ...
Selecting previously unselected package libdatrie1:armhf.
Preparing to unpack .../023-libdatrie1_0.2.13-3_armhf.deb ...
Unpacking libdatrie1:armhf (0.2.13-3) ...
Selecting previously unselected package libthai0:armhf.
Preparing to unpack .../024-libthai0_0.1.29-2_armhf.deb ...
Unpacking libthai0:armhf (0.1.29-2) ...
Selecting previously unselected package libpango-1.0-0:armhf.
Preparing to unpack .../025-libpango-1.0-0_1.51.0+ds-4_armhf.deb ...
Unpacking libpango-1.0-0:armhf (1.51.0+ds-4) ...
Selecting previously unselected package libpangoft2-1.0-0:armhf.
Preparing to unpack .../026-libpangoft2-1.0-0_1.51.0+ds-4_armhf.deb ...
Unpacking libpangoft2-1.0-0:armhf (1.51.0+ds-4) ...
Selecting previously unselected package libpangocairo-1.0-0:armhf.
Preparing to unpack .../027-libpangocairo-1.0-0_1.51.0+ds-4_armhf.deb ...
Unpacking libpangocairo-1.0-0:armhf (1.51.0+ds-4) ...
Selecting previously unselected package libxft2:armhf.
Preparing to unpack .../028-libxft2_2.3.6-1_armhf.deb ...
Unpacking libxft2:armhf (2.3.6-1) ...
Selecting previously unselected package libpangoxft-1.0-0:armhf.
Preparing to unpack .../029-libpangoxft-1.0-0_1.51.0+ds-4_armhf.deb ...
Unpacking libpangoxft-1.0-0:armhf (1.51.0+ds-4) ...
Selecting previously unselected package gir1.2-pango-1.0:armhf.
Preparing to unpack .../030-gir1.2-pango-1.0_1.51.0+ds-4_armhf.deb ...
Unpacking gir1.2-pango-1.0:armhf (1.51.0+ds-4) ...
Selecting previously unselected package liblzo2-2:armhf.
Preparing to unpack .../031-liblzo2-2_2.10-2_armhf.deb ...
Unpacking liblzo2-2:armhf (2.10-2) ...
Selecting previously unselected package libcairo-script-interpreter2:armhf.
Preparing to unpack .../032-libcairo-script-interpreter2_1.18.0-1+b1_armhf.deb ...
Unpacking libcairo-script-interpreter2:armhf (1.18.0-1+b1) ...
Selecting previously unselected package libcloudproviders0:armhf.
Preparing to unpack .../033-libcloudproviders0_0.3.5-1_armhf.deb ...
Unpacking libcloudproviders0:armhf (0.3.5-1) ...
Selecting previously unselected package liblcms2-2:armhf.
Preparing to unpack .../034-liblcms2-2_2.14-2_armhf.deb ...
Unpacking liblcms2-2:armhf (2.14-2) ...
Selecting previously unselected package libcolord2:armhf.
Preparing to unpack .../035-libcolord2_1.4.6-5_armhf.deb ...
Unpacking libcolord2:armhf (1.4.6-5) ...
Selecting previously unselected package libavahi-common-data:armhf.
Preparing to unpack .../036-libavahi-common-data_0.8-13+b1_armhf.deb ...
Unpacking libavahi-common-data:armhf (0.8-13+b1) ...
Selecting previously unselected package libavahi-common3:armhf.
Preparing to unpack .../037-libavahi-common3_0.8-13+b1_armhf.deb ...
Unpacking libavahi-common3:armhf (0.8-13+b1) ...
Selecting previously unselected package libavahi-client3:armhf.
Preparing to unpack .../038-libavahi-client3_0.8-13+b1_armhf.deb ...
Unpacking libavahi-client3:armhf (0.8-13+b1) ...
Selecting previously unselected package libcups2:armhf.
Preparing to unpack .../039-libcups2_2.4.7-1+b1_armhf.deb ...
Unpacking libcups2:armhf (2.4.7-1+b1) ...
Selecting previously unselected package libepoxy0:armhf.
Preparing to unpack .../040-libepoxy0_1.5.10-1+b2_armhf.deb ...
Unpacking libepoxy0:armhf (1.5.10-1+b2) ...
Selecting previously unselected package libwayland-client0:armhf.
Preparing to unpack .../041-libwayland-client0_1.22.0-2.1_armhf.deb ...
Unpacking libwayland-client0:armhf (1.22.0-2.1) ...
Selecting previously unselected package libwayland-egl1:armhf.
Preparing to unpack .../042-libwayland-egl1_1.22.0-2.1_armhf.deb ...
Unpacking libwayland-egl1:armhf (1.22.0-2.1) ...
Selecting previously unselected package libxfixes3:armhf.
Preparing to unpack .../043-libxfixes3_1%3a6.0.0-2_armhf.deb ...
Unpacking libxfixes3:armhf (1:6.0.0-2) ...
Selecting previously unselected package libxcursor1:armhf.
Preparing to unpack .../044-libxcursor1_1%3a1.2.1-1_armhf.deb ...
Unpacking libxcursor1:armhf (1:1.2.1-1) ...
Selecting previously unselected package libxdamage1:armhf.
Preparing to unpack .../045-libxdamage1_1%3a1.1.6-1_armhf.deb ...
Unpacking libxdamage1:armhf (1:1.1.6-1) ...
Selecting previously unselected package libxi6:armhf.
Preparing to unpack .../046-libxi6_2%3a1.8-1+b1_armhf.deb ...
Unpacking libxi6:armhf (2:1.8-1+b1) ...
Selecting previously unselected package libxinerama1:armhf.
Preparing to unpack .../047-libxinerama1_2%3a1.1.4-3_armhf.deb ...
Unpacking libxinerama1:armhf (2:1.1.4-3) ...
Selecting previously unselected package xkb-data.
Preparing to unpack .../048-xkb-data_2.38-2_all.deb ...
Unpacking xkb-data (2.38-2) ...
Selecting previously unselected package libxkbcommon0:armhf.
Preparing to unpack .../049-libxkbcommon0_1.6.0-1_armhf.deb ...
Unpacking libxkbcommon0:armhf (1.6.0-1) ...
Selecting previously unselected package libxrandr2:armhf.
Preparing to unpack .../050-libxrandr2_2%3a1.5.2-2+b1_armhf.deb ...
Unpacking libxrandr2:armhf (2:1.5.2-2+b1) ...
Selecting previously unselected package libgtk-4-common.
Preparing to unpack .../051-libgtk-4-common_4.12.5+ds-2_all.deb ...
Unpacking libgtk-4-common (4.12.5+ds-2) ...
Selecting previously unselected package libgtk-4-1:armhf.
Preparing to unpack .../052-libgtk-4-1_4.12.5+ds-2_armhf.deb ...
Unpacking libgtk-4-1:armhf (4.12.5+ds-2) ...
Selecting previously unselected package gir1.2-gtk-4.0:armhf.
Preparing to unpack .../053-gir1.2-gtk-4.0_4.12.5+ds-2_armhf.deb ...
Unpacking gir1.2-gtk-4.0:armhf (4.12.5+ds-2) ...
Selecting previously unselected package libags-gui6:armhf.
Preparing to unpack .../054-libags-gui6_6.3.5-1_armhf.deb ...
Unpacking libags-gui6:armhf (6.3.5-1) ...
Selecting previously unselected package gir1.2-agsgui-6.0:armhf.
Preparing to unpack .../055-gir1.2-agsgui-6.0_6.3.5-1_armhf.deb ...
Unpacking gir1.2-agsgui-6.0:armhf (6.3.5-1) ...
Selecting previously unselected package gir1.2-freedesktop-dev:armhf.
Preparing to unpack .../056-gir1.2-freedesktop-dev_1.78.1-12_armhf.deb ...
Unpacking gir1.2-freedesktop-dev:armhf (1.78.1-12) ...
Selecting previously unselected package libags-gui-dev:armhf.
Preparing to unpack .../057-libags-gui-dev_6.3.5-1_armhf.deb ...
Unpacking libags-gui-dev:armhf (6.3.5-1) ...
Selecting previously unselected package libbz2-dev:armhf.
Preparing to unpack .../058-libbz2-dev_1.0.8-5+b2_armhf.deb ...
Unpacking libbz2-dev:armhf (1.0.8-5+b2) ...
Selecting previously unselected package libpng-dev:armhf.
Preparing to unpack .../059-libpng-dev_1.6.42-1_armhf.deb ...
Unpacking libpng-dev:armhf (1.6.42-1) ...
Selecting previously unselected package libfreetype-dev:armhf.
Preparing to unpack .../060-libfreetype-dev_2.13.2+dfsg-1+b1_armhf.deb ...
Unpacking libfreetype-dev:armhf (2.13.2+dfsg-1+b1) ...
Selecting previously unselected package libfontconfig-dev:armhf.
Preparing to unpack .../061-libfontconfig-dev_2.14.2-6+b1_armhf.deb ...
Unpacking libfontconfig-dev:armhf (2.14.2-6+b1) ...
Selecting previously unselected package libpixman-1-dev:armhf.
Preparing to unpack .../062-libpixman-1-dev_0.42.2-1_armhf.deb ...
Unpacking libpixman-1-dev:armhf (0.42.2-1) ...
Selecting previously unselected package x11-common.
Preparing to unpack .../063-x11-common_1%3a7.7+23_all.deb ...
Unpacking x11-common (1:7.7+23) ...
Selecting previously unselected package libice6:armhf.
Preparing to unpack .../064-libice6_2%3a1.0.10-1_armhf.deb ...
Unpacking libice6:armhf (2:1.0.10-1) ...
Selecting previously unselected package libsm6:armhf.
Preparing to unpack .../065-libsm6_2%3a1.2.3-1_armhf.deb ...
Unpacking libsm6:armhf (2:1.2.3-1) ...
Selecting previously unselected package xorg-sgml-doctools.
Preparing to unpack .../066-xorg-sgml-doctools_1%3a1.11-1.1_all.deb ...
Unpacking xorg-sgml-doctools (1:1.11-1.1) ...
Selecting previously unselected package x11proto-dev.
Preparing to unpack .../067-x11proto-dev_2023.2-1_all.deb ...
Unpacking x11proto-dev (2023.2-1) ...
Selecting previously unselected package x11proto-core-dev.
Preparing to unpack .../068-x11proto-core-dev_2023.2-1_all.deb ...
Unpacking x11proto-core-dev (2023.2-1) ...
Selecting previously unselected package libice-dev:armhf.
Preparing to unpack .../069-libice-dev_2%3a1.0.10-1_armhf.deb ...
Unpacking libice-dev:armhf (2:1.0.10-1) ...
Selecting previously unselected package libsm-dev:armhf.
Preparing to unpack .../070-libsm-dev_2%3a1.2.3-1_armhf.deb ...
Unpacking libsm-dev:armhf (2:1.2.3-1) ...
Selecting previously unselected package libxau-dev:armhf.
Preparing to unpack .../071-libxau-dev_1%3a1.0.9-1_armhf.deb ...
Unpacking libxau-dev:armhf (1:1.0.9-1) ...
Selecting previously unselected package libxdmcp-dev:armhf.
Preparing to unpack .../072-libxdmcp-dev_1%3a1.1.2-3_armhf.deb ...
Unpacking libxdmcp-dev:armhf (1:1.1.2-3) ...
Selecting previously unselected package xtrans-dev.
Preparing to unpack .../073-xtrans-dev_1.4.0-1_all.deb ...
Unpacking xtrans-dev (1.4.0-1) ...
Selecting previously unselected package libpthread-stubs0-dev:armhf.
Preparing to unpack .../074-libpthread-stubs0-dev_0.4-1_armhf.deb ...
Unpacking libpthread-stubs0-dev:armhf (0.4-1) ...
Selecting previously unselected package libxcb1-dev:armhf.
Preparing to unpack .../075-libxcb1-dev_1.15-1_armhf.deb ...
Unpacking libxcb1-dev:armhf (1.15-1) ...
Selecting previously unselected package libx11-dev:armhf.
Preparing to unpack .../076-libx11-dev_2%3a1.8.7-1_armhf.deb ...
Unpacking libx11-dev:armhf (2:1.8.7-1) ...
Selecting previously unselected package libxcb-render0-dev:armhf.
Preparing to unpack .../077-libxcb-render0-dev_1.15-1_armhf.deb ...
Unpacking libxcb-render0-dev:armhf (1.15-1) ...
Selecting previously unselected package libxcb-shm0-dev:armhf.
Preparing to unpack .../078-libxcb-shm0-dev_1.15-1_armhf.deb ...
Unpacking libxcb-shm0-dev:armhf (1.15-1) ...
Selecting previously unselected package libxext-dev:armhf.
Preparing to unpack .../079-libxext-dev_2%3a1.3.4-1+b1_armhf.deb ...
Unpacking libxext-dev:armhf (2:1.3.4-1+b1) ...
Selecting previously unselected package libxrender-dev:armhf.
Preparing to unpack .../080-libxrender-dev_1%3a0.9.10-1.1_armhf.deb ...
Unpacking libxrender-dev:armhf (1:0.9.10-1.1) ...
Selecting previously unselected package libcairo2-dev:armhf.
Preparing to unpack .../081-libcairo2-dev_1.18.0-1+b1_armhf.deb ...
Unpacking libcairo2-dev:armhf (1.18.0-1+b1) ...
Selecting previously unselected package libdatrie-dev:armhf.
Preparing to unpack .../082-libdatrie-dev_0.2.13-3_armhf.deb ...
Unpacking libdatrie-dev:armhf (0.2.13-3) ...
Selecting previously unselected package libdeflate-dev:armhf.
Preparing to unpack .../083-libdeflate-dev_1.18-1_armhf.deb ...
Unpacking libdeflate-dev:armhf (1.18-1) ...
Selecting previously unselected package libdrm-common.
Preparing to unpack .../084-libdrm-common_2.4.120-1_all.deb ...
Unpacking libdrm-common (2.4.120-1) ...
Selecting previously unselected package libdrm2:armhf.
Preparing to unpack .../085-libdrm2_2.4.120-1_armhf.deb ...
Unpacking libdrm2:armhf (2.4.120-1) ...
Selecting previously unselected package libdrm-amdgpu1:armhf.
Preparing to unpack .../086-libdrm-amdgpu1_2.4.120-1_armhf.deb ...
Unpacking libdrm-amdgpu1:armhf (2.4.120-1) ...
Selecting previously unselected package libdrm-nouveau2:armhf.
Preparing to unpack .../087-libdrm-nouveau2_2.4.120-1_armhf.deb ...
Unpacking libdrm-nouveau2:armhf (2.4.120-1) ...
Selecting previously unselected package libdrm-radeon1:armhf.
Preparing to unpack .../088-libdrm-radeon1_2.4.120-1_armhf.deb ...
Unpacking libdrm-radeon1:armhf (2.4.120-1) ...
Selecting previously unselected package libedit2:armhf.
Preparing to unpack .../089-libedit2_3.1-20230828-1_armhf.deb ...
Unpacking libedit2:armhf (3.1-20230828-1) ...
Selecting previously unselected package libglvnd0:armhf.
Preparing to unpack .../090-libglvnd0_1.7.0-1_armhf.deb ...
Unpacking libglvnd0:armhf (1.7.0-1) ...
Selecting previously unselected package libwayland-server0:armhf.
Preparing to unpack .../091-libwayland-server0_1.22.0-2.1_armhf.deb ...
Unpacking libwayland-server0:armhf (1.22.0-2.1) ...
Selecting previously unselected package libxcb-randr0:armhf.
Preparing to unpack .../092-libxcb-randr0_1.15-1_armhf.deb ...
Unpacking libxcb-randr0:armhf (1.15-1) ...
Selecting previously unselected package libgbm1:armhf.
Preparing to unpack .../093-libgbm1_23.3.4-1_armhf.deb ...
Unpacking libgbm1:armhf (23.3.4-1) ...
Selecting previously unselected package libglapi-mesa:armhf.
Preparing to unpack .../094-libglapi-mesa_23.3.4-1_armhf.deb ...
Unpacking libglapi-mesa:armhf (23.3.4-1) ...
Selecting previously unselected package libx11-xcb1:armhf.
Preparing to unpack .../095-libx11-xcb1_2%3a1.8.7-1_armhf.deb ...
Unpacking libx11-xcb1:armhf (2:1.8.7-1) ...
Selecting previously unselected package libxcb-dri2-0:armhf.
Preparing to unpack .../096-libxcb-dri2-0_1.15-1_armhf.deb ...
Unpacking libxcb-dri2-0:armhf (1.15-1) ...
Selecting previously unselected package libxcb-dri3-0:armhf.
Preparing to unpack .../097-libxcb-dri3-0_1.15-1_armhf.deb ...
Unpacking libxcb-dri3-0:armhf (1.15-1) ...
Selecting previously unselected package libxcb-present0:armhf.
Preparing to unpack .../098-libxcb-present0_1.15-1_armhf.deb ...
Unpacking libxcb-present0:armhf (1.15-1) ...
Selecting previously unselected package libxcb-sync1:armhf.
Preparing to unpack .../099-libxcb-sync1_1.15-1_armhf.deb ...
Unpacking libxcb-sync1:armhf (1.15-1) ...
Selecting previously unselected package libxcb-xfixes0:armhf.
Preparing to unpack .../100-libxcb-xfixes0_1.15-1_armhf.deb ...
Unpacking libxcb-xfixes0:armhf (1.15-1) ...
Selecting previously unselected package libxshmfence1:armhf.
Preparing to unpack .../101-libxshmfence1_1.3-1_armhf.deb ...
Unpacking libxshmfence1:armhf (1.3-1) ...
Selecting previously unselected package libegl-mesa0:armhf.
Preparing to unpack .../102-libegl-mesa0_23.3.4-1_armhf.deb ...
Unpacking libegl-mesa0:armhf (23.3.4-1) ...
Selecting previously unselected package libegl1:armhf.
Preparing to unpack .../103-libegl1_1.7.0-1_armhf.deb ...
Unpacking libegl1:armhf (1.7.0-1) ...
Selecting previously unselected package libxcb-glx0:armhf.
Preparing to unpack .../104-libxcb-glx0_1.15-1_armhf.deb ...
Unpacking libxcb-glx0:armhf (1.15-1) ...
Selecting previously unselected package libxxf86vm1:armhf.
Preparing to unpack .../105-libxxf86vm1_1%3a1.1.4-1+b2_armhf.deb ...
Unpacking libxxf86vm1:armhf (1:1.1.4-1+b2) ...
Selecting previously unselected package libvulkan1:armhf.
Preparing to unpack .../106-libvulkan1_1.3.275.0-1_armhf.deb ...
Unpacking libvulkan1:armhf (1.3.275.0-1) ...
Selecting previously unselected package libz3-4:armhf.
Preparing to unpack .../107-libz3-4_4.8.12-3.1+b2_armhf.deb ...
Unpacking libz3-4:armhf (4.8.12-3.1+b2) ...
Selecting previously unselected package libllvm17:armhf.
Preparing to unpack .../108-libllvm17_1%3a17.0.6-5_armhf.deb ...
Unpacking libllvm17:armhf (1:17.0.6-5) ...
Selecting previously unselected package libsensors-config.
Preparing to unpack .../109-libsensors-config_1%3a3.6.0-8_all.deb ...
Unpacking libsensors-config (1:3.6.0-8) ...
Selecting previously unselected package libsensors5:armhf.
Preparing to unpack .../110-libsensors5_1%3a3.6.0-8_armhf.deb ...
Unpacking libsensors5:armhf (1:3.6.0-8) ...
Selecting previously unselected package libgl1-mesa-dri:armhf.
Preparing to unpack .../111-libgl1-mesa-dri_23.3.4-1_armhf.deb ...
Unpacking libgl1-mesa-dri:armhf (23.3.4-1) ...
Selecting previously unselected package libglx-mesa0:armhf.
Preparing to unpack .../112-libglx-mesa0_23.3.4-1_armhf.deb ...
Unpacking libglx-mesa0:armhf (23.3.4-1) ...
Selecting previously unselected package libglx0:armhf.
Preparing to unpack .../113-libglx0_1.7.0-1_armhf.deb ...
Unpacking libglx0:armhf (1.7.0-1) ...
Selecting previously unselected package libgl1:armhf.
Preparing to unpack .../114-libgl1_1.7.0-1_armhf.deb ...
Unpacking libgl1:armhf (1.7.0-1) ...
Selecting previously unselected package libglx-dev:armhf.
Preparing to unpack .../115-libglx-dev_1.7.0-1_armhf.deb ...
Unpacking libglx-dev:armhf (1.7.0-1) ...
Selecting previously unselected package libgl-dev:armhf.
Preparing to unpack .../116-libgl-dev_1.7.0-1_armhf.deb ...
Unpacking libgl-dev:armhf (1.7.0-1) ...
Selecting previously unselected package libegl-dev:armhf.
Preparing to unpack .../117-libegl-dev_1.7.0-1_armhf.deb ...
Unpacking libegl-dev:armhf (1.7.0-1) ...
Selecting previously unselected package libglvnd-core-dev:armhf.
Preparing to unpack .../118-libglvnd-core-dev_1.7.0-1_armhf.deb ...
Unpacking libglvnd-core-dev:armhf (1.7.0-1) ...
Selecting previously unselected package libgles1:armhf.
Preparing to unpack .../119-libgles1_1.7.0-1_armhf.deb ...
Unpacking libgles1:armhf (1.7.0-1) ...
Selecting previously unselected package libgles2:armhf.
Preparing to unpack .../120-libgles2_1.7.0-1_armhf.deb ...
Unpacking libgles2:armhf (1.7.0-1) ...
Selecting previously unselected package libgles-dev:armhf.
Preparing to unpack .../121-libgles-dev_1.7.0-1_armhf.deb ...
Unpacking libgles-dev:armhf (1.7.0-1) ...
Selecting previously unselected package libopengl0:armhf.
Preparing to unpack .../122-libopengl0_1.7.0-1_armhf.deb ...
Unpacking libopengl0:armhf (1.7.0-1) ...
Selecting previously unselected package libopengl-dev:armhf.
Preparing to unpack .../123-libopengl-dev_1.7.0-1_armhf.deb ...
Unpacking libopengl-dev:armhf (1.7.0-1) ...
Selecting previously unselected package libglvnd-dev:armhf.
Preparing to unpack .../124-libglvnd-dev_1.7.0-1_armhf.deb ...
Unpacking libglvnd-dev:armhf (1.7.0-1) ...
Selecting previously unselected package libegl1-mesa-dev:armhf.
Preparing to unpack .../125-libegl1-mesa-dev_23.3.4-1_armhf.deb ...
Unpacking libegl1-mesa-dev:armhf (23.3.4-1) ...
Selecting previously unselected package libepoxy-dev:armhf.
Preparing to unpack .../126-libepoxy-dev_1.5.10-1+b2_armhf.deb ...
Unpacking libepoxy-dev:armhf (1.5.10-1+b2) ...
Selecting previously unselected package libfribidi-dev:armhf.
Preparing to unpack .../127-libfribidi-dev_1.0.13-3+b1_armhf.deb ...
Unpacking libfribidi-dev:armhf (1.0.13-3+b1) ...
Selecting previously unselected package libgdk-pixbuf2.0-bin.
Preparing to unpack .../128-libgdk-pixbuf2.0-bin_2.42.10+dfsg-3_armhf.deb ...
Unpacking libgdk-pixbuf2.0-bin (2.42.10+dfsg-3) ...
Selecting previously unselected package libjpeg62-turbo-dev:armhf.
Preparing to unpack .../129-libjpeg62-turbo-dev_1%3a2.1.5-2+b2_armhf.deb ...
Unpacking libjpeg62-turbo-dev:armhf (1:2.1.5-2+b2) ...
Selecting previously unselected package libjpeg-dev:armhf.
Preparing to unpack .../130-libjpeg-dev_1%3a2.1.5-2+b2_armhf.deb ...
Unpacking libjpeg-dev:armhf (1:2.1.5-2+b2) ...
Selecting previously unselected package libjbig-dev:armhf.
Preparing to unpack .../131-libjbig-dev_2.1-6.1_armhf.deb ...
Unpacking libjbig-dev:armhf (2.1-6.1) ...
Selecting previously unselected package liblzma-dev:armhf.
Preparing to unpack .../132-liblzma-dev_5.4.5-0.3_armhf.deb ...
Unpacking liblzma-dev:armhf (5.4.5-0.3) ...
Selecting previously unselected package libzstd-dev:armhf.
Preparing to unpack .../133-libzstd-dev_1.5.5+dfsg2-2_armhf.deb ...
Unpacking libzstd-dev:armhf (1.5.5+dfsg2-2) ...
Selecting previously unselected package libwebpdemux2:armhf.
Preparing to unpack .../134-libwebpdemux2_1.3.2-0.3_armhf.deb ...
Unpacking libwebpdemux2:armhf (1.3.2-0.3) ...
Selecting previously unselected package libwebpmux3:armhf.
Preparing to unpack .../135-libwebpmux3_1.3.2-0.3_armhf.deb ...
Unpacking libwebpmux3:armhf (1.3.2-0.3) ...
Selecting previously unselected package libwebpdecoder3:armhf.
Preparing to unpack .../136-libwebpdecoder3_1.3.2-0.3_armhf.deb ...
Unpacking libwebpdecoder3:armhf (1.3.2-0.3) ...
Selecting previously unselected package libsharpyuv-dev:armhf.
Preparing to unpack .../137-libsharpyuv-dev_1.3.2-0.3_armhf.deb ...
Unpacking libsharpyuv-dev:armhf (1.3.2-0.3) ...
Selecting previously unselected package libwebp-dev:armhf.
Preparing to unpack .../138-libwebp-dev_1.3.2-0.3_armhf.deb ...
Unpacking libwebp-dev:armhf (1.3.2-0.3) ...
Selecting previously unselected package libtiffxx6:armhf.
Preparing to unpack .../139-libtiffxx6_4.5.1+git230720-4_armhf.deb ...
Unpacking libtiffxx6:armhf (4.5.1+git230720-4) ...
Selecting previously unselected package liblerc-dev:armhf.
Preparing to unpack .../140-liblerc-dev_4.0.0+ds-4_armhf.deb ...
Unpacking liblerc-dev:armhf (4.0.0+ds-4) ...
Selecting previously unselected package libtiff-dev:armhf.
Preparing to unpack .../141-libtiff-dev_4.5.1+git230720-4_armhf.deb ...
Unpacking libtiff-dev:armhf (4.5.1+git230720-4) ...
Selecting previously unselected package libgdk-pixbuf-2.0-dev:armhf.
Preparing to unpack .../142-libgdk-pixbuf-2.0-dev_2.42.10+dfsg-3_armhf.deb ...
Unpacking libgdk-pixbuf-2.0-dev:armhf (2.42.10+dfsg-3) ...
Selecting previously unselected package libgraphene-1.0-dev.
Preparing to unpack .../143-libgraphene-1.0-dev_1.10.8-3_armhf.deb ...
Unpacking libgraphene-1.0-dev (1.10.8-3) ...
Selecting previously unselected package libgraphite2-dev:armhf.
Preparing to unpack .../144-libgraphite2-dev_1.3.14-2_armhf.deb ...
Unpacking libgraphite2-dev:armhf (1.3.14-2) ...
Selecting previously unselected package libharfbuzz-icu0:armhf.
Preparing to unpack .../145-libharfbuzz-icu0_8.3.0-2_armhf.deb ...
Unpacking libharfbuzz-icu0:armhf (8.3.0-2) ...
Selecting previously unselected package libharfbuzz-subset0:armhf.
Preparing to unpack .../146-libharfbuzz-subset0_8.3.0-2_armhf.deb ...
Unpacking libharfbuzz-subset0:armhf (8.3.0-2) ...
Selecting previously unselected package libharfbuzz-cairo0:armhf.
Preparing to unpack .../147-libharfbuzz-cairo0_8.3.0-2_armhf.deb ...
Unpacking libharfbuzz-cairo0:armhf (8.3.0-2) ...
Selecting previously unselected package libharfbuzz-dev:armhf.
Preparing to unpack .../148-libharfbuzz-dev_8.3.0-2_armhf.deb ...
Unpacking libharfbuzz-dev:armhf (8.3.0-2) ...
Selecting previously unselected package libthai-dev:armhf.
Preparing to unpack .../149-libthai-dev_0.1.29-2_armhf.deb ...
Unpacking libthai-dev:armhf (0.1.29-2) ...
Selecting previously unselected package libxft-dev:armhf.
Preparing to unpack .../150-libxft-dev_2.3.6-1_armhf.deb ...
Unpacking libxft-dev:armhf (2.3.6-1) ...
Selecting previously unselected package pango1.0-tools.
Preparing to unpack .../151-pango1.0-tools_1.51.0+ds-4_armhf.deb ...
Unpacking pango1.0-tools (1.51.0+ds-4) ...
Selecting previously unselected package libpango1.0-dev:armhf.
Preparing to unpack .../152-libpango1.0-dev_1.51.0+ds-4_armhf.deb ...
Unpacking libpango1.0-dev:armhf (1.51.0+ds-4) ...
Selecting previously unselected package libwayland-cursor0:armhf.
Preparing to unpack .../153-libwayland-cursor0_1.22.0-2.1_armhf.deb ...
Unpacking libwayland-cursor0:armhf (1.22.0-2.1) ...
Selecting previously unselected package libwayland-bin.
Preparing to unpack .../154-libwayland-bin_1.22.0-2.1_armhf.deb ...
Unpacking libwayland-bin (1.22.0-2.1) ...
Selecting previously unselected package libwayland-dev:armhf.
Preparing to unpack .../155-libwayland-dev_1.22.0-2.1_armhf.deb ...
Unpacking libwayland-dev:armhf (1.22.0-2.1) ...
Selecting previously unselected package libxcomposite1:armhf.
Preparing to unpack .../156-libxcomposite1_1%3a0.4.5-1_armhf.deb ...
Unpacking libxcomposite1:armhf (1:0.4.5-1) ...
Selecting previously unselected package libxfixes-dev:armhf.
Preparing to unpack .../157-libxfixes-dev_1%3a6.0.0-2_armhf.deb ...
Unpacking libxfixes-dev:armhf (1:6.0.0-2) ...
Selecting previously unselected package libxcomposite-dev:armhf.
Preparing to unpack .../158-libxcomposite-dev_1%3a0.4.5-1_armhf.deb ...
Unpacking libxcomposite-dev:armhf (1:0.4.5-1) ...
Selecting previously unselected package libxcursor-dev:armhf.
Preparing to unpack .../159-libxcursor-dev_1%3a1.2.1-1_armhf.deb ...
Unpacking libxcursor-dev:armhf (1:1.2.1-1) ...
Selecting previously unselected package libxdamage-dev:armhf.
Preparing to unpack .../160-libxdamage-dev_1%3a1.1.6-1_armhf.deb ...
Unpacking libxdamage-dev:armhf (1:1.1.6-1) ...
Selecting previously unselected package libxi-dev:armhf.
Preparing to unpack .../161-libxi-dev_2%3a1.8-1+b1_armhf.deb ...
Unpacking libxi-dev:armhf (2:1.8-1+b1) ...
Selecting previously unselected package libxinerama-dev:armhf.
Preparing to unpack .../162-libxinerama-dev_2%3a1.1.4-3_armhf.deb ...
Unpacking libxinerama-dev:armhf (2:1.1.4-3) ...
Selecting previously unselected package libxkbcommon-dev:armhf.
Preparing to unpack .../163-libxkbcommon-dev_1.6.0-1_armhf.deb ...
Unpacking libxkbcommon-dev:armhf (1.6.0-1) ...
Selecting previously unselected package libxrandr-dev:armhf.
Preparing to unpack .../164-libxrandr-dev_2%3a1.5.2-2+b1_armhf.deb ...
Unpacking libxrandr-dev:armhf (2:1.5.2-2+b1) ...
Selecting previously unselected package libvulkan-dev:armhf.
Preparing to unpack .../165-libvulkan-dev_1.3.275.0-1_armhf.deb ...
Unpacking libvulkan-dev:armhf (1.3.275.0-1) ...
Selecting previously unselected package wayland-protocols.
Preparing to unpack .../166-wayland-protocols_1.33-1_all.deb ...
Unpacking wayland-protocols (1.33-1) ...
Selecting previously unselected package libgtk-4-dev:armhf.
Preparing to unpack .../167-libgtk-4-dev_4.12.5+ds-2_armhf.deb ...
Unpacking libgtk-4-dev:armhf (4.12.5+ds-2) ...
Setting up libgraphite2-3:armhf (1.3.14-2) ...
Setting up libxcb-dri3-0:armhf (1.15-1) ...
Setting up liblcms2-2:armhf (2.14-2) ...
Setting up libsharpyuv0:armhf (1.3.2-0.3) ...
Setting up libwayland-server0:armhf (1.22.0-2.1) ...
Setting up libx11-xcb1:armhf (2:1.8.7-1) ...
Setting up fontconfig (2.14.2-6+b1) ...
Regenerating fonts cache... done.
Setting up libxft2:armhf (2.3.6-1) ...
Setting up libpixman-1-dev:armhf (0.42.2-1) ...
Setting up libxdamage1:armhf (1:1.1.6-1) ...
Setting up libxcb-xfixes0:armhf (1.15-1) ...
Setting up liblerc4:armhf (4.0.0+ds-4) ...
Setting up libzstd-dev:armhf (1.5.5+dfsg2-2) ...
Setting up libglvnd-core-dev:armhf (1.7.0-1) ...
Setting up hicolor-icon-theme (0.17-2) ...
Setting up libxi6:armhf (2:1.8-1+b1) ...
Setting up libdatrie1:armhf (0.2.13-3) ...
Setting up libglvnd0:armhf (1.7.0-1) ...
Setting up libxcb-glx0:armhf (1.15-1) ...
Setting up libedit2:armhf (3.1-20230828-1) ...
Setting up libgdk-pixbuf2.0-common (2.42.10+dfsg-3) ...
Setting up libpng-dev:armhf (1.6.42-1) ...
Setting up x11-common (1:7.7+23) ...
invoke-rc.d: could not determine current runlevel
Setting up libsensors-config (1:3.6.0-8) ...
Setting up libdeflate0:armhf (1.18-1) ...
Setting up libcloudproviders0:armhf (0.3.5-1) ...
Setting up libwebpdecoder3:armhf (1.3.2-0.3) ...
Setting up xkb-data (2.38-2) ...
Setting up liblzo2-2:armhf (2.10-2) ...
Setting up libpthread-stubs0-dev:armhf (0.4-1) ...
Setting up libjbig0:armhf (2.1-6.1) ...
Setting up libcolord2:armhf (1.4.6-5) ...
Setting up libopengl0:armhf (1.7.0-1) ...
Setting up libxxf86vm1:armhf (1:1.1.4-1+b2) ...
Setting up libxcb-present0:armhf (1.15-1) ...
Setting up xtrans-dev (1.4.0-1) ...
Setting up libwayland-bin (1.22.0-2.1) ...
Setting up libgraphite2-dev:armhf (1.3.14-2) ...
Setting up libz3-4:armhf (4.8.12-3.1+b2) ...
Setting up libgles2:armhf (1.7.0-1) ...
Setting up libjpeg62-turbo:armhf (1:2.1.5-2+b2) ...
Setting up libjpeg62-turbo-dev:armhf (1:2.1.5-2+b2) ...
Setting up libepoxy0:armhf (1.5.10-1+b2) ...
Setting up libxfixes3:armhf (1:6.0.0-2) ...
Setting up libxcb-sync1:armhf (1.15-1) ...
Setting up libavahi-common-data:armhf (0.8-13+b1) ...
Setting up libgles1:armhf (1.7.0-1) ...
Setting up gir1.2-freedesktop-dev:armhf (1.78.1-12) ...
Setting up libfribidi0:armhf (1.0.13-3+b1) ...
Setting up shared-mime-info (2.4-1) ...
Setting up libxinerama1:armhf (2:1.1.4-3) ...
Setting up libxrandr2:armhf (2:1.5.2-2+b1) ...
Setting up libsensors5:armhf (1:3.6.0-8) ...
Setting up liblerc-dev:armhf (4.0.0+ds-4) ...
Setting up libglapi-mesa:armhf (23.3.4-1) ...
Setting up libvulkan1:armhf (1.3.275.0-1) ...
Setting up libwebp7:armhf (1.3.2-0.3) ...
Setting up liblzma-dev:armhf (5.4.5-0.3) ...
Setting up libxcb-dri2-0:armhf (1.15-1) ...
Setting up wayland-protocols (1.33-1) ...
Setting up libdatrie-dev:armhf (0.2.13-3) ...
Setting up libxshmfence1:armhf (1.3-1) ...
Setting up libtiff6:armhf (4.5.1+git230720-4) ...
Setting up libxcb-randr0:armhf (1.15-1) ...
Setting up libharfbuzz0b:armhf (8.3.0-2) ...
Setting up libthai-data (0.1.29-2) ...
Setting up xorg-sgml-doctools (1:1.11-1.1) ...
Setting up libgdk-pixbuf-2.0-0:armhf (2.42.10+dfsg-3) ...
Setting up libwayland-egl1:armhf (1.22.0-2.1) ...
Setting up libgtk-4-common (4.12.5+ds-2) ...
Setting up libopengl-dev:armhf (1.7.0-1) ...
Setting up libsharpyuv-dev:armhf (1.3.2-0.3) ...
Setting up libwebpmux3:armhf (1.3.2-0.3) ...
Setting up libtiffxx6:armhf (4.5.1+git230720-4) ...
Setting up libdeflate-dev:armhf (1.18-1) ...
Setting up libllvm17:armhf (1:17.0.6-5) ...
Setting up libdrm-common (2.4.120-1) ...
Setting up libxcomposite1:armhf (1:0.4.5-1) ...
Setting up libgraphene-1.0-0:armhf (1.10.8-3) ...
Setting up libbz2-dev:armhf (1.0.8-5+b2) ...
Setting up libxkbcommon0:armhf (1.6.0-1) ...
Setting up libwayland-client0:armhf (1.22.0-2.1) ...
Setting up gir1.2-graphene-1.0:armhf (1.10.8-3) ...
Setting up libcairo-script-interpreter2:armhf (1.18.0-1+b1) ...
Setting up gtk-update-icon-cache (3.24.41-1) ...
Setting up libice6:armhf (2:1.0.10-1) ...
Setting up libvulkan-dev:armhf (1.3.275.0-1) ...
Setting up libharfbuzz-icu0:armhf (8.3.0-2) ...
Setting up gir1.2-gdkpixbuf-2.0:armhf (2.42.10+dfsg-3) ...
Setting up libfribidi-dev:armhf (1.0.13-3+b1) ...
Setting up libwebpdemux2:armhf (1.3.2-0.3) ...
Setting up libxkbcommon-dev:armhf (1.6.0-1) ...
Setting up libxcursor1:armhf (1:1.2.1-1) ...
Setting up libavahi-common3:armhf (0.8-13+b1) ...
Setting up libjpeg-dev:armhf (1:2.1.5-2+b2) ...
Setting up libjbig-dev:armhf (2.1-6.1) ...
Setting up libharfbuzz-gobject0:armhf (8.3.0-2) ...
Setting up gir1.2-harfbuzz-0.0:armhf (8.3.0-2) ...
Setting up libfreetype-dev:armhf (2.13.2+dfsg-1+b1) ...
Setting up libthai0:armhf (0.1.29-2) ...
Setting up libwebp-dev:armhf (1.3.2-0.3) ...
Setting up libharfbuzz-cairo0:armhf (8.3.0-2) ...
Setting up adwaita-icon-theme (45.0-2) ...
update-alternatives: using /usr/share/icons/Adwaita/cursor.theme to provide /usr/share/icons/default/index.theme (x-cursor-theme) in auto mode
Setting up libtiff-dev:armhf (4.5.1+git230720-4) ...
Setting up libthai-dev:armhf (0.1.29-2) ...
Setting up libdrm2:armhf (2.4.120-1) ...
Setting up libgdk-pixbuf2.0-bin (2.42.10+dfsg-3) ...
Setting up libwayland-cursor0:armhf (1.22.0-2.1) ...
Setting up libgraphene-1.0-dev (1.10.8-3) ...
Setting up libharfbuzz-subset0:armhf (8.3.0-2) ...
Setting up libsm6:armhf (2:1.2.3-1) ...
Setting up libavahi-client3:armhf (0.8-13+b1) ...
Setting up libdrm-amdgpu1:armhf (2.4.120-1) ...
Setting up libgdk-pixbuf-2.0-dev:armhf (2.42.10+dfsg-3) ...
Setting up libharfbuzz-dev:armhf (8.3.0-2) ...
Setting up libdrm-nouveau2:armhf (2.4.120-1) ...
Setting up libgbm1:armhf (23.3.4-1) ...
Setting up libfontconfig-dev:armhf (2.14.2-6+b1) ...
Setting up libdrm-radeon1:armhf (2.4.120-1) ...
Setting up libpango-1.0-0:armhf (1.51.0+ds-4) ...
Setting up libgl1-mesa-dri:armhf (23.3.4-1) ...
Setting up libwayland-dev:armhf (1.22.0-2.1) ...
Setting up libegl-mesa0:armhf (23.3.4-1) ...
Setting up libcups2:armhf (2.4.7-1+b1) ...
Setting up libegl1:armhf (1.7.0-1) ...
Setting up libpangoft2-1.0-0:armhf (1.51.0+ds-4) ...
Setting up libpangocairo-1.0-0:armhf (1.51.0+ds-4) ...
Setting up libglx-mesa0:armhf (23.3.4-1) ...
Setting up libpangoxft-1.0-0:armhf (1.51.0+ds-4) ...
Setting up libglx0:armhf (1.7.0-1) ...
Setting up pango1.0-tools (1.51.0+ds-4) ...
Setting up gir1.2-pango-1.0:armhf (1.51.0+ds-4) ...
Setting up libgl1:armhf (1.7.0-1) ...
Processing triggers for sgml-base (1.31) ...
Setting up x11proto-dev (2023.2-1) ...
Setting up libxau-dev:armhf (1:1.0.9-1) ...
Setting up libice-dev:armhf (2:1.0.10-1) ...
Setting up libsm-dev:armhf (2:1.2.3-1) ...
Processing triggers for libglib2.0-0:armhf (2.78.3-2) ...
Processing triggers for libc-bin (2.37-13) ...
Setting up libxdmcp-dev:armhf (1:1.1.2-3) ...
Setting up x11proto-core-dev (2023.2-1) ...
Setting up libgtk-4-1:armhf (4.12.5+ds-2) ...
Setting up gir1.2-gtk-4.0:armhf (4.12.5+ds-2) ...
Setting up libxcb1-dev:armhf (1.15-1) ...
Setting up libx11-dev:armhf (2:1.8.7-1) ...
Setting up libxfixes-dev:armhf (1:6.0.0-2) ...
Setting up libxcb-shm0-dev:armhf (1.15-1) ...
Setting up libxcb-render0-dev:armhf (1.15-1) ...
Setting up libags-gui6:armhf (6.3.5-1) ...
Setting up libxext-dev:armhf (2:1.3.4-1+b1) ...
Setting up libglx-dev:armhf (1.7.0-1) ...
Setting up libxi-dev:armhf (2:1.8-1+b1) ...
Setting up libxrender-dev:armhf (1:0.9.10-1.1) ...
Setting up libgl-dev:armhf (1.7.0-1) ...
Setting up libxft-dev:armhf (2.3.6-1) ...
Setting up gir1.2-agsgui-6.0:armhf (6.3.5-1) ...
Setting up libxdamage-dev:armhf (1:1.1.6-1) ...
Setting up libegl-dev:armhf (1.7.0-1) ...
Setting up libxcomposite-dev:armhf (1:0.4.5-1) ...
Setting up libxcursor-dev:armhf (1:1.2.1-1) ...
Setting up libags-gui-dev:armhf (6.3.5-1) ...
Setting up libepoxy-dev:armhf (1.5.10-1+b2) ...
Setting up libxrandr-dev:armhf (2:1.5.2-2+b1) ...
Setting up libxinerama-dev:armhf (2:1.1.4-3) ...
Setting up libcairo2-dev:armhf (1.18.0-1+b1) ...
Setting up libgles-dev:armhf (1.7.0-1) ...
Setting up libglvnd-dev:armhf (1.7.0-1) ...
Setting up libpango1.0-dev:armhf (1.51.0+ds-4) ...
Setting up libegl1-mesa-dev:armhf (23.3.4-1) ...
Setting up libgtk-4-dev:armhf (4.12.5+ds-2) ...
Processing triggers for libc-bin (2.37-13) ...
Reading package lists...
Building dependency tree...
Reading state information...
The following packages will be REMOVED:
  libnghttp2-dev* libpsl-dev* libsoup-3.0-dev* libsqlite3-dev*
  libsysprof-capture-4-dev* libxml2-dev*
0 upgraded, 0 newly installed, 6 to remove and 50 not upgraded.
After this operation, 6551 kB disk space will be freed.
(Reading database ... (Reading database ... 5%(Reading database ... 10%(Reading database ... 15%(Reading database ... 20%(Reading database ... 25%(Reading database ... 30%(Reading database ... 35%(Reading database ... 40%(Reading database ... 45%(Reading database ... 50%(Reading database ... 55%(Reading database ... 60%(Reading database ... 65%(Reading database ... 70%(Reading database ... 75%(Reading database ... 80%(Reading database ... 85%(Reading database ... 90%(Reading database ... 95%(Reading database ... 100%(Reading database ... 27363 files and directories currently installed.)
Removing libsoup-3.0-dev:armhf (3.4.4-5) ...
Removing libnghttp2-dev:armhf (1.58.0-1) ...
Removing libpsl-dev:armhf (0.21.2-1+b1) ...
Removing libsqlite3-dev:armhf (3.45.0-1) ...
Removing libsysprof-capture-4-dev:armhf (45.1-2) ...
Removing libxml2-dev:armhf (2.9.14+dfsg-1.3+b2) ...
