Temporary header file '/tmp/O3lHkrX3LO/dump1.h' with the following content will be compiled to create GCC translation unit dump:

  // add defines
  #define __STDC_VERSION__ 201710L
#define _GXX_NULLPTR_T
#define CLUTTER_ENABLE_COMPOSITOR_API 1
#define _REGEX_NELTS(n)
#define _Atomic
#define PACKED
#ifdef __cplusplus
// C17 compat layer
#define _Alignof(type) alignof(type)
#endif
#define getaddrinfo_a(a,b,c,d)

  // add includes
  #include "/usr/include/marble/AbstractDataPlugin.h"
  #include "/usr/include/marble/AbstractDataPluginItem.h"
  #include "/usr/include/marble/AbstractDataPluginModel.h"
  #include "/usr/include/marble/AbstractFloatItem.h"
  #include "/usr/include/marble/AbstractMarbleGraphicsLayout.h"
  #include "/usr/include/marble/AbstractProjection.h"
  #include "/usr/include/marble/AbstractWorkerThread.h"
  #include "/usr/include/marble/AddLinkDialog.h"
  #include "/usr/include/marble/AlternativeRoutesModel.h"
  #include "/usr/include/marble/AutoNavigation.h"
  #include "/usr/include/marble/BillboardGraphicsItem.h"
  #include "/usr/include/marble/BookmarkManager.h"
  #include "/usr/include/marble/CelestialSortFilterProxyModel.h"
  #include "/usr/include/marble/ClipPainter.h"
  #include "/usr/include/marble/CurrentLocationWidget.h"
  #include "/usr/include/marble/DialogConfigurationInterface.h"
  #include "/usr/include/marble/DownloadRegion.h"
  #include "/usr/include/marble/DownloadRegionDialog.h"
  #include "/usr/include/marble/EditPlacemarkDialog.h"
  #include "/usr/include/marble/ElevationModel.h"
  #include "/usr/include/marble/FileManager.h"
  #include "/usr/include/marble/FileViewWidget.h"
  #include "/usr/include/marble/FlyToEditWidget.h"
  #include "/usr/include/marble/FormattedTextWidget.h"
  #include "/usr/include/marble/FrameGraphicsItem.h"
  #include "/usr/include/marble/GeoDataAbstractView.h"
  #include "/usr/include/marble/GeoDataAccuracy.h"
  #include "/usr/include/marble/GeoDataBalloonStyle.h"
  #include "/usr/include/marble/GeoDataColorStyle.h"
  #include "/usr/include/marble/GeoDataContainer.h"
  #include "/usr/include/marble/GeoDataCoordinates.h"
  #include "/usr/include/marble/GeoDataDocument.h"
  #include "/usr/include/marble/GeoDataFeature.h"
  #include "/usr/include/marble/GeoDataFolder.h"
  #include "/usr/include/marble/GeoDataGeometry.h"
  #include "/usr/include/marble/GeoDataGroundOverlay.h"
  #include "/usr/include/marble/GeoDataHotSpot.h"
  #include "/usr/include/marble/GeoDataIconStyle.h"
  #include "/usr/include/marble/GeoDataItemIcon.h"
  #include "/usr/include/marble/GeoDataLabelStyle.h"
  #include "/usr/include/marble/GeoDataLatLonAltBox.h"
  #include "/usr/include/marble/GeoDataLatLonBox.h"
  #include "/usr/include/marble/GeoDataLatLonQuad.h"
  #include "/usr/include/marble/GeoDataLineString.h"
  #include "/usr/include/marble/GeoDataLineStyle.h"
  #include "/usr/include/marble/GeoDataLinearRing.h"
  #include "/usr/include/marble/GeoDataListStyle.h"
  #include "/usr/include/marble/GeoDataLod.h"
  #include "/usr/include/marble/GeoDataLookAt.h"
  #include "/usr/include/marble/GeoDataMultiGeometry.h"
  #include "/usr/include/marble/GeoDataObject.h"
  #include "/usr/include/marble/GeoDataOverlay.h"
  #include "/usr/include/marble/GeoDataPlacemark.h"
  #include "/usr/include/marble/GeoDataPoint.h"
  #include "/usr/include/marble/GeoDataPolyStyle.h"
  #include "/usr/include/marble/GeoDataPolygon.h"
  #include "/usr/include/marble/GeoDataRegion.h"
  #include "/usr/include/marble/GeoDataRelation.h"
  #include "/usr/include/marble/GeoDataSnippet.h"
  #include "/usr/include/marble/GeoDataStyle.h"
  #include "/usr/include/marble/GeoDataStyleMap.h"
  #include "/usr/include/marble/GeoDataStyleSelector.h"
  #include "/usr/include/marble/GeoDataTimePrimitive.h"
  #include "/usr/include/marble/GeoDataTimeSpan.h"
  #include "/usr/include/marble/GeoDataTimeStamp.h"
  #include "/usr/include/marble/GeoDataTrack.h"
  #include "/usr/include/marble/GeoDataTreeModel.h"
  #include "/usr/include/marble/GeoDataTypes.h"
  #include "/usr/include/marble/GeoDocument.h"
  #include "/usr/include/marble/GeoGraphicsItem.h"
  #include "/usr/include/marble/GeoGraphicsScene.h"
  #include "/usr/include/marble/GeoPainter.h"
  #include "/usr/include/marble/GeoWriter.h"
  #include "/usr/include/marble/HttpDownloadManager.h"
  #include "/usr/include/marble/LabelGraphicsItem.h"
  #include "/usr/include/marble/LatLonBoxWidget.h"
  #include "/usr/include/marble/LatLonEdit.h"
  #include "/usr/include/marble/LayerInterface.h"
  #include "/usr/include/marble/LegendWidget.h"
  #include "/usr/include/marble/Maneuver.h"
  #include "/usr/include/marble/MapThemeDownloadDialog.h"
  #include "/usr/include/marble/MapThemeManager.h"
  #include "/usr/include/marble/MapViewItemDelegate.h"
  #include "/usr/include/marble/MapViewWidget.h"
  #include "/usr/include/marble/MapWizard.h"
  #include "/usr/include/marble/MarbleAboutDialog.h"
  #include "/usr/include/marble/MarbleColors.h"
  #include "/usr/include/marble/MarbleDebug.h"
  #include "/usr/include/marble/MarbleDeclarativePlugin.h"
  #include "/usr/include/marble/MarbleDirs.h"
  #include "/usr/include/marble/MarbleGlobal.h"
  #include "/usr/include/marble/MarbleGraphicsGridLayout.h"
  #include "/usr/include/marble/MarbleGraphicsItem.h"
  #include "/usr/include/marble/MarbleInputHandler.h"
  #include "/usr/include/marble/MarbleLocale.h"
  #include "/usr/include/marble/MarbleMap.h"
  #include "/usr/include/marble/MarbleMath.h"
  #include "/usr/include/marble/MarbleModel.h"
  #include "/usr/include/marble/MarbleNavigator.h"
  #include "/usr/include/marble/MarbleWebView.h"
  #include "/usr/include/marble/MarbleWidget.h"
  #include "/usr/include/marble/MarbleWidgetInputHandler.h"
  #include "/usr/include/marble/MarbleWidgetPopupMenu.h"
  #include "/usr/include/marble/OsmcSymbol.h"
  #include "/usr/include/marble/ParseRunnerPlugin.h"
  #include "/usr/include/marble/ParsingRunner.h"
  #include "/usr/include/marble/ParsingRunnerManager.h"
  #include "/usr/include/marble/PlacemarkEditHeader.h"
  #include "/usr/include/marble/Planet.h"
  #include "/usr/include/marble/PlanetFactory.h"
  #include "/usr/include/marble/PluginAboutDialog.h"
  #include "/usr/include/marble/PluginInterface.h"
  #include "/usr/include/marble/PluginManager.h"
  #include "/usr/include/marble/PositionProviderPlugin.h"
  #include "/usr/include/marble/PositionProviderPluginInterface.h"
  #include "/usr/include/marble/PositionTracking.h"
  #include "/usr/include/marble/QtMarbleConfigDialog.h"
  #include "/usr/include/marble/Quaternion.h"
  #include "/usr/include/marble/RemoveItemEditWidget.h"
  #include "/usr/include/marble/RenderPlugin.h"
  #include "/usr/include/marble/RenderPluginInterface.h"
  #include "/usr/include/marble/RenderState.h"
  #include "/usr/include/marble/ReverseGeocodingRunner.h"
  #include "/usr/include/marble/ReverseGeocodingRunnerManager.h"
  #include "/usr/include/marble/ReverseGeocodingRunnerPlugin.h"
  #include "/usr/include/marble/Route.h"
  #include "/usr/include/marble/RouteRequest.h"
  #include "/usr/include/marble/RouteSegment.h"
  #include "/usr/include/marble/RoutingManager.h"
  #include "/usr/include/marble/RoutingModel.h"
  #include "/usr/include/marble/RoutingProfile.h"
  #include "/usr/include/marble/RoutingRunnerManager.h"
  #include "/usr/include/marble/RoutingWidget.h"
  #include "/usr/include/marble/ScreenGraphicsItem.h"
  #include "/usr/include/marble/SearchRunner.h"
  #include "/usr/include/marble/SearchRunnerManager.h"
  #include "/usr/include/marble/SearchRunnerPlugin.h"
  #include "/usr/include/marble/Serializable.h"
  #include "/usr/include/marble/SoundCueEditWidget.h"
  #include "/usr/include/marble/SunLocator.h"
  #include "/usr/include/marble/TileCoordsPyramid.h"
  #include "/usr/include/marble/TileCreator.h"
  #include "/usr/include/marble/TileCreatorDialog.h"
  #include "/usr/include/marble/TileLevelRangeWidget.h"
  #include "/usr/include/marble/TinyWebBrowser.h"
  #include "/usr/include/marble/TourControlEditWidget.h"
  #include "/usr/include/marble/TourItemDelegate.h"
  #include "/usr/include/marble/TourPlayback.h"
  #include "/usr/include/marble/TourWidget.h"
  #include "/usr/include/marble/ViewportParams.h"
  #include "/usr/include/marble/WaitEditWidget.h"
  #include "/usr/include/marble/WidgetGraphicsItem.h"
  #include "/usr/include/marble/geodata_export.h"
  #include "/usr/include/marble/marble_declarative_export.h"
  #include "/usr/include/marble/marble_export.h"
  #include "/usr/include/marble/marble_version.h"

  // add namespaces
  namespace dtlsopenssl{typedef int tmp_add_type_1;}
  dtlsopenssl::tmp_add_type_1 tmp_add_func_1(){return 0;};
  namespace Marble{typedef int tmp_add_type_2;}
  Marble::tmp_add_type_2 tmp_add_func_2(){return 0;};
  namespace Marble{namespace GeoDataTypes{typedef int tmp_add_type_3;}}
  Marble::GeoDataTypes::tmp_add_type_3 tmp_add_func_3(){return 0;};
  namespace Marble{namespace Oxygen{typedef int tmp_add_type_4;}}
  Marble::Oxygen::tmp_add_type_4 tmp_add_func_4(){return 0;};
  namespace QAlgorithmsPrivate{typedef int tmp_add_type_5;}
  QAlgorithmsPrivate::tmp_add_type_5 tmp_add_func_5(){return 0;};
  namespace QColorConstants{typedef int tmp_add_type_6;}
  QColorConstants::tmp_add_type_6 tmp_add_func_6(){return 0;};
  namespace QColorConstants{namespace Svg{typedef int tmp_add_type_7;}}
  QColorConstants::Svg::tmp_add_type_7 tmp_add_func_7(){return 0;};
  namespace QJsonPrivate{typedef int tmp_add_type_8;}
  QJsonPrivate::tmp_add_type_8 tmp_add_func_8(){return 0;};
  namespace QSsl{typedef int tmp_add_type_9;}
  QSsl::tmp_add_type_9 tmp_add_func_9(){return 0;};
  namespace Qt{typedef int tmp_add_type_10;}
  Qt::tmp_add_type_10 tmp_add_func_10(){return 0;};
  namespace QTextStreamFunctions{typedef int tmp_add_type_11;}
  QTextStreamFunctions::tmp_add_type_11 tmp_add_func_11(){return 0;};
  namespace QtGlobalStatic{typedef int tmp_add_type_12;}
  QtGlobalStatic::tmp_add_type_12 tmp_add_func_12(){return 0;};
  namespace QtMetaTypePrivate{typedef int tmp_add_type_13;}
  QtMetaTypePrivate::tmp_add_type_13 tmp_add_func_13(){return 0;};
  namespace QtMetaTypePrivate{namespace QtPrivate{typedef int tmp_add_type_14;}}
  QtMetaTypePrivate::QtPrivate::tmp_add_type_14 tmp_add_func_14(){return 0;};
  namespace QtMetaTypePrivate{namespace QtPrivate{namespace ContainerCapabilitiesMetaProgrammingHelper{typedef int tmp_add_type_15;}}}
  QtMetaTypePrivate::QtPrivate::ContainerCapabilitiesMetaProgrammingHelper::tmp_add_type_15 tmp_add_func_15(){return 0;};
  namespace QtPrivate{typedef int tmp_add_type_16;}
  QtPrivate::tmp_add_type_16 tmp_add_func_16(){return 0;};
  namespace QtPrivate{namespace DeprecatedRefClassBehavior{typedef int tmp_add_type_17;}}
  QtPrivate::DeprecatedRefClassBehavior::tmp_add_type_17 tmp_add_func_17(){return 0;};
  namespace QtPrivate{namespace SwapExceptionTester{typedef int tmp_add_type_18;}}
  QtPrivate::SwapExceptionTester::tmp_add_type_18 tmp_add_func_18(){return 0;};
  namespace QtSharedPointer{typedef int tmp_add_type_19;}
  QtSharedPointer::tmp_add_type_19 tmp_add_func_19(){return 0;};
  namespace QtWebEngineCore{typedef int tmp_add_type_20;}
  QtWebEngineCore::tmp_add_type_20 tmp_add_func_20(){return 0;};
  namespace QtWebEnginePrivate{typedef int tmp_add_type_21;}
  QtWebEnginePrivate::tmp_add_type_21 tmp_add_func_21(){return 0;};
  namespace Marble{namespace __anon978f8dc11a611{typedef int tmp_add_type_22;}}
  Marble::__anon978f8dc11a611::tmp_add_type_22 tmp_add_func_22(){return 0;};

  // add classes
  MarbleDeclarativePlugin* tmp_add_class_0;
  MarbleWebPage* tmp_add_class_1;
  MarbleWebView* tmp_add_class_2;
  OsmcSymbol* tmp_add_class_3;
  QAbstractButton* tmp_add_class_4;
  QAbstractItemDelegate* tmp_add_class_5;
  QAbstractItemModel* tmp_add_class_6;
  QAbstractListModel* tmp_add_class_7;
  QAbstractProxyModel* tmp_add_class_8;
  QAbstractSlider* tmp_add_class_9;
  QAbstractSocket* tmp_add_class_10;
  QAbstractSpinBox* tmp_add_class_11;
  QAbstractTableModel* tmp_add_class_12;
  QActionEvent* tmp_add_class_13;
  QApplicationStateChangeEvent* tmp_add_class_14;
  QArrayData* tmp_add_class_15;
  QAssociativeIterable* tmp_add_class_16;
  QAtomicInt* tmp_add_class_17;
  QBrush* tmp_add_class_18;
  QBrushData* tmp_add_class_19;
  QByteArray* tmp_add_class_20;
  QByteArrayDataPtr* tmp_add_class_21;
  QByteRef* tmp_add_class_22;
  QCborError* tmp_add_class_23;
  QCborParserError* tmp_add_class_24;
  QCborValue* tmp_add_class_25;
  QCborValueRef* tmp_add_class_26;
  QChar* tmp_add_class_27;
  QCharRef* tmp_add_class_28;
  QChildEvent* tmp_add_class_29;
  QCloseEvent* tmp_add_class_30;
  QColor* tmp_add_class_31;
  QComboBox* tmp_add_class_32;
  QConicalGradient* tmp_add_class_33;
  QContextMenuEvent* tmp_add_class_34;
  QContiguousCacheData* tmp_add_class_35;
  QCoreApplication* tmp_add_class_36;
  QCryptographicHash* tmp_add_class_37;
  QCursor* tmp_add_class_38;
  QDataStream* tmp_add_class_39;
  QDate* tmp_add_class_40;
  QDateTime* tmp_add_class_41;
  QDeadlineTimer* tmp_add_class_42;
  QDebug* tmp_add_class_43;
  QDebugStateSaver* tmp_add_class_44;
  QDeferredDeleteEvent* tmp_add_class_45;
  QDialog* tmp_add_class_46;
  QDir* tmp_add_class_47;
  QDoubleValidator* tmp_add_class_48;
  QDragEnterEvent* tmp_add_class_49;
  QDragLeaveEvent* tmp_add_class_50;
  QDragMoveEvent* tmp_add_class_51;
  QDropEvent* tmp_add_class_52;
  QDynamicPropertyChangeEvent* tmp_add_class_53;
  QElapsedTimer* tmp_add_class_54;
  QEnterEvent* tmp_add_class_55;
  QEvent* tmp_add_class_56;
  QEventLoop* tmp_add_class_57;
  QEventLoopLocker* tmp_add_class_58;
  QExposeEvent* tmp_add_class_59;
  QFile* tmp_add_class_60;
  QFileDevice* tmp_add_class_61;
  QFileInfo* tmp_add_class_62;
  QFileOpenEvent* tmp_add_class_63;
  QFlag* tmp_add_class_64;
  QFocusEvent* tmp_add_class_65;
  QFont* tmp_add_class_66;
  QFontInfo* tmp_add_class_67;
  QFontMetrics* tmp_add_class_68;
  QFontMetricsF* tmp_add_class_69;
  QFrame* tmp_add_class_70;
  QGenericArgument* tmp_add_class_71;
  QGenericReturnArgument* tmp_add_class_72;
  QGesture* tmp_add_class_73;
  QGestureEvent* tmp_add_class_74;
  QGradient* tmp_add_class_75;
  QHashData* tmp_add_class_76;
  QHashDummyValue* tmp_add_class_77;
  QHelpEvent* tmp_add_class_78;
  QHideEvent* tmp_add_class_79;
  QHoverEvent* tmp_add_class_80;
  QIODevice* tmp_add_class_81;
  QIcon* tmp_add_class_82;
  QIconDragEvent* tmp_add_class_83;
  QImage* tmp_add_class_84;
  QIncompatibleFlag* tmp_add_class_85;
  QInputEvent* tmp_add_class_86;
  QInputMethodEvent* tmp_add_class_87;
  QInputMethodQueryEvent* tmp_add_class_88;
  QIntValidator* tmp_add_class_89;
  QInternal* tmp_add_class_90;
  QJsonObject* tmp_add_class_91;
  QJsonValue* tmp_add_class_92;
  QJsonValuePtr* tmp_add_class_93;
  QJsonValueRef* tmp_add_class_94;
  QJsonValueRefPtr* tmp_add_class_95;
  QKeyEvent* tmp_add_class_96;
  QKeySequence* tmp_add_class_97;
  QLatin1Char* tmp_add_class_98;
  QLatin1String* tmp_add_class_99;
  QLine* tmp_add_class_100;
  QLineF* tmp_add_class_101;
  QLinearGradient* tmp_add_class_102;
  QListData* tmp_add_class_103;
  QLocale* tmp_add_class_104;
  QMapDataBase* tmp_add_class_105;
  QMapNodeBase* tmp_add_class_106;
  QMargins* tmp_add_class_107;
  QMarginsF* tmp_add_class_108;
  QMatrix* tmp_add_class_109;
  QMessageLogContext* tmp_add_class_110;
  QMessageLogger* tmp_add_class_111;
  QMetaObject* tmp_add_class_112;
  QMetaType* tmp_add_class_113;
  QModelIndex* tmp_add_class_114;
  QMouseEvent* tmp_add_class_115;
  QMoveEvent* tmp_add_class_116;
  QNativeGestureEvent* tmp_add_class_117;
  QNetworkAccessManager* tmp_add_class_118;
  QNetworkRequest* tmp_add_class_119;
  QNoDebug* tmp_add_class_120;
  QObject* tmp_add_class_121;
  QObjectData* tmp_add_class_122;
  QObjectUserData* tmp_add_class_123;
  QPageLayout* tmp_add_class_124;
  QPageSize* tmp_add_class_125;
  QPaintDevice* tmp_add_class_126;
  QPaintEvent* tmp_add_class_127;
  QPainter* tmp_add_class_128;
  QPalette* tmp_add_class_129;
  QPanGesture* tmp_add_class_130;
  QPen* tmp_add_class_131;
  QPersistentModelIndex* tmp_add_class_132;
  QPinchGesture* tmp_add_class_133;
  QPixelFormat* tmp_add_class_134;
  QPixmap* tmp_add_class_135;
  QPlatformSurfaceEvent* tmp_add_class_136;
  QPoint* tmp_add_class_137;
  QPointF* tmp_add_class_138;
  QPointingDeviceUniqueId* tmp_add_class_139;
  QPolygon* tmp_add_class_140;
  QPolygonF* tmp_add_class_141;
  QQmlEngineExtensionInterface* tmp_add_class_142;
  QQmlEngineExtensionPlugin* tmp_add_class_143;
  QQmlExtensionInterface* tmp_add_class_144;
  QQmlExtensionPlugin* tmp_add_class_145;
  QQmlTypesExtensionInterface* tmp_add_class_146;
  QRadialGradient* tmp_add_class_147;
  QRect* tmp_add_class_148;
  QRectF* tmp_add_class_149;
  QRegExp* tmp_add_class_150;
  QRegExpValidator* tmp_add_class_151;
  QRegion* tmp_add_class_152;
  QRegularExpression* tmp_add_class_153;
  QRegularExpressionMatch* tmp_add_class_154;
  QRegularExpressionMatchIterator* tmp_add_class_155;
  QRegularExpressionValidator* tmp_add_class_156;
  QResizeEvent* tmp_add_class_157;
  QRgba64* tmp_add_class_158;
  QRubberBand* tmp_add_class_159;
  QScopedPointerPodDeleter* tmp_add_class_160;
  QScreenOrientationChangeEvent* tmp_add_class_161;
  QScrollEvent* tmp_add_class_162;
  QScrollPrepareEvent* tmp_add_class_163;
  QSequentialIterable* tmp_add_class_164;
  QSharedData* tmp_add_class_165;
  QShortcutEvent* tmp_add_class_166;
  QShowEvent* tmp_add_class_167;
  QSignalBlocker* tmp_add_class_168;
  QSize* tmp_add_class_169;
  QSizeF* tmp_add_class_170;
  QSizePolicy* tmp_add_class_171;
  QSlider* tmp_add_class_172;
  QSortFilterProxyModel* tmp_add_class_173;
  QSslCertificate* tmp_add_class_174;
  QSslConfiguration* tmp_add_class_175;
  QSslError* tmp_add_class_176;
  QSslPreSharedKeyAuthenticator* tmp_add_class_177;
  QSslSocket* tmp_add_class_178;
  QStaticPlugin* tmp_add_class_179;
  QStatusTipEvent* tmp_add_class_180;
  QString* tmp_add_class_181;
  QStringDataPtr* tmp_add_class_182;
  QStringList* tmp_add_class_183;
  QStringMatcher* tmp_add_class_184;
  QStringRef* tmp_add_class_185;
  QStringView* tmp_add_class_186;
  QStyle* tmp_add_class_187;
  QStyleHintReturn* tmp_add_class_188;
  QStyleHintReturnMask* tmp_add_class_189;
  QStyleHintReturnVariant* tmp_add_class_190;
  QStyleOption* tmp_add_class_191;
  QStyleOptionButton* tmp_add_class_192;
  QStyleOptionComboBox* tmp_add_class_193;
  QStyleOptionComplex* tmp_add_class_194;
  QStyleOptionDockWidget* tmp_add_class_195;
  QStyleOptionFocusRect* tmp_add_class_196;
  QStyleOptionFrame* tmp_add_class_197;
  QStyleOptionGraphicsItem* tmp_add_class_198;
  QStyleOptionGroupBox* tmp_add_class_199;
  QStyleOptionHeader* tmp_add_class_200;
  QStyleOptionMenuItem* tmp_add_class_201;
  QStyleOptionProgressBar* tmp_add_class_202;
  QStyleOptionRubberBand* tmp_add_class_203;
  QStyleOptionSizeGrip* tmp_add_class_204;
  QStyleOptionSlider* tmp_add_class_205;
  QStyleOptionSpinBox* tmp_add_class_206;
  QStyleOptionTab* tmp_add_class_207;
  QStyleOptionTabBarBase* tmp_add_class_208;
  QStyleOptionTabV4* tmp_add_class_209;
  QStyleOptionTabWidgetFrame* tmp_add_class_210;
  QStyleOptionTitleBar* tmp_add_class_211;
  QStyleOptionToolBar* tmp_add_class_212;
  QStyleOptionToolBox* tmp_add_class_213;
  QStyleOptionToolButton* tmp_add_class_214;
  QStyleOptionViewItem* tmp_add_class_215;
  QStyledItemDelegate* tmp_add_class_216;
  QSvgRenderer* tmp_add_class_217;
  QSwipeGesture* tmp_add_class_218;
  QSysInfo* tmp_add_class_219;
  QTabBar* tmp_add_class_220;
  QTabWidget* tmp_add_class_221;
  QTabletEvent* tmp_add_class_222;
  QTapAndHoldGesture* tmp_add_class_223;
  QTapGesture* tmp_add_class_224;
  QTcpSocket* tmp_add_class_225;
  QTextOption* tmp_add_class_226;
  QTextStream* tmp_add_class_227;
  QTextStreamManipulator* tmp_add_class_228;
  QThread* tmp_add_class_229;
  QTime* tmp_add_class_230;
  QTimerEvent* tmp_add_class_231;
  QToolBarChangeEvent* tmp_add_class_232;
  QToolButton* tmp_add_class_233;
  QTouchDevice* tmp_add_class_234;
  QTouchEvent* tmp_add_class_235;
  QTransform* tmp_add_class_236;
  QUrl* tmp_add_class_237;
  QUuid* tmp_add_class_238;
  QValidator* tmp_add_class_239;
  QVariant* tmp_add_class_240;
  QVariantComparisonHelper* tmp_add_class_241;
  QVector2D* tmp_add_class_242;
  QWebEngineClientCertificateSelection* tmp_add_class_243;
  QWebEngineDownloadItem* tmp_add_class_244;
  QWebEngineHttpRequest* tmp_add_class_245;
  QWebEnginePage* tmp_add_class_246;
  QWebEngineView* tmp_add_class_247;
  QWhatsThisClickedEvent* tmp_add_class_248;
  QWheelEvent* tmp_add_class_249;
  QWidget* tmp_add_class_250;
  QWidgetData* tmp_add_class_251;
  QWindowStateChangeEvent* tmp_add_class_252;
  QWizard* tmp_add_class_253;
  QWizardPage* tmp_add_class_254;
  QXmlStreamAttribute* tmp_add_class_255;
  QXmlStreamAttributes* tmp_add_class_256;
  QXmlStreamEntityDeclaration* tmp_add_class_257;
  QXmlStreamEntityResolver* tmp_add_class_258;
  QXmlStreamNamespaceDeclaration* tmp_add_class_259;
  QXmlStreamNotationDeclaration* tmp_add_class_260;
  QXmlStreamReader* tmp_add_class_261;
  QXmlStreamStringRef* tmp_add_class_262;
  QXmlStreamWriter* tmp_add_class_263;
  _G_fpos64_t* tmp_add_class_264;
  _G_fpos_t* tmp_add_class_265;
  _IO_cookie_io_functions_t* tmp_add_class_266;

The GCC parameters:
  gcc -fdump-lang-raw -fkeep-inline-functions -c -x c++ -fpermissive -w "/tmp/O3lHkrX3LO/dump1.h"  -I/usr/include/arm-linux-gnueabihf/qt5 -I/usr/include/arm-linux-gnueabihf/qt5/QtWidgets -I/usr/include/arm-linux-gnueabihf/qt5/QtWebEngineWidgets -I/usr/include/arm-linux-gnueabihf/qt5/QtSvg -I/usr/include/arm-linux-gnueabihf/qt5/QtQml -I/usr/include/arm-linux-gnueabihf/qt5/QtGui -I/usr/include/arm-linux-gnueabihf/qt5/QtCore

