[2024-01-08T14:58:24+00:00] apt-get install libzookeeper-mt-dev abi-compliance-checker
Reading package lists...
Building dependency tree...
Reading state information...
abi-compliance-checker is already the newest version (2.3-2).
The following packages were automatically installed and are no longer required:
  libznz-dev libznz3
Use 'apt autoremove' to remove them.
The following NEW packages will be installed:
  libzookeeper-mt-dev libzookeeper-mt2
0 upgraded, 2 newly installed, 0 to remove and 13 not upgraded.
Need to get 114 kB of archives.
After this operation, 462 kB of additional disk space will be used.
Get:1 http://deb.debian.org/debian unstable/main armhf libzookeeper-mt2 armhf 3.9.1-1+b1 [42.8 kB]
Get:2 http://deb.debian.org/debian unstable/main armhf libzookeeper-mt-dev armhf 3.9.1-1+b1 [70.8 kB]
debconf: delaying package configuration, since apt-utils is not installed
Fetched 114 kB in 0s (390 kB/s)
Selecting previously unselected package libzookeeper-mt2:armhf.
(Reading database ... (Reading database ... 5%(Reading database ... 10%(Reading database ... 15%(Reading database ... 20%(Reading database ... 25%(Reading database ... 30%(Reading database ... 35%(Reading database ... 40%(Reading database ... 45%(Reading database ... 50%(Reading database ... 55%(Reading database ... 60%(Reading database ... 65%(Reading database ... 70%(Reading database ... 75%(Reading database ... 80%(Reading database ... 85%(Reading database ... 90%(Reading database ... 95%(Reading database ... 100%(Reading database ... 17063 files and directories currently installed.)
Preparing to unpack .../libzookeeper-mt2_3.9.1-1+b1_armhf.deb ...
Unpacking libzookeeper-mt2:armhf (3.9.1-1+b1) ...
Selecting previously unselected package libzookeeper-mt-dev.
Preparing to unpack .../libzookeeper-mt-dev_3.9.1-1+b1_armhf.deb ...
Unpacking libzookeeper-mt-dev (3.9.1-1+b1) ...
Setting up libzookeeper-mt2:armhf (3.9.1-1+b1) ...
Setting up libzookeeper-mt-dev (3.9.1-1+b1) ...
Processing triggers for libc-bin (2.37-13) ...
Reading package lists...
Building dependency tree...
Reading state information...
The following packages will be REMOVED:
  libznz-dev* libznz3*
0 upgraded, 0 newly installed, 2 to remove and 13 not upgraded.
After this operation, 66.6 kB disk space will be freed.
(Reading database ... (Reading database ... 5%(Reading database ... 10%(Reading database ... 15%(Reading database ... 20%(Reading database ... 25%(Reading database ... 30%(Reading database ... 35%(Reading database ... 40%(Reading database ... 45%(Reading database ... 50%(Reading database ... 55%(Reading database ... 60%(Reading database ... 65%(Reading database ... 70%(Reading database ... 75%(Reading database ... 80%(Reading database ... 85%(Reading database ... 90%(Reading database ... 95%(Reading database ... 100%(Reading database ... 17084 files and directories currently installed.)
Removing libznz-dev:armhf (3.0.1-9) ...
Removing libznz3:armhf (3.0.1-9) ...
Processing triggers for libc-bin (2.37-13) ...
