[2024-01-06T15:39:05+00:00] apt-get install libbtbb-dev abi-compliance-checker
Reading package lists...
Building dependency tree...
Reading state information...
abi-compliance-checker is already the newest version (2.3-2).
The following packages were automatically installed and are no longer required:
  fontconfig-config fonts-dejavu-core fonts-dejavu-mono libbrotli-dev
  libbrotli1 libbt-dev libbt0 libbz2-dev libfontconfig-dev libfontconfig1
  libfontconfig1-dev libfreetype-dev libfreetype6 libice-dev libice6
  libpng-dev libpng16-16 libpthread-stubs0-dev libsm-dev libsm6 libx11-6
  libx11-data libx11-dev libxau-dev libxau6 libxcb1 libxcb1-dev libxdmcp-dev
  libxdmcp6 libxext6 libxft-dev libxft2 libxrender-dev libxrender1 libxt-dev
  libxt6 pkg-config uuid-dev x11-common x11proto-dev xorg-sgml-doctools
  xtrans-dev
Use 'apt autoremove' to remove them.
The following additional packages will be installed:
  libbtbb1 libdbus-1-dev libpcap-dev libpcap0.8 libpcap0.8-dev
The following NEW packages will be installed:
  libbtbb-dev libbtbb1 libdbus-1-dev libpcap-dev libpcap0.8 libpcap0.8-dev
0 upgraded, 6 newly installed, 0 to remove and 15 not upgraded.
Need to get 707 kB of archives.
After this operation, 1842 kB of additional disk space will be used.
Get:1 http://deb.debian.org/debian unstable/main armhf libbtbb1 armhf 2018.12.R1-1 [42.8 kB]
Get:2 http://deb.debian.org/debian unstable/main armhf libdbus-1-dev armhf 1.14.10-3 [221 kB]
Get:3 http://deb.debian.org/debian unstable/main armhf libpcap0.8 armhf 1.10.4-4 [147 kB]
Get:4 http://deb.debian.org/debian unstable/main armhf libpcap0.8-dev armhf 1.10.4-4 [259 kB]
Get:5 http://deb.debian.org/debian unstable/main armhf libpcap-dev armhf 1.10.4-4 [28.7 kB]
Get:6 http://deb.debian.org/debian unstable/main armhf libbtbb-dev armhf 2018.12.R1-1 [8912 B]
debconf: delaying package configuration, since apt-utils is not installed
Fetched 707 kB in 0s (2708 kB/s)
Selecting previously unselected package libbtbb1:armhf.
(Reading database ... (Reading database ... 5%(Reading database ... 10%(Reading database ... 15%(Reading database ... 20%(Reading database ... 25%(Reading database ... 30%(Reading database ... 35%(Reading database ... 40%(Reading database ... 45%(Reading database ... 50%(Reading database ... 55%(Reading database ... 60%(Reading database ... 65%(Reading database ... 70%(Reading database ... 75%(Reading database ... 80%(Reading database ... 85%(Reading database ... 90%(Reading database ... 95%(Reading database ... 100%(Reading database ... 19787 files and directories currently installed.)
Preparing to unpack .../0-libbtbb1_2018.12.R1-1_armhf.deb ...
Unpacking libbtbb1:armhf (2018.12.R1-1) ...
Selecting previously unselected package libdbus-1-dev:armhf.
Preparing to unpack .../1-libdbus-1-dev_1.14.10-3_armhf.deb ...
Unpacking libdbus-1-dev:armhf (1.14.10-3) ...
Selecting previously unselected package libpcap0.8:armhf.
Preparing to unpack .../2-libpcap0.8_1.10.4-4_armhf.deb ...
Unpacking libpcap0.8:armhf (1.10.4-4) ...
Selecting previously unselected package libpcap0.8-dev:armhf.
Preparing to unpack .../3-libpcap0.8-dev_1.10.4-4_armhf.deb ...
Unpacking libpcap0.8-dev:armhf (1.10.4-4) ...
Selecting previously unselected package libpcap-dev:armhf.
Preparing to unpack .../4-libpcap-dev_1.10.4-4_armhf.deb ...
Unpacking libpcap-dev:armhf (1.10.4-4) ...
Selecting previously unselected package libbtbb-dev:armhf.
Preparing to unpack .../5-libbtbb-dev_2018.12.R1-1_armhf.deb ...
Unpacking libbtbb-dev:armhf (2018.12.R1-1) ...
Setting up libpcap0.8:armhf (1.10.4-4) ...
Setting up libdbus-1-dev:armhf (1.14.10-3) ...
Setting up libbtbb1:armhf (2018.12.R1-1) ...
Processing triggers for sgml-base (1.31) ...
Setting up libpcap0.8-dev:armhf (1.10.4-4) ...
Processing triggers for libc-bin (2.37-13) ...
Setting up libpcap-dev:armhf (1.10.4-4) ...
Setting up libbtbb-dev:armhf (2018.12.R1-1) ...
Reading package lists...
Building dependency tree...
Reading state information...
The following packages will be REMOVED:
  fontconfig-config* fonts-dejavu-core* fonts-dejavu-mono* libbrotli-dev*
  libbrotli1* libbt-dev* libbt0* libbz2-dev* libfontconfig-dev*
  libfontconfig1* libfontconfig1-dev* libfreetype-dev* libfreetype6*
  libice-dev* libice6* libpng-dev* libpng16-16* libpthread-stubs0-dev*
  libsm-dev* libsm6* libx11-6* libx11-data* libx11-dev* libxau-dev* libxau6*
  libxcb1* libxcb1-dev* libxdmcp-dev* libxdmcp6* libxext6* libxft-dev*
  libxft2* libxrender-dev* libxrender1* libxt-dev* libxt6* pkg-config*
  uuid-dev* x11-common* x11proto-dev* xorg-sgml-doctools* xtrans-dev*
0 upgraded, 0 newly installed, 42 to remove and 15 not upgraded.
After this operation, 22.4 MB disk space will be freed.
(Reading database ... (Reading database ... 5%(Reading database ... 10%(Reading database ... 15%(Reading database ... 20%(Reading database ... 25%(Reading database ... 30%(Reading database ... 35%(Reading database ... 40%(Reading database ... 45%(Reading database ... 50%(Reading database ... 55%(Reading database ... 60%(Reading database ... 65%(Reading database ... 70%(Reading database ... 75%(Reading database ... 80%(Reading database ... 85%(Reading database ... 90%(Reading database ... 95%(Reading database ... 100%(Reading database ... 19961 files and directories currently installed.)
Removing libbt-dev:armhf (0.70.1-39+b2) ...
Removing libxft-dev:armhf (2.3.6-1) ...
Removing libbt0:armhf (0.70.1-39+b2) ...
Removing libxft2:armhf (2.3.6-1) ...
Removing libfontconfig1-dev:armhf (2.14.2-6) ...
Removing libfontconfig-dev:armhf (2.14.2-6) ...
Removing libfontconfig1:armhf (2.14.2-6) ...
Removing fontconfig-config (2.14.2-6) ...
Removing fonts-dejavu-core (2.37-8) ...
Removing fonts-dejavu-mono (2.37-8) ...
Removing libfreetype-dev:armhf (2.13.2+dfsg-1) ...
Removing libbrotli-dev:armhf (1.1.0-2+b1) ...
Removing libfreetype6:armhf (2.13.2+dfsg-1) ...
Removing libbrotli1:armhf (1.1.0-2+b1) ...
Removing libbz2-dev:armhf (1.0.8-5+b1) ...
Removing libxt-dev:armhf (1:1.2.1-1.1) ...
Removing libsm-dev:armhf (2:1.2.3-1) ...
Removing libice-dev:armhf (2:1.0.10-1) ...
Removing libxt6:armhf (1:1.2.1-1.1) ...
Removing libsm6:armhf (2:1.2.3-1) ...
Removing libice6:armhf (2:1.0.10-1) ...
Removing libpng-dev:armhf (1.6.40-3) ...
Removing libpng16-16:armhf (1.6.40-3) ...
Removing libxrender-dev:armhf (1:0.9.10-1.1) ...
Removing libx11-dev:armhf (2:1.8.7-1) ...
Removing libxcb1-dev:armhf (1.15-1) ...
Removing libpthread-stubs0-dev:armhf (0.4-1) ...
Removing libxrender1:armhf (1:0.9.10-1.1) ...
Removing libxext6:armhf (2:1.3.4-1+b1) ...
Removing libx11-6:armhf (2:1.8.7-1) ...
Removing libx11-data (2:1.8.7-1) ...
Removing libxau-dev:armhf (1:1.0.9-1) ...
Removing libxcb1:armhf (1.15-1) ...
Removing libxau6:armhf (1:1.0.9-1) ...
Removing libxdmcp-dev:armhf (1:1.1.2-3) ...
Removing libxdmcp6:armhf (1:1.1.2-3) ...
Removing pkg-config:armhf (1.8.1-1) ...
Removing uuid-dev:armhf (2.39.3-6) ...
Removing x11-common (1:7.7+23) ...
invoke-rc.d: could not determine current runlevel
Removing x11proto-dev (2023.2-1) ...
Removing xorg-sgml-doctools (1:1.11-1.1) ...
Removing xtrans-dev (1.4.0-1) ...
Processing triggers for sgml-base (1.31) ...
Processing triggers for libc-bin (2.37-13) ...
(Reading database ... (Reading database ... 5%(Reading database ... 10%(Reading database ... 15%(Reading database ... 20%(Reading database ... 25%(Reading database ... 30%(Reading database ... 35%(Reading database ... 40%(Reading database ... 45%(Reading database ... 50%(Reading database ... 55%(Reading database ... 60%(Reading database ... 65%(Reading database ... 70%(Reading database ... 75%(Reading database ... 80%(Reading database ... 85%(Reading database ... 90%(Reading database ... 95%(Reading database ... 100%(Reading database ... 18546 files and directories currently installed.)
Purging configuration files for fontconfig-config (2.14.2-6) ...
Purging configuration files for x11-common (1:7.7+23) ...
Purging configuration files for fonts-dejavu-mono (2.37-8) ...
Purging configuration files for pkg-config:armhf (1.8.1-1) ...
Purging configuration files for fonts-dejavu-core (2.37-8) ...
