[2024-01-07T22:33:51+00:00] apt-get install libnetcdf-c++4-dev abi-compliance-checker
Reading package lists...
Building dependency tree...
Reading state information...
abi-compliance-checker is already the newest version (2.3-2).
The following packages were automatically installed and are no longer required:
  libnet1 libnet1-dev sgml-base
Use 'apt autoremove' to remove them.
The following additional packages will be installed:
  hdf5-helpers icu-devtools libaec-dev libaec0 libbrotli1 libcurl3-gnutls
  libcurl4 libcurl4-gnutls-dev libgfortran5 libhdf5-103-1 libhdf5-cpp-103-1
  libhdf5-dev libhdf5-fortran-102 libhdf5-hl-100 libhdf5-hl-cpp-100
  libhdf5-hl-fortran-100 libicu-dev libjpeg-dev libjpeg62-turbo
  libjpeg62-turbo-dev libnetcdf-c++4-1 libnetcdf-dev libnetcdf19 libnghttp2-14
  libpsl5 librtmp1 libssh2-1 libssl-dev libsz2 libxml2-dev zlib1g-dev
Suggested packages:
  libcurl4-doc libgnutls28-dev libidn-dev libkrb5-dev libldap2-dev librtmp-dev
  libssh2-1-dev pkg-config libhdf5-doc icu-doc netcdf-bin netcdf-doc
  libssl-doc
Recommended packages:
  ca-certificates pkg-config publicsuffix
The following NEW packages will be installed:
  hdf5-helpers icu-devtools libaec-dev libaec0 libbrotli1 libcurl3-gnutls
  libcurl4 libcurl4-gnutls-dev libgfortran5 libhdf5-103-1 libhdf5-cpp-103-1
  libhdf5-dev libhdf5-fortran-102 libhdf5-hl-100 libhdf5-hl-cpp-100
  libhdf5-hl-fortran-100 libicu-dev libjpeg-dev libjpeg62-turbo
  libjpeg62-turbo-dev libnetcdf-c++4-1 libnetcdf-c++4-dev libnetcdf-dev
  libnetcdf19 libnghttp2-14 libpsl5 librtmp1 libssh2-1 libssl-dev libsz2
  libxml2-dev zlib1g-dev
0 upgraded, 32 newly installed, 0 to remove and 36 not upgraded.
Need to get 21.5 MB of archives.
After this operation, 79.8 MB of additional disk space will be used.
Get:1 http://deb.debian.org/debian unstable/main armhf hdf5-helpers armhf 1.10.10+repack-3 [23.2 kB]
Get:2 http://deb.debian.org/debian unstable/main armhf icu-devtools armhf 72.1-4 [184 kB]
Get:3 http://deb.debian.org/debian unstable/main armhf libaec0 armhf 1.1.2-1 [21.4 kB]
Get:4 http://deb.debian.org/debian unstable/main armhf libsz2 armhf 1.1.2-1 [7668 B]
Get:5 http://deb.debian.org/debian unstable/main armhf libaec-dev armhf 1.1.2-1 [18.6 kB]
Get:6 http://deb.debian.org/debian unstable/main armhf libbrotli1 armhf 1.1.0-2+b3 [284 kB]
Get:7 http://deb.debian.org/debian unstable/main armhf libnghttp2-14 armhf 1.58.0-1 [61.9 kB]
Get:8 http://deb.debian.org/debian unstable/main armhf libpsl5 armhf 0.21.2-1+b1 [57.8 kB]
Get:9 http://deb.debian.org/debian unstable/main armhf librtmp1 armhf 2.4+20151223.gitfa8646d.1-2+b2 [55.2 kB]
Get:10 http://deb.debian.org/debian unstable/main armhf libssh2-1 armhf 1.11.0-4 [197 kB]
Get:11 http://deb.debian.org/debian unstable/main armhf libcurl3-gnutls armhf 8.5.0-2 [378 kB]
Get:12 http://deb.debian.org/debian unstable/main armhf libcurl4 armhf 8.5.0-2 [383 kB]
Get:13 http://deb.debian.org/debian unstable/main armhf libcurl4-gnutls-dev armhf 8.5.0-2 [490 kB]
Get:14 http://deb.debian.org/debian unstable/main armhf libgfortran5 armhf 13.2.0-9 [254 kB]
Get:15 http://deb.debian.org/debian unstable/main armhf libhdf5-103-1 armhf 1.10.10+repack-3 [1185 kB]
Get:16 http://deb.debian.org/debian unstable/main armhf libhdf5-cpp-103-1 armhf 1.10.10+repack-3 [120 kB]
Get:17 http://deb.debian.org/debian unstable/main armhf libhdf5-fortran-102 armhf 1.10.10+repack-3 [77.6 kB]
Get:18 http://deb.debian.org/debian unstable/main armhf libhdf5-hl-100 armhf 1.10.10+repack-3 [60.5 kB]
Get:19 http://deb.debian.org/debian unstable/main armhf libhdf5-hl-fortran-100 armhf 1.10.10+repack-3 [34.1 kB]
Get:20 http://deb.debian.org/debian unstable/main armhf libhdf5-hl-cpp-100 armhf 1.10.10+repack-3 [20.5 kB]
Get:21 http://deb.debian.org/debian unstable/main armhf zlib1g-dev armhf 1:1.3.dfsg-3 [904 kB]
Get:22 http://deb.debian.org/debian unstable/main armhf libjpeg62-turbo armhf 1:2.1.5-2+b2 [143 kB]
Get:23 http://deb.debian.org/debian unstable/main armhf libjpeg62-turbo-dev armhf 1:2.1.5-2+b2 [260 kB]
Get:24 http://deb.debian.org/debian unstable/main armhf libjpeg-dev armhf 1:2.1.5-2+b2 [72.1 kB]
Get:25 http://deb.debian.org/debian unstable/main armhf libssl-dev armhf 3.1.4-2 [2149 kB]
Get:26 http://deb.debian.org/debian unstable/main armhf libhdf5-dev armhf 1.10.10+repack-3 [2606 kB]
Get:27 http://deb.debian.org/debian unstable/main armhf libicu-dev armhf 72.1-4 [10.1 MB]
Get:28 http://deb.debian.org/debian unstable/main armhf libnetcdf19 armhf 1:4.9.2-3 [418 kB]
Get:29 http://deb.debian.org/debian unstable/main armhf libnetcdf-c++4-1 armhf 4.3.1-4 [67.3 kB]
Get:30 http://deb.debian.org/debian unstable/main armhf libxml2-dev armhf 2.9.14+dfsg-1.3+b2 [717 kB]
Get:31 http://deb.debian.org/debian unstable/main armhf libnetcdf-dev armhf 1:4.9.2-3 [103 kB]
Get:32 http://deb.debian.org/debian unstable/main armhf libnetcdf-c++4-dev armhf 4.3.1-4 [98.0 kB]
debconf: delaying package configuration, since apt-utils is not installed
Fetched 21.5 MB in 1s (26.0 MB/s)
Selecting previously unselected package hdf5-helpers.
(Reading database ... (Reading database ... 5%(Reading database ... 10%(Reading database ... 15%(Reading database ... 20%(Reading database ... 25%(Reading database ... 30%(Reading database ... 35%(Reading database ... 40%(Reading database ... 45%(Reading database ... 50%(Reading database ... 55%(Reading database ... 60%(Reading database ... 65%(Reading database ... 70%(Reading database ... 75%(Reading database ... 80%(Reading database ... 85%(Reading database ... 90%(Reading database ... 95%(Reading database ... 100%(Reading database ... 14901 files and directories currently installed.)
Preparing to unpack .../00-hdf5-helpers_1.10.10+repack-3_armhf.deb ...
Unpacking hdf5-helpers (1.10.10+repack-3) ...
Selecting previously unselected package icu-devtools.
Preparing to unpack .../01-icu-devtools_72.1-4_armhf.deb ...
Unpacking icu-devtools (72.1-4) ...
Selecting previously unselected package libaec0:armhf.
Preparing to unpack .../02-libaec0_1.1.2-1_armhf.deb ...
Unpacking libaec0:armhf (1.1.2-1) ...
Selecting previously unselected package libsz2:armhf.
Preparing to unpack .../03-libsz2_1.1.2-1_armhf.deb ...
Unpacking libsz2:armhf (1.1.2-1) ...
Selecting previously unselected package libaec-dev:armhf.
Preparing to unpack .../04-libaec-dev_1.1.2-1_armhf.deb ...
Unpacking libaec-dev:armhf (1.1.2-1) ...
Selecting previously unselected package libbrotli1:armhf.
Preparing to unpack .../05-libbrotli1_1.1.0-2+b3_armhf.deb ...
Unpacking libbrotli1:armhf (1.1.0-2+b3) ...
Selecting previously unselected package libnghttp2-14:armhf.
Preparing to unpack .../06-libnghttp2-14_1.58.0-1_armhf.deb ...
Unpacking libnghttp2-14:armhf (1.58.0-1) ...
Selecting previously unselected package libpsl5:armhf.
Preparing to unpack .../07-libpsl5_0.21.2-1+b1_armhf.deb ...
Unpacking libpsl5:armhf (0.21.2-1+b1) ...
Selecting previously unselected package librtmp1:armhf.
Preparing to unpack .../08-librtmp1_2.4+20151223.gitfa8646d.1-2+b2_armhf.deb ...
Unpacking librtmp1:armhf (2.4+20151223.gitfa8646d.1-2+b2) ...
Selecting previously unselected package libssh2-1:armhf.
Preparing to unpack .../09-libssh2-1_1.11.0-4_armhf.deb ...
Unpacking libssh2-1:armhf (1.11.0-4) ...
Selecting previously unselected package libcurl3-gnutls:armhf.
Preparing to unpack .../10-libcurl3-gnutls_8.5.0-2_armhf.deb ...
Unpacking libcurl3-gnutls:armhf (8.5.0-2) ...
Selecting previously unselected package libcurl4:armhf.
Preparing to unpack .../11-libcurl4_8.5.0-2_armhf.deb ...
Unpacking libcurl4:armhf (8.5.0-2) ...
Selecting previously unselected package libcurl4-gnutls-dev:armhf.
Preparing to unpack .../12-libcurl4-gnutls-dev_8.5.0-2_armhf.deb ...
Unpacking libcurl4-gnutls-dev:armhf (8.5.0-2) ...
Selecting previously unselected package libgfortran5:armhf.
Preparing to unpack .../13-libgfortran5_13.2.0-9_armhf.deb ...
Unpacking libgfortran5:armhf (13.2.0-9) ...
Selecting previously unselected package libhdf5-103-1:armhf.
Preparing to unpack .../14-libhdf5-103-1_1.10.10+repack-3_armhf.deb ...
Unpacking libhdf5-103-1:armhf (1.10.10+repack-3) ...
Selecting previously unselected package libhdf5-cpp-103-1:armhf.
Preparing to unpack .../15-libhdf5-cpp-103-1_1.10.10+repack-3_armhf.deb ...
Unpacking libhdf5-cpp-103-1:armhf (1.10.10+repack-3) ...
Selecting previously unselected package libhdf5-fortran-102:armhf.
Preparing to unpack .../16-libhdf5-fortran-102_1.10.10+repack-3_armhf.deb ...
Unpacking libhdf5-fortran-102:armhf (1.10.10+repack-3) ...
Selecting previously unselected package libhdf5-hl-100:armhf.
Preparing to unpack .../17-libhdf5-hl-100_1.10.10+repack-3_armhf.deb ...
Unpacking libhdf5-hl-100:armhf (1.10.10+repack-3) ...
Selecting previously unselected package libhdf5-hl-fortran-100:armhf.
Preparing to unpack .../18-libhdf5-hl-fortran-100_1.10.10+repack-3_armhf.deb ...
Unpacking libhdf5-hl-fortran-100:armhf (1.10.10+repack-3) ...
Selecting previously unselected package libhdf5-hl-cpp-100:armhf.
Preparing to unpack .../19-libhdf5-hl-cpp-100_1.10.10+repack-3_armhf.deb ...
Unpacking libhdf5-hl-cpp-100:armhf (1.10.10+repack-3) ...
Selecting previously unselected package zlib1g-dev:armhf.
Preparing to unpack .../20-zlib1g-dev_1%3a1.3.dfsg-3_armhf.deb ...
Unpacking zlib1g-dev:armhf (1:1.3.dfsg-3) ...
Selecting previously unselected package libjpeg62-turbo:armhf.
Preparing to unpack .../21-libjpeg62-turbo_1%3a2.1.5-2+b2_armhf.deb ...
Unpacking libjpeg62-turbo:armhf (1:2.1.5-2+b2) ...
Selecting previously unselected package libjpeg62-turbo-dev:armhf.
Preparing to unpack .../22-libjpeg62-turbo-dev_1%3a2.1.5-2+b2_armhf.deb ...
Unpacking libjpeg62-turbo-dev:armhf (1:2.1.5-2+b2) ...
Selecting previously unselected package libjpeg-dev:armhf.
Preparing to unpack .../23-libjpeg-dev_1%3a2.1.5-2+b2_armhf.deb ...
Unpacking libjpeg-dev:armhf (1:2.1.5-2+b2) ...
Selecting previously unselected package libssl-dev:armhf.
Preparing to unpack .../24-libssl-dev_3.1.4-2_armhf.deb ...
Unpacking libssl-dev:armhf (3.1.4-2) ...
Selecting previously unselected package libhdf5-dev.
Preparing to unpack .../25-libhdf5-dev_1.10.10+repack-3_armhf.deb ...
Unpacking libhdf5-dev (1.10.10+repack-3) ...
Selecting previously unselected package libicu-dev:armhf.
Preparing to unpack .../26-libicu-dev_72.1-4_armhf.deb ...
Unpacking libicu-dev:armhf (72.1-4) ...
Selecting previously unselected package libnetcdf19:armhf.
Preparing to unpack .../27-libnetcdf19_1%3a4.9.2-3_armhf.deb ...
Unpacking libnetcdf19:armhf (1:4.9.2-3) ...
Selecting previously unselected package libnetcdf-c++4-1.
Preparing to unpack .../28-libnetcdf-c++4-1_4.3.1-4_armhf.deb ...
Unpacking libnetcdf-c++4-1 (4.3.1-4) ...
Selecting previously unselected package libxml2-dev:armhf.
Preparing to unpack .../29-libxml2-dev_2.9.14+dfsg-1.3+b2_armhf.deb ...
Unpacking libxml2-dev:armhf (2.9.14+dfsg-1.3+b2) ...
Selecting previously unselected package libnetcdf-dev.
Preparing to unpack .../30-libnetcdf-dev_1%3a4.9.2-3_armhf.deb ...
Unpacking libnetcdf-dev (1:4.9.2-3) ...
Selecting previously unselected package libnetcdf-c++4-dev.
Preparing to unpack .../31-libnetcdf-c++4-dev_4.3.1-4_armhf.deb ...
Unpacking libnetcdf-c++4-dev (4.3.1-4) ...
Setting up libpsl5:armhf (0.21.2-1+b1) ...
Setting up hdf5-helpers (1.10.10+repack-3) ...
Setting up libbrotli1:armhf (1.1.0-2+b3) ...
Setting up libnghttp2-14:armhf (1.58.0-1) ...
Setting up libaec0:armhf (1.1.2-1) ...
Setting up libjpeg62-turbo:armhf (1:2.1.5-2+b2) ...
Setting up libjpeg62-turbo-dev:armhf (1:2.1.5-2+b2) ...
Setting up librtmp1:armhf (2.4+20151223.gitfa8646d.1-2+b2) ...
Setting up libssl-dev:armhf (3.1.4-2) ...
Setting up icu-devtools (72.1-4) ...
Setting up libgfortran5:armhf (13.2.0-9) ...
Setting up zlib1g-dev:armhf (1:1.3.dfsg-3) ...
Setting up libssh2-1:armhf (1.11.0-4) ...
Setting up libicu-dev:armhf (72.1-4) ...
Setting up libsz2:armhf (1.1.2-1) ...
Setting up libaec-dev:armhf (1.1.2-1) ...
Setting up libjpeg-dev:armhf (1:2.1.5-2+b2) ...
Setting up libcurl3-gnutls:armhf (8.5.0-2) ...
Setting up libcurl4-gnutls-dev:armhf (8.5.0-2) ...
Setting up libxml2-dev:armhf (2.9.14+dfsg-1.3+b2) ...
Setting up libcurl4:armhf (8.5.0-2) ...
Setting up libhdf5-103-1:armhf (1.10.10+repack-3) ...
Setting up libhdf5-cpp-103-1:armhf (1.10.10+repack-3) ...
Setting up libhdf5-hl-100:armhf (1.10.10+repack-3) ...
Setting up libhdf5-hl-cpp-100:armhf (1.10.10+repack-3) ...
Setting up libhdf5-fortran-102:armhf (1.10.10+repack-3) ...
Setting up libnetcdf19:armhf (1:4.9.2-3) ...
Setting up libhdf5-hl-fortran-100:armhf (1.10.10+repack-3) ...
Setting up libnetcdf-c++4-1 (4.3.1-4) ...
Setting up libhdf5-dev (1.10.10+repack-3) ...
update-alternatives: using /usr/lib/arm-linux-gnueabihf/pkgconfig/hdf5-serial.pc to provide /usr/lib/arm-linux-gnueabihf/pkgconfig/hdf5.pc (hdf5.pc) in auto mode
Setting up libnetcdf-dev (1:4.9.2-3) ...
Setting up libnetcdf-c++4-dev (4.3.1-4) ...
Processing triggers for libc-bin (2.37-13) ...
Reading package lists...
Building dependency tree...
Reading state information...
The following packages will be REMOVED:
  libnet1* libnet1-dev* sgml-base*
0 upgraded, 0 newly installed, 3 to remove and 36 not upgraded.
After this operation, 602 kB disk space will be freed.
(Reading database ... (Reading database ... 5%(Reading database ... 10%(Reading database ... 15%(Reading database ... 20%(Reading database ... 25%(Reading database ... 30%(Reading database ... 35%(Reading database ... 40%(Reading database ... 45%(Reading database ... 50%(Reading database ... 55%(Reading database ... 60%(Reading database ... 65%(Reading database ... 70%(Reading database ... 75%(Reading database ... 80%(Reading database ... 85%(Reading database ... 90%(Reading database ... 95%(Reading database ... 100%(Reading database ... 15825 files and directories currently installed.)
Removing libnet1-dev (1.1.6+dfsg-3.2) ...
Removing libnet1:armhf (1.1.6+dfsg-3.2) ...
Removing sgml-base (1.31) ...
Processing triggers for libc-bin (2.37-13) ...
(Reading database ... (Reading database ... 5%(Reading database ... 10%(Reading database ... 15%(Reading database ... 20%(Reading database ... 25%(Reading database ... 30%(Reading database ... 35%(Reading database ... 40%(Reading database ... 45%(Reading database ... 50%(Reading database ... 55%(Reading database ... 60%(Reading database ... 65%(Reading database ... 70%(Reading database ... 75%(Reading database ... 80%(Reading database ... 85%(Reading database ... 90%(Reading database ... 95%(Reading database ... 100%(Reading database ... 15768 files and directories currently installed.)
Purging configuration files for sgml-base (1.31) ...
