Temporary header file '/tmp/_xi04SldYj/dump1.h' with the following content will be compiled to create GCC translation unit dump:

  // add defines
  #define __STDC_VERSION__ 201710L
#define _FILE_OFFSET_BITS 64
#define _GXX_NULLPTR_T
#define CLUTTER_ENABLE_COMPOSITOR_API 1
#define _REGEX_NELTS(n)
#define _Atomic
#define PACKED
#ifdef __cplusplus
// C17 compat layer
#define _Alignof(type) alignof(type)
#endif
#define getaddrinfo_a(a,b,c,d)

  // add includes
  #include "/usr/include/gps.h"
  #include "/usr/include/libgpsmm.h"

  // add classes
  _G_fpos64_t* tmp_add_class_0;
  _G_fpos_t* tmp_add_class_1;
  _IO_cookie_io_functions_t* tmp_add_class_2;
  ais_t* tmp_add_class_3;
  almanac_t* tmp_add_class_4;
  attitude_t* tmp_add_class_5;
  baseline_t* tmp_add_class_6;
  devconfig_t* tmp_add_class_7;
  dop_t* tmp_add_class_8;
  fixsource_t* tmp_add_class_9;
  gps_data_t* tmp_add_class_10;
  gps_fix_t* tmp_add_class_11;
  gps_log_t* tmp_add_class_12;
  gps_policy_t* tmp_add_class_13;
  gpsmm* tmp_add_class_14;
  gst_t* tmp_add_class_15;
  itimerval* tmp_add_class_16;
  orbit* tmp_add_class_17;
  oscillator_t* tmp_add_class_18;
  privdata_t* tmp_add_class_19;
  rawdata_t* tmp_add_class_20;
  route_info* tmp_add_class_21;
  rtcm2_t* tmp_add_class_22;
  rtcm3_basic_rtk* tmp_add_class_23;
  rtcm3_correction_diff* tmp_add_class_24;
  rtcm3_extended_rtk* tmp_add_class_25;
  rtcm3_msm_hdr* tmp_add_class_26;
  rtcm3_msm_sat* tmp_add_class_27;
  rtcm3_msm_sig* tmp_add_class_28;
  rtcm3_network_rtk_header* tmp_add_class_29;
  rtcm3_rtk_hdr* tmp_add_class_30;
  rtcm3_t* tmp_add_class_31;
  satellite_t* tmp_add_class_32;
  subframe_t* tmp_add_class_33;
  timedelta_t* tmp_add_class_34;
  ucontext_t* tmp_add_class_35;
  version_t* tmp_add_class_36;

The GCC parameters:
  gcc -fdump-lang-raw -fkeep-inline-functions -c -x c++ -fpermissive -w "/tmp/_xi04SldYj/dump1.h"

