Temporary header file '/tmp/ThZVlgTq85/dump1.h' with the following content will be compiled to create GCC translation unit dump:

  // add defines
  #define __STDC_VERSION__ 201710L
#define _TIME_BITS 64
#define _FILE_OFFSET_BITS 64
#define _GXX_NULLPTR_T
#define CLUTTER_ENABLE_COMPOSITOR_API 1
#define _REGEX_NELTS(n)
#define _Atomic
#define PACKED
#ifdef __cplusplus
// C17 compat layer
#define _Alignof(type) alignof(type)
#endif
#define getaddrinfo_a(a,b,c,d) 
#define _Static_assert(...);

  // add includes
  #include "/usr/lib/llvm-14/include/mlir/InitAllDialects.h"

  // add namespaces
  namespace llvm{typedef int tmp_add_type_1;}
  llvm::tmp_add_type_1 tmp_add_func_1(){return 0;};
  namespace llvm{namespace APIntOps{typedef int tmp_add_type_2;}}
  llvm::APIntOps::tmp_add_type_2 tmp_add_func_2(){return 0;};
  namespace llvm{namespace AttributeFuncs{typedef int tmp_add_type_3;}}
  llvm::AttributeFuncs::tmp_add_type_3 tmp_add_func_3(){return 0;};
  namespace llvm{namespace BitmaskEnumDetail{typedef int tmp_add_type_4;}}
  llvm::BitmaskEnumDetail::tmp_add_type_4 tmp_add_func_4(){return 0;};
  namespace llvm{namespace CallingConv{typedef int tmp_add_type_5;}}
  llvm::CallingConv::tmp_add_type_5 tmp_add_func_5(){return 0;};
  namespace llvm{namespace CodeGenOpt{typedef int tmp_add_type_6;}}
  llvm::CodeGenOpt::tmp_add_type_6 tmp_add_func_6(){return 0;};
  namespace llvm{namespace CodeModel{typedef int tmp_add_type_7;}}
  llvm::CodeModel::tmp_add_type_7 tmp_add_func_7(){return 0;};
  namespace llvm{namespace detail{typedef int tmp_add_type_8;}}
  llvm::detail::tmp_add_type_8 tmp_add_func_8(){return 0;};
  namespace llvm{namespace hashing{typedef int tmp_add_type_9;}}
  llvm::hashing::tmp_add_type_9 tmp_add_func_9(){return 0;};
  namespace llvm{namespace hashing{namespace detail{typedef int tmp_add_type_10;}}}
  llvm::hashing::detail::tmp_add_type_10 tmp_add_func_10(){return 0;};
  namespace llvm{namespace Intrinsic{typedef int tmp_add_type_11;}}
  llvm::Intrinsic::tmp_add_type_11 tmp_add_func_11(){return 0;};
  namespace llvm{namespace mdconst{typedef int tmp_add_type_12;}}
  llvm::mdconst::tmp_add_type_12 tmp_add_func_12(){return 0;};
  namespace llvm{namespace mdconst{namespace detail{typedef int tmp_add_type_13;}}}
  llvm::mdconst::detail::tmp_add_type_13 tmp_add_func_13(){return 0;};
  namespace llvm{namespace numbers{typedef int tmp_add_type_14;}}
  llvm::numbers::tmp_add_type_14 tmp_add_func_14(){return 0;};
  namespace llvm{namespace PICLevel{typedef int tmp_add_type_15;}}
  llvm::PICLevel::tmp_add_type_15 tmp_add_func_15(){return 0;};
  namespace llvm{namespace PIELevel{typedef int tmp_add_type_16;}}
  llvm::PIELevel::tmp_add_type_16 tmp_add_func_16(){return 0;};
  namespace llvm{namespace Reloc{typedef int tmp_add_type_17;}}
  llvm::Reloc::tmp_add_type_17 tmp_add_func_17(){return 0;};
  namespace llvm{namespace remarks{typedef int tmp_add_type_18;}}
  llvm::remarks::tmp_add_type_18 tmp_add_func_18(){return 0;};
  namespace llvm{namespace support{typedef int tmp_add_type_19;}}
  llvm::support::tmp_add_type_19 tmp_add_func_19(){return 0;};
  namespace llvm{namespace support{namespace detail{typedef int tmp_add_type_20;}}}
  llvm::support::detail::tmp_add_type_20 tmp_add_func_20(){return 0;};
  namespace llvm{namespace support{namespace endian{typedef int tmp_add_type_21;}}}
  llvm::support::endian::tmp_add_type_21 tmp_add_func_21(){return 0;};
  namespace llvm{namespace SyncScope{typedef int tmp_add_type_22;}}
  llvm::SyncScope::tmp_add_type_22 tmp_add_func_22(){return 0;};
  namespace llvm{namespace sys{typedef int tmp_add_type_23;}}
  llvm::sys::tmp_add_type_23 tmp_add_func_23(){return 0;};
  namespace llvm{namespace sys{namespace fs{typedef int tmp_add_type_24;}}}
  llvm::sys::fs::tmp_add_type_24 tmp_add_func_24(){return 0;};
  namespace llvm{namespace TLSModel{typedef int tmp_add_type_25;}}
  llvm::TLSModel::tmp_add_type_25 tmp_add_func_25(){return 0;};
  namespace mlir{typedef int tmp_add_type_26;}
  mlir::tmp_add_type_26 tmp_add_func_26(){return 0;};
  namespace mlir{namespace acc{typedef int tmp_add_type_27;}}
  mlir::acc::tmp_add_type_27 tmp_add_func_27(){return 0;};
  namespace mlir{namespace acc{namespace detail{typedef int tmp_add_type_28;}}}
  mlir::acc::detail::tmp_add_type_28 tmp_add_func_28(){return 0;};
  namespace mlir{namespace amx{typedef int tmp_add_type_29;}}
  mlir::amx::tmp_add_type_29 tmp_add_func_29(){return 0;};
  namespace mlir{namespace arith{typedef int tmp_add_type_30;}}
  mlir::arith::tmp_add_type_30 tmp_add_func_30(){return 0;};
  namespace mlir{namespace async{typedef int tmp_add_type_31;}}
  mlir::async::tmp_add_type_31 tmp_add_func_31(){return 0;};
  namespace mlir{namespace async{namespace detail{typedef int tmp_add_type_32;}}}
  mlir::async::detail::tmp_add_type_32 tmp_add_func_32(){return 0;};
  namespace mlir{namespace AttributeTrait{typedef int tmp_add_type_33;}}
  mlir::AttributeTrait::tmp_add_type_33 tmp_add_func_33(){return 0;};
  namespace mlir{namespace bufferization{typedef int tmp_add_type_34;}}
  mlir::bufferization::tmp_add_type_34 tmp_add_func_34(){return 0;};
  namespace mlir{namespace bufferization{namespace detail{typedef int tmp_add_type_35;}}}
  mlir::bufferization::detail::tmp_add_type_35 tmp_add_func_35(){return 0;};
  namespace mlir{namespace complex{typedef int tmp_add_type_36;}}
  mlir::complex::tmp_add_type_36 tmp_add_func_36(){return 0;};
  namespace mlir{namespace detail{typedef int tmp_add_type_37;}}
  mlir::detail::tmp_add_type_37 tmp_add_func_37(){return 0;};
  namespace mlir{namespace emitc{typedef int tmp_add_type_38;}}
  mlir::emitc::tmp_add_type_38 tmp_add_func_38(){return 0;};
  namespace mlir{namespace emitc{namespace detail{typedef int tmp_add_type_39;}}}
  mlir::emitc::detail::tmp_add_type_39 tmp_add_func_39(){return 0;};
  namespace mlir{namespace gpu{typedef int tmp_add_type_40;}}
  mlir::gpu::tmp_add_type_40 tmp_add_func_40(){return 0;};
  namespace mlir{namespace gpu{namespace detail{typedef int tmp_add_type_41;}}}
  mlir::gpu::detail::tmp_add_type_41 tmp_add_func_41(){return 0;};
  namespace mlir{namespace impl{typedef int tmp_add_type_42;}}
  mlir::impl::tmp_add_type_42 tmp_add_func_42(){return 0;};
  namespace mlir{namespace linalg{typedef int tmp_add_type_43;}}
  mlir::linalg::tmp_add_type_43 tmp_add_func_43(){return 0;};
  namespace mlir{namespace linalg{namespace detail{typedef int tmp_add_type_44;}}}
  mlir::linalg::detail::tmp_add_type_44 tmp_add_func_44(){return 0;};
  namespace mlir{namespace LLVM{typedef int tmp_add_type_45;}}
  mlir::LLVM::tmp_add_type_45 tmp_add_func_45(){return 0;};
  namespace mlir{namespace LLVM{namespace detail{typedef int tmp_add_type_46;}}}
  mlir::LLVM::detail::tmp_add_type_46 tmp_add_func_46(){return 0;};
  namespace mlir{namespace LLVM{namespace linkage{typedef int tmp_add_type_47;}}}
  mlir::LLVM::linkage::tmp_add_type_47 tmp_add_func_47(){return 0;};
  namespace mlir{namespace math{typedef int tmp_add_type_48;}}
  mlir::math::tmp_add_type_48 tmp_add_func_48(){return 0;};
  namespace mlir{namespace MemoryEffects{typedef int tmp_add_type_49;}}
  mlir::MemoryEffects::tmp_add_type_49 tmp_add_func_49(){return 0;};
  namespace mlir{namespace memref{typedef int tmp_add_type_50;}}
  mlir::memref::tmp_add_type_50 tmp_add_func_50(){return 0;};
  namespace mlir{namespace NVVM{typedef int tmp_add_type_51;}}
  mlir::NVVM::tmp_add_type_51 tmp_add_func_51(){return 0;};
  namespace mlir{namespace NVVM{namespace detail{typedef int tmp_add_type_52;}}}
  mlir::NVVM::detail::tmp_add_type_52 tmp_add_func_52(){return 0;};
  namespace mlir{namespace omp{typedef int tmp_add_type_53;}}
  mlir::omp::tmp_add_type_53 tmp_add_func_53(){return 0;};
  namespace mlir{namespace omp{namespace detail{typedef int tmp_add_type_54;}}}
  mlir::omp::detail::tmp_add_type_54 tmp_add_func_54(){return 0;};
  namespace mlir{namespace OpTrait{typedef int tmp_add_type_55;}}
  mlir::OpTrait::tmp_add_type_55 tmp_add_func_55(){return 0;};
  namespace mlir{namespace OpTrait{namespace detail{typedef int tmp_add_type_56;}}}
  mlir::OpTrait::detail::tmp_add_type_56 tmp_add_func_56(){return 0;};
  namespace mlir{namespace OpTrait{namespace impl{typedef int tmp_add_type_57;}}}
  mlir::OpTrait::impl::tmp_add_type_57 tmp_add_func_57(){return 0;};
  namespace mlir{namespace OpTrait{namespace util{typedef int tmp_add_type_58;}}}
  mlir::OpTrait::util::tmp_add_type_58 tmp_add_func_58(){return 0;};
  namespace mlir{namespace pdl{typedef int tmp_add_type_59;}}
  mlir::pdl::tmp_add_type_59 tmp_add_func_59(){return 0;};
  namespace mlir{namespace pdl{namespace detail{typedef int tmp_add_type_60;}}}
  mlir::pdl::detail::tmp_add_type_60 tmp_add_func_60(){return 0;};
  namespace mlir{namespace quant{typedef int tmp_add_type_61;}}
  mlir::quant::tmp_add_type_61 tmp_add_func_61(){return 0;};
  namespace mlir{namespace ROCDL{typedef int tmp_add_type_62;}}
  mlir::ROCDL::tmp_add_type_62 tmp_add_func_62(){return 0;};
  namespace mlir{namespace scf{typedef int tmp_add_type_63;}}
  mlir::scf::tmp_add_type_63 tmp_add_func_63(){return 0;};
  namespace mlir{namespace shape{typedef int tmp_add_type_64;}}
  mlir::shape::tmp_add_type_64 tmp_add_func_64(){return 0;};
  namespace mlir{namespace SideEffects{typedef int tmp_add_type_65;}}
  mlir::SideEffects::tmp_add_type_65 tmp_add_func_65(){return 0;};
  namespace mlir{namespace spirv{typedef int tmp_add_type_66;}}
  mlir::spirv::tmp_add_type_66 tmp_add_func_66(){return 0;};
  namespace mlir{namespace tensor{typedef int tmp_add_type_67;}}
  mlir::tensor::tmp_add_type_67 tmp_add_func_67(){return 0;};
  namespace mlir{namespace tosa{typedef int tmp_add_type_68;}}
  mlir::tosa::tmp_add_type_68 tmp_add_func_68(){return 0;};
  namespace mlir{namespace tosa{namespace detail{typedef int tmp_add_type_69;}}}
  mlir::tosa::detail::tmp_add_type_69 tmp_add_func_69(){return 0;};
  namespace mlir{namespace TypeTrait{typedef int tmp_add_type_70;}}
  mlir::TypeTrait::tmp_add_type_70 tmp_add_func_70(){return 0;};
  namespace mlir{namespace vector{typedef int tmp_add_type_71;}}
  mlir::vector::tmp_add_type_71 tmp_add_func_71(){return 0;};
  namespace mlir{namespace vector{namespace detail{typedef int tmp_add_type_72;}}}
  mlir::vector::detail::tmp_add_type_72 tmp_add_func_72(){return 0;};
  namespace mlir{namespace x86vector{typedef int tmp_add_type_73;}}
  mlir::x86vector::tmp_add_type_73 tmp_add_func_73(){return 0;};
  namespace llvm{namespace adl_detail{typedef int tmp_add_type_74;}}
  llvm::adl_detail::tmp_add_type_74 tmp_add_func_74(){return 0;};
  namespace llvm{namespace bitfields_details{typedef int tmp_add_type_75;}}
  llvm::bitfields_details::tmp_add_type_75 tmp_add_func_75(){return 0;};
  namespace llvm{namespace ilist_detail{typedef int tmp_add_type_76;}}
  llvm::ilist_detail::tmp_add_type_76 tmp_add_func_76(){return 0;};
  namespace llvm{namespace optional_detail{typedef int tmp_add_type_77;}}
  llvm::optional_detail::tmp_add_type_77 tmp_add_func_77(){return 0;};
  namespace llvm{namespace pointer_union_detail{typedef int tmp_add_type_78;}}
  llvm::pointer_union_detail::tmp_add_type_78 tmp_add_func_78(){return 0;};
  namespace llvm{namespace trailing_objects_internal{typedef int tmp_add_type_79;}}
  llvm::trailing_objects_internal::tmp_add_type_79 tmp_add_func_79(){return 0;};
  namespace mlir{namespace arm_neon{typedef int tmp_add_type_80;}}
  mlir::arm_neon::tmp_add_type_80 tmp_add_func_80(){return 0;};
  namespace mlir{namespace arm_sve{typedef int tmp_add_type_81;}}
  mlir::arm_sve::tmp_add_type_81 tmp_add_func_81(){return 0;};
  namespace mlir{namespace detail{namespace __anonb6eadaf97411{typedef int tmp_add_type_82;}}}
  mlir::detail::__anonb6eadaf97411::tmp_add_type_82 tmp_add_func_82(){return 0;};
  namespace mlir{namespace detail{namespace storage_user_base_impl{typedef int tmp_add_type_83;}}}
  mlir::detail::storage_user_base_impl::tmp_add_type_83 tmp_add_func_83(){return 0;};
  namespace mlir{namespace function_interface_impl{typedef int tmp_add_type_84;}}
  mlir::function_interface_impl::tmp_add_type_84 tmp_add_func_84(){return 0;};
  namespace mlir{namespace function_interface_impl{namespace detail{typedef int tmp_add_type_85;}}}
  mlir::function_interface_impl::detail::tmp_add_type_85 tmp_add_func_85(){return 0;};
  namespace mlir{namespace op_definition_impl{typedef int tmp_add_type_86;}}
  mlir::op_definition_impl::tmp_add_type_86 tmp_add_func_86(){return 0;};
  namespace mlir{namespace pdl_interp{typedef int tmp_add_type_87;}}
  mlir::pdl_interp::tmp_add_type_87 tmp_add_func_87(){return 0;};
  namespace mlir{namespace sparse_tensor{typedef int tmp_add_type_88;}}
  mlir::sparse_tensor::tmp_add_type_88 tmp_add_func_88(){return 0;};
  namespace mlir{namespace sparse_tensor{namespace detail{typedef int tmp_add_type_89;}}}
  mlir::sparse_tensor::detail::tmp_add_type_89 tmp_add_func_89(){return 0;};

  // add classes
  _G_fpos64_t* tmp_add_class_0;
  _G_fpos_t* tmp_add_class_1;
  _IO_cookie_io_functions_t* tmp_add_class_2;

The GCC parameters:
  gcc -fdump-lang-raw -fkeep-inline-functions -c -x c++ -fpermissive -w "/tmp/ThZVlgTq85/dump1.h"  -I/usr/include/llvm-c-14 -I/usr/include/llvm-14 -I/usr/lib/llvm-14/include

