Temporary header file '/tmp/EDrHe3ggT_/dump1.h' with the following content will be compiled to create GCC translation unit dump:

  // add defines
  #define __STDC_VERSION__ 201710L
#define _FILE_OFFSET_BITS 64
#define _GXX_NULLPTR_T
#define CLUTTER_ENABLE_COMPOSITOR_API 1
#define _REGEX_NELTS(n)
#define _Atomic
#define PACKED
#ifdef __cplusplus
// C17 compat layer
#define _Alignof(type) alignof(type)
#endif
#define getaddrinfo_a(a,b,c,d)

  // add includes
  #include "/usr/include/cups/raster.h"

  // add classes
  _http_addr_u* tmp_add_class_0;
  addrinfo* tmp_add_class_1;
  cmsghdr* tmp_add_class_2;
  cups_dest_s* tmp_add_class_3;
  cups_job_s* tmp_add_class_4;
  cups_lang_s* tmp_add_class_5;
  cups_option_s* tmp_add_class_6;
  cups_page_header2_s* tmp_add_class_7;
  cups_page_header_s* tmp_add_class_8;
  cups_size_s* tmp_add_class_9;
  gaicb* tmp_add_class_10;
  group_filter* tmp_add_class_11;
  group_req* tmp_add_class_12;
  group_source_req* tmp_add_class_13;
  hostent* tmp_add_class_14;
  http_addrlist_s* tmp_add_class_15;
  http_credential_s* tmp_add_class_16;
  in6_addr* tmp_add_class_17;
  in6_pktinfo* tmp_add_class_18;
  in_addr* tmp_add_class_19;
  in_pktinfo* tmp_add_class_20;
  iovec* tmp_add_class_21;
  ip* tmp_add_class_22;
  ip6_mtuinfo* tmp_add_class_23;
  ip_mreq* tmp_add_class_24;
  ip_mreq_source* tmp_add_class_25;
  ip_mreqn* tmp_add_class_26;
  ip_msfilter* tmp_add_class_27;
  ip_opts* tmp_add_class_28;
  ip_timestamp* tmp_add_class_29;
  iphdr* tmp_add_class_30;
  ipv6_mreq* tmp_add_class_31;
  itimerval* tmp_add_class_32;
  linger* tmp_add_class_33;
  mmsghdr* tmp_add_class_34;
  msghdr* tmp_add_class_35;
  netent* tmp_add_class_36;
  osockaddr* tmp_add_class_37;
  protoent* tmp_add_class_38;
  pwg_map_s* tmp_add_class_39;
  pwg_media_s* tmp_add_class_40;
  pwg_size_s* tmp_add_class_41;
  rpcent* tmp_add_class_42;
  servent* tmp_add_class_43;
  sockaddr* tmp_add_class_44;
  sockaddr_in* tmp_add_class_45;
  sockaddr_in6* tmp_add_class_46;
  sockaddr_storage* tmp_add_class_47;
  sockaddr_un* tmp_add_class_48;
  tcp_cookie_transactions* tmp_add_class_49;
  tcp_info* tmp_add_class_50;
  tcp_md5sig* tmp_add_class_51;
  tcp_repair_opt* tmp_add_class_52;
  tcp_repair_window* tmp_add_class_53;
  tcp_zerocopy_receive* tmp_add_class_54;
  tcphdr* tmp_add_class_55;
  timestamp* tmp_add_class_56;
  ucred* tmp_add_class_57;

The GCC parameters:
  gcc -fdump-lang-raw -fkeep-inline-functions -c -x c++ -fpermissive -w "/tmp/EDrHe3ggT_/dump1.h"

