Temporary header file '/tmp/7Kanuo7oT1/dump1.h' with the following content will be compiled to create GCC translation unit dump:

  // add defines
  #define __STDC_VERSION__ 201710L
#define _FILE_OFFSET_BITS 64
#define _GXX_NULLPTR_T
#define CLUTTER_ENABLE_COMPOSITOR_API 1
#define _REGEX_NELTS(n)
#define _Atomic
#define PACKED
#ifdef __cplusplus
// C17 compat layer
#define _Alignof(type) alignof(type)
#endif
#define getaddrinfo_a(a,b,c,d)

  // add includes
  #include "/usr/include/arm-linux-gnueabihf/qt5/QtWebSockets/qmaskgenerator.h"
  #include "/usr/include/arm-linux-gnueabihf/qt5/QtWebSockets/qtwebsocketsversion.h"
  #include "/usr/include/arm-linux-gnueabihf/qt5/QtWebSockets/qwebsocket.h"
  #include "/usr/include/arm-linux-gnueabihf/qt5/QtWebSockets/qwebsocketcorsauthenticator.h"
  #include "/usr/include/arm-linux-gnueabihf/qt5/QtWebSockets/qwebsocketprotocol.h"
  #include "/usr/include/arm-linux-gnueabihf/qt5/QtWebSockets/qwebsockets_global.h"
  #include "/usr/include/arm-linux-gnueabihf/qt5/QtWebSockets/qwebsocketserver.h"

  // add namespaces
  namespace dtlsopenssl{typedef int tmp_add_type_1;}
  dtlsopenssl::tmp_add_type_1 tmp_add_func_1(){return 0;};
  namespace QAlgorithmsPrivate{typedef int tmp_add_type_2;}
  QAlgorithmsPrivate::tmp_add_type_2 tmp_add_func_2(){return 0;};
  namespace QSsl{typedef int tmp_add_type_3;}
  QSsl::tmp_add_type_3 tmp_add_func_3(){return 0;};
  namespace Qt{typedef int tmp_add_type_4;}
  Qt::tmp_add_type_4 tmp_add_func_4(){return 0;};
  namespace QTextStreamFunctions{typedef int tmp_add_type_5;}
  QTextStreamFunctions::tmp_add_type_5 tmp_add_func_5(){return 0;};
  namespace QtGlobalStatic{typedef int tmp_add_type_6;}
  QtGlobalStatic::tmp_add_type_6 tmp_add_func_6(){return 0;};
  namespace QtMetaTypePrivate{typedef int tmp_add_type_7;}
  QtMetaTypePrivate::tmp_add_type_7 tmp_add_func_7(){return 0;};
  namespace QtMetaTypePrivate{namespace QtPrivate{typedef int tmp_add_type_8;}}
  QtMetaTypePrivate::QtPrivate::tmp_add_type_8 tmp_add_func_8(){return 0;};
  namespace QtMetaTypePrivate{namespace QtPrivate{namespace ContainerCapabilitiesMetaProgrammingHelper{typedef int tmp_add_type_9;}}}
  QtMetaTypePrivate::QtPrivate::ContainerCapabilitiesMetaProgrammingHelper::tmp_add_type_9 tmp_add_func_9(){return 0;};
  namespace QtPrivate{typedef int tmp_add_type_10;}
  QtPrivate::tmp_add_type_10 tmp_add_func_10(){return 0;};
  namespace QtPrivate{namespace DeprecatedRefClassBehavior{typedef int tmp_add_type_11;}}
  QtPrivate::DeprecatedRefClassBehavior::tmp_add_type_11 tmp_add_func_11(){return 0;};
  namespace QtPrivate{namespace SwapExceptionTester{typedef int tmp_add_type_12;}}
  QtPrivate::SwapExceptionTester::tmp_add_type_12 tmp_add_func_12(){return 0;};
  namespace QtSharedPointer{typedef int tmp_add_type_13;}
  QtSharedPointer::tmp_add_type_13 tmp_add_func_13(){return 0;};
  namespace QWebSocketProtocol{typedef int tmp_add_type_14;}
  QWebSocketProtocol::tmp_add_type_14 tmp_add_func_14(){return 0;};

  // add classes
  QAbstractSocket* tmp_add_class_0;
  QArrayData* tmp_add_class_1;
  QAssociativeIterable* tmp_add_class_2;
  QAtomicInt* tmp_add_class_3;
  QByteArray* tmp_add_class_4;
  QByteArrayDataPtr* tmp_add_class_5;
  QByteRef* tmp_add_class_6;
  QChar* tmp_add_class_7;
  QCharRef* tmp_add_class_8;
  QContiguousCacheData* tmp_add_class_9;
  QCryptographicHash* tmp_add_class_10;
  QDate* tmp_add_class_11;
  QDateTime* tmp_add_class_12;
  QDebug* tmp_add_class_13;
  QDebugStateSaver* tmp_add_class_14;
  QFlag* tmp_add_class_15;
  QGenericArgument* tmp_add_class_16;
  QGenericReturnArgument* tmp_add_class_17;
  QHashData* tmp_add_class_18;
  QHashDummyValue* tmp_add_class_19;
  QHostAddress* tmp_add_class_20;
  QIODevice* tmp_add_class_21;
  QIPv6Address* tmp_add_class_22;
  QIncompatibleFlag* tmp_add_class_23;
  QInternal* tmp_add_class_24;
  QLatin1Char* tmp_add_class_25;
  QLatin1String* tmp_add_class_26;
  QListData* tmp_add_class_27;
  QLocale* tmp_add_class_28;
  QMapDataBase* tmp_add_class_29;
  QMapNodeBase* tmp_add_class_30;
  QMaskGenerator* tmp_add_class_31;
  QMessageLogContext* tmp_add_class_32;
  QMessageLogger* tmp_add_class_33;
  QMetaObject* tmp_add_class_34;
  QMetaType* tmp_add_class_35;
  QNetworkProxy* tmp_add_class_36;
  QNetworkProxyFactory* tmp_add_class_37;
  QNetworkProxyQuery* tmp_add_class_38;
  QNetworkRequest* tmp_add_class_39;
  QNoDebug* tmp_add_class_40;
  QObject* tmp_add_class_41;
  QObjectData* tmp_add_class_42;
  QObjectUserData* tmp_add_class_43;
  QRegExp* tmp_add_class_44;
  QScopedPointerPodDeleter* tmp_add_class_45;
  QSequentialIterable* tmp_add_class_46;
  QSharedData* tmp_add_class_47;
  QSignalBlocker* tmp_add_class_48;
  QSslCertificate* tmp_add_class_49;
  QSslConfiguration* tmp_add_class_50;
  QSslError* tmp_add_class_51;
  QSslSocket* tmp_add_class_52;
  QString* tmp_add_class_53;
  QStringDataPtr* tmp_add_class_54;
  QStringList* tmp_add_class_55;
  QStringMatcher* tmp_add_class_56;
  QStringRef* tmp_add_class_57;
  QStringView* tmp_add_class_58;
  QSysInfo* tmp_add_class_59;
  QTcpSocket* tmp_add_class_60;
  QTextStream* tmp_add_class_61;
  QTextStreamManipulator* tmp_add_class_62;
  QTime* tmp_add_class_63;
  QUrl* tmp_add_class_64;
  QVariant* tmp_add_class_65;
  QVariantComparisonHelper* tmp_add_class_66;
  QWebSocket* tmp_add_class_67;
  QWebSocketCorsAuthenticator* tmp_add_class_68;
  QWebSocketServer* tmp_add_class_69;
  _G_fpos64_t* tmp_add_class_70;
  _G_fpos_t* tmp_add_class_71;
  _IO_cookie_io_functions_t* tmp_add_class_72;

The GCC parameters:
  gcc -fdump-lang-raw -fkeep-inline-functions -c -x c++ -fpermissive -w "/tmp/7Kanuo7oT1/dump1.h"  -I/usr/include/arm-linux-gnueabihf/qt5

