[2024-01-08T10:09:20+00:00] apt-get install libstropt-dev abi-compliance-checker
Reading package lists...
Building dependency tree...
Reading state information...
abi-compliance-checker is already the newest version (2.3-2).
The following packages were automatically installed and are no longer required:
  libexpat1-dev libssl-dev libstrophe-dev libstrophe0
Use 'apt autoremove' to remove them.
The following NEW packages will be installed:
  libstropt-dev libstropt0
0 upgraded, 2 newly installed, 0 to remove and 20 not upgraded.
Need to get 12.0 kB of archives.
After this operation, 49.2 kB of additional disk space will be used.
Get:1 http://deb.debian.org/debian unstable/main armhf libstropt0 armhf 0.1.2-1 [4664 B]
Get:2 http://deb.debian.org/debian unstable/main armhf libstropt-dev armhf 0.1.2-1 [7304 B]
debconf: delaying package configuration, since apt-utils is not installed
Fetched 12.0 kB in 0s (76.4 kB/s)
Selecting previously unselected package libstropt0.
(Reading database ... (Reading database ... 5%(Reading database ... 10%(Reading database ... 15%(Reading database ... 20%(Reading database ... 25%(Reading database ... 30%(Reading database ... 35%(Reading database ... 40%(Reading database ... 45%(Reading database ... 50%(Reading database ... 55%(Reading database ... 60%(Reading database ... 65%(Reading database ... 70%(Reading database ... 75%(Reading database ... 80%(Reading database ... 85%(Reading database ... 90%(Reading database ... 95%(Reading database ... 100%(Reading database ... 17430 files and directories currently installed.)
Preparing to unpack .../libstropt0_0.1.2-1_armhf.deb ...
Unpacking libstropt0 (0.1.2-1) ...
Selecting previously unselected package libstropt-dev.
Preparing to unpack .../libstropt-dev_0.1.2-1_armhf.deb ...
Unpacking libstropt-dev (0.1.2-1) ...
Setting up libstropt0 (0.1.2-1) ...
Setting up libstropt-dev (0.1.2-1) ...
Processing triggers for libc-bin (2.37-13) ...
Reading package lists...
Building dependency tree...
Reading state information...
The following packages will be REMOVED:
  libexpat1-dev* libssl-dev* libstrophe-dev* libstrophe0*
0 upgraded, 0 newly installed, 4 to remove and 20 not upgraded.
After this operation, 12.4 MB disk space will be freed.
(Reading database ... (Reading database ... 5%(Reading database ... 10%(Reading database ... 15%(Reading database ... 20%(Reading database ... 25%(Reading database ... 30%(Reading database ... 35%(Reading database ... 40%(Reading database ... 45%(Reading database ... 50%(Reading database ... 55%(Reading database ... 60%(Reading database ... 65%(Reading database ... 70%(Reading database ... 75%(Reading database ... 80%(Reading database ... 85%(Reading database ... 90%(Reading database ... 95%(Reading database ... 100%(Reading database ... 17445 files and directories currently installed.)
Removing libstrophe-dev:armhf (0.12.3-1) ...
Removing libexpat1-dev:armhf (2.5.0-2+b2) ...
Removing libssl-dev:armhf (3.1.4-2) ...
Removing libstrophe0:armhf (0.12.3-1) ...
Processing triggers for libc-bin (2.37-13) ...
