[2024-01-08T19:26:36+00:00] apt-get install lua-rex-onig-dev liblua5.4-dev abi-compliance-checker
Reading package lists...
Building dependency tree...
Reading state information...
liblua5.4-dev is already the newest version (5.4.6-1).
liblua5.4-dev set to manually installed.
abi-compliance-checker is already the newest version (2.3-2).
The following packages were automatically installed and are no longer required:
  lua-rex-gnu lua-rex-gnu-dev
Use 'apt autoremove' to remove them.
The following NEW packages will be installed:
  libonig5 lua-rex-onig lua-rex-onig-dev
0 upgraded, 3 newly installed, 0 to remove and 12 not upgraded.
Need to get 208 kB of archives.
After this operation, 890 kB of additional disk space will be used.
Get:1 http://deb.debian.org/debian unstable/main armhf libonig5 armhf 6.9.9-1 [167 kB]
Get:2 http://deb.debian.org/debian unstable/main armhf lua-rex-onig armhf 2.9.2-1 [20.7 kB]
Get:3 http://deb.debian.org/debian unstable/main armhf lua-rex-onig-dev armhf 2.9.2-1 [20.0 kB]
debconf: delaying package configuration, since apt-utils is not installed
Fetched 208 kB in 0s (1432 kB/s)
Selecting previously unselected package libonig5:armhf.
(Reading database ... (Reading database ... 5%(Reading database ... 10%(Reading database ... 15%(Reading database ... 20%(Reading database ... 25%(Reading database ... 30%(Reading database ... 35%(Reading database ... 40%(Reading database ... 45%(Reading database ... 50%(Reading database ... 55%(Reading database ... 60%(Reading database ... 65%(Reading database ... 70%(Reading database ... 75%(Reading database ... 80%(Reading database ... 85%(Reading database ... 90%(Reading database ... 95%(Reading database ... 100%(Reading database ... 19550 files and directories currently installed.)
Preparing to unpack .../libonig5_6.9.9-1_armhf.deb ...
Unpacking libonig5:armhf (6.9.9-1) ...
Selecting previously unselected package lua-rex-onig:armhf.
Preparing to unpack .../lua-rex-onig_2.9.2-1_armhf.deb ...
Unpacking lua-rex-onig:armhf (2.9.2-1) ...
Selecting previously unselected package lua-rex-onig-dev:armhf.
Preparing to unpack .../lua-rex-onig-dev_2.9.2-1_armhf.deb ...
Unpacking lua-rex-onig-dev:armhf (2.9.2-1) ...
Setting up libonig5:armhf (6.9.9-1) ...
Setting up lua-rex-onig:armhf (2.9.2-1) ...
Setting up lua-rex-onig-dev:armhf (2.9.2-1) ...
Processing triggers for libc-bin (2.37-13) ...
Reading package lists...
Building dependency tree...
Reading state information...
The following packages will be REMOVED:
  lua-rex-gnu* lua-rex-gnu-dev*
0 upgraded, 0 newly installed, 2 to remove and 12 not upgraded.
After this operation, 224 kB disk space will be freed.
(Reading database ... (Reading database ... 5%(Reading database ... 10%(Reading database ... 15%(Reading database ... 20%(Reading database ... 25%(Reading database ... 30%(Reading database ... 35%(Reading database ... 40%(Reading database ... 45%(Reading database ... 50%(Reading database ... 55%(Reading database ... 60%(Reading database ... 65%(Reading database ... 70%(Reading database ... 75%(Reading database ... 80%(Reading database ... 85%(Reading database ... 90%(Reading database ... 95%(Reading database ... 100%(Reading database ... 19590 files and directories currently installed.)
Removing lua-rex-gnu-dev:armhf (2.9.2-1) ...
Removing lua-rex-gnu:armhf (2.9.2-1) ...
Processing triggers for libc-bin (2.37-13) ...
