[2024-01-08T14:39:19+00:00] apt-get install libyajl-dev abi-compliance-checker
Reading package lists...
Building dependency tree...
Reading state information...
abi-compliance-checker is already the newest version (2.3-2).
The following packages were automatically installed and are no longer required:
  libboost1.81-dev libxy-dev libxy3v5
Use 'apt autoremove' to remove them.
The following NEW packages will be installed:
  libyajl-dev libyajl2
0 upgraded, 2 newly installed, 0 to remove and 13 not upgraded.
Need to get 48.3 kB of archives.
After this operation, 144 kB of additional disk space will be used.
Get:1 http://deb.debian.org/debian unstable/main armhf libyajl2 armhf 2.1.0-5 [19.9 kB]
Get:2 http://deb.debian.org/debian unstable/main armhf libyajl-dev armhf 2.1.0-5 [28.4 kB]
debconf: delaying package configuration, since apt-utils is not installed
Fetched 48.3 kB in 0s (1058 kB/s)
Selecting previously unselected package libyajl2:armhf.
(Reading database ... (Reading database ... 5%(Reading database ... 10%(Reading database ... 15%(Reading database ... 20%(Reading database ... 25%(Reading database ... 30%(Reading database ... 35%(Reading database ... 40%(Reading database ... 45%(Reading database ... 50%(Reading database ... 55%(Reading database ... 60%(Reading database ... 65%(Reading database ... 70%(Reading database ... 75%(Reading database ... 80%(Reading database ... 85%(Reading database ... 90%(Reading database ... 95%(Reading database ... 100%(Reading database ... 33815 files and directories currently installed.)
Preparing to unpack .../libyajl2_2.1.0-5_armhf.deb ...
Unpacking libyajl2:armhf (2.1.0-5) ...
Selecting previously unselected package libyajl-dev:armhf.
Preparing to unpack .../libyajl-dev_2.1.0-5_armhf.deb ...
Unpacking libyajl-dev:armhf (2.1.0-5) ...
Setting up libyajl2:armhf (2.1.0-5) ...
Setting up libyajl-dev:armhf (2.1.0-5) ...
Processing triggers for libc-bin (2.37-13) ...
Reading package lists...
Building dependency tree...
Reading state information...
The following packages will be REMOVED:
  libboost1.81-dev* libxy-dev* libxy3v5*
0 upgraded, 0 newly installed, 3 to remove and 13 not upgraded.
After this operation, 159 MB disk space will be freed.
(Reading database ... (Reading database ... 5%(Reading database ... 10%(Reading database ... 15%(Reading database ... 20%(Reading database ... 25%(Reading database ... 30%(Reading database ... 35%(Reading database ... 40%(Reading database ... 45%(Reading database ... 50%(Reading database ... 55%(Reading database ... 60%(Reading database ... 65%(Reading database ... 70%(Reading database ... 75%(Reading database ... 80%(Reading database ... 85%(Reading database ... 90%(Reading database ... 95%(Reading database ... 100%(Reading database ... 33838 files and directories currently installed.)
Removing libboost1.81-dev:armhf (1.81.0-7+b1) ...
Removing libxy-dev:armhf (1.6-3) ...
Removing libxy3v5:armhf (1.6-3) ...
Processing triggers for libc-bin (2.37-13) ...
