Temporary header file '/tmp/rwb6kUBBTB/dump1.h' with the following content will be compiled to create GCC translation unit dump:

  // add defines
  #define __STDC_VERSION__ 201710L
#define _GXX_NULLPTR_T
#define CLUTTER_ENABLE_COMPOSITOR_API 1
#define _REGEX_NELTS(n)
#define _Atomic
#define PACKED
#ifdef __cplusplus
// C17 compat layer
#define _Alignof(type) alignof(type)
#endif
#define getaddrinfo_a(a,b,c,d)

  // add includes
  #include "/usr/include/tercpp/alignmentStruct.h"
  #include "/usr/include/tercpp/bestShiftStruct.h"
  #include "/usr/include/tercpp/documentStructure.h"
  #include "/usr/include/tercpp/hashMap.h"
  #include "/usr/include/tercpp/hashMapInfos.h"
  #include "/usr/include/tercpp/hashMapStringInfos.h"
  #include "/usr/include/tercpp/infosHasher.h"
  #include "/usr/include/tercpp/multiEvaluation.h"
  #include "/usr/include/tercpp/multiTxtDocument.h"
  #include "/usr/include/tercpp/segmentStructure.h"
  #include "/usr/include/tercpp/sgmlDocument.h"
  #include "/usr/include/tercpp/stringHasher.h"
  #include "/usr/include/tercpp/stringInfosHasher.h"
  #include "/usr/include/tercpp/terAlignment.h"
  #include "/usr/include/tercpp/terEvaluation.h"
  #include "/usr/include/tercpp/terShift.h"
  #include "/usr/include/tercpp/tercalc.h"
  #include "/usr/include/tercpp/tools.h"
  #include "/usr/include/tercpp/xmlStructure.h"

  // add namespaces
  namespace boost{typedef int tmp_add_type_1;}
  boost::tmp_add_type_1 tmp_add_func_1(){return 0;};
  namespace boost{namespace concepts{typedef int tmp_add_type_2;}}
  boost::concepts::tmp_add_type_2 tmp_add_func_2(){return 0;};
  namespace boost{namespace concepts{namespace detail{typedef int tmp_add_type_3;}}}
  boost::concepts::detail::tmp_add_type_3 tmp_add_func_3(){return 0;};
  namespace boost{namespace core{typedef int tmp_add_type_4;}}
  boost::core::tmp_add_type_4 tmp_add_func_4(){return 0;};
  namespace boost{namespace describe{typedef int tmp_add_type_5;}}
  boost::describe::tmp_add_type_5 tmp_add_func_5(){return 0;};
  namespace boost{namespace describe{namespace detail{typedef int tmp_add_type_6;}}}
  boost::describe::detail::tmp_add_type_6 tmp_add_func_6(){return 0;};
  namespace boost{namespace detail{typedef int tmp_add_type_7;}}
  boost::detail::tmp_add_type_7 tmp_add_func_7(){return 0;};
  namespace boost{namespace fusion{typedef int tmp_add_type_8;}}
  boost::fusion::tmp_add_type_8 tmp_add_func_8(){return 0;};
  namespace boost{namespace fusion{namespace detail{typedef int tmp_add_type_9;}}}
  boost::fusion::detail::tmp_add_type_9 tmp_add_func_9(){return 0;};
  namespace boost{namespace fusion{namespace detail{namespace barrier{typedef int tmp_add_type_10;}}}}
  boost::fusion::detail::barrier::tmp_add_type_10 tmp_add_func_10(){return 0;};
  namespace boost{namespace fusion{namespace extension{typedef int tmp_add_type_11;}}}
  boost::fusion::extension::tmp_add_type_11 tmp_add_func_11(){return 0;};
  namespace boost{namespace fusion{namespace traits{typedef int tmp_add_type_12;}}}
  boost::fusion::traits::tmp_add_type_12 tmp_add_func_12(){return 0;};
  namespace boost{namespace integer{typedef int tmp_add_type_13;}}
  boost::integer::tmp_add_type_13 tmp_add_func_13(){return 0;};
  namespace boost{namespace iterators{typedef int tmp_add_type_14;}}
  boost::iterators::tmp_add_type_14 tmp_add_func_14(){return 0;};
  namespace boost{namespace iterators{namespace detail{typedef int tmp_add_type_15;}}}
  boost::iterators::detail::tmp_add_type_15 tmp_add_func_15(){return 0;};
  namespace boost{namespace movelib{typedef int tmp_add_type_16;}}
  boost::movelib::tmp_add_type_16 tmp_add_func_16(){return 0;};
  namespace boost{namespace mp11{typedef int tmp_add_type_17;}}
  boost::mp11::tmp_add_type_17 tmp_add_func_17(){return 0;};
  namespace boost{namespace mp11{namespace detail{typedef int tmp_add_type_18;}}}
  boost::mp11::detail::tmp_add_type_18 tmp_add_func_18(){return 0;};
  namespace boost{namespace mpl{typedef int tmp_add_type_19;}}
  boost::mpl::tmp_add_type_19 tmp_add_func_19(){return 0;};
  namespace boost{namespace mpl{namespace aux{typedef int tmp_add_type_20;}}}
  boost::mpl::aux::tmp_add_type_20 tmp_add_func_20(){return 0;};
  namespace boost{namespace mpl{namespace placeholders{typedef int tmp_add_type_21;}}}
  boost::mpl::placeholders::tmp_add_type_21 tmp_add_func_21(){return 0;};
  namespace boost{namespace numeric{typedef int tmp_add_type_22;}}
  boost::numeric::tmp_add_type_22 tmp_add_func_22(){return 0;};
  namespace boost{namespace numeric{namespace boundsdetail{typedef int tmp_add_type_23;}}}
  boost::numeric::boundsdetail::tmp_add_type_23 tmp_add_func_23(){return 0;};
  namespace boost{namespace numeric{namespace convdetail{typedef int tmp_add_type_24;}}}
  boost::numeric::convdetail::tmp_add_type_24 tmp_add_func_24(){return 0;};
  namespace boost{namespace proto{typedef int tmp_add_type_25;}}
  boost::proto::tmp_add_type_25 tmp_add_func_25(){return 0;};
  namespace boost{namespace proto{namespace context{typedef int tmp_add_type_26;}}}
  boost::proto::context::tmp_add_type_26 tmp_add_func_26(){return 0;};
  namespace boost{namespace proto{namespace detail{typedef int tmp_add_type_27;}}}
  boost::proto::detail::tmp_add_type_27 tmp_add_func_27(){return 0;};
  namespace boost{namespace proto{namespace detail{namespace anyns{typedef int tmp_add_type_28;}}}}
  boost::proto::detail::anyns::tmp_add_type_28 tmp_add_func_28(){return 0;};
  namespace boost{namespace proto{namespace functional{typedef int tmp_add_type_29;}}}
  boost::proto::functional::tmp_add_type_29 tmp_add_func_29(){return 0;};
  namespace boost{namespace proto{namespace utility{typedef int tmp_add_type_30;}}}
  boost::proto::utility::tmp_add_type_30 tmp_add_func_30(){return 0;};
  namespace boost{namespace range{typedef int tmp_add_type_31;}}
  boost::range::tmp_add_type_31 tmp_add_func_31(){return 0;};
  namespace boost{namespace tuples{typedef int tmp_add_type_32;}}
  boost::tuples::tmp_add_type_32 tmp_add_func_32(){return 0;};
  namespace boost{namespace unordered{typedef int tmp_add_type_33;}}
  boost::unordered::tmp_add_type_33 tmp_add_func_33(){return 0;};
  namespace boost{namespace xpressive{typedef int tmp_add_type_34;}}
  boost::xpressive::tmp_add_type_34 tmp_add_func_34(){return 0;};
  namespace boost{namespace xpressive{namespace detail{typedef int tmp_add_type_35;}}}
  boost::xpressive::detail::tmp_add_type_35 tmp_add_func_35(){return 0;};
  namespace boost{namespace xpressive{namespace op{typedef int tmp_add_type_36;}}}
  boost::xpressive::op::tmp_add_type_36 tmp_add_func_36(){return 0;};
  namespace HashMapSpace{typedef int tmp_add_type_37;}
  HashMapSpace::tmp_add_type_37 tmp_add_func_37(){return 0;};
  namespace TERCpp{typedef int tmp_add_type_38;}
  TERCpp::tmp_add_type_38 tmp_add_func_38(){return 0;};
  namespace Tools{typedef int tmp_add_type_39;}
  Tools::tmp_add_type_39 tmp_add_func_39(){return 0;};
  namespace boost{namespace binary_op_detail{typedef int tmp_add_type_40;}}
  boost::binary_op_detail::tmp_add_type_40 tmp_add_func_40(){return 0;};
  namespace boost{namespace container_hash{typedef int tmp_add_type_41;}}
  boost::container_hash::tmp_add_type_41 tmp_add_func_41(){return 0;};
  namespace boost{namespace detail{namespace indirect_traits{typedef int tmp_add_type_42;}}}
  boost::detail::indirect_traits::tmp_add_type_42 tmp_add_func_42(){return 0;};
  namespace boost{namespace exception_detail{typedef int tmp_add_type_43;}}
  boost::exception_detail::tmp_add_type_43 tmp_add_func_43(){return 0;};
  namespace boost{namespace exception_detail{namespace to_string_dispatch{typedef int tmp_add_type_44;}}}
  boost::exception_detail::to_string_dispatch::tmp_add_type_44 tmp_add_func_44(){return 0;};
  namespace boost{namespace fusion{namespace advance_detail{typedef int tmp_add_type_45;}}}
  boost::fusion::advance_detail::tmp_add_type_45 tmp_add_func_45(){return 0;};
  namespace boost{namespace fusion{namespace distance_detail{typedef int tmp_add_type_46;}}}
  boost::fusion::distance_detail::tmp_add_type_46 tmp_add_func_46(){return 0;};
  namespace boost{namespace fusion{namespace iterator_operators{typedef int tmp_add_type_47;}}}
  boost::fusion::iterator_operators::tmp_add_type_47 tmp_add_func_47(){return 0;};
  namespace boost{namespace fusion{namespace result_of{typedef int tmp_add_type_48;}}}
  boost::fusion::result_of::tmp_add_type_48 tmp_add_func_48(){return 0;};
  namespace boost{namespace fusion{namespace vector_detail{typedef int tmp_add_type_49;}}}
  boost::fusion::vector_detail::tmp_add_type_49 tmp_add_func_49(){return 0;};
  namespace boost{namespace fusion{namespace vector_detail{namespace result_of{typedef int tmp_add_type_50;}}}}
  boost::fusion::vector_detail::result_of::tmp_add_type_50 tmp_add_func_50(){return 0;};
  namespace boost{namespace hash_detail{typedef int tmp_add_type_51;}}
  boost::hash_detail::tmp_add_type_51 tmp_add_func_51(){return 0;};
  namespace boost{namespace iterator_range_detail{typedef int tmp_add_type_52;}}
  boost::iterator_range_detail::tmp_add_type_52 tmp_add_func_52(){return 0;};
  namespace boost{namespace iterators{namespace advance_adl_barrier{typedef int tmp_add_type_53;}}}
  boost::iterators::advance_adl_barrier::tmp_add_type_53 tmp_add_func_53(){return 0;};
  namespace boost{namespace iterators{namespace distance_adl_barrier{typedef int tmp_add_type_54;}}}
  boost::iterators::distance_adl_barrier::tmp_add_type_54 tmp_add_func_54(){return 0;};
  namespace boost{namespace move_detail{typedef int tmp_add_type_55;}}
  boost::move_detail::tmp_add_type_55 tmp_add_func_55(){return 0;};
  namespace boost{namespace next_prior_detail{typedef int tmp_add_type_56;}}
  boost::next_prior_detail::tmp_add_type_56 tmp_add_func_56(){return 0;};
  namespace boost{namespace noncopyable_{typedef int tmp_add_type_57;}}
  boost::noncopyable_::tmp_add_type_57 tmp_add_func_57(){return 0;};
  namespace boost{namespace optional_config{typedef int tmp_add_type_58;}}
  boost::optional_config::tmp_add_type_58 tmp_add_func_58(){return 0;};
  namespace boost{namespace optional_detail{typedef int tmp_add_type_59;}}
  boost::optional_detail::tmp_add_type_59 tmp_add_func_59(){return 0;};
  namespace boost{namespace optional_ns{typedef int tmp_add_type_60;}}
  boost::optional_ns::tmp_add_type_60 tmp_add_func_60(){return 0;};
  namespace boost{namespace proto{namespace argsns_{typedef int tmp_add_type_61;}}}
  boost::proto::argsns_::tmp_add_type_61 tmp_add_func_61(){return 0;};
  namespace boost{namespace proto{namespace domainns_{typedef int tmp_add_type_62;}}}
  boost::proto::domainns_::tmp_add_type_62 tmp_add_func_62(){return 0;};
  namespace boost{namespace proto{namespace envns_{typedef int tmp_add_type_63;}}}
  boost::proto::envns_::tmp_add_type_63 tmp_add_func_63(){return 0;};
  namespace boost{namespace proto{namespace exprns_{typedef int tmp_add_type_64;}}}
  boost::proto::exprns_::tmp_add_type_64 tmp_add_func_64(){return 0;};
  namespace boost{namespace proto{namespace result_of{typedef int tmp_add_type_65;}}}
  boost::proto::result_of::tmp_add_type_65 tmp_add_func_65(){return 0;};
  namespace boost{namespace proto{namespace tagns_{typedef int tmp_add_type_66;}}}
  boost::proto::tagns_::tmp_add_type_66 tmp_add_func_66(){return 0;};
  namespace boost{namespace proto{namespace tagns_{namespace tag{typedef int tmp_add_type_67;}}}}
  boost::proto::tagns_::tag::tmp_add_type_67 tmp_add_func_67(){return 0;};
  namespace boost{namespace range_adl_barrier{typedef int tmp_add_type_68;}}
  boost::range_adl_barrier::tmp_add_type_68 tmp_add_func_68(){return 0;};
  namespace boost{namespace range_detail{typedef int tmp_add_type_69;}}
  boost::range_detail::tmp_add_type_69 tmp_add_func_69(){return 0;};
  namespace boost{namespace range_distance_adl_barrier{typedef int tmp_add_type_70;}}
  boost::range_distance_adl_barrier::tmp_add_type_70 tmp_add_func_70(){return 0;};
  namespace boost{namespace to_string_detail{typedef int tmp_add_type_71;}}
  boost::to_string_detail::tmp_add_type_71 tmp_add_func_71(){return 0;};
  namespace boost{namespace tt_align_ns{typedef int tmp_add_type_72;}}
  boost::tt_align_ns::tmp_add_type_72 tmp_add_func_72(){return 0;};
  namespace boost{namespace type_traits{typedef int tmp_add_type_73;}}
  boost::type_traits::tmp_add_type_73 tmp_add_func_73(){return 0;};
  namespace boost{namespace type_traits_detail{typedef int tmp_add_type_74;}}
  boost::type_traits_detail::tmp_add_type_74 tmp_add_func_74(){return 0;};
  namespace boost{namespace xpressive{namespace grammar_detail{typedef int tmp_add_type_75;}}}
  boost::xpressive::grammar_detail::tmp_add_type_75 tmp_add_func_75(){return 0;};
  namespace boost{namespace xpressive{namespace regex_constants{typedef int tmp_add_type_76;}}}
  boost::xpressive::regex_constants::tmp_add_type_76 tmp_add_func_76(){return 0;};
  namespace boost_concepts{typedef int tmp_add_type_77;}
  boost_concepts::tmp_add_type_77 tmp_add_func_77(){return 0;};
  namespace boost_concepts{namespace detail{typedef int tmp_add_type_78;}}
  boost_concepts::detail::tmp_add_type_78 tmp_add_func_78(){return 0;};
  namespace boost_optional_detail{typedef int tmp_add_type_79;}
  boost_optional_detail::tmp_add_type_79 tmp_add_func_79(){return 0;};
  namespace boost_swap_impl{typedef int tmp_add_type_80;}
  boost_swap_impl::tmp_add_type_80 tmp_add_func_80(){return 0;};
  namespace mpl_{typedef int tmp_add_type_81;}
  mpl_::tmp_add_type_81 tmp_add_func_81(){return 0;};
  namespace mpl_{namespace aux{typedef int tmp_add_type_82;}}
  mpl_::aux::tmp_add_type_82 tmp_add_func_82(){return 0;};

  // add classes
  TiXmlAttribute* tmp_add_class_0;
  TiXmlAttributeSet* tmp_add_class_1;
  TiXmlBase* tmp_add_class_2;
  TiXmlComment* tmp_add_class_3;
  TiXmlCursor* tmp_add_class_4;
  TiXmlDeclaration* tmp_add_class_5;
  TiXmlDocument* tmp_add_class_6;
  TiXmlElement* tmp_add_class_7;
  TiXmlHandle* tmp_add_class_8;
  TiXmlNode* tmp_add_class_9;
  TiXmlPrinter* tmp_add_class_10;
  TiXmlText* tmp_add_class_11;
  TiXmlUnknown* tmp_add_class_12;
  TiXmlVisitor* tmp_add_class_13;
  _G_fpos64_t* tmp_add_class_14;
  _G_fpos_t* tmp_add_class_15;
  _IO_cookie_io_functions_t* tmp_add_class_16;

The GCC parameters:
  gcc -fdump-lang-raw -fkeep-inline-functions -c -x c++ -fpermissive -w "/tmp/rwb6kUBBTB/dump1.h"

