[2024-01-06T20:25:23+00:00] apt-get install libfastjet-dev libfastjetplugins-dev libcgal-dev abi-compliance-checker
Reading package lists...
Building dependency tree...
Reading state information...
abi-compliance-checker is already the newest version (2.3-2).
The following packages were automatically installed and are no longer required:
  libfastcdr-dev libfastcdr1
Use 'apt autoremove' to remove them.
The following additional packages will be installed:
  libboost-atomic1.83-dev libboost-atomic1.83.0 libboost-chrono1.83-dev
  libboost-chrono1.83.0 libboost-date-time1.83-dev libboost-date-time1.83.0
  libboost-dev libboost-program-options-dev libboost-program-options1.83-dev
  libboost-program-options1.83.0 libboost-serialization1.83-dev
  libboost-serialization1.83.0 libboost-system-dev libboost-system1.83-dev
  libboost-system1.83.0 libboost-thread-dev libboost-thread1.83-dev
  libboost-thread1.83.0 libboost1.83-dev libfastjet0v5 libfastjetplugins0
  libgmp-dev libgmpxx4ldbl libmpfr-dev libsiscone-dev libsiscone-spherical-dev
  libsiscone-spherical0v5 libsiscone0v5
Suggested packages:
  libboost-doc libboost1.83-doc libboost-container1.83-dev
  libboost-context1.83-dev libboost-contract1.83-dev
  libboost-coroutine1.83-dev libboost-exception1.83-dev libboost-fiber1.83-dev
  libboost-filesystem1.83-dev libboost-graph-parallel1.83-dev
  libboost-graph1.83-dev libboost-iostreams1.83-dev libboost-json1.83-dev
  libboost-locale1.83-dev libboost-log1.83-dev libboost-math1.83-dev
  libboost-mpi-python1.83-dev libboost-mpi1.83-dev libboost-nowide1.83-dev
  libboost-numpy1.83-dev libboost-python1.83-dev libboost-random1.83-dev
  libboost-regex1.83-dev libboost-stacktrace1.83-dev libboost-test1.83-dev
  libboost-timer1.83-dev libboost-type-erasure1.83-dev libboost-url1.83-dev
  libboost-wave1.83-dev libboost1.83-tools-dev libmpfrc++-dev libntl-dev
  libmpfi-dev libtbb-dev fastjet-doc fastjet-examples libfastjet-fortran-dev
  libfastjettools-dev libfastjet-fortran0 libfastjettools0 gmp-doc
  libgmp10-doc libmpfr-doc siscone-examples siscone-doc-html siscone-doc-pdf
The following NEW packages will be installed:
  libboost-atomic1.83-dev libboost-atomic1.83.0 libboost-chrono1.83-dev
  libboost-chrono1.83.0 libboost-date-time1.83-dev libboost-date-time1.83.0
  libboost-dev libboost-program-options-dev libboost-program-options1.83-dev
  libboost-program-options1.83.0 libboost-serialization1.83-dev
  libboost-serialization1.83.0 libboost-system-dev libboost-system1.83-dev
  libboost-system1.83.0 libboost-thread-dev libboost-thread1.83-dev
  libboost-thread1.83.0 libboost1.83-dev libcgal-dev libfastjet-dev
  libfastjet0v5 libfastjetplugins-dev libfastjetplugins0 libgmp-dev
  libgmpxx4ldbl libmpfr-dev libsiscone-dev libsiscone-spherical-dev
  libsiscone-spherical0v5 libsiscone0v5
0 upgraded, 31 newly installed, 0 to remove and 12 not upgraded.
Need to get 22.1 MB of archives.
After this operation, 246 MB of additional disk space will be used.
Get:1 http://deb.debian.org/debian unstable/main armhf libboost1.83-dev armhf 1.83.0-2 [10.6 MB]
Get:2 http://deb.debian.org/debian unstable/main armhf libboost-atomic1.83.0 armhf 1.83.0-2 [232 kB]
Get:3 http://deb.debian.org/debian unstable/main armhf libboost-atomic1.83-dev armhf 1.83.0-2 [233 kB]
Get:4 http://deb.debian.org/debian unstable/main armhf libboost-chrono1.83.0 armhf 1.83.0-2 [237 kB]
Get:5 http://deb.debian.org/debian unstable/main armhf libboost-chrono1.83-dev armhf 1.83.0-2 [243 kB]
Get:6 http://deb.debian.org/debian unstable/main armhf libboost-date-time1.83.0 armhf 1.83.0-2 [230 kB]
Get:7 http://deb.debian.org/debian unstable/main armhf libboost-serialization1.83.0 armhf 1.83.0-2 [315 kB]
Get:8 http://deb.debian.org/debian unstable/main armhf libboost-serialization1.83-dev armhf 1.83.0-2 [384 kB]
Get:9 http://deb.debian.org/debian unstable/main armhf libboost-date-time1.83-dev armhf 1.83.0-2 [239 kB]
Get:10 http://deb.debian.org/debian unstable/main armhf libboost-dev armhf 1.83.0.2 [3552 B]
Get:11 http://deb.debian.org/debian unstable/main armhf libboost-program-options1.83.0 armhf 1.83.0-2 [326 kB]
Get:12 http://deb.debian.org/debian unstable/main armhf libboost-program-options1.83-dev armhf 1.83.0-2 [369 kB]
Get:13 http://deb.debian.org/debian unstable/main armhf libboost-program-options-dev armhf 1.83.0.2 [3320 B]
Get:14 http://deb.debian.org/debian unstable/main armhf libboost-system1.83.0 armhf 1.83.0-2 [230 kB]
Get:15 http://deb.debian.org/debian unstable/main armhf libboost-system1.83-dev armhf 1.83.0-2 [231 kB]
Get:16 http://deb.debian.org/debian unstable/main armhf libboost-system-dev armhf 1.83.0.2 [3448 B]
Get:17 http://deb.debian.org/debian unstable/main armhf libboost-thread1.83.0 armhf 1.83.0-2 [261 kB]
Get:18 http://deb.debian.org/debian unstable/main armhf libboost-thread1.83-dev armhf 1.83.0-2 [275 kB]
Get:19 http://deb.debian.org/debian unstable/main armhf libboost-thread-dev armhf 1.83.0.2 [3332 B]
Get:20 http://deb.debian.org/debian unstable/main armhf libgmpxx4ldbl armhf 2:6.3.0+dfsg-2 [328 kB]
Get:21 http://deb.debian.org/debian unstable/main armhf libgmp-dev armhf 2:6.3.0+dfsg-2 [589 kB]
Get:22 http://deb.debian.org/debian unstable/main armhf libmpfr-dev armhf 4.2.1-1 [226 kB]
Get:23 http://deb.debian.org/debian unstable/main armhf libcgal-dev armhf 5.6-1+b1 [5001 kB]
Get:24 http://deb.debian.org/debian unstable/main armhf libfastjet0v5 armhf 3.4.0+dfsg-1 [297 kB]
Get:25 http://deb.debian.org/debian unstable/main armhf libfastjet-dev armhf 3.4.0+dfsg-1 [424 kB]
Get:26 http://deb.debian.org/debian unstable/main armhf libsiscone0v5 armhf 3.0.5-2 [58.3 kB]
Get:27 http://deb.debian.org/debian unstable/main armhf libsiscone-spherical0v5 armhf 3.0.5-2 [53.0 kB]
Get:28 http://deb.debian.org/debian unstable/main armhf libfastjetplugins0 armhf 3.4.0+dfsg-1 [231 kB]
Get:29 http://deb.debian.org/debian unstable/main armhf libsiscone-dev armhf 3.0.5-2 [79.1 kB]
Get:30 http://deb.debian.org/debian unstable/main armhf libsiscone-spherical-dev armhf 3.0.5-2 [70.8 kB]
Get:31 http://deb.debian.org/debian unstable/main armhf libfastjetplugins-dev armhf 3.4.0+dfsg-1 [306 kB]
debconf: delaying package configuration, since apt-utils is not installed
Fetched 22.1 MB in 2s (11.6 MB/s)
Selecting previously unselected package libboost1.83-dev:armhf.
(Reading database ... (Reading database ... 5%(Reading database ... 10%(Reading database ... 15%(Reading database ... 20%(Reading database ... 25%(Reading database ... 30%(Reading database ... 35%(Reading database ... 40%(Reading database ... 45%(Reading database ... 50%(Reading database ... 55%(Reading database ... 60%(Reading database ... 65%(Reading database ... 70%(Reading database ... 75%(Reading database ... 80%(Reading database ... 85%(Reading database ... 90%(Reading database ... 95%(Reading database ... 100%(Reading database ... 20055 files and directories currently installed.)
Preparing to unpack .../00-libboost1.83-dev_1.83.0-2_armhf.deb ...
Unpacking libboost1.83-dev:armhf (1.83.0-2) ...
Selecting previously unselected package libboost-atomic1.83.0:armhf.
Preparing to unpack .../01-libboost-atomic1.83.0_1.83.0-2_armhf.deb ...
Unpacking libboost-atomic1.83.0:armhf (1.83.0-2) ...
Selecting previously unselected package libboost-atomic1.83-dev:armhf.
Preparing to unpack .../02-libboost-atomic1.83-dev_1.83.0-2_armhf.deb ...
Unpacking libboost-atomic1.83-dev:armhf (1.83.0-2) ...
Selecting previously unselected package libboost-chrono1.83.0:armhf.
Preparing to unpack .../03-libboost-chrono1.83.0_1.83.0-2_armhf.deb ...
Unpacking libboost-chrono1.83.0:armhf (1.83.0-2) ...
Selecting previously unselected package libboost-chrono1.83-dev:armhf.
Preparing to unpack .../04-libboost-chrono1.83-dev_1.83.0-2_armhf.deb ...
Unpacking libboost-chrono1.83-dev:armhf (1.83.0-2) ...
Selecting previously unselected package libboost-date-time1.83.0:armhf.
Preparing to unpack .../05-libboost-date-time1.83.0_1.83.0-2_armhf.deb ...
Unpacking libboost-date-time1.83.0:armhf (1.83.0-2) ...
Selecting previously unselected package libboost-serialization1.83.0:armhf.
Preparing to unpack .../06-libboost-serialization1.83.0_1.83.0-2_armhf.deb ...
Unpacking libboost-serialization1.83.0:armhf (1.83.0-2) ...
Selecting previously unselected package libboost-serialization1.83-dev:armhf.
Preparing to unpack .../07-libboost-serialization1.83-dev_1.83.0-2_armhf.deb ...
Unpacking libboost-serialization1.83-dev:armhf (1.83.0-2) ...
Selecting previously unselected package libboost-date-time1.83-dev:armhf.
Preparing to unpack .../08-libboost-date-time1.83-dev_1.83.0-2_armhf.deb ...
Unpacking libboost-date-time1.83-dev:armhf (1.83.0-2) ...
Selecting previously unselected package libboost-dev:armhf.
Preparing to unpack .../09-libboost-dev_1.83.0.2_armhf.deb ...
Unpacking libboost-dev:armhf (1.83.0.2) ...
Selecting previously unselected package libboost-program-options1.83.0:armhf.
Preparing to unpack .../10-libboost-program-options1.83.0_1.83.0-2_armhf.deb ...
Unpacking libboost-program-options1.83.0:armhf (1.83.0-2) ...
Selecting previously unselected package libboost-program-options1.83-dev:armhf.
Preparing to unpack .../11-libboost-program-options1.83-dev_1.83.0-2_armhf.deb ...
Unpacking libboost-program-options1.83-dev:armhf (1.83.0-2) ...
Selecting previously unselected package libboost-program-options-dev:armhf.
Preparing to unpack .../12-libboost-program-options-dev_1.83.0.2_armhf.deb ...
Unpacking libboost-program-options-dev:armhf (1.83.0.2) ...
Selecting previously unselected package libboost-system1.83.0:armhf.
Preparing to unpack .../13-libboost-system1.83.0_1.83.0-2_armhf.deb ...
Unpacking libboost-system1.83.0:armhf (1.83.0-2) ...
Selecting previously unselected package libboost-system1.83-dev:armhf.
Preparing to unpack .../14-libboost-system1.83-dev_1.83.0-2_armhf.deb ...
Unpacking libboost-system1.83-dev:armhf (1.83.0-2) ...
Selecting previously unselected package libboost-system-dev:armhf.
Preparing to unpack .../15-libboost-system-dev_1.83.0.2_armhf.deb ...
Unpacking libboost-system-dev:armhf (1.83.0.2) ...
Selecting previously unselected package libboost-thread1.83.0:armhf.
Preparing to unpack .../16-libboost-thread1.83.0_1.83.0-2_armhf.deb ...
Unpacking libboost-thread1.83.0:armhf (1.83.0-2) ...
Selecting previously unselected package libboost-thread1.83-dev:armhf.
Preparing to unpack .../17-libboost-thread1.83-dev_1.83.0-2_armhf.deb ...
Unpacking libboost-thread1.83-dev:armhf (1.83.0-2) ...
Selecting previously unselected package libboost-thread-dev:armhf.
Preparing to unpack .../18-libboost-thread-dev_1.83.0.2_armhf.deb ...
Unpacking libboost-thread-dev:armhf (1.83.0.2) ...
Selecting previously unselected package libgmpxx4ldbl:armhf.
Preparing to unpack .../19-libgmpxx4ldbl_2%3a6.3.0+dfsg-2_armhf.deb ...
Unpacking libgmpxx4ldbl:armhf (2:6.3.0+dfsg-2) ...
Selecting previously unselected package libgmp-dev:armhf.
Preparing to unpack .../20-libgmp-dev_2%3a6.3.0+dfsg-2_armhf.deb ...
Unpacking libgmp-dev:armhf (2:6.3.0+dfsg-2) ...
Selecting previously unselected package libmpfr-dev:armhf.
Preparing to unpack .../21-libmpfr-dev_4.2.1-1_armhf.deb ...
Unpacking libmpfr-dev:armhf (4.2.1-1) ...
Selecting previously unselected package libcgal-dev:armhf.
Preparing to unpack .../22-libcgal-dev_5.6-1+b1_armhf.deb ...
Unpacking libcgal-dev:armhf (5.6-1+b1) ...
Selecting previously unselected package libfastjet0v5:armhf.
Preparing to unpack .../23-libfastjet0v5_3.4.0+dfsg-1_armhf.deb ...
Unpacking libfastjet0v5:armhf (3.4.0+dfsg-1) ...
Selecting previously unselected package libfastjet-dev.
Preparing to unpack .../24-libfastjet-dev_3.4.0+dfsg-1_armhf.deb ...
Unpacking libfastjet-dev (3.4.0+dfsg-1) ...
Selecting previously unselected package libsiscone0v5:armhf.
Preparing to unpack .../25-libsiscone0v5_3.0.5-2_armhf.deb ...
Unpacking libsiscone0v5:armhf (3.0.5-2) ...
Selecting previously unselected package libsiscone-spherical0v5:armhf.
Preparing to unpack .../26-libsiscone-spherical0v5_3.0.5-2_armhf.deb ...
Unpacking libsiscone-spherical0v5:armhf (3.0.5-2) ...
Selecting previously unselected package libfastjetplugins0:armhf.
Preparing to unpack .../27-libfastjetplugins0_3.4.0+dfsg-1_armhf.deb ...
Unpacking libfastjetplugins0:armhf (3.4.0+dfsg-1) ...
Selecting previously unselected package libsiscone-dev:armhf.
Preparing to unpack .../28-libsiscone-dev_3.0.5-2_armhf.deb ...
Unpacking libsiscone-dev:armhf (3.0.5-2) ...
Selecting previously unselected package libsiscone-spherical-dev:armhf.
Preparing to unpack .../29-libsiscone-spherical-dev_3.0.5-2_armhf.deb ...
Unpacking libsiscone-spherical-dev:armhf (3.0.5-2) ...
Selecting previously unselected package libfastjetplugins-dev:armhf.
Preparing to unpack .../30-libfastjetplugins-dev_3.4.0+dfsg-1_armhf.deb ...
Unpacking libfastjetplugins-dev:armhf (3.4.0+dfsg-1) ...
Setting up libboost-program-options1.83.0:armhf (1.83.0-2) ...
Setting up libboost1.83-dev:armhf (1.83.0-2) ...
Setting up libboost-date-time1.83.0:armhf (1.83.0-2) ...
Setting up libboost-system1.83.0:armhf (1.83.0-2) ...
Setting up libboost-program-options1.83-dev:armhf (1.83.0-2) ...
Setting up libboost-thread1.83.0:armhf (1.83.0-2) ...
Setting up libboost-atomic1.83.0:armhf (1.83.0-2) ...
Setting up libboost-serialization1.83.0:armhf (1.83.0-2) ...
Setting up libgmpxx4ldbl:armhf (2:6.3.0+dfsg-2) ...
Setting up libboost-program-options-dev:armhf (1.83.0.2) ...
Setting up libboost-atomic1.83-dev:armhf (1.83.0-2) ...
Setting up libboost-chrono1.83.0:armhf (1.83.0-2) ...
Setting up libboost-dev:armhf (1.83.0.2) ...
Setting up libboost-system1.83-dev:armhf (1.83.0-2) ...
Setting up libfastjet0v5:armhf (3.4.0+dfsg-1) ...
Setting up libsiscone0v5:armhf (3.0.5-2) ...
Setting up libgmp-dev:armhf (2:6.3.0+dfsg-2) ...
Setting up libboost-chrono1.83-dev:armhf (1.83.0-2) ...
Setting up libboost-system-dev:armhf (1.83.0.2) ...
Setting up libboost-serialization1.83-dev:armhf (1.83.0-2) ...
Setting up libsiscone-dev:armhf (3.0.5-2) ...
Setting up libmpfr-dev:armhf (4.2.1-1) ...
Setting up libboost-date-time1.83-dev:armhf (1.83.0-2) ...
Setting up libsiscone-spherical0v5:armhf (3.0.5-2) ...
Setting up libfastjet-dev (3.4.0+dfsg-1) ...
Setting up libboost-thread1.83-dev:armhf (1.83.0-2) ...
Setting up libfastjetplugins0:armhf (3.4.0+dfsg-1) ...
Setting up libsiscone-spherical-dev:armhf (3.0.5-2) ...
Setting up libboost-thread-dev:armhf (1.83.0.2) ...
Setting up libfastjetplugins-dev:armhf (3.4.0+dfsg-1) ...
Setting up libcgal-dev:armhf (5.6-1+b1) ...
Processing triggers for libc-bin (2.37-13) ...
Reading package lists...
Building dependency tree...
Reading state information...
The following packages will be REMOVED:
  libfastcdr-dev* libfastcdr1*
0 upgraded, 0 newly installed, 2 to remove and 12 not upgraded.
After this operation, 374 kB disk space will be freed.
(Reading database ... (Reading database ... 5%(Reading database ... 10%(Reading database ... 15%(Reading database ... 20%(Reading database ... 25%(Reading database ... 30%(Reading database ... 35%(Reading database ... 40%(Reading database ... 45%(Reading database ... 50%(Reading database ... 55%(Reading database ... 60%(Reading database ... 65%(Reading database ... 70%(Reading database ... 75%(Reading database ... 80%(Reading database ... 85%(Reading database ... 90%(Reading database ... 95%(Reading database ... 100%(Reading database ... 41234 files and directories currently installed.)
Removing libfastcdr-dev:armhf (1.1.0-1) ...
Removing libfastcdr1:armhf (1.1.0-1) ...
Processing triggers for libc-bin (2.37-13) ...
