[2024-01-07T16:53:16+00:00] apt-get install liblomiritoolkit-dev qtbase5-dev qtdeclarative5-dev qtbase5-private-dev abi-compliance-checker
Reading package lists...
Building dependency tree...
Reading state information...
qtbase5-dev is already the newest version (5.15.10+dfsg-5).
qtbase5-dev set to manually installed.
qtdeclarative5-dev is already the newest version (5.15.10+dfsg-2).
qtdeclarative5-dev set to manually installed.
qtbase5-private-dev is already the newest version (5.15.10+dfsg-5).
qtbase5-private-dev set to manually installed.
abi-compliance-checker is already the newest version (2.3-2).
The following packages were automatically installed and are no longer required:
  liblomirisystemsettingsprivate-dev liblomirisystemsettingsprivate0.0
Use 'apt autoremove' to remove them.
The following additional packages will be installed:
  libbluetooth3 liblomirigestures5 liblomirimetrics5 liblomiritoolkit5
  liblttng-ust-common1 liblttng-ust-ctl5 liblttng-ust1 libqt5organizer5a
  libqt5systeminfo5
The following NEW packages will be installed:
  libbluetooth3 liblomirigestures5 liblomirimetrics5 liblomiritoolkit-dev
  liblomiritoolkit5 liblttng-ust-common1 liblttng-ust-ctl5 liblttng-ust1
  libqt5organizer5a libqt5systeminfo5
0 upgraded, 10 newly installed, 0 to remove and 27 not upgraded.
Need to get 3022 kB of archives.
After this operation, 7364 kB of additional disk space will be used.
Get:1 http://deb.debian.org/debian unstable/main armhf libbluetooth3 armhf 5.71-1 [98.1 kB]
Get:2 http://deb.debian.org/debian unstable/main armhf liblomirigestures5 armhf 1.3.5010+dfsg-3 [484 kB]
Get:3 http://deb.debian.org/debian unstable/main armhf liblttng-ust-common1 armhf 2.13.6-3 [57.8 kB]
Get:4 http://deb.debian.org/debian unstable/main armhf liblttng-ust-ctl5 armhf 2.13.6-3 [106 kB]
Get:5 http://deb.debian.org/debian unstable/main armhf liblttng-ust1 armhf 2.13.6-3 [191 kB]
Get:6 http://deb.debian.org/debian unstable/main armhf liblomirimetrics5 armhf 1.3.5010+dfsg-3 [507 kB]
Get:7 http://deb.debian.org/debian unstable/main armhf libqt5organizer5a armhf 5.0~git20201102.f9a8f0fc+dfsg1-3+b1 [184 kB]
Get:8 http://deb.debian.org/debian unstable/main armhf libqt5systeminfo5 armhf 5.0~git20190103.e3332ee+dfsg1-5+b2 [96.3 kB]
Get:9 http://deb.debian.org/debian unstable/main armhf liblomiritoolkit5 armhf 1.3.5010+dfsg-3 [847 kB]
Get:10 http://deb.debian.org/debian unstable/main armhf liblomiritoolkit-dev armhf 1.3.5010+dfsg-3 [451 kB]
debconf: delaying package configuration, since apt-utils is not installed
Fetched 3022 kB in 1s (3318 kB/s)
Selecting previously unselected package libbluetooth3:armhf.
(Reading database ... (Reading database ... 5%(Reading database ... 10%(Reading database ... 15%(Reading database ... 20%(Reading database ... 25%(Reading database ... 30%(Reading database ... 35%(Reading database ... 40%(Reading database ... 45%(Reading database ... 50%(Reading database ... 55%(Reading database ... 60%(Reading database ... 65%(Reading database ... 70%(Reading database ... 75%(Reading database ... 80%(Reading database ... 85%(Reading database ... 90%(Reading database ... 95%(Reading database ... 100%(Reading database ... 24373 files and directories currently installed.)
Preparing to unpack .../0-libbluetooth3_5.71-1_armhf.deb ...
Unpacking libbluetooth3:armhf (5.71-1) ...
Selecting previously unselected package liblomirigestures5:armhf.
Preparing to unpack .../1-liblomirigestures5_1.3.5010+dfsg-3_armhf.deb ...
Unpacking liblomirigestures5:armhf (1.3.5010+dfsg-3) ...
Selecting previously unselected package liblttng-ust-common1:armhf.
Preparing to unpack .../2-liblttng-ust-common1_2.13.6-3_armhf.deb ...
Unpacking liblttng-ust-common1:armhf (2.13.6-3) ...
Selecting previously unselected package liblttng-ust-ctl5:armhf.
Preparing to unpack .../3-liblttng-ust-ctl5_2.13.6-3_armhf.deb ...
Unpacking liblttng-ust-ctl5:armhf (2.13.6-3) ...
Selecting previously unselected package liblttng-ust1:armhf.
Preparing to unpack .../4-liblttng-ust1_2.13.6-3_armhf.deb ...
Unpacking liblttng-ust1:armhf (2.13.6-3) ...
Selecting previously unselected package liblomirimetrics5:armhf.
Preparing to unpack .../5-liblomirimetrics5_1.3.5010+dfsg-3_armhf.deb ...
Unpacking liblomirimetrics5:armhf (1.3.5010+dfsg-3) ...
Selecting previously unselected package libqt5organizer5a:armhf.
Preparing to unpack .../6-libqt5organizer5a_5.0~git20201102.f9a8f0fc+dfsg1-3+b1_armhf.deb ...
Unpacking libqt5organizer5a:armhf (5.0~git20201102.f9a8f0fc+dfsg1-3+b1) ...
Selecting previously unselected package libqt5systeminfo5:armhf.
Preparing to unpack .../7-libqt5systeminfo5_5.0~git20190103.e3332ee+dfsg1-5+b2_armhf.deb ...
Unpacking libqt5systeminfo5:armhf (5.0~git20190103.e3332ee+dfsg1-5+b2) ...
Selecting previously unselected package liblomiritoolkit5:armhf.
Preparing to unpack .../8-liblomiritoolkit5_1.3.5010+dfsg-3_armhf.deb ...
Unpacking liblomiritoolkit5:armhf (1.3.5010+dfsg-3) ...
Selecting previously unselected package liblomiritoolkit-dev:armhf.
Preparing to unpack .../9-liblomiritoolkit-dev_1.3.5010+dfsg-3_armhf.deb ...
Unpacking liblomiritoolkit-dev:armhf (1.3.5010+dfsg-3) ...
Setting up liblttng-ust-common1:armhf (2.13.6-3) ...
Setting up liblomirigestures5:armhf (1.3.5010+dfsg-3) ...
Setting up liblttng-ust-ctl5:armhf (2.13.6-3) ...
Setting up libqt5organizer5a:armhf (5.0~git20201102.f9a8f0fc+dfsg1-3+b1) ...
Setting up libbluetooth3:armhf (5.71-1) ...
Setting up liblttng-ust1:armhf (2.13.6-3) ...
Setting up libqt5systeminfo5:armhf (5.0~git20190103.e3332ee+dfsg1-5+b2) ...
Setting up liblomirimetrics5:armhf (1.3.5010+dfsg-3) ...
Setting up liblomiritoolkit5:armhf (1.3.5010+dfsg-3) ...
Setting up liblomiritoolkit-dev:armhf (1.3.5010+dfsg-3) ...
Processing triggers for libc-bin (2.37-13) ...
Reading package lists...
Building dependency tree...
Reading state information...
The following packages will be REMOVED:
  liblomirisystemsettingsprivate-dev* liblomirisystemsettingsprivate0.0*
0 upgraded, 0 newly installed, 2 to remove and 27 not upgraded.
After this operation, 603 kB disk space will be freed.
(Reading database ... (Reading database ... 5%(Reading database ... 10%(Reading database ... 15%(Reading database ... 20%(Reading database ... 25%(Reading database ... 30%(Reading database ... 35%(Reading database ... 40%(Reading database ... 45%(Reading database ... 50%(Reading database ... 55%(Reading database ... 60%(Reading database ... 65%(Reading database ... 70%(Reading database ... 75%(Reading database ... 80%(Reading database ... 85%(Reading database ... 90%(Reading database ... 95%(Reading database ... 100%(Reading database ... 24476 files and directories currently installed.)
Removing liblomirisystemsettingsprivate-dev:armhf (1.0.1-2) ...
Removing liblomirisystemsettingsprivate0.0:armhf (1.0.1-2) ...
Processing triggers for libc-bin (2.37-13) ...
