Temporary header file '/tmp/CUIViwMq47/dump1.h' with the following content will be compiled to create GCC translation unit dump:

  // add defines
  #define __STDC_VERSION__ 201710L
#define _GXX_NULLPTR_T
#define CLUTTER_ENABLE_COMPOSITOR_API 1
#define _REGEX_NELTS(n)
#define _Atomic
#define PACKED
#ifdef __cplusplus
// C17 compat layer
#define _Alignof(type) alignof(type)
#endif
#define getaddrinfo_a(a,b,c,d)

  // add includes
  #include "/usr/include/stdio.h"
  #include "/usr/include/stdint.h"
  #include "/usr/include/libfsext/codepage.h"
  #include "/usr/include/libfsext/definitions.h"
  #include "/usr/include/libfsext/error.h"
  #include "/usr/include/libfsext/extern.h"
  #include "/usr/include/libfsext/features.h"
  #include "/usr/include/libfsext/types.h"
  #include "/usr/include/libfsext.h"

  // add classes
  _G_fpos64_t* tmp_add_class_0;
  _G_fpos_t* tmp_add_class_1;

The GCC parameters:
  gcc -fdump-lang-raw -fkeep-inline-functions -c -x c++ -fpermissive -w "/tmp/CUIViwMq47/dump1.h"  -I/usr/include/libfsext

In file included from /usr/include/stdio.h:27,
                 from /tmp/CUIViwMq47/dump1.h:16:
/usr/include/arm-linux-gnueabihf/bits/libc-header-start.h:74:17: error: missing binary operator before token "("
   74 | #if __GLIBC_USE (IEC_60559_BFP_EXT) || __GLIBC_USE (ISOC2X)
      |                 ^
/usr/include/arm-linux-gnueabihf/bits/libc-header-start.h:80:17: error: missing binary operator before token "("
   80 | #if __GLIBC_USE (IEC_60559_BFP_EXT) || defined __STDC_WANT_IEC_60559_EXT__
      |                 ^
/usr/include/arm-linux-gnueabihf/bits/libc-header-start.h:97:17: error: missing binary operator before token "("
   97 | #if __GLIBC_USE (IEC_60559_FUNCS_EXT) || __GLIBC_USE (ISOC2X)
      |                 ^
/usr/include/stdio.h:136:17: error: missing binary operator before token "("
  136 | #if __GLIBC_USE (ISOC2X)
      |                 ^
/usr/include/stdio.h:306:43: error: missing binary operator before token "("
  306 | #if defined __USE_XOPEN2K8 || __GLIBC_USE (LIB_EXT2)
      |                                           ^
/usr/include/stdio.h:387:17: error: missing binary operator before token "("
  387 | #if __GLIBC_USE (LIB_EXT2)
      |                 ^
In file included from /usr/include/arm-linux-gnueabihf/bits/floatn.h:52,
                 from /usr/include/stdio.h:430:
/usr/include/arm-linux-gnueabihf/bits/floatn-common.h:69:19: error: missing binary operator before token "("
   69 | #if __GNUC_PREREQ (7, 0) && !defined __cplusplus
      |                   ^
/usr/include/arm-linux-gnueabihf/bits/floatn-common.h:90:22: error: missing binary operator before token "("
   90 | #  if !__GNUC_PREREQ (7, 0) || (defined __cplusplus && !__GNUC_PREREQ (13, 0))
      |                      ^
/usr/include/arm-linux-gnueabihf/bits/floatn-common.h:98:22: error: missing binary operator before token "("
   98 | #  if !__GNUC_PREREQ (7, 0) || (defined __cplusplus && !__GNUC_PREREQ (13, 0))
      |                      ^
/usr/include/arm-linux-gnueabihf/bits/floatn-common.h:110:22: error: missing binary operator before token "("
  110 | #  if !__GNUC_PREREQ (7, 0) || (defined __cplusplus && !__GNUC_PREREQ (13, 0))
      |                      ^
/usr/include/arm-linux-gnueabihf/bits/floatn-common.h:148:22: error: missing binary operator before token "("
  148 | #  if !__GNUC_PREREQ (7, 0) || (defined __cplusplus && !__GNUC_PREREQ (13, 0))
      |                      ^
/usr/include/arm-linux-gnueabihf/bits/floatn-common.h:156:22: error: missing binary operator before token "("
  156 | #  if !__GNUC_PREREQ (7, 0) || (defined __cplusplus && !__GNUC_PREREQ (13, 0))
      |                      ^
/usr/include/arm-linux-gnueabihf/bits/floatn-common.h:168:22: error: missing binary operator before token "("
  168 | #  if !__GNUC_PREREQ (7, 0) || (defined __cplusplus && !__GNUC_PREREQ (13, 0))
      |                      ^
/usr/include/arm-linux-gnueabihf/bits/floatn-common.h:213:22: error: missing binary operator before token "("
  213 | #  if !__GNUC_PREREQ (7, 0) || (defined __cplusplus && !__GNUC_PREREQ (13, 0))
      |                      ^
/usr/include/arm-linux-gnueabihf/bits/floatn-common.h:217:22: error: missing binary operator before token "("
  217 | #  if !__GNUC_PREREQ (7, 0)
      |                      ^
/usr/include/arm-linux-gnueabihf/bits/floatn-common.h:237:23: error: missing binary operator before token "("
  237 | #   if !__GNUC_PREREQ (7, 0) || (defined __cplusplus && !__GNUC_PREREQ (13, 0))
      |                       ^
/usr/include/arm-linux-gnueabihf/bits/floatn-common.h:241:23: error: missing binary operator before token "("
  241 | #   if !__GNUC_PREREQ (7, 0)
      |                       ^
/usr/include/arm-linux-gnueabihf/bits/floatn-common.h:267:22: error: missing binary operator before token "("
  267 | #  if !__GNUC_PREREQ (7, 0) || (defined __cplusplus && !__GNUC_PREREQ (13, 0))
      |                      ^
/usr/include/arm-linux-gnueabihf/bits/floatn-common.h:271:22: error: missing binary operator before token "("
  271 | #  if !__GNUC_PREREQ (7, 0)
      |                      ^
/usr/include/stdio.h:431:18: error: missing binary operator before token "("
  431 | #if !__GLIBC_USE (DEPRECATED_SCANF) && !defined __LDBL_COMPAT \
      |                  ^
/usr/include/stdio.h:595:17: error: missing binary operator before token "("
  595 | #if __GLIBC_USE (DEPRECATED_GETS)
      |                 ^
/usr/include/stdio.h:621:43: error: missing binary operator before token "("
  621 | #if defined __USE_XOPEN2K8 || __GLIBC_USE (LIB_EXT2)
      |                                           ^
In file included from /usr/include/stdint.h:26,
                 from /tmp/CUIViwMq47/dump1.h:17:
/usr/include/arm-linux-gnueabihf/bits/libc-header-start.h:74:17: error: missing binary operator before token "("
   74 | #if __GLIBC_USE (IEC_60559_BFP_EXT) || __GLIBC_USE (ISOC2X)
      |                 ^
/usr/include/arm-linux-gnueabihf/bits/libc-header-start.h:80:17: error: missing binary operator before token "("
   80 | #if __GLIBC_USE (IEC_60559_BFP_EXT) || defined __STDC_WANT_IEC_60559_EXT__
      |                 ^
/usr/include/arm-linux-gnueabihf/bits/libc-header-start.h:97:17: error: missing binary operator before token "("
   97 | #if __GLIBC_USE (IEC_60559_FUNCS_EXT) || __GLIBC_USE (ISOC2X)
      |                 ^
/usr/include/stdint.h:276:17: error: missing binary operator before token "("
  276 | #if __GLIBC_USE (IEC_60559_BFP_EXT_C2X)
      |                 ^
In file included from /usr/include/libfsext/types.h:91,
                 from /usr/include/libfsext/codepage.h:25,
                 from /tmp/CUIViwMq47/dump1.h:18:
/usr/include/arm-linux-gnueabihf/sys/types.h:163:19: error: missing binary operator before token "("
  163 | #if __GNUC_PREREQ (2, 7)
      |                   ^
In file included from /usr/include/wchar.h:27,
                 from /usr/include/libfsext/types.h:193:
/usr/include/arm-linux-gnueabihf/bits/libc-header-start.h:74:17: error: missing binary operator before token "("
   74 | #if __GLIBC_USE (IEC_60559_BFP_EXT) || __GLIBC_USE (ISOC2X)
      |                 ^
/usr/include/arm-linux-gnueabihf/bits/libc-header-start.h:80:17: error: missing binary operator before token "("
   80 | #if __GLIBC_USE (IEC_60559_BFP_EXT) || defined __STDC_WANT_IEC_60559_EXT__
      |                 ^
/usr/include/arm-linux-gnueabihf/bits/libc-header-start.h:97:17: error: missing binary operator before token "("
   97 | #if __GLIBC_USE (IEC_60559_FUNCS_EXT) || __GLIBC_USE (ISOC2X)
      |                 ^
/usr/include/wchar.h:53:42: error: missing binary operator before token "("
   53 | #if defined __cplusplus && __GNUC_PREREQ (4, 4)
      |                                          ^
/usr/include/wchar.h:565:43: error: missing binary operator before token "("
  565 | #if defined __USE_XOPEN2K8 || __GLIBC_USE (LIB_EXT2)
      |                                           ^
/usr/include/wchar.h:654:18: error: missing binary operator before token "("
  654 | #if !__GLIBC_USE (DEPRECATED_SCANF) && !defined __LDBL_COMPAT \
      |                  ^
/usr/include/stdio.h:29:1: error: '__BEGIN_DECLS' does not name a type
   29 | __BEGIN_DECLS
      | ^~~~~~~~~~~~~
In file included from /usr/include/stdio.h:43:
/usr/include/arm-linux-gnueabihf/bits/types/struct_FILE.h:95:3: error: 'size_t' does not name a type
   95 |   size_t __pad5;
      |   ^~~~~~
/usr/include/arm-linux-gnueabihf/bits/types/struct_FILE.h:1:1: note: 'size_t' is defined in header '<cstddef>'; did you forget to '#include <cstddef>'?
  +++ |+#include <cstddef>
    1 | /* Copyright (C) 1991-2023 Free Software Foundation, Inc.
/usr/include/arm-linux-gnueabihf/bits/types/struct_FILE.h:98:67: error: 'size_t' was not declared in this scope
   98 |   char _unused2[15 * sizeof (int) - 4 * sizeof (void *) - sizeof (size_t)];
      |                                                                   ^~~~~~
/usr/include/arm-linux-gnueabihf/bits/types/struct_FILE.h:98:67: note: 'size_t' is defined in header '<cstddef>'; did you forget to '#include <cstddef>'?
/usr/include/stdio.h:152:44: error: expected initializer before '__THROW'
  152 | extern int remove (const char *__filename) __THROW;
      |                                            ^~~~~~~
/usr/include/stdio.h:154:58: error: expected initializer before '__THROW'
  154 | extern int rename (const char *__old, const char *__new) __THROW;
      |                                                          ^~~~~~~
/usr/include/stdio.h:189:3: error: expected initializer before '__attribute_malloc__'
  189 |   __attribute_malloc__ __attr_dealloc_fclose __wur;
      |   ^~~~~~~~~~~~~~~~~~~~
/usr/include/stdio.h:205:38: error: expected initializer before '__THROW'
  205 | extern char *tmpnam (char[L_tmpnam]) __THROW __wur;
      |                                      ^~~~~~~
/usr/include/stdio.h:260:3: error: expected initializer before '__attribute_malloc__'
  260 |   __attribute_malloc__ __attr_dealloc_fclose __wur;
      |   ^~~~~~~~~~~~~~~~~~~~
/usr/include/stdio.h:267:50: error: expected initializer before '__wur'
  267 |                       FILE *__restrict __stream) __wur;
      |                                                  ^~~~~
/usr/include/stdio.h:328:72: error: expected initializer before '__THROW'
  328 | extern void setbuf (FILE *__restrict __stream, char *__restrict __buf) __THROW;
      |                                                                        ^~~~~~~
/usr/include/stdio.h:333:34: error: 'size_t' has not been declared
  333 |                     int __modes, size_t __n) __THROW;
      |                                  ^~~~~~
/usr/include/stdio.h:333:46: error: expected initializer before '__THROW'
  333 |                     int __modes, size_t __n) __THROW;
      |                                              ^~~~~~~
/usr/include/stdio.h:359:59: error: expected initializer before '__THROWNL'
  359 |                     const char *__restrict __format, ...) __THROWNL;
      |                                                           ^~~~~~~~~
/usr/include/stdio.h:374:44: error: expected initializer before '__THROWNL'
  374 |                      __gnuc_va_list __arg) __THROWNL;
      |                                            ^~~~~~~~~
/usr/include/stdio.h:416:58: error: expected initializer before '__wur'
  416 |                    const char *__restrict __format, ...) __wur;
      |                                                          ^~~~~
/usr/include/stdio.h:421:57: error: expected initializer before '__wur'
  421 | extern int scanf (const char *__restrict __format, ...) __wur;
      |                                                         ^~~~~
/usr/include/stdio.h:424:58: error: expected initializer before '__THROW'
  424 |                    const char *__restrict __format, ...) __THROW;
      |                                                          ^~~~~~~
/usr/include/stdio.h:593:6: error: expected initializer before '__wur'
  593 |      __wur __fortified_attr_access (__write_only__, 1, 2);
      |      ^~~~~
/usr/include/stdio.h:675:8: error: 'size_t' does not name a type
  675 | extern size_t fread (void *__restrict __ptr, size_t __size,
      |        ^~~~~~
/usr/include/stdio.h:431:1: note: 'size_t' is defined in header '<cstddef>'; did you forget to '#include <cstddef>'?
  430 | #include <bits/floatn.h>
  +++ |+#include <cstddef>
  431 | #if !__GLIBC_USE (DEPRECATED_SCANF) && !defined __LDBL_COMPAT \
/usr/include/stdio.h:681:8: error: 'size_t' does not name a type
  681 | extern size_t fwrite (const void *__restrict __ptr, size_t __size,
      |        ^~~~~~
/usr/include/stdio.h:681:8: note: 'size_t' is defined in header '<cstddef>'; did you forget to '#include <cstddef>'?
/usr/include/stdio.h:718:40: error: expected initializer before '__wur'
  718 | extern long int ftell (FILE *__stream) __wur;
      |                                        ^~~~~
/usr/include/stdio.h:786:39: error: expected initializer before '__THROW'
  786 | extern void clearerr (FILE *__stream) __THROW;
      |                                       ^~~~~~~
/usr/include/stdio.h:788:34: error: expected initializer before '__THROW'
  788 | extern int feof (FILE *__stream) __THROW __wur;
      |                                  ^~~~~~~
/usr/include/stdio.h:790:36: error: expected initializer before '__THROW'
  790 | extern int ferror (FILE *__stream) __THROW __wur;
      |                                    ^~~~~~~
/usr/include/stdio.h:909:1: error: '__END_DECLS' does not name a type
  909 | __END_DECLS
      | ^~~~~~~~~~~
/usr/include/arm-linux-gnueabihf/sys/types.h:27:1: error: '__BEGIN_DECLS' does not name a type
   27 | __BEGIN_DECLS
      | ^~~~~~~~~~~~~
/usr/include/arm-linux-gnueabihf/sys/types.h:230:1: error: '__END_DECLS' does not name a type
  230 | __END_DECLS
      | ^~~~~~~~~~~
In file included from /usr/include/libfsext/types.h:101:
/usr/include/inttypes.h:284:5: error: 'imaxdiv_t' does not name a type
  284 |   } imaxdiv_t;
      |     ^~~~~~~~~
/usr/include/inttypes.h:290:40: error: expected initializer before '__THROW'
  290 | extern intmax_t imaxabs (intmax_t __n) __THROW __attribute__ ((__const__));
      |                                        ^~~~~~~
/usr/include/inttypes.h:293:8: error: 'imaxdiv_t' does not name a type
  293 | extern imaxdiv_t imaxdiv (intmax_t __numer, intmax_t __denom)
      |        ^~~~~~~~~
/usr/include/inttypes.h:298:68: error: expected initializer before '__THROW'
  298 |                            char **__restrict __endptr, int __base) __THROW;
      |                                                                    ^~~~~~~
/usr/include/inttypes.h:302:70: error: expected initializer before '__THROW'
  302 |                             char ** __restrict __endptr, int __base) __THROW;
      |                                                                      ^~~~~~~
/usr/include/inttypes.h:307:6: error: expected initializer before '__THROW'
  307 |      __THROW;
      |      ^~~~~~~
/usr/include/inttypes.h:312:6: error: expected initializer before '__THROW'
  312 |      __THROW;
      |      ^~~~~~~
/usr/include/inttypes.h:314:1: error: '__END_DECLS' does not name a type
  314 | __END_DECLS
      | ^~~~~~~~~~~
In file included from /usr/include/libfsext.h:35,
                 from /tmp/CUIViwMq47/dump1.h:24:
/usr/include/libbfio.h:91:6: error: 'size_t' has not been declared
   91 |      size_t size );
      |      ^~~~~~
/usr/include/libbfio.h:108:6: error: 'size_t' has not been declared
  108 |      size_t size );
      |      ^~~~~~
/usr/include/libbfio.h:139:17: error: 'size_t' has not been declared
  139 |                 size_t size,
      |                 ^~~~~~
/usr/include/libbfio.h:144:17: error: 'size_t' has not been declared
  144 |                 size_t size,
      |                 ^~~~~~
/usr/include/libbfio.h:146:6: error: 'off64_t' has not been declared
  146 |      off64_t (*seek_offset)(
      |      ^~~~~~~
/usr/include/libbfio.h:148:17: error: 'off64_t' has not been declared
  148 |                 off64_t offset,
      |                 ^~~~~~~
/usr/include/libbfio.h:159:13: error: 'size64_t' has not been declared
  159 |             size64_t *size,
      |             ^~~~~~~~
/usr/include/libbfio.h:215:10: error: 'size_t' has not been declared
  215 |          size_t size,
      |          ^~~~~~
/usr/include/libbfio.h:225:10: error: 'size_t' has not been declared
  225 |          size_t size,
      |          ^~~~~~
/usr/include/libbfio.h:232:1: error: 'off64_t' does not name a type; did you mean 'off_t'?
  232 | off64_t libbfio_handle_seek_offset(
      | ^~~~~~~
      | off_t
/usr/include/libbfio.h:287:6: error: 'size64_t' has not been declared
  287 |      size64_t *size,
      |      ^~~~~~~~
/usr/include/libbfio.h:317:6: error: 'off64_t' has not been declared
  317 |      off64_t *offset,
      |      ^~~~~~~
/usr/include/libbfio.h:336:6: error: 'off64_t' has not been declared
  336 |      off64_t *offset,
      |      ^~~~~~~
/usr/include/libbfio.h:337:6: error: 'size64_t' has not been declared
  337 |      size64_t *size,
      |      ^~~~~~~~
/usr/include/libbfio.h:360:6: error: 'size_t' has not been declared
  360 |      size_t *name_size,
      |      ^~~~~~
/usr/include/libbfio.h:371:6: error: 'size_t' has not been declared
  371 |      size_t name_size,
      |      ^~~~~~
/usr/include/libbfio.h:381:6: error: 'size_t' has not been declared
  381 |      size_t name_length,
      |      ^~~~~~
/usr/include/libbfio.h:439:6: error: 'size_t' has not been declared
  439 |      size_t *name_size,
      |      ^~~~~~
/usr/include/libbfio.h:450:6: error: 'size_t' has not been declared
  450 |      size_t name_size,
      |      ^~~~~~
/usr/include/libbfio.h:460:6: error: 'size_t' has not been declared
  460 |      size_t name_length,
      |      ^~~~~~
/usr/include/libbfio.h:504:6: error: 'off64_t' has not been declared
  504 |      off64_t *range_offset,
      |      ^~~~~~~
/usr/include/libbfio.h:505:6: error: 'size64_t' has not been declared
  505 |      size64_t *range_size,
      |      ^~~~~~~~
/usr/include/libbfio.h:514:6: error: 'off64_t' has not been declared
  514 |      off64_t range_offset,
      |      ^~~~~~~
/usr/include/libbfio.h:515:6: error: 'size64_t' has not been declared
  515 |      size64_t range_size,
      |      ^~~~~~~~
/usr/include/libbfio.h:538:6: error: 'size_t' has not been declared
  538 |      size_t *size,
      |      ^~~~~~
/usr/include/libbfio.h:548:6: error: 'size_t' has not been declared
  548 |      size_t size,
      |      ^~~~~~
/usr/include/libbfio.h:708:10: error: 'size_t' has not been declared
  708 |          size_t size,
      |          ^~~~~~
/usr/include/libbfio.h:719:10: error: 'size_t' has not been declared
  719 |          size_t size,
      |          ^~~~~~
/usr/include/libbfio.h:726:1: error: 'off64_t' does not name a type; did you mean 'off_t'?
  726 | off64_t libbfio_pool_seek_offset(
      | ^~~~~~~
      | off_t
/usr/include/libbfio.h:740:6: error: 'off64_t' has not been declared
  740 |      off64_t *offset,
      |      ^~~~~~~
/usr/include/libbfio.h:750:6: error: 'size64_t' has not been declared
  750 |      size64_t *size,
      |      ^~~~~~~~
/usr/include/libfsext.h:168:6: error: 'size_t' has not been declared
  168 |      size_t size );
      |      ^~~~~~
/usr/include/libfsext.h:186:6: error: 'size_t' has not been declared
  186 |      size_t size );
      |      ^~~~~~
/usr/include/libfsext.h:198:6: error: 'libfsext_volume_t' was not declared in this scope
  198 |      libfsext_volume_t **volume,
      |      ^~~~~~~~~~~~~~~~~
/usr/include/libfsext.h:198:26: error: 'volume' was not declared in this scope
  198 |      libfsext_volume_t **volume,
      |                          ^~~~~~
/usr/include/libfsext.h:199:23: error: expected primary-expression before '*' token
  199 |      libfsext_error_t **error );
      |                       ^
/usr/include/libfsext.h:199:25: error: 'error' was not declared in this scope; did you mean 'perror'?
  199 |      libfsext_error_t **error );
      |                         ^~~~~
      |                         perror
/usr/include/libfsext.h:206:6: error: 'libfsext_volume_t' was not declared in this scope; did you mean 'libfsext_volume_free'?
  206 |      libfsext_volume_t **volume,
      |      ^~~~~~~~~~~~~~~~~
      |      libfsext_volume_free
/usr/include/libfsext.h:206:26: error: 'volume' was not declared in this scope
  206 |      libfsext_volume_t **volume,
      |                          ^~~~~~
/usr/include/libfsext.h:207:23: error: expected primary-expression before '*' token
  207 |      libfsext_error_t **error );
      |                       ^
/usr/include/libfsext.h:207:25: error: 'error' was not declared in this scope; did you mean 'perror'?
  207 |      libfsext_error_t **error );
      |                         ^~~~~
      |                         perror
/usr/include/libfsext.h:214:6: error: 'libfsext_volume_t' was not declared in this scope; did you mean 'libfsext_volume_free'?
  214 |      libfsext_volume_t *volume,
      |      ^~~~~~~~~~~~~~~~~
      |      libfsext_volume_free
/usr/include/libfsext.h:214:25: error: 'volume' was not declared in this scope
  214 |      libfsext_volume_t *volume,
      |                         ^~~~~~
/usr/include/libfsext.h:215:23: error: expected primary-expression before '*' token
  215 |      libfsext_error_t **error );
      |                       ^
/usr/include/libfsext.h:215:25: error: 'error' was not declared in this scope; did you mean 'perror'?
  215 |      libfsext_error_t **error );
      |                         ^~~~~
      |                         perror
/usr/include/libfsext.h:222:6: error: 'libfsext_volume_t' was not declared in this scope; did you mean 'libfsext_volume_open'?
  222 |      libfsext_volume_t *volume,
      |      ^~~~~~~~~~~~~~~~~
      |      libfsext_volume_open
/usr/include/libfsext.h:222:25: error: 'volume' was not declared in this scope
  222 |      libfsext_volume_t *volume,
      |                         ^~~~~~
/usr/include/libfsext.h:223:6: error: expected primary-expression before 'const'
  223 |      const char *filename,
      |      ^~~~~
/usr/include/libfsext.h:224:6: error: expected primary-expression before 'int'
  224 |      int access_flags,
      |      ^~~
/usr/include/libfsext.h:225:23: error: expected primary-expression before '*' token
  225 |      libfsext_error_t **error );
      |                       ^
/usr/include/libfsext.h:225:25: error: 'error' was not declared in this scope; did you mean 'perror'?
  225 |      libfsext_error_t **error );
      |                         ^~~~~
      |                         perror
/usr/include/libfsext.h:248:6: error: 'libfsext_volume_t' was not declared in this scope; did you mean 'libfsext_volume_open'?
  248 |      libfsext_volume_t *volume,
      |      ^~~~~~~~~~~~~~~~~
      |      libfsext_volume_open
/usr/include/libfsext.h:248:25: error: 'volume' was not declared in this scope
  248 |      libfsext_volume_t *volume,
      |                         ^~~~~~
/usr/include/libfsext.h:249:23: error: expected primary-expression before '*' token
  249 |      libbfio_handle_t *file_io_handle,
      |                       ^
/usr/include/libfsext.h:249:24: error: 'file_io_handle' was not declared in this scope; did you mean 'libbfio_handle_t'?
  249 |      libbfio_handle_t *file_io_handle,
      |                        ^~~~~~~~~~~~~~
      |                        libbfio_handle_t
/usr/include/libfsext.h:250:6: error: expected primary-expression before 'int'
  250 |      int access_flags,
      |      ^~~
/usr/include/libfsext.h:251:23: error: expected primary-expression before '*' token
  251 |      libfsext_error_t **error );
      |                       ^
/usr/include/libfsext.h:251:25: error: 'error' was not declared in this scope; did you mean 'perror'?
  251 |      libfsext_error_t **error );
      |                         ^~~~~
      |                         perror
/usr/include/libfsext.h:260:6: error: 'libfsext_volume_t' was not declared in this scope; did you mean 'libfsext_volume_open'?
  260 |      libfsext_volume_t *volume,
      |      ^~~~~~~~~~~~~~~~~
      |      libfsext_volume_open
/usr/include/libfsext.h:260:25: error: 'volume' was not declared in this scope
  260 |      libfsext_volume_t *volume,
      |                         ^~~~~~
/usr/include/libfsext.h:261:23: error: expected primary-expression before '*' token
  261 |      libfsext_error_t **error );
      |                       ^
/usr/include/libfsext.h:261:25: error: 'error' was not declared in this scope; did you mean 'perror'?
  261 |      libfsext_error_t **error );
      |                         ^~~~~
      |                         perror
/usr/include/libfsext.h:268:6: error: 'libfsext_volume_t' was not declared in this scope; did you mean 'libfsext_volume_open'?
  268 |      libfsext_volume_t *volume,
      |      ^~~~~~~~~~~~~~~~~
      |      libfsext_volume_open
/usr/include/libfsext.h:268:25: error: 'volume' was not declared in this scope
  268 |      libfsext_volume_t *volume,
      |                         ^~~~~~
/usr/include/libfsext.h:269:14: error: expected primary-expression before '*' token
  269 |      uint8_t *format_version,
      |              ^
/usr/include/libfsext.h:269:15: error: 'format_version' was not declared in this scope
  269 |      uint8_t *format_version,
      |               ^~~~~~~~~~~~~~
/usr/include/libfsext.h:270:23: error: expected primary-expression before '*' token
  270 |      libfsext_error_t **error );
      |                       ^
/usr/include/libfsext.h:270:25: error: 'error' was not declared in this scope; did you mean 'perror'?
  270 |      libfsext_error_t **error );
      |                         ^~~~~
      |                         perror
/usr/include/libfsext.h:277:6: error: 'libfsext_volume_t' was not declared in this scope; did you mean 'libfsext_volume_open'?
  277 |      libfsext_volume_t *volume,
      |      ^~~~~~~~~~~~~~~~~
      |      libfsext_volume_open
/usr/include/libfsext.h:277:25: error: 'volume' was not declared in this scope
  277 |      libfsext_volume_t *volume,
      |                         ^~~~~~
/usr/include/libfsext.h:278:15: error: expected primary-expression before '*' token
  278 |      uint32_t *compatible_features_flags,
      |               ^
/usr/include/libfsext.h:278:16: error: 'compatible_features_flags' was not declared in this scope
  278 |      uint32_t *compatible_features_flags,
      |                ^~~~~~~~~~~~~~~~~~~~~~~~~
/usr/include/libfsext.h:279:15: error: expected primary-expression before '*' token
  279 |      uint32_t *incompatible_features_flags,
      |               ^
/usr/include/libfsext.h:279:16: error: 'incompatible_features_flags' was not declared in this scope
  279 |      uint32_t *incompatible_features_flags,
      |                ^~~~~~~~~~~~~~~~~~~~~~~~~~~
/usr/include/libfsext.h:280:15: error: expected primary-expression before '*' token
  280 |      uint32_t *read_only_compatible_features_flags,
      |               ^
/usr/include/libfsext.h:280:16: error: 'read_only_compatible_features_flags' was not declared in this scope
  280 |      uint32_t *read_only_compatible_features_flags,
      |                ^~~~~~~~~~~~~~~~~~~~~~~~~~~~~~~~~~~
/usr/include/libfsext.h:281:23: error: expected primary-expression before '*' token
  281 |      libfsext_error_t **error );
      |                       ^
/usr/include/libfsext.h:281:25: error: 'error' was not declared in this scope; did you mean 'perror'?
  281 |      libfsext_error_t **error );
      |                         ^~~~~
      |                         perror
/usr/include/libfsext.h:289:6: error: 'libfsext_volume_t' was not declared in this scope; did you mean 'libfsext_volume_open'?
  289 |      libfsext_volume_t *volume,
      |      ^~~~~~~~~~~~~~~~~
      |      libfsext_volume_open
/usr/include/libfsext.h:289:25: error: 'volume' was not declared in this scope
  289 |      libfsext_volume_t *volume,
      |                         ^~~~~~
/usr/include/libfsext.h:290:6: error: 'size_t' was not declared in this scope
  290 |      size_t *utf8_string_size,
      |      ^~~~~~
/usr/include/libfsext.h:36:1: note: 'size_t' is defined in header '<cstddef>'; did you forget to '#include <cstddef>'?
   35 | #include <libbfio.h>
  +++ |+#include <cstddef>
   36 | #endif
/usr/include/libfsext.h:290:14: error: 'utf8_string_size' was not declared in this scope
  290 |      size_t *utf8_string_size,
      |              ^~~~~~~~~~~~~~~~
/usr/include/libfsext.h:291:23: error: expected primary-expression before '*' token
  291 |      libfsext_error_t **error );
      |                       ^
/usr/include/libfsext.h:291:25: error: 'error' was not declared in this scope; did you mean 'perror'?
  291 |      libfsext_error_t **error );
      |                         ^~~~~
      |                         perror
/usr/include/libfsext.h:299:6: error: 'libfsext_volume_t' was not declared in this scope; did you mean 'libfsext_volume_open'?
  299 |      libfsext_volume_t *volume,
      |      ^~~~~~~~~~~~~~~~~
      |      libfsext_volume_open
/usr/include/libfsext.h:299:25: error: 'volume' was not declared in this scope
  299 |      libfsext_volume_t *volume,
      |                         ^~~~~~
/usr/include/libfsext.h:300:14: error: expected primary-expression before '*' token
  300 |      uint8_t *utf8_string,
      |              ^
/usr/include/libfsext.h:300:15: error: 'utf8_string' was not declared in this scope
  300 |      uint8_t *utf8_string,
      |               ^~~~~~~~~~~
/usr/include/libfsext.h:301:6: error: 'size_t' was not declared in this scope
  301 |      size_t utf8_string_size,
      |      ^~~~~~
/usr/include/libfsext.h:301:6: note: 'size_t' is defined in header '<cstddef>'; did you forget to '#include <cstddef>'?
/usr/include/libfsext.h:302:23: error: expected primary-expression before '*' token
  302 |      libfsext_error_t **error );
      |                       ^
/usr/include/libfsext.h:302:25: error: 'error' was not declared in this scope; did you mean 'perror'?
  302 |      libfsext_error_t **error );
      |                         ^~~~~
      |                         perror
/usr/include/libfsext.h:310:6: error: 'libfsext_volume_t' was not declared in this scope; did you mean 'libfsext_volume_open'?
  310 |      libfsext_volume_t *volume,
      |      ^~~~~~~~~~~~~~~~~
      |      libfsext_volume_open
/usr/include/libfsext.h:310:25: error: 'volume' was not declared in this scope
  310 |      libfsext_volume_t *volume,
      |                         ^~~~~~
/usr/include/libfsext.h:311:6: error: 'size_t' was not declared in this scope
  311 |      size_t *utf16_string_size,
      |      ^~~~~~
/usr/include/libfsext.h:311:6: note: 'size_t' is defined in header '<cstddef>'; did you forget to '#include <cstddef>'?
/usr/include/libfsext.h:311:14: error: 'utf16_string_size' was not declared in this scope
  311 |      size_t *utf16_string_size,
      |              ^~~~~~~~~~~~~~~~~
/usr/include/libfsext.h:312:23: error: expected primary-expression before '*' token
  312 |      libfsext_error_t **error );
      |                       ^
/usr/include/libfsext.h:312:25: error: 'error' was not declared in this scope; did you mean 'perror'?
  312 |      libfsext_error_t **error );
      |                         ^~~~~
      |                         perror
/usr/include/libfsext.h:320:6: error: 'libfsext_volume_t' was not declared in this scope; did you mean 'libfsext_volume_open'?
  320 |      libfsext_volume_t *volume,
      |      ^~~~~~~~~~~~~~~~~
      |      libfsext_volume_open
/usr/include/libfsext.h:320:25: error: 'volume' was not declared in this scope
  320 |      libfsext_volume_t *volume,
      |                         ^~~~~~
/usr/include/libfsext.h:321:15: error: expected primary-expression before '*' token
  321 |      uint16_t *utf16_string,
      |               ^
/usr/include/libfsext.h:321:16: error: 'utf16_string' was not declared in this scope
  321 |      uint16_t *utf16_string,
      |                ^~~~~~~~~~~~
/usr/include/libfsext.h:322:6: error: 'size_t' was not declared in this scope
  322 |      size_t utf16_string_size,
      |      ^~~~~~
/usr/include/libfsext.h:322:6: note: 'size_t' is defined in header '<cstddef>'; did you forget to '#include <cstddef>'?
/usr/include/libfsext.h:323:23: error: expected primary-expression before '*' token
  323 |      libfsext_error_t **error );
      |                       ^
/usr/include/libfsext.h:323:25: error: 'error' was not declared in this scope; did you mean 'perror'?
  323 |      libfsext_error_t **error );
      |                         ^~~~~
      |                         perror
/usr/include/libfsext.h:331:6: error: 'libfsext_volume_t' was not declared in this scope; did you mean 'libfsext_volume_open'?
  331 |      libfsext_volume_t *volume,
      |      ^~~~~~~~~~~~~~~~~
      |      libfsext_volume_open
/usr/include/libfsext.h:331:25: error: 'volume' was not declared in this scope
  331 |      libfsext_volume_t *volume,
      |                         ^~~~~~
/usr/include/libfsext.h:332:6: error: 'size_t' was not declared in this scope
  332 |      size_t *utf8_string_size,
      |      ^~~~~~
/usr/include/libfsext.h:332:6: note: 'size_t' is defined in header '<cstddef>'; did you forget to '#include <cstddef>'?
/usr/include/libfsext.h:332:14: error: 'utf8_string_size' was not declared in this scope
  332 |      size_t *utf8_string_size,
      |              ^~~~~~~~~~~~~~~~
/usr/include/libfsext.h:333:23: error: expected primary-expression before '*' token
  333 |      libfsext_error_t **error );
      |                       ^
/usr/include/libfsext.h:333:25: error: 'error' was not declared in this scope; did you mean 'perror'?
  333 |      libfsext_error_t **error );
      |                         ^~~~~
      |                         perror
/usr/include/libfsext.h:341:6: error: 'libfsext_volume_t' was not declared in this scope; did you mean 'libfsext_volume_open'?
  341 |      libfsext_volume_t *volume,
      |      ^~~~~~~~~~~~~~~~~
      |      libfsext_volume_open
/usr/include/libfsext.h:341:25: error: 'volume' was not declared in this scope
  341 |      libfsext_volume_t *volume,
      |                         ^~~~~~
/usr/include/libfsext.h:342:14: error: expected primary-expression before '*' token
  342 |      uint8_t *utf8_string,
      |              ^
/usr/include/libfsext.h:342:15: error: 'utf8_string' was not declared in this scope
  342 |      uint8_t *utf8_string,
      |               ^~~~~~~~~~~
/usr/include/libfsext.h:343:6: error: 'size_t' was not declared in this scope
  343 |      size_t utf8_string_size,
      |      ^~~~~~
/usr/include/libfsext.h:343:6: note: 'size_t' is defined in header '<cstddef>'; did you forget to '#include <cstddef>'?
/usr/include/libfsext.h:344:23: error: expected primary-expression before '*' token
  344 |      libfsext_error_t **error );
      |                       ^
/usr/include/libfsext.h:344:25: error: 'error' was not declared in this scope; did you mean 'perror'?
  344 |      libfsext_error_t **error );
      |                         ^~~~~
      |                         perror
/usr/include/libfsext.h:352:6: error: 'libfsext_volume_t' was not declared in this scope; did you mean 'libfsext_volume_open'?
  352 |      libfsext_volume_t *volume,
      |      ^~~~~~~~~~~~~~~~~
      |      libfsext_volume_open
/usr/include/libfsext.h:352:25: error: 'volume' was not declared in this scope
  352 |      libfsext_volume_t *volume,
      |                         ^~~~~~
/usr/include/libfsext.h:353:6: error: 'size_t' was not declared in this scope
  353 |      size_t *utf16_string_size,
      |      ^~~~~~
/usr/include/libfsext.h:353:6: note: 'size_t' is defined in header '<cstddef>'; did you forget to '#include <cstddef>'?
/usr/include/libfsext.h:353:14: error: 'utf16_string_size' was not declared in this scope
  353 |      size_t *utf16_string_size,
      |              ^~~~~~~~~~~~~~~~~
/usr/include/libfsext.h:354:23: error: expected primary-expression before '*' token
  354 |      libfsext_error_t **error );
      |                       ^
/usr/include/libfsext.h:354:25: error: 'error' was not declared in this scope; did you mean 'perror'?
  354 |      libfsext_error_t **error );
      |                         ^~~~~
      |                         perror
/usr/include/libfsext.h:362:6: error: 'libfsext_volume_t' was not declared in this scope; did you mean 'libfsext_volume_open'?
  362 |      libfsext_volume_t *volume,
      |      ^~~~~~~~~~~~~~~~~
      |      libfsext_volume_open
/usr/include/libfsext.h:362:25: error: 'volume' was not declared in this scope
  362 |      libfsext_volume_t *volume,
      |                         ^~~~~~
/usr/include/libfsext.h:363:15: error: expected primary-expression before '*' token
  363 |      uint16_t *utf16_string,
      |               ^
/usr/include/libfsext.h:363:16: error: 'utf16_string' was not declared in this scope
  363 |      uint16_t *utf16_string,
      |                ^~~~~~~~~~~~
/usr/include/libfsext.h:364:6: error: 'size_t' was not declared in this scope
  364 |      size_t utf16_string_size,
      |      ^~~~~~
/usr/include/libfsext.h:364:6: note: 'size_t' is defined in header '<cstddef>'; did you forget to '#include <cstddef>'?
/usr/include/libfsext.h:365:23: error: expected primary-expression before '*' token
  365 |      libfsext_error_t **error );
      |                       ^
/usr/include/libfsext.h:365:25: error: 'error' was not declared in this scope; did you mean 'perror'?
  365 |      libfsext_error_t **error );
      |                         ^~~~~
      |                         perror
/usr/include/libfsext.h:373:6: error: 'libfsext_volume_t' was not declared in this scope; did you mean 'libfsext_volume_open'?
  373 |      libfsext_volume_t *volume,
      |      ^~~~~~~~~~~~~~~~~
      |      libfsext_volume_open
/usr/include/libfsext.h:373:25: error: 'volume' was not declared in this scope
  373 |      libfsext_volume_t *volume,
      |                         ^~~~~~
/usr/include/libfsext.h:374:14: error: expected primary-expression before '*' token
  374 |      int32_t *posix_time,
      |              ^
/usr/include/libfsext.h:374:15: error: 'posix_time' was not declared in this scope
  374 |      int32_t *posix_time,
      |               ^~~~~~~~~~
/usr/include/libfsext.h:375:23: error: expected primary-expression before '*' token
  375 |      libfsext_error_t **error );
      |                       ^
/usr/include/libfsext.h:375:25: error: 'error' was not declared in this scope; did you mean 'perror'?
  375 |      libfsext_error_t **error );
      |                         ^~~~~
      |                         perror
/usr/include/libfsext.h:383:6: error: 'libfsext_volume_t' was not declared in this scope; did you mean 'libfsext_volume_open'?
  383 |      libfsext_volume_t *volume,
      |      ^~~~~~~~~~~~~~~~~
      |      libfsext_volume_open
/usr/include/libfsext.h:383:25: error: 'volume' was not declared in this scope
  383 |      libfsext_volume_t *volume,
      |                         ^~~~~~
/usr/include/libfsext.h:384:14: error: expected primary-expression before '*' token
  384 |      int32_t *posix_time,
      |              ^
/usr/include/libfsext.h:384:15: error: 'posix_time' was not declared in this scope
  384 |      int32_t *posix_time,
      |               ^~~~~~~~~~
/usr/include/libfsext.h:385:23: error: expected primary-expression before '*' token
  385 |      libfsext_error_t **error );
      |                       ^
/usr/include/libfsext.h:385:25: error: 'error' was not declared in this scope; did you mean 'perror'?
  385 |      libfsext_error_t **error );
      |                         ^~~~~
      |                         perror
/usr/include/libfsext.h:392:6: error: 'libfsext_volume_t' was not declared in this scope; did you mean 'libfsext_volume_open'?
  392 |      libfsext_volume_t *volume,
      |      ^~~~~~~~~~~~~~~~~
      |      libfsext_volume_open
/usr/include/libfsext.h:392:25: error: 'volume' was not declared in this scope
  392 |      libfsext_volume_t *volume,
      |                         ^~~~~~
/usr/include/libfsext.h:393:15: error: expected primary-expression before '*' token
  393 |      uint32_t *number_of_file_entries,
      |               ^
/usr/include/libfsext.h:393:16: error: 'number_of_file_entries' was not declared in this scope
  393 |      uint32_t *number_of_file_entries,
      |                ^~~~~~~~~~~~~~~~~~~~~~
/usr/include/libfsext.h:394:23: error: expected primary-expression before '*' token
  394 |      libfsext_error_t **error );
      |                       ^
/usr/include/libfsext.h:394:25: error: 'error' was not declared in this scope; did you mean 'perror'?
  394 |      libfsext_error_t **error );
      |                         ^~~~~
      |                         perror
/usr/include/libfsext.h:401:6: error: 'libfsext_volume_t' was not declared in this scope; did you mean 'libfsext_volume_open'?
  401 |      libfsext_volume_t *volume,
      |      ^~~~~~~~~~~~~~~~~
      |      libfsext_volume_open
/usr/include/libfsext.h:401:25: error: 'volume' was not declared in this scope
  401 |      libfsext_volume_t *volume,
      |                         ^~~~~~
/usr/include/libfsext.h:402:15: error: expected primary-expression before 'inode_number'
  402 |      uint32_t inode_number,
      |               ^~~~~~~~~~~~
/usr/include/libfsext.h:403:6: error: 'libfsext_file_entry_t' was not declared in this scope
  403 |      libfsext_file_entry_t **file_entry,
      |      ^~~~~~~~~~~~~~~~~~~~~
/usr/include/libfsext.h:403:30: error: 'file_entry' was not declared in this scope
  403 |      libfsext_file_entry_t **file_entry,
      |                              ^~~~~~~~~~
/usr/include/libfsext.h:404:23: error: expected primary-expression before '*' token
  404 |      libfsext_error_t **error );
      |                       ^
/usr/include/libfsext.h:404:25: error: 'error' was not declared in this scope; did you mean 'perror'?
  404 |      libfsext_error_t **error );
      |                         ^~~~~
      |                         perror
/usr/include/libfsext.h:411:6: error: 'libfsext_volume_t' was not declared in this scope; did you mean 'libfsext_volume_open'?
  411 |      libfsext_volume_t *volume,
      |      ^~~~~~~~~~~~~~~~~
      |      libfsext_volume_open
/usr/include/libfsext.h:411:25: error: 'volume' was not declared in this scope
  411 |      libfsext_volume_t *volume,
      |                         ^~~~~~
/usr/include/libfsext.h:412:6: error: 'libfsext_file_entry_t' was not declared in this scope
  412 |      libfsext_file_entry_t **file_entry,
      |      ^~~~~~~~~~~~~~~~~~~~~
/usr/include/libfsext.h:412:30: error: 'file_entry' was not declared in this scope
  412 |      libfsext_file_entry_t **file_entry,
      |                              ^~~~~~~~~~
/usr/include/libfsext.h:413:23: error: expected primary-expression before '*' token
  413 |      libfsext_error_t **error );
      |                       ^
/usr/include/libfsext.h:413:25: error: 'error' was not declared in this scope; did you mean 'perror'?
  413 |      libfsext_error_t **error );
      |                         ^~~~~
      |                         perror
/usr/include/libfsext.h:420:6: error: 'libfsext_volume_t' was not declared in this scope; did you mean 'libfsext_volume_open'?
  420 |      libfsext_volume_t *volume,
      |      ^~~~~~~~~~~~~~~~~
      |      libfsext_volume_open
/usr/include/libfsext.h:420:25: error: 'volume' was not declared in this scope
  420 |      libfsext_volume_t *volume,
      |                         ^~~~~~
/usr/include/libfsext.h:421:6: error: expected primary-expression before 'const'
  421 |      const uint8_t *utf8_string,
      |      ^~~~~
/usr/include/libfsext.h:422:6: error: 'size_t' was not declared in this scope
  422 |      size_t utf8_string_length,
      |      ^~~~~~
/usr/include/libfsext.h:422:6: note: 'size_t' is defined in header '<cstddef>'; did you forget to '#include <cstddef>'?
/usr/include/libfsext.h:423:6: error: 'libfsext_file_entry_t' was not declared in this scope
  423 |      libfsext_file_entry_t **file_entry,
      |      ^~~~~~~~~~~~~~~~~~~~~
/usr/include/libfsext.h:423:30: error: 'file_entry' was not declared in this scope
  423 |      libfsext_file_entry_t **file_entry,
      |                              ^~~~~~~~~~
/usr/include/libfsext.h:424:23: error: expected primary-expression before '*' token
  424 |      libfsext_error_t **error );
      |                       ^
/usr/include/libfsext.h:424:25: error: 'error' was not declared in this scope; did you mean 'perror'?
  424 |      libfsext_error_t **error );
      |                         ^~~~~
      |                         perror
/usr/include/libfsext.h:431:6: error: 'libfsext_volume_t' was not declared in this scope; did you mean 'libfsext_volume_open'?
  431 |      libfsext_volume_t *volume,
      |      ^~~~~~~~~~~~~~~~~
      |      libfsext_volume_open
/usr/include/libfsext.h:431:25: error: 'volume' was not declared in this scope
  431 |      libfsext_volume_t *volume,
      |                         ^~~~~~
/usr/include/libfsext.h:432:6: error: expected primary-expression before 'const'
  432 |      const uint16_t *utf16_string,
      |      ^~~~~
/usr/include/libfsext.h:433:6: error: 'size_t' was not declared in this scope
  433 |      size_t utf16_string_length,
      |      ^~~~~~
/usr/include/libfsext.h:433:6: note: 'size_t' is defined in header '<cstddef>'; did you forget to '#include <cstddef>'?
/usr/include/libfsext.h:434:6: error: 'libfsext_file_entry_t' was not declared in this scope
  434 |      libfsext_file_entry_t **file_entry,
      |      ^~~~~~~~~~~~~~~~~~~~~
/usr/include/libfsext.h:434:30: error: 'file_entry' was not declared in this scope
  434 |      libfsext_file_entry_t **file_entry,
      |                              ^~~~~~~~~~
/usr/include/libfsext.h:435:23: error: expected primary-expression before '*' token
  435 |      libfsext_error_t **error );
      |                       ^
/usr/include/libfsext.h:435:25: error: 'error' was not declared in this scope; did you mean 'perror'?
  435 |      libfsext_error_t **error );
      |                         ^~~~~
      |                         perror
/usr/include/libfsext.h:446:6: error: 'libfsext_file_entry_t' was not declared in this scope; did you mean 'libfsext_file_entry_free'?
  446 |      libfsext_file_entry_t **file_entry,
      |      ^~~~~~~~~~~~~~~~~~~~~
      |      libfsext_file_entry_free
/usr/include/libfsext.h:446:30: error: 'file_entry' was not declared in this scope
  446 |      libfsext_file_entry_t **file_entry,
      |                              ^~~~~~~~~~
/usr/include/libfsext.h:447:23: error: expected primary-expression before '*' token
  447 |      libfsext_error_t **error );
      |                       ^
/usr/include/libfsext.h:447:25: error: 'error' was not declared in this scope; did you mean 'perror'?
  447 |      libfsext_error_t **error );
      |                         ^~~~~
      |                         perror
/usr/include/libfsext.h:454:6: error: 'libfsext_file_entry_t' was not declared in this scope; did you mean 'libfsext_file_entry_free'?
  454 |      libfsext_file_entry_t *file_entry,
      |      ^~~~~~~~~~~~~~~~~~~~~
      |      libfsext_file_entry_free
/usr/include/libfsext.h:454:29: error: 'file_entry' was not declared in this scope
  454 |      libfsext_file_entry_t *file_entry,
      |                             ^~~~~~~~~~
/usr/include/libfsext.h:455:23: error: expected primary-expression before '*' token
  455 |      libfsext_error_t **error );
      |                       ^
/usr/include/libfsext.h:455:25: error: 'error' was not declared in this scope; did you mean 'perror'?
  455 |      libfsext_error_t **error );
      |                         ^~~~~
      |                         perror
/usr/include/libfsext.h:462:6: error: 'libfsext_file_entry_t' was not declared in this scope; did you mean 'libfsext_file_entry_free'?
  462 |      libfsext_file_entry_t *file_entry,
      |      ^~~~~~~~~~~~~~~~~~~~~
      |      libfsext_file_entry_free
/usr/include/libfsext.h:462:29: error: 'file_entry' was not declared in this scope
  462 |      libfsext_file_entry_t *file_entry,
      |                             ^~~~~~~~~~
/usr/include/libfsext.h:463:15: error: expected primary-expression before '*' token
  463 |      uint32_t *inode_number,
      |               ^
/usr/include/libfsext.h:463:16: error: 'inode_number' was not declared in this scope
  463 |      uint32_t *inode_number,
      |                ^~~~~~~~~~~~
/usr/include/libfsext.h:464:23: error: expected primary-expression before '*' token
  464 |      libfsext_error_t **error );
      |                       ^
/usr/include/libfsext.h:464:25: error: 'error' was not declared in this scope; did you mean 'perror'?
  464 |      libfsext_error_t **error );
      |                         ^~~~~
      |                         perror
/usr/include/libfsext.h:473:6: error: 'libfsext_file_entry_t' was not declared in this scope; did you mean 'libfsext_file_entry_free'?
  473 |      libfsext_file_entry_t *file_entry,
      |      ^~~~~~~~~~~~~~~~~~~~~
      |      libfsext_file_entry_free
/usr/include/libfsext.h:473:29: error: 'file_entry' was not declared in this scope
  473 |      libfsext_file_entry_t *file_entry,
      |                             ^~~~~~~~~~
/usr/include/libfsext.h:474:14: error: expected primary-expression before '*' token
  474 |      int64_t *posix_time,
      |              ^
/usr/include/libfsext.h:474:15: error: 'posix_time' was not declared in this scope
  474 |      int64_t *posix_time,
      |               ^~~~~~~~~~
/usr/include/libfsext.h:475:23: error: expected primary-expression before '*' token
  475 |      libfsext_error_t **error );
      |                       ^
/usr/include/libfsext.h:475:25: error: 'error' was not declared in this scope; did you mean 'perror'?
  475 |      libfsext_error_t **error );
      |                         ^~~~~
      |                         perror
/usr/include/libfsext.h:484:6: error: 'libfsext_file_entry_t' was not declared in this scope; did you mean 'libfsext_file_entry_free'?
  484 |      libfsext_file_entry_t *file_entry,
      |      ^~~~~~~~~~~~~~~~~~~~~
      |      libfsext_file_entry_free
/usr/include/libfsext.h:484:29: error: 'file_entry' was not declared in this scope
  484 |      libfsext_file_entry_t *file_entry,
      |                             ^~~~~~~~~~
/usr/include/libfsext.h:485:14: error: expected primary-expression before '*' token
  485 |      int64_t *posix_time,
      |              ^
/usr/include/libfsext.h:485:15: error: 'posix_time' was not declared in this scope
  485 |      int64_t *posix_time,
      |               ^~~~~~~~~~
/usr/include/libfsext.h:486:23: error: expected primary-expression before '*' token
  486 |      libfsext_error_t **error );
      |                       ^
/usr/include/libfsext.h:486:25: error: 'error' was not declared in this scope; did you mean 'perror'?
  486 |      libfsext_error_t **error );
      |                         ^~~~~
      |                         perror
/usr/include/libfsext.h:495:6: error: 'libfsext_file_entry_t' was not declared in this scope; did you mean 'libfsext_file_entry_free'?
  495 |      libfsext_file_entry_t *file_entry,
      |      ^~~~~~~~~~~~~~~~~~~~~
      |      libfsext_file_entry_free
/usr/include/libfsext.h:495:29: error: 'file_entry' was not declared in this scope
  495 |      libfsext_file_entry_t *file_entry,
      |                             ^~~~~~~~~~
/usr/include/libfsext.h:496:14: error: expected primary-expression before '*' token
  496 |      int64_t *posix_time,
      |              ^
/usr/include/libfsext.h:496:15: error: 'posix_time' was not declared in this scope
  496 |      int64_t *posix_time,
      |               ^~~~~~~~~~
/usr/include/libfsext.h:497:23: error: expected primary-expression before '*' token
  497 |      libfsext_error_t **error );
      |                       ^
/usr/include/libfsext.h:497:25: error: 'error' was not declared in this scope; did you mean 'perror'?
  497 |      libfsext_error_t **error );
      |                         ^~~~~
      |                         perror
/usr/include/libfsext.h:506:6: error: 'libfsext_file_entry_t' was not declared in this scope; did you mean 'libfsext_file_entry_free'?
  506 |      libfsext_file_entry_t *file_entry,
      |      ^~~~~~~~~~~~~~~~~~~~~
      |      libfsext_file_entry_free
/usr/include/libfsext.h:506:29: error: 'file_entry' was not declared in this scope
  506 |      libfsext_file_entry_t *file_entry,
      |                             ^~~~~~~~~~
/usr/include/libfsext.h:507:14: error: expected primary-expression before '*' token
  507 |      int64_t *posix_time,
      |              ^
/usr/include/libfsext.h:507:15: error: 'posix_time' was not declared in this scope
  507 |      int64_t *posix_time,
      |               ^~~~~~~~~~
/usr/include/libfsext.h:508:23: error: expected primary-expression before '*' token
  508 |      libfsext_error_t **error );
      |                       ^
/usr/include/libfsext.h:508:25: error: 'error' was not declared in this scope; did you mean 'perror'?
  508 |      libfsext_error_t **error );
      |                         ^~~~~
      |                         perror
/usr/include/libfsext.h:517:6: error: 'libfsext_file_entry_t' was not declared in this scope; did you mean 'libfsext_file_entry_free'?
  517 |      libfsext_file_entry_t *file_entry,
      |      ^~~~~~~~~~~~~~~~~~~~~
      |      libfsext_file_entry_free
/usr/include/libfsext.h:517:29: error: 'file_entry' was not declared in this scope
  517 |      libfsext_file_entry_t *file_entry,
      |                             ^~~~~~~~~~
/usr/include/libfsext.h:518:14: error: expected primary-expression before '*' token
  518 |      int32_t *posix_time,
      |              ^
/usr/include/libfsext.h:518:15: error: 'posix_time' was not declared in this scope
  518 |      int32_t *posix_time,
      |               ^~~~~~~~~~
/usr/include/libfsext.h:519:23: error: expected primary-expression before '*' token
  519 |      libfsext_error_t **error );
      |                       ^
/usr/include/libfsext.h:519:25: error: 'error' was not declared in this scope; did you mean 'perror'?
  519 |      libfsext_error_t **error );
      |                         ^~~~~
      |                         perror
/usr/include/libfsext.h:527:6: error: 'libfsext_file_entry_t' was not declared in this scope; did you mean 'libfsext_file_entry_free'?
  527 |      libfsext_file_entry_t *file_entry,
      |      ^~~~~~~~~~~~~~~~~~~~~
      |      libfsext_file_entry_free
/usr/include/libfsext.h:527:29: error: 'file_entry' was not declared in this scope
  527 |      libfsext_file_entry_t *file_entry,
      |                             ^~~~~~~~~~
/usr/include/libfsext.h:528:15: error: expected primary-expression before '*' token
  528 |      uint16_t *file_mode,
      |               ^
/usr/include/libfsext.h:528:16: error: 'file_mode' was not declared in this scope
  528 |      uint16_t *file_mode,
      |                ^~~~~~~~~
/usr/include/libfsext.h:529:23: error: expected primary-expression before '*' token
  529 |      libfsext_error_t **error );
      |                       ^
/usr/include/libfsext.h:529:25: error: 'error' was not declared in this scope; did you mean 'perror'?
  529 |      libfsext_error_t **error );
      |                         ^~~~~
      |                         perror
/usr/include/libfsext.h:537:6: error: 'libfsext_file_entry_t' was not declared in this scope; did you mean 'libfsext_file_entry_free'?
  537 |      libfsext_file_entry_t *file_entry,
      |      ^~~~~~~~~~~~~~~~~~~~~
      |      libfsext_file_entry_free
/usr/include/libfsext.h:537:29: error: 'file_entry' was not declared in this scope
  537 |      libfsext_file_entry_t *file_entry,
      |                             ^~~~~~~~~~
/usr/include/libfsext.h:538:15: error: expected primary-expression before '*' token
  538 |      uint32_t *owner_identifier,
      |               ^
/usr/include/libfsext.h:538:16: error: 'owner_identifier' was not declared in this scope
  538 |      uint32_t *owner_identifier,
      |                ^~~~~~~~~~~~~~~~
/usr/include/libfsext.h:539:23: error: expected primary-expression before '*' token
  539 |      libfsext_error_t **error );
      |                       ^
/usr/include/libfsext.h:539:25: error: 'error' was not declared in this scope; did you mean 'perror'?
  539 |      libfsext_error_t **error );
      |                         ^~~~~
      |                         perror
/usr/include/libfsext.h:547:6: error: 'libfsext_file_entry_t' was not declared in this scope; did you mean 'libfsext_file_entry_free'?
  547 |      libfsext_file_entry_t *file_entry,
      |      ^~~~~~~~~~~~~~~~~~~~~
      |      libfsext_file_entry_free
/usr/include/libfsext.h:547:29: error: 'file_entry' was not declared in this scope
  547 |      libfsext_file_entry_t *file_entry,
      |                             ^~~~~~~~~~
/usr/include/libfsext.h:548:15: error: expected primary-expression before '*' token
  548 |      uint32_t *group_identifier,
      |               ^
/usr/include/libfsext.h:548:16: error: 'group_identifier' was not declared in this scope
  548 |      uint32_t *group_identifier,
      |                ^~~~~~~~~~~~~~~~
/usr/include/libfsext.h:549:23: error: expected primary-expression before '*' token
  549 |      libfsext_error_t **error );
      |                       ^
/usr/include/libfsext.h:549:25: error: 'error' was not declared in this scope; did you mean 'perror'?
  549 |      libfsext_error_t **error );
      |                         ^~~~~
      |                         perror
/usr/include/libfsext.h:558:6: error: 'libfsext_file_entry_t' was not declared in this scope; did you mean 'libfsext_file_entry_free'?
  558 |      libfsext_file_entry_t *file_entry,
      |      ^~~~~~~~~~~~~~~~~~~~~
      |      libfsext_file_entry_free
/usr/include/libfsext.h:558:29: error: 'file_entry' was not declared in this scope
  558 |      libfsext_file_entry_t *file_entry,
      |                             ^~~~~~~~~~
/usr/include/libfsext.h:559:6: error: 'size_t' was not declared in this scope
  559 |      size_t *utf8_string_size,
      |      ^~~~~~
/usr/include/libfsext.h:559:6: note: 'size_t' is defined in header '<cstddef>'; did you forget to '#include <cstddef>'?
/usr/include/libfsext.h:559:14: error: 'utf8_string_size' was not declared in this scope
  559 |      size_t *utf8_string_size,
      |              ^~~~~~~~~~~~~~~~
/usr/include/libfsext.h:560:23: error: expected primary-expression before '*' token
  560 |      libfsext_error_t **error );
      |                       ^
/usr/include/libfsext.h:560:25: error: 'error' was not declared in this scope; did you mean 'perror'?
  560 |      libfsext_error_t **error );
      |                         ^~~~~
      |                         perror
/usr/include/libfsext.h:569:6: error: 'libfsext_file_entry_t' was not declared in this scope; did you mean 'libfsext_file_entry_free'?
  569 |      libfsext_file_entry_t *file_entry,
      |      ^~~~~~~~~~~~~~~~~~~~~
      |      libfsext_file_entry_free
/usr/include/libfsext.h:569:29: error: 'file_entry' was not declared in this scope
  569 |      libfsext_file_entry_t *file_entry,
      |                             ^~~~~~~~~~
/usr/include/libfsext.h:570:14: error: expected primary-expression before '*' token
  570 |      uint8_t *utf8_string,
      |              ^
/usr/include/libfsext.h:570:15: error: 'utf8_string' was not declared in this scope
  570 |      uint8_t *utf8_string,
      |               ^~~~~~~~~~~
/usr/include/libfsext.h:571:6: error: 'size_t' was not declared in this scope
  571 |      size_t utf8_string_size,
      |      ^~~~~~
/usr/include/libfsext.h:571:6: note: 'size_t' is defined in header '<cstddef>'; did you forget to '#include <cstddef>'?
/usr/include/libfsext.h:572:23: error: expected primary-expression before '*' token
  572 |      libfsext_error_t **error );
      |                       ^
/usr/include/libfsext.h:572:25: error: 'error' was not declared in this scope; did you mean 'perror'?
  572 |      libfsext_error_t **error );
      |                         ^~~~~
      |                         perror
/usr/include/libfsext.h:581:6: error: 'libfsext_file_entry_t' was not declared in this scope; did you mean 'libfsext_file_entry_free'?
  581 |      libfsext_file_entry_t *file_entry,
      |      ^~~~~~~~~~~~~~~~~~~~~
      |      libfsext_file_entry_free
/usr/include/libfsext.h:581:29: error: 'file_entry' was not declared in this scope
  581 |      libfsext_file_entry_t *file_entry,
      |                             ^~~~~~~~~~
/usr/include/libfsext.h:582:6: error: 'size_t' was not declared in this scope
  582 |      size_t *utf16_string_size,
      |      ^~~~~~
/usr/include/libfsext.h:582:6: note: 'size_t' is defined in header '<cstddef>'; did you forget to '#include <cstddef>'?
/usr/include/libfsext.h:582:14: error: 'utf16_string_size' was not declared in this scope
  582 |      size_t *utf16_string_size,
      |              ^~~~~~~~~~~~~~~~~
/usr/include/libfsext.h:583:23: error: expected primary-expression before '*' token
  583 |      libfsext_error_t **error );
      |                       ^
/usr/include/libfsext.h:583:25: error: 'error' was not declared in this scope; did you mean 'perror'?
  583 |      libfsext_error_t **error );
      |                         ^~~~~
      |                         perror
/usr/include/libfsext.h:592:6: error: 'libfsext_file_entry_t' was not declared in this scope; did you mean 'libfsext_file_entry_free'?
  592 |      libfsext_file_entry_t *file_entry,
      |      ^~~~~~~~~~~~~~~~~~~~~
      |      libfsext_file_entry_free
/usr/include/libfsext.h:592:29: error: 'file_entry' was not declared in this scope
  592 |      libfsext_file_entry_t *file_entry,
      |                             ^~~~~~~~~~
/usr/include/libfsext.h:593:15: error: expected primary-expression before '*' token
  593 |      uint16_t *utf16_string,
      |               ^
/usr/include/libfsext.h:593:16: error: 'utf16_string' was not declared in this scope
  593 |      uint16_t *utf16_string,
      |                ^~~~~~~~~~~~
/usr/include/libfsext.h:594:6: error: 'size_t' was not declared in this scope
  594 |      size_t utf16_string_size,
      |      ^~~~~~
/usr/include/libfsext.h:594:6: note: 'size_t' is defined in header '<cstddef>'; did you forget to '#include <cstddef>'?
/usr/include/libfsext.h:595:23: error: expected primary-expression before '*' token
  595 |      libfsext_error_t **error );
      |                       ^
/usr/include/libfsext.h:595:25: error: 'error' was not declared in this scope; did you mean 'perror'?
  595 |      libfsext_error_t **error );
      |                         ^~~~~
      |                         perror
/usr/include/libfsext.h:603:6: error: 'libfsext_file_entry_t' was not declared in this scope; did you mean 'libfsext_file_entry_free'?
  603 |      libfsext_file_entry_t *file_entry,
      |      ^~~~~~~~~~~~~~~~~~~~~
      |      libfsext_file_entry_free
/usr/include/libfsext.h:603:29: error: 'file_entry' was not declared in this scope
  603 |      libfsext_file_entry_t *file_entry,
      |                             ^~~~~~~~~~
/usr/include/libfsext.h:604:6: error: 'size_t' was not declared in this scope
  604 |      size_t *utf8_string_size,
      |      ^~~~~~
/usr/include/libfsext.h:604:6: note: 'size_t' is defined in header '<cstddef>'; did you forget to '#include <cstddef>'?
/usr/include/libfsext.h:604:14: error: 'utf8_string_size' was not declared in this scope
  604 |      size_t *utf8_string_size,
      |              ^~~~~~~~~~~~~~~~
/usr/include/libfsext.h:605:23: error: expected primary-expression before '*' token
  605 |      libfsext_error_t **error );
      |                       ^
/usr/include/libfsext.h:605:25: error: 'error' was not declared in this scope; did you mean 'perror'?
  605 |      libfsext_error_t **error );
      |                         ^~~~~
      |                         perror
/usr/include/libfsext.h:613:6: error: 'libfsext_file_entry_t' was not declared in this scope; did you mean 'libfsext_file_entry_free'?
  613 |      libfsext_file_entry_t *file_entry,
      |      ^~~~~~~~~~~~~~~~~~~~~
      |      libfsext_file_entry_free
/usr/include/libfsext.h:613:29: error: 'file_entry' was not declared in this scope
  613 |      libfsext_file_entry_t *file_entry,
      |                             ^~~~~~~~~~
/usr/include/libfsext.h:614:14: error: expected primary-expression before '*' token
  614 |      uint8_t *utf8_string,
      |              ^
/usr/include/libfsext.h:614:15: error: 'utf8_string' was not declared in this scope
  614 |      uint8_t *utf8_string,
      |               ^~~~~~~~~~~
/usr/include/libfsext.h:615:6: error: 'size_t' was not declared in this scope
  615 |      size_t utf8_string_size,
      |      ^~~~~~
/usr/include/libfsext.h:615:6: note: 'size_t' is defined in header '<cstddef>'; did you forget to '#include <cstddef>'?
/usr/include/libfsext.h:616:23: error: expected primary-expression before '*' token
  616 |      libfsext_error_t **error );
      |                       ^
/usr/include/libfsext.h:616:25: error: 'error' was not declared in this scope; did you mean 'perror'?
  616 |      libfsext_error_t **error );
      |                         ^~~~~
      |                         perror
/usr/include/libfsext.h:624:6: error: 'libfsext_file_entry_t' was not declared in this scope; did you mean 'libfsext_file_entry_free'?
  624 |      libfsext_file_entry_t *file_entry,
      |      ^~~~~~~~~~~~~~~~~~~~~
      |      libfsext_file_entry_free
/usr/include/libfsext.h:624:29: error: 'file_entry' was not declared in this scope
  624 |      libfsext_file_entry_t *file_entry,
      |                             ^~~~~~~~~~
/usr/include/libfsext.h:625:6: error: 'size_t' was not declared in this scope
  625 |      size_t *utf16_string_size,
      |      ^~~~~~
/usr/include/libfsext.h:625:6: note: 'size_t' is defined in header '<cstddef>'; did you forget to '#include <cstddef>'?
/usr/include/libfsext.h:625:14: error: 'utf16_string_size' was not declared in this scope
  625 |      size_t *utf16_string_size,
      |              ^~~~~~~~~~~~~~~~~
/usr/include/libfsext.h:626:23: error: expected primary-expression before '*' token
  626 |      libfsext_error_t **error );
      |                       ^
/usr/include/libfsext.h:626:25: error: 'error' was not declared in this scope; did you mean 'perror'?
  626 |      libfsext_error_t **error );
      |                         ^~~~~
      |                         perror
/usr/include/libfsext.h:634:6: error: 'libfsext_file_entry_t' was not declared in this scope; did you mean 'libfsext_file_entry_free'?
  634 |      libfsext_file_entry_t *file_entry,
      |      ^~~~~~~~~~~~~~~~~~~~~
      |      libfsext_file_entry_free
/usr/include/libfsext.h:634:29: error: 'file_entry' was not declared in this scope
  634 |      libfsext_file_entry_t *file_entry,
      |                             ^~~~~~~~~~
/usr/include/libfsext.h:635:15: error: expected primary-expression before '*' token
  635 |      uint16_t *utf16_string,
      |               ^
/usr/include/libfsext.h:635:16: error: 'utf16_string' was not declared in this scope
  635 |      uint16_t *utf16_string,
      |                ^~~~~~~~~~~~
/usr/include/libfsext.h:636:6: error: 'size_t' was not declared in this scope
  636 |      size_t utf16_string_size,
      |      ^~~~~~
/usr/include/libfsext.h:636:6: note: 'size_t' is defined in header '<cstddef>'; did you forget to '#include <cstddef>'?
/usr/include/libfsext.h:637:23: error: expected primary-expression before '*' token
  637 |      libfsext_error_t **error );
      |                       ^
/usr/include/libfsext.h:637:25: error: 'error' was not declared in this scope; did you mean 'perror'?
  637 |      libfsext_error_t **error );
      |                         ^~~~~
      |                         perror
/usr/include/libfsext.h:644:6: error: 'libfsext_file_entry_t' was not declared in this scope; did you mean 'libfsext_file_entry_free'?
  644 |      libfsext_file_entry_t *file_entry,
      |      ^~~~~~~~~~~~~~~~~~~~~
      |      libfsext_file_entry_free
/usr/include/libfsext.h:644:29: error: 'file_entry' was not declared in this scope
  644 |      libfsext_file_entry_t *file_entry,
      |                             ^~~~~~~~~~
/usr/include/libfsext.h:645:6: error: expected primary-expression before 'int'
  645 |      int *number_of_sub_entries,
      |      ^~~
/usr/include/libfsext.h:646:23: error: expected primary-expression before '*' token
  646 |      libfsext_error_t **error );
      |                       ^
/usr/include/libfsext.h:646:25: error: 'error' was not declared in this scope; did you mean 'perror'?
  646 |      libfsext_error_t **error );
      |                         ^~~~~
      |                         perror
/usr/include/libfsext.h:653:6: error: 'libfsext_file_entry_t' was not declared in this scope; did you mean 'libfsext_file_entry_free'?
  653 |      libfsext_file_entry_t *file_entry,
      |      ^~~~~~~~~~~~~~~~~~~~~
      |      libfsext_file_entry_free
/usr/include/libfsext.h:653:29: error: 'file_entry' was not declared in this scope
  653 |      libfsext_file_entry_t *file_entry,
      |                             ^~~~~~~~~~
/usr/include/libfsext.h:654:6: error: expected primary-expression before 'int'
  654 |      int sub_file_entry_index,
      |      ^~~
/usr/include/libfsext.h:655:6: error: 'libfsext_file_entry_t' was not declared in this scope; did you mean 'libfsext_file_entry_free'?
  655 |      libfsext_file_entry_t **sub_file_entry,
      |      ^~~~~~~~~~~~~~~~~~~~~
      |      libfsext_file_entry_free
/usr/include/libfsext.h:655:30: error: 'sub_file_entry' was not declared in this scope
  655 |      libfsext_file_entry_t **sub_file_entry,
      |                              ^~~~~~~~~~~~~~
/usr/include/libfsext.h:656:23: error: expected primary-expression before '*' token
  656 |      libfsext_error_t **error );
      |                       ^
/usr/include/libfsext.h:656:25: error: 'error' was not declared in this scope; did you mean 'perror'?
  656 |      libfsext_error_t **error );
      |                         ^~~~~
      |                         perror
/usr/include/libfsext.h:663:6: error: 'libfsext_file_entry_t' was not declared in this scope; did you mean 'libfsext_file_entry_free'?
  663 |      libfsext_file_entry_t *file_entry,
      |      ^~~~~~~~~~~~~~~~~~~~~
      |      libfsext_file_entry_free
/usr/include/libfsext.h:663:29: error: 'file_entry' was not declared in this scope
  663 |      libfsext_file_entry_t *file_entry,
      |                             ^~~~~~~~~~
/usr/include/libfsext.h:664:6: error: expected primary-expression before 'const'
  664 |      const uint8_t *utf8_string,
      |      ^~~~~
/usr/include/libfsext.h:665:6: error: 'size_t' was not declared in this scope
  665 |      size_t utf8_string_length,
      |      ^~~~~~
/usr/include/libfsext.h:665:6: note: 'size_t' is defined in header '<cstddef>'; did you forget to '#include <cstddef>'?
/usr/include/libfsext.h:666:6: error: 'libfsext_file_entry_t' was not declared in this scope; did you mean 'libfsext_file_entry_free'?
  666 |      libfsext_file_entry_t **sub_file_entry,
      |      ^~~~~~~~~~~~~~~~~~~~~
      |      libfsext_file_entry_free
/usr/include/libfsext.h:666:30: error: 'sub_file_entry' was not declared in this scope
  666 |      libfsext_file_entry_t **sub_file_entry,
      |                              ^~~~~~~~~~~~~~
/usr/include/libfsext.h:667:23: error: expected primary-expression before '*' token
  667 |      libfsext_error_t **error );
      |                       ^
/usr/include/libfsext.h:667:25: error: 'error' was not declared in this scope; did you mean 'perror'?
  667 |      libfsext_error_t **error );
      |                         ^~~~~
      |                         perror
/usr/include/libfsext.h:674:6: error: 'libfsext_file_entry_t' was not declared in this scope; did you mean 'libfsext_file_entry_free'?
  674 |      libfsext_file_entry_t *file_entry,
      |      ^~~~~~~~~~~~~~~~~~~~~
      |      libfsext_file_entry_free
/usr/include/libfsext.h:674:29: error: 'file_entry' was not declared in this scope
  674 |      libfsext_file_entry_t *file_entry,
      |                             ^~~~~~~~~~
/usr/include/libfsext.h:675:6: error: expected primary-expression before 'const'
  675 |      const uint16_t *utf16_string,
      |      ^~~~~
/usr/include/libfsext.h:676:6: error: 'size_t' was not declared in this scope
  676 |      size_t utf16_string_length,
      |      ^~~~~~
/usr/include/libfsext.h:676:6: note: 'size_t' is defined in header '<cstddef>'; did you forget to '#include <cstddef>'?
/usr/include/libfsext.h:677:6: error: 'libfsext_file_entry_t' was not declared in this scope; did you mean 'libfsext_file_entry_free'?
  677 |      libfsext_file_entry_t **sub_file_entry,
      |      ^~~~~~~~~~~~~~~~~~~~~
      |      libfsext_file_entry_free
/usr/include/libfsext.h:677:30: error: 'sub_file_entry' was not declared in this scope
  677 |      libfsext_file_entry_t **sub_file_entry,
      |                              ^~~~~~~~~~~~~~
/usr/include/libfsext.h:678:23: error: expected primary-expression before '*' token
  678 |      libfsext_error_t **error );
      |                       ^
/usr/include/libfsext.h:678:25: error: 'error' was not declared in this scope; did you mean 'perror'?
  678 |      libfsext_error_t **error );
      |                         ^~~~~
      |                         perror
/usr/include/libfsext.h:685:10: error: 'libfsext_file_entry_t' was not declared in this scope; did you mean 'libfsext_file_entry_free'?
  685 |          libfsext_file_entry_t *file_entry,
      |          ^~~~~~~~~~~~~~~~~~~~~
      |          libfsext_file_entry_free
/usr/include/libfsext.h:685:33: error: 'file_entry' was not declared in this scope
  685 |          libfsext_file_entry_t *file_entry,
      |                                 ^~~~~~~~~~
/usr/include/libfsext.h:686:10: error: expected primary-expression before 'void'
  686 |          void *buffer,
      |          ^~~~
/usr/include/libfsext.h:687:10: error: 'size_t' was not declared in this scope
  687 |          size_t buffer_size,
      |          ^~~~~~
/usr/include/libfsext.h:687:10: note: 'size_t' is defined in header '<cstddef>'; did you forget to '#include <cstddef>'?
/usr/include/libfsext.h:688:27: error: expected primary-expression before '*' token
  688 |          libfsext_error_t **error );
      |                           ^
/usr/include/libfsext.h:688:29: error: 'error' was not declared in this scope; did you mean 'perror'?
  688 |          libfsext_error_t **error );
      |                             ^~~~~
      |                             perror
/usr/include/libfsext.h:695:10: error: 'libfsext_file_entry_t' was not declared in this scope; did you mean 'libfsext_file_entry_free'?
  695 |          libfsext_file_entry_t *file_entry,
      |          ^~~~~~~~~~~~~~~~~~~~~
      |          libfsext_file_entry_free
/usr/include/libfsext.h:695:33: error: 'file_entry' was not declared in this scope
  695 |          libfsext_file_entry_t *file_entry,
      |                                 ^~~~~~~~~~
/usr/include/libfsext.h:696:10: error: expected primary-expression before 'void'
  696 |          void *buffer,
      |          ^~~~
/usr/include/libfsext.h:697:10: error: 'size_t' was not declared in this scope
  697 |          size_t buffer_size,
      |          ^~~~~~
/usr/include/libfsext.h:697:10: note: 'size_t' is defined in header '<cstddef>'; did you forget to '#include <cstddef>'?
/usr/include/libfsext.h:698:10: error: 'off64_t' was not declared in this scope; did you mean 'off_t'?
  698 |          off64_t offset,
      |          ^~~~~~~
      |          off_t
/usr/include/libfsext.h:699:27: error: expected primary-expression before '*' token
  699 |          libfsext_error_t **error );
      |                           ^
/usr/include/libfsext.h:699:29: error: 'error' was not declared in this scope; did you mean 'perror'?
  699 |          libfsext_error_t **error );
      |                             ^~~~~
      |                             perror
/usr/include/libfsext.h:705:1: error: 'off64_t' does not name a type; did you mean 'off_t'?
  705 | off64_t libfsext_file_entry_seek_offset(
      | ^~~~~~~
      | off_t
/usr/include/libfsext.h:716:6: error: 'libfsext_file_entry_t' was not declared in this scope; did you mean 'libfsext_file_entry_free'?
  716 |      libfsext_file_entry_t *file_entry,
      |      ^~~~~~~~~~~~~~~~~~~~~
      |      libfsext_file_entry_free
/usr/include/libfsext.h:716:29: error: 'file_entry' was not declared in this scope
  716 |      libfsext_file_entry_t *file_entry,
      |                             ^~~~~~~~~~
/usr/include/libfsext.h:717:6: error: 'off64_t' was not declared in this scope; did you mean 'off_t'?
  717 |      off64_t *offset,
      |      ^~~~~~~
      |      off_t
/usr/include/libfsext.h:717:15: error: 'offset' was not declared in this scope; did you mean 'off_t'?
  717 |      off64_t *offset,
      |               ^~~~~~
      |               off_t
/usr/include/libfsext.h:718:23: error: expected primary-expression before '*' token
  718 |      libfsext_error_t **error );
      |                       ^
/usr/include/libfsext.h:718:25: error: 'error' was not declared in this scope; did you mean 'perror'?
  718 |      libfsext_error_t **error );
      |                         ^~~~~
      |                         perror
/usr/include/libfsext.h:725:6: error: 'libfsext_file_entry_t' was not declared in this scope; did you mean 'libfsext_file_entry_free'?
  725 |      libfsext_file_entry_t *file_entry,
      |      ^~~~~~~~~~~~~~~~~~~~~
      |      libfsext_file_entry_free
/usr/include/libfsext.h:725:29: error: 'file_entry' was not declared in this scope
  725 |      libfsext_file_entry_t *file_entry,
      |                             ^~~~~~~~~~
/usr/include/libfsext.h:726:6: error: 'size64_t' was not declared in this scope
  726 |      size64_t *size,
      |      ^~~~~~~~
/usr/include/libfsext.h:726:16: error: 'size' was not declared in this scope
  726 |      size64_t *size,
      |                ^~~~
/usr/include/libfsext.h:727:23: error: expected primary-expression before '*' token
  727 |      libfsext_error_t **error );
      |                       ^
/usr/include/libfsext.h:727:25: error: 'error' was not declared in this scope; did you mean 'perror'?
  727 |      libfsext_error_t **error );
      |                         ^~~~~
      |                         perror
/usr/include/libfsext.h:734:6: error: 'libfsext_file_entry_t' was not declared in this scope; did you mean 'libfsext_file_entry_free'?
  734 |      libfsext_file_entry_t *file_entry,
      |      ^~~~~~~~~~~~~~~~~~~~~
      |      libfsext_file_entry_free
/usr/include/libfsext.h:734:29: error: 'file_entry' was not declared in this scope
  734 |      libfsext_file_entry_t *file_entry,
      |                             ^~~~~~~~~~
/usr/include/libfsext.h:735:6: error: expected primary-expression before 'int'
  735 |      int *number_of_extents,
      |      ^~~
/usr/include/libfsext.h:736:23: error: expected primary-expression before '*' token
  736 |      libfsext_error_t **error );
      |                       ^
/usr/include/libfsext.h:736:25: error: 'error' was not declared in this scope; did you mean 'perror'?
  736 |      libfsext_error_t **error );
      |                         ^~~~~
      |                         perror
/usr/include/libfsext.h:743:6: error: 'libfsext_file_entry_t' was not declared in this scope; did you mean 'libfsext_file_entry_free'?
  743 |      libfsext_file_entry_t *file_entry,
      |      ^~~~~~~~~~~~~~~~~~~~~
      |      libfsext_file_entry_free
/usr/include/libfsext.h:743:29: error: 'file_entry' was not declared in this scope
  743 |      libfsext_file_entry_t *file_entry,
      |                             ^~~~~~~~~~
/usr/include/libfsext.h:744:6: error: expected primary-expression before 'int'
  744 |      int extent_index,
      |      ^~~
/usr/include/libfsext.h:745:6: error: 'off64_t' was not declared in this scope; did you mean 'off_t'?
  745 |      off64_t *extent_offset,
      |      ^~~~~~~
      |      off_t
/usr/include/libfsext.h:745:15: error: 'extent_offset' was not declared in this scope
  745 |      off64_t *extent_offset,
      |               ^~~~~~~~~~~~~
/usr/include/libfsext.h:746:6: error: 'size64_t' was not declared in this scope
  746 |      size64_t *extent_size,
      |      ^~~~~~~~
/usr/include/libfsext.h:746:16: error: 'extent_size' was not declared in this scope
  746 |      size64_t *extent_size,
      |                ^~~~~~~~~~~
/usr/include/libfsext.h:747:15: error: expected primary-expression before '*' token
  747 |      uint32_t *extent_flags,
      |               ^
/usr/include/libfsext.h:747:16: error: 'extent_flags' was not declared in this scope
  747 |      uint32_t *extent_flags,
      |                ^~~~~~~~~~~~
/usr/include/libfsext.h:748:23: error: expected primary-expression before '*' token
  748 |      libfsext_error_t **error );
      |                       ^
/usr/include/libfsext.h:748:25: error: 'error' was not declared in this scope; did you mean 'perror'?
  748 |      libfsext_error_t **error );
      |                         ^~~~~
      |                         perror
ERROR: some errors occurred when compiling headers
ERROR: see log for details:
  /home/adrien/armhf-time_t/out/logs/libfsext-dev/base/abi-compliance-checker.log


Creating library ABI dump ...
Dump path: out/logs/libfsext-dev/libfsext-dev_base.dump
