[2024-01-08T02:58:54+00:00] apt-get install libplist++-dev libplist-dev abi-compliance-checker
Reading package lists...
Building dependency tree...
Reading state information...
abi-compliance-checker is already the newest version (2.3-2).
The following packages were automatically installed and are no longer required:
  fontconfig-config fonts-dejavu-core fonts-dejavu-mono gir1.2-glib-2.0
  gir1.2-ibus-1.0 libasound2 libasound2-data libasound2-dev libasyncns0
  libblkid-dev libbrotli1 libcairo2 libdbus-1-dev libdecor-0-0 libdecor-0-dev
  libdrm-amdgpu1 libdrm-common libdrm-dev libdrm-etnaviv1 libdrm-exynos1
  libdrm-freedreno1 libdrm-nouveau2 libdrm-omap1 libdrm-radeon1 libdrm-tegra0
  libdrm2 libedit2 libegl-dev libegl-mesa0 libegl1 libffi-dev libflac12
  libfltk-cairo1.3 libfltk-forms1.3 libfltk-gl1.3 libfltk-images1.3 libfltk1.3
  libfltk1.3-dev libfontconfig1 libfreetype6 libgbm-dev libgbm1
  libgirepository-1.0-1 libgl-dev libgl1 libgl1-mesa-dev libgl1-mesa-dri
  libglapi-mesa libgles-dev libgles1 libgles2 libglib2.0-0 libglib2.0-bin
  libglib2.0-data libglib2.0-dev libglib2.0-dev-bin libglu1-mesa
  libglu1-mesa-dev libglut-dev libglut3.12 libglvnd-core-dev libglvnd-dev
  libglvnd0 libglx-dev libglx-mesa0 libglx0 libibus-1.0-5 libibus-1.0-dev
  libice-dev libice6 libjpeg62-turbo libllvm17 libmount-dev libmp3lame0
  libmpg123-0 libogg0 libopengl-dev libopengl0 libopus0 libpciaccess-dev
  libpciaccess0 libpcre2-16-0 libpcre2-32-0 libpcre2-dev libpcre2-posix3
  libpixman-1-0 libpkgconf3 libplib-dev libplib1 libpng16-16
  libpthread-stubs0-dev libpulse-dev libpulse-mainloop-glib0 libpulse0
  libsamplerate0 libsamplerate0-dev libsdl1.2-dev libsdl1.2debian
  libsdl2-2.0-0 libsdl2-dev libselinux1-dev libsensors-config libsensors5
  libsepol-dev libsm-dev libsm6 libsndfile1 libsndio-dev libsndio7.0
  libudev-dev libvorbis0a libvorbisenc2 libvulkan1 libwayland-bin
  libwayland-client0 libwayland-cursor0 libwayland-dev libwayland-egl1
  libwayland-server0 libx11-6 libx11-data libx11-dev libx11-xcb1 libxau-dev
  libxau6 libxcb-dri2-0 libxcb-dri3-0 libxcb-glx0 libxcb-present0
  libxcb-randr0 libxcb-render0 libxcb-shm0 libxcb-sync1 libxcb-xfixes0 libxcb1
  libxcb1-dev libxcursor-dev libxcursor1 libxdmcp-dev libxdmcp6 libxext-dev
  libxext6 libxfixes-dev libxfixes3 libxft2 libxi-dev libxi6 libxinerama-dev
  libxinerama1 libxkbcommon-dev libxkbcommon0 libxrandr-dev libxrandr2
  libxrender-dev libxrender1 libxshmfence1 libxss-dev libxss1 libxt-dev libxt6
  libxv-dev libxv1 libxxf86vm-dev libxxf86vm1 libz3-4 pkgconf pkgconf-bin
  python3-distutils python3-lib2to3 sgml-base uuid-dev x11-common x11proto-dev
  xkb-data xml-core xorg-sgml-doctools xtrans-dev zlib1g-dev
Use 'apt autoremove' to remove them.
The following additional packages will be installed:
  libplist++3v5 libplist3
The following NEW packages will be installed:
  libplist++-dev libplist++3v5 libplist-dev libplist3
0 upgraded, 4 newly installed, 0 to remove and 27 not upgraded.
Need to get 76.3 kB of archives.
After this operation, 324 kB of additional disk space will be used.
Get:1 http://deb.debian.org/debian unstable/main armhf libplist3 armhf 2.2.0-6+b2 [31.5 kB]
Get:2 http://deb.debian.org/debian unstable/main armhf libplist++3v5 armhf 2.2.0-6+b2 [21.5 kB]
Get:3 http://deb.debian.org/debian unstable/main armhf libplist++-dev armhf 2.2.0-6+b2 [12.6 kB]
Get:4 http://deb.debian.org/debian unstable/main armhf libplist-dev armhf 2.2.0-6+b2 [10.7 kB]
debconf: delaying package configuration, since apt-utils is not installed
Fetched 76.3 kB in 0s (246 kB/s)
Selecting previously unselected package libplist3:armhf.
(Reading database ... (Reading database ... 5%(Reading database ... 10%(Reading database ... 15%(Reading database ... 20%(Reading database ... 25%(Reading database ... 30%(Reading database ... 35%(Reading database ... 40%(Reading database ... 45%(Reading database ... 50%(Reading database ... 55%(Reading database ... 60%(Reading database ... 65%(Reading database ... 70%(Reading database ... 75%(Reading database ... 80%(Reading database ... 85%(Reading database ... 90%(Reading database ... 95%(Reading database ... 100%(Reading database ... 21433 files and directories currently installed.)
Preparing to unpack .../libplist3_2.2.0-6+b2_armhf.deb ...
Unpacking libplist3:armhf (2.2.0-6+b2) ...
Selecting previously unselected package libplist++3v5:armhf.
Preparing to unpack .../libplist++3v5_2.2.0-6+b2_armhf.deb ...
Unpacking libplist++3v5:armhf (2.2.0-6+b2) ...
Selecting previously unselected package libplist++-dev:armhf.
Preparing to unpack .../libplist++-dev_2.2.0-6+b2_armhf.deb ...
Unpacking libplist++-dev:armhf (2.2.0-6+b2) ...
Selecting previously unselected package libplist-dev:armhf.
Preparing to unpack .../libplist-dev_2.2.0-6+b2_armhf.deb ...
Unpacking libplist-dev:armhf (2.2.0-6+b2) ...
Setting up libplist3:armhf (2.2.0-6+b2) ...
Setting up libplist-dev:armhf (2.2.0-6+b2) ...
Setting up libplist++3v5:armhf (2.2.0-6+b2) ...
Setting up libplist++-dev:armhf (2.2.0-6+b2) ...
Processing triggers for libc-bin (2.37-13) ...
Reading package lists...
Building dependency tree...
Reading state information...
The following packages will be REMOVED:
  fontconfig-config* fonts-dejavu-core* fonts-dejavu-mono* gir1.2-glib-2.0*
  gir1.2-ibus-1.0* libasound2* libasound2-data* libasound2-dev* libasyncns0*
  libblkid-dev* libbrotli1* libcairo2* libdbus-1-dev* libdecor-0-0*
  libdecor-0-dev* libdrm-amdgpu1* libdrm-common* libdrm-dev* libdrm-etnaviv1*
  libdrm-exynos1* libdrm-freedreno1* libdrm-nouveau2* libdrm-omap1*
  libdrm-radeon1* libdrm-tegra0* libdrm2* libedit2* libegl-dev* libegl-mesa0*
  libegl1* libffi-dev* libflac12* libfltk-cairo1.3* libfltk-forms1.3*
  libfltk-gl1.3* libfltk-images1.3* libfltk1.3* libfltk1.3-dev*
  libfontconfig1* libfreetype6* libgbm-dev* libgbm1* libgirepository-1.0-1*
  libgl-dev* libgl1* libgl1-mesa-dev* libgl1-mesa-dri* libglapi-mesa*
  libgles-dev* libgles1* libgles2* libglib2.0-0* libglib2.0-bin*
  libglib2.0-data* libglib2.0-dev* libglib2.0-dev-bin* libglu1-mesa*
  libglu1-mesa-dev* libglut-dev* libglut3.12* libglvnd-core-dev* libglvnd-dev*
  libglvnd0* libglx-dev* libglx-mesa0* libglx0* libibus-1.0-5*
  libibus-1.0-dev* libice-dev* libice6* libjpeg62-turbo* libllvm17*
  libmount-dev* libmp3lame0* libmpg123-0* libogg0* libopengl-dev* libopengl0*
  libopus0* libpciaccess-dev* libpciaccess0* libpcre2-16-0* libpcre2-32-0*
  libpcre2-dev* libpcre2-posix3* libpixman-1-0* libpkgconf3* libplib-dev*
  libplib1* libpng16-16* libpthread-stubs0-dev* libpulse-dev*
  libpulse-mainloop-glib0* libpulse0* libsamplerate0* libsamplerate0-dev*
  libsdl1.2-dev* libsdl1.2debian* libsdl2-2.0-0* libsdl2-dev* libselinux1-dev*
  libsensors-config* libsensors5* libsepol-dev* libsm-dev* libsm6*
  libsndfile1* libsndio-dev* libsndio7.0* libudev-dev* libvorbis0a*
  libvorbisenc2* libvulkan1* libwayland-bin* libwayland-client0*
  libwayland-cursor0* libwayland-dev* libwayland-egl1* libwayland-server0*
  libx11-6* libx11-data* libx11-dev* libx11-xcb1* libxau-dev* libxau6*
  libxcb-dri2-0* libxcb-dri3-0* libxcb-glx0* libxcb-present0* libxcb-randr0*
  libxcb-render0* libxcb-shm0* libxcb-sync1* libxcb-xfixes0* libxcb1*
  libxcb1-dev* libxcursor-dev* libxcursor1* libxdmcp-dev* libxdmcp6*
  libxext-dev* libxext6* libxfixes-dev* libxfixes3* libxft2* libxi-dev*
  libxi6* libxinerama-dev* libxinerama1* libxkbcommon-dev* libxkbcommon0*
  libxrandr-dev* libxrandr2* libxrender-dev* libxrender1* libxshmfence1*
  libxss-dev* libxss1* libxt-dev* libxt6* libxv-dev* libxv1* libxxf86vm-dev*
  libxxf86vm1* libz3-4* pkgconf* pkgconf-bin* python3-distutils*
  python3-lib2to3* sgml-base* uuid-dev* x11-common* x11proto-dev* xkb-data*
  xml-core* xorg-sgml-doctools* xtrans-dev* zlib1g-dev*
0 upgraded, 0 newly installed, 178 to remove and 27 not upgraded.
After this operation, 250 MB disk space will be freed.
(Reading database ... (Reading database ... 5%(Reading database ... 10%(Reading database ... 15%(Reading database ... 20%(Reading database ... 25%(Reading database ... 30%(Reading database ... 35%(Reading database ... 40%(Reading database ... 45%(Reading database ... 50%(Reading database ... 55%(Reading database ... 60%(Reading database ... 65%(Reading database ... 70%(Reading database ... 75%(Reading database ... 80%(Reading database ... 85%(Reading database ... 90%(Reading database ... 95%(Reading database ... 100%(Reading database ... 21489 files and directories currently installed.)
Removing libfltk1.3-dev:armhf (1.3.8-6+b1) ...
Removing libfltk-cairo1.3:armhf (1.3.8-6+b1) ...
Removing libfltk-images1.3:armhf (1.3.8-6+b1) ...
Removing libcairo2:armhf (1.18.0-1+b1) ...
Removing libsdl1.2-dev:armhf (1.2.68-2) ...
Removing libsdl2-dev:armhf (2.28.5+dfsg-3) ...
Removing libibus-1.0-dev:armhf (1.5.29-1) ...
Removing gir1.2-ibus-1.0:armhf (1.5.29-1) ...
Removing gir1.2-glib-2.0:armhf (1.78.1-6) ...
Removing libsndio-dev:armhf (1.9.0-0.3+b3) ...
Removing libsndio7.0:armhf (1.9.0-0.3+b3) ...
Removing libsdl1.2debian:armhf (1.2.68-2) ...
Removing libsdl2-2.0-0:armhf (2.28.5+dfsg-3) ...
Removing libasound2-dev:armhf (1.2.10-3) ...
Removing libpulse-dev:armhf (16.1+dfsg1-3) ...
Removing libpulse-mainloop-glib0:armhf (16.1+dfsg1-3) ...
Removing libpulse0:armhf (16.1+dfsg1-3) ...
Removing libasyncns0:armhf (0.8-6+b3) ...
Removing libglib2.0-dev:armhf (2.78.3-1) ...
Removing libmount-dev:armhf (2.39.3-6) ...
Removing libblkid-dev:armhf (2.39.3-6) ...
Removing libdbus-1-dev:armhf (1.14.10-3+b1) ...
Removing libdecor-0-dev:armhf (0.2.1-1) ...
Removing libdecor-0-0:armhf (0.2.1-1) ...
Removing libplib-dev (1.8.5-14+b1) ...
Removing libglut-dev:armhf (3.4.0-1+b1) ...
Removing libgl1-mesa-dev:armhf (23.3.2-2) ...
Removing libplib1:armhf (1.8.5-14+b1) ...
Removing libglvnd-dev:armhf (1.7.0-1) ...
Removing libdrm-dev:armhf (2.4.117-1) ...
Removing libgles-dev:armhf (1.7.0-1) ...
Removing libegl-dev:armhf (1.7.0-1) ...
Removing libegl1:armhf (1.7.0-1) ...
Removing libegl-mesa0:armhf (23.3.2-2) ...
Removing libgbm-dev:armhf (23.3.2-2) ...
Removing libgbm1:armhf (23.3.2-2) ...
Removing libdrm-etnaviv1:armhf (2.4.117-1) ...
Removing libdrm-exynos1:armhf (2.4.117-1) ...
Removing libdrm-freedreno1:armhf (2.4.117-1) ...
Removing libdrm-omap1:armhf (2.4.117-1) ...
Removing libdrm-tegra0:armhf (2.4.117-1) ...
Removing libwayland-dev:armhf (1.22.0-2.1) ...
Removing libffi-dev:armhf (3.4.4-2) ...
Removing libsndfile1:armhf (1.2.2-1) ...
Removing libflac12:armhf (1.4.3+ds-2+b1) ...
Removing libfltk-forms1.3:armhf (1.3.8-6+b1) ...
Removing libfltk-gl1.3:armhf (1.3.8-6+b1) ...
Removing libgirepository-1.0-1:armhf (1.78.1-6) ...
Removing libgles1:armhf (1.7.0-1) ...
Removing libgles2:armhf (1.7.0-1) ...
Removing libibus-1.0-5:armhf (1.5.29-1) ...
Removing libglib2.0-bin (2.78.3-1) ...
Removing libglib2.0-data (2.78.3-1) ...
Removing libglib2.0-dev-bin (2.78.3-1) ...
Removing libglu1-mesa-dev:armhf (9.0.2-1.1) ...
Removing libglu1-mesa:armhf (9.0.2-1.1) ...
Removing libglut3.12:armhf (3.4.0-1+b1) ...
Removing libglvnd-core-dev:armhf (1.7.0-1) ...
Removing libopengl-dev:armhf (1.7.0-1) ...
Removing libopengl0:armhf (1.7.0-1) ...
Removing libxt-dev:armhf (1:1.2.1-1.1) ...
Removing libsm-dev:armhf (2:1.2.3-1) ...
Removing libice-dev:armhf (2:1.0.10-1) ...
Removing libxt6:armhf (1:1.2.1-1.1) ...
Removing libsm6:armhf (2:1.2.3-1) ...
Removing libice6:armhf (2:1.0.10-1) ...
Removing libjpeg62-turbo:armhf (1:2.1.5-2+b2) ...
Removing libmp3lame0:armhf (3.100-6+b2) ...
Removing libmpg123-0:armhf (1.32.3-1) ...
Removing libvorbisenc2:armhf (1.3.7-1) ...
Removing libvorbis0a:armhf (1.3.7-1) ...
Removing libogg0:armhf (1.3.5-3) ...
Removing libopus0:armhf (1.4-1) ...
Removing libpciaccess-dev:armhf (0.17-3) ...
Removing libpciaccess0:armhf (0.17-3) ...
Removing libselinux1-dev:armhf (3.5-1+b2) ...
Removing libpcre2-dev:armhf (10.42-4) ...
Removing libpcre2-16-0:armhf (10.42-4) ...
Removing libpcre2-32-0:armhf (10.42-4) ...
Removing libpcre2-posix3:armhf (10.42-4) ...
Removing libpixman-1-0:armhf (0.42.2-1) ...
Removing libsamplerate0-dev:armhf (0.2.2-4) ...
Removing pkgconf:armhf (1.8.1-1+b2) ...
Removing pkgconf-bin (1.8.1-1+b2) ...
Removing libpkgconf3:armhf (1.8.1-1+b2) ...
Removing libxxf86vm-dev:armhf (1:1.1.4-1+b2) ...
Removing libxrandr-dev:armhf (2:1.5.2-2+b1) ...
Removing libsamplerate0:armhf (0.2.2-4) ...
Removing libsepol-dev:armhf (3.5-2) ...
Removing libudev-dev:armhf (255.2-4) ...
Removing libwayland-bin (1.22.0-2.1) ...
Removing libwayland-cursor0:armhf (1.22.0-2.1) ...
Removing libwayland-client0:armhf (1.22.0-2.1) ...
Removing libwayland-egl1:armhf (1.22.0-2.1) ...
Removing libwayland-server0:armhf (1.22.0-2.1) ...
Removing libxv-dev:armhf (2:1.0.11-1.1) ...
Removing libxv1:armhf (2:1.0.11-1.1) ...
Removing libxcb-render0:armhf (1.15-1) ...
Removing libxcursor-dev:armhf (1:1.2.1-1) ...
Removing libxss-dev:armhf (1:1.2.3-1) ...
Removing libxss1:armhf (1:1.2.3-1) ...
Removing libxi-dev:armhf (2:1.8-1+b1) ...
Removing libxfixes-dev:armhf (1:6.0.0-2) ...
Removing libxi6:armhf (2:1.8-1+b1) ...
Removing libxinerama-dev:armhf (2:1.1.4-3) ...
Removing libxkbcommon-dev:armhf (1.6.0-1) ...
Removing libxkbcommon0:armhf (1.6.0-1) ...
Removing libxrandr2:armhf (2:1.5.2-2+b1) ...
Removing python3-distutils (3.11.5-1) ...
Removing python3-lib2to3 (3.11.5-1) ...
Removing xml-core (0.19) ...
Removing sgml-base (1.31) ...
Removing uuid-dev:armhf (2.39.3-6) ...
Removing x11-common (1:7.7+23) ...
invoke-rc.d: could not determine current runlevel
Removing xkb-data (2.38-2) ...
Removing zlib1g-dev:armhf (1:1.3.dfsg-3) ...
Removing libfltk1.3:armhf (1.3.8-6+b1) ...
Removing libxft2:armhf (2.3.6-1) ...
Removing libfontconfig1:armhf (2.14.2-6+b1) ...
Removing fontconfig-config (2.14.2-6+b1) ...
Removing fonts-dejavu-core (2.37-8) ...
Removing fonts-dejavu-mono (2.37-8) ...
Removing libasound2:armhf (1.2.10-3) ...
Removing libasound2-data (1.2.10-3) ...
Removing libfreetype6:armhf (2.13.2+dfsg-1+b1) ...
Removing libbrotli1:armhf (1.1.0-2+b3) ...
Removing libgl-dev:armhf (1.7.0-1) ...
Removing libgl1:armhf (1.7.0-1) ...
Removing libglx-dev:armhf (1.7.0-1) ...
Removing libglx0:armhf (1.7.0-1) ...
Removing libglx-mesa0:armhf (23.3.2-2) ...
Removing libgl1-mesa-dri:armhf (23.3.2-2) ...
Removing libdrm-amdgpu1:armhf (2.4.117-1) ...
Removing libdrm-nouveau2:armhf (2.4.117-1) ...
Removing libdrm-radeon1:armhf (2.4.117-1) ...
Removing libllvm17:armhf (1:17.0.6-3) ...
Removing libedit2:armhf (3.1-20230828-1) ...
Removing libglapi-mesa:armhf (23.3.2-2) ...
Removing libglib2.0-0:armhf (2.78.3-1) ...
Removing libglvnd0:armhf (1.7.0-1) ...
Removing libpng16-16:armhf (1.6.40-3) ...
Removing libxrender-dev:armhf (1:0.9.10-1.1) ...
Removing libsensors5:armhf (1:3.6.0-8) ...
Removing libsensors-config (1:3.6.0-8) ...
Removing libvulkan1:armhf (1.3.268.0-1) ...
Removing libxxf86vm1:armhf (1:1.1.4-1+b2) ...
Removing libx11-xcb1:armhf (2:1.8.7-1) ...
Removing libxcb-xfixes0:armhf (1.15-1) ...
Removing libxcb-sync1:armhf (1.15-1) ...
Removing libxcb-dri2-0:armhf (1.15-1) ...
Removing libxcb-dri3-0:armhf (1.15-1) ...
Removing libxcb-glx0:armhf (1.15-1) ...
Removing libxcb-present0:armhf (1.15-1) ...
Removing libxcb-randr0:armhf (1.15-1) ...
Removing libxcb-shm0:armhf (1.15-1) ...
Removing libxcursor1:armhf (1:1.2.1-1) ...
Removing libxext-dev:armhf (2:1.3.4-1+b1) ...
Removing libxfixes3:armhf (1:6.0.0-2) ...
Removing libxinerama1:armhf (2:1.1.4-3) ...
Removing libxrender1:armhf (1:0.9.10-1.1) ...
Removing libxshmfence1:armhf (1.3-1) ...
Removing libz3-4:armhf (4.8.12-3.1+b2) ...
Removing libdrm2:armhf (2.4.117-1) ...
Removing libdrm-common (2.4.117-1) ...
Removing libx11-dev:armhf (2:1.8.7-1) ...
Removing libxcb1-dev:armhf (1.15-1) ...
Removing libpthread-stubs0-dev:armhf (0.4-1) ...
Removing libxau-dev:armhf (1:1.0.9-1) ...
Removing libxdmcp-dev:armhf (1:1.1.2-3) ...
Removing libxext6:armhf (2:1.3.4-1+b1) ...
Removing x11proto-dev (2023.2-1) ...
Removing xorg-sgml-doctools (1:1.11-1.1) ...
Removing xtrans-dev (1.4.0-1) ...
Removing libx11-6:armhf (2:1.8.7-1) ...
Removing libx11-data (2:1.8.7-1) ...
Removing libxcb1:armhf (1.15-1) ...
Removing libxau6:armhf (1:1.0.9-1) ...
Removing libxdmcp6:armhf (1:1.1.2-3) ...
Processing triggers for libc-bin (2.37-13) ...
(Reading database ... (Reading database ... 5%(Reading database ... 10%(Reading database ... 15%(Reading database ... 20%(Reading database ... 25%(Reading database ... 30%(Reading database ... 35%(Reading database ... 40%(Reading database ... 45%(Reading database ... 50%(Reading database ... 55%(Reading database ... 60%(Reading database ... 65%(Reading database ... 70%(Reading database ... 75%(Reading database ... 80%(Reading database ... 85%(Reading database ... 90%(Reading database ... 95%(Reading database ... 100%(Reading database ... 16441 files and directories currently installed.)
Purging configuration files for libpulse0:armhf (16.1+dfsg1-3) ...
Purging configuration files for libglib2.0-0:armhf (2.78.3-1) ...
Purging configuration files for fontconfig-config (2.14.2-6+b1) ...
Purging configuration files for libgl1-mesa-dri:armhf (23.3.2-2) ...
Purging configuration files for x11-common (1:7.7+23) ...
Purging configuration files for libsensors-config (1:3.6.0-8) ...
Purging configuration files for pkgconf:armhf (1.8.1-1+b2) ...
Purging configuration files for libdbus-1-dev:armhf (1.14.10-3+b1) ...
Purging configuration files for fonts-dejavu-mono (2.37-8) ...
Purging configuration files for fonts-dejavu-core (2.37-8) ...
Purging configuration files for xml-core (0.19) ...
dpkg: warning: while removing xml-core, directory '/etc/sgml' not empty so not removed
Purging configuration files for sgml-base (1.31) ...
