[2024-01-08T02:01:13+00:00] apt-get install libosp-dev abi-compliance-checker
Reading package lists...
Building dependency tree...
Reading state information...
abi-compliance-checker is already the newest version (2.3-2).
The following packages were automatically installed and are no longer required:
  libosmpbf-dev libosmpbf1 libprotobuf-dev libprotobuf-lite32 libprotobuf32
  zlib1g-dev
Use 'apt autoremove' to remove them.
The following NEW packages will be installed:
  libosp-dev
0 upgraded, 1 newly installed, 0 to remove and 33 not upgraded.
Need to get 1018 kB of archives.
After this operation, 4521 kB of additional disk space will be used.
Get:1 http://deb.debian.org/debian unstable/main armhf libosp-dev armhf 1.5.2-14 [1018 kB]
debconf: delaying package configuration, since apt-utils is not installed
Fetched 1018 kB in 0s (3396 kB/s)
Selecting previously unselected package libosp-dev.
(Reading database ... (Reading database ... 5%(Reading database ... 10%(Reading database ... 15%(Reading database ... 20%(Reading database ... 25%(Reading database ... 30%(Reading database ... 35%(Reading database ... 40%(Reading database ... 45%(Reading database ... 50%(Reading database ... 55%(Reading database ... 60%(Reading database ... 65%(Reading database ... 70%(Reading database ... 75%(Reading database ... 80%(Reading database ... 85%(Reading database ... 90%(Reading database ... 95%(Reading database ... 100%(Reading database ... 16501 files and directories currently installed.)
Preparing to unpack .../libosp-dev_1.5.2-14_armhf.deb ...
Unpacking libosp-dev (1.5.2-14) ...
Setting up libosp-dev (1.5.2-14) ...
Reading package lists...
Building dependency tree...
Reading state information...
The following packages will be REMOVED:
  libosmpbf-dev* libosmpbf1* libprotobuf-dev* libprotobuf-lite32*
  libprotobuf32* zlib1g-dev*
0 upgraded, 0 newly installed, 6 to remove and 33 not upgraded.
After this operation, 14.9 MB disk space will be freed.
(Reading database ... (Reading database ... 5%(Reading database ... 10%(Reading database ... 15%(Reading database ... 20%(Reading database ... 25%(Reading database ... 30%(Reading database ... 35%(Reading database ... 40%(Reading database ... 45%(Reading database ... 50%(Reading database ... 55%(Reading database ... 60%(Reading database ... 65%(Reading database ... 70%(Reading database ... 75%(Reading database ... 80%(Reading database ... 85%(Reading database ... 90%(Reading database ... 95%(Reading database ... 100%(Reading database ... 16652 files and directories currently installed.)
Removing libosmpbf-dev (1.5.0-3) ...
Removing libosmpbf1 (1.5.0-3) ...
Removing libprotobuf-dev:armhf (3.21.12-8+b1) ...
Removing libprotobuf-lite32:armhf (3.21.12-8+b1) ...
Removing libprotobuf32:armhf (3.21.12-8+b1) ...
Removing zlib1g-dev:armhf (1:1.3.dfsg-3) ...
Processing triggers for libc-bin (2.37-13) ...
