Temporary header file '/tmp/vMkHXDB3mn/dump1.h' with the following content will be compiled to create GCC translation unit dump:

  // add defines
  #define __STDC_VERSION__ 201710L
#define _TIME_BITS 64
#define _FILE_OFFSET_BITS 64
#define _GXX_NULLPTR_T
#define CLUTTER_ENABLE_COMPOSITOR_API 1
#define _REGEX_NELTS(n)
#define _Atomic
#define PACKED
#ifdef __cplusplus
// C17 compat layer
#define _Alignof(type) alignof(type)
#endif
#define getaddrinfo_a(a,b,c,d)

  // add includes
  #include "/usr/include/kms_message/kms_azure_request.h"
  #include "/usr/include/kms_message/kms_b64.h"
  #include "/usr/include/kms_message/kms_caller_identity_request.h"
  #include "/usr/include/kms_message/kms_decrypt_request.h"
  #include "/usr/include/kms_message/kms_encrypt_request.h"
  #include "/usr/include/kms_message/kms_gcp_request.h"
  #include "/usr/include/kms_message/kms_kmip_request.h"
  #include "/usr/include/kms_message/kms_kmip_response.h"
  #include "/usr/include/kms_message/kms_kmip_response_parser.h"
  #include "/usr/include/kms_message/kms_message.h"
  #include "/usr/include/kms_message/kms_message_defines.h"
  #include "/usr/include/kms_message/kms_request.h"
  #include "/usr/include/kms_message/kms_request_opt.h"
  #include "/usr/include/kms_message/kms_response.h"
  #include "/usr/include/kms_message/kms_response_parser.h"
  #include "/usr/include/mongocrypt/mongocrypt-compat.h"
  #include "/usr/include/mongocrypt/mongocrypt-config.h"
  #include "/usr/include/mongocrypt/mongocrypt-export.h"
  #include "/usr/include/mongocrypt/mongocrypt.h"

The GCC parameters:
  gcc -fdump-lang-raw -fkeep-inline-functions -c -x c++ -fpermissive -w "/tmp/vMkHXDB3mn/dump1.h"

