[2024-01-08T14:38:44+00:00] apt-get install libxxf86vm-dev abi-compliance-checker
Reading package lists...
Building dependency tree...
Reading state information...
abi-compliance-checker is already the newest version (2.3-2).
The following packages were automatically installed and are no longer required:
  libxxf86dga-dev libxxf86dga1
Use 'apt autoremove' to remove them.
The following NEW packages will be installed:
  libxxf86vm-dev libxxf86vm1
0 upgraded, 2 newly installed, 0 to remove and 13 not upgraded.
Need to get 45.3 kB of archives.
After this operation, 122 kB of additional disk space will be used.
Get:1 http://deb.debian.org/debian unstable/main armhf libxxf86vm1 armhf 1:1.1.4-1+b2 [20.2 kB]
Get:2 http://deb.debian.org/debian unstable/main armhf libxxf86vm-dev armhf 1:1.1.4-1+b2 [25.1 kB]
debconf: delaying package configuration, since apt-utils is not installed
Fetched 45.3 kB in 0s (821 kB/s)
Selecting previously unselected package libxxf86vm1:armhf.
(Reading database ... (Reading database ... 5%(Reading database ... 10%(Reading database ... 15%(Reading database ... 20%(Reading database ... 25%(Reading database ... 30%(Reading database ... 35%(Reading database ... 40%(Reading database ... 45%(Reading database ... 50%(Reading database ... 55%(Reading database ... 60%(Reading database ... 65%(Reading database ... 70%(Reading database ... 75%(Reading database ... 80%(Reading database ... 85%(Reading database ... 90%(Reading database ... 95%(Reading database ... 100%(Reading database ... 17394 files and directories currently installed.)
Preparing to unpack .../libxxf86vm1_1%3a1.1.4-1+b2_armhf.deb ...
Unpacking libxxf86vm1:armhf (1:1.1.4-1+b2) ...
Selecting previously unselected package libxxf86vm-dev:armhf.
Preparing to unpack .../libxxf86vm-dev_1%3a1.1.4-1+b2_armhf.deb ...
Unpacking libxxf86vm-dev:armhf (1:1.1.4-1+b2) ...
Setting up libxxf86vm1:armhf (1:1.1.4-1+b2) ...
Setting up libxxf86vm-dev:armhf (1:1.1.4-1+b2) ...
Processing triggers for libc-bin (2.37-13) ...
Reading package lists...
Building dependency tree...
Reading state information...
The following packages will be REMOVED:
  libxxf86dga-dev* libxxf86dga1*
0 upgraded, 0 newly installed, 2 to remove and 13 not upgraded.
After this operation, 174 kB disk space will be freed.
(Reading database ... (Reading database ... 5%(Reading database ... 10%(Reading database ... 15%(Reading database ... 20%(Reading database ... 25%(Reading database ... 30%(Reading database ... 35%(Reading database ... 40%(Reading database ... 45%(Reading database ... 50%(Reading database ... 55%(Reading database ... 60%(Reading database ... 65%(Reading database ... 70%(Reading database ... 75%(Reading database ... 80%(Reading database ... 85%(Reading database ... 90%(Reading database ... 95%(Reading database ... 100%(Reading database ... 17433 files and directories currently installed.)
Removing libxxf86dga-dev:armhf (2:1.1.5-1) ...
Removing libxxf86dga1:armhf (2:1.1.5-1) ...
Processing triggers for libc-bin (2.37-13) ...
