[2024-01-08T11:48:40+00:00] apt-get install libusbauth-configparser-dev abi-compliance-checker
Reading package lists...
Building dependency tree...
Reading state information...
abi-compliance-checker is already the newest version (2.3-2).
The following packages were automatically installed and are no longer required:
  libusb-1.0-0 libusb-1.0-0-dev libusb3380-0 libusb3380-dev
Use 'apt autoremove' to remove them.
The following NEW packages will be installed:
  libusbauth-configparser-dev libusbauth-configparser1
0 upgraded, 2 newly installed, 0 to remove and 16 not upgraded.
Need to get 19.0 kB of archives.
After this operation, 117 kB of additional disk space will be used.
Get:1 http://deb.debian.org/debian unstable/main armhf libusbauth-configparser1 armhf 1.0.5-2 [13.6 kB]
Get:2 http://deb.debian.org/debian unstable/main armhf libusbauth-configparser-dev armhf 1.0.5-2 [5416 B]
debconf: delaying package configuration, since apt-utils is not installed
Fetched 19.0 kB in 0s (133 kB/s)
Selecting previously unselected package libusbauth-configparser1:armhf.
(Reading database ... (Reading database ... 5%(Reading database ... 10%(Reading database ... 15%(Reading database ... 20%(Reading database ... 25%(Reading database ... 30%(Reading database ... 35%(Reading database ... 40%(Reading database ... 45%(Reading database ... 50%(Reading database ... 55%(Reading database ... 60%(Reading database ... 65%(Reading database ... 70%(Reading database ... 75%(Reading database ... 80%(Reading database ... 85%(Reading database ... 90%(Reading database ... 95%(Reading database ... 100%(Reading database ... 17075 files and directories currently installed.)
Preparing to unpack .../libusbauth-configparser1_1.0.5-2_armhf.deb ...
Unpacking libusbauth-configparser1:armhf (1.0.5-2) ...
Selecting previously unselected package libusbauth-configparser-dev.
Preparing to unpack .../libusbauth-configparser-dev_1.0.5-2_armhf.deb ...
Unpacking libusbauth-configparser-dev (1.0.5-2) ...
Setting up libusbauth-configparser1:armhf (1.0.5-2) ...
Setting up libusbauth-configparser-dev (1.0.5-2) ...
Processing triggers for libc-bin (2.37-13) ...
Reading package lists...
Building dependency tree...
Reading state information...
The following packages will be REMOVED:
  libusb-1.0-0* libusb-1.0-0-dev* libusb3380-0* libusb3380-dev*
0 upgraded, 0 newly installed, 4 to remove and 16 not upgraded.
After this operation, 429 kB disk space will be freed.
(Reading database ... (Reading database ... 5%(Reading database ... 10%(Reading database ... 15%(Reading database ... 20%(Reading database ... 25%(Reading database ... 30%(Reading database ... 35%(Reading database ... 40%(Reading database ... 45%(Reading database ... 50%(Reading database ... 55%(Reading database ... 60%(Reading database ... 65%(Reading database ... 70%(Reading database ... 75%(Reading database ... 80%(Reading database ... 85%(Reading database ... 90%(Reading database ... 95%(Reading database ... 100%(Reading database ... 17092 files and directories currently installed.)
Removing libusb3380-dev:armhf (0.0.1+git20190125.c83d1e9-2) ...
Removing libusb-1.0-0-dev:armhf (2:1.0.26-1) ...
Removing libusb3380-0:armhf (0.0.1+git20190125.c83d1e9-2) ...
Removing libusb-1.0-0:armhf (2:1.0.26-1) ...
Processing triggers for libc-bin (2.37-13) ...
