[2024-01-08T01:00:46+00:00] apt-get install libopendht-dev abi-compliance-checker
Reading package lists...
Building dependency tree...
Reading state information...
libopendht-dev is already the newest version (3.0.0-4+b2).
libopendht-dev set to manually installed.
abi-compliance-checker is already the newest version (2.3-2).
The following packages were automatically installed and are no longer required:
  libopendht-c-dev libopendht-c3
Use 'apt autoremove' to remove them.
0 upgraded, 0 newly installed, 0 to remove and 33 not upgraded.
Reading package lists...
Building dependency tree...
Reading state information...
The following packages will be REMOVED:
  libopendht-c-dev* libopendht-c3*
0 upgraded, 0 newly installed, 2 to remove and 33 not upgraded.
After this operation, 98.3 kB disk space will be freed.
(Reading database ... (Reading database ... 5%(Reading database ... 10%(Reading database ... 15%(Reading database ... 20%(Reading database ... 25%(Reading database ... 30%(Reading database ... 35%(Reading database ... 40%(Reading database ... 45%(Reading database ... 50%(Reading database ... 55%(Reading database ... 60%(Reading database ... 65%(Reading database ... 70%(Reading database ... 75%(Reading database ... 80%(Reading database ... 85%(Reading database ... 90%(Reading database ... 95%(Reading database ... 100%(Reading database ... 34789 files and directories currently installed.)
Removing libopendht-c-dev:armhf (3.0.0-4+b2) ...
Removing libopendht-c3:armhf (3.0.0-4+b2) ...
Processing triggers for libc-bin (2.37-13) ...
