Temporary header file '/tmp/LeCo7BcMXf/dump1.h' with the following content will be compiled to create GCC translation unit dump:

  // add defines
  #define __STDC_VERSION__ 201710L
#define _GXX_NULLPTR_T
#define CLUTTER_ENABLE_COMPOSITOR_API 1
#define _REGEX_NELTS(n)
#define _Atomic
#define PACKED
#ifdef __cplusplus
// C17 compat layer
#define _Alignof(type) alignof(type)
#endif
#define getaddrinfo_a(a,b,c,d)

  // add includes
  #include "/usr/lib/gcc/arm-linux-gnueabihf/11/include/stdbool.h"
  #include "/usr/lib/gcc/arm-linux-gnueabihf/11/include/acc_prof.h"
  #include "/usr/lib/gcc/arm-linux-gnueabihf/11/include/backtrace-supported.h"
  #include "/usr/lib/gcc/arm-linux-gnueabihf/11/include/backtrace.h"
  #include "/usr/lib/gcc/arm-linux-gnueabihf/11/include/float.h"
  #include "/usr/lib/gcc/arm-linux-gnueabihf/11/include/gcov.h"
  #include "/usr/lib/gcc/arm-linux-gnueabihf/11/include/iso646.h"
  #include "/usr/lib/gcc/arm-linux-gnueabihf/11/include/limits.h"
  #include "/usr/lib/gcc/arm-linux-gnueabihf/11/include/omp.h"
  #include "/usr/lib/gcc/arm-linux-gnueabihf/11/include/openacc.h"
  #include "/usr/lib/gcc/arm-linux-gnueabihf/11/include/sanitizer/asan_interface.h"
  #include "/usr/lib/gcc/arm-linux-gnueabihf/11/include/sanitizer/common_interface_defs.h"
  #include "/usr/lib/gcc/arm-linux-gnueabihf/11/include/sanitizer/hwasan_interface.h"
  #include "/usr/lib/gcc/arm-linux-gnueabihf/11/include/sanitizer/lsan_interface.h"
  #include "/usr/lib/gcc/arm-linux-gnueabihf/11/include/sanitizer/tsan_interface.h"
  #include "/usr/lib/gcc/arm-linux-gnueabihf/11/include/stdalign.h"
  #include "/usr/lib/gcc/arm-linux-gnueabihf/11/include/stdarg.h"
  #include "/usr/lib/gcc/arm-linux-gnueabihf/11/include/stdatomic.h"
  #include "/usr/lib/gcc/arm-linux-gnueabihf/11/include/stddef.h"
  #include "/usr/lib/gcc/arm-linux-gnueabihf/11/include/stdfix.h"
  #include "/usr/lib/gcc/arm-linux-gnueabihf/11/include/stdint-gcc.h"
  #include "/usr/lib/gcc/arm-linux-gnueabihf/11/include/stdint.h"
  #include "/usr/lib/gcc/arm-linux-gnueabihf/11/include/stdnoreturn.h"
  #include "/usr/lib/gcc/arm-linux-gnueabihf/11/include/syslimits.h"
  #include "/usr/lib/gcc/arm-linux-gnueabihf/11/include/unwind-arm-common.h"
  #include "/usr/lib/gcc/arm-linux-gnueabihf/11/include/unwind.h"
  #include "/usr/lib/gcc/arm-linux-gnueabihf/13/include/stdarg.h"

  // add classes
  _G_fpos64_t* tmp_add_class_0;
  _G_fpos_t* tmp_add_class_1;
  _IO_cookie_io_functions_t* tmp_add_class_2;
  _Unwind_Control_Block* tmp_add_class_3;
  acc_api_info* tmp_add_class_4;
  acc_data_event_info* tmp_add_class_5;
  acc_event_info* tmp_add_class_6;
  acc_launch_event_info* tmp_add_class_7;
  acc_other_event_info* tmp_add_class_8;
  acc_prof_info* tmp_add_class_9;
  omp_alloctrait_t* tmp_add_class_10;
  omp_depend_t* tmp_add_class_11;

The GCC parameters:
  gcc -fdump-lang-raw -fkeep-inline-functions -c -x c++ -fpermissive -w "/tmp/LeCo7BcMXf/dump1.h"  -I/usr/lib/gcc/arm-linux-gnueabihf/11/include

Creating library ABI dump ...
Dump path: out/logs/libgcc-11-dev/libgcc-11-dev_base.dump
