Using GCC 13 (arm-linux-gnueabihf, target: arm)
WARNING: May not work properly with GCC 4.8.[0-2], 6.* and higher due to bug #78040 in GCC. Please try other GCC versions with the help of --gcc-path=PATH option or create ABI dumps by ABI Dumper tool instead to avoid using GCC. Test selected GCC version first by -test option.
Checking header(s) time_t ...
Temporary header file '/tmp/JUArSlujbK/dump1.h' with the following content will be compiled to create GCC translation unit dump:

  // add defines
  #define __STDC_VERSION__ 201710L
#define _TIME_BITS 64
#define _FILE_OFFSET_BITS 64
#define _GXX_NULLPTR_T
#define CLUTTER_ENABLE_COMPOSITOR_API 1
#define _REGEX_NELTS(n)
#define _Atomic
#define PACKED
#ifdef __cplusplus
// C17 compat layer
#define _Alignof(type) alignof(type)
#endif
#define getaddrinfo_a(a,b,c,d)

  // add includes
  #include "/usr/include/tss2/tss2_common.h"
  #include "/usr/include/tss2/tss2_esys.h"
  #include "/usr/include/tss2/tss2_fapi.h"
  #include "/usr/include/tss2/tss2_mu.h"
  #include "/usr/include/tss2/tss2_policy.h"
  #include "/usr/include/tss2/tss2_rc.h"
  #include "/usr/include/tss2/tss2_sys.h"
  #include "/usr/include/tss2/tss2_tcti.h"
  #include "/usr/include/tss2/tss2_tcti_cmd.h"
  #include "/usr/include/tss2/tss2_tcti_device.h"
  #include "/usr/include/tss2/tss2_tcti_libtpms.h"
  #include "/usr/include/tss2/tss2_tcti_mssim.h"
  #include "/usr/include/tss2/tss2_tcti_pcap.h"
  #include "/usr/include/tss2/tss2_tcti_spi_helper.h"
  #include "/usr/include/tss2/tss2_tcti_swtpm.h"
  #include "/usr/include/tss2/tss2_tctildr.h"
  #include "/usr/include/tss2/tss2_tpm2_types.h"

  // add classes
  ESYS_CRYPTO_CALLBACKS* tmp_add_class_0;
  TPM2B_ATTEST* tmp_add_class_1;
  TPM2B_CONTEXT_DATA* tmp_add_class_2;
  TPM2B_CONTEXT_SENSITIVE* tmp_add_class_3;
  TPM2B_CREATION_DATA* tmp_add_class_4;
  TPM2B_DATA* tmp_add_class_5;
  TPM2B_DERIVE* tmp_add_class_6;
  TPM2B_DIGEST* tmp_add_class_7;
  TPM2B_ECC_PARAMETER* tmp_add_class_8;
  TPM2B_ECC_POINT* tmp_add_class_9;
  TPM2B_ENCRYPTED_SECRET* tmp_add_class_10;
  TPM2B_EVENT* tmp_add_class_11;
  TPM2B_ID_OBJECT* tmp_add_class_12;
  TPM2B_IV* tmp_add_class_13;
  TPM2B_LABEL* tmp_add_class_14;
  TPM2B_MAX_BUFFER* tmp_add_class_15;
  TPM2B_MAX_CAP_BUFFER* tmp_add_class_16;
  TPM2B_MAX_NV_BUFFER* tmp_add_class_17;
  TPM2B_NAME* tmp_add_class_18;
  TPM2B_NV_PUBLIC* tmp_add_class_19;
  TPM2B_PRIVATE* tmp_add_class_20;
  TPM2B_PRIVATE_KEY_RSA* tmp_add_class_21;
  TPM2B_PRIVATE_VENDOR_SPECIFIC* tmp_add_class_22;
  TPM2B_PUBLIC* tmp_add_class_23;
  TPM2B_PUBLIC_KEY_RSA* tmp_add_class_24;
  TPM2B_SENSITIVE* tmp_add_class_25;
  TPM2B_SENSITIVE_CREATE* tmp_add_class_26;
  TPM2B_SENSITIVE_DATA* tmp_add_class_27;
  TPM2B_SYM_KEY* tmp_add_class_28;
  TPM2B_TEMPLATE* tmp_add_class_29;
  TPML_ACT_DATA* tmp_add_class_30;
  TPML_AC_CAPABILITIES* tmp_add_class_31;
  TPML_ALG* tmp_add_class_32;
  TPML_ALG_PROPERTY* tmp_add_class_33;
  TPML_CC* tmp_add_class_34;
  TPML_CCA* tmp_add_class_35;
  TPML_DIGEST* tmp_add_class_36;
  TPML_DIGEST_VALUES* tmp_add_class_37;
  TPML_ECC_CURVE* tmp_add_class_38;
  TPML_HANDLE* tmp_add_class_39;
  TPML_INTEL_PTT_PROPERTY* tmp_add_class_40;
  TPML_PCRVALUES* tmp_add_class_41;
  TPML_PCR_SELECTION* tmp_add_class_42;
  TPML_TAGGED_PCR_PROPERTY* tmp_add_class_43;
  TPML_TAGGED_POLICY* tmp_add_class_44;
  TPML_TAGGED_TPM_PROPERTY* tmp_add_class_45;
  TPMS_ACT_DATA* tmp_add_class_46;
  TPMS_AC_OUTPUT* tmp_add_class_47;
  TPMS_ALGORITHM_DETAIL_ECC* tmp_add_class_48;
  TPMS_ALG_PROPERTY* tmp_add_class_49;
  TPMS_ASYM_PARMS* tmp_add_class_50;
  TPMS_ATTEST* tmp_add_class_51;
  TPMS_AUTH_COMMAND* tmp_add_class_52;
  TPMS_AUTH_RESPONSE* tmp_add_class_53;
  TPMS_CAPABILITY_DATA* tmp_add_class_54;
  TPMS_CERTIFY_INFO* tmp_add_class_55;
  TPMS_CLOCK_INFO* tmp_add_class_56;
  TPMS_COMMAND_AUDIT_INFO* tmp_add_class_57;
  TPMS_CONTEXT* tmp_add_class_58;
  TPMS_CONTEXT_DATA* tmp_add_class_59;
  TPMS_CREATION_DATA* tmp_add_class_60;
  TPMS_CREATION_INFO* tmp_add_class_61;
  TPMS_DERIVE* tmp_add_class_62;
  TPMS_ECC_PARMS* tmp_add_class_63;
  TPMS_ECC_POINT* tmp_add_class_64;
  TPMS_EMPTY* tmp_add_class_65;
  TPMS_ID_OBJECT* tmp_add_class_66;
  TPMS_KEYEDHASH_PARMS* tmp_add_class_67;
  TPMS_NV_CERTIFY_INFO* tmp_add_class_68;
  TPMS_NV_DIGEST_CERTIFY_INFO* tmp_add_class_69;
  TPMS_NV_PIN_COUNTER_PARAMETERS* tmp_add_class_70;
  TPMS_NV_PUBLIC* tmp_add_class_71;
  TPMS_PCRVALUE* tmp_add_class_72;
  TPMS_PCR_SELECT* tmp_add_class_73;
  TPMS_PCR_SELECTION* tmp_add_class_74;
  TPMS_QUOTE_INFO* tmp_add_class_75;
  TPMS_RSA_PARMS* tmp_add_class_76;
  TPMS_SCHEME_ECDAA* tmp_add_class_77;
  TPMS_SCHEME_HASH* tmp_add_class_78;
  TPMS_SCHEME_XOR* tmp_add_class_79;
  TPMS_SENSITIVE_CREATE* tmp_add_class_80;
  TPMS_SESSION_AUDIT_INFO* tmp_add_class_81;
  TPMS_SIGNATURE_ECC* tmp_add_class_82;
  TPMS_SIGNATURE_RSA* tmp_add_class_83;
  TPMS_SYMCIPHER_PARMS* tmp_add_class_84;
  TPMS_TAGGED_PCR_SELECT* tmp_add_class_85;
  TPMS_TAGGED_POLICY* tmp_add_class_86;
  TPMS_TAGGED_PROPERTY* tmp_add_class_87;
  TPMS_TIME_ATTEST_INFO* tmp_add_class_88;
  TPMS_TIME_INFO* tmp_add_class_89;
  TPMT_ASYM_SCHEME* tmp_add_class_90;
  TPMT_ECC_SCHEME* tmp_add_class_91;
  TPMT_HA* tmp_add_class_92;
  TPMT_KDF_SCHEME* tmp_add_class_93;
  TPMT_KEYEDHASH_SCHEME* tmp_add_class_94;
  TPMT_PUBLIC* tmp_add_class_95;
  TPMT_PUBLIC_PARMS* tmp_add_class_96;
  TPMT_RSA_DECRYPT* tmp_add_class_97;
  TPMT_RSA_SCHEME* tmp_add_class_98;
  TPMT_SENSITIVE* tmp_add_class_99;
  TPMT_SIGNATURE* tmp_add_class_100;
  TPMT_SIG_SCHEME* tmp_add_class_101;
  TPMT_SYM_DEF* tmp_add_class_102;
  TPMT_SYM_DEF_OBJECT* tmp_add_class_103;
  TPMT_TK_AUTH* tmp_add_class_104;
  TPMT_TK_CREATION* tmp_add_class_105;
  TPMT_TK_HASHCHECK* tmp_add_class_106;
  TPMT_TK_VERIFIED* tmp_add_class_107;
  TPMU_ASYM_SCHEME* tmp_add_class_108;
  TPMU_ATTEST* tmp_add_class_109;
  TPMU_CAPABILITIES* tmp_add_class_110;
  TPMU_ENCRYPTED_SECRET* tmp_add_class_111;
  TPMU_HA* tmp_add_class_112;
  TPMU_KDF_SCHEME* tmp_add_class_113;
  TPMU_NAME* tmp_add_class_114;
  TPMU_PUBLIC_ID* tmp_add_class_115;
  TPMU_PUBLIC_PARMS* tmp_add_class_116;
  TPMU_SCHEME_KEYEDHASH* tmp_add_class_117;
  TPMU_SENSITIVE_COMPOSITE* tmp_add_class_118;
  TPMU_SENSITIVE_CREATE* tmp_add_class_119;
  TPMU_SIGNATURE* tmp_add_class_120;
  TPMU_SIG_SCHEME* tmp_add_class_121;
  TPMU_SYM_KEY_BITS* tmp_add_class_122;
  TPMU_SYM_MODE* tmp_add_class_123;
  TSS2L_SYS_AUTH_COMMAND* tmp_add_class_124;
  TSS2L_SYS_AUTH_RESPONSE* tmp_add_class_125;
  TSS2_ABI_VERSION* tmp_add_class_126;
  TSS2_OBJECT* tmp_add_class_127;
  TSS2_POLICY_CALC_CALLBACKS* tmp_add_class_128;
  TSS2_POLICY_EXEC_CALLBACKS* tmp_add_class_129;
  TSS2_POLICY_PCR_SELECTION* tmp_add_class_130;
  TSS2_POLICY_PCR_SELECTIONS* tmp_add_class_131;
  TSS2_RC_INFO* tmp_add_class_132;
  TSS2_TCTI_CONTEXT_COMMON_V1* tmp_add_class_133;
  TSS2_TCTI_CONTEXT_COMMON_V2* tmp_add_class_134;
  TSS2_TCTI_INFO* tmp_add_class_135;
  TSS2_TCTI_SPI_HELPER_PLATFORM* tmp_add_class_136;
  _PRIVATE* tmp_add_class_137;
  pollfd* tmp_add_class_138;

The GCC parameters:
  gcc -fdump-lang-raw -fkeep-inline-functions -c -x c++ -fpermissive -w "/tmp/JUArSlujbK/dump1.h"

In file included from /tmp/JUArSlujbK/dump1.h:22:
/usr/include/tss2/tss2_policy.h:59:18: error: expected ',' or '...' before 'public'
   59 |     TPMT_PUBLIC *public,
      |                  ^~~~~~
/usr/include/tss2/tss2_policy.h:67:14: error: use of enum 'TSS2_POLICY_PCR_SELECTOR' without previous declaration
   67 | typedef enum TSS2_POLICY_PCR_SELECTOR TSS2_POLICY_PCR_SELECTOR;
      |              ^~~~~~~~~~~~~~~~~~~~~~~~
/usr/include/tss2/tss2_policy.h:68:6: error: using typedef-name 'TSS2_POLICY_PCR_SELECTOR' after 'enum'
   68 | enum TSS2_POLICY_PCR_SELECTOR {
      |      ^~~~~~~~~~~~~~~~~~~~~~~~
/usr/include/tss2/tss2_policy.h:67:39: note: 'TSS2_POLICY_PCR_SELECTOR' has a previous declaration here
   67 | typedef enum TSS2_POLICY_PCR_SELECTOR TSS2_POLICY_PCR_SELECTOR;
      |                                       ^~~~~~~~~~~~~~~~~~~~~~~~
/usr/include/tss2/tss2_policy.h:81:10: error: using typedef-name 'TSS2_POLICY_PCR_SELECTOR' after 'enum'
   81 |     enum TSS2_POLICY_PCR_SELECTOR type;
      |          ^~~~~~~~~~~~~~~~~~~~~~~~
/usr/include/tss2/tss2_policy.h:67:39: note: 'TSS2_POLICY_PCR_SELECTOR' has a previous declaration here
   67 | typedef enum TSS2_POLICY_PCR_SELECTOR TSS2_POLICY_PCR_SELECTOR;
      |                                       ^~~~~~~~~~~~~~~~~~~~~~~~
ERROR: some errors occurred when compiling headers
ERROR: see log for details:
  /home/adrien/armhf-time_t/out/logs/libtss2-dev/time_t/abi-compliance-checker.log


Creating library ABI dump ...
Dump path: out/logs/libtss2-dev/libtss2-dev_time_t.dump
