Using GCC 13 (arm-linux-gnueabihf, target: arm)
WARNING: May not work properly with GCC 4.8.[0-2], 6.* and higher due to bug #78040 in GCC. Please try other GCC versions with the help of --gcc-path=PATH option or create ABI dumps by ABI Dumper tool instead to avoid using GCC. Test selected GCC version first by -test option.
Checking header(s) time_t ...
Temporary header file '/tmp/Vdx8uXb5zy/dump1.h' with the following content will be compiled to create GCC translation unit dump:

  // add defines
  #define __STDC_VERSION__ 201710L
#define _TIME_BITS 64
#define _FILE_OFFSET_BITS 64
#define _GXX_NULLPTR_T
#define CLUTTER_ENABLE_COMPOSITOR_API 1
#define _REGEX_NELTS(n)
#define _Atomic
#define PACKED
#ifdef __cplusplus
// C17 compat layer
#define _Alignof(type) alignof(type)
#endif
#define getaddrinfo_a(a,b,c,d)

  // add includes
  #include "/usr/include/gcli/comments.h"
  #include "/usr/include/gcli/curl.h"
  #include "/usr/include/gcli/forks.h"
  #include "/usr/include/gcli/gcli.h"
  #include "/usr/include/gcli/gitlab/snippets.h"
  #include "/usr/include/gcli/issues.h"
  #include "/usr/include/gcli/labels.h"
  #include "/usr/include/gcli/milestones.h"
  #include "/usr/include/gcli/pulls.h"
  #include "/usr/include/gcli/repos.h"
  #include "/usr/include/gcli/sshkeys.h"
  #include "/usr/include/gcli/status.h"

The GCC parameters:
  gcc -fdump-lang-raw -fkeep-inline-functions -c -x c++ -fpermissive -w "/tmp/Vdx8uXb5zy/dump1.h"

In file included from /tmp/Vdx8uXb5zy/dump1.h:18:
/usr/include/gcli/comments.h:42:10: fatal error: sn/sn.h: No such file or directory
   42 | #include <sn/sn.h>
      |          ^~~~~~~~~
compilation terminated.
ERROR: some errors occurred when compiling headers
ERROR: see log for details:
  /home/adrien/armhf-time_t/out/logs/gcli/time_t/abi-compliance-checker.log


ERROR: can't compile header(s)
