[2024-01-07T22:59:17+00:00] apt-get install libnuma-dev abi-compliance-checker
Reading package lists...
Building dependency tree...
Reading state information...
abi-compliance-checker is already the newest version (2.3-2).
The following packages were automatically installed and are no longer required:
  libntru-0.5 libntru-0.5-dev
Use 'apt autoremove' to remove them.
The following NEW packages will be installed:
  libnuma-dev libnuma1
0 upgraded, 2 newly installed, 0 to remove and 35 not upgraded.
Need to get 50.8 kB of archives.
After this operation, 217 kB of additional disk space will be used.
Get:1 http://deb.debian.org/debian unstable/main armhf libnuma1 armhf 2.0.16-1 [17.8 kB]
Get:2 http://deb.debian.org/debian unstable/main armhf libnuma-dev armhf 2.0.16-1 [33.0 kB]
debconf: delaying package configuration, since apt-utils is not installed
Fetched 50.8 kB in 0s (1063 kB/s)
Selecting previously unselected package libnuma1:armhf.
(Reading database ... (Reading database ... 5%(Reading database ... 10%(Reading database ... 15%(Reading database ... 20%(Reading database ... 25%(Reading database ... 30%(Reading database ... 35%(Reading database ... 40%(Reading database ... 45%(Reading database ... 50%(Reading database ... 55%(Reading database ... 60%(Reading database ... 65%(Reading database ... 70%(Reading database ... 75%(Reading database ... 80%(Reading database ... 85%(Reading database ... 90%(Reading database ... 95%(Reading database ... 100%(Reading database ... 14866 files and directories currently installed.)
Preparing to unpack .../libnuma1_2.0.16-1_armhf.deb ...
Unpacking libnuma1:armhf (2.0.16-1) ...
Selecting previously unselected package libnuma-dev:armhf.
Preparing to unpack .../libnuma-dev_2.0.16-1_armhf.deb ...
Unpacking libnuma-dev:armhf (2.0.16-1) ...
Setting up libnuma1:armhf (2.0.16-1) ...
Setting up libnuma-dev:armhf (2.0.16-1) ...
Processing triggers for libc-bin (2.37-13) ...
Reading package lists...
Building dependency tree...
Reading state information...
The following packages will be REMOVED:
  libntru-0.5* libntru-0.5-dev*
0 upgraded, 0 newly installed, 2 to remove and 35 not upgraded.
After this operation, 153 kB disk space will be freed.
(Reading database ... (Reading database ... 5%(Reading database ... 10%(Reading database ... 15%(Reading database ... 20%(Reading database ... 25%(Reading database ... 30%(Reading database ... 35%(Reading database ... 40%(Reading database ... 45%(Reading database ... 50%(Reading database ... 55%(Reading database ... 60%(Reading database ... 65%(Reading database ... 70%(Reading database ... 75%(Reading database ... 80%(Reading database ... 85%(Reading database ... 90%(Reading database ... 95%(Reading database ... 100%(Reading database ... 14914 files and directories currently installed.)
Removing libntru-0.5-dev (0.5-3) ...
Removing libntru-0.5 (0.5-3) ...
Processing triggers for libc-bin (2.37-13) ...
