[2024-01-07T10:52:06+00:00] apt-get install libgtkglext1-dev abi-compliance-checker
Reading package lists...
Building dependency tree...
Reading state information...
abi-compliance-checker is already the newest version (2.3-2).
The following packages were automatically installed and are no longer required:
  libgtkextra-3.0 libgtkextra-dev
Use 'apt autoremove' to remove them.
The following additional packages will be installed:
  libdrm-amdgpu1 libdrm-common libdrm-nouveau2 libdrm-radeon1 libdrm2 libedit2
  libegl-dev libegl-mesa0 libegl1 libgbm1 libgl-dev libgl1 libgl1-mesa-dev
  libgl1-mesa-dri libglapi-mesa libgles-dev libgles1 libgles2 libglu1-mesa
  libglu1-mesa-dev libglvnd-core-dev libglvnd-dev libglvnd0 libglx-dev
  libglx-mesa0 libglx0 libgtkglext1 libllvm17 libopengl-dev libopengl0
  libsensors-config libsensors5 libvulkan1 libwayland-client0
  libwayland-server0 libx11-xcb1 libxcb-dri2-0 libxcb-dri3-0 libxcb-glx0
  libxcb-present0 libxcb-randr0 libxcb-sync1 libxcb-xfixes0 libxmu-dev
  libxmu-headers libxmu6 libxshmfence1 libxt-dev libxt6 libxxf86vm1 libz3-4
Suggested packages:
  lm-sensors libxt-doc
Recommended packages:
  mesa-vulkan-drivers | vulkan-icd
The following NEW packages will be installed:
  libdrm-amdgpu1 libdrm-common libdrm-nouveau2 libdrm-radeon1 libdrm2 libedit2
  libegl-dev libegl-mesa0 libegl1 libgbm1 libgl-dev libgl1 libgl1-mesa-dev
  libgl1-mesa-dri libglapi-mesa libgles-dev libgles1 libgles2 libglu1-mesa
  libglu1-mesa-dev libglvnd-core-dev libglvnd-dev libglvnd0 libglx-dev
  libglx-mesa0 libglx0 libgtkglext1 libgtkglext1-dev libllvm17 libopengl-dev
  libopengl0 libsensors-config libsensors5 libvulkan1 libwayland-client0
  libwayland-server0 libx11-xcb1 libxcb-dri2-0 libxcb-dri3-0 libxcb-glx0
  libxcb-present0 libxcb-randr0 libxcb-sync1 libxcb-xfixes0 libxmu-dev
  libxmu-headers libxmu6 libxshmfence1 libxt-dev libxt6 libxxf86vm1 libz3-4
0 upgraded, 52 newly installed, 0 to remove and 37 not upgraded.
Need to get 38.0 MB of archives.
After this operation, 161 MB of additional disk space will be used.
Get:1 http://deb.debian.org/debian unstable/main armhf libdrm-common all 2.4.117-1 [7264 B]
Get:2 http://deb.debian.org/debian unstable/main armhf libdrm2 armhf 2.4.117-1 [33.1 kB]
Get:3 http://deb.debian.org/debian unstable/main armhf libdrm-amdgpu1 armhf 2.4.117-1 [19.6 kB]
Get:4 http://deb.debian.org/debian unstable/main armhf libdrm-nouveau2 armhf 2.4.117-1 [16.6 kB]
Get:5 http://deb.debian.org/debian unstable/main armhf libdrm-radeon1 armhf 2.4.117-1 [19.1 kB]
Get:6 http://deb.debian.org/debian unstable/main armhf libedit2 armhf 3.1-20230828-1 [76.8 kB]
Get:7 http://deb.debian.org/debian unstable/main armhf libglvnd0 armhf 1.7.0-1 [52.3 kB]
Get:8 http://deb.debian.org/debian unstable/main armhf libwayland-server0 armhf 1.22.0-2.1 [26.1 kB]
Get:9 http://deb.debian.org/debian unstable/main armhf libxcb-randr0 armhf 1.15-1 [116 kB]
Get:10 http://deb.debian.org/debian unstable/main armhf libgbm1 armhf 23.3.2-2 [36.4 kB]
Get:11 http://deb.debian.org/debian unstable/main armhf libglapi-mesa armhf 23.3.2-2 [42.3 kB]
Get:12 http://deb.debian.org/debian unstable/main armhf libwayland-client0 armhf 1.22.0-2.1 [20.0 kB]
Get:13 http://deb.debian.org/debian unstable/main armhf libx11-xcb1 armhf 2:1.8.7-1 [231 kB]
Get:14 http://deb.debian.org/debian unstable/main armhf libxcb-dri2-0 armhf 1.15-1 [107 kB]
Get:15 http://deb.debian.org/debian unstable/main armhf libxcb-dri3-0 armhf 1.15-1 [107 kB]
Get:16 http://deb.debian.org/debian unstable/main armhf libxcb-present0 armhf 1.15-1 [105 kB]
Get:17 http://deb.debian.org/debian unstable/main armhf libxcb-sync1 armhf 1.15-1 [108 kB]
Get:18 http://deb.debian.org/debian unstable/main armhf libxcb-xfixes0 armhf 1.15-1 [110 kB]
Get:19 http://deb.debian.org/debian unstable/main armhf libxshmfence1 armhf 1.3-1 [8592 B]
Get:20 http://deb.debian.org/debian unstable/main armhf libegl-mesa0 armhf 23.3.2-2 [97.7 kB]
Get:21 http://deb.debian.org/debian unstable/main armhf libegl1 armhf 1.7.0-1 [28.7 kB]
Get:22 http://deb.debian.org/debian unstable/main armhf libxcb-glx0 armhf 1.15-1 [120 kB]
Get:23 http://deb.debian.org/debian unstable/main armhf libxxf86vm1 armhf 1:1.1.4-1+b2 [20.2 kB]
Get:24 http://deb.debian.org/debian unstable/main armhf libvulkan1 armhf 1.3.268.0-1 [107 kB]
Get:25 http://deb.debian.org/debian unstable/main armhf libz3-4 armhf 4.8.12-3.1+b2 [6324 kB]
Get:26 http://deb.debian.org/debian unstable/main armhf libllvm17 armhf 1:17.0.6-3 [21.6 MB]
Get:27 http://deb.debian.org/debian unstable/main armhf libsensors-config all 1:3.6.0-8 [14.4 kB]
Get:28 http://deb.debian.org/debian unstable/main armhf libsensors5 armhf 1:3.6.0-8 [31.6 kB]
Get:29 http://deb.debian.org/debian unstable/main armhf libgl1-mesa-dri armhf 23.3.2-2 [6398 kB]
Get:30 http://deb.debian.org/debian unstable/main armhf libglx-mesa0 armhf 23.3.2-2 [129 kB]
Get:31 http://deb.debian.org/debian unstable/main armhf libglx0 armhf 1.7.0-1 [32.2 kB]
Get:32 http://deb.debian.org/debian unstable/main armhf libgl1 armhf 1.7.0-1 [90.8 kB]
Get:33 http://deb.debian.org/debian unstable/main armhf libglx-dev armhf 1.7.0-1 [15.5 kB]
Get:34 http://deb.debian.org/debian unstable/main armhf libgl-dev armhf 1.7.0-1 [100 kB]
Get:35 http://deb.debian.org/debian unstable/main armhf libegl-dev armhf 1.7.0-1 [19.2 kB]
Get:36 http://deb.debian.org/debian unstable/main armhf libglvnd-core-dev armhf 1.7.0-1 [13.1 kB]
Get:37 http://deb.debian.org/debian unstable/main armhf libgles1 armhf 1.7.0-1 [12.0 kB]
Get:38 http://deb.debian.org/debian unstable/main armhf libgles2 armhf 1.7.0-1 [17.4 kB]
Get:39 http://deb.debian.org/debian unstable/main armhf libgles-dev armhf 1.7.0-1 [50.5 kB]
Get:40 http://deb.debian.org/debian unstable/main armhf libopengl0 armhf 1.7.0-1 [31.9 kB]
Get:41 http://deb.debian.org/debian unstable/main armhf libopengl-dev armhf 1.7.0-1 [5104 B]
Get:42 http://deb.debian.org/debian unstable/main armhf libglvnd-dev armhf 1.7.0-1 [4868 B]
Get:43 http://deb.debian.org/debian unstable/main armhf libgl1-mesa-dev armhf 23.3.2-2 [16.2 kB]
Get:44 http://deb.debian.org/debian unstable/main armhf libglu1-mesa armhf 9.0.2-1.1 [137 kB]
Get:45 http://deb.debian.org/debian unstable/main armhf libglu1-mesa-dev armhf 9.0.2-1.1 [177 kB]
Get:46 http://deb.debian.org/debian unstable/main armhf libxt6 armhf 1:1.2.1-1.1 [157 kB]
Get:47 http://deb.debian.org/debian unstable/main armhf libxmu6 armhf 2:1.1.3-3 [52.6 kB]
Get:48 http://deb.debian.org/debian unstable/main armhf libgtkglext1 armhf 1.2.0-11 [81.6 kB]
Get:49 http://deb.debian.org/debian unstable/main armhf libxt-dev armhf 1:1.2.1-1.1 [384 kB]
Get:50 http://deb.debian.org/debian unstable/main armhf libxmu-headers all 2:1.1.3-3 [68.5 kB]
Get:51 http://deb.debian.org/debian unstable/main armhf libxmu-dev armhf 2:1.1.3-3 [59.1 kB]
Get:52 http://deb.debian.org/debian unstable/main armhf libgtkglext1-dev armhf 1.2.0-11 [384 kB]
debconf: delaying package configuration, since apt-utils is not installed
Fetched 38.0 MB in 1s (25.9 MB/s)
Selecting previously unselected package libdrm-common.
(Reading database ... (Reading database ... 5%(Reading database ... 10%(Reading database ... 15%(Reading database ... 20%(Reading database ... 25%(Reading database ... 30%(Reading database ... 35%(Reading database ... 40%(Reading database ... 45%(Reading database ... 50%(Reading database ... 55%(Reading database ... 60%(Reading database ... 65%(Reading database ... 70%(Reading database ... 75%(Reading database ... 80%(Reading database ... 85%(Reading database ... 90%(Reading database ... 95%(Reading database ... 100%(Reading database ... 21254 files and directories currently installed.)
Preparing to unpack .../00-libdrm-common_2.4.117-1_all.deb ...
Unpacking libdrm-common (2.4.117-1) ...
Selecting previously unselected package libdrm2:armhf.
Preparing to unpack .../01-libdrm2_2.4.117-1_armhf.deb ...
Unpacking libdrm2:armhf (2.4.117-1) ...
Selecting previously unselected package libdrm-amdgpu1:armhf.
Preparing to unpack .../02-libdrm-amdgpu1_2.4.117-1_armhf.deb ...
Unpacking libdrm-amdgpu1:armhf (2.4.117-1) ...
Selecting previously unselected package libdrm-nouveau2:armhf.
Preparing to unpack .../03-libdrm-nouveau2_2.4.117-1_armhf.deb ...
Unpacking libdrm-nouveau2:armhf (2.4.117-1) ...
Selecting previously unselected package libdrm-radeon1:armhf.
Preparing to unpack .../04-libdrm-radeon1_2.4.117-1_armhf.deb ...
Unpacking libdrm-radeon1:armhf (2.4.117-1) ...
Selecting previously unselected package libedit2:armhf.
Preparing to unpack .../05-libedit2_3.1-20230828-1_armhf.deb ...
Unpacking libedit2:armhf (3.1-20230828-1) ...
Selecting previously unselected package libglvnd0:armhf.
Preparing to unpack .../06-libglvnd0_1.7.0-1_armhf.deb ...
Unpacking libglvnd0:armhf (1.7.0-1) ...
Selecting previously unselected package libwayland-server0:armhf.
Preparing to unpack .../07-libwayland-server0_1.22.0-2.1_armhf.deb ...
Unpacking libwayland-server0:armhf (1.22.0-2.1) ...
Selecting previously unselected package libxcb-randr0:armhf.
Preparing to unpack .../08-libxcb-randr0_1.15-1_armhf.deb ...
Unpacking libxcb-randr0:armhf (1.15-1) ...
Selecting previously unselected package libgbm1:armhf.
Preparing to unpack .../09-libgbm1_23.3.2-2_armhf.deb ...
Unpacking libgbm1:armhf (23.3.2-2) ...
Selecting previously unselected package libglapi-mesa:armhf.
Preparing to unpack .../10-libglapi-mesa_23.3.2-2_armhf.deb ...
Unpacking libglapi-mesa:armhf (23.3.2-2) ...
Selecting previously unselected package libwayland-client0:armhf.
Preparing to unpack .../11-libwayland-client0_1.22.0-2.1_armhf.deb ...
Unpacking libwayland-client0:armhf (1.22.0-2.1) ...
Selecting previously unselected package libx11-xcb1:armhf.
Preparing to unpack .../12-libx11-xcb1_2%3a1.8.7-1_armhf.deb ...
Unpacking libx11-xcb1:armhf (2:1.8.7-1) ...
Selecting previously unselected package libxcb-dri2-0:armhf.
Preparing to unpack .../13-libxcb-dri2-0_1.15-1_armhf.deb ...
Unpacking libxcb-dri2-0:armhf (1.15-1) ...
Selecting previously unselected package libxcb-dri3-0:armhf.
Preparing to unpack .../14-libxcb-dri3-0_1.15-1_armhf.deb ...
Unpacking libxcb-dri3-0:armhf (1.15-1) ...
Selecting previously unselected package libxcb-present0:armhf.
Preparing to unpack .../15-libxcb-present0_1.15-1_armhf.deb ...
Unpacking libxcb-present0:armhf (1.15-1) ...
Selecting previously unselected package libxcb-sync1:armhf.
Preparing to unpack .../16-libxcb-sync1_1.15-1_armhf.deb ...
Unpacking libxcb-sync1:armhf (1.15-1) ...
Selecting previously unselected package libxcb-xfixes0:armhf.
Preparing to unpack .../17-libxcb-xfixes0_1.15-1_armhf.deb ...
Unpacking libxcb-xfixes0:armhf (1.15-1) ...
Selecting previously unselected package libxshmfence1:armhf.
Preparing to unpack .../18-libxshmfence1_1.3-1_armhf.deb ...
Unpacking libxshmfence1:armhf (1.3-1) ...
Selecting previously unselected package libegl-mesa0:armhf.
Preparing to unpack .../19-libegl-mesa0_23.3.2-2_armhf.deb ...
Unpacking libegl-mesa0:armhf (23.3.2-2) ...
Selecting previously unselected package libegl1:armhf.
Preparing to unpack .../20-libegl1_1.7.0-1_armhf.deb ...
Unpacking libegl1:armhf (1.7.0-1) ...
Selecting previously unselected package libxcb-glx0:armhf.
Preparing to unpack .../21-libxcb-glx0_1.15-1_armhf.deb ...
Unpacking libxcb-glx0:armhf (1.15-1) ...
Selecting previously unselected package libxxf86vm1:armhf.
Preparing to unpack .../22-libxxf86vm1_1%3a1.1.4-1+b2_armhf.deb ...
Unpacking libxxf86vm1:armhf (1:1.1.4-1+b2) ...
Selecting previously unselected package libvulkan1:armhf.
Preparing to unpack .../23-libvulkan1_1.3.268.0-1_armhf.deb ...
Unpacking libvulkan1:armhf (1.3.268.0-1) ...
Selecting previously unselected package libz3-4:armhf.
Preparing to unpack .../24-libz3-4_4.8.12-3.1+b2_armhf.deb ...
Unpacking libz3-4:armhf (4.8.12-3.1+b2) ...
Selecting previously unselected package libllvm17:armhf.
Preparing to unpack .../25-libllvm17_1%3a17.0.6-3_armhf.deb ...
Unpacking libllvm17:armhf (1:17.0.6-3) ...
Selecting previously unselected package libsensors-config.
Preparing to unpack .../26-libsensors-config_1%3a3.6.0-8_all.deb ...
Unpacking libsensors-config (1:3.6.0-8) ...
Selecting previously unselected package libsensors5:armhf.
Preparing to unpack .../27-libsensors5_1%3a3.6.0-8_armhf.deb ...
Unpacking libsensors5:armhf (1:3.6.0-8) ...
Selecting previously unselected package libgl1-mesa-dri:armhf.
Preparing to unpack .../28-libgl1-mesa-dri_23.3.2-2_armhf.deb ...
Unpacking libgl1-mesa-dri:armhf (23.3.2-2) ...
Selecting previously unselected package libglx-mesa0:armhf.
Preparing to unpack .../29-libglx-mesa0_23.3.2-2_armhf.deb ...
Unpacking libglx-mesa0:armhf (23.3.2-2) ...
Selecting previously unselected package libglx0:armhf.
Preparing to unpack .../30-libglx0_1.7.0-1_armhf.deb ...
Unpacking libglx0:armhf (1.7.0-1) ...
Selecting previously unselected package libgl1:armhf.
Preparing to unpack .../31-libgl1_1.7.0-1_armhf.deb ...
Unpacking libgl1:armhf (1.7.0-1) ...
Selecting previously unselected package libglx-dev:armhf.
Preparing to unpack .../32-libglx-dev_1.7.0-1_armhf.deb ...
Unpacking libglx-dev:armhf (1.7.0-1) ...
Selecting previously unselected package libgl-dev:armhf.
Preparing to unpack .../33-libgl-dev_1.7.0-1_armhf.deb ...
Unpacking libgl-dev:armhf (1.7.0-1) ...
Selecting previously unselected package libegl-dev:armhf.
Preparing to unpack .../34-libegl-dev_1.7.0-1_armhf.deb ...
Unpacking libegl-dev:armhf (1.7.0-1) ...
Selecting previously unselected package libglvnd-core-dev:armhf.
Preparing to unpack .../35-libglvnd-core-dev_1.7.0-1_armhf.deb ...
Unpacking libglvnd-core-dev:armhf (1.7.0-1) ...
Selecting previously unselected package libgles1:armhf.
Preparing to unpack .../36-libgles1_1.7.0-1_armhf.deb ...
Unpacking libgles1:armhf (1.7.0-1) ...
Selecting previously unselected package libgles2:armhf.
Preparing to unpack .../37-libgles2_1.7.0-1_armhf.deb ...
Unpacking libgles2:armhf (1.7.0-1) ...
Selecting previously unselected package libgles-dev:armhf.
Preparing to unpack .../38-libgles-dev_1.7.0-1_armhf.deb ...
Unpacking libgles-dev:armhf (1.7.0-1) ...
Selecting previously unselected package libopengl0:armhf.
Preparing to unpack .../39-libopengl0_1.7.0-1_armhf.deb ...
Unpacking libopengl0:armhf (1.7.0-1) ...
Selecting previously unselected package libopengl-dev:armhf.
Preparing to unpack .../40-libopengl-dev_1.7.0-1_armhf.deb ...
Unpacking libopengl-dev:armhf (1.7.0-1) ...
Selecting previously unselected package libglvnd-dev:armhf.
Preparing to unpack .../41-libglvnd-dev_1.7.0-1_armhf.deb ...
Unpacking libglvnd-dev:armhf (1.7.0-1) ...
Selecting previously unselected package libgl1-mesa-dev:armhf.
Preparing to unpack .../42-libgl1-mesa-dev_23.3.2-2_armhf.deb ...
Unpacking libgl1-mesa-dev:armhf (23.3.2-2) ...
Selecting previously unselected package libglu1-mesa:armhf.
Preparing to unpack .../43-libglu1-mesa_9.0.2-1.1_armhf.deb ...
Unpacking libglu1-mesa:armhf (9.0.2-1.1) ...
Selecting previously unselected package libglu1-mesa-dev:armhf.
Preparing to unpack .../44-libglu1-mesa-dev_9.0.2-1.1_armhf.deb ...
Unpacking libglu1-mesa-dev:armhf (9.0.2-1.1) ...
Selecting previously unselected package libxt6:armhf.
Preparing to unpack .../45-libxt6_1%3a1.2.1-1.1_armhf.deb ...
Unpacking libxt6:armhf (1:1.2.1-1.1) ...
Selecting previously unselected package libxmu6:armhf.
Preparing to unpack .../46-libxmu6_2%3a1.1.3-3_armhf.deb ...
Unpacking libxmu6:armhf (2:1.1.3-3) ...
Selecting previously unselected package libgtkglext1:armhf.
Preparing to unpack .../47-libgtkglext1_1.2.0-11_armhf.deb ...
Unpacking libgtkglext1:armhf (1.2.0-11) ...
Selecting previously unselected package libxt-dev:armhf.
Preparing to unpack .../48-libxt-dev_1%3a1.2.1-1.1_armhf.deb ...
Unpacking libxt-dev:armhf (1:1.2.1-1.1) ...
Selecting previously unselected package libxmu-headers.
Preparing to unpack .../49-libxmu-headers_2%3a1.1.3-3_all.deb ...
Unpacking libxmu-headers (2:1.1.3-3) ...
Selecting previously unselected package libxmu-dev:armhf.
Preparing to unpack .../50-libxmu-dev_2%3a1.1.3-3_armhf.deb ...
Unpacking libxmu-dev:armhf (2:1.1.3-3) ...
Selecting previously unselected package libgtkglext1-dev:armhf.
Preparing to unpack .../51-libgtkglext1-dev_1.2.0-11_armhf.deb ...
Unpacking libgtkglext1-dev:armhf (1.2.0-11) ...
Setting up libxcb-dri3-0:armhf (1.15-1) ...
Setting up libwayland-server0:armhf (1.22.0-2.1) ...
Setting up libx11-xcb1:armhf (2:1.8.7-1) ...
Setting up libxmu-headers (2:1.1.3-3) ...
Setting up libxcb-xfixes0:armhf (1.15-1) ...
Setting up libglvnd-core-dev:armhf (1.7.0-1) ...
Setting up libglvnd0:armhf (1.7.0-1) ...
Setting up libxcb-glx0:armhf (1.15-1) ...
Setting up libedit2:armhf (3.1-20230828-1) ...
Setting up libsensors-config (1:3.6.0-8) ...
Setting up libopengl0:armhf (1.7.0-1) ...
Setting up libxxf86vm1:armhf (1:1.1.4-1+b2) ...
Setting up libxcb-present0:armhf (1.15-1) ...
Setting up libz3-4:armhf (4.8.12-3.1+b2) ...
Setting up libgles2:armhf (1.7.0-1) ...
Setting up libxcb-sync1:armhf (1.15-1) ...
Setting up libgles1:armhf (1.7.0-1) ...
Setting up libsensors5:armhf (1:3.6.0-8) ...
Setting up libxt6:armhf (1:1.2.1-1.1) ...
Setting up libglapi-mesa:armhf (23.3.2-2) ...
Setting up libvulkan1:armhf (1.3.268.0-1) ...
Setting up libxcb-dri2-0:armhf (1.15-1) ...
Setting up libxshmfence1:armhf (1.3-1) ...
Setting up libxcb-randr0:armhf (1.15-1) ...
Setting up libglu1-mesa:armhf (9.0.2-1.1) ...
Setting up libopengl-dev:armhf (1.7.0-1) ...
Setting up libllvm17:armhf (1:17.0.6-3) ...
Setting up libdrm-common (2.4.117-1) ...
Setting up libwayland-client0:armhf (1.22.0-2.1) ...
Setting up libxmu6:armhf (2:1.1.3-3) ...
Setting up libxt-dev:armhf (1:1.2.1-1.1) ...
Setting up libdrm2:armhf (2.4.117-1) ...
Setting up libdrm-amdgpu1:armhf (2.4.117-1) ...
Setting up libdrm-nouveau2:armhf (2.4.117-1) ...
Setting up libgbm1:armhf (23.3.2-2) ...
Setting up libdrm-radeon1:armhf (2.4.117-1) ...
Setting up libgl1-mesa-dri:armhf (23.3.2-2) ...
Setting up libxmu-dev:armhf (2:1.1.3-3) ...
Setting up libegl-mesa0:armhf (23.3.2-2) ...
Setting up libegl1:armhf (1.7.0-1) ...
Setting up libglx-mesa0:armhf (23.3.2-2) ...
Setting up libglx0:armhf (1.7.0-1) ...
Setting up libgl1:armhf (1.7.0-1) ...
Setting up libglx-dev:armhf (1.7.0-1) ...
Setting up libgl-dev:armhf (1.7.0-1) ...
Setting up libegl-dev:armhf (1.7.0-1) ...
Setting up libgtkglext1:armhf (1.2.0-11) ...
Setting up libglu1-mesa-dev:armhf (9.0.2-1.1) ...
Setting up libgles-dev:armhf (1.7.0-1) ...
Setting up libgtkglext1-dev:armhf (1.2.0-11) ...
Setting up libglvnd-dev:armhf (1.7.0-1) ...
Setting up libgl1-mesa-dev:armhf (23.3.2-2) ...
Processing triggers for libc-bin (2.37-13) ...
Reading package lists...
Building dependency tree...
Reading state information...
The following packages will be REMOVED:
  libgtkextra-3.0* libgtkextra-dev*
0 upgraded, 0 newly installed, 2 to remove and 37 not upgraded.
After this operation, 1838 kB disk space will be freed.
(Reading database ... (Reading database ... 5%(Reading database ... 10%(Reading database ... 15%(Reading database ... 20%(Reading database ... 25%(Reading database ... 30%(Reading database ... 35%(Reading database ... 40%(Reading database ... 45%(Reading database ... 50%(Reading database ... 55%(Reading database ... 60%(Reading database ... 65%(Reading database ... 70%(Reading database ... 75%(Reading database ... 80%(Reading database ... 85%(Reading database ... 90%(Reading database ... 95%(Reading database ... 100%(Reading database ... 22112 files and directories currently installed.)
Removing libgtkextra-dev (3.3.4-8) ...
Removing libgtkextra-3.0:armhf (3.3.4-8) ...
Processing triggers for libc-bin (2.37-13) ...
