[2024-01-07T18:38:14+00:00] apt-get install libmialm-dev libglib2.0-dev libxml2-dev abi-compliance-checker
Reading package lists...
Building dependency tree...
Reading state information...
abi-compliance-checker is already the newest version (2.3-2).
The following packages were automatically installed and are no longer required:
  fontconfig-config fonts-dejavu-core fonts-dejavu-mono libaec0 libblas-dev
  libblas3 libboost-filesystem1.83.0 libboost-serialization1.83.0
  libboost-test-dev libboost-test1.83-dev libboost-test1.83.0 libboost1.83-dev
  libbrotli1 libcairo2 libcurl3-gnutls libcurl4 libdcmtk17 libdeflate0
  libdouble-conversion3 libdrm-amdgpu1 libdrm-common libdrm-nouveau2
  libdrm-radeon1 libdrm2 libedit2 libevent-core-2.1-7 libevent-pthreads-2.1-7
  libfabric1 libfftw3-bin libfftw3-dev libfftw3-double3 libfftw3-single3
  libfontconfig1 libfreetype6 libgfortran5 libgl1 libgl1-mesa-dri libgl2ps1.4
  libglapi-mesa libglew2.2 libglvnd0 libglx-mesa0 libglx0 libgsl-dev libgsl27
  libgslcblas0 libgts-0.7-5 libhdf5-103-1 libhdf5-hl-100 libhwloc-plugins
  libhwloc15 libibverbs1 libimath-3-1-29 libitpp-dev libitpp8v5 libjbig0
  libjpeg62-turbo libjsoncpp25 liblapack3 liblerc4 libllvm17 libmaxflow0
  libmia-2.4-4 libmia-2.4-dev libmunge2 libnetcdf19 libnghttp2-14 libniftiio2
  libnl-3-200 libnl-route-3-200 libnlopt0 libogg0 libopenexr-3-1-30 libopengl0
  libopenmpi3 libpciaccess0 libpixman-1-0 libpmix2 libpng16-16 libproj25
  libpsl5 librdmacm1 librtmp1 libsensors-config libsensors5 libsharpyuv0
  libssh2-1 libsz2 libtbb12 libtbbbind-2-5 libtbbmalloc2 libtcl8.6 libtheora0
  libtiff6 libtk8.6 libvistaio14 libvtk9.1 libvulkan1 libwebp7 libwrap0
  libx11-6 libx11-data libx11-xcb1 libxau6 libxcb-dri2-0 libxcb-dri3-0
  libxcb-glx0 libxcb-present0 libxcb-randr0 libxcb-render0 libxcb-shm0
  libxcb-sync1 libxcb-xfixes0 libxcb1 libxdmcp6 libxext6 libxfixes3 libxft2
  libxnvctrl0 libxrender1 libxshmfence1 libxslt1.1 libxss1 libxxf86vm1 libz3-4
  libznz3 mia-doctools ocl-icd-libopencl1 proj-data python3-lxml x11-common
Use 'apt autoremove' to remove them.
The following additional packages will be installed:
  icu-devtools libblkid-dev libffi-dev libglib2.0-bin libglib2.0-data
  libglib2.0-dev-bin libicu-dev libmialm3 libmount-dev libpcre2-16-0
  libpcre2-32-0 libpcre2-dev libpcre2-posix3 libpkgconf3 libselinux1-dev
  libsepol-dev pkg-config pkgconf pkgconf-bin python3-distutils
  python3-lib2to3 uuid-dev zlib1g-dev
Suggested packages:
  libgirepository1.0-dev libglib2.0-doc libgdk-pixbuf2.0-bin libxml2-utils
  icu-doc
The following NEW packages will be installed:
  icu-devtools libblkid-dev libffi-dev libglib2.0-bin libglib2.0-data
  libglib2.0-dev libglib2.0-dev-bin libicu-dev libmialm-dev libmialm3
  libmount-dev libpcre2-16-0 libpcre2-32-0 libpcre2-dev libpcre2-posix3
  libpkgconf3 libselinux1-dev libsepol-dev libxml2-dev pkg-config pkgconf
  pkgconf-bin python3-distutils python3-lib2to3 uuid-dev zlib1g-dev
0 upgraded, 26 newly installed, 0 to remove and 27 not upgraded.
Need to get 17.2 MB of archives.
After this operation, 74.7 MB of additional disk space will be used.
Get:1 http://deb.debian.org/debian unstable/main armhf icu-devtools armhf 72.1-4 [184 kB]
Get:2 http://deb.debian.org/debian unstable/main armhf uuid-dev armhf 2.39.3-6 [39.6 kB]
Get:3 http://deb.debian.org/debian unstable/main armhf libblkid-dev armhf 2.39.3-6 [186 kB]
Get:4 http://deb.debian.org/debian unstable/main armhf libffi-dev armhf 3.4.4-2 [55.7 kB]
Get:5 http://deb.debian.org/debian unstable/main armhf libglib2.0-data all 2.78.3-1 [1223 kB]
Get:6 http://deb.debian.org/debian unstable/main armhf libglib2.0-bin armhf 2.78.3-1 [108 kB]
Get:7 http://deb.debian.org/debian unstable/main armhf python3-lib2to3 all 3.11.5-1 [77.5 kB]
Get:8 http://deb.debian.org/debian unstable/main armhf python3-distutils all 3.11.5-1 [131 kB]
Get:9 http://deb.debian.org/debian unstable/main armhf libglib2.0-dev-bin armhf 2.78.3-1 [154 kB]
Get:10 http://deb.debian.org/debian unstable/main armhf libsepol-dev armhf 3.5-2 [319 kB]
Get:11 http://deb.debian.org/debian unstable/main armhf libpcre2-16-0 armhf 10.42-4 [211 kB]
Get:12 http://deb.debian.org/debian unstable/main armhf libpcre2-32-0 armhf 10.42-4 [202 kB]
Get:13 http://deb.debian.org/debian unstable/main armhf libpcre2-posix3 armhf 10.42-4 [55.0 kB]
Get:14 http://deb.debian.org/debian unstable/main armhf libpcre2-dev armhf 10.42-4 [668 kB]
Get:15 http://deb.debian.org/debian unstable/main armhf libselinux1-dev armhf 3.5-1+b2 [151 kB]
Get:16 http://deb.debian.org/debian unstable/main armhf libmount-dev armhf 2.39.3-6 [23.6 kB]
Get:17 http://deb.debian.org/debian unstable/main armhf libpkgconf3 armhf 1.8.1-1+b2 [31.9 kB]
Get:18 http://deb.debian.org/debian unstable/main armhf pkgconf-bin armhf 1.8.1-1+b2 [28.9 kB]
Get:19 http://deb.debian.org/debian unstable/main armhf pkgconf armhf 1.8.1-1+b2 [26.2 kB]
Get:20 http://deb.debian.org/debian unstable/main armhf pkg-config armhf 1.8.1-1+b2 [14.0 kB]
Get:21 http://deb.debian.org/debian unstable/main armhf zlib1g-dev armhf 1:1.3.dfsg-3 [904 kB]
Get:22 http://deb.debian.org/debian unstable/main armhf libglib2.0-dev armhf 2.78.3-1 [1526 kB]
Get:23 http://deb.debian.org/debian unstable/main armhf libicu-dev armhf 72.1-4 [10.1 MB]
Get:24 http://deb.debian.org/debian unstable/main armhf libmialm3 armhf 1.0.9-3 [16.0 kB]
Get:25 http://deb.debian.org/debian unstable/main armhf libmialm-dev armhf 1.0.9-3 [23.4 kB]
Get:26 http://deb.debian.org/debian unstable/main armhf libxml2-dev armhf 2.9.14+dfsg-1.3+b2 [717 kB]
debconf: delaying package configuration, since apt-utils is not installed
Fetched 17.2 MB in 1s (20.1 MB/s)
Selecting previously unselected package icu-devtools.
(Reading database ... (Reading database ... 5%(Reading database ... 10%(Reading database ... 15%(Reading database ... 20%(Reading database ... 25%(Reading database ... 30%(Reading database ... 35%(Reading database ... 40%(Reading database ... 45%(Reading database ... 50%(Reading database ... 55%(Reading database ... 60%(Reading database ... 65%(Reading database ... 70%(Reading database ... 75%(Reading database ... 80%(Reading database ... 85%(Reading database ... 90%(Reading database ... 95%(Reading database ... 100%(Reading database ... 36316 files and directories currently installed.)
Preparing to unpack .../00-icu-devtools_72.1-4_armhf.deb ...
Unpacking icu-devtools (72.1-4) ...
Selecting previously unselected package uuid-dev:armhf.
Preparing to unpack .../01-uuid-dev_2.39.3-6_armhf.deb ...
Unpacking uuid-dev:armhf (2.39.3-6) ...
Selecting previously unselected package libblkid-dev:armhf.
Preparing to unpack .../02-libblkid-dev_2.39.3-6_armhf.deb ...
Unpacking libblkid-dev:armhf (2.39.3-6) ...
Selecting previously unselected package libffi-dev:armhf.
Preparing to unpack .../03-libffi-dev_3.4.4-2_armhf.deb ...
Unpacking libffi-dev:armhf (3.4.4-2) ...
Selecting previously unselected package libglib2.0-data.
Preparing to unpack .../04-libglib2.0-data_2.78.3-1_all.deb ...
Unpacking libglib2.0-data (2.78.3-1) ...
Selecting previously unselected package libglib2.0-bin.
Preparing to unpack .../05-libglib2.0-bin_2.78.3-1_armhf.deb ...
Unpacking libglib2.0-bin (2.78.3-1) ...
Selecting previously unselected package python3-lib2to3.
Preparing to unpack .../06-python3-lib2to3_3.11.5-1_all.deb ...
Unpacking python3-lib2to3 (3.11.5-1) ...
Selecting previously unselected package python3-distutils.
Preparing to unpack .../07-python3-distutils_3.11.5-1_all.deb ...
Unpacking python3-distutils (3.11.5-1) ...
Selecting previously unselected package libglib2.0-dev-bin.
Preparing to unpack .../08-libglib2.0-dev-bin_2.78.3-1_armhf.deb ...
Unpacking libglib2.0-dev-bin (2.78.3-1) ...
Selecting previously unselected package libsepol-dev:armhf.
Preparing to unpack .../09-libsepol-dev_3.5-2_armhf.deb ...
Unpacking libsepol-dev:armhf (3.5-2) ...
Selecting previously unselected package libpcre2-16-0:armhf.
Preparing to unpack .../10-libpcre2-16-0_10.42-4_armhf.deb ...
Unpacking libpcre2-16-0:armhf (10.42-4) ...
Selecting previously unselected package libpcre2-32-0:armhf.
Preparing to unpack .../11-libpcre2-32-0_10.42-4_armhf.deb ...
Unpacking libpcre2-32-0:armhf (10.42-4) ...
Selecting previously unselected package libpcre2-posix3:armhf.
Preparing to unpack .../12-libpcre2-posix3_10.42-4_armhf.deb ...
Unpacking libpcre2-posix3:armhf (10.42-4) ...
Selecting previously unselected package libpcre2-dev:armhf.
Preparing to unpack .../13-libpcre2-dev_10.42-4_armhf.deb ...
Unpacking libpcre2-dev:armhf (10.42-4) ...
Selecting previously unselected package libselinux1-dev:armhf.
Preparing to unpack .../14-libselinux1-dev_3.5-1+b2_armhf.deb ...
Unpacking libselinux1-dev:armhf (3.5-1+b2) ...
Selecting previously unselected package libmount-dev:armhf.
Preparing to unpack .../15-libmount-dev_2.39.3-6_armhf.deb ...
Unpacking libmount-dev:armhf (2.39.3-6) ...
Selecting previously unselected package libpkgconf3:armhf.
Preparing to unpack .../16-libpkgconf3_1.8.1-1+b2_armhf.deb ...
Unpacking libpkgconf3:armhf (1.8.1-1+b2) ...
Selecting previously unselected package pkgconf-bin.
Preparing to unpack .../17-pkgconf-bin_1.8.1-1+b2_armhf.deb ...
Unpacking pkgconf-bin (1.8.1-1+b2) ...
Selecting previously unselected package pkgconf:armhf.
Preparing to unpack .../18-pkgconf_1.8.1-1+b2_armhf.deb ...
Unpacking pkgconf:armhf (1.8.1-1+b2) ...
Selecting previously unselected package pkg-config:armhf.
Preparing to unpack .../19-pkg-config_1.8.1-1+b2_armhf.deb ...
Unpacking pkg-config:armhf (1.8.1-1+b2) ...
Selecting previously unselected package zlib1g-dev:armhf.
Preparing to unpack .../20-zlib1g-dev_1%3a1.3.dfsg-3_armhf.deb ...
Unpacking zlib1g-dev:armhf (1:1.3.dfsg-3) ...
Selecting previously unselected package libglib2.0-dev:armhf.
Preparing to unpack .../21-libglib2.0-dev_2.78.3-1_armhf.deb ...
Unpacking libglib2.0-dev:armhf (2.78.3-1) ...
Selecting previously unselected package libicu-dev:armhf.
Preparing to unpack .../22-libicu-dev_72.1-4_armhf.deb ...
Unpacking libicu-dev:armhf (72.1-4) ...
Selecting previously unselected package libmialm3:armhf.
Preparing to unpack .../23-libmialm3_1.0.9-3_armhf.deb ...
Unpacking libmialm3:armhf (1.0.9-3) ...
Selecting previously unselected package libmialm-dev.
Preparing to unpack .../24-libmialm-dev_1.0.9-3_armhf.deb ...
Unpacking libmialm-dev (1.0.9-3) ...
Selecting previously unselected package libxml2-dev:armhf.
Preparing to unpack .../25-libxml2-dev_2.9.14+dfsg-1.3+b2_armhf.deb ...
Unpacking libxml2-dev:armhf (2.9.14+dfsg-1.3+b2) ...
Setting up libffi-dev:armhf (3.4.4-2) ...
Setting up libpcre2-16-0:armhf (10.42-4) ...
Setting up libpcre2-32-0:armhf (10.42-4) ...
Setting up libglib2.0-data (2.78.3-1) ...
Setting up libpkgconf3:armhf (1.8.1-1+b2) ...
Setting up uuid-dev:armhf (2.39.3-6) ...
Setting up icu-devtools (72.1-4) ...
Setting up libsepol-dev:armhf (3.5-2) ...
Setting up pkgconf-bin (1.8.1-1+b2) ...
Setting up zlib1g-dev:armhf (1:1.3.dfsg-3) ...
Setting up libpcre2-posix3:armhf (10.42-4) ...
Setting up libmialm3:armhf (1.0.9-3) ...
Setting up python3-lib2to3 (3.11.5-1) ...
Setting up libicu-dev:armhf (72.1-4) ...
Setting up python3-distutils (3.11.5-1) ...
Setting up libglib2.0-dev-bin (2.78.3-1) ...
Setting up libblkid-dev:armhf (2.39.3-6) ...
Setting up libpcre2-dev:armhf (10.42-4) ...
Setting up libselinux1-dev:armhf (3.5-1+b2) ...
Setting up libglib2.0-bin (2.78.3-1) ...
Setting up pkgconf:armhf (1.8.1-1+b2) ...
Setting up libxml2-dev:armhf (2.9.14+dfsg-1.3+b2) ...
Setting up libmialm-dev (1.0.9-3) ...
Setting up pkg-config:armhf (1.8.1-1+b2) ...
Setting up libmount-dev:armhf (2.39.3-6) ...
Setting up libglib2.0-dev:armhf (2.78.3-1) ...
Processing triggers for libglib2.0-0:armhf (2.78.3-1) ...
No schema files found: doing nothing.
Processing triggers for libc-bin (2.37-13) ...
Processing triggers for install-info (7.1-2) ...
Reading package lists...
Building dependency tree...
Reading state information...
The following packages will be REMOVED:
  fontconfig-config* fonts-dejavu-core* fonts-dejavu-mono* libaec0*
  libblas-dev* libblas3* libboost-filesystem1.83.0*
  libboost-serialization1.83.0* libboost-test-dev* libboost-test1.83-dev*
  libboost-test1.83.0* libboost1.83-dev* libbrotli1* libcairo2*
  libcurl3-gnutls* libcurl4* libdcmtk17* libdeflate0* libdouble-conversion3*
  libdrm-amdgpu1* libdrm-common* libdrm-nouveau2* libdrm-radeon1* libdrm2*
  libedit2* libevent-core-2.1-7* libevent-pthreads-2.1-7* libfabric1*
  libfftw3-bin* libfftw3-dev* libfftw3-double3* libfftw3-single3*
  libfontconfig1* libfreetype6* libgfortran5* libgl1* libgl1-mesa-dri*
  libgl2ps1.4* libglapi-mesa* libglew2.2* libglvnd0* libglx-mesa0* libglx0*
  libgsl-dev* libgsl27* libgslcblas0* libgts-0.7-5* libhdf5-103-1*
  libhdf5-hl-100* libhwloc-plugins* libhwloc15* libibverbs1* libimath-3-1-29*
  libitpp-dev* libitpp8v5* libjbig0* libjpeg62-turbo* libjsoncpp25*
  liblapack3* liblerc4* libllvm17* libmaxflow0* libmia-2.4-4* libmia-2.4-dev*
  libmunge2* libnetcdf19* libnghttp2-14* libniftiio2* libnl-3-200*
  libnl-route-3-200* libnlopt0* libogg0* libopenexr-3-1-30* libopengl0*
  libopenmpi3* libpciaccess0* libpixman-1-0* libpmix2* libpng16-16* libproj25*
  libpsl5* librdmacm1* librtmp1* libsensors-config* libsensors5* libsharpyuv0*
  libssh2-1* libsz2* libtbb12* libtbbbind-2-5* libtbbmalloc2* libtcl8.6*
  libtheora0* libtiff6* libtk8.6* libvistaio14* libvtk9.1* libvulkan1*
  libwebp7* libwrap0* libx11-6* libx11-data* libx11-xcb1* libxau6*
  libxcb-dri2-0* libxcb-dri3-0* libxcb-glx0* libxcb-present0* libxcb-randr0*
  libxcb-render0* libxcb-shm0* libxcb-sync1* libxcb-xfixes0* libxcb1*
  libxdmcp6* libxext6* libxfixes3* libxft2* libxnvctrl0* libxrender1*
  libxshmfence1* libxslt1.1* libxss1* libxxf86vm1* libz3-4* libznz3*
  mia-doctools* ocl-icd-libopencl1* proj-data* python3-lxml* x11-common*
0 upgraded, 0 newly installed, 131 to remove and 27 not upgraded.
After this operation, 542 MB disk space will be freed.
(Reading database ... (Reading database ... 5%(Reading database ... 10%(Reading database ... 15%(Reading database ... 20%(Reading database ... 25%(Reading database ... 30%(Reading database ... 35%(Reading database ... 40%(Reading database ... 45%(Reading database ... 50%(Reading database ... 55%(Reading database ... 60%(Reading database ... 65%(Reading database ... 70%(Reading database ... 75%(Reading database ... 80%(Reading database ... 85%(Reading database ... 90%(Reading database ... 95%(Reading database ... 100%(Reading database ... 37958 files and directories currently installed.)
Removing libmia-2.4-dev (2.4.7-13+b1) ...
Removing libmia-2.4-4 (2.4.7-13+b1) ...
Removing libvtk9.1:armhf (9.1.0+really9.1.0+dfsg2-7) ...
Removing libtk8.6:armhf (8.6.13-2) ...
Removing libxft2:armhf (2.3.6-1) ...
Removing libtheora0:armhf (1.1.1+dfsg.1-16.1+b1) ...
Removing libcairo2:armhf (1.18.0-1+b1) ...
Removing libfontconfig1:armhf (2.14.2-6+b1) ...
Removing fontconfig-config (2.14.2-6+b1) ...
Removing fonts-dejavu-core (2.37-8) ...
Removing fonts-dejavu-mono (2.37-8) ...
Removing libnetcdf19:armhf (1:4.9.2-3) ...
Removing libhdf5-hl-100:armhf (1.10.10+repack-3) ...
Removing libhdf5-103-1:armhf (1.10.10+repack-3) ...
Removing libsz2:armhf (1.1.2-1) ...
Removing libaec0:armhf (1.1.2-1) ...
Removing libblas-dev:armhf (3.11.0-2) ...
Removing libitpp-dev (4.3.1-10) ...
Removing libitpp8v5:armhf (4.3.1-10) ...
Removing liblapack3:armhf (3.11.0-2) ...
Removing libblas3:armhf (3.11.0-2) ...
Removing libboost-filesystem1.83.0:armhf (1.83.0-2+b2) ...
Removing libboost-serialization1.83.0:armhf (1.83.0-2+b2) ...
Removing libboost-test-dev:armhf (1.83.0.2) ...
Removing libboost-test1.83-dev:armhf (1.83.0-2+b2) ...
Removing libboost-test1.83.0:armhf (1.83.0-2+b2) ...
Removing libboost1.83-dev:armhf (1.83.0-2+b2) ...
Removing libfreetype6:armhf (2.13.2+dfsg-1+b1) ...
Removing libcurl4:armhf (8.5.0-2) ...
Removing libproj25:armhf (9.3.1-1) ...
Removing libcurl3-gnutls:armhf (8.5.0-2) ...
Removing libdcmtk17:armhf (3.6.7-9+b1) ...
Removing libtiff6:armhf (4.5.1+git230720-3) ...
Removing libdeflate0:armhf (1.18-1) ...
Removing libdouble-conversion3:armhf (3.3.0-1+b1) ...
Removing libglew2.2:armhf (2.2.0-4+b1) ...
Removing libgl2ps1.4 (1.4.2+dfsg1-2) ...
Removing libgl1:armhf (1.7.0-1) ...
Removing libglx0:armhf (1.7.0-1) ...
Removing libglx-mesa0:armhf (23.3.2-2) ...
Removing libgl1-mesa-dri:armhf (23.3.2-2) ...
Removing libdrm-amdgpu1:armhf (2.4.117-1) ...
Removing libdrm-radeon1:armhf (2.4.117-1) ...
Removing libdrm-nouveau2:armhf (2.4.117-1) ...
Removing libdrm2:armhf (2.4.117-1) ...
Removing libdrm-common (2.4.117-1) ...
Removing libllvm17:armhf (1:17.0.6-3) ...
Removing libedit2:armhf (3.1-20230828-1) ...
Removing libopenmpi3:armhf (4.1.6-5) ...
Removing libpmix2:armhf (5.0.1-4) ...
Removing libevent-pthreads-2.1-7:armhf (2.1.12-stable-8) ...
Removing libevent-core-2.1-7:armhf (2.1.12-stable-8) ...
Removing libfabric1:armhf (1.17.0-3) ...
Removing libfftw3-dev:armhf (3.3.10-1) ...
Removing libfftw3-bin (3.3.10-1) ...
Removing libfftw3-double3:armhf (3.3.10-1) ...
Removing libfftw3-single3:armhf (3.3.10-1) ...
Removing libgfortran5:armhf (13.2.0-9) ...
Removing libglapi-mesa:armhf (23.3.2-2) ...
Removing libopengl0:armhf (1.7.0-1) ...
Removing libglvnd0:armhf (1.7.0-1) ...
Removing libgsl-dev (2.7.1+dfsg-6) ...
Removing libgsl27:armhf (2.7.1+dfsg-6) ...
Removing libgslcblas0:armhf (2.7.1+dfsg-6) ...
Removing libgts-0.7-5:armhf (0.7.6+darcs121130-5+b1) ...
Removing libhwloc-plugins:armhf (2.10.0-1) ...
Removing libtbb12:armhf (2021.11.0-2) ...
Removing libtbbbind-2-5:armhf (2021.11.0-2) ...
Removing libhwloc15:armhf (2.10.0-1) ...
Removing librdmacm1:armhf (48.0-1) ...
Removing libibverbs1:armhf (48.0-1) ...
Removing libopenexr-3-1-30:armhf (3.1.5-5.1) ...
Removing libimath-3-1-29:armhf (3.1.9-3+b1) ...
Removing libjbig0:armhf (2.1-6.1) ...
Removing libjpeg62-turbo:armhf (1:2.1.5-2+b2) ...
Removing libjsoncpp25:armhf (1.9.5-6+b2) ...
Removing liblerc4:armhf (4.0.0+ds-4) ...
Removing libmaxflow0 (3.0.5-3) ...
Removing libmunge2:armhf (0.5.15-3) ...
Removing libnghttp2-14:armhf (1.58.0-1) ...
Removing libniftiio2:armhf (3.0.1-9) ...
Removing libnl-route-3-200:armhf (3.7.0-0.2+b1) ...
Removing libnl-3-200:armhf (3.7.0-0.2+b1) ...
Removing libnlopt0:armhf (2.7.1-5+b2) ...
Removing libogg0:armhf (1.3.5-3) ...
Removing libpciaccess0:armhf (0.17-3) ...
Removing libpixman-1-0:armhf (0.42.2-1) ...
Removing libpng16-16:armhf (1.6.40-3) ...
Removing libpsl5:armhf (0.21.2-1+b1) ...
Removing librtmp1:armhf (2.4+20151223.gitfa8646d.1-2+b2) ...
Removing libsensors5:armhf (1:3.6.0-8) ...
Removing libsensors-config (1:3.6.0-8) ...
Removing libwebp7:armhf (1.3.2-0.3) ...
Removing libsharpyuv0:armhf (1.3.2-0.3) ...
Removing libssh2-1:armhf (1.11.0-4) ...
Removing libtbbmalloc2:armhf (2021.11.0-2) ...
Removing libtcl8.6:armhf (8.6.13+dfsg-2) ...
Removing libvistaio14:armhf (1.2.19-3) ...
Removing libvulkan1:armhf (1.3.268.0-1) ...
Removing libwrap0:armhf (7.6.q-32) ...
Removing libxxf86vm1:armhf (1:1.1.4-1+b2) ...
Removing libxss1:armhf (1:1.2.3-1) ...
Removing libx11-xcb1:armhf (2:1.8.7-1) ...
Removing libxcb-xfixes0:armhf (1.15-1) ...
Removing libxcb-sync1:armhf (1.15-1) ...
Removing libxcb-dri2-0:armhf (1.15-1) ...
Removing libxcb-dri3-0:armhf (1.15-1) ...
Removing libxcb-glx0:armhf (1.15-1) ...
Removing libxcb-present0:armhf (1.15-1) ...
Removing libxcb-randr0:armhf (1.15-1) ...
Removing libxcb-render0:armhf (1.15-1) ...
Removing libxcb-shm0:armhf (1.15-1) ...
Removing libxnvctrl0:armhf (525.125.06-1) ...
Removing libxext6:armhf (2:1.3.4-1+b1) ...
Removing libxfixes3:armhf (1:6.0.0-2) ...
Removing libxrender1:armhf (1:0.9.10-1.1) ...
Removing libxshmfence1:armhf (1.3-1) ...
Removing mia-doctools (2.4.7-13) ...
Removing python3-lxml:armhf (4.9.4-1) ...
Removing libxslt1.1:armhf (1.1.35-1) ...
Removing libz3-4:armhf (4.8.12-3.1+b2) ...
Removing libznz3:armhf (3.0.1-9) ...
Removing ocl-icd-libopencl1:armhf (2.3.2-1) ...
Removing proj-data (9.3.1-1) ...
Removing x11-common (1:7.7+23) ...
invoke-rc.d: could not determine current runlevel
Removing libbrotli1:armhf (1.1.0-2+b3) ...
Removing libx11-6:armhf (2:1.8.7-1) ...
Removing libx11-data (2:1.8.7-1) ...
Removing libxcb1:armhf (1.15-1) ...
Removing libxau6:armhf (1:1.0.9-1) ...
Removing libxdmcp6:armhf (1:1.1.2-3) ...
Processing triggers for libc-bin (2.37-13) ...
(Reading database ... (Reading database ... 5%(Reading database ... 10%(Reading database ... 15%(Reading database ... 20%(Reading database ... 25%(Reading database ... 30%(Reading database ... 35%(Reading database ... 40%(Reading database ... 45%(Reading database ... 50%(Reading database ... 55%(Reading database ... 60%(Reading database ... 65%(Reading database ... 70%(Reading database ... 75%(Reading database ... 80%(Reading database ... 85%(Reading database ... 90%(Reading database ... 95%(Reading database ... 100%(Reading database ... 17505 files and directories currently installed.)
Purging configuration files for fontconfig-config (2.14.2-6+b1) ...
Purging configuration files for libgl1-mesa-dri:armhf (23.3.2-2) ...
Purging configuration files for x11-common (1:7.7+23) ...
Purging configuration files for libsensors-config (1:3.6.0-8) ...
Purging configuration files for libwrap0:armhf (7.6.q-32) ...
Purging configuration files for fonts-dejavu-mono (2.37-8) ...
Purging configuration files for fonts-dejavu-core (2.37-8) ...
Purging configuration files for libnl-3-200:armhf (3.7.0-0.2+b1) ...
