[2024-01-07T10:07:26+00:00] apt-get install libglom-1.30-dev abi-compliance-checker
Reading package lists...
Building dependency tree...
Reading state information...
abi-compliance-checker is already the newest version (2.3-2).
The following packages were automatically installed and are no longer required:
  libglobus-common-dev libglobus-common0 libglobus-net-manager-dev
  libglobus-net-manager0 libglobus-xio-dev libglobus-xio-net-manager-driver
  libglobus-xio-net-manager-driver-dev libglobus-xio0 libltdl-dev libltdl7
Use 'apt autoremove' to remove them.
The following additional packages will be installed:
  ca-certificates dconf-gsettings-backend dconf-service fontconfig-config
  fonts-dejavu-core fonts-dejavu-mono gir1.2-freedesktop gir1.2-gda-5.0
  gir1.2-glib-2.0 gir1.2-soup-2.4 glib-networking glib-networking-common
  glib-networking-services gsettings-desktop-schemas icu-devtools libarchive13
  libavahi-client-dev libavahi-client3 libavahi-common-data
  libavahi-common-dev libavahi-common3 libavahi-glib-dev libavahi-glib1
  libblkid-dev libboost-python1.83.0 libbrotli-dev libbrotli1
  libcairo-gobject2 libcairo2 libclone-perl libdbus-1-dev libdconf1
  libencode-locale-perl libepc-1.0-3 libepc-common libepc-dev libevent-2.1-7
  libexpat1-dev libffi-dev libfile-listing-perl libfontconfig1 libfreetype6
  libgda-5.0-4 libgda-5.0-common libgda-5.0-dev libgda-5.0-postgres
  libgdamm-5.0-13 libgdamm5.0-dev libgettextpo0 libgirepository-1.0-1
  libglib2.0-0 libglib2.0-bin libglib2.0-data libglib2.0-dev
  libglib2.0-dev-bin libglibmm-2.4-1v5 libglibmm-2.4-dev libglom-1.30-0
  libgmp-dev libgmpxx4ldbl libgnutls-dane0 libgnutls-openssl27 libgnutls28-dev
  libhtml-parser-perl libhtml-tagset-perl libhtml-tree-perl
  libhttp-cookies-perl libhttp-date-perl libhttp-message-perl
  libhttp-negotiate-perl libicu-dev libidn2-dev libio-html-perl
  libio-socket-ssl-perl libjs-jquery libjs-sphinxdoc libjs-underscore
  liblwp-mediatypes-perl liblwp-protocol-https-perl libmount-dev
  libnet-http-perl libnet-ssleay-perl libp11-kit-dev libpcre2-16-0
  libpcre2-32-0 libpcre2-dev libpcre2-posix3 libpixman-1-0 libpkgconf3
  libpng16-16 libpq5 libproxy1v5 libpsl-dev libpsl5 libpython3-dev
  libpython3.11-dev libselinux1-dev libsepol-dev libsigc++-2.0-0v5
  libsigc++-2.0-dev libsoup-gnome2.4-1 libsoup2.4-1 libsoup2.4-common
  libsoup2.4-dev libsqlite3-dev libtasn1-6-dev libtimedate-perl
  libtry-tiny-perl libunbound8 liburi-perl libwww-perl libwww-robotrules-perl
  libx11-6 libx11-data libxau6 libxcb-render0 libxcb-shm0 libxcb1 libxdmcp6
  libxext6 libxml++2.6-2v5 libxml++2.6-dev libxml-parser-perl libxml2-dev
  libxrender1 libxslt1-dev libxslt1.1 nettle-dev openssl perl-openssl-defaults
  pkgconf pkgconf-bin python-gi-dev python3-dev python3-distutils python3-gi
  python3-lib2to3 python3.11-dev sgml-base uuid-dev xml-core zlib1g-dev
Suggested packages:
  lrzip libepc-doc libgda-5.0-bin libgda-5.0-mysql libgda-5.0-doc
  libgdamm5.0-doc low-memory-monitor libgirepository1.0-dev libglib2.0-doc
  libgdk-pixbuf2.0-bin libxml2-utils libglibmm-2.4-doc libgtkmm-3.0-dev
  gmp-doc libgmp10-doc libmpfr-dev dns-root-data gnutls-bin gnutls-doc
  libdata-dump-perl icu-doc libcrypt-ssleay-perl p11-kit-doc libsigc++-2.0-doc
  libsoup2.4-doc sqlite3-doc libsub-name-perl libbusiness-isbn-perl
  libregexp-ipv6-perl libauthen-ntlm-perl libxml++2.6-doc debhelper
  sgml-base-doc
Recommended packages:
  shared-mime-info xdg-user-dirs libhtml-format-perl
  libio-compress-brotli-perl javascript-common publicsuffix libtasn1-doc
  libdata-dump-perl libhtml-form-perl libhttp-daemon-perl libmailtools-perl
The following NEW packages will be installed:
  ca-certificates dconf-gsettings-backend dconf-service fontconfig-config
  fonts-dejavu-core fonts-dejavu-mono gir1.2-freedesktop gir1.2-gda-5.0
  gir1.2-glib-2.0 gir1.2-soup-2.4 glib-networking glib-networking-common
  glib-networking-services gsettings-desktop-schemas icu-devtools libarchive13
  libavahi-client-dev libavahi-client3 libavahi-common-data
  libavahi-common-dev libavahi-common3 libavahi-glib-dev libavahi-glib1
  libblkid-dev libboost-python1.83.0 libbrotli-dev libbrotli1
  libcairo-gobject2 libcairo2 libclone-perl libdbus-1-dev libdconf1
  libencode-locale-perl libepc-1.0-3 libepc-common libepc-dev libevent-2.1-7
  libexpat1-dev libffi-dev libfile-listing-perl libfontconfig1 libfreetype6
  libgda-5.0-4 libgda-5.0-common libgda-5.0-dev libgda-5.0-postgres
  libgdamm-5.0-13 libgdamm5.0-dev libgettextpo0 libgirepository-1.0-1
  libglib2.0-0 libglib2.0-bin libglib2.0-data libglib2.0-dev
  libglib2.0-dev-bin libglibmm-2.4-1v5 libglibmm-2.4-dev libglom-1.30-0
  libglom-1.30-dev libgmp-dev libgmpxx4ldbl libgnutls-dane0
  libgnutls-openssl27 libgnutls28-dev libhtml-parser-perl libhtml-tagset-perl
  libhtml-tree-perl libhttp-cookies-perl libhttp-date-perl
  libhttp-message-perl libhttp-negotiate-perl libicu-dev libidn2-dev
  libio-html-perl libio-socket-ssl-perl libjs-jquery libjs-sphinxdoc
  libjs-underscore liblwp-mediatypes-perl liblwp-protocol-https-perl
  libmount-dev libnet-http-perl libnet-ssleay-perl libp11-kit-dev
  libpcre2-16-0 libpcre2-32-0 libpcre2-dev libpcre2-posix3 libpixman-1-0
  libpkgconf3 libpng16-16 libpq5 libproxy1v5 libpsl-dev libpsl5 libpython3-dev
  libpython3.11-dev libselinux1-dev libsepol-dev libsigc++-2.0-0v5
  libsigc++-2.0-dev libsoup-gnome2.4-1 libsoup2.4-1 libsoup2.4-common
  libsoup2.4-dev libsqlite3-dev libtasn1-6-dev libtimedate-perl
  libtry-tiny-perl libunbound8 liburi-perl libwww-perl libwww-robotrules-perl
  libx11-6 libx11-data libxau6 libxcb-render0 libxcb-shm0 libxcb1 libxdmcp6
  libxext6 libxml++2.6-2v5 libxml++2.6-dev libxml-parser-perl libxml2-dev
  libxrender1 libxslt1-dev libxslt1.1 nettle-dev openssl perl-openssl-defaults
  pkgconf pkgconf-bin python-gi-dev python3-dev python3-distutils python3-gi
  python3-lib2to3 python3.11-dev sgml-base uuid-dev xml-core zlib1g-dev
0 upgraded, 143 newly installed, 0 to remove and 40 not upgraded.
Need to get 47.3 MB of archives.
After this operation, 175 MB of additional disk space will be used.
Get:1 http://deb.debian.org/debian unstable/main armhf sgml-base all 1.31 [15.4 kB]
Get:2 http://deb.debian.org/debian unstable/main armhf openssl armhf 3.1.4-2 [1393 kB]
Get:3 http://deb.debian.org/debian unstable/main armhf ca-certificates all 20230311 [153 kB]
Get:4 http://deb.debian.org/debian unstable/main armhf libglib2.0-0 armhf 2.78.3-1 [1282 kB]
Get:5 http://deb.debian.org/debian unstable/main armhf libdconf1 armhf 0.40.0-4+b1 [36.9 kB]
Get:6 http://deb.debian.org/debian unstable/main armhf dconf-service armhf 0.40.0-4+b1 [27.8 kB]
Get:7 http://deb.debian.org/debian unstable/main armhf dconf-gsettings-backend armhf 0.40.0-4+b1 [24.1 kB]
Get:8 http://deb.debian.org/debian unstable/main armhf fonts-dejavu-mono all 2.37-8 [489 kB]
Get:9 http://deb.debian.org/debian unstable/main armhf fonts-dejavu-core all 2.37-8 [840 kB]
Get:10 http://deb.debian.org/debian unstable/main armhf fontconfig-config armhf 2.14.2-6+b1 [316 kB]
Get:11 http://deb.debian.org/debian unstable/main armhf libgirepository-1.0-1 armhf 1.78.1-6 [94.8 kB]
Get:12 http://deb.debian.org/debian unstable/main armhf gir1.2-glib-2.0 armhf 1.78.1-6 [165 kB]
Get:13 http://deb.debian.org/debian unstable/main armhf libbrotli1 armhf 1.1.0-2+b3 [284 kB]
Get:14 http://deb.debian.org/debian unstable/main armhf libpng16-16 armhf 1.6.40-3 [260 kB]
Get:15 http://deb.debian.org/debian unstable/main armhf libfreetype6 armhf 2.13.2+dfsg-1+b1 [371 kB]
Get:16 http://deb.debian.org/debian unstable/main armhf libfontconfig1 armhf 2.14.2-6+b1 [369 kB]
Get:17 http://deb.debian.org/debian unstable/main armhf libpixman-1-0 armhf 0.42.2-1 [465 kB]
Get:18 http://deb.debian.org/debian unstable/main armhf libxau6 armhf 1:1.0.9-1 [19.0 kB]
Get:19 http://deb.debian.org/debian unstable/main armhf libxdmcp6 armhf 1:1.1.2-3 [24.9 kB]
Get:20 http://deb.debian.org/debian unstable/main armhf libxcb1 armhf 1.15-1 [140 kB]
Get:21 http://deb.debian.org/debian unstable/main armhf libx11-data all 2:1.8.7-1 [328 kB]
Get:22 http://deb.debian.org/debian unstable/main armhf libx11-6 armhf 2:1.8.7-1 [735 kB]
Get:23 http://deb.debian.org/debian unstable/main armhf libxcb-render0 armhf 1.15-1 [114 kB]
Get:24 http://deb.debian.org/debian unstable/main armhf libxcb-shm0 armhf 1.15-1 [106 kB]
Get:25 http://deb.debian.org/debian unstable/main armhf libxext6 armhf 2:1.3.4-1+b1 [47.8 kB]
Get:26 http://deb.debian.org/debian unstable/main armhf libxrender1 armhf 1:0.9.10-1.1 [30.1 kB]
Get:27 http://deb.debian.org/debian unstable/main armhf libcairo2 armhf 1.18.0-1+b1 [441 kB]
Get:28 http://deb.debian.org/debian unstable/main armhf libcairo-gobject2 armhf 1.18.0-1+b1 [128 kB]
Get:29 http://deb.debian.org/debian unstable/main armhf gir1.2-freedesktop armhf 1.78.1-6 [41.7 kB]
Get:30 http://deb.debian.org/debian unstable/main armhf libjs-jquery all 3.6.1+dfsg+~3.5.14-1 [326 kB]
Get:31 http://deb.debian.org/debian unstable/main armhf libgda-5.0-common all 5.2.10-3 [939 kB]
Get:32 http://deb.debian.org/debian unstable/main armhf libxslt1.1 armhf 1.1.35-1 [223 kB]
Get:33 http://deb.debian.org/debian unstable/main armhf libgda-5.0-4 armhf 5.2.10-3 [528 kB]
Get:34 http://deb.debian.org/debian unstable/main armhf gir1.2-gda-5.0 armhf 5.2.10-3 [148 kB]
Get:35 http://deb.debian.org/debian unstable/main armhf libproxy1v5 armhf 0.4.18-1.2+b2 [51.7 kB]
Get:36 http://deb.debian.org/debian unstable/main armhf glib-networking-common all 2.78.0-1 [81.1 kB]
Get:37 http://deb.debian.org/debian unstable/main armhf glib-networking-services armhf 2.78.0-1 [11.4 kB]
Get:38 http://deb.debian.org/debian unstable/main armhf gsettings-desktop-schemas all 45.0-2 [645 kB]
Get:39 http://deb.debian.org/debian unstable/main armhf glib-networking armhf 2.78.0-1 [61.2 kB]
Get:40 http://deb.debian.org/debian unstable/main armhf libsoup2.4-common all 2.74.3-2 [56.3 kB]
Get:41 http://deb.debian.org/debian unstable/main armhf libpsl5 armhf 0.21.2-1+b1 [57.8 kB]
Get:42 http://deb.debian.org/debian unstable/main armhf libsoup2.4-1 armhf 2.74.3-2 [236 kB]
Get:43 http://deb.debian.org/debian unstable/main armhf libsoup-gnome2.4-1 armhf 2.74.3-2 [10.8 kB]
Get:44 http://deb.debian.org/debian unstable/main armhf gir1.2-soup-2.4 armhf 2.74.3-2 [33.0 kB]
Get:45 http://deb.debian.org/debian unstable/main armhf icu-devtools armhf 72.1-4 [184 kB]
Get:46 http://deb.debian.org/debian unstable/main armhf libarchive13 armhf 3.7.2-1 [301 kB]
Get:47 http://deb.debian.org/debian unstable/main armhf libavahi-common-data armhf 0.8-13+b1 [111 kB]
Get:48 http://deb.debian.org/debian unstable/main armhf libavahi-common3 armhf 0.8-13+b1 [40.1 kB]
Get:49 http://deb.debian.org/debian unstable/main armhf libavahi-client3 armhf 0.8-13+b1 [43.4 kB]
Get:50 http://deb.debian.org/debian unstable/main armhf libavahi-common-dev armhf 0.8-13+b1 [55.4 kB]
Get:51 http://deb.debian.org/debian unstable/main armhf libpkgconf3 armhf 1.8.1-1+b2 [31.9 kB]
Get:52 http://deb.debian.org/debian unstable/main armhf pkgconf-bin armhf 1.8.1-1+b2 [28.9 kB]
Get:53 http://deb.debian.org/debian unstable/main armhf pkgconf armhf 1.8.1-1+b2 [26.2 kB]
Get:54 http://deb.debian.org/debian unstable/main armhf xml-core all 0.19 [20.1 kB]
Get:55 http://deb.debian.org/debian unstable/main armhf libdbus-1-dev armhf 1.14.10-3+b1 [222 kB]
Get:56 http://deb.debian.org/debian unstable/main armhf libavahi-client-dev armhf 0.8-13+b1 [53.1 kB]
Get:57 http://deb.debian.org/debian unstable/main armhf libavahi-glib1 armhf 0.8-13+b1 [28.7 kB]
Get:58 http://deb.debian.org/debian unstable/main armhf libffi-dev armhf 3.4.4-2 [55.7 kB]
Get:59 http://deb.debian.org/debian unstable/main armhf libglib2.0-data all 2.78.3-1 [1223 kB]
Get:60 http://deb.debian.org/debian unstable/main armhf libglib2.0-bin armhf 2.78.3-1 [108 kB]
Get:61 http://deb.debian.org/debian unstable/main armhf python3-lib2to3 all 3.11.5-1 [77.5 kB]
Get:62 http://deb.debian.org/debian unstable/main armhf python3-distutils all 3.11.5-1 [131 kB]
Get:63 http://deb.debian.org/debian unstable/main armhf libglib2.0-dev-bin armhf 2.78.3-1 [154 kB]
Get:64 http://deb.debian.org/debian unstable/main armhf uuid-dev armhf 2.39.3-6 [39.6 kB]
Get:65 http://deb.debian.org/debian unstable/main armhf libblkid-dev armhf 2.39.3-6 [186 kB]
Get:66 http://deb.debian.org/debian unstable/main armhf libsepol-dev armhf 3.5-2 [319 kB]
Get:67 http://deb.debian.org/debian unstable/main armhf libpcre2-16-0 armhf 10.42-4 [211 kB]
Get:68 http://deb.debian.org/debian unstable/main armhf libpcre2-32-0 armhf 10.42-4 [202 kB]
Get:69 http://deb.debian.org/debian unstable/main armhf libpcre2-posix3 armhf 10.42-4 [55.0 kB]
Get:70 http://deb.debian.org/debian unstable/main armhf libpcre2-dev armhf 10.42-4 [668 kB]
Get:71 http://deb.debian.org/debian unstable/main armhf libselinux1-dev armhf 3.5-1+b2 [151 kB]
Get:72 http://deb.debian.org/debian unstable/main armhf libmount-dev armhf 2.39.3-6 [23.6 kB]
Get:73 http://deb.debian.org/debian unstable/main armhf zlib1g-dev armhf 1:1.3.dfsg-3 [904 kB]
Get:74 http://deb.debian.org/debian unstable/main armhf libglib2.0-dev armhf 2.78.3-1 [1526 kB]
Get:75 http://deb.debian.org/debian unstable/main armhf libavahi-glib-dev armhf 0.8-13+b1 [30.4 kB]
Get:76 http://deb.debian.org/debian unstable/main armhf libboost-python1.83.0 armhf 1.83.0-2+b2 [330 kB]
Get:77 http://deb.debian.org/debian unstable/main armhf libbrotli-dev armhf 1.1.0-2+b3 [292 kB]
Get:78 http://deb.debian.org/debian unstable/main armhf libclone-perl armhf 0.46-1 [13.1 kB]
Get:79 http://deb.debian.org/debian unstable/main armhf libencode-locale-perl all 1.05-3 [12.9 kB]
Get:80 http://deb.debian.org/debian unstable/main armhf libepc-common all 0.4.6-2 [41.2 kB]
Get:81 http://deb.debian.org/debian unstable/main armhf libepc-1.0-3 armhf 0.4.6-2+b1 [60.8 kB]
Get:82 http://deb.debian.org/debian unstable/main armhf libpsl-dev armhf 0.21.2-1+b1 [78.9 kB]
Get:83 http://deb.debian.org/debian unstable/main armhf libsqlite3-dev armhf 3.44.2-1 [974 kB]
Get:84 http://deb.debian.org/debian unstable/main armhf libicu-dev armhf 72.1-4 [10.1 MB]
Get:85 http://deb.debian.org/debian unstable/main armhf libxml2-dev armhf 2.9.14+dfsg-1.3+b2 [717 kB]
Get:86 http://deb.debian.org/debian unstable/main armhf libsoup2.4-dev armhf 2.74.3-2 [160 kB]
Get:87 http://deb.debian.org/debian unstable/main armhf libevent-2.1-7 armhf 2.1.12-stable-8 [161 kB]
Get:88 http://deb.debian.org/debian unstable/main armhf libunbound8 armhf 1.18.0-2+b1 [504 kB]
Get:89 http://deb.debian.org/debian unstable/main armhf libgnutls-dane0 armhf 3.8.2-1 [422 kB]
Get:90 http://deb.debian.org/debian unstable/main armhf libgnutls-openssl27 armhf 3.8.2-1 [422 kB]
Get:91 http://deb.debian.org/debian unstable/main armhf libidn2-dev armhf 2.3.4-1+b2 [116 kB]
Get:92 http://deb.debian.org/debian unstable/main armhf libp11-kit-dev armhf 0.25.3-4 [202 kB]
Get:93 http://deb.debian.org/debian unstable/main armhf libtasn1-6-dev armhf 4.19.0-3+b2 [93.0 kB]
Get:94 http://deb.debian.org/debian unstable/main armhf libgmpxx4ldbl armhf 2:6.3.0+dfsg-2 [328 kB]
Get:95 http://deb.debian.org/debian unstable/main armhf libgmp-dev armhf 2:6.3.0+dfsg-2 [589 kB]
Get:96 http://deb.debian.org/debian unstable/main armhf nettle-dev armhf 3.9.1-2 [1288 kB]
Get:97 http://deb.debian.org/debian unstable/main armhf libgnutls28-dev armhf 3.8.2-1 [1296 kB]
Get:98 http://deb.debian.org/debian unstable/main armhf libepc-dev armhf 0.4.6-2+b1 [31.2 kB]
Get:99 http://deb.debian.org/debian unstable/main armhf libexpat1-dev armhf 2.5.0-2+b2 [134 kB]
Get:100 http://deb.debian.org/debian unstable/main armhf libtimedate-perl all 2.3300-2 [39.3 kB]
Get:101 http://deb.debian.org/debian unstable/main armhf libhttp-date-perl all 6.06-1 [10.7 kB]
Get:102 http://deb.debian.org/debian unstable/main armhf libfile-listing-perl all 6.16-1 [12.4 kB]
Get:103 http://deb.debian.org/debian unstable/main armhf libxslt1-dev armhf 1.1.35-1 [358 kB]
Get:104 http://deb.debian.org/debian unstable/main armhf libgda-5.0-dev armhf 5.2.10-3 [213 kB]
Get:105 http://deb.debian.org/debian unstable/main armhf libpq5 armhf 16.1-1 [197 kB]
Get:106 http://deb.debian.org/debian unstable/main armhf libgda-5.0-postgres armhf 5.2.10-3 [55.8 kB]
Get:107 http://deb.debian.org/debian unstable/main armhf libsigc++-2.0-0v5 armhf 2.12.1-1 [22.8 kB]
Get:108 http://deb.debian.org/debian unstable/main armhf libglibmm-2.4-1v5 armhf 2.66.6-2 [504 kB]
Get:109 http://deb.debian.org/debian unstable/main armhf libgdamm-5.0-13 armhf 4.99.11-3 [125 kB]
Get:110 http://deb.debian.org/debian unstable/main armhf libsigc++-2.0-dev armhf 2.12.1-1 [72.1 kB]
Get:111 http://deb.debian.org/debian unstable/main armhf libglibmm-2.4-dev armhf 2.66.6-2 [466 kB]
Get:112 http://deb.debian.org/debian unstable/main armhf libgdamm5.0-dev armhf 4.99.11-3 [98.4 kB]
Get:113 http://deb.debian.org/debian unstable/main armhf libgettextpo0 armhf 0.21-14 [183 kB]
Get:114 http://deb.debian.org/debian unstable/main armhf libxml++2.6-2v5 armhf 2.40.1-3 [78.5 kB]
Get:115 http://deb.debian.org/debian unstable/main armhf libglom-1.30-0 armhf 1.30.4-7+b5 [667 kB]
Get:116 http://deb.debian.org/debian unstable/main armhf libxml++2.6-dev armhf 2.40.1-3 [57.4 kB]
Get:117 http://deb.debian.org/debian unstable/main armhf liburi-perl all 5.21-1 [95.6 kB]
Get:118 http://deb.debian.org/debian unstable/main armhf libhtml-tagset-perl all 3.20-6 [11.7 kB]
Get:119 http://deb.debian.org/debian unstable/main armhf libhtml-parser-perl armhf 3.81-1 [97.4 kB]
Get:120 http://deb.debian.org/debian unstable/main armhf libhtml-tree-perl all 5.07-3 [211 kB]
Get:121 http://deb.debian.org/debian unstable/main armhf libio-html-perl all 1.004-3 [16.2 kB]
Get:122 http://deb.debian.org/debian unstable/main armhf liblwp-mediatypes-perl all 6.04-2 [20.2 kB]
Get:123 http://deb.debian.org/debian unstable/main armhf libhttp-message-perl all 6.45-1 [82.0 kB]
Get:124 http://deb.debian.org/debian unstable/main armhf libhttp-cookies-perl all 6.11-1 [19.1 kB]
Get:125 http://deb.debian.org/debian unstable/main armhf libhttp-negotiate-perl all 6.01-2 [13.1 kB]
Get:126 http://deb.debian.org/debian unstable/main armhf perl-openssl-defaults armhf 7+b1 [7916 B]
Get:127 http://deb.debian.org/debian unstable/main armhf libnet-ssleay-perl armhf 1.92-2+b1 [298 kB]
Get:128 http://deb.debian.org/debian unstable/main armhf libio-socket-ssl-perl all 2.084-1 [216 kB]
Get:129 http://deb.debian.org/debian unstable/main armhf libnet-http-perl all 6.23-1 [23.9 kB]
Get:130 http://deb.debian.org/debian unstable/main armhf liblwp-protocol-https-perl all 6.11-1 [10.5 kB]
Get:131 http://deb.debian.org/debian unstable/main armhf libtry-tiny-perl all 0.31-2 [22.6 kB]
Get:132 http://deb.debian.org/debian unstable/main armhf libwww-robotrules-perl all 6.02-1 [12.9 kB]
Get:133 http://deb.debian.org/debian unstable/main armhf libwww-perl all 6.72-1 [187 kB]
Get:134 http://deb.debian.org/debian unstable/main armhf libxml-parser-perl armhf 2.47-1 [198 kB]
Get:135 http://deb.debian.org/debian unstable/main armhf python3-gi armhf 3.46.0-3 [249 kB]
Get:136 http://deb.debian.org/debian unstable/main armhf python-gi-dev armhf 3.46.0-3 [13.0 kB]
Get:137 http://deb.debian.org/debian unstable/main armhf libpython3.11-dev armhf 3.11.7-2 [3423 kB]
Get:138 http://deb.debian.org/debian unstable/main armhf libpython3-dev armhf 3.11.6-1 [9456 B]
Get:139 http://deb.debian.org/debian unstable/main armhf python3.11-dev armhf 3.11.7-2 [508 kB]
Get:140 http://deb.debian.org/debian unstable/main armhf libjs-underscore all 1.13.4~dfsg+~1.11.4-3 [116 kB]
Get:141 http://deb.debian.org/debian unstable/main armhf libjs-sphinxdoc all 7.2.6-3 [149 kB]
Get:142 http://deb.debian.org/debian unstable/main armhf python3-dev armhf 3.11.6-1 [26.1 kB]
Get:143 http://deb.debian.org/debian unstable/main armhf libglom-1.30-dev armhf 1.30.4-7+b5 [362 kB]
debconf: delaying package configuration, since apt-utils is not installed
Fetched 47.3 MB in 4s (11.3 MB/s)
Selecting previously unselected package sgml-base.
(Reading database ... (Reading database ... 5%(Reading database ... 10%(Reading database ... 15%(Reading database ... 20%(Reading database ... 25%(Reading database ... 30%(Reading database ... 35%(Reading database ... 40%(Reading database ... 45%(Reading database ... 50%(Reading database ... 55%(Reading database ... 60%(Reading database ... 65%(Reading database ... 70%(Reading database ... 75%(Reading database ... 80%(Reading database ... 85%(Reading database ... 90%(Reading database ... 95%(Reading database ... 100%(Reading database ... 14911 files and directories currently installed.)
Preparing to unpack .../000-sgml-base_1.31_all.deb ...
Unpacking sgml-base (1.31) ...
Selecting previously unselected package openssl.
Preparing to unpack .../001-openssl_3.1.4-2_armhf.deb ...
Unpacking openssl (3.1.4-2) ...
Selecting previously unselected package ca-certificates.
Preparing to unpack .../002-ca-certificates_20230311_all.deb ...
Unpacking ca-certificates (20230311) ...
Selecting previously unselected package libglib2.0-0:armhf.
Preparing to unpack .../003-libglib2.0-0_2.78.3-1_armhf.deb ...
Unpacking libglib2.0-0:armhf (2.78.3-1) ...
Selecting previously unselected package libdconf1:armhf.
Preparing to unpack .../004-libdconf1_0.40.0-4+b1_armhf.deb ...
Unpacking libdconf1:armhf (0.40.0-4+b1) ...
Selecting previously unselected package dconf-service.
Preparing to unpack .../005-dconf-service_0.40.0-4+b1_armhf.deb ...
Unpacking dconf-service (0.40.0-4+b1) ...
Selecting previously unselected package dconf-gsettings-backend:armhf.
Preparing to unpack .../006-dconf-gsettings-backend_0.40.0-4+b1_armhf.deb ...
Unpacking dconf-gsettings-backend:armhf (0.40.0-4+b1) ...
Selecting previously unselected package fonts-dejavu-mono.
Preparing to unpack .../007-fonts-dejavu-mono_2.37-8_all.deb ...
Unpacking fonts-dejavu-mono (2.37-8) ...
Selecting previously unselected package fonts-dejavu-core.
Preparing to unpack .../008-fonts-dejavu-core_2.37-8_all.deb ...
Unpacking fonts-dejavu-core (2.37-8) ...
Selecting previously unselected package fontconfig-config.
Preparing to unpack .../009-fontconfig-config_2.14.2-6+b1_armhf.deb ...
Unpacking fontconfig-config (2.14.2-6+b1) ...
Selecting previously unselected package libgirepository-1.0-1:armhf.
Preparing to unpack .../010-libgirepository-1.0-1_1.78.1-6_armhf.deb ...
Unpacking libgirepository-1.0-1:armhf (1.78.1-6) ...
Selecting previously unselected package gir1.2-glib-2.0:armhf.
Preparing to unpack .../011-gir1.2-glib-2.0_1.78.1-6_armhf.deb ...
Unpacking gir1.2-glib-2.0:armhf (1.78.1-6) ...
Selecting previously unselected package libbrotli1:armhf.
Preparing to unpack .../012-libbrotli1_1.1.0-2+b3_armhf.deb ...
Unpacking libbrotli1:armhf (1.1.0-2+b3) ...
Selecting previously unselected package libpng16-16:armhf.
Preparing to unpack .../013-libpng16-16_1.6.40-3_armhf.deb ...
Unpacking libpng16-16:armhf (1.6.40-3) ...
Selecting previously unselected package libfreetype6:armhf.
Preparing to unpack .../014-libfreetype6_2.13.2+dfsg-1+b1_armhf.deb ...
Unpacking libfreetype6:armhf (2.13.2+dfsg-1+b1) ...
Selecting previously unselected package libfontconfig1:armhf.
Preparing to unpack .../015-libfontconfig1_2.14.2-6+b1_armhf.deb ...
Unpacking libfontconfig1:armhf (2.14.2-6+b1) ...
Selecting previously unselected package libpixman-1-0:armhf.
Preparing to unpack .../016-libpixman-1-0_0.42.2-1_armhf.deb ...
Unpacking libpixman-1-0:armhf (0.42.2-1) ...
Selecting previously unselected package libxau6:armhf.
Preparing to unpack .../017-libxau6_1%3a1.0.9-1_armhf.deb ...
Unpacking libxau6:armhf (1:1.0.9-1) ...
Selecting previously unselected package libxdmcp6:armhf.
Preparing to unpack .../018-libxdmcp6_1%3a1.1.2-3_armhf.deb ...
Unpacking libxdmcp6:armhf (1:1.1.2-3) ...
Selecting previously unselected package libxcb1:armhf.
Preparing to unpack .../019-libxcb1_1.15-1_armhf.deb ...
Unpacking libxcb1:armhf (1.15-1) ...
Selecting previously unselected package libx11-data.
Preparing to unpack .../020-libx11-data_2%3a1.8.7-1_all.deb ...
Unpacking libx11-data (2:1.8.7-1) ...
Selecting previously unselected package libx11-6:armhf.
Preparing to unpack .../021-libx11-6_2%3a1.8.7-1_armhf.deb ...
Unpacking libx11-6:armhf (2:1.8.7-1) ...
Selecting previously unselected package libxcb-render0:armhf.
Preparing to unpack .../022-libxcb-render0_1.15-1_armhf.deb ...
Unpacking libxcb-render0:armhf (1.15-1) ...
Selecting previously unselected package libxcb-shm0:armhf.
Preparing to unpack .../023-libxcb-shm0_1.15-1_armhf.deb ...
Unpacking libxcb-shm0:armhf (1.15-1) ...
Selecting previously unselected package libxext6:armhf.
Preparing to unpack .../024-libxext6_2%3a1.3.4-1+b1_armhf.deb ...
Unpacking libxext6:armhf (2:1.3.4-1+b1) ...
Selecting previously unselected package libxrender1:armhf.
Preparing to unpack .../025-libxrender1_1%3a0.9.10-1.1_armhf.deb ...
Unpacking libxrender1:armhf (1:0.9.10-1.1) ...
Selecting previously unselected package libcairo2:armhf.
Preparing to unpack .../026-libcairo2_1.18.0-1+b1_armhf.deb ...
Unpacking libcairo2:armhf (1.18.0-1+b1) ...
Selecting previously unselected package libcairo-gobject2:armhf.
Preparing to unpack .../027-libcairo-gobject2_1.18.0-1+b1_armhf.deb ...
Unpacking libcairo-gobject2:armhf (1.18.0-1+b1) ...
Selecting previously unselected package gir1.2-freedesktop:armhf.
Preparing to unpack .../028-gir1.2-freedesktop_1.78.1-6_armhf.deb ...
Unpacking gir1.2-freedesktop:armhf (1.78.1-6) ...
Selecting previously unselected package libjs-jquery.
Preparing to unpack .../029-libjs-jquery_3.6.1+dfsg+~3.5.14-1_all.deb ...
Unpacking libjs-jquery (3.6.1+dfsg+~3.5.14-1) ...
Selecting previously unselected package libgda-5.0-common.
Preparing to unpack .../030-libgda-5.0-common_5.2.10-3_all.deb ...
Unpacking libgda-5.0-common (5.2.10-3) ...
Selecting previously unselected package libxslt1.1:armhf.
Preparing to unpack .../031-libxslt1.1_1.1.35-1_armhf.deb ...
Unpacking libxslt1.1:armhf (1.1.35-1) ...
Selecting previously unselected package libgda-5.0-4:armhf.
Preparing to unpack .../032-libgda-5.0-4_5.2.10-3_armhf.deb ...
Unpacking libgda-5.0-4:armhf (5.2.10-3) ...
Selecting previously unselected package gir1.2-gda-5.0:armhf.
Preparing to unpack .../033-gir1.2-gda-5.0_5.2.10-3_armhf.deb ...
Unpacking gir1.2-gda-5.0:armhf (5.2.10-3) ...
Selecting previously unselected package libproxy1v5:armhf.
Preparing to unpack .../034-libproxy1v5_0.4.18-1.2+b2_armhf.deb ...
Unpacking libproxy1v5:armhf (0.4.18-1.2+b2) ...
Selecting previously unselected package glib-networking-common.
Preparing to unpack .../035-glib-networking-common_2.78.0-1_all.deb ...
Unpacking glib-networking-common (2.78.0-1) ...
Selecting previously unselected package glib-networking-services.
Preparing to unpack .../036-glib-networking-services_2.78.0-1_armhf.deb ...
Unpacking glib-networking-services (2.78.0-1) ...
Selecting previously unselected package gsettings-desktop-schemas.
Preparing to unpack .../037-gsettings-desktop-schemas_45.0-2_all.deb ...
Unpacking gsettings-desktop-schemas (45.0-2) ...
Selecting previously unselected package glib-networking:armhf.
Preparing to unpack .../038-glib-networking_2.78.0-1_armhf.deb ...
Unpacking glib-networking:armhf (2.78.0-1) ...
Selecting previously unselected package libsoup2.4-common.
Preparing to unpack .../039-libsoup2.4-common_2.74.3-2_all.deb ...
Unpacking libsoup2.4-common (2.74.3-2) ...
Selecting previously unselected package libpsl5:armhf.
Preparing to unpack .../040-libpsl5_0.21.2-1+b1_armhf.deb ...
Unpacking libpsl5:armhf (0.21.2-1+b1) ...
Selecting previously unselected package libsoup2.4-1:armhf.
Preparing to unpack .../041-libsoup2.4-1_2.74.3-2_armhf.deb ...
Unpacking libsoup2.4-1:armhf (2.74.3-2) ...
Selecting previously unselected package libsoup-gnome2.4-1:armhf.
Preparing to unpack .../042-libsoup-gnome2.4-1_2.74.3-2_armhf.deb ...
Unpacking libsoup-gnome2.4-1:armhf (2.74.3-2) ...
Selecting previously unselected package gir1.2-soup-2.4:armhf.
Preparing to unpack .../043-gir1.2-soup-2.4_2.74.3-2_armhf.deb ...
Unpacking gir1.2-soup-2.4:armhf (2.74.3-2) ...
Selecting previously unselected package icu-devtools.
Preparing to unpack .../044-icu-devtools_72.1-4_armhf.deb ...
Unpacking icu-devtools (72.1-4) ...
Selecting previously unselected package libarchive13:armhf.
Preparing to unpack .../045-libarchive13_3.7.2-1_armhf.deb ...
Unpacking libarchive13:armhf (3.7.2-1) ...
Selecting previously unselected package libavahi-common-data:armhf.
Preparing to unpack .../046-libavahi-common-data_0.8-13+b1_armhf.deb ...
Unpacking libavahi-common-data:armhf (0.8-13+b1) ...
Selecting previously unselected package libavahi-common3:armhf.
Preparing to unpack .../047-libavahi-common3_0.8-13+b1_armhf.deb ...
Unpacking libavahi-common3:armhf (0.8-13+b1) ...
Selecting previously unselected package libavahi-client3:armhf.
Preparing to unpack .../048-libavahi-client3_0.8-13+b1_armhf.deb ...
Unpacking libavahi-client3:armhf (0.8-13+b1) ...
Selecting previously unselected package libavahi-common-dev:armhf.
Preparing to unpack .../049-libavahi-common-dev_0.8-13+b1_armhf.deb ...
Unpacking libavahi-common-dev:armhf (0.8-13+b1) ...
Selecting previously unselected package libpkgconf3:armhf.
Preparing to unpack .../050-libpkgconf3_1.8.1-1+b2_armhf.deb ...
Unpacking libpkgconf3:armhf (1.8.1-1+b2) ...
Selecting previously unselected package pkgconf-bin.
Preparing to unpack .../051-pkgconf-bin_1.8.1-1+b2_armhf.deb ...
Unpacking pkgconf-bin (1.8.1-1+b2) ...
Selecting previously unselected package pkgconf:armhf.
Preparing to unpack .../052-pkgconf_1.8.1-1+b2_armhf.deb ...
Unpacking pkgconf:armhf (1.8.1-1+b2) ...
Selecting previously unselected package xml-core.
Preparing to unpack .../053-xml-core_0.19_all.deb ...
Unpacking xml-core (0.19) ...
Selecting previously unselected package libdbus-1-dev:armhf.
Preparing to unpack .../054-libdbus-1-dev_1.14.10-3+b1_armhf.deb ...
Unpacking libdbus-1-dev:armhf (1.14.10-3+b1) ...
Selecting previously unselected package libavahi-client-dev:armhf.
Preparing to unpack .../055-libavahi-client-dev_0.8-13+b1_armhf.deb ...
Unpacking libavahi-client-dev:armhf (0.8-13+b1) ...
Selecting previously unselected package libavahi-glib1:armhf.
Preparing to unpack .../056-libavahi-glib1_0.8-13+b1_armhf.deb ...
Unpacking libavahi-glib1:armhf (0.8-13+b1) ...
Selecting previously unselected package libffi-dev:armhf.
Preparing to unpack .../057-libffi-dev_3.4.4-2_armhf.deb ...
Unpacking libffi-dev:armhf (3.4.4-2) ...
Selecting previously unselected package libglib2.0-data.
Preparing to unpack .../058-libglib2.0-data_2.78.3-1_all.deb ...
Unpacking libglib2.0-data (2.78.3-1) ...
Selecting previously unselected package libglib2.0-bin.
Preparing to unpack .../059-libglib2.0-bin_2.78.3-1_armhf.deb ...
Unpacking libglib2.0-bin (2.78.3-1) ...
Selecting previously unselected package python3-lib2to3.
Preparing to unpack .../060-python3-lib2to3_3.11.5-1_all.deb ...
Unpacking python3-lib2to3 (3.11.5-1) ...
Selecting previously unselected package python3-distutils.
Preparing to unpack .../061-python3-distutils_3.11.5-1_all.deb ...
Unpacking python3-distutils (3.11.5-1) ...
Selecting previously unselected package libglib2.0-dev-bin.
Preparing to unpack .../062-libglib2.0-dev-bin_2.78.3-1_armhf.deb ...
Unpacking libglib2.0-dev-bin (2.78.3-1) ...
Selecting previously unselected package uuid-dev:armhf.
Preparing to unpack .../063-uuid-dev_2.39.3-6_armhf.deb ...
Unpacking uuid-dev:armhf (2.39.3-6) ...
Selecting previously unselected package libblkid-dev:armhf.
Preparing to unpack .../064-libblkid-dev_2.39.3-6_armhf.deb ...
Unpacking libblkid-dev:armhf (2.39.3-6) ...
Selecting previously unselected package libsepol-dev:armhf.
Preparing to unpack .../065-libsepol-dev_3.5-2_armhf.deb ...
Unpacking libsepol-dev:armhf (3.5-2) ...
Selecting previously unselected package libpcre2-16-0:armhf.
Preparing to unpack .../066-libpcre2-16-0_10.42-4_armhf.deb ...
Unpacking libpcre2-16-0:armhf (10.42-4) ...
Selecting previously unselected package libpcre2-32-0:armhf.
Preparing to unpack .../067-libpcre2-32-0_10.42-4_armhf.deb ...
Unpacking libpcre2-32-0:armhf (10.42-4) ...
Selecting previously unselected package libpcre2-posix3:armhf.
Preparing to unpack .../068-libpcre2-posix3_10.42-4_armhf.deb ...
Unpacking libpcre2-posix3:armhf (10.42-4) ...
Selecting previously unselected package libpcre2-dev:armhf.
Preparing to unpack .../069-libpcre2-dev_10.42-4_armhf.deb ...
Unpacking libpcre2-dev:armhf (10.42-4) ...
Selecting previously unselected package libselinux1-dev:armhf.
Preparing to unpack .../070-libselinux1-dev_3.5-1+b2_armhf.deb ...
Unpacking libselinux1-dev:armhf (3.5-1+b2) ...
Selecting previously unselected package libmount-dev:armhf.
Preparing to unpack .../071-libmount-dev_2.39.3-6_armhf.deb ...
Unpacking libmount-dev:armhf (2.39.3-6) ...
Selecting previously unselected package zlib1g-dev:armhf.
Preparing to unpack .../072-zlib1g-dev_1%3a1.3.dfsg-3_armhf.deb ...
Unpacking zlib1g-dev:armhf (1:1.3.dfsg-3) ...
Selecting previously unselected package libglib2.0-dev:armhf.
Preparing to unpack .../073-libglib2.0-dev_2.78.3-1_armhf.deb ...
Unpacking libglib2.0-dev:armhf (2.78.3-1) ...
Selecting previously unselected package libavahi-glib-dev:armhf.
Preparing to unpack .../074-libavahi-glib-dev_0.8-13+b1_armhf.deb ...
Unpacking libavahi-glib-dev:armhf (0.8-13+b1) ...
Selecting previously unselected package libboost-python1.83.0.
Preparing to unpack .../075-libboost-python1.83.0_1.83.0-2+b2_armhf.deb ...
Unpacking libboost-python1.83.0 (1.83.0-2+b2) ...
Selecting previously unselected package libbrotli-dev:armhf.
Preparing to unpack .../076-libbrotli-dev_1.1.0-2+b3_armhf.deb ...
Unpacking libbrotli-dev:armhf (1.1.0-2+b3) ...
Selecting previously unselected package libclone-perl:armhf.
Preparing to unpack .../077-libclone-perl_0.46-1_armhf.deb ...
Unpacking libclone-perl:armhf (0.46-1) ...
Selecting previously unselected package libencode-locale-perl.
Preparing to unpack .../078-libencode-locale-perl_1.05-3_all.deb ...
Unpacking libencode-locale-perl (1.05-3) ...
Selecting previously unselected package libepc-common.
Preparing to unpack .../079-libepc-common_0.4.6-2_all.deb ...
Unpacking libepc-common (0.4.6-2) ...
Selecting previously unselected package libepc-1.0-3:armhf.
Preparing to unpack .../080-libepc-1.0-3_0.4.6-2+b1_armhf.deb ...
Unpacking libepc-1.0-3:armhf (0.4.6-2+b1) ...
Selecting previously unselected package libpsl-dev:armhf.
Preparing to unpack .../081-libpsl-dev_0.21.2-1+b1_armhf.deb ...
Unpacking libpsl-dev:armhf (0.21.2-1+b1) ...
Selecting previously unselected package libsqlite3-dev:armhf.
Preparing to unpack .../082-libsqlite3-dev_3.44.2-1_armhf.deb ...
Unpacking libsqlite3-dev:armhf (3.44.2-1) ...
Selecting previously unselected package libicu-dev:armhf.
Preparing to unpack .../083-libicu-dev_72.1-4_armhf.deb ...
Unpacking libicu-dev:armhf (72.1-4) ...
Selecting previously unselected package libxml2-dev:armhf.
Preparing to unpack .../084-libxml2-dev_2.9.14+dfsg-1.3+b2_armhf.deb ...
Unpacking libxml2-dev:armhf (2.9.14+dfsg-1.3+b2) ...
Selecting previously unselected package libsoup2.4-dev:armhf.
Preparing to unpack .../085-libsoup2.4-dev_2.74.3-2_armhf.deb ...
Unpacking libsoup2.4-dev:armhf (2.74.3-2) ...
Selecting previously unselected package libevent-2.1-7:armhf.
Preparing to unpack .../086-libevent-2.1-7_2.1.12-stable-8_armhf.deb ...
Unpacking libevent-2.1-7:armhf (2.1.12-stable-8) ...
Selecting previously unselected package libunbound8:armhf.
Preparing to unpack .../087-libunbound8_1.18.0-2+b1_armhf.deb ...
Unpacking libunbound8:armhf (1.18.0-2+b1) ...
Selecting previously unselected package libgnutls-dane0:armhf.
Preparing to unpack .../088-libgnutls-dane0_3.8.2-1_armhf.deb ...
Unpacking libgnutls-dane0:armhf (3.8.2-1) ...
Selecting previously unselected package libgnutls-openssl27:armhf.
Preparing to unpack .../089-libgnutls-openssl27_3.8.2-1_armhf.deb ...
Unpacking libgnutls-openssl27:armhf (3.8.2-1) ...
Selecting previously unselected package libidn2-dev:armhf.
Preparing to unpack .../090-libidn2-dev_2.3.4-1+b2_armhf.deb ...
Unpacking libidn2-dev:armhf (2.3.4-1+b2) ...
Selecting previously unselected package libp11-kit-dev:armhf.
Preparing to unpack .../091-libp11-kit-dev_0.25.3-4_armhf.deb ...
Unpacking libp11-kit-dev:armhf (0.25.3-4) ...
Selecting previously unselected package libtasn1-6-dev:armhf.
Preparing to unpack .../092-libtasn1-6-dev_4.19.0-3+b2_armhf.deb ...
Unpacking libtasn1-6-dev:armhf (4.19.0-3+b2) ...
Selecting previously unselected package libgmpxx4ldbl:armhf.
Preparing to unpack .../093-libgmpxx4ldbl_2%3a6.3.0+dfsg-2_armhf.deb ...
Unpacking libgmpxx4ldbl:armhf (2:6.3.0+dfsg-2) ...
Selecting previously unselected package libgmp-dev:armhf.
Preparing to unpack .../094-libgmp-dev_2%3a6.3.0+dfsg-2_armhf.deb ...
Unpacking libgmp-dev:armhf (2:6.3.0+dfsg-2) ...
Selecting previously unselected package nettle-dev:armhf.
Preparing to unpack .../095-nettle-dev_3.9.1-2_armhf.deb ...
Unpacking nettle-dev:armhf (3.9.1-2) ...
Selecting previously unselected package libgnutls28-dev:armhf.
Preparing to unpack .../096-libgnutls28-dev_3.8.2-1_armhf.deb ...
Unpacking libgnutls28-dev:armhf (3.8.2-1) ...
Selecting previously unselected package libepc-dev:armhf.
Preparing to unpack .../097-libepc-dev_0.4.6-2+b1_armhf.deb ...
Unpacking libepc-dev:armhf (0.4.6-2+b1) ...
Selecting previously unselected package libexpat1-dev:armhf.
Preparing to unpack .../098-libexpat1-dev_2.5.0-2+b2_armhf.deb ...
Unpacking libexpat1-dev:armhf (2.5.0-2+b2) ...
Selecting previously unselected package libtimedate-perl.
Preparing to unpack .../099-libtimedate-perl_2.3300-2_all.deb ...
Unpacking libtimedate-perl (2.3300-2) ...
Selecting previously unselected package libhttp-date-perl.
Preparing to unpack .../100-libhttp-date-perl_6.06-1_all.deb ...
Unpacking libhttp-date-perl (6.06-1) ...
Selecting previously unselected package libfile-listing-perl.
Preparing to unpack .../101-libfile-listing-perl_6.16-1_all.deb ...
Unpacking libfile-listing-perl (6.16-1) ...
Selecting previously unselected package libxslt1-dev:armhf.
Preparing to unpack .../102-libxslt1-dev_1.1.35-1_armhf.deb ...
Unpacking libxslt1-dev:armhf (1.1.35-1) ...
Selecting previously unselected package libgda-5.0-dev:armhf.
Preparing to unpack .../103-libgda-5.0-dev_5.2.10-3_armhf.deb ...
Unpacking libgda-5.0-dev:armhf (5.2.10-3) ...
Selecting previously unselected package libpq5:armhf.
Preparing to unpack .../104-libpq5_16.1-1_armhf.deb ...
Unpacking libpq5:armhf (16.1-1) ...
Selecting previously unselected package libgda-5.0-postgres:armhf.
Preparing to unpack .../105-libgda-5.0-postgres_5.2.10-3_armhf.deb ...
Unpacking libgda-5.0-postgres:armhf (5.2.10-3) ...
Selecting previously unselected package libsigc++-2.0-0v5:armhf.
Preparing to unpack .../106-libsigc++-2.0-0v5_2.12.1-1_armhf.deb ...
Unpacking libsigc++-2.0-0v5:armhf (2.12.1-1) ...
Selecting previously unselected package libglibmm-2.4-1v5:armhf.
Preparing to unpack .../107-libglibmm-2.4-1v5_2.66.6-2_armhf.deb ...
Unpacking libglibmm-2.4-1v5:armhf (2.66.6-2) ...
Selecting previously unselected package libgdamm-5.0-13.
Preparing to unpack .../108-libgdamm-5.0-13_4.99.11-3_armhf.deb ...
Unpacking libgdamm-5.0-13 (4.99.11-3) ...
Selecting previously unselected package libsigc++-2.0-dev:armhf.
Preparing to unpack .../109-libsigc++-2.0-dev_2.12.1-1_armhf.deb ...
Unpacking libsigc++-2.0-dev:armhf (2.12.1-1) ...
Selecting previously unselected package libglibmm-2.4-dev:armhf.
Preparing to unpack .../110-libglibmm-2.4-dev_2.66.6-2_armhf.deb ...
Unpacking libglibmm-2.4-dev:armhf (2.66.6-2) ...
Selecting previously unselected package libgdamm5.0-dev.
Preparing to unpack .../111-libgdamm5.0-dev_4.99.11-3_armhf.deb ...
Unpacking libgdamm5.0-dev (4.99.11-3) ...
Selecting previously unselected package libgettextpo0:armhf.
Preparing to unpack .../112-libgettextpo0_0.21-14_armhf.deb ...
Unpacking libgettextpo0:armhf (0.21-14) ...
Selecting previously unselected package libxml++2.6-2v5:armhf.
Preparing to unpack .../113-libxml++2.6-2v5_2.40.1-3_armhf.deb ...
Unpacking libxml++2.6-2v5:armhf (2.40.1-3) ...
Selecting previously unselected package libglom-1.30-0.
Preparing to unpack .../114-libglom-1.30-0_1.30.4-7+b5_armhf.deb ...
Unpacking libglom-1.30-0 (1.30.4-7+b5) ...
Selecting previously unselected package libxml++2.6-dev:armhf.
Preparing to unpack .../115-libxml++2.6-dev_2.40.1-3_armhf.deb ...
Unpacking libxml++2.6-dev:armhf (2.40.1-3) ...
Selecting previously unselected package liburi-perl.
Preparing to unpack .../116-liburi-perl_5.21-1_all.deb ...
Unpacking liburi-perl (5.21-1) ...
Selecting previously unselected package libhtml-tagset-perl.
Preparing to unpack .../117-libhtml-tagset-perl_3.20-6_all.deb ...
Unpacking libhtml-tagset-perl (3.20-6) ...
Selecting previously unselected package libhtml-parser-perl:armhf.
Preparing to unpack .../118-libhtml-parser-perl_3.81-1_armhf.deb ...
Unpacking libhtml-parser-perl:armhf (3.81-1) ...
Selecting previously unselected package libhtml-tree-perl.
Preparing to unpack .../119-libhtml-tree-perl_5.07-3_all.deb ...
Unpacking libhtml-tree-perl (5.07-3) ...
Selecting previously unselected package libio-html-perl.
Preparing to unpack .../120-libio-html-perl_1.004-3_all.deb ...
Unpacking libio-html-perl (1.004-3) ...
Selecting previously unselected package liblwp-mediatypes-perl.
Preparing to unpack .../121-liblwp-mediatypes-perl_6.04-2_all.deb ...
Unpacking liblwp-mediatypes-perl (6.04-2) ...
Selecting previously unselected package libhttp-message-perl.
Preparing to unpack .../122-libhttp-message-perl_6.45-1_all.deb ...
Unpacking libhttp-message-perl (6.45-1) ...
Selecting previously unselected package libhttp-cookies-perl.
Preparing to unpack .../123-libhttp-cookies-perl_6.11-1_all.deb ...
Unpacking libhttp-cookies-perl (6.11-1) ...
Selecting previously unselected package libhttp-negotiate-perl.
Preparing to unpack .../124-libhttp-negotiate-perl_6.01-2_all.deb ...
Unpacking libhttp-negotiate-perl (6.01-2) ...
Selecting previously unselected package perl-openssl-defaults:armhf.
Preparing to unpack .../125-perl-openssl-defaults_7+b1_armhf.deb ...
Unpacking perl-openssl-defaults:armhf (7+b1) ...
Selecting previously unselected package libnet-ssleay-perl:armhf.
Preparing to unpack .../126-libnet-ssleay-perl_1.92-2+b1_armhf.deb ...
Unpacking libnet-ssleay-perl:armhf (1.92-2+b1) ...
Selecting previously unselected package libio-socket-ssl-perl.
Preparing to unpack .../127-libio-socket-ssl-perl_2.084-1_all.deb ...
Unpacking libio-socket-ssl-perl (2.084-1) ...
Selecting previously unselected package libnet-http-perl.
Preparing to unpack .../128-libnet-http-perl_6.23-1_all.deb ...
Unpacking libnet-http-perl (6.23-1) ...
Selecting previously unselected package liblwp-protocol-https-perl.
Preparing to unpack .../129-liblwp-protocol-https-perl_6.11-1_all.deb ...
Unpacking liblwp-protocol-https-perl (6.11-1) ...
Selecting previously unselected package libtry-tiny-perl.
Preparing to unpack .../130-libtry-tiny-perl_0.31-2_all.deb ...
Unpacking libtry-tiny-perl (0.31-2) ...
Selecting previously unselected package libwww-robotrules-perl.
Preparing to unpack .../131-libwww-robotrules-perl_6.02-1_all.deb ...
Unpacking libwww-robotrules-perl (6.02-1) ...
Selecting previously unselected package libwww-perl.
Preparing to unpack .../132-libwww-perl_6.72-1_all.deb ...
Unpacking libwww-perl (6.72-1) ...
Selecting previously unselected package libxml-parser-perl.
Preparing to unpack .../133-libxml-parser-perl_2.47-1_armhf.deb ...
Unpacking libxml-parser-perl (2.47-1) ...
Selecting previously unselected package python3-gi.
Preparing to unpack .../134-python3-gi_3.46.0-3_armhf.deb ...
Unpacking python3-gi (3.46.0-3) ...
Selecting previously unselected package python-gi-dev.
Preparing to unpack .../135-python-gi-dev_3.46.0-3_armhf.deb ...
Unpacking python-gi-dev (3.46.0-3) ...
Selecting previously unselected package libpython3.11-dev:armhf.
Preparing to unpack .../136-libpython3.11-dev_3.11.7-2_armhf.deb ...
Unpacking libpython3.11-dev:armhf (3.11.7-2) ...
Selecting previously unselected package libpython3-dev:armhf.
Preparing to unpack .../137-libpython3-dev_3.11.6-1_armhf.deb ...
Unpacking libpython3-dev:armhf (3.11.6-1) ...
Selecting previously unselected package python3.11-dev.
Preparing to unpack .../138-python3.11-dev_3.11.7-2_armhf.deb ...
Unpacking python3.11-dev (3.11.7-2) ...
Selecting previously unselected package libjs-underscore.
Preparing to unpack .../139-libjs-underscore_1.13.4~dfsg+~1.11.4-3_all.deb ...
Unpacking libjs-underscore (1.13.4~dfsg+~1.11.4-3) ...
Selecting previously unselected package libjs-sphinxdoc.
Preparing to unpack .../140-libjs-sphinxdoc_7.2.6-3_all.deb ...
Unpacking libjs-sphinxdoc (7.2.6-3) ...
Selecting previously unselected package python3-dev.
Preparing to unpack .../141-python3-dev_3.11.6-1_armhf.deb ...
Unpacking python3-dev (3.11.6-1) ...
Selecting previously unselected package libglom-1.30-dev.
Preparing to unpack .../142-libglom-1.30-dev_1.30.4-7+b5_armhf.deb ...
Unpacking libglom-1.30-dev (1.30.4-7+b5) ...
Setting up libboost-python1.83.0 (1.83.0-2+b2) ...
Setting up libpixman-1-0:armhf (0.42.2-1) ...
Setting up libxau6:armhf (1:1.0.9-1) ...
Setting up libxdmcp6:armhf (1:1.1.2-3) ...
Setting up libproxy1v5:armhf (0.4.18-1.2+b2) ...
Setting up libpsl5:armhf (0.21.2-1+b1) ...
Setting up libxcb1:armhf (1.15-1) ...
Setting up libgnutls-openssl27:armhf (3.8.2-1) ...
Setting up libarchive13:armhf (3.7.2-1) ...
Setting up libxcb-render0:armhf (1.15-1) ...
Setting up libclone-perl:armhf (0.46-1) ...
Setting up libglib2.0-0:armhf (2.78.3-1) ...
Setting up libhtml-tagset-perl (3.20-6) ...
Setting up libbrotli1:armhf (1.1.0-2+b3) ...
Setting up liblwp-mediatypes-perl (6.04-2) ...
Setting up libtry-tiny-perl (0.31-2) ...
Setting up libpq5:armhf (16.1-1) ...
Setting up perl-openssl-defaults:armhf (7+b1) ...
Setting up libencode-locale-perl (1.05-3) ...
Setting up libepc-common (0.4.6-2) ...
Setting up libxcb-shm0:armhf (1.15-1) ...
Setting up libgettextpo0:armhf (0.21-14) ...
Setting up libffi-dev:armhf (3.4.4-2) ...
Setting up libpcre2-16-0:armhf (10.42-4) ...
Setting up libpsl-dev:armhf (0.21.2-1+b1) ...
Setting up libdconf1:armhf (0.40.0-4+b1) ...
Setting up libpcre2-32-0:armhf (10.42-4) ...
Setting up libglib2.0-data (2.78.3-1) ...
Setting up libpkgconf3:armhf (1.8.1-1+b2) ...
Setting up libgmpxx4ldbl:armhf (2:6.3.0+dfsg-2) ...
Setting up libexpat1-dev:armhf (2.5.0-2+b2) ...
Setting up libsqlite3-dev:armhf (3.44.2-1) ...
Setting up libx11-data (2:1.8.7-1) ...
Setting up libsigc++-2.0-0v5:armhf (2.12.1-1) ...
Setting up uuid-dev:armhf (2.39.3-6) ...
Setting up libavahi-common-data:armhf (0.8-13+b1) ...
Setting up fonts-dejavu-mono (2.37-8) ...
Setting up libpng16-16:armhf (1.6.40-3) ...
Setting up libevent-2.1-7:armhf (2.1.12-stable-8) ...
Setting up libio-html-perl (1.004-3) ...
Setting up icu-devtools (72.1-4) ...
Setting up fonts-dejavu-core (2.37-8) ...
Setting up libsepol-dev:armhf (3.5-2) ...
Setting up pkgconf-bin (1.8.1-1+b2) ...
Setting up libidn2-dev:armhf (2.3.4-1+b2) ...
Setting up libsoup2.4-common (2.74.3-2) ...
Setting up libtimedate-perl (2.3300-2) ...
Setting up zlib1g-dev:armhf (1:1.3.dfsg-3) ...
Setting up libpcre2-posix3:armhf (10.42-4) ...
Setting up libxslt1.1:armhf (1.1.35-1) ...
Setting up libx11-6:armhf (2:1.8.7-1) ...
Setting up libgirepository-1.0-1:armhf (1.78.1-6) ...
Setting up sgml-base (1.31) ...
Setting up libjs-jquery (3.6.1+dfsg+~3.5.14-1) ...
Setting up glib-networking-common (2.78.0-1) ...
Setting up libtasn1-6-dev:armhf (4.19.0-3+b2) ...
Setting up openssl (3.1.4-2) ...
Setting up python3-lib2to3 (3.11.5-1) ...
Setting up libicu-dev:armhf (72.1-4) ...
Setting up liburi-perl (5.21-1) ...
Setting up libbrotli-dev:armhf (1.1.0-2+b3) ...
Setting up libp11-kit-dev:armhf (0.25.3-4) ...
Setting up libjs-underscore (1.13.4~dfsg+~1.11.4-3) ...
Setting up libnet-ssleay-perl:armhf (1.92-2+b1) ...
Setting up python3-distutils (3.11.5-1) ...
Setting up libglib2.0-dev-bin (2.78.3-1) ...
Setting up glib-networking-services (2.78.0-1) ...
Setting up libglibmm-2.4-1v5:armhf (2.66.6-2) ...
Setting up libblkid-dev:armhf (2.39.3-6) ...
Setting up libhttp-date-perl (6.06-1) ...
Setting up libgmp-dev:armhf (2:6.3.0+dfsg-2) ...
Setting up libfile-listing-perl (6.16-1) ...
Setting up libpcre2-dev:armhf (10.42-4) ...
Setting up nettle-dev:armhf (3.9.1-2) ...
Setting up libxrender1:armhf (1:0.9.10-1.1) ...
Setting up libselinux1-dev:armhf (3.5-1+b2) ...
Setting up fontconfig-config (2.14.2-6+b1) ...
Setting up libgda-5.0-common (5.2.10-3) ...
Setting up libavahi-common3:armhf (0.8-13+b1) ...
Setting up libxext6:armhf (2:1.3.4-1+b1) ...
Setting up libglib2.0-bin (2.78.3-1) ...
Setting up libnet-http-perl (6.23-1) ...
Setting up dconf-service (0.40.0-4+b1) ...
Setting up pkgconf:armhf (1.8.1-1+b2) ...
Setting up libsigc++-2.0-dev:armhf (2.12.1-1) ...
Setting up ca-certificates (20230311) ...
Updating certificates in /etc/ssl/certs...
140 added, 0 removed; done.
Setting up libxml2-dev:armhf (2.9.14+dfsg-1.3+b2) ...
Setting up libunbound8:armhf (1.18.0-2+b1) ...
Setting up libxml++2.6-2v5:armhf (2.40.1-3) ...
Setting up libfreetype6:armhf (2.13.2+dfsg-1+b1) ...
Setting up libpython3.11-dev:armhf (3.11.7-2) ...
Setting up libgda-5.0-4:armhf (5.2.10-3) ...
Setting up gir1.2-glib-2.0:armhf (1.78.1-6) ...
Setting up libjs-sphinxdoc (7.2.6-3) ...
Setting up libwww-robotrules-perl (6.02-1) ...
Setting up libgdamm-5.0-13 (4.99.11-3) ...
Setting up libavahi-common-dev:armhf (0.8-13+b1) ...
Setting up xml-core (0.19) ...
Setting up libhtml-parser-perl:armhf (3.81-1) ...
Setting up libavahi-glib1:armhf (0.8-13+b1) ...
Setting up libfontconfig1:armhf (2.14.2-6+b1) ...
Setting up libavahi-client3:armhf (0.8-13+b1) ...
Setting up libmount-dev:armhf (2.39.3-6) ...
Setting up libio-socket-ssl-perl (2.084-1) ...
Setting up libhttp-message-perl (6.45-1) ...
Setting up libhttp-negotiate-perl (6.01-2) ...
Setting up libgnutls-dane0:armhf (3.8.2-1) ...
Setting up libpython3-dev:armhf (3.11.6-1) ...
Setting up libxslt1-dev:armhf (1.1.35-1) ...
Setting up dconf-gsettings-backend:armhf (0.40.0-4+b1) ...
Setting up libhttp-cookies-perl (6.11-1) ...
Setting up python3.11-dev (3.11.7-2) ...
Setting up libhtml-tree-perl (5.07-3) ...
Setting up libcairo2:armhf (1.18.0-1+b1) ...
Setting up libgda-5.0-postgres:armhf (5.2.10-3) ...
Setting up libglib2.0-dev:armhf (2.78.3-1) ...
Setting up libglibmm-2.4-dev:armhf (2.66.6-2) ...
Setting up python3-dev (3.11.6-1) ...
Setting up python3-gi (3.46.0-3) ...
Setting up libcairo-gobject2:armhf (1.18.0-1+b1) ...
Setting up libgnutls28-dev:armhf (3.8.2-1) ...
Setting up gsettings-desktop-schemas (45.0-2) ...
Setting up python-gi-dev (3.46.0-3) ...
Setting up gir1.2-freedesktop:armhf (1.78.1-6) ...
Setting up libxml++2.6-dev:armhf (2.40.1-3) ...
Setting up gir1.2-gda-5.0:armhf (5.2.10-3) ...
Setting up libavahi-glib-dev:armhf (0.8-13+b1) ...
Setting up glib-networking:armhf (2.78.0-1) ...
Setting up libsoup2.4-1:armhf (2.74.3-2) ...
Setting up libgda-5.0-dev:armhf (5.2.10-3) ...
Setting up libepc-1.0-3:armhf (0.4.6-2+b1) ...
Setting up libglom-1.30-0 (1.30.4-7+b5) ...
Setting up libgdamm5.0-dev (4.99.11-3) ...
Setting up libsoup-gnome2.4-1:armhf (2.74.3-2) ...
Setting up gir1.2-soup-2.4:armhf (2.74.3-2) ...
Setting up libsoup2.4-dev:armhf (2.74.3-2) ...
Setting up liblwp-protocol-https-perl (6.11-1) ...
Setting up libwww-perl (6.72-1) ...
Setting up libxml-parser-perl (2.47-1) ...
Processing triggers for libc-bin (2.37-13) ...
Processing triggers for sgml-base (1.31) ...
Setting up libdbus-1-dev:armhf (1.14.10-3+b1) ...
Setting up libavahi-client-dev:armhf (0.8-13+b1) ...
Setting up libepc-dev:armhf (0.4.6-2+b1) ...
Setting up libglom-1.30-dev (1.30.4-7+b5) ...
Processing triggers for ca-certificates (20230311) ...
Updating certificates in /etc/ssl/certs...
0 added, 0 removed; done.
Running hooks in /etc/ca-certificates/update.d...
done.
Reading package lists...
Building dependency tree...
Reading state information...
The following packages will be REMOVED:
  libglobus-common-dev* libglobus-common0* libglobus-net-manager-dev*
  libglobus-net-manager0* libglobus-xio-dev* libglobus-xio-net-manager-driver*
  libglobus-xio-net-manager-driver-dev* libglobus-xio0* libltdl-dev* libltdl7*
0 upgraded, 0 newly installed, 10 to remove and 40 not upgraded.
After this operation, 2925 kB disk space will be freed.
(Reading database ... (Reading database ... 5%(Reading database ... 10%(Reading database ... 15%(Reading database ... 20%(Reading database ... 25%(Reading database ... 30%(Reading database ... 35%(Reading database ... 40%(Reading database ... 45%(Reading database ... 50%(Reading database ... 55%(Reading database ... 60%(Reading database ... 65%(Reading database ... 70%(Reading database ... 75%(Reading database ... 80%(Reading database ... 85%(Reading database ... 90%(Reading database ... 95%(Reading database ... 100%(Reading database ... 20862 files and directories currently installed.)
Removing libglobus-xio-net-manager-driver-dev:armhf (1.7-2+b1) ...
Removing libglobus-net-manager-dev:armhf (1.7-2+b1) ...
Removing libglobus-xio-dev:armhf (6.6-2) ...
Removing libglobus-common-dev:armhf (18.13-2) ...
Removing libglobus-xio-net-manager-driver:armhf (1.7-2+b1) ...
Removing libglobus-xio0:armhf (6.6-2) ...
Removing libglobus-net-manager0:armhf (1.7-2+b1) ...
Removing libglobus-common0:armhf (18.13-2) ...
Removing libltdl-dev:armhf (2.4.7-7) ...
Removing libltdl7:armhf (2.4.7-7) ...
Processing triggers for libc-bin (2.37-13) ...
