[2024-01-08T00:06:07+00:00] apt-get install libomp-15-dev abi-compliance-checker
Reading package lists...
Building dependency tree...
Reading state information...
abi-compliance-checker is already the newest version (2.3-2).
The following package was automatically installed and is no longer required:
  libllvm14
Use 'apt autoremove' to remove it.
The following additional packages will be installed:
  libllvm15 libomp5-15
Suggested packages:
  libomp-15-doc
The following packages will be REMOVED:
  libomp-14-dev libomp5-14
The following NEW packages will be installed:
  libllvm15 libomp-15-dev libomp5-15
0 upgraded, 3 newly installed, 2 to remove and 33 not upgraded.
Need to get 21.0 MB of archives.
After this operation, 103 MB of additional disk space will be used.
Get:1 http://deb.debian.org/debian unstable/main armhf libllvm15 armhf 1:15.0.7-10 [20.6 MB]
Get:2 http://deb.debian.org/debian unstable/main armhf libomp5-15 armhf 1:15.0.7-10 [340 kB]
Get:3 http://deb.debian.org/debian unstable/main armhf libomp-15-dev armhf 1:15.0.7-10 [44.2 kB]
debconf: delaying package configuration, since apt-utils is not installed
Fetched 21.0 MB in 0s (48.4 MB/s)
(Reading database ... (Reading database ... 5%(Reading database ... 10%(Reading database ... 15%(Reading database ... 20%(Reading database ... 25%(Reading database ... 30%(Reading database ... 35%(Reading database ... 40%(Reading database ... 45%(Reading database ... 50%(Reading database ... 55%(Reading database ... 60%(Reading database ... 65%(Reading database ... 70%(Reading database ... 75%(Reading database ... 80%(Reading database ... 85%(Reading database ... 90%(Reading database ... 95%(Reading database ... 100%(Reading database ... 15310 files and directories currently installed.)
Removing libomp-14-dev (1:14.0.6-16) ...
Removing libomp5-14:armhf (1:14.0.6-16) ...
Selecting previously unselected package libllvm15:armhf.
(Reading database ... (Reading database ... 5%(Reading database ... 10%(Reading database ... 15%(Reading database ... 20%(Reading database ... 25%(Reading database ... 30%(Reading database ... 35%(Reading database ... 40%(Reading database ... 45%(Reading database ... 50%(Reading database ... 55%(Reading database ... 60%(Reading database ... 65%(Reading database ... 70%(Reading database ... 75%(Reading database ... 80%(Reading database ... 85%(Reading database ... 90%(Reading database ... 95%(Reading database ... 100%(Reading database ... 15280 files and directories currently installed.)
Preparing to unpack .../libllvm15_1%3a15.0.7-10_armhf.deb ...
Unpacking libllvm15:armhf (1:15.0.7-10) ...
Selecting previously unselected package libomp5-15:armhf.
Preparing to unpack .../libomp5-15_1%3a15.0.7-10_armhf.deb ...
Unpacking libomp5-15:armhf (1:15.0.7-10) ...
Selecting previously unselected package libomp-15-dev.
Preparing to unpack .../libomp-15-dev_1%3a15.0.7-10_armhf.deb ...
Unpacking libomp-15-dev (1:15.0.7-10) ...
Setting up libllvm15:armhf (1:15.0.7-10) ...
Setting up libomp5-15:armhf (1:15.0.7-10) ...
Setting up libomp-15-dev (1:15.0.7-10) ...
Processing triggers for libc-bin (2.37-13) ...
Reading package lists...
Building dependency tree...
Reading state information...
The following packages will be REMOVED:
  libllvm14*
0 upgraded, 0 newly installed, 1 to remove and 33 not upgraded.
After this operation, 96.2 MB disk space will be freed.
(Reading database ... (Reading database ... 5%(Reading database ... 10%(Reading database ... 15%(Reading database ... 20%(Reading database ... 25%(Reading database ... 30%(Reading database ... 35%(Reading database ... 40%(Reading database ... 45%(Reading database ... 50%(Reading database ... 55%(Reading database ... 60%(Reading database ... 65%(Reading database ... 70%(Reading database ... 75%(Reading database ... 80%(Reading database ... 85%(Reading database ... 90%(Reading database ... 95%(Reading database ... 100%(Reading database ... 15318 files and directories currently installed.)
Removing libllvm14:armhf (1:14.0.6-16) ...
Processing triggers for libc-bin (2.37-13) ...
