Using GCC 13 (arm-linux-gnueabihf, target: arm)
WARNING: May not work properly with GCC 4.8.[0-2], 6.* and higher due to bug #78040 in GCC. Please try other GCC versions with the help of --gcc-path=PATH option or create ABI dumps by ABI Dumper tool instead to avoid using GCC. Test selected GCC version first by -test option.
Checking header(s) base ...
Temporary header file '/tmp/ns5OIhOq9X/dump1.h' with the following content will be compiled to create GCC translation unit dump:

  // add defines
  #define __STDC_VERSION__ 201710L
#define _GXX_NULLPTR_T
#define CLUTTER_ENABLE_COMPOSITOR_API 1
#define _REGEX_NELTS(n)
#define _Atomic
#define PACKED
#ifdef __cplusplus
// C17 compat layer
#define _Alignof(type) alignof(type)
#endif
#define getaddrinfo_a(a,b,c,d)

  // add includes
  #include "/usr/include/linphone/FlexiAPIClient.hh"
  #include "/usr/include/linphone/account_creator.h"
  #include "/usr/include/linphone/account_creator_service.h"
  #include "/usr/include/linphone/api/c-account-cbs.h"
  #include "/usr/include/linphone/api/c-account-params.h"
  #include "/usr/include/linphone/api/c-account.h"
  #include "/usr/include/linphone/api/c-address.h"
  #include "/usr/include/linphone/api/c-api.h"
  #include "/usr/include/linphone/api/c-audio-device.h"
  #include "/usr/include/linphone/api/c-auth-info.h"
  #include "/usr/include/linphone/api/c-call-cbs.h"
  #include "/usr/include/linphone/api/c-call-log.h"
  #include "/usr/include/linphone/api/c-call-stats.h"
  #include "/usr/include/linphone/api/c-call.h"
  #include "/usr/include/linphone/api/c-callbacks.h"
  #include "/usr/include/linphone/api/c-chat-message-cbs.h"
  #include "/usr/include/linphone/api/c-chat-message.h"
  #include "/usr/include/linphone/api/c-chat-room-cbs.h"
  #include "/usr/include/linphone/api/c-chat-room-params.h"
  #include "/usr/include/linphone/api/c-chat-room.h"
  #include "/usr/include/linphone/api/c-conference-cbs.h"
  #include "/usr/include/linphone/api/c-conference-info.h"
  #include "/usr/include/linphone/api/c-conference-scheduler.h"
  #include "/usr/include/linphone/api/c-conference.h"
  #include "/usr/include/linphone/api/c-content.h"
  #include "/usr/include/linphone/api/c-dial-plan.h"
  #include "/usr/include/linphone/api/c-digest-authentication-policy.h"
  #include "/usr/include/linphone/api/c-event-log.h"
  #include "/usr/include/linphone/api/c-factory.h"
  #include "/usr/include/linphone/api/c-friend-phone-number.h"
  #include "/usr/include/linphone/api/c-ldap-params.h"
  #include "/usr/include/linphone/api/c-ldap.h"
  #include "/usr/include/linphone/api/c-magic-search-cbs.h"
  #include "/usr/include/linphone/api/c-magic-search.h"
  #include "/usr/include/linphone/api/c-nat-policy.h"
  #include "/usr/include/linphone/api/c-participant-device-cbs.h"
  #include "/usr/include/linphone/api/c-participant-device-identity.h"
  #include "/usr/include/linphone/api/c-participant-device.h"
  #include "/usr/include/linphone/api/c-participant-imdn-state.h"
  #include "/usr/include/linphone/api/c-participant.h"
  #include "/usr/include/linphone/api/c-push-notification-config.h"
  #include "/usr/include/linphone/api/c-push-notification-message.h"
  #include "/usr/include/linphone/api/c-recorder-params.h"
  #include "/usr/include/linphone/api/c-recorder.h"
  #include "/usr/include/linphone/api/c-search-result.h"
  #include "/usr/include/linphone/api/c-types.h"
  #include "/usr/include/linphone/api/c-video-source-descriptor.h"
  #include "/usr/include/linphone/buffer.h"
  #include "/usr/include/linphone/call.h"
  #include "/usr/include/linphone/call_params.h"
  #include "/usr/include/linphone/call_stats.h"
  #include "/usr/include/linphone/callbacks.h"
  #include "/usr/include/linphone/chat.h"
  #include "/usr/include/linphone/conference.h"
  #include "/usr/include/linphone/contactprovider.h"
  #include "/usr/include/linphone/core.h"
  #include "/usr/include/linphone/core_utils.h"
  #include "/usr/include/linphone/defs.h"
  #include "/usr/include/linphone/dictionary.h"
  #include "/usr/include/linphone/enums/call-enums.h"
  #include "/usr/include/linphone/enums/chat-message-enums.h"
  #include "/usr/include/linphone/enums/chat-room-enums.h"
  #include "/usr/include/linphone/enums/conference-enums.h"
  #include "/usr/include/linphone/enums/encryption-engine-enums.h"
  #include "/usr/include/linphone/enums/event-log-enums.h"
  #include "/usr/include/linphone/enums/participant-device-enums.h"
  #include "/usr/include/linphone/enums/security-event-enums.h"
  #include "/usr/include/linphone/error_info.h"
  #include "/usr/include/linphone/event.h"
  #include "/usr/include/linphone/factory.h"
  #include "/usr/include/linphone/friend.h"
  #include "/usr/include/linphone/friendlist.h"
  #include "/usr/include/linphone/headers.h"
  #include "/usr/include/linphone/im_encryption_engine.h"
  #include "/usr/include/linphone/im_notif_policy.h"
  #include "/usr/include/linphone/info_message.h"
  #include "/usr/include/linphone/linphone_proxy_config.h"
  #include "/usr/include/linphone/linphone_tunnel.h"
  #include "/usr/include/linphone/linphonecore.h"
  #include "/usr/include/linphone/linphonecore_utils.h"
  #include "/usr/include/linphone/linphonefriend.h"
  #include "/usr/include/linphone/linphonepresence.h"
  #include "/usr/include/linphone/logging.h"
  #include "/usr/include/linphone/lpconfig.h"
  #include "/usr/include/linphone/misc.h"
  #include "/usr/include/linphone/payload_type.h"
  #include "/usr/include/linphone/player.h"
  #include "/usr/include/linphone/presence.h"
  #include "/usr/include/linphone/proxy_config.h"
  #include "/usr/include/linphone/ringtoneplayer.h"
  #include "/usr/include/linphone/sipsetup.h"
  #include "/usr/include/linphone/tunnel.h"
  #include "/usr/include/linphone/types.h"
  #include "/usr/include/linphone/utils/algorithm.h"
  #include "/usr/include/linphone/utils/enum-generator.h"
  #include "/usr/include/linphone/utils/enum-mask.h"
  #include "/usr/include/linphone/utils/fs.h"
  #include "/usr/include/linphone/utils/general.h"
  #include "/usr/include/linphone/utils/magic-macros.h"
  #include "/usr/include/linphone/utils/traits.h"
  #include "/usr/include/linphone/utils/utils.h"
  #include "/usr/include/linphone/vcard.h"
  #include "/usr/include/linphone/video_definition.h"
  #include "/usr/include/linphone/wrapper_utils.h"
  #include "/usr/include/linphone/xmlrpc.h"
  #include "/usr/include/linphone++/account.hh"
  #include "/usr/include/linphone++/account_creator.hh"
  #include "/usr/include/linphone++/account_creator_listener.hh"
  #include "/usr/include/linphone++/account_listener.hh"
  #include "/usr/include/linphone++/account_params.hh"
  #include "/usr/include/linphone++/address.hh"
  #include "/usr/include/linphone++/audio_device.hh"
  #include "/usr/include/linphone++/auth_info.hh"
  #include "/usr/include/linphone++/buffer.hh"
  #include "/usr/include/linphone++/call.hh"
  #include "/usr/include/linphone++/call_listener.hh"
  #include "/usr/include/linphone++/call_log.hh"
  #include "/usr/include/linphone++/call_params.hh"
  #include "/usr/include/linphone++/call_stats.hh"
  #include "/usr/include/linphone++/chat_message.hh"
  #include "/usr/include/linphone++/chat_message_listener.hh"
  #include "/usr/include/linphone++/chat_room.hh"
  #include "/usr/include/linphone++/chat_room_listener.hh"
  #include "/usr/include/linphone++/chat_room_params.hh"
  #include "/usr/include/linphone++/conference.hh"
  #include "/usr/include/linphone++/conference_info.hh"
  #include "/usr/include/linphone++/conference_listener.hh"
  #include "/usr/include/linphone++/conference_params.hh"
  #include "/usr/include/linphone++/conference_scheduler.hh"
  #include "/usr/include/linphone++/conference_scheduler_listener.hh"
  #include "/usr/include/linphone++/config.hh"
  #include "/usr/include/linphone++/content.hh"
  #include "/usr/include/linphone++/core.hh"
  #include "/usr/include/linphone++/core_listener.hh"
  #include "/usr/include/linphone++/dial_plan.hh"
  #include "/usr/include/linphone++/digest_authentication_policy.hh"
  #include "/usr/include/linphone++/enums.hh"
  #include "/usr/include/linphone++/error_info.hh"
  #include "/usr/include/linphone++/event.hh"
  #include "/usr/include/linphone++/event_listener.hh"
  #include "/usr/include/linphone++/event_log.hh"
  #include "/usr/include/linphone++/factory.hh"
  #include "/usr/include/linphone++/friend.hh"
  #include "/usr/include/linphone++/friend_list.hh"
  #include "/usr/include/linphone++/friend_list_listener.hh"
  #include "/usr/include/linphone++/friend_phone_number.hh"
  #include "/usr/include/linphone++/headers.hh"
  #include "/usr/include/linphone++/im_notif_policy.hh"
  #include "/usr/include/linphone++/info_message.hh"
  #include "/usr/include/linphone++/ldap.hh"
  #include "/usr/include/linphone++/ldap_params.hh"
  #include "/usr/include/linphone++/linphone.hh"
  #include "/usr/include/linphone++/logging_service.hh"
  #include "/usr/include/linphone++/logging_service_listener.hh"
  #include "/usr/include/linphone++/magic_search.hh"
  #include "/usr/include/linphone++/magic_search_listener.hh"
  #include "/usr/include/linphone++/nat_policy.hh"
  #include "/usr/include/linphone++/object.hh"
  #include "/usr/include/linphone++/participant.hh"
  #include "/usr/include/linphone++/participant_device.hh"
  #include "/usr/include/linphone++/participant_device_identity.hh"
  #include "/usr/include/linphone++/participant_device_listener.hh"
  #include "/usr/include/linphone++/participant_imdn_state.hh"
  #include "/usr/include/linphone++/payload_type.hh"
  #include "/usr/include/linphone++/player.hh"
  #include "/usr/include/linphone++/player_listener.hh"
  #include "/usr/include/linphone++/presence_activity.hh"
  #include "/usr/include/linphone++/presence_model.hh"
  #include "/usr/include/linphone++/presence_note.hh"
  #include "/usr/include/linphone++/presence_person.hh"
  #include "/usr/include/linphone++/presence_service.hh"
  #include "/usr/include/linphone++/proxy_config.hh"
  #include "/usr/include/linphone++/push_notification_config.hh"
  #include "/usr/include/linphone++/push_notification_message.hh"
  #include "/usr/include/linphone++/range.hh"
  #include "/usr/include/linphone++/recorder.hh"
  #include "/usr/include/linphone++/recorder_params.hh"
  #include "/usr/include/linphone++/search_result.hh"
  #include "/usr/include/linphone++/transports.hh"
  #include "/usr/include/linphone++/tunnel.hh"
  #include "/usr/include/linphone++/tunnel_config.hh"
  #include "/usr/include/linphone++/vcard.hh"
  #include "/usr/include/linphone++/video_activation_policy.hh"
  #include "/usr/include/linphone++/video_definition.hh"
  #include "/usr/include/linphone++/video_source_descriptor.hh"
  #include "/usr/include/linphone++/xml_rpc_request.hh"
  #include "/usr/include/linphone++/xml_rpc_request_listener.hh"
  #include "/usr/include/linphone++/xml_rpc_session.hh"

  // add namespaces
  namespace bctoolbox{typedef int tmp_add_type_1;}
  bctoolbox::tmp_add_type_1 tmp_add_func_1(){return 0;};
  namespace bctoolbox{namespace log{typedef int tmp_add_type_2;}}
  bctoolbox::log::tmp_add_type_2 tmp_add_func_2(){return 0;};
  namespace bctoolbox{namespace Utils{typedef int tmp_add_type_3;}}
  bctoolbox::Utils::tmp_add_type_3 tmp_add_func_3(){return 0;};
  namespace Json{typedef int tmp_add_type_4;}
  Json::tmp_add_type_4 tmp_add_func_4(){return 0;};
  namespace LinphonePrivate{typedef int tmp_add_type_5;}
  LinphonePrivate::tmp_add_type_5 tmp_add_func_5(){return 0;};
  namespace LinphonePrivate{namespace Fs{typedef int tmp_add_type_6;}}
  LinphonePrivate::Fs::tmp_add_type_6 tmp_add_func_6(){return 0;};
  namespace LinphonePrivate{namespace Private{typedef int tmp_add_type_7;}}
  LinphonePrivate::Private::tmp_add_type_7 tmp_add_func_7(){return 0;};

The GCC parameters:
  gcc -fdump-lang-raw -fkeep-inline-functions -c -x c++ -fpermissive -w "/tmp/ns5OIhOq9X/dump1.h"

In file included from /tmp/ns5OIhOq9X/dump1.h:116:
/usr/include/linphone/utils/utils.h:35:10: fatal error: address/address.h: No such file or directory
   35 | #include "address/address.h"
      |          ^~~~~~~~~~~~~~~~~~~
compilation terminated.
ERROR: some errors occurred when compiling headers
ERROR: see log for details:
  /home/adrien/armhf-time_t/out/logs/liblinphone-dev/base/abi-compliance-checker.log


ERROR: can't compile header(s)
