Using GCC 13 (arm-linux-gnueabihf, target: arm)
WARNING: May not work properly with GCC 4.8.[0-2], 6.* and higher due to bug #78040 in GCC. Please try other GCC versions with the help of --gcc-path=PATH option or create ABI dumps by ABI Dumper tool instead to avoid using GCC. Test selected GCC version first by -test option.
Checking header(s) time_t ...
Temporary header file '/tmp/Nckbn_2Bx5/dump1.h' with the following content will be compiled to create GCC translation unit dump:

  // add defines
  #define __STDC_VERSION__ 201710L
#define _TIME_BITS 64
#define _FILE_OFFSET_BITS 64
#define _GXX_NULLPTR_T
#define CLUTTER_ENABLE_COMPOSITOR_API 1
#define _REGEX_NELTS(n)
#define _Atomic
#define PACKED
#ifdef __cplusplus
// C17 compat layer
#define _Alignof(type) alignof(type)
#endif
#define getaddrinfo_a(a,b,c,d)

  // add includes
  #include "/usr/include/kconfig/expr.h"
  #include "/usr/include/kconfig/list.h"
  #include "/usr/include/kconfig/lkc.h"
  #include "/usr/include/kconfig/lkc_proto.h"

  // add classes
  _G_fpos64_t* tmp_add_class_0;
  _G_fpos_t* tmp_add_class_1;
  _IO_cookie_io_functions_t* tmp_add_class_2;
  expr* tmp_add_class_3;
  expr_data* tmp_add_class_4;
  expr_value* tmp_add_class_5;
  file* tmp_add_class_6;
  gstr* tmp_add_class_7;
  jump_key* tmp_add_class_8;
  kconf_id* tmp_add_class_9;
  list_head* tmp_add_class_10;
  menu* tmp_add_class_11;
  property* tmp_add_class_12;
  symbol* tmp_add_class_13;
  symbol_value* tmp_add_class_14;

The GCC parameters:
  gcc -fdump-lang-raw -fkeep-inline-functions -c -x c++ -fpermissive -w "/tmp/Nckbn_2Bx5/dump1.h"

In file included from /tmp/Nckbn_2Bx5/dump1.h:20:
/usr/include/kconfig/lkc.h: In function 'const char* CONFIG_prefix()':
/usr/include/kconfig/lkc.h:42:16: error: 'getenv' was not declared in this scope
   42 |         return getenv( "CONFIG_" ) ?: CONFIG_;
      |                ^~~~~~
/usr/include/kconfig/lkc.h:25:1: note: 'getenv' is defined in header '<cstdlib>'; did you forget to '#include <cstdlib>'?
   24 | #include "lkc_proto.h"
  +++ |+#include <cstdlib>
   25 | 
ERROR: some errors occurred when compiling headers
ERROR: see log for details:
  /home/adrien/armhf-time_t/out/logs/kconfig-frontends-nox/time_t/abi-compliance-checker.log


Creating library ABI dump ...
Dump path: out/logs/kconfig-frontends-nox/kconfig-frontends-nox_time_t.dump
