Temporary header file '/tmp/a20_sn55SQ/dump1.h' with the following content will be compiled to create GCC translation unit dump:

  // add defines
  #define __STDC_VERSION__ 201710L
#define _FILE_OFFSET_BITS 64
#define _GXX_NULLPTR_T
#define CLUTTER_ENABLE_COMPOSITOR_API 1
#define _REGEX_NELTS(n)
#define _Atomic
#define PACKED
#ifdef __cplusplus
// C17 compat layer
#define _Alignof(type) alignof(type)
#endif
#define getaddrinfo_a(a,b,c,d)

  // add includes
  #include "/usr/include/KXL.h"

  // add classes
  JS_DATA_SAVE_TYPE_32* tmp_add_class_0;
  JS_DATA_SAVE_TYPE_64* tmp_add_class_1;
  JS_DATA_TYPE* tmp_add_class_2;
  _G_fpos64_t* tmp_add_class_3;
  _G_fpos_t* tmp_add_class_4;
  _IO_cookie_io_functions_t* tmp_add_class_5;
  _XComposeStatus* tmp_add_class_6;
  _XEvent* tmp_add_class_7;
  _XExtData* tmp_add_class_8;
  _XIMHotKeyTrigger* tmp_add_class_9;
  _XIMHotKeyTriggers* tmp_add_class_10;
  _XIMPreeditCaretCallbackStruct* tmp_add_class_11;
  _XIMPreeditDrawCallbackStruct* tmp_add_class_12;
  _XIMPreeditStateNotifyCallbackStruct* tmp_add_class_13;
  _XIMStatusDrawCallbackStruct* tmp_add_class_14;
  _XIMStringConversionCallbackStruct* tmp_add_class_15;
  _XIMStringConversionText* tmp_add_class_16;
  _XIMText* tmp_add_class_17;
  _XImage* tmp_add_class_18;
  _XkbAccessXNotify* tmp_add_class_19;
  _XkbAction* tmp_add_class_20;
  _XkbActionMessage* tmp_add_class_21;
  _XkbAnyAction* tmp_add_class_22;
  _XkbAnyEvent* tmp_add_class_23;
  _XkbBehavior* tmp_add_class_24;
  _XkbBellNotify* tmp_add_class_25;
  _XkbChanges* tmp_add_class_26;
  _XkbClientMapRec* tmp_add_class_27;
  _XkbCompatChanges* tmp_add_class_28;
  _XkbCompatMapNotify* tmp_add_class_29;
  _XkbCompatMapRec* tmp_add_class_30;
  _XkbComponentList* tmp_add_class_31;
  _XkbComponentName* tmp_add_class_32;
  _XkbComponentNames* tmp_add_class_33;
  _XkbControls* tmp_add_class_34;
  _XkbControlsChanges* tmp_add_class_35;
  _XkbControlsNotify* tmp_add_class_36;
  _XkbCtrlsAction* tmp_add_class_37;
  _XkbDesc* tmp_add_class_38;
  _XkbDeviceBtnAction* tmp_add_class_39;
  _XkbDeviceChanges* tmp_add_class_40;
  _XkbDeviceInfo* tmp_add_class_41;
  _XkbDeviceLedChanges* tmp_add_class_42;
  _XkbDeviceLedInfo* tmp_add_class_43;
  _XkbDeviceValuatorAction* tmp_add_class_44;
  _XkbEvent* tmp_add_class_45;
  _XkbExtensionDeviceNotify* tmp_add_class_46;
  _XkbGroupAction* tmp_add_class_47;
  _XkbISOAction* tmp_add_class_48;
  _XkbIndicatorChanges* tmp_add_class_49;
  _XkbIndicatorMapRec* tmp_add_class_50;
  _XkbIndicatorNotify* tmp_add_class_51;
  _XkbIndicatorRec* tmp_add_class_52;
  _XkbKTMapEntry* tmp_add_class_53;
  _XkbKeyAliasRec* tmp_add_class_54;
  _XkbKeyNameRec* tmp_add_class_55;
  _XkbKeyType* tmp_add_class_56;
  _XkbMapChanges* tmp_add_class_57;
  _XkbMapNotifyEvent* tmp_add_class_58;
  _XkbMessageAction* tmp_add_class_59;
  _XkbModAction* tmp_add_class_60;
  _XkbMods* tmp_add_class_61;
  _XkbNameChanges* tmp_add_class_62;
  _XkbNamesNotify* tmp_add_class_63;
  _XkbNamesRec* tmp_add_class_64;
  _XkbNewKeyboardNotify* tmp_add_class_65;
  _XkbPtrAction* tmp_add_class_66;
  _XkbPtrBtnAction* tmp_add_class_67;
  _XkbPtrDfltAction* tmp_add_class_68;
  _XkbRedirectKeyAction* tmp_add_class_69;
  _XkbServerMapRec* tmp_add_class_70;
  _XkbStateNotifyEvent* tmp_add_class_71;
  _XkbStateRec* tmp_add_class_72;
  _XkbSwitchScreenAction* tmp_add_class_73;
  _XkbSymInterpretRec* tmp_add_class_74;
  _XkbSymMapRec* tmp_add_class_75;
  ff_condition_effect* tmp_add_class_76;
  ff_constant_effect* tmp_add_class_77;
  ff_effect* tmp_add_class_78;
  ff_envelope* tmp_add_class_79;
  ff_periodic_effect* tmp_add_class_80;
  ff_ramp_effect* tmp_add_class_81;
  ff_replay* tmp_add_class_82;
  ff_rumble_effect* tmp_add_class_83;
  ff_trigger* tmp_add_class_84;
  input_absinfo* tmp_add_class_85;
  input_event* tmp_add_class_86;
  input_id* tmp_add_class_87;
  input_keymap_entry* tmp_add_class_88;
  input_mask* tmp_add_class_89;
  itimerval* tmp_add_class_90;
  js_corr* tmp_add_class_91;
  js_event* tmp_add_class_92;
  termio* tmp_add_class_93;
  winsize* tmp_add_class_94;

The GCC parameters:
  gcc -fdump-lang-raw -fkeep-inline-functions -c -x c++ -fpermissive -w "/tmp/a20_sn55SQ/dump1.h"

