[2024-01-08T06:03:01+00:00] apt-get install librosbag-dev abi-compliance-checker
Reading package lists...
Building dependency tree...
Reading state information...
abi-compliance-checker is already the newest version (2.3-2).
The following packages were automatically installed and are no longer required:
  librocm-smi-dev librocm-smi64-1
Use 'apt autoremove' to remove them.
The following additional packages will be installed:
  ament-cmake ament-cmake-core ament-cmake-python cmake cmake-data
  docutils-common icu-devtools libament-index-cpp-dev libament-index-cpp0d
  libapr1 libapr1-dev libaprutil1 libaprutil1-dbd-sqlite3 libaprutil1-dev
  libarchive13 libassuan-dev libb64-0d libb64-dev libboost-atomic1.83-dev
  libboost-atomic1.83.0 libboost-chrono1.83-dev libboost-chrono1.83.0
  libboost-date-time-dev libboost-date-time1.83-dev libboost-date-time1.83.0
  libboost-dev libboost-filesystem-dev libboost-filesystem1.83-dev
  libboost-filesystem1.83.0 libboost-program-options-dev
  libboost-program-options1.83-dev libboost-program-options1.83.0
  libboost-regex-dev libboost-regex1.83-dev libboost-regex1.83.0
  libboost-serialization1.83-dev libboost-serialization1.83.0
  libboost-system-dev libboost-system1.83-dev libboost-system1.83.0
  libboost-thread-dev libboost-thread1.83-dev libboost-thread1.83.0
  libboost1.83-dev libbrotli1 libbz2-dev libclass-loader-dev libclass-loader3d
  libconsole-bridge-dev libconsole-bridge1.0 libcpp-common0d libcurl4
  libexpat1-dev libgpg-error-dev libgpgme-dev libgpgme11 libicu-dev
  libjsoncpp25 libldap-dev libldap2-dev liblog4cxx-dev liblog4cxx15 liblz4-dev
  libnghttp2-14 libpsl5 libpython3.11 librcpputils-dev librcpputils1d
  librcutils-dev librcutils1d librhash0 libros-rosgraph-msgs-dev
  librosbag-storage-dev librosbag-storage4d librosbag4d librosconsole-dev
  librosconsole3d libroscpp-core-dev libroscpp-dev libroscpp-msg-dev
  libroscpp-serialization0d libroscpp4d libroslib-dev libroslib0d libroslz4-1d
  libroslz4-dev librospack-dev librospack0d librostime1d librtmp1 libsctp-dev
  libsctp1 libssh2-1 libstd-msgs-dev libstd-srvs-dev libtinyxml2-10
  libtinyxml2-9 libtinyxml2-dev libtopic-tools-dev libtopic-tools2d libuv1
  libxmlrpcpp-dev libxmlrpcpp3d pluginlib-dev python3-ament-cmake-test
  python3-ament-package python3-catkin-pkg python3-dateutil python3-distutils
  python3-docutils python3-lib2to3 python3-pkg-resources python3-pyparsing
  python3-roman python3-setuptools python3-six ros-environment
  ros-message-runtime sgml-base uuid-dev xml-core
Suggested packages:
  cmake-doc cmake-format elpa-cmake-mode ninja-build lrzip libboost-doc
  libboost1.83-doc libboost-container1.83-dev libboost-context1.83-dev
  libboost-contract1.83-dev libboost-coroutine1.83-dev
  libboost-exception1.83-dev libboost-fiber1.83-dev
  libboost-graph-parallel1.83-dev libboost-graph1.83-dev
  libboost-iostreams1.83-dev libboost-json1.83-dev libboost-locale1.83-dev
  libboost-log1.83-dev libboost-math1.83-dev libboost-mpi-python1.83-dev
  libboost-mpi1.83-dev libboost-nowide1.83-dev libboost-numpy1.83-dev
  libboost-python1.83-dev libboost-random1.83-dev libboost-stacktrace1.83-dev
  libboost-test1.83-dev libboost-timer1.83-dev libboost-type-erasure1.83-dev
  libboost-url1.83-dev libboost-wave1.83-dev libboost1.83-tools-dev
  libmpfrc++-dev libntl-dev icu-doc liblog4cxx-doc pkg-config zip lksctp-tools
  docutils-doc fonts-linuxlibertine | ttf-linux-libertine texlive-lang-french
  texlive-latex-base texlive-latex-recommended python-pyparsing-doc
  python-setuptools-doc sgml-base-doc debhelper
Recommended packages:
  bzip2-doc ca-certificates publicsuffix libpaper-utils python3-pil
  python3-pygments
The following NEW packages will be installed:
  ament-cmake ament-cmake-core ament-cmake-python cmake cmake-data
  docutils-common icu-devtools libament-index-cpp-dev libament-index-cpp0d
  libapr1 libapr1-dev libaprutil1 libaprutil1-dbd-sqlite3 libaprutil1-dev
  libarchive13 libassuan-dev libb64-0d libb64-dev libboost-atomic1.83-dev
  libboost-atomic1.83.0 libboost-chrono1.83-dev libboost-chrono1.83.0
  libboost-date-time-dev libboost-date-time1.83-dev libboost-date-time1.83.0
  libboost-dev libboost-filesystem-dev libboost-filesystem1.83-dev
  libboost-filesystem1.83.0 libboost-program-options-dev
  libboost-program-options1.83-dev libboost-program-options1.83.0
  libboost-regex-dev libboost-regex1.83-dev libboost-regex1.83.0
  libboost-serialization1.83-dev libboost-serialization1.83.0
  libboost-system-dev libboost-system1.83-dev libboost-system1.83.0
  libboost-thread-dev libboost-thread1.83-dev libboost-thread1.83.0
  libboost1.83-dev libbrotli1 libbz2-dev libclass-loader-dev libclass-loader3d
  libconsole-bridge-dev libconsole-bridge1.0 libcpp-common0d libcurl4
  libexpat1-dev libgpg-error-dev libgpgme-dev libgpgme11 libicu-dev
  libjsoncpp25 libldap-dev libldap2-dev liblog4cxx-dev liblog4cxx15 liblz4-dev
  libnghttp2-14 libpsl5 libpython3.11 librcpputils-dev librcpputils1d
  librcutils-dev librcutils1d librhash0 libros-rosgraph-msgs-dev librosbag-dev
  librosbag-storage-dev librosbag-storage4d librosbag4d librosconsole-dev
  librosconsole3d libroscpp-core-dev libroscpp-dev libroscpp-msg-dev
  libroscpp-serialization0d libroscpp4d libroslib-dev libroslib0d libroslz4-1d
  libroslz4-dev librospack-dev librospack0d librostime1d librtmp1 libsctp-dev
  libsctp1 libssh2-1 libstd-msgs-dev libstd-srvs-dev libtinyxml2-10
  libtinyxml2-9 libtinyxml2-dev libtopic-tools-dev libtopic-tools2d libuv1
  libxmlrpcpp-dev libxmlrpcpp3d pluginlib-dev python3-ament-cmake-test
  python3-ament-package python3-catkin-pkg python3-dateutil python3-distutils
  python3-docutils python3-lib2to3 python3-pkg-resources python3-pyparsing
  python3-roman python3-setuptools python3-six ros-environment
  ros-message-runtime sgml-base uuid-dev xml-core
0 upgraded, 122 newly installed, 0 to remove and 24 not upgraded.
Need to get 43.7 MB of archives.
After this operation, 331 MB of additional disk space will be used.
Get:1 http://deb.debian.org/debian unstable/main armhf sgml-base all 1.31 [15.4 kB]
Get:2 http://deb.debian.org/debian unstable/main armhf libarchive13 armhf 3.7.2-1 [301 kB]
Get:3 http://deb.debian.org/debian unstable/main armhf libbrotli1 armhf 1.1.0-2+b3 [284 kB]
Get:4 http://deb.debian.org/debian unstable/main armhf libnghttp2-14 armhf 1.58.0-1 [61.9 kB]
Get:5 http://deb.debian.org/debian unstable/main armhf libpsl5 armhf 0.21.2-1+b1 [57.8 kB]
Get:6 http://deb.debian.org/debian unstable/main armhf librtmp1 armhf 2.4+20151223.gitfa8646d.1-2+b2 [55.2 kB]
Get:7 http://deb.debian.org/debian unstable/main armhf libssh2-1 armhf 1.11.0-4 [197 kB]
Get:8 http://deb.debian.org/debian unstable/main armhf libcurl4 armhf 8.5.0-2 [383 kB]
Get:9 http://deb.debian.org/debian unstable/main armhf libjsoncpp25 armhf 1.9.5-6+b2 [69.9 kB]
Get:10 http://deb.debian.org/debian unstable/main armhf librhash0 armhf 1.4.3-3 [146 kB]
Get:11 http://deb.debian.org/debian unstable/main armhf libuv1 armhf 1.46.0-3 [130 kB]
Get:12 http://deb.debian.org/debian unstable/main armhf cmake-data all 3.28.1-1 [2127 kB]
Get:13 http://deb.debian.org/debian unstable/main armhf cmake armhf 3.28.1-1 [5132 kB]
Get:14 http://deb.debian.org/debian unstable/main armhf python3-ament-package all 0.16.2-1 [16.4 kB]
Get:15 http://deb.debian.org/debian unstable/main armhf python3-six all 1.16.0-4 [17.5 kB]
Get:16 http://deb.debian.org/debian unstable/main armhf python3-dateutil all 2.8.2-3 [78.4 kB]
Get:17 http://deb.debian.org/debian unstable/main armhf xml-core all 0.19 [20.1 kB]
Get:18 http://deb.debian.org/debian unstable/main armhf docutils-common all 0.20.1+dfsg-3 [128 kB]
Get:19 http://deb.debian.org/debian unstable/main armhf python3-roman all 3.3-3 [9880 B]
Get:20 http://deb.debian.org/debian unstable/main armhf python3-docutils all 0.20.1+dfsg-3 [389 kB]
Get:21 http://deb.debian.org/debian unstable/main armhf python3-pkg-resources all 68.1.2-2 [241 kB]
Get:22 http://deb.debian.org/debian unstable/main armhf python3-pyparsing all 3.1.1-1 [145 kB]
Get:23 http://deb.debian.org/debian unstable/main armhf python3-catkin-pkg all 1.0.0-2 [48.6 kB]
Get:24 http://deb.debian.org/debian unstable/main armhf ament-cmake-core all 2.3.2-1 [23.1 kB]
Get:25 http://deb.debian.org/debian unstable/main armhf python3-lib2to3 all 3.11.5-1 [77.5 kB]
Get:26 http://deb.debian.org/debian unstable/main armhf python3-distutils all 3.11.5-1 [131 kB]
Get:27 http://deb.debian.org/debian unstable/main armhf python3-setuptools all 68.1.2-2 [468 kB]
Get:28 http://deb.debian.org/debian unstable/main armhf ament-cmake-python all 2.3.2-1 [7712 B]
Get:29 http://deb.debian.org/debian unstable/main armhf python3-ament-cmake-test all 2.3.2-1 [11.4 kB]
Get:30 http://deb.debian.org/debian unstable/main armhf ament-cmake all 2.3.2-1 [28.2 kB]
Get:31 http://deb.debian.org/debian unstable/main armhf icu-devtools armhf 72.1-4 [184 kB]
Get:32 http://deb.debian.org/debian unstable/main armhf libament-index-cpp0d armhf 1.7.0-1 [13.1 kB]
Get:33 http://deb.debian.org/debian unstable/main armhf libament-index-cpp-dev armhf 1.7.0-1 [7604 B]
Get:34 http://deb.debian.org/debian unstable/main armhf libapr1 armhf 1.7.2-3+b2 [83.7 kB]
Get:35 http://deb.debian.org/debian unstable/main armhf uuid-dev armhf 2.39.3-6 [39.6 kB]
Get:36 http://deb.debian.org/debian unstable/main armhf libsctp1 armhf 1.0.19+dfsg-2 [29.1 kB]
Get:37 http://deb.debian.org/debian unstable/main armhf libsctp-dev armhf 1.0.19+dfsg-2 [71.6 kB]
Get:38 http://deb.debian.org/debian unstable/main armhf libapr1-dev armhf 1.7.2-3+b2 [753 kB]
Get:39 http://deb.debian.org/debian unstable/main armhf libaprutil1 armhf 1.6.3-1+b1 [77.9 kB]
Get:40 http://deb.debian.org/debian unstable/main armhf libaprutil1-dbd-sqlite3 armhf 1.6.3-1+b1 [12.5 kB]
Get:41 http://deb.debian.org/debian unstable/main armhf libldap-dev armhf 2.5.13+dfsg-5+b2 [277 kB]
Get:42 http://deb.debian.org/debian unstable/main armhf libldap2-dev all 2.5.13+dfsg-5 [22.6 kB]
Get:43 http://deb.debian.org/debian unstable/main armhf libexpat1-dev armhf 2.5.0-2+b2 [134 kB]
Get:44 http://deb.debian.org/debian unstable/main armhf libaprutil1-dev armhf 1.6.3-1+b1 [407 kB]
Get:45 http://deb.debian.org/debian unstable/main armhf libgpg-error-dev armhf 1.47-3 [126 kB]
Get:46 http://deb.debian.org/debian unstable/main armhf libassuan-dev armhf 2.5.6-1 [103 kB]
Get:47 http://deb.debian.org/debian unstable/main armhf libb64-0d armhf 1.2-5+b1 [9504 B]
Get:48 http://deb.debian.org/debian unstable/main armhf libb64-dev armhf 1.2-5+b1 [6536 B]
Get:49 http://deb.debian.org/debian unstable/main armhf libboost1.83-dev armhf 1.83.0-2+b2 [10.6 MB]
Get:50 http://deb.debian.org/debian unstable/main armhf libboost-atomic1.83.0 armhf 1.83.0-2+b2 [232 kB]
Get:51 http://deb.debian.org/debian unstable/main armhf libboost-atomic1.83-dev armhf 1.83.0-2+b2 [234 kB]
Get:52 http://deb.debian.org/debian unstable/main armhf libboost-chrono1.83.0 armhf 1.83.0-2+b2 [238 kB]
Get:53 http://deb.debian.org/debian unstable/main armhf libboost-chrono1.83-dev armhf 1.83.0-2+b2 [244 kB]
Get:54 http://deb.debian.org/debian unstable/main armhf libboost-date-time1.83.0 armhf 1.83.0-2+b2 [230 kB]
Get:55 http://deb.debian.org/debian unstable/main armhf libboost-serialization1.83.0 armhf 1.83.0-2+b2 [315 kB]
Get:56 http://deb.debian.org/debian unstable/main armhf libboost-serialization1.83-dev armhf 1.83.0-2+b2 [385 kB]
Get:57 http://deb.debian.org/debian unstable/main armhf libboost-date-time1.83-dev armhf 1.83.0-2+b2 [239 kB]
Get:58 http://deb.debian.org/debian unstable/main armhf libboost-date-time-dev armhf 1.83.0.2 [3308 B]
Get:59 http://deb.debian.org/debian unstable/main armhf libboost-dev armhf 1.83.0.2 [3552 B]
Get:60 http://deb.debian.org/debian unstable/main armhf libboost-filesystem1.83.0 armhf 1.83.0-2+b2 [271 kB]
Get:61 http://deb.debian.org/debian unstable/main armhf libboost-system1.83.0 armhf 1.83.0-2+b2 [230 kB]
Get:62 http://deb.debian.org/debian unstable/main armhf libboost-system1.83-dev armhf 1.83.0-2+b2 [231 kB]
Get:63 http://deb.debian.org/debian unstable/main armhf libboost-filesystem1.83-dev armhf 1.83.0-2+b2 [284 kB]
Get:64 http://deb.debian.org/debian unstable/main armhf libboost-filesystem-dev armhf 1.83.0.2 [3340 B]
Get:65 http://deb.debian.org/debian unstable/main armhf libboost-program-options1.83.0 armhf 1.83.0-2+b2 [326 kB]
Get:66 http://deb.debian.org/debian unstable/main armhf libboost-program-options1.83-dev armhf 1.83.0-2+b2 [370 kB]
Get:67 http://deb.debian.org/debian unstable/main armhf libboost-program-options-dev armhf 1.83.0.2 [3320 B]
Get:68 http://deb.debian.org/debian unstable/main armhf libboost-regex1.83.0 armhf 1.83.0-2+b2 [307 kB]
Get:69 http://deb.debian.org/debian unstable/main armhf libicu-dev armhf 72.1-4 [10.1 MB]
Get:70 http://deb.debian.org/debian unstable/main armhf libboost-regex1.83-dev armhf 1.83.0-2+b2 [335 kB]
Get:71 http://deb.debian.org/debian unstable/main armhf libboost-regex-dev armhf 1.83.0.2 [3580 B]
Get:72 http://deb.debian.org/debian unstable/main armhf libboost-system-dev armhf 1.83.0.2 [3448 B]
Get:73 http://deb.debian.org/debian unstable/main armhf libboost-thread1.83.0 armhf 1.83.0-2+b2 [261 kB]
Get:74 http://deb.debian.org/debian unstable/main armhf libboost-thread1.83-dev armhf 1.83.0-2+b2 [276 kB]
Get:75 http://deb.debian.org/debian unstable/main armhf libboost-thread-dev armhf 1.83.0.2 [3332 B]
Get:76 http://deb.debian.org/debian unstable/main armhf libbz2-dev armhf 1.0.8-5+b2 [28.2 kB]
Get:77 http://deb.debian.org/debian unstable/main armhf libconsole-bridge1.0 armhf 1.0.1+dfsg2-3+b1 [10.8 kB]
Get:78 http://deb.debian.org/debian unstable/main armhf librcutils1d armhf 6.5.0-1 [39.3 kB]
Get:79 http://deb.debian.org/debian unstable/main armhf librcpputils1d armhf 2.9.0-1 [23.3 kB]
Get:80 http://deb.debian.org/debian unstable/main armhf libclass-loader3d armhf 2.7.0-1 [28.5 kB]
Get:81 http://deb.debian.org/debian unstable/main armhf libconsole-bridge-dev armhf 1.0.1+dfsg2-3+b1 [8508 B]
Get:82 http://deb.debian.org/debian unstable/main armhf librcutils-dev armhf 6.5.0-1 [55.2 kB]
Get:83 http://deb.debian.org/debian unstable/main armhf librcpputils-dev armhf 2.9.0-1 [24.8 kB]
Get:84 http://deb.debian.org/debian unstable/main armhf libclass-loader-dev armhf 2.7.0-1 [22.5 kB]
Get:85 http://deb.debian.org/debian unstable/main armhf libcpp-common0d armhf 0.7.3-1 [13.9 kB]
Get:86 http://deb.debian.org/debian unstable/main armhf libgpgme11 armhf 1.18.0-4+b1 [281 kB]
Get:87 http://deb.debian.org/debian unstable/main armhf libgpgme-dev armhf 1.18.0-4+b1 [492 kB]
Get:88 http://deb.debian.org/debian unstable/main armhf liblog4cxx15 armhf 1.1.0-1 [415 kB]
Get:89 http://deb.debian.org/debian unstable/main armhf liblog4cxx-dev armhf 1.1.0-1 [110 kB]
Get:90 http://deb.debian.org/debian unstable/main armhf liblz4-dev armhf 1.9.4-1+b2 [75.1 kB]
Get:91 http://deb.debian.org/debian unstable/main armhf libpython3.11 armhf 3.11.7-2 [1710 kB]
Get:92 http://deb.debian.org/debian unstable/main armhf libroscpp-serialization0d armhf 0.7.3-1 [5668 B]
Get:93 http://deb.debian.org/debian unstable/main armhf librostime1d armhf 0.7.3-1 [25.6 kB]
Get:94 http://deb.debian.org/debian unstable/main armhf libroscpp-core-dev armhf 0.7.3-1 [23.3 kB]
Get:95 http://deb.debian.org/debian unstable/main armhf ros-message-runtime armhf 0.4.13-5 [6292 B]
Get:96 http://deb.debian.org/debian unstable/main armhf libstd-msgs-dev armhf 0.5.13-3 [18.7 kB]
Get:97 http://deb.debian.org/debian unstable/main armhf libros-rosgraph-msgs-dev armhf 1.11.3-3 [9812 B]
Get:98 http://deb.debian.org/debian unstable/main armhf libtinyxml2-9 armhf 9.0.0+dfsg-3.1 [26.4 kB]
Get:99 http://deb.debian.org/debian unstable/main armhf librospack0d armhf 2.6.2-8+b2 [84.2 kB]
Get:100 http://deb.debian.org/debian unstable/main armhf libroslib0d armhf 1.15.8-5 [20.7 kB]
Get:101 http://deb.debian.org/debian unstable/main armhf libroslz4-1d armhf 1.16.0+ds-3+b2 [10.3 kB]
Get:102 http://deb.debian.org/debian unstable/main armhf librosbag-storage4d armhf 1.16.0+ds-3+b2 [171 kB]
Get:103 http://deb.debian.org/debian unstable/main armhf librosconsole3d armhf 1.14.3-11+b1 [133 kB]
Get:104 http://deb.debian.org/debian unstable/main armhf libxmlrpcpp3d armhf 1.16.0+ds-3+b2 [46.3 kB]
Get:105 http://deb.debian.org/debian unstable/main armhf libroscpp4d armhf 1.16.0+ds-3+b2 [414 kB]
Get:106 http://deb.debian.org/debian unstable/main armhf libtopic-tools2d armhf 1.16.0+ds-3+b2 [10.4 kB]
Get:107 http://deb.debian.org/debian unstable/main armhf librosbag4d armhf 1.16.0+ds-3+b2 [190 kB]
Get:108 http://deb.debian.org/debian unstable/main armhf libroslz4-dev armhf 1.16.0+ds-3+b2 [9812 B]
Get:109 http://deb.debian.org/debian unstable/main armhf libtinyxml2-10 armhf 10.0.0+dfsg-2+b1 [25.5 kB]
Get:110 http://deb.debian.org/debian unstable/main armhf libtinyxml2-dev armhf 10.0.0+dfsg-2+b1 [23.2 kB]
Get:111 http://deb.debian.org/debian unstable/main armhf librospack-dev armhf 2.6.2-8+b2 [15.7 kB]
Get:112 http://deb.debian.org/debian unstable/main armhf ros-environment all 1.3.2-2 [6156 B]
Get:113 http://deb.debian.org/debian unstable/main armhf libroslib-dev armhf 1.15.8-5 [8864 B]
Get:114 http://deb.debian.org/debian unstable/main armhf pluginlib-dev armhf 5.3.0-1 [22.1 kB]
Get:115 http://deb.debian.org/debian unstable/main armhf librosbag-storage-dev armhf 1.16.0+ds-3+b2 [21.9 kB]
Get:116 http://deb.debian.org/debian unstable/main armhf librosconsole-dev armhf 1.14.3-11+b1 [16.8 kB]
Get:117 http://deb.debian.org/debian unstable/main armhf libxmlrpcpp-dev armhf 1.16.0+ds-3+b2 [17.8 kB]
Get:118 http://deb.debian.org/debian unstable/main armhf libroscpp-msg-dev armhf 1.16.0+ds-3+b2 [9408 B]
Get:119 http://deb.debian.org/debian unstable/main armhf libroscpp-dev armhf 1.16.0+ds-3+b2 [56.3 kB]
Get:120 http://deb.debian.org/debian unstable/main armhf libtopic-tools-dev armhf 1.16.0+ds-3+b2 [17.5 kB]
Get:121 http://deb.debian.org/debian unstable/main armhf libstd-srvs-dev armhf 1.11.3-3 [9132 B]
Get:122 http://deb.debian.org/debian unstable/main armhf librosbag-dev armhf 1.16.0+ds-3+b2 [12.0 kB]
debconf: delaying package configuration, since apt-utils is not installed
Fetched 43.7 MB in 2s (21.1 MB/s)
Selecting previously unselected package sgml-base.
(Reading database ... (Reading database ... 5%(Reading database ... 10%(Reading database ... 15%(Reading database ... 20%(Reading database ... 25%(Reading database ... 30%(Reading database ... 35%(Reading database ... 40%(Reading database ... 45%(Reading database ... 50%(Reading database ... 55%(Reading database ... 60%(Reading database ... 65%(Reading database ... 70%(Reading database ... 75%(Reading database ... 80%(Reading database ... 85%(Reading database ... 90%(Reading database ... 95%(Reading database ... 100%(Reading database ... 16990 files and directories currently installed.)
Preparing to unpack .../000-sgml-base_1.31_all.deb ...
Unpacking sgml-base (1.31) ...
Selecting previously unselected package libarchive13:armhf.
Preparing to unpack .../001-libarchive13_3.7.2-1_armhf.deb ...
Unpacking libarchive13:armhf (3.7.2-1) ...
Selecting previously unselected package libbrotli1:armhf.
Preparing to unpack .../002-libbrotli1_1.1.0-2+b3_armhf.deb ...
Unpacking libbrotli1:armhf (1.1.0-2+b3) ...
Selecting previously unselected package libnghttp2-14:armhf.
Preparing to unpack .../003-libnghttp2-14_1.58.0-1_armhf.deb ...
Unpacking libnghttp2-14:armhf (1.58.0-1) ...
Selecting previously unselected package libpsl5:armhf.
Preparing to unpack .../004-libpsl5_0.21.2-1+b1_armhf.deb ...
Unpacking libpsl5:armhf (0.21.2-1+b1) ...
Selecting previously unselected package librtmp1:armhf.
Preparing to unpack .../005-librtmp1_2.4+20151223.gitfa8646d.1-2+b2_armhf.deb ...
Unpacking librtmp1:armhf (2.4+20151223.gitfa8646d.1-2+b2) ...
Selecting previously unselected package libssh2-1:armhf.
Preparing to unpack .../006-libssh2-1_1.11.0-4_armhf.deb ...
Unpacking libssh2-1:armhf (1.11.0-4) ...
Selecting previously unselected package libcurl4:armhf.
Preparing to unpack .../007-libcurl4_8.5.0-2_armhf.deb ...
Unpacking libcurl4:armhf (8.5.0-2) ...
Selecting previously unselected package libjsoncpp25:armhf.
Preparing to unpack .../008-libjsoncpp25_1.9.5-6+b2_armhf.deb ...
Unpacking libjsoncpp25:armhf (1.9.5-6+b2) ...
Selecting previously unselected package librhash0:armhf.
Preparing to unpack .../009-librhash0_1.4.3-3_armhf.deb ...
Unpacking librhash0:armhf (1.4.3-3) ...
Selecting previously unselected package libuv1:armhf.
Preparing to unpack .../010-libuv1_1.46.0-3_armhf.deb ...
Unpacking libuv1:armhf (1.46.0-3) ...
Selecting previously unselected package cmake-data.
Preparing to unpack .../011-cmake-data_3.28.1-1_all.deb ...
Unpacking cmake-data (3.28.1-1) ...
Selecting previously unselected package cmake.
Preparing to unpack .../012-cmake_3.28.1-1_armhf.deb ...
Unpacking cmake (3.28.1-1) ...
Selecting previously unselected package python3-ament-package.
Preparing to unpack .../013-python3-ament-package_0.16.2-1_all.deb ...
Unpacking python3-ament-package (0.16.2-1) ...
Selecting previously unselected package python3-six.
Preparing to unpack .../014-python3-six_1.16.0-4_all.deb ...
Unpacking python3-six (1.16.0-4) ...
Selecting previously unselected package python3-dateutil.
Preparing to unpack .../015-python3-dateutil_2.8.2-3_all.deb ...
Unpacking python3-dateutil (2.8.2-3) ...
Selecting previously unselected package xml-core.
Preparing to unpack .../016-xml-core_0.19_all.deb ...
Unpacking xml-core (0.19) ...
Selecting previously unselected package docutils-common.
Preparing to unpack .../017-docutils-common_0.20.1+dfsg-3_all.deb ...
Unpacking docutils-common (0.20.1+dfsg-3) ...
Selecting previously unselected package python3-roman.
Preparing to unpack .../018-python3-roman_3.3-3_all.deb ...
Unpacking python3-roman (3.3-3) ...
Selecting previously unselected package python3-docutils.
Preparing to unpack .../019-python3-docutils_0.20.1+dfsg-3_all.deb ...
Unpacking python3-docutils (0.20.1+dfsg-3) ...
Selecting previously unselected package python3-pkg-resources.
Preparing to unpack .../020-python3-pkg-resources_68.1.2-2_all.deb ...
Unpacking python3-pkg-resources (68.1.2-2) ...
Selecting previously unselected package python3-pyparsing.
Preparing to unpack .../021-python3-pyparsing_3.1.1-1_all.deb ...
Unpacking python3-pyparsing (3.1.1-1) ...
Selecting previously unselected package python3-catkin-pkg.
Preparing to unpack .../022-python3-catkin-pkg_1.0.0-2_all.deb ...
Unpacking python3-catkin-pkg (1.0.0-2) ...
Selecting previously unselected package ament-cmake-core.
Preparing to unpack .../023-ament-cmake-core_2.3.2-1_all.deb ...
Unpacking ament-cmake-core (2.3.2-1) ...
Selecting previously unselected package python3-lib2to3.
Preparing to unpack .../024-python3-lib2to3_3.11.5-1_all.deb ...
Unpacking python3-lib2to3 (3.11.5-1) ...
Selecting previously unselected package python3-distutils.
Preparing to unpack .../025-python3-distutils_3.11.5-1_all.deb ...
Unpacking python3-distutils (3.11.5-1) ...
Selecting previously unselected package python3-setuptools.
Preparing to unpack .../026-python3-setuptools_68.1.2-2_all.deb ...
Unpacking python3-setuptools (68.1.2-2) ...
Selecting previously unselected package ament-cmake-python.
Preparing to unpack .../027-ament-cmake-python_2.3.2-1_all.deb ...
Unpacking ament-cmake-python (2.3.2-1) ...
Selecting previously unselected package python3-ament-cmake-test.
Preparing to unpack .../028-python3-ament-cmake-test_2.3.2-1_all.deb ...
Unpacking python3-ament-cmake-test (2.3.2-1) ...
Selecting previously unselected package ament-cmake.
Preparing to unpack .../029-ament-cmake_2.3.2-1_all.deb ...
Unpacking ament-cmake (2.3.2-1) ...
Selecting previously unselected package icu-devtools.
Preparing to unpack .../030-icu-devtools_72.1-4_armhf.deb ...
Unpacking icu-devtools (72.1-4) ...
Selecting previously unselected package libament-index-cpp0d:armhf.
Preparing to unpack .../031-libament-index-cpp0d_1.7.0-1_armhf.deb ...
Unpacking libament-index-cpp0d:armhf (1.7.0-1) ...
Selecting previously unselected package libament-index-cpp-dev:armhf.
Preparing to unpack .../032-libament-index-cpp-dev_1.7.0-1_armhf.deb ...
Unpacking libament-index-cpp-dev:armhf (1.7.0-1) ...
Selecting previously unselected package libapr1:armhf.
Preparing to unpack .../033-libapr1_1.7.2-3+b2_armhf.deb ...
Unpacking libapr1:armhf (1.7.2-3+b2) ...
Selecting previously unselected package uuid-dev:armhf.
Preparing to unpack .../034-uuid-dev_2.39.3-6_armhf.deb ...
Unpacking uuid-dev:armhf (2.39.3-6) ...
Selecting previously unselected package libsctp1:armhf.
Preparing to unpack .../035-libsctp1_1.0.19+dfsg-2_armhf.deb ...
Unpacking libsctp1:armhf (1.0.19+dfsg-2) ...
Selecting previously unselected package libsctp-dev:armhf.
Preparing to unpack .../036-libsctp-dev_1.0.19+dfsg-2_armhf.deb ...
Unpacking libsctp-dev:armhf (1.0.19+dfsg-2) ...
Selecting previously unselected package libapr1-dev.
Preparing to unpack .../037-libapr1-dev_1.7.2-3+b2_armhf.deb ...
Unpacking libapr1-dev (1.7.2-3+b2) ...
Selecting previously unselected package libaprutil1:armhf.
Preparing to unpack .../038-libaprutil1_1.6.3-1+b1_armhf.deb ...
Unpacking libaprutil1:armhf (1.6.3-1+b1) ...
Selecting previously unselected package libaprutil1-dbd-sqlite3:armhf.
Preparing to unpack .../039-libaprutil1-dbd-sqlite3_1.6.3-1+b1_armhf.deb ...
Unpacking libaprutil1-dbd-sqlite3:armhf (1.6.3-1+b1) ...
Selecting previously unselected package libldap-dev:armhf.
Preparing to unpack .../040-libldap-dev_2.5.13+dfsg-5+b2_armhf.deb ...
Unpacking libldap-dev:armhf (2.5.13+dfsg-5+b2) ...
Selecting previously unselected package libldap2-dev.
Preparing to unpack .../041-libldap2-dev_2.5.13+dfsg-5_all.deb ...
Unpacking libldap2-dev (2.5.13+dfsg-5) ...
Selecting previously unselected package libexpat1-dev:armhf.
Preparing to unpack .../042-libexpat1-dev_2.5.0-2+b2_armhf.deb ...
Unpacking libexpat1-dev:armhf (2.5.0-2+b2) ...
Selecting previously unselected package libaprutil1-dev.
Preparing to unpack .../043-libaprutil1-dev_1.6.3-1+b1_armhf.deb ...
Unpacking libaprutil1-dev (1.6.3-1+b1) ...
Selecting previously unselected package libgpg-error-dev.
Preparing to unpack .../044-libgpg-error-dev_1.47-3_armhf.deb ...
Unpacking libgpg-error-dev (1.47-3) ...
Selecting previously unselected package libassuan-dev.
Preparing to unpack .../045-libassuan-dev_2.5.6-1_armhf.deb ...
Unpacking libassuan-dev (2.5.6-1) ...
Selecting previously unselected package libb64-0d:armhf.
Preparing to unpack .../046-libb64-0d_1.2-5+b1_armhf.deb ...
Unpacking libb64-0d:armhf (1.2-5+b1) ...
Selecting previously unselected package libb64-dev:armhf.
Preparing to unpack .../047-libb64-dev_1.2-5+b1_armhf.deb ...
Unpacking libb64-dev:armhf (1.2-5+b1) ...
Selecting previously unselected package libboost1.83-dev:armhf.
Preparing to unpack .../048-libboost1.83-dev_1.83.0-2+b2_armhf.deb ...
Unpacking libboost1.83-dev:armhf (1.83.0-2+b2) ...
Selecting previously unselected package libboost-atomic1.83.0:armhf.
Preparing to unpack .../049-libboost-atomic1.83.0_1.83.0-2+b2_armhf.deb ...
Unpacking libboost-atomic1.83.0:armhf (1.83.0-2+b2) ...
Selecting previously unselected package libboost-atomic1.83-dev:armhf.
Preparing to unpack .../050-libboost-atomic1.83-dev_1.83.0-2+b2_armhf.deb ...
Unpacking libboost-atomic1.83-dev:armhf (1.83.0-2+b2) ...
Selecting previously unselected package libboost-chrono1.83.0:armhf.
Preparing to unpack .../051-libboost-chrono1.83.0_1.83.0-2+b2_armhf.deb ...
Unpacking libboost-chrono1.83.0:armhf (1.83.0-2+b2) ...
Selecting previously unselected package libboost-chrono1.83-dev:armhf.
Preparing to unpack .../052-libboost-chrono1.83-dev_1.83.0-2+b2_armhf.deb ...
Unpacking libboost-chrono1.83-dev:armhf (1.83.0-2+b2) ...
Selecting previously unselected package libboost-date-time1.83.0:armhf.
Preparing to unpack .../053-libboost-date-time1.83.0_1.83.0-2+b2_armhf.deb ...
Unpacking libboost-date-time1.83.0:armhf (1.83.0-2+b2) ...
Selecting previously unselected package libboost-serialization1.83.0:armhf.
Preparing to unpack .../054-libboost-serialization1.83.0_1.83.0-2+b2_armhf.deb ...
Unpacking libboost-serialization1.83.0:armhf (1.83.0-2+b2) ...
Selecting previously unselected package libboost-serialization1.83-dev:armhf.
Preparing to unpack .../055-libboost-serialization1.83-dev_1.83.0-2+b2_armhf.deb ...
Unpacking libboost-serialization1.83-dev:armhf (1.83.0-2+b2) ...
Selecting previously unselected package libboost-date-time1.83-dev:armhf.
Preparing to unpack .../056-libboost-date-time1.83-dev_1.83.0-2+b2_armhf.deb ...
Unpacking libboost-date-time1.83-dev:armhf (1.83.0-2+b2) ...
Selecting previously unselected package libboost-date-time-dev:armhf.
Preparing to unpack .../057-libboost-date-time-dev_1.83.0.2_armhf.deb ...
Unpacking libboost-date-time-dev:armhf (1.83.0.2) ...
Selecting previously unselected package libboost-dev:armhf.
Preparing to unpack .../058-libboost-dev_1.83.0.2_armhf.deb ...
Unpacking libboost-dev:armhf (1.83.0.2) ...
Selecting previously unselected package libboost-filesystem1.83.0:armhf.
Preparing to unpack .../059-libboost-filesystem1.83.0_1.83.0-2+b2_armhf.deb ...
Unpacking libboost-filesystem1.83.0:armhf (1.83.0-2+b2) ...
Selecting previously unselected package libboost-system1.83.0:armhf.
Preparing to unpack .../060-libboost-system1.83.0_1.83.0-2+b2_armhf.deb ...
Unpacking libboost-system1.83.0:armhf (1.83.0-2+b2) ...
Selecting previously unselected package libboost-system1.83-dev:armhf.
Preparing to unpack .../061-libboost-system1.83-dev_1.83.0-2+b2_armhf.deb ...
Unpacking libboost-system1.83-dev:armhf (1.83.0-2+b2) ...
Selecting previously unselected package libboost-filesystem1.83-dev:armhf.
Preparing to unpack .../062-libboost-filesystem1.83-dev_1.83.0-2+b2_armhf.deb ...
Unpacking libboost-filesystem1.83-dev:armhf (1.83.0-2+b2) ...
Selecting previously unselected package libboost-filesystem-dev:armhf.
Preparing to unpack .../063-libboost-filesystem-dev_1.83.0.2_armhf.deb ...
Unpacking libboost-filesystem-dev:armhf (1.83.0.2) ...
Selecting previously unselected package libboost-program-options1.83.0:armhf.
Preparing to unpack .../064-libboost-program-options1.83.0_1.83.0-2+b2_armhf.deb ...
Unpacking libboost-program-options1.83.0:armhf (1.83.0-2+b2) ...
Selecting previously unselected package libboost-program-options1.83-dev:armhf.
Preparing to unpack .../065-libboost-program-options1.83-dev_1.83.0-2+b2_armhf.deb ...
Unpacking libboost-program-options1.83-dev:armhf (1.83.0-2+b2) ...
Selecting previously unselected package libboost-program-options-dev:armhf.
Preparing to unpack .../066-libboost-program-options-dev_1.83.0.2_armhf.deb ...
Unpacking libboost-program-options-dev:armhf (1.83.0.2) ...
Selecting previously unselected package libboost-regex1.83.0:armhf.
Preparing to unpack .../067-libboost-regex1.83.0_1.83.0-2+b2_armhf.deb ...
Unpacking libboost-regex1.83.0:armhf (1.83.0-2+b2) ...
Selecting previously unselected package libicu-dev:armhf.
Preparing to unpack .../068-libicu-dev_72.1-4_armhf.deb ...
Unpacking libicu-dev:armhf (72.1-4) ...
Selecting previously unselected package libboost-regex1.83-dev:armhf.
Preparing to unpack .../069-libboost-regex1.83-dev_1.83.0-2+b2_armhf.deb ...
Unpacking libboost-regex1.83-dev:armhf (1.83.0-2+b2) ...
Selecting previously unselected package libboost-regex-dev:armhf.
Preparing to unpack .../070-libboost-regex-dev_1.83.0.2_armhf.deb ...
Unpacking libboost-regex-dev:armhf (1.83.0.2) ...
Selecting previously unselected package libboost-system-dev:armhf.
Preparing to unpack .../071-libboost-system-dev_1.83.0.2_armhf.deb ...
Unpacking libboost-system-dev:armhf (1.83.0.2) ...
Selecting previously unselected package libboost-thread1.83.0:armhf.
Preparing to unpack .../072-libboost-thread1.83.0_1.83.0-2+b2_armhf.deb ...
Unpacking libboost-thread1.83.0:armhf (1.83.0-2+b2) ...
Selecting previously unselected package libboost-thread1.83-dev:armhf.
Preparing to unpack .../073-libboost-thread1.83-dev_1.83.0-2+b2_armhf.deb ...
Unpacking libboost-thread1.83-dev:armhf (1.83.0-2+b2) ...
Selecting previously unselected package libboost-thread-dev:armhf.
Preparing to unpack .../074-libboost-thread-dev_1.83.0.2_armhf.deb ...
Unpacking libboost-thread-dev:armhf (1.83.0.2) ...
Selecting previously unselected package libbz2-dev:armhf.
Preparing to unpack .../075-libbz2-dev_1.0.8-5+b2_armhf.deb ...
Unpacking libbz2-dev:armhf (1.0.8-5+b2) ...
Selecting previously unselected package libconsole-bridge1.0:armhf.
Preparing to unpack .../076-libconsole-bridge1.0_1.0.1+dfsg2-3+b1_armhf.deb ...
Unpacking libconsole-bridge1.0:armhf (1.0.1+dfsg2-3+b1) ...
Selecting previously unselected package librcutils1d:armhf.
Preparing to unpack .../077-librcutils1d_6.5.0-1_armhf.deb ...
Unpacking librcutils1d:armhf (6.5.0-1) ...
Selecting previously unselected package librcpputils1d:armhf.
Preparing to unpack .../078-librcpputils1d_2.9.0-1_armhf.deb ...
Unpacking librcpputils1d:armhf (2.9.0-1) ...
Selecting previously unselected package libclass-loader3d:armhf.
Preparing to unpack .../079-libclass-loader3d_2.7.0-1_armhf.deb ...
Unpacking libclass-loader3d:armhf (2.7.0-1) ...
Selecting previously unselected package libconsole-bridge-dev:armhf.
Preparing to unpack .../080-libconsole-bridge-dev_1.0.1+dfsg2-3+b1_armhf.deb ...
Unpacking libconsole-bridge-dev:armhf (1.0.1+dfsg2-3+b1) ...
Selecting previously unselected package librcutils-dev:armhf.
Preparing to unpack .../081-librcutils-dev_6.5.0-1_armhf.deb ...
Unpacking librcutils-dev:armhf (6.5.0-1) ...
Selecting previously unselected package librcpputils-dev:armhf.
Preparing to unpack .../082-librcpputils-dev_2.9.0-1_armhf.deb ...
Unpacking librcpputils-dev:armhf (2.9.0-1) ...
Selecting previously unselected package libclass-loader-dev:armhf.
Preparing to unpack .../083-libclass-loader-dev_2.7.0-1_armhf.deb ...
Unpacking libclass-loader-dev:armhf (2.7.0-1) ...
Selecting previously unselected package libcpp-common0d:armhf.
Preparing to unpack .../084-libcpp-common0d_0.7.3-1_armhf.deb ...
Unpacking libcpp-common0d:armhf (0.7.3-1) ...
Selecting previously unselected package libgpgme11:armhf.
Preparing to unpack .../085-libgpgme11_1.18.0-4+b1_armhf.deb ...
Unpacking libgpgme11:armhf (1.18.0-4+b1) ...
Selecting previously unselected package libgpgme-dev.
Preparing to unpack .../086-libgpgme-dev_1.18.0-4+b1_armhf.deb ...
Unpacking libgpgme-dev (1.18.0-4+b1) ...
Selecting previously unselected package liblog4cxx15:armhf.
Preparing to unpack .../087-liblog4cxx15_1.1.0-1_armhf.deb ...
Unpacking liblog4cxx15:armhf (1.1.0-1) ...
Selecting previously unselected package liblog4cxx-dev:armhf.
Preparing to unpack .../088-liblog4cxx-dev_1.1.0-1_armhf.deb ...
Unpacking liblog4cxx-dev:armhf (1.1.0-1) ...
Selecting previously unselected package liblz4-dev:armhf.
Preparing to unpack .../089-liblz4-dev_1.9.4-1+b2_armhf.deb ...
Unpacking liblz4-dev:armhf (1.9.4-1+b2) ...
Selecting previously unselected package libpython3.11:armhf.
Preparing to unpack .../090-libpython3.11_3.11.7-2_armhf.deb ...
Unpacking libpython3.11:armhf (3.11.7-2) ...
Selecting previously unselected package libroscpp-serialization0d:armhf.
Preparing to unpack .../091-libroscpp-serialization0d_0.7.3-1_armhf.deb ...
Unpacking libroscpp-serialization0d:armhf (0.7.3-1) ...
Selecting previously unselected package librostime1d:armhf.
Preparing to unpack .../092-librostime1d_0.7.3-1_armhf.deb ...
Unpacking librostime1d:armhf (0.7.3-1) ...
Selecting previously unselected package libroscpp-core-dev:armhf.
Preparing to unpack .../093-libroscpp-core-dev_0.7.3-1_armhf.deb ...
Unpacking libroscpp-core-dev:armhf (0.7.3-1) ...
Selecting previously unselected package ros-message-runtime:armhf.
Preparing to unpack .../094-ros-message-runtime_0.4.13-5_armhf.deb ...
Unpacking ros-message-runtime:armhf (0.4.13-5) ...
Selecting previously unselected package libstd-msgs-dev:armhf.
Preparing to unpack .../095-libstd-msgs-dev_0.5.13-3_armhf.deb ...
Unpacking libstd-msgs-dev:armhf (0.5.13-3) ...
Selecting previously unselected package libros-rosgraph-msgs-dev:armhf.
Preparing to unpack .../096-libros-rosgraph-msgs-dev_1.11.3-3_armhf.deb ...
Unpacking libros-rosgraph-msgs-dev:armhf (1.11.3-3) ...
Selecting previously unselected package libtinyxml2-9:armhf.
Preparing to unpack .../097-libtinyxml2-9_9.0.0+dfsg-3.1_armhf.deb ...
Unpacking libtinyxml2-9:armhf (9.0.0+dfsg-3.1) ...
Selecting previously unselected package librospack0d:armhf.
Preparing to unpack .../098-librospack0d_2.6.2-8+b2_armhf.deb ...
Unpacking librospack0d:armhf (2.6.2-8+b2) ...
Selecting previously unselected package libroslib0d:armhf.
Preparing to unpack .../099-libroslib0d_1.15.8-5_armhf.deb ...
Unpacking libroslib0d:armhf (1.15.8-5) ...
Selecting previously unselected package libroslz4-1d:armhf.
Preparing to unpack .../100-libroslz4-1d_1.16.0+ds-3+b2_armhf.deb ...
Unpacking libroslz4-1d:armhf (1.16.0+ds-3+b2) ...
Selecting previously unselected package librosbag-storage4d:armhf.
Preparing to unpack .../101-librosbag-storage4d_1.16.0+ds-3+b2_armhf.deb ...
Unpacking librosbag-storage4d:armhf (1.16.0+ds-3+b2) ...
Selecting previously unselected package librosconsole3d:armhf.
Preparing to unpack .../102-librosconsole3d_1.14.3-11+b1_armhf.deb ...
Unpacking librosconsole3d:armhf (1.14.3-11+b1) ...
Selecting previously unselected package libxmlrpcpp3d:armhf.
Preparing to unpack .../103-libxmlrpcpp3d_1.16.0+ds-3+b2_armhf.deb ...
Unpacking libxmlrpcpp3d:armhf (1.16.0+ds-3+b2) ...
Selecting previously unselected package libroscpp4d:armhf.
Preparing to unpack .../104-libroscpp4d_1.16.0+ds-3+b2_armhf.deb ...
Unpacking libroscpp4d:armhf (1.16.0+ds-3+b2) ...
Selecting previously unselected package libtopic-tools2d:armhf.
Preparing to unpack .../105-libtopic-tools2d_1.16.0+ds-3+b2_armhf.deb ...
Unpacking libtopic-tools2d:armhf (1.16.0+ds-3+b2) ...
Selecting previously unselected package librosbag4d:armhf.
Preparing to unpack .../106-librosbag4d_1.16.0+ds-3+b2_armhf.deb ...
Unpacking librosbag4d:armhf (1.16.0+ds-3+b2) ...
Selecting previously unselected package libroslz4-dev:armhf.
Preparing to unpack .../107-libroslz4-dev_1.16.0+ds-3+b2_armhf.deb ...
Unpacking libroslz4-dev:armhf (1.16.0+ds-3+b2) ...
Selecting previously unselected package libtinyxml2-10:armhf.
Preparing to unpack .../108-libtinyxml2-10_10.0.0+dfsg-2+b1_armhf.deb ...
Unpacking libtinyxml2-10:armhf (10.0.0+dfsg-2+b1) ...
Selecting previously unselected package libtinyxml2-dev:armhf.
Preparing to unpack .../109-libtinyxml2-dev_10.0.0+dfsg-2+b1_armhf.deb ...
Unpacking libtinyxml2-dev:armhf (10.0.0+dfsg-2+b1) ...
Selecting previously unselected package librospack-dev:armhf.
Preparing to unpack .../110-librospack-dev_2.6.2-8+b2_armhf.deb ...
Unpacking librospack-dev:armhf (2.6.2-8+b2) ...
Selecting previously unselected package ros-environment.
Preparing to unpack .../111-ros-environment_1.3.2-2_all.deb ...
Unpacking ros-environment (1.3.2-2) ...
Selecting previously unselected package libroslib-dev:armhf.
Preparing to unpack .../112-libroslib-dev_1.15.8-5_armhf.deb ...
Unpacking libroslib-dev:armhf (1.15.8-5) ...
Selecting previously unselected package pluginlib-dev:armhf.
Preparing to unpack .../113-pluginlib-dev_5.3.0-1_armhf.deb ...
Unpacking pluginlib-dev:armhf (5.3.0-1) ...
Selecting previously unselected package librosbag-storage-dev:armhf.
Preparing to unpack .../114-librosbag-storage-dev_1.16.0+ds-3+b2_armhf.deb ...
Unpacking librosbag-storage-dev:armhf (1.16.0+ds-3+b2) ...
Selecting previously unselected package librosconsole-dev:armhf.
Preparing to unpack .../115-librosconsole-dev_1.14.3-11+b1_armhf.deb ...
Unpacking librosconsole-dev:armhf (1.14.3-11+b1) ...
Selecting previously unselected package libxmlrpcpp-dev:armhf.
Preparing to unpack .../116-libxmlrpcpp-dev_1.16.0+ds-3+b2_armhf.deb ...
Unpacking libxmlrpcpp-dev:armhf (1.16.0+ds-3+b2) ...
Selecting previously unselected package libroscpp-msg-dev:armhf.
Preparing to unpack .../117-libroscpp-msg-dev_1.16.0+ds-3+b2_armhf.deb ...
Unpacking libroscpp-msg-dev:armhf (1.16.0+ds-3+b2) ...
Selecting previously unselected package libroscpp-dev:armhf.
Preparing to unpack .../118-libroscpp-dev_1.16.0+ds-3+b2_armhf.deb ...
Unpacking libroscpp-dev:armhf (1.16.0+ds-3+b2) ...
Selecting previously unselected package libtopic-tools-dev:armhf.
Preparing to unpack .../119-libtopic-tools-dev_1.16.0+ds-3+b2_armhf.deb ...
Unpacking libtopic-tools-dev:armhf (1.16.0+ds-3+b2) ...
Selecting previously unselected package libstd-srvs-dev:armhf.
Preparing to unpack .../120-libstd-srvs-dev_1.11.3-3_armhf.deb ...
Unpacking libstd-srvs-dev:armhf (1.11.3-3) ...
Selecting previously unselected package librosbag-dev:armhf.
Preparing to unpack .../121-librosbag-dev_1.16.0+ds-3+b2_armhf.deb ...
Unpacking librosbag-dev:armhf (1.16.0+ds-3+b2) ...
Setting up python3-pkg-resources (68.1.2-2) ...
Setting up libboost-program-options1.83.0:armhf (1.83.0-2+b2) ...
Setting up libboost1.83-dev:armhf (1.83.0-2+b2) ...
Setting up libpsl5:armhf (0.21.2-1+b1) ...
Setting up libpython3.11:armhf (3.11.7-2) ...
Setting up libboost-date-time1.83.0:armhf (1.83.0-2+b2) ...
Setting up libarchive13:armhf (3.7.2-1) ...
Setting up libboost-regex1.83.0:armhf (1.83.0-2+b2) ...
Setting up libbrotli1:armhf (1.1.0-2+b3) ...
Setting up librcutils1d:armhf (6.5.0-1) ...
Setting up libboost-system1.83.0:armhf (1.83.0-2+b2) ...
Setting up libboost-program-options1.83-dev:armhf (1.83.0-2+b2) ...
Setting up libnghttp2-14:armhf (1.58.0-1) ...
Setting up libapr1:armhf (1.7.2-3+b2) ...
Setting up libtinyxml2-10:armhf (10.0.0+dfsg-2+b1) ...
Setting up libboost-thread1.83.0:armhf (1.83.0-2+b2) ...
Setting up libb64-0d:armhf (1.2-5+b1) ...
Setting up libboost-filesystem1.83.0:armhf (1.83.0-2+b2) ...
Setting up libgpgme11:armhf (1.18.0-4+b1) ...
Setting up libroslz4-1d:armhf (1.16.0+ds-3+b2) ...
Setting up libboost-atomic1.83.0:armhf (1.83.0-2+b2) ...
Setting up python3-six (1.16.0-4) ...
Setting up libboost-serialization1.83.0:armhf (1.83.0-2+b2) ...
Setting up python3-ament-package (0.16.2-1) ...
Setting up python3-roman (3.3-3) ...
Setting up libuv1:armhf (1.46.0-3) ...
Setting up libexpat1-dev:armhf (2.5.0-2+b2) ...
Setting up python3-pyparsing (3.1.1-1) ...
Setting up libboost-program-options-dev:armhf (1.83.0.2) ...
Setting up libgpg-error-dev (1.47-3) ...
Setting up librtmp1:armhf (2.4+20151223.gitfa8646d.1-2+b2) ...
Setting up libldap-dev:armhf (2.5.13+dfsg-5+b2) ...
Setting up uuid-dev:armhf (2.39.3-6) ...
Setting up libtinyxml2-9:armhf (9.0.0+dfsg-3.1) ...
Setting up librcutils-dev:armhf (6.5.0-1) ...
Setting up libjsoncpp25:armhf (1.9.5-6+b2) ...
Setting up icu-devtools (72.1-4) ...
Setting up liblz4-dev:armhf (1.9.4-1+b2) ...
Setting up libassuan-dev (2.5.6-1) ...
Setting up libtinyxml2-dev:armhf (10.0.0+dfsg-2+b1) ...
Setting up libgpgme-dev (1.18.0-4+b1) ...
Setting up libboost-atomic1.83-dev:armhf (1.83.0-2+b2) ...
Setting up libsctp1:armhf (1.0.19+dfsg-2) ...
Setting up libament-index-cpp0d:armhf (1.7.0-1) ...
Setting up libboost-chrono1.83.0:armhf (1.83.0-2+b2) ...
Setting up librhash0:armhf (1.4.3-3) ...
Setting up python3-dateutil (2.8.2-3) ...
Setting up libssh2-1:armhf (1.11.0-4) ...
Setting up sgml-base (1.31) ...
Setting up cmake-data (3.28.1-1) ...
Setting up libboost-dev:armhf (1.83.0.2) ...
Setting up libboost-system1.83-dev:armhf (1.83.0-2+b2) ...
Setting up libconsole-bridge1.0:armhf (1.0.1+dfsg2-3+b1) ...
Setting up python3-lib2to3 (3.11.5-1) ...
Setting up libconsole-bridge-dev:armhf (1.0.1+dfsg2-3+b1) ...
Setting up libicu-dev:armhf (72.1-4) ...
Setting up libroscpp-serialization0d:armhf (0.7.3-1) ...
Setting up librostime1d:armhf (0.7.3-1) ...
Setting up libaprutil1:armhf (1.6.3-1+b1) ...
Setting up libbz2-dev:armhf (1.0.8-5+b2) ...
Setting up ros-environment (1.3.2-2) ...
Setting up python3-distutils (3.11.5-1) ...
Setting up librcpputils1d:armhf (2.9.0-1) ...
Setting up libboost-chrono1.83-dev:armhf (1.83.0-2+b2) ...
Setting up python3-setuptools (68.1.2-2) ...
Setting up libxmlrpcpp3d:armhf (1.16.0+ds-3+b2) ...
Setting up libament-index-cpp-dev:armhf (1.7.0-1) ...
Setting up librospack0d:armhf (2.6.2-8+b2) ...
Setting up libboost-system-dev:armhf (1.83.0.2) ...
Setting up libboost-serialization1.83-dev:armhf (1.83.0-2+b2) ...
Setting up libclass-loader3d:armhf (2.7.0-1) ...
Setting up libb64-dev:armhf (1.2-5+b1) ...
Setting up libboost-filesystem1.83-dev:armhf (1.83.0-2+b2) ...
Setting up librcpputils-dev:armhf (2.9.0-1) ...
Setting up libroslib0d:armhf (1.15.8-5) ...
Setting up libaprutil1-dbd-sqlite3:armhf (1.6.3-1+b1) ...
Setting up libldap2-dev (2.5.13+dfsg-5) ...
Setting up libcpp-common0d:armhf (0.7.3-1) ...
Setting up libboost-date-time1.83-dev:armhf (1.83.0-2+b2) ...
Setting up librosbag-storage4d:armhf (1.16.0+ds-3+b2) ...
Setting up libboost-regex1.83-dev:armhf (1.83.0-2+b2) ...
Setting up libsctp-dev:armhf (1.0.19+dfsg-2) ...
Setting up libboost-date-time-dev:armhf (1.83.0.2) ...
Setting up xml-core (0.19) ...
Setting up liblog4cxx15:armhf (1.1.0-1) ...
Setting up libcurl4:armhf (8.5.0-2) ...
Setting up libroscpp-core-dev:armhf (0.7.3-1) ...
Setting up libroslz4-dev:armhf (1.16.0+ds-3+b2) ...
Setting up libclass-loader-dev:armhf (2.7.0-1) ...
Setting up libboost-regex-dev:armhf (1.83.0.2) ...
Setting up libboost-filesystem-dev:armhf (1.83.0.2) ...
Setting up libboost-thread1.83-dev:armhf (1.83.0-2+b2) ...
Setting up librosconsole3d:armhf (1.14.3-11+b1) ...
Setting up ros-message-runtime:armhf (0.4.13-5) ...
Setting up libstd-msgs-dev:armhf (0.5.13-3) ...
Setting up libroscpp4d:armhf (1.16.0+ds-3+b2) ...
Setting up libroscpp-msg-dev:armhf (1.16.0+ds-3+b2) ...
Setting up librospack-dev:armhf (2.6.2-8+b2) ...
Setting up libapr1-dev (1.7.2-3+b2) ...
Setting up libxmlrpcpp-dev:armhf (1.16.0+ds-3+b2) ...
Setting up cmake (3.28.1-1) ...
Setting up libaprutil1-dev (1.6.3-1+b1) ...
Setting up libstd-srvs-dev:armhf (1.11.3-3) ...
Setting up libros-rosgraph-msgs-dev:armhf (1.11.3-3) ...
Setting up libboost-thread-dev:armhf (1.83.0.2) ...
Setting up libtopic-tools2d:armhf (1.16.0+ds-3+b2) ...
Setting up libroslib-dev:armhf (1.15.8-5) ...
Setting up liblog4cxx-dev:armhf (1.1.0-1) ...
Setting up librosbag4d:armhf (1.16.0+ds-3+b2) ...
Setting up librosconsole-dev:armhf (1.14.3-11+b1) ...
Setting up libroscpp-dev:armhf (1.16.0+ds-3+b2) ...
Setting up libtopic-tools-dev:armhf (1.16.0+ds-3+b2) ...
Processing triggers for libc-bin (2.37-13) ...
Processing triggers for sgml-base (1.31) ...
Setting up docutils-common (0.20.1+dfsg-3) ...
Processing triggers for sgml-base (1.31) ...
Setting up python3-docutils (0.20.1+dfsg-3) ...
Setting up python3-catkin-pkg (1.0.0-2) ...
Setting up ament-cmake-core (2.3.2-1) ...
Setting up ament-cmake-python (2.3.2-1) ...
Setting up python3-ament-cmake-test (2.3.2-1) ...
Setting up ament-cmake (2.3.2-1) ...
Setting up pluginlib-dev:armhf (5.3.0-1) ...
Setting up librosbag-storage-dev:armhf (1.16.0+ds-3+b2) ...
Setting up librosbag-dev:armhf (1.16.0+ds-3+b2) ...
Reading package lists...
Building dependency tree...
Reading state information...
The following packages will be REMOVED:
  librocm-smi-dev* librocm-smi64-1*
0 upgraded, 0 newly installed, 2 to remove and 24 not upgraded.
After this operation, 2717 kB disk space will be freed.
(Reading database ... (Reading database ... 5%(Reading database ... 10%(Reading database ... 15%(Reading database ... 20%(Reading database ... 25%(Reading database ... 30%(Reading database ... 35%(Reading database ... 40%(Reading database ... 45%(Reading database ... 50%(Reading database ... 55%(Reading database ... 60%(Reading database ... 65%(Reading database ... 70%(Reading database ... 75%(Reading database ... 80%(Reading database ... 85%(Reading database ... 90%(Reading database ... 95%(Reading database ... 100%(Reading database ... 41581 files and directories currently installed.)
Removing librocm-smi-dev (5.2.3-3) ...
Removing librocm-smi64-1 (5.2.3-3) ...
Processing triggers for libc-bin (2.37-13) ...
