[2024-01-08T14:59:19+00:00] apt-get install libzulucrypt-exe-dev abi-compliance-checker
Reading package lists...
Building dependency tree...
Reading state information...
abi-compliance-checker is already the newest version (2.3-2).
The following package was automatically installed and is no longer required:
  libzulucrypt-dev
Use 'apt autoremove' to remove it.
The following additional packages will be installed:
  libzulucrypt-exe1.2.0 libzulucryptpluginmanager1.0.0
The following NEW packages will be installed:
  libzulucrypt-exe-dev libzulucrypt-exe1.2.0 libzulucryptpluginmanager1.0.0
0 upgraded, 3 newly installed, 0 to remove and 13 not upgraded.
Need to get 89.4 kB of archives.
After this operation, 223 kB of additional disk space will be used.
Get:1 http://deb.debian.org/debian unstable/main armhf libzulucryptpluginmanager1.0.0 armhf 6.2.0-1 [28.2 kB]
Get:2 http://deb.debian.org/debian unstable/main armhf libzulucrypt-exe1.2.0 armhf 6.2.0-1 [47.6 kB]
Get:3 http://deb.debian.org/debian unstable/main armhf libzulucrypt-exe-dev armhf 6.2.0-1 [13.6 kB]
debconf: delaying package configuration, since apt-utils is not installed
Fetched 89.4 kB in 0s (515 kB/s)
Selecting previously unselected package libzulucryptpluginmanager1.0.0:armhf.
(Reading database ... (Reading database ... 5%(Reading database ... 10%(Reading database ... 15%(Reading database ... 20%(Reading database ... 25%(Reading database ... 30%(Reading database ... 35%(Reading database ... 40%(Reading database ... 45%(Reading database ... 50%(Reading database ... 55%(Reading database ... 60%(Reading database ... 65%(Reading database ... 70%(Reading database ... 75%(Reading database ... 80%(Reading database ... 85%(Reading database ... 90%(Reading database ... 95%(Reading database ... 100%(Reading database ... 17060 files and directories currently installed.)
Preparing to unpack .../libzulucryptpluginmanager1.0.0_6.2.0-1_armhf.deb ...
Unpacking libzulucryptpluginmanager1.0.0:armhf (6.2.0-1) ...
Selecting previously unselected package libzulucrypt-exe1.2.0:armhf.
Preparing to unpack .../libzulucrypt-exe1.2.0_6.2.0-1_armhf.deb ...
Unpacking libzulucrypt-exe1.2.0:armhf (6.2.0-1) ...
Selecting previously unselected package libzulucrypt-exe-dev.
Preparing to unpack .../libzulucrypt-exe-dev_6.2.0-1_armhf.deb ...
Unpacking libzulucrypt-exe-dev (6.2.0-1) ...
Setting up libzulucryptpluginmanager1.0.0:armhf (6.2.0-1) ...
Setting up libzulucrypt-exe1.2.0:armhf (6.2.0-1) ...
Setting up libzulucrypt-exe-dev (6.2.0-1) ...
Processing triggers for libc-bin (2.37-13) ...
Reading package lists...
Building dependency tree...
Reading state information...
The following packages will be REMOVED:
  libzulucrypt-dev*
0 upgraded, 0 newly installed, 1 to remove and 13 not upgraded.
After this operation, 50.2 kB disk space will be freed.
(Reading database ... (Reading database ... 5%(Reading database ... 10%(Reading database ... 15%(Reading database ... 20%(Reading database ... 25%(Reading database ... 30%(Reading database ... 35%(Reading database ... 40%(Reading database ... 45%(Reading database ... 50%(Reading database ... 55%(Reading database ... 60%(Reading database ... 65%(Reading database ... 70%(Reading database ... 75%(Reading database ... 80%(Reading database ... 85%(Reading database ... 90%(Reading database ... 95%(Reading database ... 100%(Reading database ... 17076 files and directories currently installed.)
Removing libzulucrypt-dev (6.2.0-1) ...
