[2024-02-20T09:35:28+00:00] apt-get install emboss-lib zlib1g-dev abi-compliance-checker
Reading package lists...
Building dependency tree...
Reading state information...
abi-compliance-checker is already the newest version (2.3-2).
The following packages were automatically installed and are no longer required:
  eclipse-titan expect icu-devtools libbsd-dev libdbus-1-dev libedit-dev
  libedit2 libicu-dev libmd-dev libncurses-dev libncurses6 libpcap-dev
  libpcap0.8 libpcap0.8-dev libpcre16-3 libpcre3 libpcre3-dev libpcre32-3
  libpcrecpp0v5 libpkgconf3 libsctp-dev libsctp1 libssl-dev libtcl8.6
  libxml2-dev pkgconf pkgconf-bin sgml-base tcl-expect tcl8.6 xml-core
Use 'apt autoremove' to remove them.
The following additional packages will be installed:
  fontconfig-config fonts-dejavu-core fonts-dejavu-mono libabsl20220623
  libaom3 libavif16 libbrotli1 libdav1d7 libde265-0 libdeflate0 libfontconfig1
  libfreetype6 libgav1-1 libgd3 libheif-plugin-dav1d libheif-plugin-libde265
  libheif1 libhpdf-2.3.0 libjbig0 libjpeg62-turbo liblerc4 libmariadb3
  libpng16-16 libpq5 librav1e0 libsharpyuv0 libsvtav1enc1d1 libtiff6 libwebp7
  libx11-6 libx11-data libxau6 libxcb1 libxdmcp6 libxpm4 libyuv0
  mariadb-common mysql-common
Suggested packages:
  libgd-tools libheif-plugin-ffmpegdec libheif-plugin-jpegdec
  libheif-plugin-jpegenc libheif-plugin-j2kdec libheif-plugin-j2kenc
  libheif-plugin-rav1e libheif-plugin-svtenc
Recommended packages:
  libheif-plugin-aomenc libheif-plugin-x265
The following NEW packages will be installed:
  emboss-lib fontconfig-config fonts-dejavu-core fonts-dejavu-mono
  libabsl20220623 libaom3 libavif16 libbrotli1 libdav1d7 libde265-0
  libdeflate0 libfontconfig1 libfreetype6 libgav1-1 libgd3
  libheif-plugin-dav1d libheif-plugin-libde265 libheif1 libhpdf-2.3.0 libjbig0
  libjpeg62-turbo liblerc4 libmariadb3 libpng16-16 libpq5 librav1e0
  libsharpyuv0 libsvtav1enc1d1 libtiff6 libwebp7 libx11-6 libx11-data libxau6
  libxcb1 libxdmcp6 libxpm4 libyuv0 mariadb-common mysql-common zlib1g-dev
0 upgraded, 40 newly installed, 0 to remove and 67 not upgraded.
Need to get 13.9 MB of archives.
After this operation, 38.8 MB of additional disk space will be used.
Get:1 http://deb.debian.org/debian unstable/main armhf libaom3 armhf 3.8.1-1 [1525 kB]
Get:2 http://deb.debian.org/debian unstable/main armhf libdav1d7 armhf 1.3.0-2+b1 [265 kB]
Get:3 http://deb.debian.org/debian unstable/main armhf libabsl20220623 armhf 20220623.1-3 [361 kB]
Get:4 http://deb.debian.org/debian unstable/main armhf libgav1-1 armhf 0.18.0-1+b1 [284 kB]
Get:5 http://deb.debian.org/debian unstable/main armhf librav1e0 armhf 0.7.1-2 [546 kB]
Get:6 http://deb.debian.org/debian unstable/main armhf libsharpyuv0 armhf 1.3.2-0.4 [105 kB]
Get:7 http://deb.debian.org/debian unstable/main armhf libsvtav1enc1d1 armhf 1.7.0+dfsg-2+b1 [936 kB]
Get:8 http://deb.debian.org/debian unstable/main armhf libjpeg62-turbo armhf 1:2.1.5-2+b2 [143 kB]
Get:9 http://deb.debian.org/debian unstable/main armhf libyuv0 armhf 0.0~git202401110.af6ac82-1 [85.1 kB]
Get:10 http://deb.debian.org/debian unstable/main armhf libavif16 armhf 1.0.4-1 [95.0 kB]
Get:11 http://deb.debian.org/debian unstable/main armhf libbrotli1 armhf 1.1.0-2+b3 [284 kB]
Get:12 http://deb.debian.org/debian unstable/main armhf libpng16-16 armhf 1.6.42-1 [261 kB]
Get:13 http://deb.debian.org/debian unstable/main armhf libfreetype6 armhf 2.13.2+dfsg-1+b1 [371 kB]
Get:14 http://deb.debian.org/debian unstable/main armhf fonts-dejavu-mono all 2.37-8 [489 kB]
Get:15 http://deb.debian.org/debian unstable/main armhf fonts-dejavu-core all 2.37-8 [840 kB]
Get:16 http://deb.debian.org/debian unstable/main armhf fontconfig-config armhf 2.15.0-1 [317 kB]
Get:17 http://deb.debian.org/debian unstable/main armhf libfontconfig1 armhf 2.15.0-1 [369 kB]
Get:18 http://deb.debian.org/debian unstable/main armhf libheif-plugin-dav1d armhf 1.17.6-1 [9252 B]
Get:19 http://deb.debian.org/debian unstable/main armhf libde265-0 armhf 1.0.15-1 [145 kB]
Get:20 http://deb.debian.org/debian unstable/main armhf libheif-plugin-libde265 armhf 1.17.6-1 [12.0 kB]
Get:21 http://deb.debian.org/debian unstable/main armhf libheif1 armhf 1.17.6-1 [242 kB]
Get:22 http://deb.debian.org/debian unstable/main armhf libdeflate0 armhf 1.19-1 [39.1 kB]
Get:23 http://deb.debian.org/debian unstable/main armhf libjbig0 armhf 2.1-6.1+b1 [27.3 kB]
Get:24 http://deb.debian.org/debian unstable/main armhf liblerc4 armhf 4.0.0+ds-4+b1 [137 kB]
Get:25 http://deb.debian.org/debian unstable/main armhf libwebp7 armhf 1.3.2-0.4 [261 kB]
Get:26 http://deb.debian.org/debian unstable/main armhf libtiff6 armhf 4.5.1+git230720-4 [301 kB]
Get:27 http://deb.debian.org/debian unstable/main armhf libxau6 armhf 1:1.0.9-1 [19.0 kB]
Get:28 http://deb.debian.org/debian unstable/main armhf libxdmcp6 armhf 1:1.1.2-3 [24.9 kB]
Get:29 http://deb.debian.org/debian unstable/main armhf libxcb1 armhf 1.15-1 [140 kB]
Get:30 http://deb.debian.org/debian unstable/main armhf libx11-data all 2:1.8.7-1 [328 kB]
Get:31 http://deb.debian.org/debian unstable/main armhf libx11-6 armhf 2:1.8.7-1 [735 kB]
Get:32 http://deb.debian.org/debian unstable/main armhf libxpm4 armhf 1:3.5.17-1 [49.5 kB]
Get:33 http://deb.debian.org/debian unstable/main armhf libgd3 armhf 2.3.3-9+b1 [103 kB]
Get:34 http://deb.debian.org/debian unstable/main armhf libhpdf-2.3.0 armhf 2.3.0+dfsg-1+b1 [331 kB]
Get:35 http://deb.debian.org/debian unstable/main armhf mysql-common all 5.8+1.1.0 [6636 B]
Get:36 http://deb.debian.org/debian unstable/main armhf mariadb-common all 1:10.11.6-2 [25.2 kB]
Get:37 http://deb.debian.org/debian unstable/main armhf libmariadb3 armhf 1:10.11.6-2 [157 kB]
Get:38 http://deb.debian.org/debian unstable/main armhf libpq5 armhf 16.2-1 [198 kB]
Get:39 http://deb.debian.org/debian unstable/main armhf emboss-lib armhf 6.6.0+dfsg-12 [2473 kB]
Get:40 http://deb.debian.org/debian unstable/main armhf zlib1g-dev armhf 1:1.3.dfsg-3+b1 [904 kB]
debconf: delaying package configuration, since apt-utils is not installed
Fetched 13.9 MB in 1s (16.1 MB/s)
Selecting previously unselected package libaom3:armhf.
(Reading database ... (Reading database ... 5%(Reading database ... 10%(Reading database ... 15%(Reading database ... 20%(Reading database ... 25%(Reading database ... 30%(Reading database ... 35%(Reading database ... 40%(Reading database ... 45%(Reading database ... 50%(Reading database ... 55%(Reading database ... 60%(Reading database ... 65%(Reading database ... 70%(Reading database ... 75%(Reading database ... 80%(Reading database ... 85%(Reading database ... 90%(Reading database ... 95%(Reading database ... 100%(Reading database ... 17410 files and directories currently installed.)
Preparing to unpack .../00-libaom3_3.8.1-1_armhf.deb ...
Unpacking libaom3:armhf (3.8.1-1) ...
Selecting previously unselected package libdav1d7:armhf.
Preparing to unpack .../01-libdav1d7_1.3.0-2+b1_armhf.deb ...
Unpacking libdav1d7:armhf (1.3.0-2+b1) ...
Selecting previously unselected package libabsl20220623:armhf.
Preparing to unpack .../02-libabsl20220623_20220623.1-3_armhf.deb ...
Unpacking libabsl20220623:armhf (20220623.1-3) ...
Selecting previously unselected package libgav1-1:armhf.
Preparing to unpack .../03-libgav1-1_0.18.0-1+b1_armhf.deb ...
Unpacking libgav1-1:armhf (0.18.0-1+b1) ...
Selecting previously unselected package librav1e0:armhf.
Preparing to unpack .../04-librav1e0_0.7.1-2_armhf.deb ...
Unpacking librav1e0:armhf (0.7.1-2) ...
Selecting previously unselected package libsharpyuv0:armhf.
Preparing to unpack .../05-libsharpyuv0_1.3.2-0.4_armhf.deb ...
Unpacking libsharpyuv0:armhf (1.3.2-0.4) ...
Selecting previously unselected package libsvtav1enc1d1:armhf.
Preparing to unpack .../06-libsvtav1enc1d1_1.7.0+dfsg-2+b1_armhf.deb ...
Unpacking libsvtav1enc1d1:armhf (1.7.0+dfsg-2+b1) ...
Selecting previously unselected package libjpeg62-turbo:armhf.
Preparing to unpack .../07-libjpeg62-turbo_1%3a2.1.5-2+b2_armhf.deb ...
Unpacking libjpeg62-turbo:armhf (1:2.1.5-2+b2) ...
Selecting previously unselected package libyuv0:armhf.
Preparing to unpack .../08-libyuv0_0.0~git202401110.af6ac82-1_armhf.deb ...
Unpacking libyuv0:armhf (0.0~git202401110.af6ac82-1) ...
Selecting previously unselected package libavif16:armhf.
Preparing to unpack .../09-libavif16_1.0.4-1_armhf.deb ...
Unpacking libavif16:armhf (1.0.4-1) ...
Selecting previously unselected package libbrotli1:armhf.
Preparing to unpack .../10-libbrotli1_1.1.0-2+b3_armhf.deb ...
Unpacking libbrotli1:armhf (1.1.0-2+b3) ...
Selecting previously unselected package libpng16-16:armhf.
Preparing to unpack .../11-libpng16-16_1.6.42-1_armhf.deb ...
Unpacking libpng16-16:armhf (1.6.42-1) ...
Selecting previously unselected package libfreetype6:armhf.
Preparing to unpack .../12-libfreetype6_2.13.2+dfsg-1+b1_armhf.deb ...
Unpacking libfreetype6:armhf (2.13.2+dfsg-1+b1) ...
Selecting previously unselected package fonts-dejavu-mono.
Preparing to unpack .../13-fonts-dejavu-mono_2.37-8_all.deb ...
Unpacking fonts-dejavu-mono (2.37-8) ...
Selecting previously unselected package fonts-dejavu-core.
Preparing to unpack .../14-fonts-dejavu-core_2.37-8_all.deb ...
Unpacking fonts-dejavu-core (2.37-8) ...
Selecting previously unselected package fontconfig-config.
Preparing to unpack .../15-fontconfig-config_2.15.0-1_armhf.deb ...
Unpacking fontconfig-config (2.15.0-1) ...
Selecting previously unselected package libfontconfig1:armhf.
Preparing to unpack .../16-libfontconfig1_2.15.0-1_armhf.deb ...
Unpacking libfontconfig1:armhf (2.15.0-1) ...
Selecting previously unselected package libheif-plugin-dav1d:armhf.
Preparing to unpack .../17-libheif-plugin-dav1d_1.17.6-1_armhf.deb ...
Unpacking libheif-plugin-dav1d:armhf (1.17.6-1) ...
Selecting previously unselected package libde265-0:armhf.
Preparing to unpack .../18-libde265-0_1.0.15-1_armhf.deb ...
Unpacking libde265-0:armhf (1.0.15-1) ...
Selecting previously unselected package libheif-plugin-libde265:armhf.
Preparing to unpack .../19-libheif-plugin-libde265_1.17.6-1_armhf.deb ...
Unpacking libheif-plugin-libde265:armhf (1.17.6-1) ...
Selecting previously unselected package libheif1:armhf.
Preparing to unpack .../20-libheif1_1.17.6-1_armhf.deb ...
Unpacking libheif1:armhf (1.17.6-1) ...
Selecting previously unselected package libdeflate0:armhf.
Preparing to unpack .../21-libdeflate0_1.19-1_armhf.deb ...
Unpacking libdeflate0:armhf (1.19-1) ...
Selecting previously unselected package libjbig0:armhf.
Preparing to unpack .../22-libjbig0_2.1-6.1+b1_armhf.deb ...
Unpacking libjbig0:armhf (2.1-6.1+b1) ...
Selecting previously unselected package liblerc4:armhf.
Preparing to unpack .../23-liblerc4_4.0.0+ds-4+b1_armhf.deb ...
Unpacking liblerc4:armhf (4.0.0+ds-4+b1) ...
Selecting previously unselected package libwebp7:armhf.
Preparing to unpack .../24-libwebp7_1.3.2-0.4_armhf.deb ...
Unpacking libwebp7:armhf (1.3.2-0.4) ...
Selecting previously unselected package libtiff6:armhf.
Preparing to unpack .../25-libtiff6_4.5.1+git230720-4_armhf.deb ...
Unpacking libtiff6:armhf (4.5.1+git230720-4) ...
Selecting previously unselected package libxau6:armhf.
Preparing to unpack .../26-libxau6_1%3a1.0.9-1_armhf.deb ...
Unpacking libxau6:armhf (1:1.0.9-1) ...
Selecting previously unselected package libxdmcp6:armhf.
Preparing to unpack .../27-libxdmcp6_1%3a1.1.2-3_armhf.deb ...
Unpacking libxdmcp6:armhf (1:1.1.2-3) ...
Selecting previously unselected package libxcb1:armhf.
Preparing to unpack .../28-libxcb1_1.15-1_armhf.deb ...
Unpacking libxcb1:armhf (1.15-1) ...
Selecting previously unselected package libx11-data.
Preparing to unpack .../29-libx11-data_2%3a1.8.7-1_all.deb ...
Unpacking libx11-data (2:1.8.7-1) ...
Selecting previously unselected package libx11-6:armhf.
Preparing to unpack .../30-libx11-6_2%3a1.8.7-1_armhf.deb ...
Unpacking libx11-6:armhf (2:1.8.7-1) ...
Selecting previously unselected package libxpm4:armhf.
Preparing to unpack .../31-libxpm4_1%3a3.5.17-1_armhf.deb ...
Unpacking libxpm4:armhf (1:3.5.17-1) ...
Selecting previously unselected package libgd3:armhf.
Preparing to unpack .../32-libgd3_2.3.3-9+b1_armhf.deb ...
Unpacking libgd3:armhf (2.3.3-9+b1) ...
Selecting previously unselected package libhpdf-2.3.0:armhf.
Preparing to unpack .../33-libhpdf-2.3.0_2.3.0+dfsg-1+b1_armhf.deb ...
Unpacking libhpdf-2.3.0:armhf (2.3.0+dfsg-1+b1) ...
Selecting previously unselected package mysql-common.
Preparing to unpack .../34-mysql-common_5.8+1.1.0_all.deb ...
Unpacking mysql-common (5.8+1.1.0) ...
Selecting previously unselected package mariadb-common.
Preparing to unpack .../35-mariadb-common_1%3a10.11.6-2_all.deb ...
Unpacking mariadb-common (1:10.11.6-2) ...
Selecting previously unselected package libmariadb3:armhf.
Preparing to unpack .../36-libmariadb3_1%3a10.11.6-2_armhf.deb ...
Unpacking libmariadb3:armhf (1:10.11.6-2) ...
Selecting previously unselected package libpq5:armhf.
Preparing to unpack .../37-libpq5_16.2-1_armhf.deb ...
Unpacking libpq5:armhf (16.2-1) ...
Selecting previously unselected package emboss-lib.
Preparing to unpack .../38-emboss-lib_6.6.0+dfsg-12_armhf.deb ...
Unpacking emboss-lib (6.6.0+dfsg-12) ...
Selecting previously unselected package zlib1g-dev:armhf.
Preparing to unpack .../39-zlib1g-dev_1%3a1.3.dfsg-3+b1_armhf.deb ...
Unpacking zlib1g-dev:armhf (1:1.3.dfsg-3+b1) ...
Setting up libsharpyuv0:armhf (1.3.2-0.4) ...
Setting up libaom3:armhf (3.8.1-1) ...
Setting up mysql-common (5.8+1.1.0) ...
update-alternatives: using /etc/mysql/my.cnf.fallback to provide /etc/mysql/my.cnf (my.cnf) in auto mode
Setting up libabsl20220623:armhf (20220623.1-3) ...
Setting up libxau6:armhf (1:1.0.9-1) ...
Setting up libxdmcp6:armhf (1:1.1.2-3) ...
Setting up libxcb1:armhf (1.15-1) ...
Setting up liblerc4:armhf (4.0.0+ds-4+b1) ...
Setting up libbrotli1:armhf (1.1.0-2+b3) ...
Setting up libpq5:armhf (16.2-1) ...
Setting up libdeflate0:armhf (1.19-1) ...
Setting up libsvtav1enc1d1:armhf (1.7.0+dfsg-2+b1) ...
Setting up libjbig0:armhf (2.1-6.1+b1) ...
Setting up librav1e0:armhf (0.7.1-2) ...
Setting up mariadb-common (1:10.11.6-2) ...
update-alternatives: using /etc/mysql/mariadb.cnf to provide /etc/mysql/my.cnf (my.cnf) in auto mode
Setting up libjpeg62-turbo:armhf (1:2.1.5-2+b2) ...
Setting up libx11-data (2:1.8.7-1) ...
Setting up fonts-dejavu-mono (2.37-8) ...
Setting up libpng16-16:armhf (1.6.42-1) ...
Setting up libmariadb3:armhf (1:10.11.6-2) ...
Setting up fonts-dejavu-core (2.37-8) ...
Setting up libgav1-1:armhf (0.18.0-1+b1) ...
Setting up libwebp7:armhf (1.3.2-0.4) ...
Setting up zlib1g-dev:armhf (1:1.3.dfsg-3+b1) ...
Setting up libdav1d7:armhf (1.3.0-2+b1) ...
Setting up libtiff6:armhf (4.5.1+git230720-4) ...
Setting up libx11-6:armhf (2:1.8.7-1) ...
Setting up libde265-0:armhf (1.0.15-1) ...
Setting up libyuv0:armhf (0.0~git202401110.af6ac82-1) ...
Setting up libavif16:armhf (1.0.4-1) ...
Setting up libhpdf-2.3.0:armhf (2.3.0+dfsg-1+b1) ...
Setting up libxpm4:armhf (1:3.5.17-1) ...
Setting up fontconfig-config (2.15.0-1) ...
Setting up libfreetype6:armhf (2.13.2+dfsg-1+b1) ...
Setting up libheif-plugin-dav1d:armhf (1.17.6-1) ...
Setting up libheif1:armhf (1.17.6-1) ...
Setting up libheif-plugin-libde265:armhf (1.17.6-1) ...
Processing triggers for libc-bin (2.37-13) ...
Processing triggers for sgml-base (1.31) ...
Setting up libfontconfig1:armhf (2.15.0-1) ...
Setting up libgd3:armhf (2.3.3-9+b1) ...
Setting up emboss-lib (6.6.0+dfsg-12) ...
Processing triggers for libc-bin (2.37-13) ...
Reading package lists...
Building dependency tree...
Reading state information...
The following packages will be REMOVED:
  eclipse-titan* expect* icu-devtools* libbsd-dev* libdbus-1-dev* libedit-dev*
  libedit2* libicu-dev* libmd-dev* libncurses-dev* libncurses6* libpcap-dev*
  libpcap0.8* libpcap0.8-dev* libpcre16-3* libpcre3* libpcre3-dev*
  libpcre32-3* libpcrecpp0v5* libpkgconf3* libsctp-dev* libsctp1* libssl-dev*
  libtcl8.6* libxml2-dev* pkgconf* pkgconf-bin* sgml-base* tcl-expect* tcl8.6*
  xml-core*
0 upgraded, 0 newly installed, 31 to remove and 67 not upgraded.
After this operation, 144 MB disk space will be freed.
(Reading database ... (Reading database ... 5%(Reading database ... 10%(Reading database ... 15%(Reading database ... 20%(Reading database ... 25%(Reading database ... 30%(Reading database ... 35%(Reading database ... 40%(Reading database ... 45%(Reading database ... 50%(Reading database ... 55%(Reading database ... 60%(Reading database ... 65%(Reading database ... 70%(Reading database ... 75%(Reading database ... 80%(Reading database ... 85%(Reading database ... 90%(Reading database ... 95%(Reading database ... 100%(Reading database ... 18490 files and directories currently installed.)
Removing eclipse-titan (8.2.0-1) ...
Removing expect (5.45.4-2+b1) ...
Removing libxml2-dev:armhf (2.9.14+dfsg-1.3+b2) ...
Removing libicu-dev:armhf (72.1-4+b1) ...
Removing icu-devtools (72.1-4+b1) ...
Removing libedit-dev:armhf (3.1-20230828-1) ...
Removing libbsd-dev:armhf (0.11.8-1) ...
Removing libpcap-dev:armhf (1.10.4-4) ...
Removing libpcap0.8-dev:armhf (1.10.4-4) ...
Removing libdbus-1-dev:armhf (1.14.10-4) ...
Removing libedit2:armhf (3.1-20230828-1) ...
Removing libmd-dev:armhf (1.1.0-2) ...
Removing libncurses-dev:armhf (6.4+20240113-1) ...
Removing libncurses6:armhf (6.4+20240113-1) ...
Removing libpcap0.8:armhf (1.10.4-4) ...
Removing libpcre3-dev:armhf (2:8.39-15) ...
Removing libpcre16-3:armhf (2:8.39-15) ...
Removing libpcrecpp0v5:armhf (2:8.39-15) ...
Removing libpcre3:armhf (2:8.39-15) ...
Removing libpcre32-3:armhf (2:8.39-15) ...
Removing pkgconf:armhf (1.8.1-1+b2) ...
Removing pkgconf-bin (1.8.1-1+b2) ...
Removing libpkgconf3:armhf (1.8.1-1+b2) ...
Removing libsctp-dev:armhf (1.0.19+dfsg-2+b1) ...
Removing libsctp1:armhf (1.0.19+dfsg-2+b1) ...
Removing libssl-dev:armhf (3.1.5-1) ...
Removing tcl8.6 (8.6.13+dfsg-2+b1) ...
Removing tcl-expect:armhf (5.45.4-2+b1) ...
Removing libtcl8.6:armhf (8.6.13+dfsg-2+b1) ...
Removing xml-core (0.19) ...
Removing sgml-base (1.31) ...
Processing triggers for libc-bin (2.37-13) ...
(Reading database ... (Reading database ... 5%(Reading database ... 10%(Reading database ... 15%(Reading database ... 20%(Reading database ... 25%(Reading database ... 30%(Reading database ... 35%(Reading database ... 40%(Reading database ... 45%(Reading database ... 50%(Reading database ... 55%(Reading database ... 60%(Reading database ... 65%(Reading database ... 70%(Reading database ... 75%(Reading database ... 80%(Reading database ... 85%(Reading database ... 90%(Reading database ... 95%(Reading database ... 100%(Reading database ... 16255 files and directories currently installed.)
Purging configuration files for pkgconf:armhf (1.8.1-1+b2) ...
Purging configuration files for libdbus-1-dev:armhf (1.14.10-4) ...
Purging configuration files for xml-core (0.19) ...
dpkg: warning: while removing xml-core, directory '/etc/sgml' not empty so not removed
Purging configuration files for sgml-base (1.31) ...
