Temporary header file '/tmp/oMz_WBoNvw/dump1.h' with the following content will be compiled to create GCC translation unit dump:

  // add defines
  #define __STDC_VERSION__ 201710L
#define _GXX_NULLPTR_T
#define CLUTTER_ENABLE_COMPOSITOR_API 1
#define _REGEX_NELTS(n)
#define _Atomic
#define PACKED
#ifdef __cplusplus
// C17 compat layer
#define _Alignof(type) alignof(type)
#endif
#define getaddrinfo_a(a,b,c,d)

  // add includes
  #include "/usr/include/kdevelop/custom-definesandincludes/idefinesandincludesmanager.h"
  #include "/usr/include/kdevelop/kdevelop_version.h"
  #include "/usr/include/kdevelop/makebuilder/imakebuilder.h"
  #include "/usr/include/kdevelop/qmake/iqmakebuilder.h"
  #include "/usr/include/kdevplatform/config-kdevplatform.h"
  #include "/usr/include/kdevplatform/debugger/breakpoint/breakpoint.h"
  #include "/usr/include/kdevplatform/debugger/breakpoint/breakpointdetails.h"
  #include "/usr/include/kdevplatform/debugger/breakpoint/breakpointmodel.h"
  #include "/usr/include/kdevplatform/debugger/breakpoint/breakpointwidget.h"
  #include "/usr/include/kdevplatform/debugger/debuggerexport.h"
  #include "/usr/include/kdevplatform/debugger/framestack/framestackmodel.h"
  #include "/usr/include/kdevplatform/debugger/interfaces/ibreakpointcontroller.h"
  #include "/usr/include/kdevplatform/debugger/interfaces/idebugsession.h"
  #include "/usr/include/kdevplatform/debugger/interfaces/iframestackmodel.h"
  #include "/usr/include/kdevplatform/debugger/interfaces/ivariablecontroller.h"
  #include "/usr/include/kdevplatform/debugger/util/pathmappings.h"
  #include "/usr/include/kdevplatform/debugger/util/treeitem.h"
  #include "/usr/include/kdevplatform/debugger/util/treemodel.h"
  #include "/usr/include/kdevplatform/debugger/util/treeview.h"
  #include "/usr/include/kdevplatform/debugger/variable/variablecollection.h"
  #include "/usr/include/kdevplatform/documentation/documentationexport.h"
  #include "/usr/include/kdevplatform/documentation/documentationfindwidget.h"
  #include "/usr/include/kdevplatform/documentation/standarddocumentationview.h"
  #include "/usr/include/kdevplatform/execute/iexecuteplugin.h"
  #include "/usr/include/kdevplatform/executescript/iexecutescriptplugin.h"
  #include "/usr/include/kdevplatform/interfaces/configpage.h"
  #include "/usr/include/kdevplatform/interfaces/context.h"
  #include "/usr/include/kdevplatform/interfaces/contextmenuextension.h"
  #include "/usr/include/kdevplatform/interfaces/iassistant.h"
  #include "/usr/include/kdevplatform/interfaces/ibuddydocumentfinder.h"
  #include "/usr/include/kdevplatform/interfaces/icompletionsettings.h"
  #include "/usr/include/kdevplatform/interfaces/icore.h"
  #include "/usr/include/kdevplatform/interfaces/idebugcontroller.h"
  #include "/usr/include/kdevplatform/interfaces/idocument.h"
  #include "/usr/include/kdevplatform/interfaces/idocumentation.h"
  #include "/usr/include/kdevplatform/interfaces/idocumentationcontroller.h"
  #include "/usr/include/kdevplatform/interfaces/idocumentationprovider.h"
  #include "/usr/include/kdevplatform/interfaces/idocumentationproviderprovider.h"
  #include "/usr/include/kdevplatform/interfaces/idocumentcontroller.h"
  #include "/usr/include/kdevplatform/interfaces/ilanguagecheck.h"
  #include "/usr/include/kdevplatform/interfaces/ilanguagecheckprovider.h"
  #include "/usr/include/kdevplatform/interfaces/ilanguagecontroller.h"
  #include "/usr/include/kdevplatform/interfaces/ilaunchconfiguration.h"
  #include "/usr/include/kdevplatform/interfaces/ilauncher.h"
  #include "/usr/include/kdevplatform/interfaces/ilaunchmode.h"
  #include "/usr/include/kdevplatform/interfaces/interfacesexport.h"
  #include "/usr/include/kdevplatform/interfaces/ipartcontroller.h"
  #include "/usr/include/kdevplatform/interfaces/iplugin.h"
  #include "/usr/include/kdevplatform/interfaces/iplugincontroller.h"
  #include "/usr/include/kdevplatform/interfaces/ipluginversion.h"
  #include "/usr/include/kdevplatform/interfaces/iproblem.h"
  #include "/usr/include/kdevplatform/interfaces/iproject.h"
  #include "/usr/include/kdevplatform/interfaces/iprojectcontroller.h"
  #include "/usr/include/kdevplatform/interfaces/iprojectprovider.h"
  #include "/usr/include/kdevplatform/interfaces/iruncontroller.h"
  #include "/usr/include/kdevplatform/interfaces/iruntime.h"
  #include "/usr/include/kdevplatform/interfaces/iruntimecontroller.h"
  #include "/usr/include/kdevplatform/interfaces/iselectioncontroller.h"
  #include "/usr/include/kdevplatform/interfaces/isession.h"
  #include "/usr/include/kdevplatform/interfaces/isessionlock.h"
  #include "/usr/include/kdevplatform/interfaces/isourceformatter.h"
  #include "/usr/include/kdevplatform/interfaces/isourceformattercontroller.h"
  #include "/usr/include/kdevplatform/interfaces/istatus.h"
  #include "/usr/include/kdevplatform/interfaces/itemplateprovider.h"
  #include "/usr/include/kdevplatform/interfaces/itestcontroller.h"
  #include "/usr/include/kdevplatform/interfaces/itestsuite.h"
  #include "/usr/include/kdevplatform/interfaces/itoolviewactionlistener.h"
  #include "/usr/include/kdevplatform/interfaces/iuicontroller.h"
  #include "/usr/include/kdevplatform/interfaces/launchconfigurationpage.h"
  #include "/usr/include/kdevplatform/interfaces/launchconfigurationtype.h"
  #include "/usr/include/kdevplatform/kdevplatform_version.h"
  #include "/usr/include/kdevplatform/language/assistant/renameaction.h"
  #include "/usr/include/kdevplatform/language/assistant/renameassistant.h"
  #include "/usr/include/kdevplatform/language/assistant/staticassistant.h"
  #include "/usr/include/kdevplatform/language/assistant/staticassistantsmanager.h"
  #include "/usr/include/kdevplatform/language/backgroundparser/backgroundparser.h"
  #include "/usr/include/kdevplatform/language/backgroundparser/documentchangetracker.h"
  #include "/usr/include/kdevplatform/language/backgroundparser/parsejob.h"
  #include "/usr/include/kdevplatform/language/backgroundparser/parseprojectjob.h"
  #include "/usr/include/kdevplatform/language/backgroundparser/urlparselock.h"
  #include "/usr/include/kdevplatform/language/checks/controlflowgraph.h"
  #include "/usr/include/kdevplatform/language/checks/controlflownode.h"
  #include "/usr/include/kdevplatform/language/checks/dataaccess.h"
  #include "/usr/include/kdevplatform/language/checks/dataaccessrepository.h"
  #include "/usr/include/kdevplatform/language/classmodel/allclassesfolder.h"
  #include "/usr/include/kdevplatform/language/classmodel/classmodel.h"
  #include "/usr/include/kdevplatform/language/classmodel/classmodelnode.h"
  #include "/usr/include/kdevplatform/language/classmodel/classmodelnodescontroller.h"
  #include "/usr/include/kdevplatform/language/classmodel/documentclassesfolder.h"
  #include "/usr/include/kdevplatform/language/classmodel/projectfolder.h"
  #include "/usr/include/kdevplatform/language/codecompletion/abstractincludefilecompletionitem.h"
  #include "/usr/include/kdevplatform/language/codecompletion/codecompletion.h"
  #include "/usr/include/kdevplatform/language/codecompletion/codecompletioncontext.h"
  #include "/usr/include/kdevplatform/language/codecompletion/codecompletionhelper.h"
  #include "/usr/include/kdevplatform/language/codecompletion/codecompletionitem.h"
  #include "/usr/include/kdevplatform/language/codecompletion/codecompletionitemgrouper.h"
  #include "/usr/include/kdevplatform/language/codecompletion/codecompletionmodel.h"
  #include "/usr/include/kdevplatform/language/codecompletion/codecompletiontesthelper.h"
  #include "/usr/include/kdevplatform/language/codecompletion/codecompletionworker.h"
  #include "/usr/include/kdevplatform/language/codecompletion/normaldeclarationcompletionitem.h"
  #include "/usr/include/kdevplatform/language/codegen/applychangeswidget.h"
  #include "/usr/include/kdevplatform/language/codegen/astchangeset.h"
  #include "/usr/include/kdevplatform/language/codegen/basicrefactoring.h"
  #include "/usr/include/kdevplatform/language/codegen/codedescription.h"
  #include "/usr/include/kdevplatform/language/codegen/coderepresentation.h"
  #include "/usr/include/kdevplatform/language/codegen/documentchangeset.h"
  #include "/usr/include/kdevplatform/language/codegen/duchainchangeset.h"
  #include "/usr/include/kdevplatform/language/codegen/sourcefiletemplate.h"
  #include "/usr/include/kdevplatform/language/codegen/templateclassgenerator.h"
  #include "/usr/include/kdevplatform/language/codegen/templateengine.h"
  #include "/usr/include/kdevplatform/language/codegen/templatepreviewicon.h"
  #include "/usr/include/kdevplatform/language/codegen/templaterenderer.h"
  #include "/usr/include/kdevplatform/language/codegen/templatesmodel.h"
  #include "/usr/include/kdevplatform/language/codegen/utilities.h"
  #include "/usr/include/kdevplatform/language/duchain/abstractfunctiondeclaration.h"
  #include "/usr/include/kdevplatform/language/duchain/aliasdeclaration.h"
  #include "/usr/include/kdevplatform/language/duchain/appendedlist.h"
  #include "/usr/include/kdevplatform/language/duchain/builders/abstractcontextbuilder.h"
  #include "/usr/include/kdevplatform/language/duchain/builders/abstractdeclarationbuilder.h"
  #include "/usr/include/kdevplatform/language/duchain/builders/abstracttypebuilder.h"
  #include "/usr/include/kdevplatform/language/duchain/builders/abstractusebuilder.h"
  #include "/usr/include/kdevplatform/language/duchain/builders/dynamiclanguageexpressionvisitor.h"
  #include "/usr/include/kdevplatform/language/duchain/classdeclaration.h"
  #include "/usr/include/kdevplatform/language/duchain/classfunctiondeclaration.h"
  #include "/usr/include/kdevplatform/language/duchain/classmemberdeclaration.h"
  #include "/usr/include/kdevplatform/language/duchain/classmemberdeclarationdata.h"
  #include "/usr/include/kdevplatform/language/duchain/codemodel.h"
  #include "/usr/include/kdevplatform/language/duchain/declaration.h"
  #include "/usr/include/kdevplatform/language/duchain/declarationdata.h"
  #include "/usr/include/kdevplatform/language/duchain/declarationid.h"
  #include "/usr/include/kdevplatform/language/duchain/definitions.h"
  #include "/usr/include/kdevplatform/language/duchain/duchain.h"
  #include "/usr/include/kdevplatform/language/duchain/duchainbase.h"
  #include "/usr/include/kdevplatform/language/duchain/duchaindumper.h"
  #include "/usr/include/kdevplatform/language/duchain/duchainlock.h"
  #include "/usr/include/kdevplatform/language/duchain/duchainpointer.h"
  #include "/usr/include/kdevplatform/language/duchain/duchainregister.h"
  #include "/usr/include/kdevplatform/language/duchain/duchainutils.h"
  #include "/usr/include/kdevplatform/language/duchain/ducontext.h"
  #include "/usr/include/kdevplatform/language/duchain/ducontextdata.h"
  #include "/usr/include/kdevplatform/language/duchain/dumpdotgraph.h"
  #include "/usr/include/kdevplatform/language/duchain/forwarddeclaration.h"
  #include "/usr/include/kdevplatform/language/duchain/functiondeclaration.h"
  #include "/usr/include/kdevplatform/language/duchain/functiondefinition.h"
  #include "/usr/include/kdevplatform/language/duchain/identifier.h"
  #include "/usr/include/kdevplatform/language/duchain/indexeddeclaration.h"
  #include "/usr/include/kdevplatform/language/duchain/indexedducontext.h"
  #include "/usr/include/kdevplatform/language/duchain/indexedtopducontext.h"
  #include "/usr/include/kdevplatform/language/duchain/instantiationinformation.h"
  #include "/usr/include/kdevplatform/language/duchain/localindexeddeclaration.h"
  #include "/usr/include/kdevplatform/language/duchain/localindexedducontext.h"
  #include "/usr/include/kdevplatform/language/duchain/namespacealiasdeclaration.h"
  #include "/usr/include/kdevplatform/language/duchain/navigation/abstractdeclarationnavigationcontext.h"
  #include "/usr/include/kdevplatform/language/duchain/navigation/abstractincludenavigationcontext.h"
  #include "/usr/include/kdevplatform/language/duchain/navigation/abstractnavigationcontext.h"
  #include "/usr/include/kdevplatform/language/duchain/navigation/abstractnavigationwidget.h"
  #include "/usr/include/kdevplatform/language/duchain/navigation/navigationaction.h"
  #include "/usr/include/kdevplatform/language/duchain/navigation/usescollector.h"
  #include "/usr/include/kdevplatform/language/duchain/navigation/usesnavigationcontext.h"
  #include "/usr/include/kdevplatform/language/duchain/navigation/useswidget.h"
  #include "/usr/include/kdevplatform/language/duchain/parsingenvironment.h"
  #include "/usr/include/kdevplatform/language/duchain/persistentsymboltable.h"
  #include "/usr/include/kdevplatform/language/duchain/problem.h"
  #include "/usr/include/kdevplatform/language/duchain/specializationstore.h"
  #include "/usr/include/kdevplatform/language/duchain/stringhelpers.h"
  #include "/usr/include/kdevplatform/language/duchain/topducontext.h"
  #include "/usr/include/kdevplatform/language/duchain/topducontextdata.h"
  #include "/usr/include/kdevplatform/language/duchain/topducontextutils.h"
  #include "/usr/include/kdevplatform/language/duchain/types/abstracttype.h"
  #include "/usr/include/kdevplatform/language/duchain/types/alltypes.h"
  #include "/usr/include/kdevplatform/language/duchain/types/arraytype.h"
  #include "/usr/include/kdevplatform/language/duchain/types/constantintegraltype.h"
  #include "/usr/include/kdevplatform/language/duchain/types/containertypes.h"
  #include "/usr/include/kdevplatform/language/duchain/types/delayedtype.h"
  #include "/usr/include/kdevplatform/language/duchain/types/enumerationtype.h"
  #include "/usr/include/kdevplatform/language/duchain/types/enumeratortype.h"
  #include "/usr/include/kdevplatform/language/duchain/types/functiontype.h"
  #include "/usr/include/kdevplatform/language/duchain/types/identifiedtype.h"
  #include "/usr/include/kdevplatform/language/duchain/types/indexedtype.h"
  #include "/usr/include/kdevplatform/language/duchain/types/integraltype.h"
  #include "/usr/include/kdevplatform/language/duchain/types/pointertype.h"
  #include "/usr/include/kdevplatform/language/duchain/types/referencetype.h"
  #include "/usr/include/kdevplatform/language/duchain/types/structuretype.h"
  #include "/usr/include/kdevplatform/language/duchain/types/typealiastype.h"
  #include "/usr/include/kdevplatform/language/duchain/types/typepointer.h"
  #include "/usr/include/kdevplatform/language/duchain/types/typeregister.h"
  #include "/usr/include/kdevplatform/language/duchain/types/typerepository.h"
  #include "/usr/include/kdevplatform/language/duchain/types/typesystem.h"
  #include "/usr/include/kdevplatform/language/duchain/types/typesystemdata.h"
  #include "/usr/include/kdevplatform/language/duchain/types/typeutils.h"
  #include "/usr/include/kdevplatform/language/duchain/types/unsuretype.h"
  #include "/usr/include/kdevplatform/language/duchain/use.h"
  #include "/usr/include/kdevplatform/language/editor/cursorinrevision.h"
  #include "/usr/include/kdevplatform/language/editor/documentcursor.h"
  #include "/usr/include/kdevplatform/language/editor/documentrange.h"
  #include "/usr/include/kdevplatform/language/editor/modificationrevision.h"
  #include "/usr/include/kdevplatform/language/editor/modificationrevisionset.h"
  #include "/usr/include/kdevplatform/language/editor/persistentmovingrange.h"
  #include "/usr/include/kdevplatform/language/editor/rangeinrevision.h"
  #include "/usr/include/kdevplatform/language/highlighting/codehighlighting.h"
  #include "/usr/include/kdevplatform/language/highlighting/colorcache.h"
  #include "/usr/include/kdevplatform/language/highlighting/configurablecolors.h"
  #include "/usr/include/kdevplatform/language/interfaces/abbreviations.h"
  #include "/usr/include/kdevplatform/language/interfaces/codecontext.h"
  #include "/usr/include/kdevplatform/language/interfaces/editorcontext.h"
  #include "/usr/include/kdevplatform/language/interfaces/iastcontainer.h"
  #include "/usr/include/kdevplatform/language/interfaces/icodehighlighting.h"
  #include "/usr/include/kdevplatform/language/interfaces/icontextbrowser.h"
  #include "/usr/include/kdevplatform/language/interfaces/icreateclasshelper.h"
  #include "/usr/include/kdevplatform/language/interfaces/ilanguagesupport.h"
  #include "/usr/include/kdevplatform/language/interfaces/iquickopen.h"
  #include "/usr/include/kdevplatform/language/interfaces/quickopendataprovider.h"
  #include "/usr/include/kdevplatform/language/interfaces/quickopenfilter.h"
  #include "/usr/include/kdevplatform/language/languageexport.h"
  #include "/usr/include/kdevplatform/language/util/basicsetrepository.h"
  #include "/usr/include/kdevplatform/language/util/debuglanguageparserhelper.h"
  #include "/usr/include/kdevplatform/language/util/includeitem.h"
  #include "/usr/include/kdevplatform/language/util/kdevhash.h"
  #include "/usr/include/kdevplatform/language/util/navigationtooltip.h"
  #include "/usr/include/kdevplatform/language/util/setrepository.h"
  #include "/usr/include/kdevplatform/openwith/iopenwith.h"
  #include "/usr/include/kdevplatform/outputview/filtereditem.h"
  #include "/usr/include/kdevplatform/outputview/ifilterstrategy.h"
  #include "/usr/include/kdevplatform/outputview/ioutputview.h"
  #include "/usr/include/kdevplatform/outputview/ioutputviewmodel.h"
  #include "/usr/include/kdevplatform/outputview/outputdelegate.h"
  #include "/usr/include/kdevplatform/outputview/outputexecutejob.h"
  #include "/usr/include/kdevplatform/outputview/outputfilteringstrategies.h"
  #include "/usr/include/kdevplatform/outputview/outputjob.h"
  #include "/usr/include/kdevplatform/outputview/outputmodel.h"
  #include "/usr/include/kdevplatform/outputview/outputviewexport.h"
  #include "/usr/include/kdevplatform/project/abstractfilemanagerplugin.h"
  #include "/usr/include/kdevplatform/project/builderjob.h"
  #include "/usr/include/kdevplatform/project/helper.h"
  #include "/usr/include/kdevplatform/project/importprojectjob.h"
  #include "/usr/include/kdevplatform/project/interfaces/ibuildsystemmanager.h"
  #include "/usr/include/kdevplatform/project/interfaces/iprojectbuilder.h"
  #include "/usr/include/kdevplatform/project/interfaces/iprojectfilemanager.h"
  #include "/usr/include/kdevplatform/project/interfaces/iprojectfilter.h"
  #include "/usr/include/kdevplatform/project/interfaces/iprojectfilterprovider.h"
  #include "/usr/include/kdevplatform/project/projectbuildsetmodel.h"
  #include "/usr/include/kdevplatform/project/projectchangesmodel.h"
  #include "/usr/include/kdevplatform/project/projectconfigpage.h"
  #include "/usr/include/kdevplatform/project/projectconfigskeleton.h"
  #include "/usr/include/kdevplatform/project/projectexport.h"
  #include "/usr/include/kdevplatform/project/projectfiltermanager.h"
  #include "/usr/include/kdevplatform/project/projectitemlineedit.h"
  #include "/usr/include/kdevplatform/project/projectmodel.h"
  #include "/usr/include/kdevplatform/project/projectutils.h"
  #include "/usr/include/kdevplatform/project/widgets/dependencieswidget.h"
  #include "/usr/include/kdevplatform/serialization/abstractitemrepository.h"
  #include "/usr/include/kdevplatform/serialization/indexedstring.h"
  #include "/usr/include/kdevplatform/serialization/itemrepository.h"
  #include "/usr/include/kdevplatform/serialization/itemrepositoryexampleitem.h"
  #include "/usr/include/kdevplatform/serialization/itemrepositoryreferencecounting.h"
  #include "/usr/include/kdevplatform/serialization/itemrepositoryregistry.h"
  #include "/usr/include/kdevplatform/serialization/referencecounting.h"
  #include "/usr/include/kdevplatform/serialization/repositorymanager.h"
  #include "/usr/include/kdevplatform/serialization/serializationexport.h"
  #include "/usr/include/kdevplatform/shell/checkerstatus.h"
  #include "/usr/include/kdevplatform/shell/colorschemechooser.h"
  #include "/usr/include/kdevplatform/shell/core.h"
  #include "/usr/include/kdevplatform/shell/documentcontroller.h"
  #include "/usr/include/kdevplatform/shell/environmentconfigurebutton.h"
  #include "/usr/include/kdevplatform/shell/filteredproblemstore.h"
  #include "/usr/include/kdevplatform/shell/languagecontroller.h"
  #include "/usr/include/kdevplatform/shell/launchconfiguration.h"
  #include "/usr/include/kdevplatform/shell/mainwindow.h"
  #include "/usr/include/kdevplatform/shell/partcontroller.h"
  #include "/usr/include/kdevplatform/shell/partdocument.h"
  #include "/usr/include/kdevplatform/shell/plugincontroller.h"
  #include "/usr/include/kdevplatform/shell/problem.h"
  #include "/usr/include/kdevplatform/shell/problemconstants.h"
  #include "/usr/include/kdevplatform/shell/problemmodel.h"
  #include "/usr/include/kdevplatform/shell/problemmodelset.h"
  #include "/usr/include/kdevplatform/shell/problemstore.h"
  #include "/usr/include/kdevplatform/shell/project.h"
  #include "/usr/include/kdevplatform/shell/projectcontroller.h"
  #include "/usr/include/kdevplatform/shell/runcontroller.h"
  #include "/usr/include/kdevplatform/shell/selectioncontroller.h"
  #include "/usr/include/kdevplatform/shell/session.h"
  #include "/usr/include/kdevplatform/shell/sessioncontroller.h"
  #include "/usr/include/kdevplatform/shell/sessionlock.h"
  #include "/usr/include/kdevplatform/shell/shellexport.h"
  #include "/usr/include/kdevplatform/shell/shellextension.h"
  #include "/usr/include/kdevplatform/shell/sourceformattercontroller.h"
  #include "/usr/include/kdevplatform/shell/sourceformatterselectionedit.h"
  #include "/usr/include/kdevplatform/shell/textdocument.h"
  #include "/usr/include/kdevplatform/shell/uicontroller.h"
  #include "/usr/include/kdevplatform/sublime/area.h"
  #include "/usr/include/kdevplatform/sublime/areaindex.h"
  #include "/usr/include/kdevplatform/sublime/areawalkers.h"
  #include "/usr/include/kdevplatform/sublime/container.h"
  #include "/usr/include/kdevplatform/sublime/controller.h"
  #include "/usr/include/kdevplatform/sublime/document.h"
  #include "/usr/include/kdevplatform/sublime/mainwindow.h"
  #include "/usr/include/kdevplatform/sublime/mainwindowoperator.h"
  #include "/usr/include/kdevplatform/sublime/message.h"
  #include "/usr/include/kdevplatform/sublime/sublimedefs.h"
  #include "/usr/include/kdevplatform/sublime/sublimeexport.h"
  #include "/usr/include/kdevplatform/sublime/tooldocument.h"
  #include "/usr/include/kdevplatform/sublime/urldocument.h"
  #include "/usr/include/kdevplatform/sublime/view.h"
  #include "/usr/include/kdevplatform/sublime/viewbarcontainer.h"
  #include "/usr/include/kdevplatform/util/activetooltip.h"
  #include "/usr/include/kdevplatform/util/algorithm.h"
  #include "/usr/include/kdevplatform/util/autoorientedsplitter.h"
  #include "/usr/include/kdevplatform/util/commandexecutor.h"
  #include "/usr/include/kdevplatform/util/convenientfreelist.h"
  #include "/usr/include/kdevplatform/util/embeddedfreetree.h"
  #include "/usr/include/kdevplatform/util/environmentprofilelist.h"
  #include "/usr/include/kdevplatform/util/environmentselectionwidget.h"
  #include "/usr/include/kdevplatform/util/executecompositejob.h"
  #include "/usr/include/kdevplatform/util/filesystemhelpers.h"
  #include "/usr/include/kdevplatform/util/focusedtreeview.h"
  #include "/usr/include/kdevplatform/util/foregroundlock.h"
  #include "/usr/include/kdevplatform/util/formattinghelpers.h"
  #include "/usr/include/kdevplatform/util/jobstatus.h"
  #include "/usr/include/kdevplatform/util/kdevstringhandler.h"
  #include "/usr/include/kdevplatform/util/kdevvarlengtharray.h"
  #include "/usr/include/kdevplatform/util/ksharedobject.h"
  #include "/usr/include/kdevplatform/util/multilevellistview.h"
  #include "/usr/include/kdevplatform/util/objectlist.h"
  #include "/usr/include/kdevplatform/util/owningrawpointercontainer.h"
  #include "/usr/include/kdevplatform/util/path.h"
  #include "/usr/include/kdevplatform/util/placeholderitemproxymodel.h"
  #include "/usr/include/kdevplatform/util/processlinemaker.h"
  #include "/usr/include/kdevplatform/util/projecttestjob.h"
  #include "/usr/include/kdevplatform/util/pushvalue.h"
  #include "/usr/include/kdevplatform/util/stack.h"
  #include "/usr/include/kdevplatform/util/texteditorhelpers.h"
  #include "/usr/include/kdevplatform/util/utilexport.h"
  #include "/usr/include/kdevplatform/util/widgetcolorizer.h"
  #include "/usr/include/kdevplatform/util/wildcardhelpers.h"
  #include "/usr/include/kdevplatform/util/zoomcontroller.h"
  #include "/usr/include/kdevplatform/vcs/dvcs/dvcsevent.h"
  #include "/usr/include/kdevplatform/vcs/dvcs/dvcsjob.h"
  #include "/usr/include/kdevplatform/vcs/dvcs/dvcsplugin.h"
  #include "/usr/include/kdevplatform/vcs/dvcs/ui/dvcsimportmetadatawidget.h"
  #include "/usr/include/kdevplatform/vcs/interfaces/ibasicversioncontrol.h"
  #include "/usr/include/kdevplatform/vcs/interfaces/ibranchingversioncontrol.h"
  #include "/usr/include/kdevplatform/vcs/interfaces/ibrowsableversioncontrol.h"
  #include "/usr/include/kdevplatform/vcs/interfaces/icentralizedversioncontrol.h"
  #include "/usr/include/kdevplatform/vcs/interfaces/idistributedversioncontrol.h"
  #include "/usr/include/kdevplatform/vcs/interfaces/ipatchdocument.h"
  #include "/usr/include/kdevplatform/vcs/interfaces/ipatchsource.h"
  #include "/usr/include/kdevplatform/vcs/interfaces/irepositoryversioncontrol.h"
  #include "/usr/include/kdevplatform/vcs/models/brancheslistmodel.h"
  #include "/usr/include/kdevplatform/vcs/models/vcsannotationmodel.h"
  #include "/usr/include/kdevplatform/vcs/models/vcseventmodel.h"
  #include "/usr/include/kdevplatform/vcs/models/vcsfilechangesmodel.h"
  #include "/usr/include/kdevplatform/vcs/models/vcsitemeventmodel.h"
  #include "/usr/include/kdevplatform/vcs/vcsannotation.h"
  #include "/usr/include/kdevplatform/vcs/vcsdiff.h"
  #include "/usr/include/kdevplatform/vcs/vcsevent.h"
  #include "/usr/include/kdevplatform/vcs/vcsexport.h"
  #include "/usr/include/kdevplatform/vcs/vcsjob.h"
  #include "/usr/include/kdevplatform/vcs/vcslocation.h"
  #include "/usr/include/kdevplatform/vcs/vcspluginhelper.h"
  #include "/usr/include/kdevplatform/vcs/vcsrevision.h"
  #include "/usr/include/kdevplatform/vcs/vcsstatusinfo.h"
  #include "/usr/include/kdevplatform/vcs/widgets/standardvcslocationwidget.h"
  #include "/usr/include/kdevplatform/vcs/widgets/vcscommitdialog.h"
  #include "/usr/include/kdevplatform/vcs/widgets/vcsdiffwidget.h"
  #include "/usr/include/kdevplatform/vcs/widgets/vcseventwidget.h"
  #include "/usr/include/kdevplatform/vcs/widgets/vcsimportmetadatawidget.h"
  #include "/usr/include/kdevplatform/vcs/widgets/vcslocationwidget.h"

  // add namespaces
  namespace boost{typedef int tmp_add_type_1;}
  boost::tmp_add_type_1 tmp_add_func_1(){return 0;};
  namespace boost{namespace archive{typedef int tmp_add_type_2;}}
  boost::archive::tmp_add_type_2 tmp_add_func_2(){return 0;};
  namespace boost{namespace archive{namespace detail{typedef int tmp_add_type_3;}}}
  boost::archive::detail::tmp_add_type_3 tmp_add_func_3(){return 0;};
  namespace boost{namespace core{typedef int tmp_add_type_4;}}
  boost::core::tmp_add_type_4 tmp_add_func_4(){return 0;};
  namespace boost{namespace detail{typedef int tmp_add_type_5;}}
  boost::detail::tmp_add_type_5 tmp_add_func_5(){return 0;};
  namespace boost{namespace iterators{typedef int tmp_add_type_6;}}
  boost::iterators::tmp_add_type_6 tmp_add_func_6(){return 0;};
  namespace boost{namespace iterators{namespace detail{typedef int tmp_add_type_7;}}}
  boost::iterators::detail::tmp_add_type_7 tmp_add_func_7(){return 0;};
  namespace boost{namespace mpl{typedef int tmp_add_type_8;}}
  boost::mpl::tmp_add_type_8 tmp_add_func_8(){return 0;};
  namespace boost{namespace mpl{namespace aux{typedef int tmp_add_type_9;}}}
  boost::mpl::aux::tmp_add_type_9 tmp_add_func_9(){return 0;};
  namespace boost{namespace mpl{namespace placeholders{typedef int tmp_add_type_10;}}}
  boost::mpl::placeholders::tmp_add_type_10 tmp_add_func_10(){return 0;};
  namespace boost{namespace placeholders{typedef int tmp_add_type_11;}}
  boost::placeholders::tmp_add_type_11 tmp_add_func_11(){return 0;};
  namespace boost{namespace serialization{typedef int tmp_add_type_12;}}
  boost::serialization::tmp_add_type_12 tmp_add_func_12(){return 0;};
  namespace boost{namespace serialization{namespace detail{typedef int tmp_add_type_13;}}}
  boost::serialization::detail::tmp_add_type_13 tmp_add_func_13(){return 0;};
  namespace boost{namespace tuples{typedef int tmp_add_type_14;}}
  boost::tuples::tmp_add_type_14 tmp_add_func_14(){return 0;};
  namespace boost{namespace tuples{namespace detail{typedef int tmp_add_type_15;}}}
  boost::tuples::detail::tmp_add_type_15 tmp_add_func_15(){return 0;};
  namespace ClassModelNodes{typedef int tmp_add_type_16;}
  ClassModelNodes::tmp_add_type_16 tmp_add_func_16(){return 0;};
  namespace ConversionCheck{typedef int tmp_add_type_17;}
  ConversionCheck::tmp_add_type_17 tmp_add_func_17(){return 0;};
  namespace KDEPrivate{typedef int tmp_add_type_18;}
  KDEPrivate::tmp_add_type_18 tmp_add_func_18(){return 0;};
  namespace KDevelop{typedef int tmp_add_type_19;}
  KDevelop::tmp_add_type_19 tmp_add_func_19(){return 0;};
  namespace KDevelop{namespace ItemRepositoryUtils{typedef int tmp_add_type_20;}}
  KDevelop::ItemRepositoryUtils::tmp_add_type_20 tmp_add_func_20(){return 0;};
  namespace KDevMI{typedef int tmp_add_type_21;}
  KDevMI::tmp_add_type_21 tmp_add_func_21(){return 0;};
  namespace KDevMI{namespace GDB{typedef int tmp_add_type_22;}}
  KDevMI::GDB::tmp_add_type_22 tmp_add_func_22(){return 0;};
  namespace KIO{typedef int tmp_add_type_23;}
  KIO::tmp_add_type_23 tmp_add_func_23(){return 0;};
  namespace KMessageBox{typedef int tmp_add_type_24;}
  KMessageBox::tmp_add_type_24 tmp_add_func_24(){return 0;};
  namespace KParts{typedef int tmp_add_type_25;}
  KParts::tmp_add_type_25 tmp_add_func_25(){return 0;};
  namespace KStandardGuiItem{typedef int tmp_add_type_26;}
  KStandardGuiItem::tmp_add_type_26 tmp_add_func_26(){return 0;};
  namespace KTextEditor{typedef int tmp_add_type_27;}
  KTextEditor::tmp_add_type_27 tmp_add_func_27(){return 0;};
  namespace Kuit{typedef int tmp_add_type_28;}
  Kuit::tmp_add_type_28 tmp_add_func_28(){return 0;};
  namespace QAlgorithmsPrivate{typedef int tmp_add_type_29;}
  QAlgorithmsPrivate::tmp_add_type_29 tmp_add_func_29(){return 0;};
  namespace QColorConstants{typedef int tmp_add_type_30;}
  QColorConstants::tmp_add_type_30 tmp_add_func_30(){return 0;};
  namespace QColorConstants{namespace Svg{typedef int tmp_add_type_31;}}
  QColorConstants::Svg::tmp_add_type_31 tmp_add_func_31(){return 0;};
  namespace QJsonPrivate{typedef int tmp_add_type_32;}
  QJsonPrivate::tmp_add_type_32 tmp_add_func_32(){return 0;};
  namespace Qt{typedef int tmp_add_type_33;}
  Qt::tmp_add_type_33 tmp_add_func_33(){return 0;};
  namespace QTest{typedef int tmp_add_type_34;}
  QTest::tmp_add_type_34 tmp_add_func_34(){return 0;};
  namespace QTest{namespace Internal{typedef int tmp_add_type_35;}}
  QTest::Internal::tmp_add_type_35 tmp_add_func_35(){return 0;};
  namespace QTestPrivate{typedef int tmp_add_type_36;}
  QTestPrivate::tmp_add_type_36 tmp_add_func_36(){return 0;};
  namespace QTextStreamFunctions{typedef int tmp_add_type_37;}
  QTextStreamFunctions::tmp_add_type_37 tmp_add_func_37(){return 0;};
  namespace QtGlobalStatic{typedef int tmp_add_type_38;}
  QtGlobalStatic::tmp_add_type_38 tmp_add_func_38(){return 0;};
  namespace QtMetaTypePrivate{typedef int tmp_add_type_39;}
  QtMetaTypePrivate::tmp_add_type_39 tmp_add_func_39(){return 0;};
  namespace QtMetaTypePrivate{namespace QtPrivate{typedef int tmp_add_type_40;}}
  QtMetaTypePrivate::QtPrivate::tmp_add_type_40 tmp_add_func_40(){return 0;};
  namespace QtMetaTypePrivate{namespace QtPrivate{namespace ContainerCapabilitiesMetaProgrammingHelper{typedef int tmp_add_type_41;}}}
  QtMetaTypePrivate::QtPrivate::ContainerCapabilitiesMetaProgrammingHelper::tmp_add_type_41 tmp_add_func_41(){return 0;};
  namespace QtPrivate{typedef int tmp_add_type_42;}
  QtPrivate::tmp_add_type_42 tmp_add_func_42(){return 0;};
  namespace QtPrivate{namespace DeprecatedRefClassBehavior{typedef int tmp_add_type_43;}}
  QtPrivate::DeprecatedRefClassBehavior::tmp_add_type_43 tmp_add_func_43(){return 0;};
  namespace QtPrivate{namespace SwapExceptionTester{typedef int tmp_add_type_44;}}
  QtPrivate::SwapExceptionTester::tmp_add_type_44 tmp_add_func_44(){return 0;};
  namespace QtSharedPointer{typedef int tmp_add_type_45;}
  QtSharedPointer::tmp_add_type_45 tmp_add_func_45(){return 0;};
  namespace Sublime{typedef int tmp_add_type_46;}
  Sublime::tmp_add_type_46 tmp_add_func_46(){return 0;};
  namespace ThreadWeaver{typedef int tmp_add_type_47;}
  ThreadWeaver::tmp_add_type_47 tmp_add_func_47(){return 0;};
  namespace ThreadWeaver{namespace Private{typedef int tmp_add_type_48;}}
  ThreadWeaver::Private::tmp_add_type_48 tmp_add_func_48(){return 0;};
  namespace Ui{typedef int tmp_add_type_49;}
  Ui::tmp_add_type_49 tmp_add_func_49(){return 0;};
  namespace Utils{typedef int tmp_add_type_50;}
  Utils::tmp_add_type_50 tmp_add_func_50(){return 0;};
  namespace boost{namespace _bi{typedef int tmp_add_type_51;}}
  boost::_bi::tmp_add_type_51 tmp_add_func_51(){return 0;};
  namespace boost{namespace _mfi{typedef int tmp_add_type_52;}}
  boost::_mfi::tmp_add_type_52 tmp_add_func_52(){return 0;};
  namespace boost{namespace detail{namespace aligned_storage{typedef int tmp_add_type_53;}}}
  boost::detail::aligned_storage::tmp_add_type_53 tmp_add_func_53(){return 0;};
  namespace boost{namespace detail{namespace indirect_traits{typedef int tmp_add_type_54;}}}
  boost::detail::indirect_traits::tmp_add_type_54 tmp_add_func_54(){return 0;};
  namespace boost{namespace exception_detail{typedef int tmp_add_type_55;}}
  boost::exception_detail::tmp_add_type_55 tmp_add_func_55(){return 0;};
  namespace boost{namespace move_detail{typedef int tmp_add_type_56;}}
  boost::move_detail::tmp_add_type_56 tmp_add_func_56(){return 0;};
  namespace boost{namespace multi_index{typedef int tmp_add_type_57;}}
  boost::multi_index::tmp_add_type_57 tmp_add_func_57(){return 0;};
  namespace boost{namespace multi_index{namespace detail{typedef int tmp_add_type_58;}}}
  boost::multi_index::detail::tmp_add_type_58 tmp_add_func_58(){return 0;};
  namespace boost{namespace multi_index{namespace detail{namespace index_matcher{typedef int tmp_add_type_59;}}}}
  boost::multi_index::detail::index_matcher::tmp_add_type_59 tmp_add_func_59(){return 0;};
  namespace boost{namespace noncopyable_{typedef int tmp_add_type_60;}}
  boost::noncopyable_::tmp_add_type_60 tmp_add_func_60(){return 0;};
  namespace boost{namespace operators_impl{typedef int tmp_add_type_61;}}
  boost::operators_impl::tmp_add_type_61 tmp_add_func_61(){return 0;};
  namespace boost{namespace operators_impl{namespace operators_detail{typedef int tmp_add_type_62;}}}
  boost::operators_impl::operators_detail::tmp_add_type_62 tmp_add_func_62(){return 0;};
  namespace boost{namespace Q_FOREACH{typedef int tmp_add_type_63;}}
  boost::Q_FOREACH::tmp_add_type_63 tmp_add_func_63(){return 0;};
  namespace boost{namespace serialization{namespace void_cast_detail{typedef int tmp_add_type_64;}}}
  boost::serialization::void_cast_detail::tmp_add_type_64 tmp_add_func_64(){return 0;};
  namespace boost{namespace tt_align_ns{typedef int tmp_add_type_65;}}
  boost::tt_align_ns::tmp_add_type_65 tmp_add_func_65(){return 0;};
  namespace boost{namespace type_traits{typedef int tmp_add_type_66;}}
  boost::type_traits::tmp_add_type_66 tmp_add_func_66(){return 0;};
  namespace boost{namespace type_traits_detail{typedef int tmp_add_type_67;}}
  boost::type_traits_detail::tmp_add_type_67 tmp_add_func_67(){return 0;};
  namespace boost_swap_impl{typedef int tmp_add_type_68;}
  boost_swap_impl::tmp_add_type_68 tmp_add_func_68(){return 0;};
  namespace mpl_{typedef int tmp_add_type_69;}
  mpl_::tmp_add_type_69 tmp_add_func_69(){return 0;};
  namespace mpl_{namespace aux{typedef int tmp_add_type_70;}}
  mpl_::aux::tmp_add_type_70 tmp_add_func_70(){return 0;};

The GCC parameters:
  gcc -fdump-lang-raw -fkeep-inline-functions -c -x c++ -fpermissive -w "/tmp/oMz_WBoNvw/dump1.h"  -I/usr/include/kdevplatform -I/usr/include/kdevelop -I/usr/include/arm-linux-gnueabihf/qt5 -I/usr/include/KF5/ThreadWeaver -I/usr/include/KF5/KXmlGui -I/usr/include/KF5/KWidgetsAddons -I/usr/include/KF5/KTextEditor -I/usr/include/KF5/KSyntaxHighlighting -I/usr/include/KF5/KParts -I/usr/include/KF5/KIOCore -I/usr/include/KF5/KI18n -I/usr/include/KF5/KCoreAddons -I/usr/include/KF5/KConfigWidgets -I/usr/include/KF5/KConfigGui -I/usr/include/KF5/KConfigCore -I/usr/include/arm-linux-gnueabihf/qt5/QtWidgets -I/usr/include/arm-linux-gnueabihf/qt5/QtTest -I/usr/include/arm-linux-gnueabihf/qt5/QtGui -I/usr/include/arm-linux-gnueabihf/qt5/QtCore

In file included from /tmp/oMz_WBoNvw/dump1.h:113:
/usr/include/kdevplatform/language/codecompletion/codecompletiontesthelper.h:21:10: fatal error: tests/testhelpers.h: No such file or directory
   21 | #include <tests/testhelpers.h>
      |          ^~~~~~~~~~~~~~~~~~~~~
compilation terminated.

