[2024-01-08T11:22:41+00:00] apt-get install libtranscript-dev abi-compliance-checker
Reading package lists...
Building dependency tree...
Reading state information...
abi-compliance-checker is already the newest version (2.3-2).
The following packages were automatically installed and are no longer required:
  dconf-gsettings-backend dconf-service gir1.2-glib-2.0 gir1.2-json-1.0
  gir1.2-soup-3.0 gir1.2-tracker-3.0 glib-networking glib-networking-common
  glib-networking-services gsettings-desktop-schemas icu-devtools libblkid-dev
  libbrotli-dev libbrotli1 libdconf1 libffi-dev libgirepository-1.0-1
  libglib2.0-0 libglib2.0-bin libglib2.0-data libglib2.0-dev
  libglib2.0-dev-bin libicu-dev libjson-glib-1.0-0 libjson-glib-1.0-common
  libjson-glib-dev libmount-dev libnghttp2-14 libnghttp2-dev libpcre2-16-0
  libpcre2-32-0 libpcre2-dev libpcre2-posix3 libpkgconf3 libproxy1v5
  libpsl-dev libpsl5 libselinux1-dev libsepol-dev libsoup-3.0-0
  libsoup-3.0-common libsoup-3.0-dev libsqlite3-dev libstemmer0d
  libsysprof-capture-4-dev libtracker-sparql-3.0-0 libtracker-sparql-3.0-dev
  libxml2-dev pkg-config pkgconf pkgconf-bin python3-distutils python3-lib2to3
  uuid-dev zlib1g-dev
Use 'apt autoremove' to remove them.
The following NEW packages will be installed:
  libtranscript-dev libtranscript1
0 upgraded, 2 newly installed, 0 to remove and 18 not upgraded.
Need to get 864 kB of archives.
After this operation, 3479 kB of additional disk space will be used.
Get:1 http://deb.debian.org/debian unstable/main armhf libtranscript1 armhf 0.3.3-1 [852 kB]
Get:2 http://deb.debian.org/debian unstable/main armhf libtranscript-dev armhf 0.3.3-1 [12.4 kB]
debconf: delaying package configuration, since apt-utils is not installed
Fetched 864 kB in 0s (15.2 MB/s)
Selecting previously unselected package libtranscript1.
(Reading database ... (Reading database ... 5%(Reading database ... 10%(Reading database ... 15%(Reading database ... 20%(Reading database ... 25%(Reading database ... 30%(Reading database ... 35%(Reading database ... 40%(Reading database ... 45%(Reading database ... 50%(Reading database ... 55%(Reading database ... 60%(Reading database ... 65%(Reading database ... 70%(Reading database ... 75%(Reading database ... 80%(Reading database ... 85%(Reading database ... 90%(Reading database ... 95%(Reading database ... 100%(Reading database ... 19383 files and directories currently installed.)
Preparing to unpack .../libtranscript1_0.3.3-1_armhf.deb ...
Unpacking libtranscript1 (0.3.3-1) ...
Selecting previously unselected package libtranscript-dev.
Preparing to unpack .../libtranscript-dev_0.3.3-1_armhf.deb ...
Unpacking libtranscript-dev (0.3.3-1) ...
Setting up libtranscript1 (0.3.3-1) ...
Setting up libtranscript-dev (0.3.3-1) ...
Processing triggers for libc-bin (2.37-13) ...
Reading package lists...
Building dependency tree...
Reading state information...
The following packages will be REMOVED:
  dconf-gsettings-backend* dconf-service* gir1.2-glib-2.0* gir1.2-json-1.0*
  gir1.2-soup-3.0* gir1.2-tracker-3.0* glib-networking*
  glib-networking-common* glib-networking-services* gsettings-desktop-schemas*
  icu-devtools* libblkid-dev* libbrotli-dev* libbrotli1* libdconf1*
  libffi-dev* libgirepository-1.0-1* libglib2.0-0* libglib2.0-bin*
  libglib2.0-data* libglib2.0-dev* libglib2.0-dev-bin* libicu-dev*
  libjson-glib-1.0-0* libjson-glib-1.0-common* libjson-glib-dev* libmount-dev*
  libnghttp2-14* libnghttp2-dev* libpcre2-16-0* libpcre2-32-0* libpcre2-dev*
  libpcre2-posix3* libpkgconf3* libproxy1v5* libpsl-dev* libpsl5*
  libselinux1-dev* libsepol-dev* libsoup-3.0-0* libsoup-3.0-common*
  libsoup-3.0-dev* libsqlite3-dev* libstemmer0d* libsysprof-capture-4-dev*
  libtracker-sparql-3.0-0* libtracker-sparql-3.0-dev* libxml2-dev* pkg-config*
  pkgconf* pkgconf-bin* python3-distutils* python3-lib2to3* uuid-dev*
  zlib1g-dev*
0 upgraded, 0 newly installed, 55 to remove and 18 not upgraded.
After this operation, 95.5 MB disk space will be freed.
(Reading database ... (Reading database ... 5%(Reading database ... 10%(Reading database ... 15%(Reading database ... 20%(Reading database ... 25%(Reading database ... 30%(Reading database ... 35%(Reading database ... 40%(Reading database ... 45%(Reading database ... 50%(Reading database ... 55%(Reading database ... 60%(Reading database ... 65%(Reading database ... 70%(Reading database ... 75%(Reading database ... 80%(Reading database ... 85%(Reading database ... 90%(Reading database ... 95%(Reading database ... 100%(Reading database ... 19537 files and directories currently installed.)
Removing libtracker-sparql-3.0-dev:armhf (3.4.2-3) ...
Removing gir1.2-tracker-3.0:armhf (3.4.2-3) ...
Removing libtracker-sparql-3.0-0:armhf (3.4.2-3) ...
Removing libsoup-3.0-dev:armhf (3.4.4-2) ...
Removing gir1.2-soup-3.0:armhf (3.4.4-2) ...
Removing libsoup-3.0-0:armhf (3.4.4-2) ...
Removing glib-networking:armhf (2.78.0-1) ...
Removing gsettings-desktop-schemas (45.0-2) ...
Removing dconf-gsettings-backend:armhf (0.40.0-4+b1) ...
Removing dconf-service (0.40.0-4+b1) ...
Removing libjson-glib-dev:armhf (1.8.0-2) ...
Removing gir1.2-json-1.0:armhf (1.8.0-2) ...
Removing gir1.2-glib-2.0:armhf (1.78.1-6) ...
Removing glib-networking-services (2.78.0-1) ...
Removing glib-networking-common (2.78.0-1) ...
Removing libxml2-dev:armhf (2.9.14+dfsg-1.3+b2) ...
Removing libicu-dev:armhf (72.1-4) ...
Removing icu-devtools (72.1-4) ...
Removing libglib2.0-dev:armhf (2.78.3-1) ...
Removing libmount-dev:armhf (2.39.3-6) ...
Removing libblkid-dev:armhf (2.39.3-6) ...
Removing libbrotli-dev:armhf (1.1.0-2+b3) ...
Removing libbrotli1:armhf (1.1.0-2+b3) ...
Removing libdconf1:armhf (0.40.0-4+b1) ...
Removing libffi-dev:armhf (3.4.4-2) ...
Removing libgirepository-1.0-1:armhf (1.78.1-6) ...
Removing libjson-glib-1.0-0:armhf (1.8.0-2) ...
Removing libglib2.0-bin (2.78.3-1) ...
Removing libglib2.0-data (2.78.3-1) ...
Removing libglib2.0-dev-bin (2.78.3-1) ...
Removing libjson-glib-1.0-common (1.8.0-2) ...
Removing libnghttp2-dev:armhf (1.58.0-1) ...
Removing libnghttp2-14:armhf (1.58.0-1) ...
Removing libselinux1-dev:armhf (3.5-1+b2) ...
Removing libpcre2-dev:armhf (10.42-4) ...
Removing libpcre2-16-0:armhf (10.42-4) ...
Removing libpcre2-32-0:armhf (10.42-4) ...
Removing libpcre2-posix3:armhf (10.42-4) ...
Removing pkg-config:armhf (1.8.1-1+b2) ...
Removing pkgconf:armhf (1.8.1-1+b2) ...
Removing pkgconf-bin (1.8.1-1+b2) ...
Removing libpkgconf3:armhf (1.8.1-1+b2) ...
Removing libproxy1v5:armhf (0.4.18-1.2+b2) ...
Removing libpsl-dev:armhf (0.21.2-1+b1) ...
Removing libpsl5:armhf (0.21.2-1+b1) ...
Removing libsepol-dev:armhf (3.5-2) ...
Removing libsoup-3.0-common (3.4.4-2) ...
Removing libsqlite3-dev:armhf (3.44.2-1) ...
Removing libstemmer0d:armhf (2.2.0-4) ...
Removing libsysprof-capture-4-dev:armhf (45.1-2) ...
Removing python3-distutils (3.11.5-1) ...
Removing python3-lib2to3 (3.11.5-1) ...
Removing uuid-dev:armhf (2.39.3-6) ...
Removing zlib1g-dev:armhf (1:1.3.dfsg-3) ...
Removing libglib2.0-0:armhf (2.78.3-1) ...
Processing triggers for install-info (7.1-2) ...
Processing triggers for libc-bin (2.37-13) ...
(Reading database ... (Reading database ... 5%(Reading database ... 10%(Reading database ... 15%(Reading database ... 20%(Reading database ... 25%(Reading database ... 30%(Reading database ... 35%(Reading database ... 40%(Reading database ... 45%(Reading database ... 50%(Reading database ... 55%(Reading database ... 60%(Reading database ... 65%(Reading database ... 70%(Reading database ... 75%(Reading database ... 80%(Reading database ... 85%(Reading database ... 90%(Reading database ... 95%(Reading database ... 100%(Reading database ... 17197 files and directories currently installed.)
Purging configuration files for libglib2.0-0:armhf (2.78.3-1) ...
Purging configuration files for pkgconf:armhf (1.8.1-1+b2) ...
Purging configuration files for pkg-config:armhf (1.8.1-1+b2) ...
