[2024-02-15T09:41:39+00:00] apt-get install libchipmunk-dev abi-compliance-checker
Reading package lists...
Building dependency tree...
Reading state information...
abi-compliance-checker is already the newest version (2.3-2).
The following NEW packages will be installed:
  libchipmunk-dev libchipmunk7
0 upgraded, 2 newly installed, 0 to remove and 114 not upgraded.
Need to get 394 kB of archives.
After this operation, 1744 kB of additional disk space will be used.
Get:1 http://deb.debian.org/debian unstable/main armhf libchipmunk7 armhf 7.0.3-6 [71.9 kB]
Get:2 http://deb.debian.org/debian unstable/main armhf libchipmunk-dev armhf 7.0.3-6 [322 kB]
debconf: delaying package configuration, since apt-utils is not installed
Fetched 394 kB in 0s (7960 kB/s)
Selecting previously unselected package libchipmunk7:armhf.
(Reading database ... (Reading database ... 5%(Reading database ... 10%(Reading database ... 15%(Reading database ... 20%(Reading database ... 25%(Reading database ... 30%(Reading database ... 35%(Reading database ... 40%(Reading database ... 45%(Reading database ... 50%(Reading database ... 55%(Reading database ... 60%(Reading database ... 65%(Reading database ... 70%(Reading database ... 75%(Reading database ... 80%(Reading database ... 85%(Reading database ... 90%(Reading database ... 95%(Reading database ... 100%(Reading database ... 12127 files and directories currently installed.)
Preparing to unpack .../libchipmunk7_7.0.3-6_armhf.deb ...
Unpacking libchipmunk7:armhf (7.0.3-6) ...
Selecting previously unselected package libchipmunk-dev:armhf.
Preparing to unpack .../libchipmunk-dev_7.0.3-6_armhf.deb ...
Unpacking libchipmunk-dev:armhf (7.0.3-6) ...
Setting up libchipmunk7:armhf (7.0.3-6) ...
Setting up libchipmunk-dev:armhf (7.0.3-6) ...
Processing triggers for libc-bin (2.37-13) ...
Reading package lists...
Building dependency tree...
Reading state information...
0 upgraded, 0 newly installed, 0 to remove and 114 not upgraded.
