[2024-01-07T13:41:34+00:00] apt-get install libkf5i18n-dev abi-compliance-checker
Reading package lists...
Building dependency tree...
Reading state information...
abi-compliance-checker is already the newest version (2.3-2).
The following packages were automatically installed and are no longer required:
  libkf5holidays-data libkf5holidays-dev libkf5holidays5
Use 'apt autoremove' to remove them.
The following additional packages will be installed:
  iso-codes libkf5i18n-data libkf5i18n5 libkf5i18nlocaledata5 libqt5qml5
  libqt5script5 libqt5scripttools5 qtscript5-dev
Suggested packages:
  isoquery qt5-qmltooling-plugins
Recommended packages:
  libkf5i18n-doc
The following NEW packages will be installed:
  iso-codes libkf5i18n-data libkf5i18n-dev libkf5i18n5 libkf5i18nlocaledata5
  libqt5qml5 libqt5script5 libqt5scripttools5 qtscript5-dev
0 upgraded, 9 newly installed, 0 to remove and 30 not upgraded.
Need to get 6259 kB of archives.
After this operation, 44.2 MB of additional disk space will be used.
Get:1 http://deb.debian.org/debian unstable/main armhf libqt5script5 armhf 5.15.10+dfsg-2 [475 kB]
Get:2 http://deb.debian.org/debian unstable/main armhf libqt5scripttools5 armhf 5.15.10+dfsg-2 [182 kB]
Get:3 http://deb.debian.org/debian unstable/main armhf qtscript5-dev armhf 5.15.10+dfsg-2 [19.9 kB]
Get:4 http://deb.debian.org/debian unstable/main armhf iso-codes all 4.15.0-1 [2906 kB]
Get:5 http://deb.debian.org/debian unstable/main armhf libkf5i18n-data all 5.107.0-1 [1047 kB]
Get:6 http://deb.debian.org/debian unstable/main armhf libqt5qml5 armhf 5.15.10+dfsg-2 [1195 kB]
Get:7 http://deb.debian.org/debian unstable/main armhf libkf5i18n5 armhf 5.107.0-1+b1 [109 kB]
Get:8 http://deb.debian.org/debian unstable/main armhf libkf5i18nlocaledata5 armhf 5.107.0-1+b1 [286 kB]
Get:9 http://deb.debian.org/debian unstable/main armhf libkf5i18n-dev armhf 5.107.0-1+b1 [39.7 kB]
debconf: delaying package configuration, since apt-utils is not installed
Fetched 6259 kB in 1s (12.1 MB/s)
Selecting previously unselected package libqt5script5:armhf.
(Reading database ... (Reading database ... 5%(Reading database ... 10%(Reading database ... 15%(Reading database ... 20%(Reading database ... 25%(Reading database ... 30%(Reading database ... 35%(Reading database ... 40%(Reading database ... 45%(Reading database ... 50%(Reading database ... 55%(Reading database ... 60%(Reading database ... 65%(Reading database ... 70%(Reading database ... 75%(Reading database ... 80%(Reading database ... 85%(Reading database ... 90%(Reading database ... 95%(Reading database ... 100%(Reading database ... 21252 files and directories currently installed.)
Preparing to unpack .../0-libqt5script5_5.15.10+dfsg-2_armhf.deb ...
Unpacking libqt5script5:armhf (5.15.10+dfsg-2) ...
Selecting previously unselected package libqt5scripttools5:armhf.
Preparing to unpack .../1-libqt5scripttools5_5.15.10+dfsg-2_armhf.deb ...
Unpacking libqt5scripttools5:armhf (5.15.10+dfsg-2) ...
Selecting previously unselected package qtscript5-dev:armhf.
Preparing to unpack .../2-qtscript5-dev_5.15.10+dfsg-2_armhf.deb ...
Unpacking qtscript5-dev:armhf (5.15.10+dfsg-2) ...
Selecting previously unselected package iso-codes.
Preparing to unpack .../3-iso-codes_4.15.0-1_all.deb ...
Unpacking iso-codes (4.15.0-1) ...
Selecting previously unselected package libkf5i18n-data.
Preparing to unpack .../4-libkf5i18n-data_5.107.0-1_all.deb ...
Unpacking libkf5i18n-data (5.107.0-1) ...
Selecting previously unselected package libqt5qml5:armhf.
Preparing to unpack .../5-libqt5qml5_5.15.10+dfsg-2_armhf.deb ...
Unpacking libqt5qml5:armhf (5.15.10+dfsg-2) ...
Selecting previously unselected package libkf5i18n5:armhf.
Preparing to unpack .../6-libkf5i18n5_5.107.0-1+b1_armhf.deb ...
Unpacking libkf5i18n5:armhf (5.107.0-1+b1) ...
Selecting previously unselected package libkf5i18nlocaledata5:armhf.
Preparing to unpack .../7-libkf5i18nlocaledata5_5.107.0-1+b1_armhf.deb ...
Unpacking libkf5i18nlocaledata5:armhf (5.107.0-1+b1) ...
Selecting previously unselected package libkf5i18n-dev:armhf.
Preparing to unpack .../8-libkf5i18n-dev_5.107.0-1+b1_armhf.deb ...
Unpacking libkf5i18n-dev:armhf (5.107.0-1+b1) ...
Setting up libkf5i18n-data (5.107.0-1) ...
Setting up libqt5script5:armhf (5.15.10+dfsg-2) ...
Setting up libqt5qml5:armhf (5.15.10+dfsg-2) ...
Setting up iso-codes (4.15.0-1) ...
Setting up libqt5scripttools5:armhf (5.15.10+dfsg-2) ...
Setting up libkf5i18n5:armhf (5.107.0-1+b1) ...
Setting up qtscript5-dev:armhf (5.15.10+dfsg-2) ...
Setting up libkf5i18nlocaledata5:armhf (5.107.0-1+b1) ...
Setting up libkf5i18n-dev:armhf (5.107.0-1+b1) ...
Processing triggers for libc-bin (2.37-13) ...
Reading package lists...
Building dependency tree...
Reading state information...
The following packages will be REMOVED:
  libkf5holidays-data* libkf5holidays-dev* libkf5holidays5*
0 upgraded, 0 newly installed, 3 to remove and 30 not upgraded.
After this operation, 1138 kB disk space will be freed.
(Reading database ... (Reading database ... 5%(Reading database ... 10%(Reading database ... 15%(Reading database ... 20%(Reading database ... 25%(Reading database ... 30%(Reading database ... 35%(Reading database ... 40%(Reading database ... 45%(Reading database ... 50%(Reading database ... 55%(Reading database ... 60%(Reading database ... 65%(Reading database ... 70%(Reading database ... 75%(Reading database ... 80%(Reading database ... 85%(Reading database ... 90%(Reading database ... 95%(Reading database ... 100%(Reading database ... 22849 files and directories currently installed.)
Removing libkf5holidays-dev:armhf (1:5.107.0-1) ...
Removing libkf5holidays5:armhf (1:5.107.0-1) ...
Removing libkf5holidays-data (1:5.107.0-1) ...
Processing triggers for libc-bin (2.37-13) ...
