[2024-01-08T19:25:47+00:00] apt-get install lua-lpty-dev liblua5.4-dev abi-compliance-checker
Reading package lists...
Building dependency tree...
Reading state information...
liblua5.4-dev is already the newest version (5.4.6-1).
liblua5.4-dev set to manually installed.
abi-compliance-checker is already the newest version (2.3-2).
The following packages were automatically installed and are no longer required:
  lua-lpeg lua-lpeg-dev
Use 'apt autoremove' to remove them.
The following additional packages will be installed:
  lua-lpty
The following NEW packages will be installed:
  lua-lpty lua-lpty-dev
0 upgraded, 2 newly installed, 0 to remove and 12 not upgraded.
Need to get 17.1 kB of archives.
After this operation, 204 kB of additional disk space will be used.
Get:1 http://deb.debian.org/debian unstable/main armhf lua-lpty armhf 1.0.1-2 [8972 B]
Get:2 http://deb.debian.org/debian unstable/main armhf lua-lpty-dev armhf 1.0.1-2 [8080 B]
debconf: delaying package configuration, since apt-utils is not installed
Fetched 17.1 kB in 0s (144 kB/s)
Selecting previously unselected package lua-lpty:armhf.
(Reading database ... (Reading database ... 5%(Reading database ... 10%(Reading database ... 15%(Reading database ... 20%(Reading database ... 25%(Reading database ... 30%(Reading database ... 35%(Reading database ... 40%(Reading database ... 45%(Reading database ... 50%(Reading database ... 55%(Reading database ... 60%(Reading database ... 65%(Reading database ... 70%(Reading database ... 75%(Reading database ... 80%(Reading database ... 85%(Reading database ... 90%(Reading database ... 95%(Reading database ... 100%(Reading database ... 19564 files and directories currently installed.)
Preparing to unpack .../lua-lpty_1.0.1-2_armhf.deb ...
Unpacking lua-lpty:armhf (1.0.1-2) ...
Selecting previously unselected package lua-lpty-dev:armhf.
Preparing to unpack .../lua-lpty-dev_1.0.1-2_armhf.deb ...
Unpacking lua-lpty-dev:armhf (1.0.1-2) ...
Setting up lua-lpty:armhf (1.0.1-2) ...
Setting up lua-lpty-dev:armhf (1.0.1-2) ...
Processing triggers for libc-bin (2.37-13) ...
Reading package lists...
Building dependency tree...
Reading state information...
The following packages will be REMOVED:
  lua-lpeg* lua-lpeg-dev*
0 upgraded, 0 newly installed, 2 to remove and 12 not upgraded.
After this operation, 591 kB disk space will be freed.
(Reading database ... (Reading database ... 5%(Reading database ... 10%(Reading database ... 15%(Reading database ... 20%(Reading database ... 25%(Reading database ... 30%(Reading database ... 35%(Reading database ... 40%(Reading database ... 45%(Reading database ... 50%(Reading database ... 55%(Reading database ... 60%(Reading database ... 65%(Reading database ... 70%(Reading database ... 75%(Reading database ... 80%(Reading database ... 85%(Reading database ... 90%(Reading database ... 95%(Reading database ... 100%(Reading database ... 19584 files and directories currently installed.)
Removing lua-lpeg-dev:armhf (1.0.2-2) ...
Removing lua-lpeg:armhf (1.0.2-2) ...
Processing triggers for libc-bin (2.37-13) ...
