[2024-01-07T11:36:27+00:00] apt-get install libics-dev abi-compliance-checker
Reading package lists...
Building dependency tree...
Reading state information...
abi-compliance-checker is already the newest version (2.3-2).
The following packages were automatically installed and are no longer required:
  libiconv-hook-dev libiconv-hook1
Use 'apt autoremove' to remove them.
The following NEW packages will be installed:
  libics-dev libics0
0 upgraded, 2 newly installed, 0 to remove and 35 not upgraded.
Need to get 83.1 kB of archives.
After this operation, 333 kB of additional disk space will be used.
Get:1 http://deb.debian.org/debian unstable/main armhf libics0 armhf 1.6.6-1 [36.3 kB]
Get:2 http://deb.debian.org/debian unstable/main armhf libics-dev armhf 1.6.6-1 [46.8 kB]
debconf: delaying package configuration, since apt-utils is not installed
Fetched 83.1 kB in 0s (454 kB/s)
Selecting previously unselected package libics0:armhf.
(Reading database ... (Reading database ... 5%(Reading database ... 10%(Reading database ... 15%(Reading database ... 20%(Reading database ... 25%(Reading database ... 30%(Reading database ... 35%(Reading database ... 40%(Reading database ... 45%(Reading database ... 50%(Reading database ... 55%(Reading database ... 60%(Reading database ... 65%(Reading database ... 70%(Reading database ... 75%(Reading database ... 80%(Reading database ... 85%(Reading database ... 90%(Reading database ... 95%(Reading database ... 100%(Reading database ... 15298 files and directories currently installed.)
Preparing to unpack .../libics0_1.6.6-1_armhf.deb ...
Unpacking libics0:armhf (1.6.6-1) ...
Selecting previously unselected package libics-dev:armhf.
Preparing to unpack .../libics-dev_1.6.6-1_armhf.deb ...
Unpacking libics-dev:armhf (1.6.6-1) ...
Setting up libics0:armhf (1.6.6-1) ...
Setting up libics-dev:armhf (1.6.6-1) ...
Processing triggers for libc-bin (2.37-13) ...
Reading package lists...
Building dependency tree...
Reading state information...
The following packages will be REMOVED:
  libiconv-hook-dev* libiconv-hook1*
0 upgraded, 0 newly installed, 2 to remove and 35 not upgraded.
After this operation, 248 kB disk space will be freed.
(Reading database ... (Reading database ... 5%(Reading database ... 10%(Reading database ... 15%(Reading database ... 20%(Reading database ... 25%(Reading database ... 30%(Reading database ... 35%(Reading database ... 40%(Reading database ... 45%(Reading database ... 50%(Reading database ... 55%(Reading database ... 60%(Reading database ... 65%(Reading database ... 70%(Reading database ... 75%(Reading database ... 80%(Reading database ... 85%(Reading database ... 90%(Reading database ... 95%(Reading database ... 100%(Reading database ... 15312 files and directories currently installed.)
Removing libiconv-hook-dev (0.0.20021209-12) ...
Removing libiconv-hook1 (0.0.20021209-12) ...
Processing triggers for libc-bin (2.37-13) ...
