[2024-02-01T08:25:25+00:00] apt-get install libdewalls-dev qtbase5-dev abi-compliance-checker
Reading package lists...
Building dependency tree...
Reading state information...
qtbase5-dev is already the newest version (5.15.10+dfsg-6).
qtbase5-dev set to manually installed.
abi-compliance-checker is already the newest version (2.3-2).
The following packages were automatically installed and are no longer required:
  icu-devtools libcurl3-gnutls libcurl4-gnutls-dev libdataquay-dev
  libdataquay0 libgmp-dev libgmpxx4ldbl libicu-dev libldap-2.5-0 libltdl7
  libmhash2 libnghttp2-14 libpkgconf3 libpsl5 libraptor2-0 libraptor2-dev
  librasqal3 librasqal3-dev librdf0 librdf0-dev librtmp1 libsasl2-2
  libsasl2-modules-db libssh2-1 libxml2-dev libxslt1-dev libxslt1.1
  libyajl-dev libyajl2 pkg-config pkgconf pkgconf-bin zlib1g-dev
Use 'apt autoremove' to remove them.
The following additional packages will be installed:
  libdewalls1
The following NEW packages will be installed:
  libdewalls-dev libdewalls1
0 upgraded, 2 newly installed, 0 to remove and 93 not upgraded.
Need to get 114 kB of archives.
After this operation, 396 kB of additional disk space will be used.
Get:1 http://deb.debian.org/debian unstable/main armhf libdewalls1 armhf 1.0.0+ds1-9 [96.9 kB]
Get:2 http://deb.debian.org/debian unstable/main armhf libdewalls-dev armhf 1.0.0+ds1-9 [17.6 kB]
debconf: delaying package configuration, since apt-utils is not installed
Fetched 114 kB in 0s (371 kB/s)
Selecting previously unselected package libdewalls1:armhf.
(Reading database ... (Reading database ... 5%(Reading database ... 10%(Reading database ... 15%(Reading database ... 20%(Reading database ... 25%(Reading database ... 30%(Reading database ... 35%(Reading database ... 40%(Reading database ... 45%(Reading database ... 50%(Reading database ... 55%(Reading database ... 60%(Reading database ... 65%(Reading database ... 70%(Reading database ... 75%(Reading database ... 80%(Reading database ... 85%(Reading database ... 90%(Reading database ... 95%(Reading database ... 100%(Reading database ... 19115 files and directories currently installed.)
Preparing to unpack .../libdewalls1_1.0.0+ds1-9_armhf.deb ...
Unpacking libdewalls1:armhf (1.0.0+ds1-9) ...
Selecting previously unselected package libdewalls-dev:armhf.
Preparing to unpack .../libdewalls-dev_1.0.0+ds1-9_armhf.deb ...
Unpacking libdewalls-dev:armhf (1.0.0+ds1-9) ...
Setting up libdewalls1:armhf (1.0.0+ds1-9) ...
Setting up libdewalls-dev:armhf (1.0.0+ds1-9) ...
Processing triggers for libc-bin (2.37-13) ...
Reading package lists...
Building dependency tree...
Reading state information...
The following packages will be REMOVED:
  icu-devtools* libcurl3-gnutls* libcurl4-gnutls-dev* libdataquay-dev*
  libdataquay0* libgmp-dev* libgmpxx4ldbl* libicu-dev* libldap-2.5-0*
  libltdl7* libmhash2* libnghttp2-14* libpkgconf3* libpsl5* libraptor2-0*
  libraptor2-dev* librasqal3* librasqal3-dev* librdf0* librdf0-dev* librtmp1*
  libsasl2-2* libsasl2-modules-db* libssh2-1* libxml2-dev* libxslt1-dev*
  libxslt1.1* libyajl-dev* libyajl2* pkg-config* pkgconf* pkgconf-bin*
  zlib1g-dev*
0 upgraded, 0 newly installed, 33 to remove and 93 not upgraded.
After this operation, 63.1 MB disk space will be freed.
(Reading database ... (Reading database ... 5%(Reading database ... 10%(Reading database ... 15%(Reading database ... 20%(Reading database ... 25%(Reading database ... 30%(Reading database ... 35%(Reading database ... 40%(Reading database ... 45%(Reading database ... 50%(Reading database ... 55%(Reading database ... 60%(Reading database ... 65%(Reading database ... 70%(Reading database ... 75%(Reading database ... 80%(Reading database ... 85%(Reading database ... 90%(Reading database ... 95%(Reading database ... 100%(Reading database ... 19146 files and directories currently installed.)
Removing libdataquay-dev:armhf (0.9.1-2+b1) ...
Removing librdf0-dev (1.0.17-3) ...
Removing librasqal3-dev (0.9.33-2) ...
Removing libraptor2-dev:armhf (2.0.16-3) ...
Removing libxslt1-dev:armhf (1.1.35-1) ...
Removing libxml2-dev:armhf (2.9.14+dfsg-1.3+b2) ...
Removing libicu-dev:armhf (72.1-4) ...
Removing icu-devtools (72.1-4) ...
Removing libdataquay0:armhf (0.9.1-2+b1) ...
Removing librdf0:armhf (1.0.17-3) ...
Removing librasqal3:armhf (0.9.33-2) ...
Removing libraptor2-0:armhf (2.0.16-3) ...
Removing libcurl4-gnutls-dev:armhf (8.5.0-2) ...
Removing libcurl3-gnutls:armhf (8.5.0-2) ...
Removing libgmp-dev:armhf (2:6.3.0+dfsg-2) ...
Removing libgmpxx4ldbl:armhf (2:6.3.0+dfsg-2) ...
Removing libldap-2.5-0:armhf (2.5.13+dfsg-5+b3) ...
Removing libltdl7:armhf (2.4.7-7) ...
Removing libmhash2:armhf (0.9.9.9-9) ...
Removing libnghttp2-14:armhf (1.58.0-1) ...
Removing pkg-config:armhf (1.8.1-1+b2) ...
Removing pkgconf:armhf (1.8.1-1+b2) ...
Removing pkgconf-bin (1.8.1-1+b2) ...
Removing libpkgconf3:armhf (1.8.1-1+b2) ...
Removing libpsl5:armhf (0.21.2-1+b1) ...
Removing librtmp1:armhf (2.4+20151223.gitfa8646d.1-2+b2) ...
Removing libsasl2-2:armhf (2.1.28+dfsg1-4+b1) ...
Removing libsasl2-modules-db:armhf (2.1.28+dfsg1-4+b1) ...
Removing libssh2-1:armhf (1.11.0-4) ...
Removing libxslt1.1:armhf (1.1.35-1) ...
Removing libyajl-dev:armhf (2.1.0-5) ...
Removing libyajl2:armhf (2.1.0-5) ...
Removing zlib1g-dev:armhf (1:1.3.dfsg-3+b1) ...
Processing triggers for libc-bin (2.37-13) ...
(Reading database ... (Reading database ... 5%(Reading database ... 10%(Reading database ... 15%(Reading database ... 20%(Reading database ... 25%(Reading database ... 30%(Reading database ... 35%(Reading database ... 40%(Reading database ... 45%(Reading database ... 50%(Reading database ... 55%(Reading database ... 60%(Reading database ... 65%(Reading database ... 70%(Reading database ... 75%(Reading database ... 80%(Reading database ... 85%(Reading database ... 90%(Reading database ... 95%(Reading database ... 100%(Reading database ... 18209 files and directories currently installed.)
Purging configuration files for pkgconf:armhf (1.8.1-1+b2) ...
Purging configuration files for pkg-config:armhf (1.8.1-1+b2) ...
