Temporary header file '/tmp/exYiKyxuvK/dump1.h' with the following content will be compiled to create GCC translation unit dump:

  // add defines
  #define __STDC_VERSION__ 201710L
#define _GXX_NULLPTR_T
#define CLUTTER_ENABLE_COMPOSITOR_API 1
#define _REGEX_NELTS(n)
#define _Atomic
#define PACKED
#ifdef __cplusplus
// C17 compat layer
#define _Alignof(type) alignof(type)
#endif
#define getaddrinfo_a(a,b,c,d)

  // add includes
  #include "/usr/include/telepathy-qt5/TelepathyQt/AbstractClient"
  #include "/usr/include/telepathy-qt5/TelepathyQt/AbstractClientApprover"
  #include "/usr/include/telepathy-qt5/TelepathyQt/AbstractClientHandler"
  #include "/usr/include/telepathy-qt5/TelepathyQt/AbstractClientObserver"
  #include "/usr/include/telepathy-qt5/TelepathyQt/AbstractDBusServiceInterface"
  #include "/usr/include/telepathy-qt5/TelepathyQt/AbstractInterface"
  #include "/usr/include/telepathy-qt5/TelepathyQt/AbstractProtocolInterface"
  #include "/usr/include/telepathy-qt5/TelepathyQt/Account"
  #include "/usr/include/telepathy-qt5/TelepathyQt/AccountCapabilityFilter"
  #include "/usr/include/telepathy-qt5/TelepathyQt/AccountFactory"
  #include "/usr/include/telepathy-qt5/TelepathyQt/AccountFilter"
  #include "/usr/include/telepathy-qt5/TelepathyQt/AccountInterface"
  #include "/usr/include/telepathy-qt5/TelepathyQt/AccountInterfaceAddressingInterface"
  #include "/usr/include/telepathy-qt5/TelepathyQt/AccountInterfaceAvatarInterface"
  #include "/usr/include/telepathy-qt5/TelepathyQt/AccountInterfaceStorageInterface"
  #include "/usr/include/telepathy-qt5/TelepathyQt/AccountManager"
  #include "/usr/include/telepathy-qt5/TelepathyQt/AccountManagerInterface"
  #include "/usr/include/telepathy-qt5/TelepathyQt/AccountPropertyFilter"
  #include "/usr/include/telepathy-qt5/TelepathyQt/AccountSet"
  #include "/usr/include/telepathy-qt5/TelepathyQt/AndFilter"
  #include "/usr/include/telepathy-qt5/TelepathyQt/AuthenticationTLSCertificateInterface"
  #include "/usr/include/telepathy-qt5/TelepathyQt/AvatarData"
  #include "/usr/include/telepathy-qt5/TelepathyQt/AvatarSpec"
  #include "/usr/include/telepathy-qt5/TelepathyQt/BaseCall"
  #include "/usr/include/telepathy-qt5/TelepathyQt/BaseChannel"
  #include "/usr/include/telepathy-qt5/TelepathyQt/BaseConnection"
  #include "/usr/include/telepathy-qt5/TelepathyQt/BaseConnectionManager"
  #include "/usr/include/telepathy-qt5/TelepathyQt/BaseDebug"
  #include "/usr/include/telepathy-qt5/TelepathyQt/BaseProtocol"
  #include "/usr/include/telepathy-qt5/TelepathyQt/BaseProtocolAddressingInterface"
  #include "/usr/include/telepathy-qt5/TelepathyQt/BaseProtocolAvatarsInterface"
  #include "/usr/include/telepathy-qt5/TelepathyQt/BaseProtocolPresenceInterface"
  #include "/usr/include/telepathy-qt5/TelepathyQt/CallChannel"
  #include "/usr/include/telepathy-qt5/TelepathyQt/CallContent"
  #include "/usr/include/telepathy-qt5/TelepathyQt/CallContentInterface"
  #include "/usr/include/telepathy-qt5/TelepathyQt/CallContentInterfaceAudioControlInterface"
  #include "/usr/include/telepathy-qt5/TelepathyQt/CallContentInterfaceDTMFInterface"
  #include "/usr/include/telepathy-qt5/TelepathyQt/CallContentInterfaceMediaInterface"
  #include "/usr/include/telepathy-qt5/TelepathyQt/CallContentInterfaceVideoControlInterface"
  #include "/usr/include/telepathy-qt5/TelepathyQt/CallContentMediaDescription"
  #include "/usr/include/telepathy-qt5/TelepathyQt/CallContentMediaDescriptionInterface"
  #include "/usr/include/telepathy-qt5/TelepathyQt/CallContentMediaDescriptionInterfaceRTCPExtendedReportsInterface"
  #include "/usr/include/telepathy-qt5/TelepathyQt/CallContentMediaDescriptionInterfaceRTCPFeedbackInterface"
  #include "/usr/include/telepathy-qt5/TelepathyQt/CallContentMediaDescriptionInterfaceRTPHeaderExtensionsInterface"
  #include "/usr/include/telepathy-qt5/TelepathyQt/CallStream"
  #include "/usr/include/telepathy-qt5/TelepathyQt/CallStreamEndpoint"
  #include "/usr/include/telepathy-qt5/TelepathyQt/CallStreamEndpointInterface"
  #include "/usr/include/telepathy-qt5/TelepathyQt/CallStreamInterface"
  #include "/usr/include/telepathy-qt5/TelepathyQt/CallStreamInterfaceMediaInterface"
  #include "/usr/include/telepathy-qt5/TelepathyQt/Callbacks"
  #include "/usr/include/telepathy-qt5/TelepathyQt/CapabilitiesBase"
  #include "/usr/include/telepathy-qt5/TelepathyQt/Captcha"
  #include "/usr/include/telepathy-qt5/TelepathyQt/CaptchaAuthentication"
  #include "/usr/include/telepathy-qt5/TelepathyQt/Channel"
  #include "/usr/include/telepathy-qt5/TelepathyQt/ChannelClassFeatures"
  #include "/usr/include/telepathy-qt5/TelepathyQt/ChannelClassSpec"
  #include "/usr/include/telepathy-qt5/TelepathyQt/ChannelClassSpecList"
  #include "/usr/include/telepathy-qt5/TelepathyQt/ChannelDispatchOperation"
  #include "/usr/include/telepathy-qt5/TelepathyQt/ChannelDispatchOperationInterface"
  #include "/usr/include/telepathy-qt5/TelepathyQt/ChannelDispatcher"
  #include "/usr/include/telepathy-qt5/TelepathyQt/ChannelDispatcherInterface"
  #include "/usr/include/telepathy-qt5/TelepathyQt/ChannelFactory"
  #include "/usr/include/telepathy-qt5/TelepathyQt/ChannelInterface"
  #include "/usr/include/telepathy-qt5/TelepathyQt/ChannelInterfaceAnonymityInterface"
  #include "/usr/include/telepathy-qt5/TelepathyQt/Client"
  #include "/usr/include/telepathy-qt5/TelepathyQt/ChannelInterfaceCallStateInterface"
  #include "/usr/include/telepathy-qt5/TelepathyQt/ChannelInterfaceCaptchaAuthenticationInterface"
  #include "/usr/include/telepathy-qt5/TelepathyQt/ChannelInterfaceChatStateInterface"
  #include "/usr/include/telepathy-qt5/TelepathyQt/ChannelInterfaceConferenceInterface"
  #include "/usr/include/telepathy-qt5/TelepathyQt/ChannelInterfaceDTMFInterface"
  #include "/usr/include/telepathy-qt5/TelepathyQt/ChannelInterfaceDestroyableInterface"
  #include "/usr/include/telepathy-qt5/TelepathyQt/ChannelInterfaceFileTransferMetadataInterface"
  #include "/usr/include/telepathy-qt5/TelepathyQt/ChannelInterfaceGroupInterface"
  #include "/usr/include/telepathy-qt5/TelepathyQt/ChannelInterfaceHoldInterface"
  #include "/usr/include/telepathy-qt5/TelepathyQt/ChannelInterfaceMediaSignallingInterface"
  #include "/usr/include/telepathy-qt5/TelepathyQt/ChannelInterfaceMessagesInterface"
  #include "/usr/include/telepathy-qt5/TelepathyQt/ChannelInterfacePasswordInterface"
  #include "/usr/include/telepathy-qt5/TelepathyQt/ChannelInterfaceRoomConfigInterface"
  #include "/usr/include/telepathy-qt5/TelepathyQt/ChannelInterfaceRoomInterface"
  #include "/usr/include/telepathy-qt5/TelepathyQt/ChannelInterfaceSASLAuthenticationInterface"
  #include "/usr/include/telepathy-qt5/TelepathyQt/ChannelInterfaceSMSInterface"
  #include "/usr/include/telepathy-qt5/TelepathyQt/ChannelInterfaceSecurableInterface"
  #include "/usr/include/telepathy-qt5/TelepathyQt/ChannelInterfaceServicePointInterface"
  #include "/usr/include/telepathy-qt5/TelepathyQt/ChannelInterfaceSubjectInterface"
  #include "/usr/include/telepathy-qt5/TelepathyQt/ChannelInterfaceTubeInterface"
  #include "/usr/include/telepathy-qt5/TelepathyQt/ChannelRequest"
  #include "/usr/include/telepathy-qt5/TelepathyQt/ChannelRequestHints"
  #include "/usr/include/telepathy-qt5/TelepathyQt/ChannelRequestInterface"
  #include "/usr/include/telepathy-qt5/TelepathyQt/ChannelTypeCallInterface"
  #include "/usr/include/telepathy-qt5/TelepathyQt/ChannelTypeContactListInterface"
  #include "/usr/include/telepathy-qt5/TelepathyQt/ChannelTypeContactSearchInterface"
  #include "/usr/include/telepathy-qt5/TelepathyQt/ChannelTypeDBusTubeInterface"
  #include "/usr/include/telepathy-qt5/TelepathyQt/ChannelTypeFileTransferInterface"
  #include "/usr/include/telepathy-qt5/TelepathyQt/ChannelTypeRoomListInterface"
  #include "/usr/include/telepathy-qt5/TelepathyQt/ChannelTypeServerAuthenticationInterface"
  #include "/usr/include/telepathy-qt5/TelepathyQt/ChannelTypeServerTLSConnectionInterface"
  #include "/usr/include/telepathy-qt5/TelepathyQt/ChannelTypeStreamTubeInterface"
  #include "/usr/include/telepathy-qt5/TelepathyQt/ChannelTypeStreamedMediaInterface"
  #include "/usr/include/telepathy-qt5/TelepathyQt/ChannelTypeTextInterface"
  #include "/usr/include/telepathy-qt5/TelepathyQt/ChannelTypeTubeInterface"
  #include "/usr/include/telepathy-qt5/TelepathyQt/ChannelTypeTubesInterface"
  #include "/usr/include/telepathy-qt5/TelepathyQt/ClientApproverInterface"
  #include "/usr/include/telepathy-qt5/TelepathyQt/ClientHandlerInterface"
  #include "/usr/include/telepathy-qt5/TelepathyQt/ClientInterface"
  #include "/usr/include/telepathy-qt5/TelepathyQt/ClientInterfaceRequestsInterface"
  #include "/usr/include/telepathy-qt5/TelepathyQt/ClientObserverInterface"
  #include "/usr/include/telepathy-qt5/TelepathyQt/ClientRegistrar"
  #include "/usr/include/telepathy-qt5/TelepathyQt/Connection"
  #include "/usr/include/telepathy-qt5/TelepathyQt/ConnectionCapabilities"
  #include "/usr/include/telepathy-qt5/TelepathyQt/ConnectionFactory"
  #include "/usr/include/telepathy-qt5/TelepathyQt/ConnectionInterface"
  #include "/usr/include/telepathy-qt5/TelepathyQt/ConnectionInterfaceAddressingInterface"
  #include "/usr/include/telepathy-qt5/TelepathyQt/ConnectionInterfaceAliasingInterface"
  #include "/usr/include/telepathy-qt5/TelepathyQt/ConnectionInterfaceAnonymityInterface"
  #include "/usr/include/telepathy-qt5/TelepathyQt/ConnectionInterfaceAvatarsInterface"
  #include "/usr/include/telepathy-qt5/TelepathyQt/ConnectionInterfaceBalanceInterface"
  #include "/usr/include/telepathy-qt5/TelepathyQt/ConnectionLowlevel"
  #include "/usr/include/telepathy-qt5/TelepathyQt/Contact"
  #include "/usr/include/telepathy-qt5/TelepathyQt/ConnectionInterfaceCellularInterface"
  #include "/usr/include/telepathy-qt5/TelepathyQt/ConnectionInterfaceContactsInterface"
  #include "/usr/include/telepathy-qt5/TelepathyQt/ConnectionInterfaceLocationInterface"
  #include "/usr/include/telepathy-qt5/TelepathyQt/ConnectionInterfaceMailNotificationInterface"
  #include "/usr/include/telepathy-qt5/TelepathyQt/ConnectionInterfacePowerSavingInterface"
  #include "/usr/include/telepathy-qt5/TelepathyQt/ConnectionInterfacePresenceInterface"
  #include "/usr/include/telepathy-qt5/TelepathyQt/ConnectionManager"
  #include "/usr/include/telepathy-qt5/TelepathyQt/ConnectionManagerLowlevel"
  #include "/usr/include/telepathy-qt5/TelepathyQt/Constants"
  #include "/usr/include/telepathy-qt5/TelepathyQt/ContactFactory"
  #include "/usr/include/telepathy-qt5/TelepathyQt/DBus"
  #include "/usr/include/telepathy-qt5/TelepathyQt/DBusDaemonInterface"
  #include "/usr/include/telepathy-qt5/TelepathyQt/DBusError"
  #include "/usr/include/telepathy-qt5/TelepathyQt/DBusTubeChannel"
  #include "/usr/include/telepathy-qt5/TelepathyQt/Debug"
  #include "/usr/include/telepathy-qt5/TelepathyQt/DebugReceiver"
  #include "/usr/include/telepathy-qt5/TelepathyQt/Features"
  #include "/usr/include/telepathy-qt5/TelepathyQt/FixedFeatureFactory"
  #include "/usr/include/telepathy-qt5/TelepathyQt/Functors"
  #include "/usr/include/telepathy-qt5/TelepathyQt/Global"
  #include "/usr/include/telepathy-qt5/TelepathyQt/IncomingDBusTubeChannel"
  #include "/usr/include/telepathy-qt5/TelepathyQt/IncomingFileTransferChannel"
  #include "/usr/include/telepathy-qt5/TelepathyQt/IncomingStreamTubeChannel"
  #include "/usr/include/telepathy-qt5/TelepathyQt/IntrospectableInterface"
  #include "/usr/include/telepathy-qt5/TelepathyQt/LocationInfo"
  #include "/usr/include/telepathy-qt5/TelepathyQt/MediaSessionHandlerInterface"
  #include "/usr/include/telepathy-qt5/TelepathyQt/MessageContentPartList"
  #include "/usr/include/telepathy-qt5/TelepathyQt/MethodInvocationContext"
  #include "/usr/include/telepathy-qt5/TelepathyQt/OutgoingDBusTubeChannel"
  #include "/usr/include/telepathy-qt5/TelepathyQt/OutgoingFileTransferChannel"
  #include "/usr/include/telepathy-qt5/TelepathyQt/OutgoingStreamTubeChannel"
  #include "/usr/include/telepathy-qt5/TelepathyQt/PeerInterface"
  #include "/usr/include/telepathy-qt5/TelepathyQt/PendingCaptchas"
  #include "/usr/include/telepathy-qt5/TelepathyQt/PendingChannel"
  #include "/usr/include/telepathy-qt5/TelepathyQt/PendingChannelRequest"
  #include "/usr/include/telepathy-qt5/TelepathyQt/PendingComposite"
  #include "/usr/include/telepathy-qt5/TelepathyQt/PendingContactAttributes"
  #include "/usr/include/telepathy-qt5/TelepathyQt/PendingContactInfo"
  #include "/usr/include/telepathy-qt5/TelepathyQt/PendingDebugMessageList"
  #include "/usr/include/telepathy-qt5/TelepathyQt/PendingFailure"
  #include "/usr/include/telepathy-qt5/TelepathyQt/PendingOperation"
  #include "/usr/include/telepathy-qt5/TelepathyQt/PendingStreamedMediaStreams"
  #include "/usr/include/telepathy-qt5/TelepathyQt/PendingStringList"
  #include "/usr/include/telepathy-qt5/TelepathyQt/PendingVariant"
  #include "/usr/include/telepathy-qt5/TelepathyQt/Presence"
  #include "/usr/include/telepathy-qt5/TelepathyQt/PresenceSpec"
  #include "/usr/include/telepathy-qt5/TelepathyQt/PresenceSpecList"
  #include "/usr/include/telepathy-qt5/TelepathyQt/PropertiesInterface"
  #include "/usr/include/telepathy-qt5/TelepathyQt/PropertiesInterfaceInterface"
  #include "/usr/include/telepathy-qt5/TelepathyQt/ProtocolInfo"
  #include "/usr/include/telepathy-qt5/TelepathyQt/ProtocolInfoList"
  #include "/usr/include/telepathy-qt5/TelepathyQt/ProtocolInterface"
  #include "/usr/include/telepathy-qt5/TelepathyQt/ProtocolInterfaceAddressingInterface"
  #include "/usr/include/telepathy-qt5/TelepathyQt/ProtocolParameter"
  #include "/usr/include/telepathy-qt5/TelepathyQt/RequestableChannelClassSpec"
  #include "/usr/include/telepathy-qt5/TelepathyQt/RequestableChannelClassSpecList"
  #include "/usr/include/telepathy-qt5/TelepathyQt/RoomListChannel"
  #include "/usr/include/telepathy-qt5/TelepathyQt/SimpleTextObserver"
  #include "/usr/include/telepathy-qt5/TelepathyQt/StatefulDBusProxy"
  #include "/usr/include/telepathy-qt5/TelepathyQt/StatelessDBusProxy"
  #include "/usr/include/telepathy-qt5/TelepathyQt/StreamTubeChannel"
  #include "/usr/include/telepathy-qt5/TelepathyQt/StreamTubeClient"
  #include "/usr/include/telepathy-qt5/TelepathyQt/StreamedMediaStream"
  #include "/usr/include/telepathy-qt5/TelepathyQt/TextChannel"
  #include "/usr/include/telepathy-qt5/TelepathyQt/ConnectionInterfaceCapabilitiesInterface"
  #include "/usr/include/telepathy-qt5/TelepathyQt/ConnectionInterfaceClientTypesInterface"
  #include "/usr/include/telepathy-qt5/TelepathyQt/ConnectionInterfaceContactBlockingInterface"
  #include "/usr/include/telepathy-qt5/TelepathyQt/ConnectionInterfaceContactCapabilitiesInterface"
  #include "/usr/include/telepathy-qt5/TelepathyQt/ConnectionInterfaceContactGroupsInterface"
  #include "/usr/include/telepathy-qt5/TelepathyQt/ConnectionInterfaceContactInfoInterface"
  #include "/usr/include/telepathy-qt5/TelepathyQt/ConnectionInterfaceContactListInterface"
  #include "/usr/include/telepathy-qt5/TelepathyQt/ConnectionInterfaceRequestsInterface"
  #include "/usr/include/telepathy-qt5/TelepathyQt/ConnectionInterfaceServicePointInterface"
  #include "/usr/include/telepathy-qt5/TelepathyQt/ConnectionInterfaceSimplePresenceInterface"
  #include "/usr/include/telepathy-qt5/TelepathyQt/ConnectionManagerInterface"
  #include "/usr/include/telepathy-qt5/TelepathyQt/ContactCapabilities"
  #include "/usr/include/telepathy-qt5/TelepathyQt/ContactManager"
  #include "/usr/include/telepathy-qt5/TelepathyQt/ContactMessenger"
  #include "/usr/include/telepathy-qt5/TelepathyQt/ContactSearchChannel"
  #include "/usr/include/telepathy-qt5/TelepathyQt/DBusObject"
  #include "/usr/include/telepathy-qt5/TelepathyQt/DBusProxy"
  #include "/usr/include/telepathy-qt5/TelepathyQt/DBusProxyFactory"
  #include "/usr/include/telepathy-qt5/TelepathyQt/DBusService"
  #include "/usr/include/telepathy-qt5/TelepathyQt/Feature"
  #include "/usr/include/telepathy-qt5/TelepathyQt/FileTransferChannel"
  #include "/usr/include/telepathy-qt5/TelepathyQt/FileTransferChannelCreationProperties"
  #include "/usr/include/telepathy-qt5/TelepathyQt/Filter"
  #include "/usr/include/telepathy-qt5/TelepathyQt/GenericCapabilityFilter"
  #include "/usr/include/telepathy-qt5/TelepathyQt/GenericPropertyFilter"
  #include "/usr/include/telepathy-qt5/TelepathyQt/HandledChannelNotifier"
  #include "/usr/include/telepathy-qt5/TelepathyQt/IODevice"
  #include "/usr/include/telepathy-qt5/TelepathyQt/MediaSessionHandler"
  #include "/usr/include/telepathy-qt5/TelepathyQt/MediaStreamHandler"
  #include "/usr/include/telepathy-qt5/TelepathyQt/MediaStreamHandlerInterface"
  #include "/usr/include/telepathy-qt5/TelepathyQt/Message"
  #include "/usr/include/telepathy-qt5/TelepathyQt/MessageContentPart"
  #include "/usr/include/telepathy-qt5/TelepathyQt/NotFilter"
  #include "/usr/include/telepathy-qt5/TelepathyQt/Object"
  #include "/usr/include/telepathy-qt5/TelepathyQt/OptionalInterfaceFactory"
  #include "/usr/include/telepathy-qt5/TelepathyQt/OrFilter"
  #include "/usr/include/telepathy-qt5/TelepathyQt/PendingAccount"
  #include "/usr/include/telepathy-qt5/TelepathyQt/PendingCallContent"
  #include "/usr/include/telepathy-qt5/TelepathyQt/PendingConnection"
  #include "/usr/include/telepathy-qt5/TelepathyQt/Farstream/Global"
  #include "/usr/include/telepathy-qt5/TelepathyQt/Farstream/PendingChannel"
  #include "/usr/include/telepathy-qt5/TelepathyQt/Farstream/Channel"
  #include "/usr/include/telepathy-qt5/TelepathyQt/PendingContacts"
  #include "/usr/include/telepathy-qt5/TelepathyQt/PendingDBusTubeConnection"
  #include "/usr/include/telepathy-qt5/TelepathyQt/PendingHandles"
  #include "/usr/include/telepathy-qt5/TelepathyQt/PendingReady"
  #include "/usr/include/telepathy-qt5/TelepathyQt/PendingSendMessage"
  #include "/usr/include/telepathy-qt5/TelepathyQt/PendingStreamTubeConnection"
  #include "/usr/include/telepathy-qt5/TelepathyQt/PendingString"
  #include "/usr/include/telepathy-qt5/TelepathyQt/PendingSuccess"
  #include "/usr/include/telepathy-qt5/TelepathyQt/PendingVariantMap"
  #include "/usr/include/telepathy-qt5/TelepathyQt/PendingVoid"
  #include "/usr/include/telepathy-qt5/TelepathyQt/Profile"
  #include "/usr/include/telepathy-qt5/TelepathyQt/ProfileManager"
  #include "/usr/include/telepathy-qt5/TelepathyQt/Properties"
  #include "/usr/include/telepathy-qt5/TelepathyQt/ProtocolInterfaceAvatarsInterface"
  #include "/usr/include/telepathy-qt5/TelepathyQt/ProtocolInterfacePresenceInterface"
  #include "/usr/include/telepathy-qt5/TelepathyQt/ProtocolParameterList"
  #include "/usr/include/telepathy-qt5/TelepathyQt/ReadinessHelper"
  #include "/usr/include/telepathy-qt5/TelepathyQt/ReadyObject"
  #include "/usr/include/telepathy-qt5/TelepathyQt/ReceivedMessage"
  #include "/usr/include/telepathy-qt5/TelepathyQt/RefCounted"
  #include "/usr/include/telepathy-qt5/TelepathyQt/ReferencedHandles"
  #include "/usr/include/telepathy-qt5/TelepathyQt/ReferencedHandlesIterator"
  #include "/usr/include/telepathy-qt5/TelepathyQt/ServerAuthenticationChannel"
  #include "/usr/include/telepathy-qt5/TelepathyQt/ServiceTypes"
  #include "/usr/include/telepathy-qt5/TelepathyQt/SharedPtr"
  #include "/usr/include/telepathy-qt5/TelepathyQt/SimpleCallObserver"
  #include "/usr/include/telepathy-qt5/TelepathyQt/SimpleObserver"
  #include "/usr/include/telepathy-qt5/TelepathyQt/StreamTubeServer"
  #include "/usr/include/telepathy-qt5/TelepathyQt/StreamedMediaChannel"
  #include "/usr/include/telepathy-qt5/TelepathyQt/TubeChannel"
  #include "/usr/include/telepathy-qt5/TelepathyQt/Types"
  #include "/usr/include/telepathy-qt5/TelepathyQt/Utils"
  #include "/usr/include/telepathy-qt5/TelepathyQt/AbstractAdaptor"

  // add namespaces
  namespace QAlgorithmsPrivate{typedef int tmp_add_type_1;}
  QAlgorithmsPrivate::tmp_add_type_1 tmp_add_func_1(){return 0;};
  namespace QDBus{typedef int tmp_add_type_2;}
  QDBus::tmp_add_type_2 tmp_add_func_2(){return 0;};
  namespace QDBusPendingReplyTypes{typedef int tmp_add_type_3;}
  QDBusPendingReplyTypes::tmp_add_type_3 tmp_add_func_3(){return 0;};
  namespace QJsonPrivate{typedef int tmp_add_type_4;}
  QJsonPrivate::tmp_add_type_4 tmp_add_func_4(){return 0;};
  namespace Qt{typedef int tmp_add_type_5;}
  Qt::tmp_add_type_5 tmp_add_func_5(){return 0;};
  namespace QTextStreamFunctions{typedef int tmp_add_type_6;}
  QTextStreamFunctions::tmp_add_type_6 tmp_add_func_6(){return 0;};
  namespace QtGlobalStatic{typedef int tmp_add_type_7;}
  QtGlobalStatic::tmp_add_type_7 tmp_add_func_7(){return 0;};
  namespace QtMetaTypePrivate{typedef int tmp_add_type_8;}
  QtMetaTypePrivate::tmp_add_type_8 tmp_add_func_8(){return 0;};
  namespace QtMetaTypePrivate{namespace QtPrivate{typedef int tmp_add_type_9;}}
  QtMetaTypePrivate::QtPrivate::tmp_add_type_9 tmp_add_func_9(){return 0;};
  namespace QtMetaTypePrivate{namespace QtPrivate{namespace ContainerCapabilitiesMetaProgrammingHelper{typedef int tmp_add_type_10;}}}
  QtMetaTypePrivate::QtPrivate::ContainerCapabilitiesMetaProgrammingHelper::tmp_add_type_10 tmp_add_func_10(){return 0;};
  namespace QtPrivate{typedef int tmp_add_type_11;}
  QtPrivate::tmp_add_type_11 tmp_add_func_11(){return 0;};
  namespace QtPrivate{namespace DeprecatedRefClassBehavior{typedef int tmp_add_type_12;}}
  QtPrivate::DeprecatedRefClassBehavior::tmp_add_type_12 tmp_add_func_12(){return 0;};
  namespace QtPrivate{namespace SwapExceptionTester{typedef int tmp_add_type_13;}}
  QtPrivate::SwapExceptionTester::tmp_add_type_13 tmp_add_func_13(){return 0;};
  namespace QtSharedPointer{typedef int tmp_add_type_14;}
  QtSharedPointer::tmp_add_type_14 tmp_add_func_14(){return 0;};
  namespace QtStringBuilder{typedef int tmp_add_type_15;}
  QtStringBuilder::tmp_add_type_15 tmp_add_func_15(){return 0;};
  namespace Tp{typedef int tmp_add_type_16;}
  Tp::tmp_add_type_16 tmp_add_func_16(){return 0;};
  namespace Tp{namespace Client{typedef int tmp_add_type_17;}}
  Tp::Client::tmp_add_type_17 tmp_add_func_17(){return 0;};
  namespace Tp{namespace Client{namespace DBus{typedef int tmp_add_type_18;}}}
  Tp::Client::DBus::tmp_add_type_18 tmp_add_func_18(){return 0;};
  namespace Tp{namespace Farstream{typedef int tmp_add_type_19;}}
  Tp::Farstream::tmp_add_type_19 tmp_add_func_19(){return 0;};
  namespace Tp{namespace MethodInvocationContextTypes{typedef int tmp_add_type_20;}}
  Tp::MethodInvocationContextTypes::tmp_add_type_20 tmp_add_func_20(){return 0;};

  // add classes
  QAbstractAnimation* tmp_add_class_0;
  QAbstractConcatenable* tmp_add_class_1;
  QAbstractEventDispatcher* tmp_add_class_2;
  QAbstractItemModel* tmp_add_class_3;
  QAbstractListModel* tmp_add_class_4;
  QAbstractNativeEventFilter* tmp_add_class_5;
  QAbstractProxyModel* tmp_add_class_6;
  QAbstractSocket* tmp_add_class_7;
  QAbstractState* tmp_add_class_8;
  QAbstractTableModel* tmp_add_class_9;
  QAbstractTransition* tmp_add_class_10;
  QAnimationDriver* tmp_add_class_11;
  QAnimationGroup* tmp_add_class_12;
  QArrayData* tmp_add_class_13;
  QAssociativeIterable* tmp_add_class_14;
  QAtomicInt* tmp_add_class_15;
  QBasicMutex* tmp_add_class_16;
  QBasicTimer* tmp_add_class_17;
  QBitArray* tmp_add_class_18;
  QBitRef* tmp_add_class_19;
  QBuffer* tmp_add_class_20;
  QByteArray* tmp_add_class_21;
  QByteArrayDataPtr* tmp_add_class_22;
  QByteArrayMatcher* tmp_add_class_23;
  QByteRef* tmp_add_class_24;
  QCalendar* tmp_add_class_25;
  QCborArray* tmp_add_class_26;
  QCborError* tmp_add_class_27;
  QCborMap* tmp_add_class_28;
  QCborParserError* tmp_add_class_29;
  QCborStreamReader* tmp_add_class_30;
  QCborStreamWriter* tmp_add_class_31;
  QCborValue* tmp_add_class_32;
  QCborValueRef* tmp_add_class_33;
  QChar* tmp_add_class_34;
  QCharRef* tmp_add_class_35;
  QChildEvent* tmp_add_class_36;
  QCollator* tmp_add_class_37;
  QCollatorSortKey* tmp_add_class_38;
  QCommandLineOption* tmp_add_class_39;
  QCommandLineParser* tmp_add_class_40;
  QConcatenateTablesProxyModel* tmp_add_class_41;
  QContiguousCacheData* tmp_add_class_42;
  QCoreApplication* tmp_add_class_43;
  QCryptographicHash* tmp_add_class_44;
  QDBusAbstractAdaptor* tmp_add_class_45;
  QDBusAbstractInterface* tmp_add_class_46;
  QDBusAbstractInterfaceBase* tmp_add_class_47;
  QDBusArgument* tmp_add_class_48;
  QDBusConnection* tmp_add_class_49;
  QDBusConnectionInterface* tmp_add_class_50;
  QDBusContext* tmp_add_class_51;
  QDBusError* tmp_add_class_52;
  QDBusInterface* tmp_add_class_53;
  QDBusMessage* tmp_add_class_54;
  QDBusMetaType* tmp_add_class_55;
  QDBusObjectPath* tmp_add_class_56;
  QDBusPendingCall* tmp_add_class_57;
  QDBusPendingCallWatcher* tmp_add_class_58;
  QDBusPendingReplyData* tmp_add_class_59;
  QDBusServer* tmp_add_class_60;
  QDBusServiceWatcher* tmp_add_class_61;
  QDBusSignature* tmp_add_class_62;
  QDBusUnixFileDescriptor* tmp_add_class_63;
  QDBusVariant* tmp_add_class_64;
  QDBusVirtualObject* tmp_add_class_65;
  QDataStream* tmp_add_class_66;
  QDate* tmp_add_class_67;
  QDateTime* tmp_add_class_68;
  QDeadlineTimer* tmp_add_class_69;
  QDebug* tmp_add_class_70;
  QDebugStateSaver* tmp_add_class_71;
  QDeferredDeleteEvent* tmp_add_class_72;
  QDir* tmp_add_class_73;
  QDirIterator* tmp_add_class_74;
  QDynamicPropertyChangeEvent* tmp_add_class_75;
  QEasingCurve* tmp_add_class_76;
  QElapsedTimer* tmp_add_class_77;
  QEvent* tmp_add_class_78;
  QEventLoop* tmp_add_class_79;
  QEventLoopLocker* tmp_add_class_80;
  QEventTransition* tmp_add_class_81;
  QException* tmp_add_class_82;
  QFactoryInterface* tmp_add_class_83;
  QFile* tmp_add_class_84;
  QFileDevice* tmp_add_class_85;
  QFileInfo* tmp_add_class_86;
  QFileSelector* tmp_add_class_87;
  QFileSystemWatcher* tmp_add_class_88;
  QFinalState* tmp_add_class_89;
  QFlag* tmp_add_class_90;
  QFutureInterfaceBase* tmp_add_class_91;
  QFutureWatcherBase* tmp_add_class_92;
  QGenericArgument* tmp_add_class_93;
  QGenericReturnArgument* tmp_add_class_94;
  QHashData* tmp_add_class_95;
  QHashDummyValue* tmp_add_class_96;
  QHistoryState* tmp_add_class_97;
  QHostAddress* tmp_add_class_98;
  QIODevice* tmp_add_class_99;
  QIPv6Address* tmp_add_class_100;
  QIdentityProxyModel* tmp_add_class_101;
  QIncompatibleFlag* tmp_add_class_102;
  QInternal* tmp_add_class_103;
  QItemSelection* tmp_add_class_104;
  QItemSelectionModel* tmp_add_class_105;
  QItemSelectionRange* tmp_add_class_106;
  QJsonArray* tmp_add_class_107;
  QJsonDocument* tmp_add_class_108;
  QJsonObject* tmp_add_class_109;
  QJsonParseError* tmp_add_class_110;
  QJsonValue* tmp_add_class_111;
  QJsonValuePtr* tmp_add_class_112;
  QJsonValueRef* tmp_add_class_113;
  QJsonValueRefPtr* tmp_add_class_114;
  QLatin1Char* tmp_add_class_115;
  QLatin1String* tmp_add_class_116;
  QLibrary* tmp_add_class_117;
  QLibraryInfo* tmp_add_class_118;
  QLine* tmp_add_class_119;
  QLineF* tmp_add_class_120;
  QLinkedListData* tmp_add_class_121;
  QListData* tmp_add_class_122;
  QLocale* tmp_add_class_123;
  QLockFile* tmp_add_class_124;
  QLoggingCategory* tmp_add_class_125;
  QMapDataBase* tmp_add_class_126;
  QMapNodeBase* tmp_add_class_127;
  QMargins* tmp_add_class_128;
  QMarginsF* tmp_add_class_129;
  QMessageAuthenticationCode* tmp_add_class_130;
  QMessageLogContext* tmp_add_class_131;
  QMessageLogger* tmp_add_class_132;
  QMetaClassInfo* tmp_add_class_133;
  QMetaEnum* tmp_add_class_134;
  QMetaMethod* tmp_add_class_135;
  QMetaObject* tmp_add_class_136;
  QMetaProperty* tmp_add_class_137;
  QMetaType* tmp_add_class_138;
  QMimeData* tmp_add_class_139;
  QMimeDatabase* tmp_add_class_140;
  QMimeType* tmp_add_class_141;
  QModelIndex* tmp_add_class_142;
  QMutex* tmp_add_class_143;
  QMutexLocker* tmp_add_class_144;
  QNoDebug* tmp_add_class_145;
  QObject* tmp_add_class_146;
  QObjectCleanupHandler* tmp_add_class_147;
  QObjectData* tmp_add_class_148;
  QObjectUserData* tmp_add_class_149;
  QOperatingSystemVersion* tmp_add_class_150;
  QParallelAnimationGroup* tmp_add_class_151;
  QPauseAnimation* tmp_add_class_152;
  QPersistentModelIndex* tmp_add_class_153;
  QPluginLoader* tmp_add_class_154;
  QPoint* tmp_add_class_155;
  QPointF* tmp_add_class_156;
  QProcess* tmp_add_class_157;
  QProcessEnvironment* tmp_add_class_158;
  QPropertyAnimation* tmp_add_class_159;
  QRandomGenerator* tmp_add_class_160;
  QRandomGenerator64* tmp_add_class_161;
  QReadLocker* tmp_add_class_162;
  QReadWriteLock* tmp_add_class_163;
  QRect* tmp_add_class_164;
  QRectF* tmp_add_class_165;
  QRecursiveMutex* tmp_add_class_166;
  QRegExp* tmp_add_class_167;
  QRegularExpression* tmp_add_class_168;
  QRegularExpressionMatch* tmp_add_class_169;
  QRegularExpressionMatchIterator* tmp_add_class_170;
  QResource* tmp_add_class_171;
  QRunnable* tmp_add_class_172;
  QSaveFile* tmp_add_class_173;
  QScopedPointerPodDeleter* tmp_add_class_174;
  QSemaphore* tmp_add_class_175;
  QSemaphoreReleaser* tmp_add_class_176;
  QSequentialAnimationGroup* tmp_add_class_177;
  QSequentialIterable* tmp_add_class_178;
  QSettings* tmp_add_class_179;
  QSharedData* tmp_add_class_180;
  QSharedMemory* tmp_add_class_181;
  QSignalBlocker* tmp_add_class_182;
  QSignalMapper* tmp_add_class_183;
  QSignalTransition* tmp_add_class_184;
  QSize* tmp_add_class_185;
  QSizeF* tmp_add_class_186;
  QSocketDescriptor* tmp_add_class_187;
  QSocketNotifier* tmp_add_class_188;
  QSortFilterProxyModel* tmp_add_class_189;
  QStandardPaths* tmp_add_class_190;
  QState* tmp_add_class_191;
  QStateMachine* tmp_add_class_192;
  QStaticByteArrayMatcherBase* tmp_add_class_193;
  QStaticPlugin* tmp_add_class_194;
  QStorageInfo* tmp_add_class_195;
  QString* tmp_add_class_196;
  QStringDataPtr* tmp_add_class_197;
  QStringList* tmp_add_class_198;
  QStringListModel* tmp_add_class_199;
  QStringMatcher* tmp_add_class_200;
  QStringRef* tmp_add_class_201;
  QStringView* tmp_add_class_202;
  QSysInfo* tmp_add_class_203;
  QSystemSemaphore* tmp_add_class_204;
  QTemporaryDir* tmp_add_class_205;
  QTemporaryFile* tmp_add_class_206;
  QTextBoundaryFinder* tmp_add_class_207;
  QTextCodec* tmp_add_class_208;
  QTextDecoder* tmp_add_class_209;
  QTextEncoder* tmp_add_class_210;
  QTextStream* tmp_add_class_211;
  QTextStreamManipulator* tmp_add_class_212;
  QThread* tmp_add_class_213;
  QThreadPool* tmp_add_class_214;
  QThreadStorageData* tmp_add_class_215;
  QTime* tmp_add_class_216;
  QTimeLine* tmp_add_class_217;
  QTimeZone* tmp_add_class_218;
  QTimer* tmp_add_class_219;
  QTimerEvent* tmp_add_class_220;
  QTranslator* tmp_add_class_221;
  QTransposeProxyModel* tmp_add_class_222;
  QUnhandledException* tmp_add_class_223;
  QUrl* tmp_add_class_224;
  QUrlQuery* tmp_add_class_225;
  QUuid* tmp_add_class_226;
  QVariant* tmp_add_class_227;
  QVariantAnimation* tmp_add_class_228;
  QVariantComparisonHelper* tmp_add_class_229;
  QVersionNumber* tmp_add_class_230;
  QWaitCondition* tmp_add_class_231;
  QWriteLocker* tmp_add_class_232;
  QXmlStreamAttribute* tmp_add_class_233;
  QXmlStreamAttributes* tmp_add_class_234;
  QXmlStreamEntityDeclaration* tmp_add_class_235;
  QXmlStreamEntityResolver* tmp_add_class_236;
  QXmlStreamNamespaceDeclaration* tmp_add_class_237;
  QXmlStreamNotationDeclaration* tmp_add_class_238;
  QXmlStreamReader* tmp_add_class_239;
  QXmlStreamStringRef* tmp_add_class_240;
  QXmlStreamWriter* tmp_add_class_241;
  _G_fpos64_t* tmp_add_class_242;
  _G_fpos_t* tmp_add_class_243;
  _IO_cookie_io_functions_t* tmp_add_class_244;
  qfloat16* tmp_add_class_245;

The GCC parameters:
  gcc -fdump-lang-raw -fkeep-inline-functions -c -x c++ -fpermissive -w "/tmp/exYiKyxuvK/dump1.h"  -I/usr/include/telepathy-qt5 -I/usr/include/arm-linux-gnueabihf/qt5 -I/usr/include/arm-linux-gnueabihf/qt5/QtNetwork -I/usr/include/arm-linux-gnueabihf/qt5/QtDBus -I/usr/include/arm-linux-gnueabihf/qt5/QtCore

