Using GCC 13 (arm-linux-gnueabihf, target: arm)
WARNING: May not work properly with GCC 4.8.[0-2], 6.* and higher due to bug #78040 in GCC. Please try other GCC versions with the help of --gcc-path=PATH option or create ABI dumps by ABI Dumper tool instead to avoid using GCC. Test selected GCC version first by -test option.
Checking header(s) time_t ...
Temporary header file '/tmp/Vb4LNes2L3/dump1.h' with the following content will be compiled to create GCC translation unit dump:

  // add defines
  #define __STDC_VERSION__ 201710L
#define _TIME_BITS 64
#define _FILE_OFFSET_BITS 64
#define _GXX_NULLPTR_T
#define CLUTTER_ENABLE_COMPOSITOR_API 1
#define _REGEX_NELTS(n)
#define _Atomic
#define PACKED
#ifdef __cplusplus
// C17 compat layer
#define _Alignof(type) alignof(type)
#endif
#define getaddrinfo_a(a,b,c,d)

  // add includes
  #include "/usr/include/Field3D/ClassFactory.h"
  #include "/usr/include/Field3D/CoordSys.h"
  #include "/usr/include/Field3D/Curve.h"
  #include "/usr/include/Field3D/DenseField.h"
  #include "/usr/include/Field3D/Documentation.h"
  #include "/usr/include/Field3D/EmptyField.h"
  #include "/usr/include/Field3D/Exception.h"
  #include "/usr/include/Field3D/Field.h"
  #include "/usr/include/Field3D/Field3DFile.h"
  #include "/usr/include/Field3D/Field3DFileHDF5.h"
  #include "/usr/include/Field3D/FieldCache.h"
  #include "/usr/include/Field3D/FieldGroup.h"
  #include "/usr/include/Field3D/FieldIO.h"
  #include "/usr/include/Field3D/FieldInterp.h"
  #include "/usr/include/Field3D/FieldMapping.h"
  #include "/usr/include/Field3D/FieldMappingIO.h"
  #include "/usr/include/Field3D/FieldMetadata.h"
  #include "/usr/include/Field3D/FieldSampler.h"
  #include "/usr/include/Field3D/FieldWrapper.h"
  #include "/usr/include/Field3D/FileSequence.h"
  #include "/usr/include/Field3D/Hdf5Util.h"
  #include "/usr/include/Field3D/InitIO.h"
  #include "/usr/include/Field3D/Log.h"
  #include "/usr/include/Field3D/MACField.h"
  #include "/usr/include/Field3D/MACFieldUtil.h"
  #include "/usr/include/Field3D/MIPBase.h"
  #include "/usr/include/Field3D/MIPField.h"
  #include "/usr/include/Field3D/MIPInterp.h"
  #include "/usr/include/Field3D/MIPUtil.h"
  #include "/usr/include/Field3D/MinMaxUtil.h"
  #include "/usr/include/Field3D/OgawaFwd.h"
  #include "/usr/include/Field3D/PatternMatch.h"
  #include "/usr/include/Field3D/PluginLoader.h"
  #include "/usr/include/Field3D/ProceduralField.h"
  #include "/usr/include/Field3D/RefCount.h"
  #include "/usr/include/Field3D/Resample.h"
  #include "/usr/include/Field3D/SparseDataReader.h"
  #include "/usr/include/Field3D/SparseField.h"
  #include "/usr/include/Field3D/SparseFile.h"
  #include "/usr/include/Field3D/SpiMathLib.h"
  #include "/usr/include/Field3D/StdMathLib.h"
  #include "/usr/include/Field3D/Traits.h"
  #include "/usr/include/Field3D/Types.h"
  #include "/usr/include/Field3D/ns.h"

  // add namespaces
  namespace Alembic{typedef int tmp_add_type_1;}
  Alembic::tmp_add_type_1 tmp_add_func_1(){return 0;};
  namespace Alembic{namespace Ogawa{typedef int tmp_add_type_2;}}
  Alembic::Ogawa::tmp_add_type_2 tmp_add_func_2(){return 0;};
  namespace Alembic{namespace Ogawa{namespace v7{typedef int tmp_add_type_3;}}}
  Alembic::Ogawa::v7::tmp_add_type_3 tmp_add_func_3(){return 0;};
  namespace boost{typedef int tmp_add_type_4;}
  boost::tmp_add_type_4 tmp_add_func_4(){return 0;};
  namespace boost{namespace chrono{typedef int tmp_add_type_5;}}
  boost::chrono::tmp_add_type_5 tmp_add_func_5(){return 0;};
  namespace boost{namespace chrono{namespace detail{typedef int tmp_add_type_6;}}}
  boost::chrono::detail::tmp_add_type_6 tmp_add_func_6(){return 0;};
  namespace boost{namespace concepts{typedef int tmp_add_type_7;}}
  boost::concepts::tmp_add_type_7 tmp_add_func_7(){return 0;};
  namespace boost{namespace concepts{namespace detail{typedef int tmp_add_type_8;}}}
  boost::concepts::detail::tmp_add_type_8 tmp_add_func_8(){return 0;};
  namespace boost{namespace container{typedef int tmp_add_type_9;}}
  boost::container::tmp_add_type_9 tmp_add_func_9(){return 0;};
  namespace boost{namespace container{namespace dtl{typedef int tmp_add_type_10;}}}
  boost::container::dtl::tmp_add_type_10 tmp_add_func_10(){return 0;};
  namespace boost{namespace container{namespace pmr{typedef int tmp_add_type_11;}}}
  boost::container::pmr::tmp_add_type_11 tmp_add_func_11(){return 0;};
  namespace boost{namespace conversion{typedef int tmp_add_type_12;}}
  boost::conversion::tmp_add_type_12 tmp_add_func_12(){return 0;};
  namespace boost{namespace conversion{namespace detail{typedef int tmp_add_type_13;}}}
  boost::conversion::detail::tmp_add_type_13 tmp_add_func_13(){return 0;};
  namespace boost{namespace core{typedef int tmp_add_type_14;}}
  boost::core::tmp_add_type_14 tmp_add_func_14(){return 0;};
  namespace boost{namespace core{namespace detail{typedef int tmp_add_type_15;}}}
  boost::core::detail::tmp_add_type_15 tmp_add_func_15(){return 0;};
  namespace boost{namespace csbl{typedef int tmp_add_type_16;}}
  boost::csbl::tmp_add_type_16 tmp_add_func_16(){return 0;};
  namespace boost{namespace CV{typedef int tmp_add_type_17;}}
  boost::CV::tmp_add_type_17 tmp_add_func_17(){return 0;};
  namespace boost{namespace describe{typedef int tmp_add_type_18;}}
  boost::describe::tmp_add_type_18 tmp_add_func_18(){return 0;};
  namespace boost{namespace describe{namespace detail{typedef int tmp_add_type_19;}}}
  boost::describe::detail::tmp_add_type_19 tmp_add_func_19(){return 0;};
  namespace boost{namespace detail{typedef int tmp_add_type_20;}}
  boost::detail::tmp_add_type_20 tmp_add_func_20(){return 0;};
  namespace boost{namespace foreach{typedef int tmp_add_type_21;}}
  boost::foreach::tmp_add_type_21 tmp_add_func_21(){return 0;};
  namespace boost{namespace fusion{typedef int tmp_add_type_22;}}
  boost::fusion::tmp_add_type_22 tmp_add_func_22(){return 0;};
  namespace boost{namespace fusion{namespace detail{typedef int tmp_add_type_23;}}}
  boost::fusion::detail::tmp_add_type_23 tmp_add_func_23(){return 0;};
  namespace boost{namespace fusion{namespace detail{namespace barrier{typedef int tmp_add_type_24;}}}}
  boost::fusion::detail::barrier::tmp_add_type_24 tmp_add_func_24(){return 0;};
  namespace boost{namespace fusion{namespace extension{typedef int tmp_add_type_25;}}}
  boost::fusion::extension::tmp_add_type_25 tmp_add_func_25(){return 0;};
  namespace boost{namespace fusion{namespace traits{typedef int tmp_add_type_26;}}}
  boost::fusion::traits::tmp_add_type_26 tmp_add_func_26(){return 0;};
  namespace boost{namespace gregorian{typedef int tmp_add_type_27;}}
  boost::gregorian::tmp_add_type_27 tmp_add_func_27(){return 0;};
  namespace boost{namespace integer{typedef int tmp_add_type_28;}}
  boost::integer::tmp_add_type_28 tmp_add_func_28(){return 0;};
  namespace boost{namespace intrusive{typedef int tmp_add_type_29;}}
  boost::intrusive::tmp_add_type_29 tmp_add_func_29(){return 0;};
  namespace boost{namespace intrusive{namespace detail{typedef int tmp_add_type_30;}}}
  boost::intrusive::detail::tmp_add_type_30 tmp_add_func_30(){return 0;};
  namespace boost{namespace io{typedef int tmp_add_type_31;}}
  boost::io::tmp_add_type_31 tmp_add_func_31(){return 0;};
  namespace boost{namespace iterators{typedef int tmp_add_type_32;}}
  boost::iterators::tmp_add_type_32 tmp_add_func_32(){return 0;};
  namespace boost{namespace iterators{namespace detail{typedef int tmp_add_type_33;}}}
  boost::iterators::detail::tmp_add_type_33 tmp_add_func_33(){return 0;};
  namespace boost{namespace movelib{typedef int tmp_add_type_34;}}
  boost::movelib::tmp_add_type_34 tmp_add_func_34(){return 0;};
  namespace boost{namespace mp11{typedef int tmp_add_type_35;}}
  boost::mp11::tmp_add_type_35 tmp_add_func_35(){return 0;};
  namespace boost{namespace mp11{namespace detail{typedef int tmp_add_type_36;}}}
  boost::mp11::detail::tmp_add_type_36 tmp_add_func_36(){return 0;};
  namespace boost{namespace mpl{typedef int tmp_add_type_37;}}
  boost::mpl::tmp_add_type_37 tmp_add_func_37(){return 0;};
  namespace boost{namespace mpl{namespace aux{typedef int tmp_add_type_38;}}}
  boost::mpl::aux::tmp_add_type_38 tmp_add_func_38(){return 0;};
  namespace boost{namespace mpl{namespace placeholders{typedef int tmp_add_type_39;}}}
  boost::mpl::placeholders::tmp_add_type_39 tmp_add_func_39(){return 0;};
  namespace boost{namespace numeric{typedef int tmp_add_type_40;}}
  boost::numeric::tmp_add_type_40 tmp_add_func_40(){return 0;};
  namespace boost{namespace numeric{namespace boundsdetail{typedef int tmp_add_type_41;}}}
  boost::numeric::boundsdetail::tmp_add_type_41 tmp_add_func_41(){return 0;};
  namespace boost{namespace numeric{namespace convdetail{typedef int tmp_add_type_42;}}}
  boost::numeric::convdetail::tmp_add_type_42 tmp_add_func_42(){return 0;};
  namespace boost{namespace placeholders{typedef int tmp_add_type_43;}}
  boost::placeholders::tmp_add_type_43 tmp_add_func_43(){return 0;};
  namespace boost{namespace posix{typedef int tmp_add_type_44;}}
  boost::posix::tmp_add_type_44 tmp_add_func_44(){return 0;};
  namespace boost{namespace pthread{typedef int tmp_add_type_45;}}
  boost::pthread::tmp_add_type_45 tmp_add_func_45(){return 0;};
  namespace boost{namespace range{typedef int tmp_add_type_46;}}
  boost::range::tmp_add_type_46 tmp_add_func_46(){return 0;};
  namespace boost{namespace sync{typedef int tmp_add_type_47;}}
  boost::sync::tmp_add_type_47 tmp_add_func_47(){return 0;};
  namespace boost{namespace sync{namespace detail{typedef int tmp_add_type_48;}}}
  boost::sync::detail::tmp_add_type_48 tmp_add_func_48(){return 0;};
  namespace boost{namespace system{typedef int tmp_add_type_49;}}
  boost::system::tmp_add_type_49 tmp_add_func_49(){return 0;};
  namespace boost{namespace system{namespace detail{typedef int tmp_add_type_50;}}}
  boost::system::detail::tmp_add_type_50 tmp_add_func_50(){return 0;};
  namespace boost{namespace system{namespace errc{typedef int tmp_add_type_51;}}}
  boost::system::errc::tmp_add_type_51 tmp_add_func_51(){return 0;};
  namespace boost{namespace tuples{typedef int tmp_add_type_52;}}
  boost::tuples::tmp_add_type_52 tmp_add_func_52(){return 0;};
  namespace boost{namespace unordered{typedef int tmp_add_type_53;}}
  boost::unordered::tmp_add_type_53 tmp_add_func_53(){return 0;};
  namespace Field3D{typedef int tmp_add_type_54;}
  Field3D::tmp_add_type_54 tmp_add_func_54(){return 0;};
  namespace Imath{typedef int tmp_add_type_55;}
  Imath::tmp_add_type_55 tmp_add_func_55(){return 0;};
  namespace boost{namespace _bi{typedef int tmp_add_type_56;}}
  boost::_bi::tmp_add_type_56 tmp_add_func_56(){return 0;};
  namespace boost{namespace _mfi{typedef int tmp_add_type_57;}}
  boost::_mfi::tmp_add_type_57 tmp_add_func_57(){return 0;};
  namespace boost{namespace binary_op_detail{typedef int tmp_add_type_58;}}
  boost::binary_op_detail::tmp_add_type_58 tmp_add_func_58(){return 0;};
  namespace boost{namespace chrono{namespace chrono_detail{typedef int tmp_add_type_59;}}}
  boost::chrono::chrono_detail::tmp_add_type_59 tmp_add_func_59(){return 0;};
  namespace boost{namespace container{namespace container_detail_really_deep_namespace{typedef int tmp_add_type_60;}}}
  boost::container::container_detail_really_deep_namespace::tmp_add_type_60 tmp_add_func_60(){return 0;};
  namespace boost{namespace container_hash{typedef int tmp_add_type_61;}}
  boost::container_hash::tmp_add_type_61 tmp_add_func_61(){return 0;};
  namespace boost{namespace date_time{typedef int tmp_add_type_62;}}
  boost::date_time::tmp_add_type_62 tmp_add_func_62(){return 0;};
  namespace boost{namespace detail{namespace indirect_traits{typedef int tmp_add_type_63;}}}
  boost::detail::indirect_traits::tmp_add_type_63 tmp_add_func_63(){return 0;};
  namespace boost{namespace exception_detail{typedef int tmp_add_type_64;}}
  boost::exception_detail::tmp_add_type_64 tmp_add_func_64(){return 0;};
  namespace boost{namespace foreach_detail_{typedef int tmp_add_type_65;}}
  boost::foreach_detail_::tmp_add_type_65 tmp_add_func_65(){return 0;};
  namespace boost{namespace fusion{namespace advance_detail{typedef int tmp_add_type_66;}}}
  boost::fusion::advance_detail::tmp_add_type_66 tmp_add_func_66(){return 0;};
  namespace boost{namespace fusion{namespace distance_detail{typedef int tmp_add_type_67;}}}
  boost::fusion::distance_detail::tmp_add_type_67 tmp_add_func_67(){return 0;};
  namespace boost{namespace fusion{namespace iterator_operators{typedef int tmp_add_type_68;}}}
  boost::fusion::iterator_operators::tmp_add_type_68 tmp_add_func_68(){return 0;};
  namespace boost{namespace fusion{namespace result_of{typedef int tmp_add_type_69;}}}
  boost::fusion::result_of::tmp_add_type_69 tmp_add_func_69(){return 0;};
  namespace boost{namespace fusion{namespace vector_detail{typedef int tmp_add_type_70;}}}
  boost::fusion::vector_detail::tmp_add_type_70 tmp_add_func_70(){return 0;};
  namespace boost{namespace fusion{namespace vector_detail{namespace result_of{typedef int tmp_add_type_71;}}}}
  boost::fusion::vector_detail::result_of::tmp_add_type_71 tmp_add_func_71(){return 0;};
  namespace boost{namespace hash_detail{typedef int tmp_add_type_72;}}
  boost::hash_detail::tmp_add_type_72 tmp_add_func_72(){return 0;};
  namespace boost{namespace iterator_range_detail{typedef int tmp_add_type_73;}}
  boost::iterator_range_detail::tmp_add_type_73 tmp_add_func_73(){return 0;};
  namespace boost{namespace iterators{namespace advance_adl_barrier{typedef int tmp_add_type_74;}}}
  boost::iterators::advance_adl_barrier::tmp_add_type_74 tmp_add_func_74(){return 0;};
  namespace boost{namespace iterators{namespace detail{namespace has_iterator_category_detail{typedef int tmp_add_type_75;}}}}
  boost::iterators::detail::has_iterator_category_detail::tmp_add_type_75 tmp_add_func_75(){return 0;};
  namespace boost{namespace iterators{namespace distance_adl_barrier{typedef int tmp_add_type_76;}}}
  boost::iterators::distance_adl_barrier::tmp_add_type_76 tmp_add_func_76(){return 0;};
  namespace boost{namespace move_detail{typedef int tmp_add_type_77;}}
  boost::move_detail::tmp_add_type_77 tmp_add_func_77(){return 0;};
  namespace boost{namespace move_upd{typedef int tmp_add_type_78;}}
  boost::move_upd::tmp_add_type_78 tmp_add_func_78(){return 0;};
  namespace boost{namespace move_upmu{typedef int tmp_add_type_79;}}
  boost::move_upmu::tmp_add_type_79 tmp_add_func_79(){return 0;};
  namespace boost{namespace next_prior_detail{typedef int tmp_add_type_80;}}
  boost::next_prior_detail::tmp_add_type_80 tmp_add_func_80(){return 0;};
  namespace boost{namespace noncopyable_{typedef int tmp_add_type_81;}}
  boost::noncopyable_::tmp_add_type_81 tmp_add_func_81(){return 0;};
  namespace boost{namespace operators_impl{typedef int tmp_add_type_82;}}
  boost::operators_impl::tmp_add_type_82 tmp_add_func_82(){return 0;};
  namespace boost{namespace operators_impl{namespace operators_detail{typedef int tmp_add_type_83;}}}
  boost::operators_impl::operators_detail::tmp_add_type_83 tmp_add_func_83(){return 0;};
  namespace boost{namespace posix_time{typedef int tmp_add_type_84;}}
  boost::posix_time::tmp_add_type_84 tmp_add_func_84(){return 0;};
  namespace boost{namespace range_adl_barrier{typedef int tmp_add_type_85;}}
  boost::range_adl_barrier::tmp_add_type_85 tmp_add_func_85(){return 0;};
  namespace boost{namespace range_detail{typedef int tmp_add_type_86;}}
  boost::range_detail::tmp_add_type_86 tmp_add_func_86(){return 0;};
  namespace boost{namespace range_distance_adl_barrier{typedef int tmp_add_type_87;}}
  boost::range_distance_adl_barrier::tmp_add_type_87 tmp_add_func_87(){return 0;};
  namespace boost{namespace ratio_detail{typedef int tmp_add_type_88;}}
  boost::ratio_detail::tmp_add_type_88 tmp_add_func_88(){return 0;};
  namespace boost{namespace this_thread{typedef int tmp_add_type_89;}}
  boost::this_thread::tmp_add_type_89 tmp_add_func_89(){return 0;};
  namespace boost{namespace this_thread{namespace hidden{typedef int tmp_add_type_90;}}}
  boost::this_thread::hidden::tmp_add_type_90 tmp_add_func_90(){return 0;};
  namespace boost{namespace this_thread{namespace no_interruption_point{typedef int tmp_add_type_91;}}}
  boost::this_thread::no_interruption_point::tmp_add_type_91 tmp_add_func_91(){return 0;};
  namespace boost{namespace this_thread{namespace no_interruption_point{namespace hidden{typedef int tmp_add_type_92;}}}}
  boost::this_thread::no_interruption_point::hidden::tmp_add_type_92 tmp_add_func_92(){return 0;};
  namespace boost{namespace thread_cv_detail{typedef int tmp_add_type_93;}}
  boost::thread_cv_detail::tmp_add_type_93 tmp_add_func_93(){return 0;};
  namespace boost{namespace thread_detail{typedef int tmp_add_type_94;}}
  boost::thread_detail::tmp_add_type_94 tmp_add_func_94(){return 0;};
  namespace boost{namespace tokenizer_detail{typedef int tmp_add_type_95;}}
  boost::tokenizer_detail::tmp_add_type_95 tmp_add_func_95(){return 0;};
  namespace boost{namespace type_traits{typedef int tmp_add_type_96;}}
  boost::type_traits::tmp_add_type_96 tmp_add_func_96(){return 0;};
  namespace boost{namespace type_traits_detail{typedef int tmp_add_type_97;}}
  boost::type_traits_detail::tmp_add_type_97 tmp_add_func_97(){return 0;};
  namespace boost_concepts{typedef int tmp_add_type_98;}
  boost_concepts::tmp_add_type_98 tmp_add_func_98(){return 0;};
  namespace boost_concepts{namespace detail{typedef int tmp_add_type_99;}}
  boost_concepts::detail::tmp_add_type_99 tmp_add_func_99(){return 0;};
  namespace boost_move_adl_swap{typedef int tmp_add_type_100;}
  boost_move_adl_swap::tmp_add_type_100 tmp_add_func_100(){return 0;};
  namespace boost_swap_impl{typedef int tmp_add_type_101;}
  boost_swap_impl::tmp_add_type_101 tmp_add_func_101(){return 0;};
  namespace Field3D{namespace v1_7{typedef int tmp_add_type_102;}}
  Field3D::v1_7::tmp_add_type_102 tmp_add_func_102(){return 0;};
  namespace Field3D{namespace v1_7{namespace detail{typedef int tmp_add_type_103;}}}
  Field3D::v1_7::detail::tmp_add_type_103 tmp_add_func_103(){return 0;};
  namespace Field3D{namespace v1_7{namespace Exc{typedef int tmp_add_type_104;}}}
  Field3D::v1_7::Exc::tmp_add_type_104 tmp_add_func_104(){return 0;};
  namespace Field3D{namespace v1_7{namespace File{typedef int tmp_add_type_105;}}}
  Field3D::v1_7::File::tmp_add_type_105 tmp_add_func_105(){return 0;};
  namespace Field3D{namespace v1_7{namespace FileHDF5{typedef int tmp_add_type_106;}}}
  Field3D::v1_7::FileHDF5::tmp_add_type_106 tmp_add_func_106(){return 0;};
  namespace Field3D{namespace v1_7{namespace Hdf5Util{typedef int tmp_add_type_107;}}}
  Field3D::v1_7::Hdf5Util::tmp_add_type_107 tmp_add_func_107(){return 0;};
  namespace Field3D{namespace v1_7{namespace InputFileHDF5{typedef int tmp_add_type_108;}}}
  Field3D::v1_7::InputFileHDF5::tmp_add_type_108 tmp_add_func_108(){return 0;};
  namespace Field3D{namespace v1_7{namespace MACFieldUtil{typedef int tmp_add_type_109;}}}
  Field3D::v1_7::MACFieldUtil::tmp_add_type_109 tmp_add_func_109(){return 0;};
  namespace Field3D{namespace v1_7{namespace Msg{typedef int tmp_add_type_110;}}}
  Field3D::v1_7::Msg::tmp_add_type_110 tmp_add_func_110(){return 0;};
  namespace Field3D{namespace v1_7{namespace Sparse{typedef int tmp_add_type_111;}}}
  Field3D::v1_7::Sparse::tmp_add_type_111 tmp_add_func_111(){return 0;};
  namespace Field3D{namespace v1_7{namespace SparseFile{typedef int tmp_add_type_112;}}}
  Field3D::v1_7::SparseFile::tmp_add_type_112 tmp_add_func_112(){return 0;};
  namespace Imath_3_1{typedef int tmp_add_type_113;}
  Imath_3_1::tmp_add_type_113 tmp_add_func_113(){return 0;};
  namespace mpl_{typedef int tmp_add_type_114;}
  mpl_::tmp_add_type_114 tmp_add_func_114(){return 0;};
  namespace mpl_{namespace aux{typedef int tmp_add_type_115;}}
  mpl_::aux::tmp_add_type_115 tmp_add_func_115(){return 0;};

The GCC parameters:
  gcc -fdump-lang-raw -fkeep-inline-functions -c -x c++ -fpermissive -w "/tmp/Vb4LNes2L3/dump1.h"  -I/usr/include/hdf5/serial

In file included from /usr/include/Field3D/FieldGroup.h:33,
                 from /tmp/Vb4LNes2L3/dump1.h:29:
/usr/include/Field3D/FieldWrapper.h:9:10: fatal error: OpenEXR/ImathMatrixAlgo.h: No such file or directory
    9 | #include <OpenEXR/ImathMatrixAlgo.h>
      |          ^~~~~~~~~~~~~~~~~~~~~~~~~~~
compilation terminated.
ERROR: some errors occurred when compiling headers
ERROR: see log for details:
  /home/adrien/armhf-time_t/out/logs/libfield3d-dev/time_t/abi-compliance-checker.log


ERROR: can't compile header(s)
