Using GCC 13 (arm-linux-gnueabihf, target: arm)
WARNING: May not work properly with GCC 4.8.[0-2], 6.* and higher due to bug #78040 in GCC. Please try other GCC versions with the help of --gcc-path=PATH option or create ABI dumps by ABI Dumper tool instead to avoid using GCC. Test selected GCC version first by -test option.
Checking header(s) base ...
Temporary header file '/tmp/VO6N3xisjr/dump1.h' with the following content will be compiled to create GCC translation unit dump:

  // add defines
  #define __STDC_VERSION__ 201710L
#define _GXX_NULLPTR_T
#define CLUTTER_ENABLE_COMPOSITOR_API 1
#define _REGEX_NELTS(n)
#define _Atomic
#define PACKED
#ifdef __cplusplus
// C17 compat layer
#define _Alignof(type) alignof(type)
#endif
#define getaddrinfo_a(a,b,c,d)

  // add includes
  #include "/usr/include/music/BIFO.hh"
  #include "/usr/include/music/FIBO.hh"
  #include "/usr/include/music/application_graph.hh"
  #include "/usr/include/music/application_map.hh"
  #include "/usr/include/music/application_mapper.hh"
  #include "/usr/include/music/array_data.hh"
  #include "/usr/include/music/clock.hh"
  #include "/usr/include/music/collector.hh"
  #include "/usr/include/music/communication.hh"
  #include "/usr/include/music/configuration.hh"
  #include "/usr/include/music/connection.hh"
  #include "/usr/include/music/connectivity.hh"
  #include "/usr/include/music/connector.hh"
  #include "/usr/include/music/cont_data.hh"
  #include "/usr/include/music/data_map.hh"
  #include "/usr/include/music/debug.hh"
  #include "/usr/include/music/distributor.hh"
  #include "/usr/include/music/error.hh"
  #include "/usr/include/music/event.hh"
  #include "/usr/include/music/event_router.hh"
  #include "/usr/include/music/event_routing_map.hh"
  #include "/usr/include/music/index_map.hh"
  #include "/usr/include/music/index_map_factory.hh"
  #include "/usr/include/music/interval.hh"
  #include "/usr/include/music/interval_table.hh"
  #include "/usr/include/music/interval_tree.hh"
  #include "/usr/include/music/ioutils.hh"
  #include "/usr/include/music/linear_index.hh"
  #include "/usr/include/music/memory.hh"
  #include "/usr/include/music/message.hh"
  #include "/usr/include/music/mpi_utils.hh"
  #include "/usr/include/music/multibuffer.hh"
  #include "/usr/include/music/music-config.hh"
  #include "/usr/include/music/ordered_ilist.hh"
  #include "/usr/include/music/permutation_index.hh"
  #include "/usr/include/music/port.hh"
  #include "/usr/include/music/predict_rank-c.h"
  #include "/usr/include/music/predict_rank.hh"
  #include "/usr/include/music/runtime.hh"
  #include "/usr/include/music/sampler.hh"
  #include "/usr/include/music/scheduler.hh"
  #include "/usr/include/music/scheduler_agent.hh"
  #include "/usr/include/music/setup.hh"
  #include "/usr/include/music/spatial.hh"
  #include "/usr/include/music/subconnector.hh"
  #include "/usr/include/music/temporal.hh"
  #include "/usr/include/music/version.hh"
  #include "/usr/include/music-c.h"
  #include "/usr/include/music.hh"
  #include "/usr/include/predict_rank-c.h"

  // add namespaces
  namespace MPI{typedef int tmp_add_type_1;}
  MPI::tmp_add_type_1 tmp_add_func_1(){return 0;};
  namespace MUSIC{typedef int tmp_add_type_2;}
  MUSIC::tmp_add_type_2 tmp_add_func_2(){return 0;};

The GCC parameters:
  gcc -fdump-lang-raw -fkeep-inline-functions -c -x c++ -fpermissive -w "/tmp/VO6N3xisjr/dump1.h"  -I/usr/lib/arm-linux-gnueabihf/openmpi/include -I/usr/lib/arm-linux-gnueabihf/openmpi/include/openmpi

In file included from /tmp/VO6N3xisjr/dump1.h:20:
/usr/include/music/application_mapper.hh:25:10: fatal error: config.h: No such file or directory
   25 | #include "config.h"
      |          ^~~~~~~~~~
compilation terminated.
ERROR: some errors occurred when compiling headers
ERROR: see log for details:
  /home/adrien/armhf-time_t/out/logs/libmusic-dev/base/abi-compliance-checker.log


ERROR: can't compile header(s)
