[2024-01-07T09:59:38+00:00] apt-get install libglfw3-dev abi-compliance-checker
Reading package lists...
Building dependency tree...
Reading state information...
abi-compliance-checker is already the newest version (2.3-2).
The following packages were automatically installed and are no longer required:
  libglewmx-dev libglewmx1.13 libglu1-mesa libglu1-mesa-dev
Use 'apt autoremove' to remove them.
The following additional packages will be installed:
  libegl-dev libegl-mesa0 libegl1 libgbm1 libgles-dev libgles1 libgles2
  libglfw3 libglvnd-core-dev libglvnd-dev libwayland-client0
  libwayland-server0
Suggested packages:
  libosmesa6 libglfw3-doc
Recommended packages:
  libegl1-mesa-dev libvulkan-dev libwayland-dev libxrandr-dev
The following NEW packages will be installed:
  libegl-dev libegl-mesa0 libegl1 libgbm1 libgles-dev libgles1 libgles2
  libglfw3 libglfw3-dev libglvnd-core-dev libglvnd-dev libwayland-client0
  libwayland-server0
0 upgraded, 13 newly installed, 0 to remove and 40 not upgraded.
Need to get 436 kB of archives.
After this operation, 2168 kB of additional disk space will be used.
Get:1 http://deb.debian.org/debian unstable/main armhf libwayland-server0 armhf 1.22.0-2.1 [26.1 kB]
Get:2 http://deb.debian.org/debian unstable/main armhf libgbm1 armhf 23.3.2-2 [36.4 kB]
Get:3 http://deb.debian.org/debian unstable/main armhf libwayland-client0 armhf 1.22.0-2.1 [20.0 kB]
Get:4 http://deb.debian.org/debian unstable/main armhf libegl-mesa0 armhf 23.3.2-2 [97.7 kB]
Get:5 http://deb.debian.org/debian unstable/main armhf libegl1 armhf 1.7.0-1 [28.7 kB]
Get:6 http://deb.debian.org/debian unstable/main armhf libegl-dev armhf 1.7.0-1 [19.2 kB]
Get:7 http://deb.debian.org/debian unstable/main armhf libgles1 armhf 1.7.0-1 [12.0 kB]
Get:8 http://deb.debian.org/debian unstable/main armhf libgles2 armhf 1.7.0-1 [17.4 kB]
Get:9 http://deb.debian.org/debian unstable/main armhf libgles-dev armhf 1.7.0-1 [50.5 kB]
Get:10 http://deb.debian.org/debian unstable/main armhf libglfw3 armhf 3.3.9-1 [68.3 kB]
Get:11 http://deb.debian.org/debian unstable/main armhf libglvnd-core-dev armhf 1.7.0-1 [13.1 kB]
Get:12 http://deb.debian.org/debian unstable/main armhf libglvnd-dev armhf 1.7.0-1 [4868 B]
Get:13 http://deb.debian.org/debian unstable/main armhf libglfw3-dev armhf 3.3.9-1 [42.0 kB]
debconf: delaying package configuration, since apt-utils is not installed
Fetched 436 kB in 0s (934 kB/s)
Selecting previously unselected package libwayland-server0:armhf.
(Reading database ... (Reading database ... 5%(Reading database ... 10%(Reading database ... 15%(Reading database ... 20%(Reading database ... 25%(Reading database ... 30%(Reading database ... 35%(Reading database ... 40%(Reading database ... 45%(Reading database ... 50%(Reading database ... 55%(Reading database ... 60%(Reading database ... 65%(Reading database ... 70%(Reading database ... 75%(Reading database ... 80%(Reading database ... 85%(Reading database ... 90%(Reading database ... 95%(Reading database ... 100%(Reading database ... 15630 files and directories currently installed.)
Preparing to unpack .../00-libwayland-server0_1.22.0-2.1_armhf.deb ...
Unpacking libwayland-server0:armhf (1.22.0-2.1) ...
Selecting previously unselected package libgbm1:armhf.
Preparing to unpack .../01-libgbm1_23.3.2-2_armhf.deb ...
Unpacking libgbm1:armhf (23.3.2-2) ...
Selecting previously unselected package libwayland-client0:armhf.
Preparing to unpack .../02-libwayland-client0_1.22.0-2.1_armhf.deb ...
Unpacking libwayland-client0:armhf (1.22.0-2.1) ...
Selecting previously unselected package libegl-mesa0:armhf.
Preparing to unpack .../03-libegl-mesa0_23.3.2-2_armhf.deb ...
Unpacking libegl-mesa0:armhf (23.3.2-2) ...
Selecting previously unselected package libegl1:armhf.
Preparing to unpack .../04-libegl1_1.7.0-1_armhf.deb ...
Unpacking libegl1:armhf (1.7.0-1) ...
Selecting previously unselected package libegl-dev:armhf.
Preparing to unpack .../05-libegl-dev_1.7.0-1_armhf.deb ...
Unpacking libegl-dev:armhf (1.7.0-1) ...
Selecting previously unselected package libgles1:armhf.
Preparing to unpack .../06-libgles1_1.7.0-1_armhf.deb ...
Unpacking libgles1:armhf (1.7.0-1) ...
Selecting previously unselected package libgles2:armhf.
Preparing to unpack .../07-libgles2_1.7.0-1_armhf.deb ...
Unpacking libgles2:armhf (1.7.0-1) ...
Selecting previously unselected package libgles-dev:armhf.
Preparing to unpack .../08-libgles-dev_1.7.0-1_armhf.deb ...
Unpacking libgles-dev:armhf (1.7.0-1) ...
Selecting previously unselected package libglfw3:armhf.
Preparing to unpack .../09-libglfw3_3.3.9-1_armhf.deb ...
Unpacking libglfw3:armhf (3.3.9-1) ...
Selecting previously unselected package libglvnd-core-dev:armhf.
Preparing to unpack .../10-libglvnd-core-dev_1.7.0-1_armhf.deb ...
Unpacking libglvnd-core-dev:armhf (1.7.0-1) ...
Selecting previously unselected package libglvnd-dev:armhf.
Preparing to unpack .../11-libglvnd-dev_1.7.0-1_armhf.deb ...
Unpacking libglvnd-dev:armhf (1.7.0-1) ...
Selecting previously unselected package libglfw3-dev:armhf.
Preparing to unpack .../12-libglfw3-dev_3.3.9-1_armhf.deb ...
Unpacking libglfw3-dev:armhf (3.3.9-1) ...
Setting up libglfw3:armhf (3.3.9-1) ...
Setting up libwayland-server0:armhf (1.22.0-2.1) ...
Setting up libglvnd-core-dev:armhf (1.7.0-1) ...
Setting up libgbm1:armhf (23.3.2-2) ...
Setting up libgles2:armhf (1.7.0-1) ...
Setting up libgles1:armhf (1.7.0-1) ...
Setting up libwayland-client0:armhf (1.22.0-2.1) ...
Setting up libegl-mesa0:armhf (23.3.2-2) ...
Setting up libegl1:armhf (1.7.0-1) ...
Setting up libegl-dev:armhf (1.7.0-1) ...
Setting up libgles-dev:armhf (1.7.0-1) ...
Setting up libglvnd-dev:armhf (1.7.0-1) ...
Setting up libglfw3-dev:armhf (3.3.9-1) ...
Processing triggers for libc-bin (2.37-13) ...
Reading package lists...
Building dependency tree...
Reading state information...
The following packages will be REMOVED:
  libglewmx-dev* libglewmx1.13* libglu1-mesa* libglu1-mesa-dev*
0 upgraded, 0 newly installed, 4 to remove and 40 not upgraded.
After this operation, 2723 kB disk space will be freed.
(Reading database ... (Reading database ... 5%(Reading database ... 10%(Reading database ... 15%(Reading database ... 20%(Reading database ... 25%(Reading database ... 30%(Reading database ... 35%(Reading database ... 40%(Reading database ... 45%(Reading database ... 50%(Reading database ... 55%(Reading database ... 60%(Reading database ... 65%(Reading database ... 70%(Reading database ... 75%(Reading database ... 80%(Reading database ... 85%(Reading database ... 90%(Reading database ... 95%(Reading database ... 100%(Reading database ... 15757 files and directories currently installed.)
Removing libglewmx-dev:armhf (1.13.0-5) ...
Removing libglewmx1.13:armhf (1.13.0-5) ...
Removing libglu1-mesa-dev:armhf (9.0.2-1.1) ...
Removing libglu1-mesa:armhf (9.0.2-1.1) ...
Processing triggers for libc-bin (2.37-13) ...
