[2024-01-07T11:35:15+00:00] apt-get install libibus-1.0-dev abi-compliance-checker
Reading package lists...
Building dependency tree...
Reading state information...
abi-compliance-checker is already the newest version (2.3-2).
The following packages were automatically installed and are no longer required:
  libibumad-dev libibumad3
Use 'apt autoremove' to remove them.
The following additional packages will be installed:
  gir1.2-glib-2.0 gir1.2-ibus-1.0 libblkid-dev libdbus-1-dev libffi-dev
  libgirepository-1.0-1 libglib2.0-0 libglib2.0-bin libglib2.0-data
  libglib2.0-dev libglib2.0-dev-bin libibus-1.0-5 libmount-dev libpcre2-16-0
  libpcre2-32-0 libpcre2-dev libpcre2-posix3 libpkgconf3 libselinux1-dev
  libsepol-dev pkgconf pkgconf-bin python3-distutils python3-lib2to3 sgml-base
  uuid-dev xml-core zlib1g-dev
Suggested packages:
  low-memory-monitor libgirepository1.0-dev libglib2.0-doc
  libgdk-pixbuf2.0-bin libxml2-utils sgml-base-doc debhelper
Recommended packages:
  shared-mime-info xdg-user-dirs
The following NEW packages will be installed:
  gir1.2-glib-2.0 gir1.2-ibus-1.0 libblkid-dev libdbus-1-dev libffi-dev
  libgirepository-1.0-1 libglib2.0-0 libglib2.0-bin libglib2.0-data
  libglib2.0-dev libglib2.0-dev-bin libibus-1.0-5 libibus-1.0-dev libmount-dev
  libpcre2-16-0 libpcre2-32-0 libpcre2-dev libpcre2-posix3 libpkgconf3
  libselinux1-dev libsepol-dev pkgconf pkgconf-bin python3-distutils
  python3-lib2to3 sgml-base uuid-dev xml-core zlib1g-dev
0 upgraded, 29 newly installed, 0 to remove and 35 not upgraded.
Need to get 9161 kB of archives.
After this operation, 36.1 MB of additional disk space will be used.
Get:1 http://deb.debian.org/debian unstable/main armhf sgml-base all 1.31 [15.4 kB]
Get:2 http://deb.debian.org/debian unstable/main armhf libglib2.0-0 armhf 2.78.3-1 [1282 kB]
Get:3 http://deb.debian.org/debian unstable/main armhf libgirepository-1.0-1 armhf 1.78.1-6 [94.8 kB]
Get:4 http://deb.debian.org/debian unstable/main armhf gir1.2-glib-2.0 armhf 1.78.1-6 [165 kB]
Get:5 http://deb.debian.org/debian unstable/main armhf libibus-1.0-5 armhf 1.5.29-1 [425 kB]
Get:6 http://deb.debian.org/debian unstable/main armhf gir1.2-ibus-1.0 armhf 1.5.29-1 [348 kB]
Get:7 http://deb.debian.org/debian unstable/main armhf uuid-dev armhf 2.39.3-6 [39.6 kB]
Get:8 http://deb.debian.org/debian unstable/main armhf libblkid-dev armhf 2.39.3-6 [186 kB]
Get:9 http://deb.debian.org/debian unstable/main armhf libpkgconf3 armhf 1.8.1-1+b2 [31.9 kB]
Get:10 http://deb.debian.org/debian unstable/main armhf pkgconf-bin armhf 1.8.1-1+b2 [28.9 kB]
Get:11 http://deb.debian.org/debian unstable/main armhf pkgconf armhf 1.8.1-1+b2 [26.2 kB]
Get:12 http://deb.debian.org/debian unstable/main armhf xml-core all 0.19 [20.1 kB]
Get:13 http://deb.debian.org/debian unstable/main armhf libdbus-1-dev armhf 1.14.10-3+b1 [222 kB]
Get:14 http://deb.debian.org/debian unstable/main armhf libffi-dev armhf 3.4.4-2 [55.7 kB]
Get:15 http://deb.debian.org/debian unstable/main armhf libglib2.0-data all 2.78.3-1 [1223 kB]
Get:16 http://deb.debian.org/debian unstable/main armhf libglib2.0-bin armhf 2.78.3-1 [108 kB]
Get:17 http://deb.debian.org/debian unstable/main armhf python3-lib2to3 all 3.11.5-1 [77.5 kB]
Get:18 http://deb.debian.org/debian unstable/main armhf python3-distutils all 3.11.5-1 [131 kB]
Get:19 http://deb.debian.org/debian unstable/main armhf libglib2.0-dev-bin armhf 2.78.3-1 [154 kB]
Get:20 http://deb.debian.org/debian unstable/main armhf libsepol-dev armhf 3.5-2 [319 kB]
Get:21 http://deb.debian.org/debian unstable/main armhf libpcre2-16-0 armhf 10.42-4 [211 kB]
Get:22 http://deb.debian.org/debian unstable/main armhf libpcre2-32-0 armhf 10.42-4 [202 kB]
Get:23 http://deb.debian.org/debian unstable/main armhf libpcre2-posix3 armhf 10.42-4 [55.0 kB]
Get:24 http://deb.debian.org/debian unstable/main armhf libpcre2-dev armhf 10.42-4 [668 kB]
Get:25 http://deb.debian.org/debian unstable/main armhf libselinux1-dev armhf 3.5-1+b2 [151 kB]
Get:26 http://deb.debian.org/debian unstable/main armhf libmount-dev armhf 2.39.3-6 [23.6 kB]
Get:27 http://deb.debian.org/debian unstable/main armhf zlib1g-dev armhf 1:1.3.dfsg-3 [904 kB]
Get:28 http://deb.debian.org/debian unstable/main armhf libglib2.0-dev armhf 2.78.3-1 [1526 kB]
Get:29 http://deb.debian.org/debian unstable/main armhf libibus-1.0-dev armhf 1.5.29-1 [467 kB]
debconf: delaying package configuration, since apt-utils is not installed
Fetched 9161 kB in 1s (18.0 MB/s)
Selecting previously unselected package sgml-base.
(Reading database ... (Reading database ... 5%(Reading database ... 10%(Reading database ... 15%(Reading database ... 20%(Reading database ... 25%(Reading database ... 30%(Reading database ... 35%(Reading database ... 40%(Reading database ... 45%(Reading database ... 50%(Reading database ... 55%(Reading database ... 60%(Reading database ... 65%(Reading database ... 70%(Reading database ... 75%(Reading database ... 80%(Reading database ... 85%(Reading database ... 90%(Reading database ... 95%(Reading database ... 100%(Reading database ... 15337 files and directories currently installed.)
Preparing to unpack .../00-sgml-base_1.31_all.deb ...
Unpacking sgml-base (1.31) ...
Selecting previously unselected package libglib2.0-0:armhf.
Preparing to unpack .../01-libglib2.0-0_2.78.3-1_armhf.deb ...
Unpacking libglib2.0-0:armhf (2.78.3-1) ...
Selecting previously unselected package libgirepository-1.0-1:armhf.
Preparing to unpack .../02-libgirepository-1.0-1_1.78.1-6_armhf.deb ...
Unpacking libgirepository-1.0-1:armhf (1.78.1-6) ...
Selecting previously unselected package gir1.2-glib-2.0:armhf.
Preparing to unpack .../03-gir1.2-glib-2.0_1.78.1-6_armhf.deb ...
Unpacking gir1.2-glib-2.0:armhf (1.78.1-6) ...
Selecting previously unselected package libibus-1.0-5:armhf.
Preparing to unpack .../04-libibus-1.0-5_1.5.29-1_armhf.deb ...
Unpacking libibus-1.0-5:armhf (1.5.29-1) ...
Selecting previously unselected package gir1.2-ibus-1.0:armhf.
Preparing to unpack .../05-gir1.2-ibus-1.0_1.5.29-1_armhf.deb ...
Unpacking gir1.2-ibus-1.0:armhf (1.5.29-1) ...
Selecting previously unselected package uuid-dev:armhf.
Preparing to unpack .../06-uuid-dev_2.39.3-6_armhf.deb ...
Unpacking uuid-dev:armhf (2.39.3-6) ...
Selecting previously unselected package libblkid-dev:armhf.
Preparing to unpack .../07-libblkid-dev_2.39.3-6_armhf.deb ...
Unpacking libblkid-dev:armhf (2.39.3-6) ...
Selecting previously unselected package libpkgconf3:armhf.
Preparing to unpack .../08-libpkgconf3_1.8.1-1+b2_armhf.deb ...
Unpacking libpkgconf3:armhf (1.8.1-1+b2) ...
Selecting previously unselected package pkgconf-bin.
Preparing to unpack .../09-pkgconf-bin_1.8.1-1+b2_armhf.deb ...
Unpacking pkgconf-bin (1.8.1-1+b2) ...
Selecting previously unselected package pkgconf:armhf.
Preparing to unpack .../10-pkgconf_1.8.1-1+b2_armhf.deb ...
Unpacking pkgconf:armhf (1.8.1-1+b2) ...
Selecting previously unselected package xml-core.
Preparing to unpack .../11-xml-core_0.19_all.deb ...
Unpacking xml-core (0.19) ...
Selecting previously unselected package libdbus-1-dev:armhf.
Preparing to unpack .../12-libdbus-1-dev_1.14.10-3+b1_armhf.deb ...
Unpacking libdbus-1-dev:armhf (1.14.10-3+b1) ...
Selecting previously unselected package libffi-dev:armhf.
Preparing to unpack .../13-libffi-dev_3.4.4-2_armhf.deb ...
Unpacking libffi-dev:armhf (3.4.4-2) ...
Selecting previously unselected package libglib2.0-data.
Preparing to unpack .../14-libglib2.0-data_2.78.3-1_all.deb ...
Unpacking libglib2.0-data (2.78.3-1) ...
Selecting previously unselected package libglib2.0-bin.
Preparing to unpack .../15-libglib2.0-bin_2.78.3-1_armhf.deb ...
Unpacking libglib2.0-bin (2.78.3-1) ...
Selecting previously unselected package python3-lib2to3.
Preparing to unpack .../16-python3-lib2to3_3.11.5-1_all.deb ...
Unpacking python3-lib2to3 (3.11.5-1) ...
Selecting previously unselected package python3-distutils.
Preparing to unpack .../17-python3-distutils_3.11.5-1_all.deb ...
Unpacking python3-distutils (3.11.5-1) ...
Selecting previously unselected package libglib2.0-dev-bin.
Preparing to unpack .../18-libglib2.0-dev-bin_2.78.3-1_armhf.deb ...
Unpacking libglib2.0-dev-bin (2.78.3-1) ...
Selecting previously unselected package libsepol-dev:armhf.
Preparing to unpack .../19-libsepol-dev_3.5-2_armhf.deb ...
Unpacking libsepol-dev:armhf (3.5-2) ...
Selecting previously unselected package libpcre2-16-0:armhf.
Preparing to unpack .../20-libpcre2-16-0_10.42-4_armhf.deb ...
Unpacking libpcre2-16-0:armhf (10.42-4) ...
Selecting previously unselected package libpcre2-32-0:armhf.
Preparing to unpack .../21-libpcre2-32-0_10.42-4_armhf.deb ...
Unpacking libpcre2-32-0:armhf (10.42-4) ...
Selecting previously unselected package libpcre2-posix3:armhf.
Preparing to unpack .../22-libpcre2-posix3_10.42-4_armhf.deb ...
Unpacking libpcre2-posix3:armhf (10.42-4) ...
Selecting previously unselected package libpcre2-dev:armhf.
Preparing to unpack .../23-libpcre2-dev_10.42-4_armhf.deb ...
Unpacking libpcre2-dev:armhf (10.42-4) ...
Selecting previously unselected package libselinux1-dev:armhf.
Preparing to unpack .../24-libselinux1-dev_3.5-1+b2_armhf.deb ...
Unpacking libselinux1-dev:armhf (3.5-1+b2) ...
Selecting previously unselected package libmount-dev:armhf.
Preparing to unpack .../25-libmount-dev_2.39.3-6_armhf.deb ...
Unpacking libmount-dev:armhf (2.39.3-6) ...
Selecting previously unselected package zlib1g-dev:armhf.
Preparing to unpack .../26-zlib1g-dev_1%3a1.3.dfsg-3_armhf.deb ...
Unpacking zlib1g-dev:armhf (1:1.3.dfsg-3) ...
Selecting previously unselected package libglib2.0-dev:armhf.
Preparing to unpack .../27-libglib2.0-dev_2.78.3-1_armhf.deb ...
Unpacking libglib2.0-dev:armhf (2.78.3-1) ...
Selecting previously unselected package libibus-1.0-dev:armhf.
Preparing to unpack .../28-libibus-1.0-dev_1.5.29-1_armhf.deb ...
Unpacking libibus-1.0-dev:armhf (1.5.29-1) ...
Setting up libglib2.0-0:armhf (2.78.3-1) ...
No schema files found: doing nothing.
Setting up libibus-1.0-5:armhf (1.5.29-1) ...
Setting up libffi-dev:armhf (3.4.4-2) ...
Setting up libpcre2-16-0:armhf (10.42-4) ...
Setting up libpcre2-32-0:armhf (10.42-4) ...
Setting up libglib2.0-data (2.78.3-1) ...
Setting up libpkgconf3:armhf (1.8.1-1+b2) ...
Setting up uuid-dev:armhf (2.39.3-6) ...
Setting up libsepol-dev:armhf (3.5-2) ...
Setting up pkgconf-bin (1.8.1-1+b2) ...
Setting up zlib1g-dev:armhf (1:1.3.dfsg-3) ...
Setting up libpcre2-posix3:armhf (10.42-4) ...
Setting up libgirepository-1.0-1:armhf (1.78.1-6) ...
Setting up sgml-base (1.31) ...
Setting up python3-lib2to3 (3.11.5-1) ...
Setting up python3-distutils (3.11.5-1) ...
Setting up libglib2.0-dev-bin (2.78.3-1) ...
Setting up libblkid-dev:armhf (2.39.3-6) ...
Setting up libpcre2-dev:armhf (10.42-4) ...
Setting up libselinux1-dev:armhf (3.5-1+b2) ...
Setting up libglib2.0-bin (2.78.3-1) ...
Setting up pkgconf:armhf (1.8.1-1+b2) ...
Setting up gir1.2-glib-2.0:armhf (1.78.1-6) ...
Setting up xml-core (0.19) ...
Setting up gir1.2-ibus-1.0:armhf (1.5.29-1) ...
Setting up libmount-dev:armhf (2.39.3-6) ...
Setting up libglib2.0-dev:armhf (2.78.3-1) ...
Processing triggers for install-info (7.1-2) ...
Processing triggers for libc-bin (2.37-13) ...
Processing triggers for sgml-base (1.31) ...
Setting up libdbus-1-dev:armhf (1.14.10-3+b1) ...
Setting up libibus-1.0-dev:armhf (1.5.29-1) ...
Reading package lists...
Building dependency tree...
Reading state information...
The following packages will be REMOVED:
  libibumad-dev* libibumad3*
0 upgraded, 0 newly installed, 2 to remove and 35 not upgraded.
After this operation, 247 kB disk space will be freed.
(Reading database ... (Reading database ... 5%(Reading database ... 10%(Reading database ... 15%(Reading database ... 20%(Reading database ... 25%(Reading database ... 30%(Reading database ... 35%(Reading database ... 40%(Reading database ... 45%(Reading database ... 50%(Reading database ... 55%(Reading database ... 60%(Reading database ... 65%(Reading database ... 70%(Reading database ... 75%(Reading database ... 80%(Reading database ... 85%(Reading database ... 90%(Reading database ... 95%(Reading database ... 100%(Reading database ... 16842 files and directories currently installed.)
Removing libibumad-dev:armhf (48.0-1) ...
Removing libibumad3:armhf (48.0-1) ...
Processing triggers for libc-bin (2.37-13) ...
