Using GCC 13 (arm-linux-gnueabihf, target: arm)
WARNING: May not work properly with GCC 4.8.[0-2], 6.* and higher due to bug #78040 in GCC. Please try other GCC versions with the help of --gcc-path=PATH option or create ABI dumps by ABI Dumper tool instead to avoid using GCC. Test selected GCC version first by -test option.
Checking header(s) base ...
Temporary header file '/tmp/s_07g51Z5q/dump1.h' with the following content will be compiled to create GCC translation unit dump:

  // add defines
  #define __STDC_VERSION__ 201710L
#define _GXX_NULLPTR_T
#define CLUTTER_ENABLE_COMPOSITOR_API 1
#define _REGEX_NELTS(n)
#define _Atomic
#define PACKED
#ifdef __cplusplus
// C17 compat layer
#define _Alignof(type) alignof(type)
#endif
#define getaddrinfo_a(a,b,c,d) 
#define _Static_assert(...);

  // add includes
  #include "/usr/lib/llvm-16/include/mlir/InitAllDialects.h"

  // add namespaces
  namespace llvm{typedef int tmp_add_type_1;}
  llvm::tmp_add_type_1 tmp_add_func_1(){return 0;};
  namespace llvm{namespace APIntOps{typedef int tmp_add_type_2;}}
  llvm::APIntOps::tmp_add_type_2 tmp_add_func_2(){return 0;};
  namespace llvm{namespace AttributeFuncs{typedef int tmp_add_type_3;}}
  llvm::AttributeFuncs::tmp_add_type_3 tmp_add_func_3(){return 0;};
  namespace llvm{namespace BitmaskEnumDetail{typedef int tmp_add_type_4;}}
  llvm::BitmaskEnumDetail::tmp_add_type_4 tmp_add_func_4(){return 0;};
  namespace llvm{namespace CallingConv{typedef int tmp_add_type_5;}}
  llvm::CallingConv::tmp_add_type_5 tmp_add_func_5(){return 0;};
  namespace llvm{namespace CodeGenOpt{typedef int tmp_add_type_6;}}
  llvm::CodeGenOpt::tmp_add_type_6 tmp_add_func_6(){return 0;};
  namespace llvm{namespace CodeModel{typedef int tmp_add_type_7;}}
  llvm::CodeModel::tmp_add_type_7 tmp_add_func_7(){return 0;};
  namespace llvm{namespace detail{typedef int tmp_add_type_8;}}
  llvm::detail::tmp_add_type_8 tmp_add_func_8(){return 0;};
  namespace llvm{namespace details{typedef int tmp_add_type_9;}}
  llvm::details::tmp_add_type_9 tmp_add_func_9(){return 0;};
  namespace llvm{namespace hashing{typedef int tmp_add_type_10;}}
  llvm::hashing::tmp_add_type_10 tmp_add_func_10(){return 0;};
  namespace llvm{namespace hashing{namespace detail{typedef int tmp_add_type_11;}}}
  llvm::hashing::detail::tmp_add_type_11 tmp_add_func_11(){return 0;};
  namespace llvm{namespace Intrinsic{typedef int tmp_add_type_12;}}
  llvm::Intrinsic::tmp_add_type_12 tmp_add_func_12(){return 0;};
  namespace llvm{namespace mdconst{typedef int tmp_add_type_13;}}
  llvm::mdconst::tmp_add_type_13 tmp_add_func_13(){return 0;};
  namespace llvm{namespace mdconst{namespace detail{typedef int tmp_add_type_14;}}}
  llvm::mdconst::detail::tmp_add_type_14 tmp_add_func_14(){return 0;};
  namespace llvm{namespace numbers{typedef int tmp_add_type_15;}}
  llvm::numbers::tmp_add_type_15 tmp_add_func_15(){return 0;};
  namespace llvm{namespace PICLevel{typedef int tmp_add_type_16;}}
  llvm::PICLevel::tmp_add_type_16 tmp_add_func_16(){return 0;};
  namespace llvm{namespace PIELevel{typedef int tmp_add_type_17;}}
  llvm::PIELevel::tmp_add_type_17 tmp_add_func_17(){return 0;};
  namespace llvm{namespace Reloc{typedef int tmp_add_type_18;}}
  llvm::Reloc::tmp_add_type_18 tmp_add_func_18(){return 0;};
  namespace llvm{namespace remarks{typedef int tmp_add_type_19;}}
  llvm::remarks::tmp_add_type_19 tmp_add_func_19(){return 0;};
  namespace llvm{namespace support{typedef int tmp_add_type_20;}}
  llvm::support::tmp_add_type_20 tmp_add_func_20(){return 0;};
  namespace llvm{namespace support{namespace detail{typedef int tmp_add_type_21;}}}
  llvm::support::detail::tmp_add_type_21 tmp_add_func_21(){return 0;};
  namespace llvm{namespace support{namespace endian{typedef int tmp_add_type_22;}}}
  llvm::support::endian::tmp_add_type_22 tmp_add_func_22(){return 0;};
  namespace llvm{namespace SyncScope{typedef int tmp_add_type_23;}}
  llvm::SyncScope::tmp_add_type_23 tmp_add_func_23(){return 0;};
  namespace llvm{namespace sys{typedef int tmp_add_type_24;}}
  llvm::sys::tmp_add_type_24 tmp_add_func_24(){return 0;};
  namespace llvm{namespace sys{namespace fs{typedef int tmp_add_type_25;}}}
  llvm::sys::fs::tmp_add_type_25 tmp_add_func_25(){return 0;};
  namespace llvm{namespace TLSModel{typedef int tmp_add_type_26;}}
  llvm::TLSModel::tmp_add_type_26 tmp_add_func_26(){return 0;};
  namespace llvm{namespace ZeroCallUsedRegs{typedef int tmp_add_type_27;}}
  llvm::ZeroCallUsedRegs::tmp_add_type_27 tmp_add_func_27(){return 0;};
  namespace mlir{typedef int tmp_add_type_28;}
  mlir::tmp_add_type_28 tmp_add_func_28(){return 0;};
  namespace mlir{namespace acc{typedef int tmp_add_type_29;}}
  mlir::acc::tmp_add_type_29 tmp_add_func_29(){return 0;};
  namespace mlir{namespace acc{namespace detail{typedef int tmp_add_type_30;}}}
  mlir::acc::detail::tmp_add_type_30 tmp_add_func_30(){return 0;};
  namespace mlir{namespace affine{typedef int tmp_add_type_31;}}
  mlir::affine::tmp_add_type_31 tmp_add_func_31(){return 0;};
  namespace mlir{namespace amdgpu{typedef int tmp_add_type_32;}}
  mlir::amdgpu::tmp_add_type_32 tmp_add_func_32(){return 0;};
  namespace mlir{namespace amdgpu{namespace detail{typedef int tmp_add_type_33;}}}
  mlir::amdgpu::detail::tmp_add_type_33 tmp_add_func_33(){return 0;};
  namespace mlir{namespace amx{typedef int tmp_add_type_34;}}
  mlir::amx::tmp_add_type_34 tmp_add_func_34(){return 0;};
  namespace mlir{namespace amx{namespace detail{typedef int tmp_add_type_35;}}}
  mlir::amx::detail::tmp_add_type_35 tmp_add_func_35(){return 0;};
  namespace mlir{namespace arith{typedef int tmp_add_type_36;}}
  mlir::arith::tmp_add_type_36 tmp_add_func_36(){return 0;};
  namespace mlir{namespace arith{namespace detail{typedef int tmp_add_type_37;}}}
  mlir::arith::detail::tmp_add_type_37 tmp_add_func_37(){return 0;};
  namespace mlir{namespace async{typedef int tmp_add_type_38;}}
  mlir::async::tmp_add_type_38 tmp_add_func_38(){return 0;};
  namespace mlir{namespace async{namespace detail{typedef int tmp_add_type_39;}}}
  mlir::async::detail::tmp_add_type_39 tmp_add_func_39(){return 0;};
  namespace mlir{namespace AttributeTrait{typedef int tmp_add_type_40;}}
  mlir::AttributeTrait::tmp_add_type_40 tmp_add_func_40(){return 0;};
  namespace mlir{namespace bufferization{typedef int tmp_add_type_41;}}
  mlir::bufferization::tmp_add_type_41 tmp_add_func_41(){return 0;};
  namespace mlir{namespace bufferization{namespace detail{typedef int tmp_add_type_42;}}}
  mlir::bufferization::detail::tmp_add_type_42 tmp_add_func_42(){return 0;};
  namespace mlir{namespace cf{typedef int tmp_add_type_43;}}
  mlir::cf::tmp_add_type_43 tmp_add_func_43(){return 0;};
  namespace mlir{namespace complex{typedef int tmp_add_type_44;}}
  mlir::complex::tmp_add_type_44 tmp_add_func_44(){return 0;};
  namespace mlir{namespace complex{namespace detail{typedef int tmp_add_type_45;}}}
  mlir::complex::detail::tmp_add_type_45 tmp_add_func_45(){return 0;};
  namespace mlir{namespace detail{typedef int tmp_add_type_46;}}
  mlir::detail::tmp_add_type_46 tmp_add_func_46(){return 0;};
  namespace mlir{namespace detail{namespace StorageUserTrait{typedef int tmp_add_type_47;}}}
  mlir::detail::StorageUserTrait::tmp_add_type_47 tmp_add_func_47(){return 0;};
  namespace mlir{namespace emitc{typedef int tmp_add_type_48;}}
  mlir::emitc::tmp_add_type_48 tmp_add_func_48(){return 0;};
  namespace mlir{namespace emitc{namespace detail{typedef int tmp_add_type_49;}}}
  mlir::emitc::detail::tmp_add_type_49 tmp_add_func_49(){return 0;};
  namespace mlir{namespace func{typedef int tmp_add_type_50;}}
  mlir::func::tmp_add_type_50 tmp_add_func_50(){return 0;};
  namespace mlir{namespace func{namespace detail{typedef int tmp_add_type_51;}}}
  mlir::func::detail::tmp_add_type_51 tmp_add_func_51(){return 0;};
  namespace mlir{namespace gpu{typedef int tmp_add_type_52;}}
  mlir::gpu::tmp_add_type_52 tmp_add_func_52(){return 0;};
  namespace mlir{namespace gpu{namespace detail{typedef int tmp_add_type_53;}}}
  mlir::gpu::detail::tmp_add_type_53 tmp_add_func_53(){return 0;};
  namespace mlir{namespace impl{typedef int tmp_add_type_54;}}
  mlir::impl::tmp_add_type_54 tmp_add_func_54(){return 0;};
  namespace mlir{namespace index{typedef int tmp_add_type_55;}}
  mlir::index::tmp_add_type_55 tmp_add_func_55(){return 0;};
  namespace mlir{namespace linalg{typedef int tmp_add_type_56;}}
  mlir::linalg::tmp_add_type_56 tmp_add_func_56(){return 0;};
  namespace mlir{namespace linalg{namespace detail{typedef int tmp_add_type_57;}}}
  mlir::linalg::detail::tmp_add_type_57 tmp_add_func_57(){return 0;};
  namespace mlir{namespace LLVM{typedef int tmp_add_type_58;}}
  mlir::LLVM::tmp_add_type_58 tmp_add_func_58(){return 0;};
  namespace mlir{namespace LLVM{namespace cconv{typedef int tmp_add_type_59;}}}
  mlir::LLVM::cconv::tmp_add_type_59 tmp_add_func_59(){return 0;};
  namespace mlir{namespace LLVM{namespace detail{typedef int tmp_add_type_60;}}}
  mlir::LLVM::detail::tmp_add_type_60 tmp_add_func_60(){return 0;};
  namespace mlir{namespace LLVM{namespace linkage{typedef int tmp_add_type_61;}}}
  mlir::LLVM::linkage::tmp_add_type_61 tmp_add_func_61(){return 0;};
  namespace mlir{namespace matcher{typedef int tmp_add_type_62;}}
  mlir::matcher::tmp_add_type_62 tmp_add_func_62(){return 0;};
  namespace mlir{namespace math{typedef int tmp_add_type_63;}}
  mlir::math::tmp_add_type_63 tmp_add_func_63(){return 0;};
  namespace mlir{namespace math{namespace detail{typedef int tmp_add_type_64;}}}
  mlir::math::detail::tmp_add_type_64 tmp_add_func_64(){return 0;};
  namespace mlir{namespace MemoryEffects{typedef int tmp_add_type_65;}}
  mlir::MemoryEffects::tmp_add_type_65 tmp_add_func_65(){return 0;};
  namespace mlir{namespace memref{typedef int tmp_add_type_66;}}
  mlir::memref::tmp_add_type_66 tmp_add_func_66(){return 0;};
  namespace mlir{namespace memref{namespace detail{typedef int tmp_add_type_67;}}}
  mlir::memref::detail::tmp_add_type_67 tmp_add_func_67(){return 0;};
  namespace mlir{namespace nvgpu{typedef int tmp_add_type_68;}}
  mlir::nvgpu::tmp_add_type_68 tmp_add_func_68(){return 0;};
  namespace mlir{namespace nvgpu{namespace detail{typedef int tmp_add_type_69;}}}
  mlir::nvgpu::detail::tmp_add_type_69 tmp_add_func_69(){return 0;};
  namespace mlir{namespace NVVM{typedef int tmp_add_type_70;}}
  mlir::NVVM::tmp_add_type_70 tmp_add_func_70(){return 0;};
  namespace mlir{namespace NVVM{namespace detail{typedef int tmp_add_type_71;}}}
  mlir::NVVM::detail::tmp_add_type_71 tmp_add_func_71(){return 0;};
  namespace mlir{namespace omp{typedef int tmp_add_type_72;}}
  mlir::omp::tmp_add_type_72 tmp_add_func_72(){return 0;};
  namespace mlir{namespace omp{namespace detail{typedef int tmp_add_type_73;}}}
  mlir::omp::detail::tmp_add_type_73 tmp_add_func_73(){return 0;};
  namespace mlir{namespace OpTrait{typedef int tmp_add_type_74;}}
  mlir::OpTrait::tmp_add_type_74 tmp_add_func_74(){return 0;};
  namespace mlir{namespace OpTrait{namespace detail{typedef int tmp_add_type_75;}}}
  mlir::OpTrait::detail::tmp_add_type_75 tmp_add_func_75(){return 0;};
  namespace mlir{namespace OpTrait{namespace impl{typedef int tmp_add_type_76;}}}
  mlir::OpTrait::impl::tmp_add_type_76 tmp_add_func_76(){return 0;};
  namespace mlir{namespace OpTrait{namespace util{typedef int tmp_add_type_77;}}}
  mlir::OpTrait::util::tmp_add_type_77 tmp_add_func_77(){return 0;};
  namespace mlir{namespace pdl{typedef int tmp_add_type_78;}}
  mlir::pdl::tmp_add_type_78 tmp_add_func_78(){return 0;};
  namespace mlir{namespace pdl{namespace detail{typedef int tmp_add_type_79;}}}
  mlir::pdl::detail::tmp_add_type_79 tmp_add_func_79(){return 0;};
  namespace mlir{namespace quant{typedef int tmp_add_type_80;}}
  mlir::quant::tmp_add_type_80 tmp_add_func_80(){return 0;};
  namespace mlir{namespace quant{namespace detail{typedef int tmp_add_type_81;}}}
  mlir::quant::detail::tmp_add_type_81 tmp_add_func_81(){return 0;};
  namespace mlir{namespace ROCDL{typedef int tmp_add_type_82;}}
  mlir::ROCDL::tmp_add_type_82 tmp_add_func_82(){return 0;};
  namespace mlir{namespace ROCDL{namespace detail{typedef int tmp_add_type_83;}}}
  mlir::ROCDL::detail::tmp_add_type_83 tmp_add_func_83(){return 0;};
  namespace mlir{namespace scf{typedef int tmp_add_type_84;}}
  mlir::scf::tmp_add_type_84 tmp_add_func_84(){return 0;};
  namespace mlir{namespace scf{namespace detail{typedef int tmp_add_type_85;}}}
  mlir::scf::detail::tmp_add_type_85 tmp_add_func_85(){return 0;};
  namespace mlir{namespace shape{typedef int tmp_add_type_86;}}
  mlir::shape::tmp_add_type_86 tmp_add_func_86(){return 0;};
  namespace mlir{namespace shape{namespace detail{typedef int tmp_add_type_87;}}}
  mlir::shape::detail::tmp_add_type_87 tmp_add_func_87(){return 0;};
  namespace mlir{namespace SideEffects{typedef int tmp_add_type_88;}}
  mlir::SideEffects::tmp_add_type_88 tmp_add_func_88(){return 0;};
  namespace mlir{namespace Speculation{typedef int tmp_add_type_89;}}
  mlir::Speculation::tmp_add_type_89 tmp_add_func_89(){return 0;};
  namespace mlir{namespace spirv{typedef int tmp_add_type_90;}}
  mlir::spirv::tmp_add_type_90 tmp_add_func_90(){return 0;};
  namespace mlir{namespace tensor{typedef int tmp_add_type_91;}}
  mlir::tensor::tmp_add_type_91 tmp_add_func_91(){return 0;};
  namespace mlir{namespace tensor{namespace detail{typedef int tmp_add_type_92;}}}
  mlir::tensor::detail::tmp_add_type_92 tmp_add_func_92(){return 0;};
  namespace mlir{namespace tosa{typedef int tmp_add_type_93;}}
  mlir::tosa::tmp_add_type_93 tmp_add_func_93(){return 0;};
  namespace mlir{namespace tosa{namespace detail{typedef int tmp_add_type_94;}}}
  mlir::tosa::detail::tmp_add_type_94 tmp_add_func_94(){return 0;};
  namespace mlir{namespace transform{typedef int tmp_add_type_95;}}
  mlir::transform::tmp_add_type_95 tmp_add_func_95(){return 0;};
  namespace mlir{namespace transform{namespace detail{typedef int tmp_add_type_96;}}}
  mlir::transform::detail::tmp_add_type_96 tmp_add_func_96(){return 0;};
  namespace mlir{namespace transform{namespace gpu{typedef int tmp_add_type_97;}}}
  mlir::transform::gpu::tmp_add_type_97 tmp_add_func_97(){return 0;};
  namespace mlir{namespace TypeTrait{typedef int tmp_add_type_98;}}
  mlir::TypeTrait::tmp_add_type_98 tmp_add_func_98(){return 0;};
  namespace mlir{namespace utils{typedef int tmp_add_type_99;}}
  mlir::utils::tmp_add_type_99 tmp_add_func_99(){return 0;};
  namespace mlir{namespace vector{typedef int tmp_add_type_100;}}
  mlir::vector::tmp_add_type_100 tmp_add_func_100(){return 0;};
  namespace mlir{namespace vector{namespace detail{typedef int tmp_add_type_101;}}}
  mlir::vector::detail::tmp_add_type_101 tmp_add_func_101(){return 0;};
  namespace mlir{namespace x86vector{typedef int tmp_add_type_102;}}
  mlir::x86vector::tmp_add_type_102 tmp_add_func_102(){return 0;};
  namespace mlir{namespace x86vector{namespace detail{typedef int tmp_add_type_103;}}}
  mlir::x86vector::detail::tmp_add_type_103 tmp_add_func_103(){return 0;};
  namespace llvm{namespace adl_detail{typedef int tmp_add_type_104;}}
  llvm::adl_detail::tmp_add_type_104 tmp_add_func_104(){return 0;};
  namespace llvm{namespace bitfields_details{typedef int tmp_add_type_105;}}
  llvm::bitfields_details::tmp_add_type_105 tmp_add_func_105(){return 0;};
  namespace llvm{namespace callable_detail{typedef int tmp_add_type_106;}}
  llvm::callable_detail::tmp_add_type_106 tmp_add_func_106(){return 0;};
  namespace llvm{namespace ilist_detail{typedef int tmp_add_type_107;}}
  llvm::ilist_detail::tmp_add_type_107 tmp_add_func_107(){return 0;};
  namespace llvm{namespace pointer_union_detail{typedef int tmp_add_type_108;}}
  llvm::pointer_union_detail::tmp_add_type_108 tmp_add_func_108(){return 0;};
  namespace llvm{namespace trailing_objects_internal{typedef int tmp_add_type_109;}}
  llvm::trailing_objects_internal::tmp_add_type_109 tmp_add_func_109(){return 0;};
  namespace mlir{namespace arm_neon{typedef int tmp_add_type_110;}}
  mlir::arm_neon::tmp_add_type_110 tmp_add_func_110(){return 0;};
  namespace mlir{namespace arm_neon{namespace detail{typedef int tmp_add_type_111;}}}
  mlir::arm_neon::detail::tmp_add_type_111 tmp_add_func_111(){return 0;};
  namespace mlir{namespace arm_sve{typedef int tmp_add_type_112;}}
  mlir::arm_sve::tmp_add_type_112 tmp_add_func_112(){return 0;};
  namespace mlir{namespace arm_sve{namespace detail{typedef int tmp_add_type_113;}}}
  mlir::arm_sve::detail::tmp_add_type_113 tmp_add_func_113(){return 0;};
  namespace mlir{namespace bufferization{namespace func_ext{typedef int tmp_add_type_114;}}}
  mlir::bufferization::func_ext::tmp_add_type_114 tmp_add_func_114(){return 0;};
  namespace mlir{namespace detail{namespace pdl_function_builder{typedef int tmp_add_type_115;}}}
  mlir::detail::pdl_function_builder::tmp_add_type_115 tmp_add_func_115(){return 0;};
  namespace mlir{namespace detail{namespace storage_user_base_impl{typedef int tmp_add_type_116;}}}
  mlir::detail::storage_user_base_impl::tmp_add_type_116 tmp_add_func_116(){return 0;};
  namespace mlir{namespace function_interface_impl{typedef int tmp_add_type_117;}}
  mlir::function_interface_impl::tmp_add_type_117 tmp_add_func_117(){return 0;};
  namespace mlir{namespace ml_program{typedef int tmp_add_type_118;}}
  mlir::ml_program::tmp_add_type_118 tmp_add_func_118(){return 0;};
  namespace mlir{namespace ml_program{namespace detail{typedef int tmp_add_type_119;}}}
  mlir::ml_program::detail::tmp_add_type_119 tmp_add_func_119(){return 0;};
  namespace mlir{namespace op_definition_impl{typedef int tmp_add_type_120;}}
  mlir::op_definition_impl::tmp_add_type_120 tmp_add_func_120(){return 0;};
  namespace mlir{namespace pdl_interp{typedef int tmp_add_type_121;}}
  mlir::pdl_interp::tmp_add_type_121 tmp_add_func_121(){return 0;};
  namespace mlir{namespace pdl_interp{namespace detail{typedef int tmp_add_type_122;}}}
  mlir::pdl_interp::detail::tmp_add_type_122 tmp_add_func_122(){return 0;};
  namespace mlir{namespace sparse_tensor{typedef int tmp_add_type_123;}}
  mlir::sparse_tensor::tmp_add_type_123 tmp_add_func_123(){return 0;};
  namespace mlir{namespace sparse_tensor{namespace detail{typedef int tmp_add_type_124;}}}
  mlir::sparse_tensor::detail::tmp_add_type_124 tmp_add_func_124(){return 0;};

  // add classes
  _G_fpos64_t* tmp_add_class_0;
  _G_fpos_t* tmp_add_class_1;
  _IO_cookie_io_functions_t* tmp_add_class_2;

The GCC parameters:
  gcc -fdump-lang-raw -fkeep-inline-functions -c -x c++ -fpermissive -w "/tmp/s_07g51Z5q/dump1.h"  -I/usr/include/llvm-c-16 -I/usr/include/llvm-16 -I/usr/lib/llvm-16/include

Creating library ABI dump ...
