Temporary header file '/tmp/LNqPZupYth/dump1.h' with the following content will be compiled to create GCC translation unit dump:

  // add defines
  #define __STDC_VERSION__ 201710L
#define _GXX_NULLPTR_T
#define CLUTTER_ENABLE_COMPOSITOR_API 1
#define _REGEX_NELTS(n)
#define _Atomic
#define PACKED
#ifdef __cplusplus
// C17 compat layer
#define _Alignof(type) alignof(type)
#endif
#define getaddrinfo_a(a,b,c,d)

  // add includes
  #include "/usr/include/pqmarble.h"

  // add classes
  _GActionEntry* tmp_add_class_0;
  _GActionGroupInterface* tmp_add_class_1;
  _GActionInterface* tmp_add_class_2;
  _GActionMapInterface* tmp_add_class_3;
  _GAppInfoIface* tmp_add_class_4;
  _GAppLaunchContext* tmp_add_class_5;
  _GAppLaunchContextClass* tmp_add_class_6;
  _GApplication* tmp_add_class_7;
  _GApplicationClass* tmp_add_class_8;
  _GApplicationCommandLine* tmp_add_class_9;
  _GApplicationCommandLineClass* tmp_add_class_10;
  _GArray* tmp_add_class_11;
  _GAsyncInitableIface* tmp_add_class_12;
  _GAsyncResultIface* tmp_add_class_13;
  _GBufferedInputStream* tmp_add_class_14;
  _GBufferedInputStreamClass* tmp_add_class_15;
  _GBufferedOutputStream* tmp_add_class_16;
  _GBufferedOutputStreamClass* tmp_add_class_17;
  _GByteArray* tmp_add_class_18;
  _GCClosure* tmp_add_class_19;
  _GCancellable* tmp_add_class_20;
  _GCancellableClass* tmp_add_class_21;
  _GCharsetConverterClass* tmp_add_class_22;
  _GClosure* tmp_add_class_23;
  _GClosureNotifyData* tmp_add_class_24;
  _GCompletion* tmp_add_class_25;
  _GCond* tmp_add_class_26;
  _GConverterIface* tmp_add_class_27;
  _GConverterInputStream* tmp_add_class_28;
  _GConverterInputStreamClass* tmp_add_class_29;
  _GConverterOutputStream* tmp_add_class_30;
  _GConverterOutputStreamClass* tmp_add_class_31;
  _GDBusAnnotationInfo* tmp_add_class_32;
  _GDBusArgInfo* tmp_add_class_33;
  _GDBusErrorEntry* tmp_add_class_34;
  _GDBusInterfaceIface* tmp_add_class_35;
  _GDBusInterfaceInfo* tmp_add_class_36;
  _GDBusInterfaceSkeleton* tmp_add_class_37;
  _GDBusInterfaceSkeletonClass* tmp_add_class_38;
  _GDBusInterfaceVTable* tmp_add_class_39;
  _GDBusMethodInfo* tmp_add_class_40;
  _GDBusNodeInfo* tmp_add_class_41;
  _GDBusObjectIface* tmp_add_class_42;
  _GDBusObjectManagerClient* tmp_add_class_43;
  _GDBusObjectManagerClientClass* tmp_add_class_44;
  _GDBusObjectManagerIface* tmp_add_class_45;
  _GDBusObjectManagerServer* tmp_add_class_46;
  _GDBusObjectManagerServerClass* tmp_add_class_47;
  _GDBusObjectProxy* tmp_add_class_48;
  _GDBusObjectProxyClass* tmp_add_class_49;
  _GDBusObjectSkeleton* tmp_add_class_50;
  _GDBusObjectSkeletonClass* tmp_add_class_51;
  _GDBusPropertyInfo* tmp_add_class_52;
  _GDBusProxy* tmp_add_class_53;
  _GDBusProxyClass* tmp_add_class_54;
  _GDBusSignalInfo* tmp_add_class_55;
  _GDBusSubtreeVTable* tmp_add_class_56;
  _GDataInputStream* tmp_add_class_57;
  _GDataInputStreamClass* tmp_add_class_58;
  _GDataOutputStream* tmp_add_class_59;
  _GDataOutputStreamClass* tmp_add_class_60;
  _GDatagramBasedInterface* tmp_add_class_61;
  _GDate* tmp_add_class_62;
  _GDebugControllerDBus* tmp_add_class_63;
  _GDebugControllerDBusClass* tmp_add_class_64;
  _GDebugControllerInterface* tmp_add_class_65;
  _GDebugKey* tmp_add_class_66;
  _GDoubleIEEE754* tmp_add_class_67;
  _GDriveIface* tmp_add_class_68;
  _GDtlsClientConnectionInterface* tmp_add_class_69;
  _GDtlsConnectionInterface* tmp_add_class_70;
  _GDtlsServerConnectionInterface* tmp_add_class_71;
  _GEmblemedIcon* tmp_add_class_72;
  _GEmblemedIconClass* tmp_add_class_73;
  _GEnumClass* tmp_add_class_74;
  _GEnumValue* tmp_add_class_75;
  _GError* tmp_add_class_76;
  _GFileAttributeInfo* tmp_add_class_77;
  _GFileAttributeInfoList* tmp_add_class_78;
  _GFileEnumerator* tmp_add_class_79;
  _GFileEnumeratorClass* tmp_add_class_80;
  _GFileIOStream* tmp_add_class_81;
  _GFileIOStreamClass* tmp_add_class_82;
  _GFileIface* tmp_add_class_83;
  _GFileInputStream* tmp_add_class_84;
  _GFileInputStreamClass* tmp_add_class_85;
  _GFileMonitor* tmp_add_class_86;
  _GFileMonitorClass* tmp_add_class_87;
  _GFileOutputStream* tmp_add_class_88;
  _GFileOutputStreamClass* tmp_add_class_89;
  _GFilenameCompleterClass* tmp_add_class_90;
  _GFilterInputStream* tmp_add_class_91;
  _GFilterInputStreamClass* tmp_add_class_92;
  _GFilterOutputStream* tmp_add_class_93;
  _GFilterOutputStreamClass* tmp_add_class_94;
  _GFlagsClass* tmp_add_class_95;
  _GFlagsValue* tmp_add_class_96;
  _GFloatIEEE754* tmp_add_class_97;
  _GHashTableIter* tmp_add_class_98;
  _GHook* tmp_add_class_99;
  _GHookList* tmp_add_class_100;
  _GIOChannel* tmp_add_class_101;
  _GIOFuncs* tmp_add_class_102;
  _GIOStream* tmp_add_class_103;
  _GIOStreamClass* tmp_add_class_104;
  _GIconIface* tmp_add_class_105;
  _GInetAddress* tmp_add_class_106;
  _GInetAddressClass* tmp_add_class_107;
  _GInetAddressMask* tmp_add_class_108;
  _GInetAddressMaskClass* tmp_add_class_109;
  _GInetSocketAddress* tmp_add_class_110;
  _GInetSocketAddressClass* tmp_add_class_111;
  _GInitableIface* tmp_add_class_112;
  _GInputMessage* tmp_add_class_113;
  _GInputStream* tmp_add_class_114;
  _GInputStreamClass* tmp_add_class_115;
  _GInputVector* tmp_add_class_116;
  _GInterfaceInfo* tmp_add_class_117;
  _GList* tmp_add_class_118;
  _GListModelInterface* tmp_add_class_119;
  _GLoadableIconIface* tmp_add_class_120;
  _GLogField* tmp_add_class_121;
  _GMarkupParser* tmp_add_class_122;
  _GMemVTable* tmp_add_class_123;
  _GMemoryInputStream* tmp_add_class_124;
  _GMemoryInputStreamClass* tmp_add_class_125;
  _GMemoryMonitorInterface* tmp_add_class_126;
  _GMemoryOutputStream* tmp_add_class_127;
  _GMemoryOutputStreamClass* tmp_add_class_128;
  _GMenuAttributeIter* tmp_add_class_129;
  _GMenuAttributeIterClass* tmp_add_class_130;
  _GMenuLinkIter* tmp_add_class_131;
  _GMenuLinkIterClass* tmp_add_class_132;
  _GMenuModel* tmp_add_class_133;
  _GMenuModelClass* tmp_add_class_134;
  _GMountIface* tmp_add_class_135;
  _GMountOperation* tmp_add_class_136;
  _GMountOperationClass* tmp_add_class_137;
  _GMutex* tmp_add_class_138;
  _GNativeSocketAddress* tmp_add_class_139;
  _GNativeSocketAddressClass* tmp_add_class_140;
  _GNativeVolumeMonitor* tmp_add_class_141;
  _GNativeVolumeMonitorClass* tmp_add_class_142;
  _GNetworkAddress* tmp_add_class_143;
  _GNetworkAddressClass* tmp_add_class_144;
  _GNetworkMonitorInterface* tmp_add_class_145;
  _GNetworkService* tmp_add_class_146;
  _GNetworkServiceClass* tmp_add_class_147;
  _GNode* tmp_add_class_148;
  _GObject* tmp_add_class_149;
  _GObjectClass* tmp_add_class_150;
  _GObjectConstructParam* tmp_add_class_151;
  _GOnce* tmp_add_class_152;
  _GOptionEntry* tmp_add_class_153;
  _GOutputMessage* tmp_add_class_154;
  _GOutputStream* tmp_add_class_155;
  _GOutputStreamClass* tmp_add_class_156;
  _GOutputVector* tmp_add_class_157;
  _GParamSpec* tmp_add_class_158;
  _GParamSpecBoolean* tmp_add_class_159;
  _GParamSpecBoxed* tmp_add_class_160;
  _GParamSpecChar* tmp_add_class_161;
  _GParamSpecClass* tmp_add_class_162;
  _GParamSpecDouble* tmp_add_class_163;
  _GParamSpecEnum* tmp_add_class_164;
  _GParamSpecFlags* tmp_add_class_165;
  _GParamSpecFloat* tmp_add_class_166;
  _GParamSpecGType* tmp_add_class_167;
  _GParamSpecInt* tmp_add_class_168;
  _GParamSpecInt64* tmp_add_class_169;
  _GParamSpecLong* tmp_add_class_170;
  _GParamSpecObject* tmp_add_class_171;
  _GParamSpecOverride* tmp_add_class_172;
  _GParamSpecParam* tmp_add_class_173;
  _GParamSpecPointer* tmp_add_class_174;
  _GParamSpecString* tmp_add_class_175;
  _GParamSpecTypeInfo* tmp_add_class_176;
  _GParamSpecUChar* tmp_add_class_177;
  _GParamSpecUInt* tmp_add_class_178;
  _GParamSpecUInt64* tmp_add_class_179;
  _GParamSpecULong* tmp_add_class_180;
  _GParamSpecUnichar* tmp_add_class_181;
  _GParamSpecValueArray* tmp_add_class_182;
  _GParamSpecVariant* tmp_add_class_183;
  _GParameter* tmp_add_class_184;
  _GPathBuf* tmp_add_class_185;
  _GPermission* tmp_add_class_186;
  _GPermissionClass* tmp_add_class_187;
  _GPollFD* tmp_add_class_188;
  _GPollableInputStreamInterface* tmp_add_class_189;
  _GPollableOutputStreamInterface* tmp_add_class_190;
  _GPowerProfileMonitorInterface* tmp_add_class_191;
  _GPrivate* tmp_add_class_192;
  _GProxyAddress* tmp_add_class_193;
  _GProxyAddressClass* tmp_add_class_194;
  _GProxyAddressEnumerator* tmp_add_class_195;
  _GProxyAddressEnumeratorClass* tmp_add_class_196;
  _GProxyInterface* tmp_add_class_197;
  _GProxyResolverInterface* tmp_add_class_198;
  _GPtrArray* tmp_add_class_199;
  _GQueue* tmp_add_class_200;
  _GRWLock* tmp_add_class_201;
  _GRecMutex* tmp_add_class_202;
  _GRemoteActionGroupInterface* tmp_add_class_203;
  _GResolver* tmp_add_class_204;
  _GResolverClass* tmp_add_class_205;
  _GSList* tmp_add_class_206;
  _GScanner* tmp_add_class_207;
  _GScannerConfig* tmp_add_class_208;
  _GSeekableIface* tmp_add_class_209;
  _GSettings* tmp_add_class_210;
  _GSettingsClass* tmp_add_class_211;
  _GSignalInvocationHint* tmp_add_class_212;
  _GSignalQuery* tmp_add_class_213;
  _GSimpleActionGroup* tmp_add_class_214;
  _GSimpleActionGroupClass* tmp_add_class_215;
  _GSimpleProxyResolver* tmp_add_class_216;
  _GSimpleProxyResolverClass* tmp_add_class_217;
  _GSocket* tmp_add_class_218;
  _GSocketAddress* tmp_add_class_219;
  _GSocketAddressClass* tmp_add_class_220;
  _GSocketAddressEnumerator* tmp_add_class_221;
  _GSocketAddressEnumeratorClass* tmp_add_class_222;
  _GSocketClass* tmp_add_class_223;
  _GSocketClient* tmp_add_class_224;
  _GSocketClientClass* tmp_add_class_225;
  _GSocketConnectableIface* tmp_add_class_226;
  _GSocketConnection* tmp_add_class_227;
  _GSocketConnectionClass* tmp_add_class_228;
  _GSocketControlMessage* tmp_add_class_229;
  _GSocketControlMessageClass* tmp_add_class_230;
  _GSocketListener* tmp_add_class_231;
  _GSocketListenerClass* tmp_add_class_232;
  _GSocketService* tmp_add_class_233;
  _GSocketServiceClass* tmp_add_class_234;
  _GSource* tmp_add_class_235;
  _GSourceCallbackFuncs* tmp_add_class_236;
  _GSourceFuncs* tmp_add_class_237;
  _GStaticPrivate* tmp_add_class_238;
  _GStaticRWLock* tmp_add_class_239;
  _GStaticRecMutex* tmp_add_class_240;
  _GStaticResource* tmp_add_class_241;
  _GString* tmp_add_class_242;
  _GTcpConnection* tmp_add_class_243;
  _GTcpConnectionClass* tmp_add_class_244;
  _GTcpWrapperConnection* tmp_add_class_245;
  _GTcpWrapperConnectionClass* tmp_add_class_246;
  _GThread* tmp_add_class_247;
  _GThreadFunctions* tmp_add_class_248;
  _GThreadPool* tmp_add_class_249;
  _GThreadedSocketService* tmp_add_class_250;
  _GThreadedSocketServiceClass* tmp_add_class_251;
  _GTimeVal* tmp_add_class_252;
  _GTlsBackendInterface* tmp_add_class_253;
  _GTlsCertificate* tmp_add_class_254;
  _GTlsCertificateClass* tmp_add_class_255;
  _GTlsClientConnectionInterface* tmp_add_class_256;
  _GTlsConnection* tmp_add_class_257;
  _GTlsConnectionClass* tmp_add_class_258;
  _GTlsDatabase* tmp_add_class_259;
  _GTlsDatabaseClass* tmp_add_class_260;
  _GTlsFileDatabaseInterface* tmp_add_class_261;
  _GTlsInteraction* tmp_add_class_262;
  _GTlsInteractionClass* tmp_add_class_263;
  _GTlsPassword* tmp_add_class_264;
  _GTlsPasswordClass* tmp_add_class_265;
  _GTlsServerConnectionInterface* tmp_add_class_266;
  _GTokenValue* tmp_add_class_267;
  _GTrashStack* tmp_add_class_268;
  _GTuples* tmp_add_class_269;
  _GTypeClass* tmp_add_class_270;
  _GTypeFundamentalInfo* tmp_add_class_271;
  _GTypeInfo* tmp_add_class_272;
  _GTypeInstance* tmp_add_class_273;
  _GTypeInterface* tmp_add_class_274;
  _GTypeModule* tmp_add_class_275;
  _GTypeModuleClass* tmp_add_class_276;
  _GTypePluginClass* tmp_add_class_277;
  _GTypeQuery* tmp_add_class_278;
  _GTypeValueTable* tmp_add_class_279;
  _GUnixConnection* tmp_add_class_280;
  _GUnixConnectionClass* tmp_add_class_281;
  _GUnixCredentialsMessage* tmp_add_class_282;
  _GUnixCredentialsMessageClass* tmp_add_class_283;
  _GUnixFDList* tmp_add_class_284;
  _GUnixFDListClass* tmp_add_class_285;
  _GUnixSocketAddress* tmp_add_class_286;
  _GUnixSocketAddressClass* tmp_add_class_287;
  _GUriParamsIter* tmp_add_class_288;
  _GValue* tmp_add_class_289;
  _GValueArray* tmp_add_class_290;
  _GVariantBuilder* tmp_add_class_291;
  _GVariantDict* tmp_add_class_292;
  _GVariantIter* tmp_add_class_293;
  _GVfs* tmp_add_class_294;
  _GVfsClass* tmp_add_class_295;
  _GVolumeIface* tmp_add_class_296;
  _GVolumeMonitor* tmp_add_class_297;
  _GVolumeMonitorClass* tmp_add_class_298;
  _GZlibCompressorClass* tmp_add_class_299;
  _GZlibDecompressorClass* tmp_add_class_300;
  _G_fpos64_t* tmp_add_class_301;
  _G_fpos_t* tmp_add_class_302;
  _GdkContentProvider* tmp_add_class_303;
  _GdkContentProviderClass* tmp_add_class_304;
  _GdkKeymapKey* tmp_add_class_305;
  _GdkPaintableInterface* tmp_add_class_306;
  _GdkPixbufLoader* tmp_add_class_307;
  _GdkPixbufLoaderClass* tmp_add_class_308;
  _GdkRGBA* tmp_add_class_309;
  _GdkSeat* tmp_add_class_310;
  _GdkTimeCoord* tmp_add_class_311;
  _GskColorStop* tmp_add_class_312;
  _GskParseLocation* tmp_add_class_313;
  _GskRoundedRect* tmp_add_class_314;
  _GskShadow* tmp_add_class_315;
  _GtkAccessibleInterface* tmp_add_class_316;
  _GtkAccessibleRangeInterface* tmp_add_class_317;
  _GtkActionableInterface* tmp_add_class_318;
  _GtkAdjustment* tmp_add_class_319;
  _GtkAdjustmentClass* tmp_add_class_320;
  _GtkApplication* tmp_add_class_321;
  _GtkApplicationClass* tmp_add_class_322;
  _GtkApplicationWindow* tmp_add_class_323;
  _GtkApplicationWindowClass* tmp_add_class_324;
  _GtkBitsetIter* tmp_add_class_325;
  _GtkBorder* tmp_add_class_326;
  _GtkBox* tmp_add_class_327;
  _GtkBoxClass* tmp_add_class_328;
  _GtkBuildableIface* tmp_add_class_329;
  _GtkBuildableParser* tmp_add_class_330;
  _GtkBuilderCScope* tmp_add_class_331;
  _GtkBuilderCScopeClass* tmp_add_class_332;
  _GtkBuilderScopeInterface* tmp_add_class_333;
  _GtkButton* tmp_add_class_334;
  _GtkButtonClass* tmp_add_class_335;
  _GtkCellArea* tmp_add_class_336;
  _GtkCellAreaClass* tmp_add_class_337;
  _GtkCellAreaContext* tmp_add_class_338;
  _GtkCellAreaContextClass* tmp_add_class_339;
  _GtkCellEditableIface* tmp_add_class_340;
  _GtkCellLayoutIface* tmp_add_class_341;
  _GtkCellRenderer* tmp_add_class_342;
  _GtkCellRendererClass* tmp_add_class_343;
  _GtkCellRendererText* tmp_add_class_344;
  _GtkCellRendererTextClass* tmp_add_class_345;
  _GtkCheckButton* tmp_add_class_346;
  _GtkCheckButtonClass* tmp_add_class_347;
  _GtkColorChooserInterface* tmp_add_class_348;
  _GtkComboBox* tmp_add_class_349;
  _GtkComboBoxClass* tmp_add_class_350;
  _GtkCssLocation* tmp_add_class_351;
  _GtkCssProvider* tmp_add_class_352;
  _GtkDialog* tmp_add_class_353;
  _GtkDialogClass* tmp_add_class_354;
  _GtkDrawingArea* tmp_add_class_355;
  _GtkDrawingAreaClass* tmp_add_class_356;
  _GtkEditableInterface* tmp_add_class_357;
  _GtkEntry* tmp_add_class_358;
  _GtkEntryBuffer* tmp_add_class_359;
  _GtkEntryBufferClass* tmp_add_class_360;
  _GtkEntryClass* tmp_add_class_361;
  _GtkFilter* tmp_add_class_362;
  _GtkFilterClass* tmp_add_class_363;
  _GtkFixed* tmp_add_class_364;
  _GtkFixedClass* tmp_add_class_365;
  _GtkFlowBoxChild* tmp_add_class_366;
  _GtkFlowBoxChildClass* tmp_add_class_367;
  _GtkFontChooserIface* tmp_add_class_368;
  _GtkFrame* tmp_add_class_369;
  _GtkFrameClass* tmp_add_class_370;
  _GtkGLArea* tmp_add_class_371;
  _GtkGLAreaClass* tmp_add_class_372;
  _GtkGrid* tmp_add_class_373;
  _GtkGridClass* tmp_add_class_374;
  _GtkIMContext* tmp_add_class_375;
  _GtkIMContextClass* tmp_add_class_376;
  _GtkIMContextSimple* tmp_add_class_377;
  _GtkIMContextSimpleClass* tmp_add_class_378;
  _GtkIMMulticontext* tmp_add_class_379;
  _GtkIMMulticontextClass* tmp_add_class_380;
  _GtkLayoutChild* tmp_add_class_381;
  _GtkLayoutChildClass* tmp_add_class_382;
  _GtkLayoutManager* tmp_add_class_383;
  _GtkLayoutManagerClass* tmp_add_class_384;
  _GtkListBoxRow* tmp_add_class_385;
  _GtkListBoxRowClass* tmp_add_class_386;
  _GtkListStore* tmp_add_class_387;
  _GtkListStoreClass* tmp_add_class_388;
  _GtkMediaFile* tmp_add_class_389;
  _GtkMediaFileClass* tmp_add_class_390;
  _GtkMediaStream* tmp_add_class_391;
  _GtkMediaStreamClass* tmp_add_class_392;
  _GtkMessageDialog* tmp_add_class_393;
  _GtkMountOperation* tmp_add_class_394;
  _GtkMountOperationClass* tmp_add_class_395;
  _GtkNativeDialog* tmp_add_class_396;
  _GtkNativeDialogClass* tmp_add_class_397;
  _GtkOrientableIface* tmp_add_class_398;
  _GtkPadActionEntry* tmp_add_class_399;
  _GtkPageRange* tmp_add_class_400;
  _GtkPopover* tmp_add_class_401;
  _GtkPopoverClass* tmp_add_class_402;
  _GtkPrintOperation* tmp_add_class_403;
  _GtkPrintOperationClass* tmp_add_class_404;
  _GtkPrintOperationPreviewIface* tmp_add_class_405;
  _GtkRange* tmp_add_class_406;
  _GtkRangeClass* tmp_add_class_407;
  _GtkRecentData* tmp_add_class_408;
  _GtkRecentManager* tmp_add_class_409;
  _GtkRecentManagerClass* tmp_add_class_410;
  _GtkRequestedSize* tmp_add_class_411;
  _GtkRequisition* tmp_add_class_412;
  _GtkScale* tmp_add_class_413;
  _GtkScaleButton* tmp_add_class_414;
  _GtkScaleButtonClass* tmp_add_class_415;
  _GtkScaleClass* tmp_add_class_416;
  _GtkScrollableInterface* tmp_add_class_417;
  _GtkSectionModelInterface* tmp_add_class_418;
  _GtkSelectionModelInterface* tmp_add_class_419;
  _GtkShortcutManagerInterface* tmp_add_class_420;
  _GtkSizeGroup* tmp_add_class_421;
  _GtkSorter* tmp_add_class_422;
  _GtkSorterClass* tmp_add_class_423;
  _GtkStyleContext* tmp_add_class_424;
  _GtkStyleContextClass* tmp_add_class_425;
  _GtkSymbolicPaintableInterface* tmp_add_class_426;
  _GtkText* tmp_add_class_427;
  _GtkTextBuffer* tmp_add_class_428;
  _GtkTextBufferClass* tmp_add_class_429;
  _GtkTextChildAnchor* tmp_add_class_430;
  _GtkTextChildAnchorClass* tmp_add_class_431;
  _GtkTextIter* tmp_add_class_432;
  _GtkTextMark* tmp_add_class_433;
  _GtkTextMarkClass* tmp_add_class_434;
  _GtkTextTag* tmp_add_class_435;
  _GtkTextTagClass* tmp_add_class_436;
  _GtkTextView* tmp_add_class_437;
  _GtkTextViewClass* tmp_add_class_438;
  _GtkToggleButton* tmp_add_class_439;
  _GtkToggleButtonClass* tmp_add_class_440;
  _GtkTreeDragDestIface* tmp_add_class_441;
  _GtkTreeDragSourceIface* tmp_add_class_442;
  _GtkTreeIter* tmp_add_class_443;
  _GtkTreeModelFilter* tmp_add_class_444;
  _GtkTreeModelFilterClass* tmp_add_class_445;
  _GtkTreeModelIface* tmp_add_class_446;
  _GtkTreeModelSort* tmp_add_class_447;
  _GtkTreeModelSortClass* tmp_add_class_448;
  _GtkTreeSortableIface* tmp_add_class_449;
  _GtkTreeStore* tmp_add_class_450;
  _GtkTreeStoreClass* tmp_add_class_451;
  _GtkTreeView* tmp_add_class_452;
  _GtkTreeViewClass* tmp_add_class_453;
  _GtkVolumeButton* tmp_add_class_454;
  _GtkWidget* tmp_add_class_455;
  _GtkWidgetClass* tmp_add_class_456;
  _GtkWindow* tmp_add_class_457;
  _GtkWindowClass* tmp_add_class_458;
  _GtkWindowGroup* tmp_add_class_459;
  _GtkWindowGroupClass* tmp_add_class_460;
  _IO_cookie_io_functions_t* tmp_add_class_461;
  _PQMarbleSettings* tmp_add_class_462;
  _PQMarbleSettingsClass* tmp_add_class_463;
  _PangoAnalysis* tmp_add_class_464;
  _PangoAttrClass* tmp_add_class_465;
  _PangoAttrColor* tmp_add_class_466;
  _PangoAttrFloat* tmp_add_class_467;
  _PangoAttrFontDesc* tmp_add_class_468;
  _PangoAttrFontFeatures* tmp_add_class_469;
  _PangoAttrInt* tmp_add_class_470;
  _PangoAttrLanguage* tmp_add_class_471;
  _PangoAttrShape* tmp_add_class_472;
  _PangoAttrSize* tmp_add_class_473;
  _PangoAttrString* tmp_add_class_474;
  _PangoAttribute* tmp_add_class_475;
  _PangoColor* tmp_add_class_476;
  _PangoEngine* tmp_add_class_477;
  _PangoEngineClass* tmp_add_class_478;
  _PangoEngineInfo* tmp_add_class_479;
  _PangoEngineLang* tmp_add_class_480;
  _PangoEngineLangClass* tmp_add_class_481;
  _PangoEngineScriptInfo* tmp_add_class_482;
  _PangoEngineShape* tmp_add_class_483;
  _PangoEngineShapeClass* tmp_add_class_484;
  _PangoFont* tmp_add_class_485;
  _PangoFontClass* tmp_add_class_486;
  _PangoFontFace* tmp_add_class_487;
  _PangoFontFaceClass* tmp_add_class_488;
  _PangoFontFamily* tmp_add_class_489;
  _PangoFontFamilyClass* tmp_add_class_490;
  _PangoFontMap* tmp_add_class_491;
  _PangoFontMapClass* tmp_add_class_492;
  _PangoFontMetrics* tmp_add_class_493;
  _PangoFontset* tmp_add_class_494;
  _PangoFontsetClass* tmp_add_class_495;
  _PangoGlyphGeometry* tmp_add_class_496;
  _PangoGlyphInfo* tmp_add_class_497;
  _PangoGlyphItem* tmp_add_class_498;
  _PangoGlyphItemIter* tmp_add_class_499;
  _PangoGlyphString* tmp_add_class_500;
  _PangoGlyphVisAttr* tmp_add_class_501;
  _PangoItem* tmp_add_class_502;
  _PangoLayoutLine* tmp_add_class_503;
  _PangoLogAttr* tmp_add_class_504;
  _PangoMatrix* tmp_add_class_505;
  _PangoRectangle* tmp_add_class_506;
  _PangoRenderer* tmp_add_class_507;
  _PangoRendererClass* tmp_add_class_508;
  _cairo_matrix* tmp_add_class_509;
  _cairo_path_data_t* tmp_add_class_510;
  _cairo_rectangle* tmp_add_class_511;
  _cairo_rectangle_int* tmp_add_class_512;
  _cairo_rectangle_list* tmp_add_class_513;
  _cairo_user_data_key* tmp_add_class_514;
  _graphene_box_t* tmp_add_class_515;
  _graphene_euler_t* tmp_add_class_516;
  _graphene_frustum_t* tmp_add_class_517;
  _graphene_matrix_t* tmp_add_class_518;
  _graphene_plane_t* tmp_add_class_519;
  _graphene_point3d_t* tmp_add_class_520;
  _graphene_point_t* tmp_add_class_521;
  _graphene_quad_t* tmp_add_class_522;
  _graphene_quaternion_t* tmp_add_class_523;
  _graphene_ray_t* tmp_add_class_524;
  _graphene_rect_t* tmp_add_class_525;
  _graphene_size_t* tmp_add_class_526;
  _graphene_sphere_t* tmp_add_class_527;
  _graphene_triangle_t* tmp_add_class_528;
  _graphene_vec2_t* tmp_add_class_529;
  _graphene_vec3_t* tmp_add_class_530;
  _graphene_vec4_t* tmp_add_class_531;
  _hb_var_int_t* tmp_add_class_532;
  _hb_var_num_t* tmp_add_class_533;
  cairo_path* tmp_add_class_534;
  hb_color_line_t* tmp_add_class_535;
  hb_draw_state_t* tmp_add_class_536;
  hb_feature_t* tmp_add_class_537;
  hb_font_extents_t* tmp_add_class_538;
  hb_glyph_extents_t* tmp_add_class_539;
  hb_glyph_info_t* tmp_add_class_540;
  hb_glyph_position_t* tmp_add_class_541;
  hb_segment_properties_t* tmp_add_class_542;
  hb_user_data_key_t* tmp_add_class_543;
  hb_variation_t* tmp_add_class_544;
  ucontext_t* tmp_add_class_545;

The GCC parameters:
  gcc -fdump-lang-raw -fkeep-inline-functions -c -x c++ -fpermissive -w "/tmp/LNqPZupYth/dump1.h"  -I/usr/include/pango-1.0 -I/usr/include/harfbuzz -I/usr/include/gtk-4.0 -I/usr/include/graphene-1.0 -I/usr/include/glib-2.0 -I/usr/include/gdk-pixbuf-2.0 -I/usr/include/cairo -I/lib/arm-linux-gnueabihf/graphene-1.0/include -I/lib/arm-linux-gnueabihf/glib-2.0/include

