[2024-01-07T10:03:01+00:00] apt-get install libglobus-authz-dev abi-compliance-checker
Reading package lists...
Building dependency tree...
Reading state information...
abi-compliance-checker is already the newest version (2.3-2).
The following additional packages will be installed:
  libglobus-authz0 libglobus-callout-dev libglobus-callout0
  libglobus-gsi-callback-dev libglobus-gsi-callback0
  libglobus-gsi-cert-utils-dev libglobus-gsi-cert-utils0
  libglobus-gsi-credential-dev libglobus-gsi-credential1
  libglobus-gsi-openssl-error-dev libglobus-gsi-openssl-error0
  libglobus-gsi-proxy-core-dev libglobus-gsi-proxy-core0
  libglobus-gsi-proxy-ssl-dev libglobus-gsi-proxy-ssl1
  libglobus-gsi-sysconfig-dev libglobus-gsi-sysconfig1
  libglobus-gssapi-gsi-dev libglobus-gssapi-gsi4 libglobus-openssl-module-dev
  libglobus-openssl-module0 libssl-dev
Suggested packages:
  libglobus-authz-doc libglobus-callout-doc libglobus-gsi-callback-doc
  libglobus-gsi-cert-utils-doc libglobus-gsi-credential-doc
  libglobus-gsi-openssl-error-doc libglobus-gsi-proxy-core-doc
  libglobus-gsi-proxy-ssl-doc libglobus-gsi-sysconfig-doc
  libglobus-gssapi-gsi-doc libglobus-openssl-module-doc libssl-doc
The following NEW packages will be installed:
  libglobus-authz-dev libglobus-authz0 libglobus-callout-dev
  libglobus-callout0 libglobus-gsi-callback-dev libglobus-gsi-callback0
  libglobus-gsi-cert-utils-dev libglobus-gsi-cert-utils0
  libglobus-gsi-credential-dev libglobus-gsi-credential1
  libglobus-gsi-openssl-error-dev libglobus-gsi-openssl-error0
  libglobus-gsi-proxy-core-dev libglobus-gsi-proxy-core0
  libglobus-gsi-proxy-ssl-dev libglobus-gsi-proxy-ssl1
  libglobus-gsi-sysconfig-dev libglobus-gsi-sysconfig1
  libglobus-gssapi-gsi-dev libglobus-gssapi-gsi4 libglobus-openssl-module-dev
  libglobus-openssl-module0 libssl-dev
0 upgraded, 23 newly installed, 0 to remove and 40 not upgraded.
Need to get 2427 kB of archives.
After this operation, 9854 kB of additional disk space will be used.
Get:1 http://deb.debian.org/debian unstable/main armhf libglobus-callout0 armhf 4.3-2 [10.2 kB]
Get:2 http://deb.debian.org/debian unstable/main armhf libglobus-gsi-openssl-error0 armhf 4.4-2 [8740 B]
Get:3 http://deb.debian.org/debian unstable/main armhf libglobus-gsi-sysconfig1 armhf 9.5-2 [20.7 kB]
Get:4 http://deb.debian.org/debian unstable/main armhf libglobus-authz0 armhf 4.6-2 [8140 B]
Get:5 http://deb.debian.org/debian unstable/main armhf libglobus-callout-dev armhf 4.3-2 [6136 B]
Get:6 http://deb.debian.org/debian unstable/main armhf libglobus-gsi-proxy-ssl1 armhf 6.5-2 [8112 B]
Get:7 http://deb.debian.org/debian unstable/main armhf libglobus-openssl-module0 armhf 5.2-2 [6280 B]
Get:8 http://deb.debian.org/debian unstable/main armhf libglobus-gsi-cert-utils0 armhf 10.10-3 [9428 B]
Get:9 http://deb.debian.org/debian unstable/main armhf libglobus-gsi-callback0 armhf 6.2-2 [26.4 kB]
Get:10 http://deb.debian.org/debian unstable/main armhf libglobus-gsi-credential1 armhf 8.3-3 [23.7 kB]
Get:11 http://deb.debian.org/debian unstable/main armhf libglobus-gsi-proxy-core0 armhf 9.8-2 [26.0 kB]
Get:12 http://deb.debian.org/debian unstable/main armhf libglobus-gssapi-gsi4 armhf 14.20-2 [54.3 kB]
Get:13 http://deb.debian.org/debian unstable/main armhf libssl-dev armhf 3.1.4-2 [2149 kB]
Get:14 http://deb.debian.org/debian unstable/main armhf libglobus-gsi-proxy-ssl-dev armhf 6.5-2 [6776 B]
Get:15 http://deb.debian.org/debian unstable/main armhf libglobus-gsi-openssl-error-dev armhf 4.4-2 [5832 B]
Get:16 http://deb.debian.org/debian unstable/main armhf libglobus-openssl-module-dev armhf 5.2-2 [5024 B]
Get:17 http://deb.debian.org/debian unstable/main armhf libglobus-gsi-cert-utils-dev armhf 10.10-3 [5728 B]
Get:18 http://deb.debian.org/debian unstable/main armhf libglobus-gsi-sysconfig-dev armhf 9.5-2 [8308 B]
Get:19 http://deb.debian.org/debian unstable/main armhf libglobus-gsi-callback-dev armhf 6.2-2 [6800 B]
Get:20 http://deb.debian.org/debian unstable/main armhf libglobus-gsi-credential-dev armhf 8.3-3 [5860 B]
Get:21 http://deb.debian.org/debian unstable/main armhf libglobus-gsi-proxy-core-dev armhf 9.8-2 [7672 B]
Get:22 http://deb.debian.org/debian unstable/main armhf libglobus-gssapi-gsi-dev armhf 14.20-2 [13.1 kB]
Get:23 http://deb.debian.org/debian unstable/main armhf libglobus-authz-dev armhf 4.6-2 [4936 B]
debconf: delaying package configuration, since apt-utils is not installed
Fetched 2427 kB in 0s (5385 kB/s)
Selecting previously unselected package libglobus-callout0:armhf.
(Reading database ... (Reading database ... 5%(Reading database ... 10%(Reading database ... 15%(Reading database ... 20%(Reading database ... 25%(Reading database ... 30%(Reading database ... 35%(Reading database ... 40%(Reading database ... 45%(Reading database ... 50%(Reading database ... 55%(Reading database ... 60%(Reading database ... 65%(Reading database ... 70%(Reading database ... 75%(Reading database ... 80%(Reading database ... 85%(Reading database ... 90%(Reading database ... 95%(Reading database ... 100%(Reading database ... 14865 files and directories currently installed.)
Preparing to unpack .../00-libglobus-callout0_4.3-2_armhf.deb ...
Unpacking libglobus-callout0:armhf (4.3-2) ...
Selecting previously unselected package libglobus-gsi-openssl-error0:armhf.
Preparing to unpack .../01-libglobus-gsi-openssl-error0_4.4-2_armhf.deb ...
Unpacking libglobus-gsi-openssl-error0:armhf (4.4-2) ...
Selecting previously unselected package libglobus-gsi-sysconfig1:armhf.
Preparing to unpack .../02-libglobus-gsi-sysconfig1_9.5-2_armhf.deb ...
Unpacking libglobus-gsi-sysconfig1:armhf (9.5-2) ...
Selecting previously unselected package libglobus-authz0:armhf.
Preparing to unpack .../03-libglobus-authz0_4.6-2_armhf.deb ...
Unpacking libglobus-authz0:armhf (4.6-2) ...
Selecting previously unselected package libglobus-callout-dev:armhf.
Preparing to unpack .../04-libglobus-callout-dev_4.3-2_armhf.deb ...
Unpacking libglobus-callout-dev:armhf (4.3-2) ...
Selecting previously unselected package libglobus-gsi-proxy-ssl1:armhf.
Preparing to unpack .../05-libglobus-gsi-proxy-ssl1_6.5-2_armhf.deb ...
Unpacking libglobus-gsi-proxy-ssl1:armhf (6.5-2) ...
Selecting previously unselected package libglobus-openssl-module0:armhf.
Preparing to unpack .../06-libglobus-openssl-module0_5.2-2_armhf.deb ...
Unpacking libglobus-openssl-module0:armhf (5.2-2) ...
Selecting previously unselected package libglobus-gsi-cert-utils0:armhf.
Preparing to unpack .../07-libglobus-gsi-cert-utils0_10.10-3_armhf.deb ...
Unpacking libglobus-gsi-cert-utils0:armhf (10.10-3) ...
Selecting previously unselected package libglobus-gsi-callback0:armhf.
Preparing to unpack .../08-libglobus-gsi-callback0_6.2-2_armhf.deb ...
Unpacking libglobus-gsi-callback0:armhf (6.2-2) ...
Selecting previously unselected package libglobus-gsi-credential1:armhf.
Preparing to unpack .../09-libglobus-gsi-credential1_8.3-3_armhf.deb ...
Unpacking libglobus-gsi-credential1:armhf (8.3-3) ...
Selecting previously unselected package libglobus-gsi-proxy-core0:armhf.
Preparing to unpack .../10-libglobus-gsi-proxy-core0_9.8-2_armhf.deb ...
Unpacking libglobus-gsi-proxy-core0:armhf (9.8-2) ...
Selecting previously unselected package libglobus-gssapi-gsi4:armhf.
Preparing to unpack .../11-libglobus-gssapi-gsi4_14.20-2_armhf.deb ...
Unpacking libglobus-gssapi-gsi4:armhf (14.20-2) ...
Selecting previously unselected package libssl-dev:armhf.
Preparing to unpack .../12-libssl-dev_3.1.4-2_armhf.deb ...
Unpacking libssl-dev:armhf (3.1.4-2) ...
Selecting previously unselected package libglobus-gsi-proxy-ssl-dev:armhf.
Preparing to unpack .../13-libglobus-gsi-proxy-ssl-dev_6.5-2_armhf.deb ...
Unpacking libglobus-gsi-proxy-ssl-dev:armhf (6.5-2) ...
Selecting previously unselected package libglobus-gsi-openssl-error-dev:armhf.
Preparing to unpack .../14-libglobus-gsi-openssl-error-dev_4.4-2_armhf.deb ...
Unpacking libglobus-gsi-openssl-error-dev:armhf (4.4-2) ...
Selecting previously unselected package libglobus-openssl-module-dev:armhf.
Preparing to unpack .../15-libglobus-openssl-module-dev_5.2-2_armhf.deb ...
Unpacking libglobus-openssl-module-dev:armhf (5.2-2) ...
Selecting previously unselected package libglobus-gsi-cert-utils-dev:armhf.
Preparing to unpack .../16-libglobus-gsi-cert-utils-dev_10.10-3_armhf.deb ...
Unpacking libglobus-gsi-cert-utils-dev:armhf (10.10-3) ...
Selecting previously unselected package libglobus-gsi-sysconfig-dev:armhf.
Preparing to unpack .../17-libglobus-gsi-sysconfig-dev_9.5-2_armhf.deb ...
Unpacking libglobus-gsi-sysconfig-dev:armhf (9.5-2) ...
Selecting previously unselected package libglobus-gsi-callback-dev:armhf.
Preparing to unpack .../18-libglobus-gsi-callback-dev_6.2-2_armhf.deb ...
Unpacking libglobus-gsi-callback-dev:armhf (6.2-2) ...
Selecting previously unselected package libglobus-gsi-credential-dev:armhf.
Preparing to unpack .../19-libglobus-gsi-credential-dev_8.3-3_armhf.deb ...
Unpacking libglobus-gsi-credential-dev:armhf (8.3-3) ...
Selecting previously unselected package libglobus-gsi-proxy-core-dev:armhf.
Preparing to unpack .../20-libglobus-gsi-proxy-core-dev_9.8-2_armhf.deb ...
Unpacking libglobus-gsi-proxy-core-dev:armhf (9.8-2) ...
Selecting previously unselected package libglobus-gssapi-gsi-dev:armhf.
Preparing to unpack .../21-libglobus-gssapi-gsi-dev_14.20-2_armhf.deb ...
Unpacking libglobus-gssapi-gsi-dev:armhf (14.20-2) ...
Selecting previously unselected package libglobus-authz-dev:armhf.
Preparing to unpack .../22-libglobus-authz-dev_4.6-2_armhf.deb ...
Unpacking libglobus-authz-dev:armhf (4.6-2) ...
Setting up libglobus-callout0:armhf (4.3-2) ...
Setting up libssl-dev:armhf (3.1.4-2) ...
Setting up libglobus-gsi-openssl-error0:armhf (4.4-2) ...
Setting up libglobus-callout-dev:armhf (4.3-2) ...
Setting up libglobus-gsi-proxy-ssl1:armhf (6.5-2) ...
Setting up libglobus-openssl-module0:armhf (5.2-2) ...
Setting up libglobus-gsi-proxy-ssl-dev:armhf (6.5-2) ...
Setting up libglobus-gsi-openssl-error-dev:armhf (4.4-2) ...
Setting up libglobus-gsi-sysconfig1:armhf (9.5-2) ...
Setting up libglobus-gsi-cert-utils0:armhf (10.10-3) ...
Setting up libglobus-authz0:armhf (4.6-2) ...
Setting up libglobus-gsi-callback0:armhf (6.2-2) ...
Setting up libglobus-openssl-module-dev:armhf (5.2-2) ...
Setting up libglobus-gsi-sysconfig-dev:armhf (9.5-2) ...
Setting up libglobus-gsi-cert-utils-dev:armhf (10.10-3) ...
Setting up libglobus-gsi-credential1:armhf (8.3-3) ...
Setting up libglobus-gsi-callback-dev:armhf (6.2-2) ...
Setting up libglobus-gsi-proxy-core0:armhf (9.8-2) ...
Setting up libglobus-gsi-credential-dev:armhf (8.3-3) ...
Setting up libglobus-gsi-proxy-core-dev:armhf (9.8-2) ...
Setting up libglobus-gssapi-gsi4:armhf (14.20-2) ...
Setting up libglobus-gssapi-gsi-dev:armhf (14.20-2) ...
Setting up libglobus-authz-dev:armhf (4.6-2) ...
Processing triggers for libc-bin (2.37-13) ...
Reading package lists...
Building dependency tree...
Reading state information...
0 upgraded, 0 newly installed, 0 to remove and 40 not upgraded.
