[2024-01-31T18:58:39+00:00] apt-get install libavif-dev abi-compliance-checker
Reading package lists...
Building dependency tree...
Reading state information...
abi-compliance-checker is already the newest version (2.3-2).
The following packages were automatically installed and are no longer required:
  fontconfig fontconfig-config fonts-dejavu-core fonts-dejavu-mono
  libavcodec-dev libavcodec60 libavformat-dev libavformat60 libavutil-dev
  libavutil58 libbluray2 libbrotli1 libcairo-gobject2 libcairo2
  libchromaprint1 libcjson1 libcodec2-1.2 libdatrie1 libdeflate0 libdrm-common
  libdrm2 libfontconfig1 libfreetype6 libfribidi0 libgdk-pixbuf-2.0-0
  libgdk-pixbuf2.0-common libgme0 libgraphite2-3 libgsm1 libharfbuzz0b libhwy1
  libjbig0 libjxl0.7 liblcms2-2 liblerc4 libmbedcrypto7 libmp3lame0
  libmpg123-0 libnorm1 libogg0 libopenjp2-7 libopenmpt0 libopus0
  libpango-1.0-0 libpangocairo-1.0-0 libpangoft2-1.0-0 libpgm-5.3-0
  libpixman-1-0 libpng16-16 librabbitmq4 librist4 librsvg2-2 libshine3
  libsnappy1v5 libsodium23 libsoxr0 libspeex1 libsrt1.5-gnutls libssh-gcrypt-4
  libswresample-dev libswresample4 libthai-data libthai0 libtheora0 libtiff6
  libtwolame0 libudfread0 libva-drm2 libva-x11-2 libva2 libvdpau1 libvorbis0a
  libvorbisenc2 libvorbisfile3 libvpx8 libwebp7 libwebpmux3 libx11-6
  libx11-data libx11-xcb1 libx264-164 libx265-199 libxau6 libxcb-dri3-0
  libxcb-render0 libxcb-shm0 libxcb1 libxdmcp6 libxext6 libxfixes3 libxrender1
  libxvidcore4 libzmq5 libzvbi-common libzvbi0 ocl-icd-libopencl1
  shared-mime-info
Use 'apt autoremove' to remove them.
The following additional packages will be installed:
  libabsl20220623 libavif16 libgav1-1 libyuv0
The following NEW packages will be installed:
  libabsl20220623 libavif-dev libavif16 libgav1-1 libyuv0
0 upgraded, 5 newly installed, 0 to remove and 45 not upgraded.
Need to get 871 kB of archives.
After this operation, 2476 kB of additional disk space will be used.
Get:1 http://deb.debian.org/debian unstable/main armhf libabsl20220623 armhf 20220623.1-3 [361 kB]
Get:2 http://deb.debian.org/debian unstable/main armhf libgav1-1 armhf 0.18.0-1+b1 [284 kB]
Get:3 http://deb.debian.org/debian unstable/main armhf libyuv0 armhf 0.0~git202401110.af6ac82-1 [85.1 kB]
Get:4 http://deb.debian.org/debian unstable/main armhf libavif16 armhf 1.0.3-1 [94.7 kB]
Get:5 http://deb.debian.org/debian unstable/main armhf libavif-dev armhf 1.0.3-1 [46.3 kB]
debconf: delaying package configuration, since apt-utils is not installed
Fetched 871 kB in 0s (2429 kB/s)
Selecting previously unselected package libabsl20220623:armhf.
(Reading database ... (Reading database ... 5%(Reading database ... 10%(Reading database ... 15%(Reading database ... 20%(Reading database ... 25%(Reading database ... 30%(Reading database ... 35%(Reading database ... 40%(Reading database ... 45%(Reading database ... 50%(Reading database ... 55%(Reading database ... 60%(Reading database ... 65%(Reading database ... 70%(Reading database ... 75%(Reading database ... 80%(Reading database ... 85%(Reading database ... 90%(Reading database ... 95%(Reading database ... 100%(Reading database ... 21284 files and directories currently installed.)
Preparing to unpack .../libabsl20220623_20220623.1-3_armhf.deb ...
Unpacking libabsl20220623:armhf (20220623.1-3) ...
Selecting previously unselected package libgav1-1:armhf.
Preparing to unpack .../libgav1-1_0.18.0-1+b1_armhf.deb ...
Unpacking libgav1-1:armhf (0.18.0-1+b1) ...
Selecting previously unselected package libyuv0:armhf.
Preparing to unpack .../libyuv0_0.0~git202401110.af6ac82-1_armhf.deb ...
Unpacking libyuv0:armhf (0.0~git202401110.af6ac82-1) ...
Selecting previously unselected package libavif16:armhf.
Preparing to unpack .../libavif16_1.0.3-1_armhf.deb ...
Unpacking libavif16:armhf (1.0.3-1) ...
Selecting previously unselected package libavif-dev:armhf.
Preparing to unpack .../libavif-dev_1.0.3-1_armhf.deb ...
Unpacking libavif-dev:armhf (1.0.3-1) ...
Setting up libabsl20220623:armhf (20220623.1-3) ...
Setting up libgav1-1:armhf (0.18.0-1+b1) ...
Setting up libyuv0:armhf (0.0~git202401110.af6ac82-1) ...
Setting up libavif16:armhf (1.0.3-1) ...
Setting up libavif-dev:armhf (1.0.3-1) ...
Processing triggers for libc-bin (2.37-13) ...
Reading package lists...
Building dependency tree...
Reading state information...
The following packages will be REMOVED:
  fontconfig* fontconfig-config* fonts-dejavu-core* fonts-dejavu-mono*
  libavcodec-dev* libavcodec60* libavformat-dev* libavformat60* libavutil-dev*
  libavutil58* libbluray2* libbrotli1* libcairo-gobject2* libcairo2*
  libchromaprint1* libcjson1* libcodec2-1.2* libdatrie1* libdeflate0*
  libdrm-common* libdrm2* libfontconfig1* libfreetype6* libfribidi0*
  libgdk-pixbuf-2.0-0* libgdk-pixbuf2.0-common* libgme0* libgraphite2-3*
  libgsm1* libharfbuzz0b* libhwy1* libjbig0* libjxl0.7* liblcms2-2* liblerc4*
  libmbedcrypto7* libmp3lame0* libmpg123-0* libnorm1* libogg0* libopenjp2-7*
  libopenmpt0* libopus0* libpango-1.0-0* libpangocairo-1.0-0*
  libpangoft2-1.0-0* libpgm-5.3-0* libpixman-1-0* libpng16-16* librabbitmq4*
  librist4* librsvg2-2* libshine3* libsnappy1v5* libsodium23* libsoxr0*
  libspeex1* libsrt1.5-gnutls* libssh-gcrypt-4* libswresample-dev*
  libswresample4* libthai-data* libthai0* libtheora0* libtiff6* libtwolame0*
  libudfread0* libva-drm2* libva-x11-2* libva2* libvdpau1* libvorbis0a*
  libvorbisenc2* libvorbisfile3* libvpx8* libwebp7* libwebpmux3* libx11-6*
  libx11-data* libx11-xcb1* libx264-164* libx265-199* libxau6* libxcb-dri3-0*
  libxcb-render0* libxcb-shm0* libxcb1* libxdmcp6* libxext6* libxfixes3*
  libxrender1* libxvidcore4* libzmq5* libzvbi-common* libzvbi0*
  ocl-icd-libopencl1* shared-mime-info*
0 upgraded, 0 newly installed, 97 to remove and 45 not upgraded.
After this operation, 109 MB disk space will be freed.
(Reading database ... (Reading database ... 5%(Reading database ... 10%(Reading database ... 15%(Reading database ... 20%(Reading database ... 25%(Reading database ... 30%(Reading database ... 35%(Reading database ... 40%(Reading database ... 45%(Reading database ... 50%(Reading database ... 55%(Reading database ... 60%(Reading database ... 65%(Reading database ... 70%(Reading database ... 75%(Reading database ... 80%(Reading database ... 85%(Reading database ... 90%(Reading database ... 95%(Reading database ... 100%(Reading database ... 21447 files and directories currently installed.)
Removing libavformat-dev:armhf (7:6.1.1-1) ...
Removing libavformat60:armhf (7:6.1.1-1) ...
Removing libavcodec-dev:armhf (7:6.1.1-1) ...
Removing libbluray2:armhf (1:1.3.4-1) ...
Removing libswresample-dev:armhf (7:6.1.1-1) ...
Removing libavutil-dev:armhf (7:6.1.1-1) ...
Removing libchromaprint1:armhf (1.5.1-4) ...
Removing librist4:armhf (0.2.10+dfsg-1) ...
Removing libcjson1:armhf (1.7.17-1) ...
Removing libgme0:armhf (0.6.3-7) ...
Removing libmbedcrypto7:armhf (2.28.7-1) ...
Removing libopenmpt0:armhf (0.7.3-1) ...
Removing libmpg123-0:armhf (1.32.4-1) ...
Removing libzmq5:armhf (4.3.5-1) ...
Removing libnorm1:armhf (1.5.9+dfsg-3) ...
Removing libvorbisfile3:armhf (1.3.7-1) ...
Removing libpgm-5.3-0:armhf (5.3.128~dfsg-2) ...
Removing librabbitmq4:armhf (0.11.0-1+b1) ...
Removing libsodium23:armhf (1.0.18-1) ...
Removing libsrt1.5-gnutls:armhf (1.5.3-1) ...
Removing libssh-gcrypt-4:armhf (0.10.6-2) ...
Removing libudfread0:armhf (1.1.2-1) ...
Removing libavcodec60:armhf (7:6.1.1-1) ...
Removing librsvg2-2:armhf (2.54.7+dfsg-2) ...
Removing libpangocairo-1.0-0:armhf (1.51.0+ds-4) ...
Removing libpangoft2-1.0-0:armhf (1.51.0+ds-4) ...
Removing libpango-1.0-0:armhf (1.51.0+ds-4) ...
Removing fontconfig (2.14.2-6+b1) ...
Removing libtheora0:armhf (1.1.1+dfsg.1-16.1+b1) ...
Removing libswresample4:armhf (7:6.1.1-1) ...
Removing libavutil58:armhf (7:6.1.1-1) ...
Removing libjxl0.7:armhf (0.7.0-10.2+b1) ...
Removing libharfbuzz0b:armhf (8.3.0-2) ...
Removing libcairo-gobject2:armhf (1.18.0-1+b1) ...
Removing libcodec2-1.2:armhf (1.2.0-2+b1) ...
Removing libthai0:armhf (0.1.29-2) ...
Removing libdatrie1:armhf (0.2.13-3) ...
Removing libgdk-pixbuf-2.0-0:armhf (2.42.10+dfsg-3) ...
Removing libtiff6:armhf (4.5.1+git230720-4) ...
Removing libdeflate0:armhf (1.18-1) ...
Removing libva-drm2:armhf (2.20.0-2) ...
Removing libva-x11-2:armhf (2.20.0-2) ...
Removing libdrm2:armhf (2.4.120-1) ...
Removing libdrm-common (2.4.120-1) ...
Removing libfribidi0:armhf (1.0.13-3+b1) ...
Removing libgdk-pixbuf2.0-common (2.42.10+dfsg-3) ...
Removing libgraphite2-3:armhf (1.3.14-2) ...
Removing libgsm1:armhf (1.0.22-1) ...
Removing libhwy1:armhf (1.0.7-8) ...
Removing libjbig0:armhf (2.1-6.1) ...
Removing liblcms2-2:armhf (2.14-2) ...
Removing liblerc4:armhf (4.0.0+ds-4) ...
Removing libmp3lame0:armhf (3.100-6+b2) ...
Removing libvorbisenc2:armhf (1.3.7-1) ...
Removing libvorbis0a:armhf (1.3.7-1) ...
Removing libogg0:armhf (1.3.5-3) ...
Removing libopenjp2-7:armhf (2.5.0-2+b2) ...
Removing libopus0:armhf (1.4-1) ...
Removing libzvbi0:armhf (0.2.42-1.1) ...
Removing libshine3:armhf (3.1.1-2) ...
Removing libsnappy1v5:armhf (1.1.10-1) ...
Removing libsoxr0:armhf (0.1.3-4) ...
Removing libspeex1:armhf (1.2.1-2) ...
Removing libthai-data (0.1.29-2) ...
Removing libtwolame0:armhf (0.4.0-2) ...
Removing libva2:armhf (2.20.0-2) ...
Removing libvdpau1:armhf (1.5-2) ...
Removing libvpx8:armhf (1.13.1-2) ...
Removing libwebpmux3:armhf (1.3.2-0.3) ...
Removing libwebp7:armhf (1.3.2-0.3) ...
Removing libxfixes3:armhf (1:6.0.0-2) ...
Removing libx11-xcb1:armhf (2:1.8.7-1) ...
Removing libx264-164:armhf (2:0.164.3108+git31e19f9-1) ...
Removing libx265-199:armhf (3.5-2+b1) ...
Removing libxcb-dri3-0:armhf (1.15-1) ...
Removing libxvidcore4:armhf (2:1.3.7-1) ...
Removing libzvbi-common (0.2.42-1.1) ...
Removing ocl-icd-libopencl1:armhf (2.3.2-1) ...
Removing shared-mime-info (2.4-1) ...
Removing libcairo2:armhf (1.18.0-1+b1) ...
Removing libfontconfig1:armhf (2.14.2-6+b1) ...
Removing fontconfig-config (2.14.2-6+b1) ...
Removing fonts-dejavu-core (2.37-8) ...
Removing fonts-dejavu-mono (2.37-8) ...
Removing libfreetype6:armhf (2.13.2+dfsg-1+b1) ...
Removing libbrotli1:armhf (1.1.0-2+b3) ...
Removing libpixman-1-0:armhf (0.42.2-1) ...
Removing libpng16-16:armhf (1.6.42-1) ...
Removing libxrender1:armhf (1:0.9.10-1.1) ...
Removing libxcb-shm0:armhf (1.15-1) ...
Removing libxcb-render0:armhf (1.15-1) ...
Removing libxext6:armhf (2:1.3.4-1+b1) ...
Removing libx11-6:armhf (2:1.8.7-1) ...
Removing libx11-data (2:1.8.7-1) ...
Removing libxcb1:armhf (1.15-1) ...
Removing libxau6:armhf (1:1.0.9-1) ...
Removing libxdmcp6:armhf (1:1.1.2-3) ...
Processing triggers for sgml-base (1.31) ...
Processing triggers for libc-bin (2.37-13) ...
(Reading database ... (Reading database ... 5%(Reading database ... 10%(Reading database ... 15%(Reading database ... 20%(Reading database ... 25%(Reading database ... 30%(Reading database ... 35%(Reading database ... 40%(Reading database ... 45%(Reading database ... 50%(Reading database ... 55%(Reading database ... 60%(Reading database ... 65%(Reading database ... 70%(Reading database ... 75%(Reading database ... 80%(Reading database ... 85%(Reading database ... 90%(Reading database ... 95%(Reading database ... 100%(Reading database ... 20005 files and directories currently installed.)
Purging configuration files for fontconfig (2.14.2-6+b1) ...
Purging configuration files for fontconfig-config (2.14.2-6+b1) ...
Purging configuration files for shared-mime-info (2.4-1) ...
Purging configuration files for fonts-dejavu-mono (2.37-8) ...
Purging configuration files for fonts-dejavu-core (2.37-8) ...
Purging configuration files for libvdpau1:armhf (1.5-2) ...
Purging configuration files for libgdk-pixbuf-2.0-0:armhf (2.42.10+dfsg-3) ...
