[2024-02-20T11:12:07+00:00] apt-get install libdmapsharing-4.0-dev abi-compliance-checker
Reading package lists...
Building dependency tree...
Reading state information...
abi-compliance-checker is already the newest version (2.3-2).
The following packages were automatically installed and are no longer required:
  libdieharder-dev libdieharder3 libgsl-dev libgsl27 libgslcblas0
Use 'apt autoremove' to remove them.
The following additional packages will be installed:
  dconf-gsettings-backend dconf-service gir1.2-dmap-4.0 gir1.2-glib-2.0
  gir1.2-glib-2.0-dev gir1.2-gst-plugins-base-1.0 gir1.2-gstreamer-1.0
  gir1.2-gudev-1.0 gir1.2-soup-3.0 glib-networking glib-networking-common
  glib-networking-services gsettings-desktop-schemas iso-codes
  libavahi-client3 libavahi-common-data libavahi-common3 libavahi-glib1
  libblkid-dev libbrotli-dev libbrotli1 libdconf1 libdeflate0
  libdmapsharing-4.0-3 libdrm-amdgpu1 libdrm-common libdrm-dev libdrm-etnaviv1
  libdrm-exynos1 libdrm-freedreno1 libdrm-nouveau2 libdrm-omap1 libdrm-radeon1
  libdrm-tegra0 libdrm2 libdw-dev libdw1 libedit2 libegl-dev libegl-mesa0
  libegl1 libelf-dev libffi-dev libgbm-dev libgbm1 libgdk-pixbuf-2.0-0
  libgdk-pixbuf2.0-common libgl-dev libgl1 libgl1-mesa-dri libglapi-mesa
  libgles-dev libgles1 libgles2 libglib2.0-0 libglib2.0-bin libglib2.0-data
  libglib2.0-dev libglib2.0-dev-bin libglvnd0 libglx-dev libglx-mesa0 libglx0
  libgstreamer-gl1.0-0 libgstreamer-plugins-base1.0-0
  libgstreamer-plugins-base1.0-dev libgstreamer1.0-0 libgstreamer1.0-dev
  libgudev-1.0-0 libgudev-1.0-dev libjbig0 libjpeg62-turbo liblerc4 libllvm17
  liblzma-dev libmount-dev libnghttp2-14 libnghttp2-dev liborc-0.4-0
  liborc-0.4-dev liborc-0.4-dev-bin libpciaccess-dev libpciaccess0
  libpcre2-16-0 libpcre2-32-0 libpcre2-dev libpcre2-posix3 libpkgconf3
  libpng16-16 libproxy1v5 libpsl-dev libpsl5 libpthread-stubs0-dev
  libselinux1-dev libsensors-config libsensors5 libsepol-dev libsharpyuv0
  libsoup-3.0-0 libsoup-3.0-common libsoup-3.0-dev libsqlite3-dev
  libsysprof-capture-4-dev libtiff6 libudev-dev libunwind-dev libunwind8
  libvulkan1 libwayland-bin libwayland-client0 libwayland-cursor0
  libwayland-dev libwayland-egl1 libwayland-server0 libwebp7 libx11-6
  libx11-data libx11-dev libx11-xcb-dev libx11-xcb1 libxau-dev libxau6
  libxcb-dri2-0 libxcb-dri3-0 libxcb-glx0 libxcb-present0 libxcb-randr0
  libxcb-shm0 libxcb-sync1 libxcb-xfixes0 libxcb1 libxcb1-dev libxdmcp-dev
  libxdmcp6 libxext6 libxfixes3 libxshmfence1 libxxf86vm1 libz3-4 libzstd-dev
  pkgconf pkgconf-bin python3-packaging shared-mime-info uuid-dev x11proto-dev
  xorg-sgml-doctools xtrans-dev zlib1g-dev
Suggested packages:
  isoquery low-memory-monitor libgirepository1.0-dev libglib2.0-doc
  libgdk-pixbuf2.0-bin libxml2-utils libvisual-0.4-plugins gstreamer1.0-tools
  gstreamer1.0-doc liblzma-doc libnghttp2-doc liborc-0.4-doc pciutils
  lm-sensors libsoup-3.0-doc sqlite3-doc libwayland-doc libx11-doc libxcb-doc
Recommended packages:
  libgdk-pixbuf2.0-bin xdg-user-dirs gstreamer1.0-gl gstreamer1.0-plugins-base
  publicsuffix mesa-vulkan-drivers | vulkan-icd
The following NEW packages will be installed:
  dconf-gsettings-backend dconf-service gir1.2-dmap-4.0 gir1.2-glib-2.0
  gir1.2-glib-2.0-dev gir1.2-gst-plugins-base-1.0 gir1.2-gstreamer-1.0
  gir1.2-gudev-1.0 gir1.2-soup-3.0 glib-networking glib-networking-common
  glib-networking-services gsettings-desktop-schemas iso-codes
  libavahi-client3 libavahi-common-data libavahi-common3 libavahi-glib1
  libblkid-dev libbrotli-dev libbrotli1 libdconf1 libdeflate0
  libdmapsharing-4.0-3 libdmapsharing-4.0-dev libdrm-amdgpu1 libdrm-common
  libdrm-dev libdrm-etnaviv1 libdrm-exynos1 libdrm-freedreno1 libdrm-nouveau2
  libdrm-omap1 libdrm-radeon1 libdrm-tegra0 libdrm2 libdw-dev libdw1 libedit2
  libegl-dev libegl-mesa0 libegl1 libelf-dev libffi-dev libgbm-dev libgbm1
  libgdk-pixbuf-2.0-0 libgdk-pixbuf2.0-common libgl-dev libgl1 libgl1-mesa-dri
  libglapi-mesa libgles-dev libgles1 libgles2 libglib2.0-0 libglib2.0-bin
  libglib2.0-data libglib2.0-dev libglib2.0-dev-bin libglvnd0 libglx-dev
  libglx-mesa0 libglx0 libgstreamer-gl1.0-0 libgstreamer-plugins-base1.0-0
  libgstreamer-plugins-base1.0-dev libgstreamer1.0-0 libgstreamer1.0-dev
  libgudev-1.0-0 libgudev-1.0-dev libjbig0 libjpeg62-turbo liblerc4 libllvm17
  liblzma-dev libmount-dev libnghttp2-14 libnghttp2-dev liborc-0.4-0
  liborc-0.4-dev liborc-0.4-dev-bin libpciaccess-dev libpciaccess0
  libpcre2-16-0 libpcre2-32-0 libpcre2-dev libpcre2-posix3 libpkgconf3
  libpng16-16 libproxy1v5 libpsl-dev libpsl5 libpthread-stubs0-dev
  libselinux1-dev libsensors-config libsensors5 libsepol-dev libsharpyuv0
  libsoup-3.0-0 libsoup-3.0-common libsoup-3.0-dev libsqlite3-dev
  libsysprof-capture-4-dev libtiff6 libudev-dev libunwind-dev libunwind8
  libvulkan1 libwayland-bin libwayland-client0 libwayland-cursor0
  libwayland-dev libwayland-egl1 libwayland-server0 libwebp7 libx11-6
  libx11-data libx11-dev libx11-xcb-dev libx11-xcb1 libxau-dev libxau6
  libxcb-dri2-0 libxcb-dri3-0 libxcb-glx0 libxcb-present0 libxcb-randr0
  libxcb-shm0 libxcb-sync1 libxcb-xfixes0 libxcb1 libxcb1-dev libxdmcp-dev
  libxdmcp6 libxext6 libxfixes3 libxshmfence1 libxxf86vm1 libz3-4 libzstd-dev
  pkgconf pkgconf-bin python3-packaging shared-mime-info uuid-dev x11proto-dev
  xorg-sgml-doctools xtrans-dev zlib1g-dev
0 upgraded, 150 newly installed, 0 to remove and 42 not upgraded.
Need to get 63.6 MB of archives.
After this operation, 284 MB of additional disk space will be used.
Get:1 http://deb.debian.org/debian unstable/main armhf libglib2.0-0 armhf 2.78.4-1 [1281 kB]
Get:2 http://deb.debian.org/debian unstable/main armhf libdconf1 armhf 0.40.0-4+b1 [36.9 kB]
Get:3 http://deb.debian.org/debian unstable/main armhf dconf-service armhf 0.40.0-4+b1 [27.8 kB]
Get:4 http://deb.debian.org/debian unstable/main armhf dconf-gsettings-backend armhf 0.40.0-4+b1 [24.1 kB]
Get:5 http://deb.debian.org/debian unstable/main armhf gir1.2-glib-2.0 armhf 1.78.1-15 [163 kB]
Get:6 http://deb.debian.org/debian unstable/main armhf libdw1 armhf 0.190-1+b1 [224 kB]
Get:7 http://deb.debian.org/debian unstable/main armhf libunwind8 armhf 1.6.2-3 [43.3 kB]
Get:8 http://deb.debian.org/debian unstable/main armhf libgstreamer1.0-0 armhf 1.22.10-1 [1106 kB]
Get:9 http://deb.debian.org/debian unstable/main armhf gir1.2-gstreamer-1.0 armhf 1.22.10-1 [112 kB]
Get:10 http://deb.debian.org/debian unstable/main armhf libproxy1v5 armhf 0.4.18-2 [51.7 kB]
Get:11 http://deb.debian.org/debian unstable/main armhf glib-networking-common all 2.78.0-1 [81.1 kB]
Get:12 http://deb.debian.org/debian unstable/main armhf glib-networking-services armhf 2.78.0-1+b1 [11.7 kB]
Get:13 http://deb.debian.org/debian unstable/main armhf gsettings-desktop-schemas all 46~beta-3 [660 kB]
Get:14 http://deb.debian.org/debian unstable/main armhf glib-networking armhf 2.78.0-1+b1 [61.8 kB]
Get:15 http://deb.debian.org/debian unstable/main armhf libsoup-3.0-common all 3.4.4-5 [61.8 kB]
Get:16 http://deb.debian.org/debian unstable/main armhf libbrotli1 armhf 1.1.0-2+b3 [284 kB]
Get:17 http://deb.debian.org/debian unstable/main armhf libnghttp2-14 armhf 1.59.0-1 [62.0 kB]
Get:18 http://deb.debian.org/debian unstable/main armhf libpsl5 armhf 0.21.2-1+b1 [57.8 kB]
Get:19 http://deb.debian.org/debian unstable/main armhf libsoup-3.0-0 armhf 3.4.4-5 [242 kB]
Get:20 http://deb.debian.org/debian unstable/main armhf gir1.2-soup-3.0 armhf 3.4.4-5 [27.0 kB]
Get:21 http://deb.debian.org/debian unstable/main armhf libavahi-common-data armhf 0.8-13+b1 [111 kB]
Get:22 http://deb.debian.org/debian unstable/main armhf libavahi-common3 armhf 0.8-13+b1 [40.1 kB]
Get:23 http://deb.debian.org/debian unstable/main armhf libavahi-client3 armhf 0.8-13+b1 [43.4 kB]
Get:24 http://deb.debian.org/debian unstable/main armhf libavahi-glib1 armhf 0.8-13+b1 [28.7 kB]
Get:25 http://deb.debian.org/debian unstable/main armhf libgdk-pixbuf2.0-common all 2.42.10+dfsg-3 [307 kB]
Get:26 http://deb.debian.org/debian unstable/main armhf shared-mime-info armhf 2.4-1 [746 kB]
Get:27 http://deb.debian.org/debian unstable/main armhf libjpeg62-turbo armhf 1:2.1.5-2+b2 [143 kB]
Get:28 http://deb.debian.org/debian unstable/main armhf libpng16-16 armhf 1.6.42-1 [261 kB]
Get:29 http://deb.debian.org/debian unstable/main armhf libdeflate0 armhf 1.19-1 [39.1 kB]
Get:30 http://deb.debian.org/debian unstable/main armhf libjbig0 armhf 2.1-6.1+b1 [27.3 kB]
Get:31 http://deb.debian.org/debian unstable/main armhf liblerc4 armhf 4.0.0+ds-4+b1 [137 kB]
Get:32 http://deb.debian.org/debian unstable/main armhf libsharpyuv0 armhf 1.3.2-0.4 [105 kB]
Get:33 http://deb.debian.org/debian unstable/main armhf libwebp7 armhf 1.3.2-0.4 [261 kB]
Get:34 http://deb.debian.org/debian unstable/main armhf libtiff6 armhf 4.5.1+git230720-4 [301 kB]
Get:35 http://deb.debian.org/debian unstable/main armhf libgdk-pixbuf-2.0-0 armhf 2.42.10+dfsg-3+b1 [124 kB]
Get:36 http://deb.debian.org/debian unstable/main armhf liborc-0.4-0 armhf 1:0.4.34-3 [143 kB]
Get:37 http://deb.debian.org/debian unstable/main armhf iso-codes all 4.16.0-1 [2936 kB]
Get:38 http://deb.debian.org/debian unstable/main armhf libgstreamer-plugins-base1.0-0 armhf 1.22.10-1 [875 kB]
Get:39 http://deb.debian.org/debian unstable/main armhf libdmapsharing-4.0-3 armhf 3.9.13-1 [185 kB]
Get:40 http://deb.debian.org/debian unstable/main armhf gir1.2-dmap-4.0 armhf 3.9.13-1 [62.4 kB]
Get:41 http://deb.debian.org/debian unstable/main armhf gir1.2-glib-2.0-dev armhf 1.78.1-15 [849 kB]
Get:42 http://deb.debian.org/debian unstable/main armhf libdrm-common all 2.4.120-2 [7688 B]
Get:43 http://deb.debian.org/debian unstable/main armhf libdrm2 armhf 2.4.120-2 [33.8 kB]
Get:44 http://deb.debian.org/debian unstable/main armhf libglvnd0 armhf 1.7.0-1 [52.3 kB]
Get:45 http://deb.debian.org/debian unstable/main armhf libwayland-server0 armhf 1.22.0-2.1+b1 [26.7 kB]
Get:46 http://deb.debian.org/debian unstable/main armhf libxau6 armhf 1:1.0.9-1 [19.0 kB]
Get:47 http://deb.debian.org/debian unstable/main armhf libxdmcp6 armhf 1:1.1.2-3 [24.9 kB]
Get:48 http://deb.debian.org/debian unstable/main armhf libxcb1 armhf 1.15-1 [140 kB]
Get:49 http://deb.debian.org/debian unstable/main armhf libxcb-randr0 armhf 1.15-1 [116 kB]
Get:50 http://deb.debian.org/debian unstable/main armhf libgbm1 armhf 24.0.1-1 [36.9 kB]
Get:51 http://deb.debian.org/debian unstable/main armhf libglapi-mesa armhf 24.0.1-1 [42.8 kB]
Get:52 http://deb.debian.org/debian unstable/main armhf libwayland-client0 armhf 1.22.0-2.1+b1 [20.4 kB]
Get:53 http://deb.debian.org/debian unstable/main armhf libx11-data all 2:1.8.7-1 [328 kB]
Get:54 http://deb.debian.org/debian unstable/main armhf libx11-6 armhf 2:1.8.7-1 [735 kB]
Get:55 http://deb.debian.org/debian unstable/main armhf libx11-xcb1 armhf 2:1.8.7-1 [231 kB]
Get:56 http://deb.debian.org/debian unstable/main armhf libxcb-dri2-0 armhf 1.15-1 [107 kB]
Get:57 http://deb.debian.org/debian unstable/main armhf libxcb-dri3-0 armhf 1.15-1 [107 kB]
Get:58 http://deb.debian.org/debian unstable/main armhf libxcb-present0 armhf 1.15-1 [105 kB]
Get:59 http://deb.debian.org/debian unstable/main armhf libxcb-sync1 armhf 1.15-1 [108 kB]
Get:60 http://deb.debian.org/debian unstable/main armhf libxcb-xfixes0 armhf 1.15-1 [110 kB]
Get:61 http://deb.debian.org/debian unstable/main armhf libxshmfence1 armhf 1.3-1 [8592 B]
Get:62 http://deb.debian.org/debian unstable/main armhf libegl-mesa0 armhf 24.0.1-1 [98.4 kB]
Get:63 http://deb.debian.org/debian unstable/main armhf libegl1 armhf 1.7.0-1 [28.7 kB]
Get:64 http://deb.debian.org/debian unstable/main armhf libxcb-glx0 armhf 1.15-1 [120 kB]
Get:65 http://deb.debian.org/debian unstable/main armhf libxcb-shm0 armhf 1.15-1 [106 kB]
Get:66 http://deb.debian.org/debian unstable/main armhf libxext6 armhf 2:1.3.4-1+b1 [47.8 kB]
Get:67 http://deb.debian.org/debian unstable/main armhf libxfixes3 armhf 1:6.0.0-2 [21.1 kB]
Get:68 http://deb.debian.org/debian unstable/main armhf libxxf86vm1 armhf 1:1.1.4-1+b2 [20.2 kB]
Get:69 http://deb.debian.org/debian unstable/main armhf libvulkan1 armhf 1.3.275.0-1 [109 kB]
Get:70 http://deb.debian.org/debian unstable/main armhf libdrm-amdgpu1 armhf 2.4.120-2 [20.0 kB]
Get:71 http://deb.debian.org/debian unstable/main armhf libdrm-nouveau2 armhf 2.4.120-2 [16.9 kB]
Get:72 http://deb.debian.org/debian unstable/main armhf libdrm-radeon1 armhf 2.4.120-2 [19.5 kB]
Get:73 http://deb.debian.org/debian unstable/main armhf libedit2 armhf 3.1-20230828-1 [76.8 kB]
Get:74 http://deb.debian.org/debian unstable/main armhf libz3-4 armhf 4.8.12-3.1+b2 [6324 kB]
Get:75 http://deb.debian.org/debian unstable/main armhf libllvm17 armhf 1:17.0.6-5 [21.6 MB]
Get:76 http://deb.debian.org/debian unstable/main armhf libsensors-config all 1:3.6.0-8 [14.4 kB]
Get:77 http://deb.debian.org/debian unstable/main armhf libsensors5 armhf 1:3.6.0-8+b1 [32.0 kB]
Get:78 http://deb.debian.org/debian unstable/main armhf libgl1-mesa-dri armhf 24.0.1-1 [6477 kB]
Get:79 http://deb.debian.org/debian unstable/main armhf libglx-mesa0 armhf 24.0.1-1 [130 kB]
Get:80 http://deb.debian.org/debian unstable/main armhf libglx0 armhf 1.7.0-1 [32.2 kB]
Get:81 http://deb.debian.org/debian unstable/main armhf libgl1 armhf 1.7.0-1 [90.8 kB]
Get:82 http://deb.debian.org/debian unstable/main armhf libgudev-1.0-0 armhf 238-3 [12.5 kB]
Get:83 http://deb.debian.org/debian unstable/main armhf libwayland-cursor0 armhf 1.22.0-2.1+b1 [10.2 kB]
Get:84 http://deb.debian.org/debian unstable/main armhf libwayland-egl1 armhf 1.22.0-2.1+b1 [5416 B]
Get:85 http://deb.debian.org/debian unstable/main armhf libgstreamer-gl1.0-0 armhf 1.22.10-1 [239 kB]
Get:86 http://deb.debian.org/debian unstable/main armhf gir1.2-gst-plugins-base-1.0 armhf 1.22.10-1 [168 kB]
Get:87 http://deb.debian.org/debian unstable/main armhf gir1.2-gudev-1.0 armhf 238-3 [5040 B]
Get:88 http://deb.debian.org/debian unstable/main armhf uuid-dev armhf 2.39.3-6 [39.6 kB]
Get:89 http://deb.debian.org/debian unstable/main armhf libblkid-dev armhf 2.39.3-6 [186 kB]
Get:90 http://deb.debian.org/debian unstable/main armhf libbrotli-dev armhf 1.1.0-2+b3 [292 kB]
Get:91 http://deb.debian.org/debian unstable/main armhf libffi-dev armhf 3.4.4-2 [55.7 kB]
Get:92 http://deb.debian.org/debian unstable/main armhf libglib2.0-data all 2.78.4-1 [1223 kB]
Get:93 http://deb.debian.org/debian unstable/main armhf libglib2.0-bin armhf 2.78.4-1 [109 kB]
Get:94 http://deb.debian.org/debian unstable/main armhf python3-packaging all 23.2-1 [44.8 kB]
Get:95 http://deb.debian.org/debian unstable/main armhf libglib2.0-dev-bin armhf 2.78.4-1 [154 kB]
Get:96 http://deb.debian.org/debian unstable/main armhf libsepol-dev armhf 3.5-2 [319 kB]
Get:97 http://deb.debian.org/debian unstable/main armhf libpcre2-16-0 armhf 10.42-4 [211 kB]
Get:98 http://deb.debian.org/debian unstable/main armhf libpcre2-32-0 armhf 10.42-4 [202 kB]
Get:99 http://deb.debian.org/debian unstable/main armhf libpcre2-posix3 armhf 10.42-4 [55.0 kB]
Get:100 http://deb.debian.org/debian unstable/main armhf libpcre2-dev armhf 10.42-4 [668 kB]
Get:101 http://deb.debian.org/debian unstable/main armhf libselinux1-dev armhf 3.5-2 [151 kB]
Get:102 http://deb.debian.org/debian unstable/main armhf libmount-dev armhf 2.39.3-6 [23.6 kB]
Get:103 http://deb.debian.org/debian unstable/main armhf libpkgconf3 armhf 1.8.1-1+b2 [31.9 kB]
Get:104 http://deb.debian.org/debian unstable/main armhf pkgconf-bin armhf 1.8.1-1+b2 [28.9 kB]
Get:105 http://deb.debian.org/debian unstable/main armhf pkgconf armhf 1.8.1-1+b2 [26.2 kB]
Get:106 http://deb.debian.org/debian unstable/main armhf zlib1g-dev armhf 1:1.3.dfsg-3+b1 [904 kB]
Get:107 http://deb.debian.org/debian unstable/main armhf libglib2.0-dev armhf 2.78.4-1 [1526 kB]
Get:108 http://deb.debian.org/debian unstable/main armhf libnghttp2-dev armhf 1.59.0-1 [101 kB]
Get:109 http://deb.debian.org/debian unstable/main armhf libpsl-dev armhf 0.21.2-1+b1 [78.9 kB]
Get:110 http://deb.debian.org/debian unstable/main armhf libsqlite3-dev armhf 3.45.1-1 [985 kB]
Get:111 http://deb.debian.org/debian unstable/main armhf libsysprof-capture-4-dev armhf 46~beta-1 [44.6 kB]
Get:112 http://deb.debian.org/debian unstable/main armhf libsoup-3.0-dev armhf 3.4.4-5 [112 kB]
Get:113 http://deb.debian.org/debian unstable/main armhf liblzma-dev armhf 5.4.5-0.3 [281 kB]
Get:114 http://deb.debian.org/debian unstable/main armhf libunwind-dev armhf 1.6.2-3 [443 kB]
Get:115 http://deb.debian.org/debian unstable/main armhf libzstd-dev armhf 1.5.5+dfsg2-2 [322 kB]
Get:116 http://deb.debian.org/debian unstable/main armhf libelf-dev armhf 0.190-1+b1 [71.0 kB]
Get:117 http://deb.debian.org/debian unstable/main armhf libdw-dev armhf 0.190-1+b1 [303 kB]
Get:118 http://deb.debian.org/debian unstable/main armhf libgstreamer1.0-dev armhf 1.22.10-1 [556 kB]
Get:119 http://deb.debian.org/debian unstable/main armhf liborc-0.4-dev-bin armhf 1:0.4.34-3 [18.9 kB]
Get:120 http://deb.debian.org/debian unstable/main armhf liborc-0.4-dev armhf 1:0.4.34-3 [27.7 kB]
Get:121 http://deb.debian.org/debian unstable/main armhf xorg-sgml-doctools all 1:1.11-1.1 [22.1 kB]
Get:122 http://deb.debian.org/debian unstable/main armhf x11proto-dev all 2023.2-1 [598 kB]
Get:123 http://deb.debian.org/debian unstable/main armhf libxau-dev armhf 1:1.0.9-1 [22.4 kB]
Get:124 http://deb.debian.org/debian unstable/main armhf libxdmcp-dev armhf 1:1.1.2-3 [40.7 kB]
Get:125 http://deb.debian.org/debian unstable/main armhf xtrans-dev all 1.4.0-1 [98.7 kB]
Get:126 http://deb.debian.org/debian unstable/main armhf libpthread-stubs0-dev armhf 0.4-1 [5344 B]
Get:127 http://deb.debian.org/debian unstable/main armhf libxcb1-dev armhf 1.15-1 [179 kB]
Get:128 http://deb.debian.org/debian unstable/main armhf libx11-dev armhf 2:1.8.7-1 [816 kB]
Get:129 http://deb.debian.org/debian unstable/main armhf libglx-dev armhf 1.7.0-1 [15.5 kB]
Get:130 http://deb.debian.org/debian unstable/main armhf libgl-dev armhf 1.7.0-1 [100 kB]
Get:131 http://deb.debian.org/debian unstable/main armhf libegl-dev armhf 1.7.0-1 [19.2 kB]
Get:132 http://deb.debian.org/debian unstable/main armhf libgles1 armhf 1.7.0-1 [12.0 kB]
Get:133 http://deb.debian.org/debian unstable/main armhf libgles2 armhf 1.7.0-1 [17.4 kB]
Get:134 http://deb.debian.org/debian unstable/main armhf libgles-dev armhf 1.7.0-1 [50.5 kB]
Get:135 http://deb.debian.org/debian unstable/main armhf libx11-xcb-dev armhf 2:1.8.7-1 [234 kB]
Get:136 http://deb.debian.org/debian unstable/main armhf libwayland-bin armhf 1.22.0-2.1+b1 [18.0 kB]
Get:137 http://deb.debian.org/debian unstable/main armhf libwayland-dev armhf 1.22.0-2.1+b1 [70.6 kB]
Get:138 http://deb.debian.org/debian unstable/main armhf libdrm-omap1 armhf 2.4.120-2 [8776 B]
Get:139 http://deb.debian.org/debian unstable/main armhf libdrm-freedreno1 armhf 2.4.120-2 [18.8 kB]
Get:140 http://deb.debian.org/debian unstable/main armhf libdrm-exynos1 armhf 2.4.120-2 [12.7 kB]
Get:141 http://deb.debian.org/debian unstable/main armhf libdrm-tegra0 armhf 2.4.120-2 [10.2 kB]
Get:142 http://deb.debian.org/debian unstable/main armhf libdrm-etnaviv1 armhf 2.4.120-2 [12.6 kB]
Get:143 http://deb.debian.org/debian unstable/main armhf libpciaccess0 armhf 0.17-3 [49.0 kB]
Get:144 http://deb.debian.org/debian unstable/main armhf libpciaccess-dev armhf 0.17-3 [53.6 kB]
Get:145 http://deb.debian.org/debian unstable/main armhf libdrm-dev armhf 2.4.120-2 [256 kB]
Get:146 http://deb.debian.org/debian unstable/main armhf libgbm-dev armhf 24.0.1-1 [20.5 kB]
Get:147 http://deb.debian.org/debian unstable/main armhf libudev-dev armhf 255.3-2 [59.3 kB]
Get:148 http://deb.debian.org/debian unstable/main armhf libgudev-1.0-dev armhf 238-3 [29.0 kB]
Get:149 http://deb.debian.org/debian unstable/main armhf libgstreamer-plugins-base1.0-dev armhf 1.22.10-1 [523 kB]
Get:150 http://deb.debian.org/debian unstable/main armhf libdmapsharing-4.0-dev armhf 3.9.13-1 [122 kB]
debconf: delaying package configuration, since apt-utils is not installed
Fetched 63.6 MB in 9s (7262 kB/s)
Selecting previously unselected package libglib2.0-0:armhf.
(Reading database ... (Reading database ... 5%(Reading database ... 10%(Reading database ... 15%(Reading database ... 20%(Reading database ... 25%(Reading database ... 30%(Reading database ... 35%(Reading database ... 40%(Reading database ... 45%(Reading database ... 50%(Reading database ... 55%(Reading database ... 60%(Reading database ... 65%(Reading database ... 70%(Reading database ... 75%(Reading database ... 80%(Reading database ... 85%(Reading database ... 90%(Reading database ... 95%(Reading database ... 100%(Reading database ... 18072 files and directories currently installed.)
Preparing to unpack .../000-libglib2.0-0_2.78.4-1_armhf.deb ...
Unpacking libglib2.0-0:armhf (2.78.4-1) ...
Selecting previously unselected package libdconf1:armhf.
Preparing to unpack .../001-libdconf1_0.40.0-4+b1_armhf.deb ...
Unpacking libdconf1:armhf (0.40.0-4+b1) ...
Selecting previously unselected package dconf-service.
Preparing to unpack .../002-dconf-service_0.40.0-4+b1_armhf.deb ...
Unpacking dconf-service (0.40.0-4+b1) ...
Selecting previously unselected package dconf-gsettings-backend:armhf.
Preparing to unpack .../003-dconf-gsettings-backend_0.40.0-4+b1_armhf.deb ...
Unpacking dconf-gsettings-backend:armhf (0.40.0-4+b1) ...
Selecting previously unselected package gir1.2-glib-2.0:armhf.
Preparing to unpack .../004-gir1.2-glib-2.0_1.78.1-15_armhf.deb ...
Unpacking gir1.2-glib-2.0:armhf (1.78.1-15) ...
Selecting previously unselected package libdw1:armhf.
Preparing to unpack .../005-libdw1_0.190-1+b1_armhf.deb ...
Unpacking libdw1:armhf (0.190-1+b1) ...
Selecting previously unselected package libunwind8:armhf.
Preparing to unpack .../006-libunwind8_1.6.2-3_armhf.deb ...
Unpacking libunwind8:armhf (1.6.2-3) ...
Selecting previously unselected package libgstreamer1.0-0:armhf.
Preparing to unpack .../007-libgstreamer1.0-0_1.22.10-1_armhf.deb ...
Unpacking libgstreamer1.0-0:armhf (1.22.10-1) ...
Selecting previously unselected package gir1.2-gstreamer-1.0:armhf.
Preparing to unpack .../008-gir1.2-gstreamer-1.0_1.22.10-1_armhf.deb ...
Unpacking gir1.2-gstreamer-1.0:armhf (1.22.10-1) ...
Selecting previously unselected package libproxy1v5:armhf.
Preparing to unpack .../009-libproxy1v5_0.4.18-2_armhf.deb ...
Unpacking libproxy1v5:armhf (0.4.18-2) ...
Selecting previously unselected package glib-networking-common.
Preparing to unpack .../010-glib-networking-common_2.78.0-1_all.deb ...
Unpacking glib-networking-common (2.78.0-1) ...
Selecting previously unselected package glib-networking-services.
Preparing to unpack .../011-glib-networking-services_2.78.0-1+b1_armhf.deb ...
Unpacking glib-networking-services (2.78.0-1+b1) ...
Selecting previously unselected package gsettings-desktop-schemas.
Preparing to unpack .../012-gsettings-desktop-schemas_46~beta-3_all.deb ...
Unpacking gsettings-desktop-schemas (46~beta-3) ...
Selecting previously unselected package glib-networking:armhf.
Preparing to unpack .../013-glib-networking_2.78.0-1+b1_armhf.deb ...
Unpacking glib-networking:armhf (2.78.0-1+b1) ...
Selecting previously unselected package libsoup-3.0-common.
Preparing to unpack .../014-libsoup-3.0-common_3.4.4-5_all.deb ...
Unpacking libsoup-3.0-common (3.4.4-5) ...
Selecting previously unselected package libbrotli1:armhf.
Preparing to unpack .../015-libbrotli1_1.1.0-2+b3_armhf.deb ...
Unpacking libbrotli1:armhf (1.1.0-2+b3) ...
Selecting previously unselected package libnghttp2-14:armhf.
Preparing to unpack .../016-libnghttp2-14_1.59.0-1_armhf.deb ...
Unpacking libnghttp2-14:armhf (1.59.0-1) ...
Selecting previously unselected package libpsl5:armhf.
Preparing to unpack .../017-libpsl5_0.21.2-1+b1_armhf.deb ...
Unpacking libpsl5:armhf (0.21.2-1+b1) ...
Selecting previously unselected package libsoup-3.0-0:armhf.
Preparing to unpack .../018-libsoup-3.0-0_3.4.4-5_armhf.deb ...
Unpacking libsoup-3.0-0:armhf (3.4.4-5) ...
Selecting previously unselected package gir1.2-soup-3.0:armhf.
Preparing to unpack .../019-gir1.2-soup-3.0_3.4.4-5_armhf.deb ...
Unpacking gir1.2-soup-3.0:armhf (3.4.4-5) ...
Selecting previously unselected package libavahi-common-data:armhf.
Preparing to unpack .../020-libavahi-common-data_0.8-13+b1_armhf.deb ...
Unpacking libavahi-common-data:armhf (0.8-13+b1) ...
Selecting previously unselected package libavahi-common3:armhf.
Preparing to unpack .../021-libavahi-common3_0.8-13+b1_armhf.deb ...
Unpacking libavahi-common3:armhf (0.8-13+b1) ...
Selecting previously unselected package libavahi-client3:armhf.
Preparing to unpack .../022-libavahi-client3_0.8-13+b1_armhf.deb ...
Unpacking libavahi-client3:armhf (0.8-13+b1) ...
Selecting previously unselected package libavahi-glib1:armhf.
Preparing to unpack .../023-libavahi-glib1_0.8-13+b1_armhf.deb ...
Unpacking libavahi-glib1:armhf (0.8-13+b1) ...
Selecting previously unselected package libgdk-pixbuf2.0-common.
Preparing to unpack .../024-libgdk-pixbuf2.0-common_2.42.10+dfsg-3_all.deb ...
Unpacking libgdk-pixbuf2.0-common (2.42.10+dfsg-3) ...
Selecting previously unselected package shared-mime-info.
Preparing to unpack .../025-shared-mime-info_2.4-1_armhf.deb ...
Unpacking shared-mime-info (2.4-1) ...
Selecting previously unselected package libjpeg62-turbo:armhf.
Preparing to unpack .../026-libjpeg62-turbo_1%3a2.1.5-2+b2_armhf.deb ...
Unpacking libjpeg62-turbo:armhf (1:2.1.5-2+b2) ...
Selecting previously unselected package libpng16-16:armhf.
Preparing to unpack .../027-libpng16-16_1.6.42-1_armhf.deb ...
Unpacking libpng16-16:armhf (1.6.42-1) ...
Selecting previously unselected package libdeflate0:armhf.
Preparing to unpack .../028-libdeflate0_1.19-1_armhf.deb ...
Unpacking libdeflate0:armhf (1.19-1) ...
Selecting previously unselected package libjbig0:armhf.
Preparing to unpack .../029-libjbig0_2.1-6.1+b1_armhf.deb ...
Unpacking libjbig0:armhf (2.1-6.1+b1) ...
Selecting previously unselected package liblerc4:armhf.
Preparing to unpack .../030-liblerc4_4.0.0+ds-4+b1_armhf.deb ...
Unpacking liblerc4:armhf (4.0.0+ds-4+b1) ...
Selecting previously unselected package libsharpyuv0:armhf.
Preparing to unpack .../031-libsharpyuv0_1.3.2-0.4_armhf.deb ...
Unpacking libsharpyuv0:armhf (1.3.2-0.4) ...
Selecting previously unselected package libwebp7:armhf.
Preparing to unpack .../032-libwebp7_1.3.2-0.4_armhf.deb ...
Unpacking libwebp7:armhf (1.3.2-0.4) ...
Selecting previously unselected package libtiff6:armhf.
Preparing to unpack .../033-libtiff6_4.5.1+git230720-4_armhf.deb ...
Unpacking libtiff6:armhf (4.5.1+git230720-4) ...
Selecting previously unselected package libgdk-pixbuf-2.0-0:armhf.
Preparing to unpack .../034-libgdk-pixbuf-2.0-0_2.42.10+dfsg-3+b1_armhf.deb ...
Unpacking libgdk-pixbuf-2.0-0:armhf (2.42.10+dfsg-3+b1) ...
Selecting previously unselected package liborc-0.4-0:armhf.
Preparing to unpack .../035-liborc-0.4-0_1%3a0.4.34-3_armhf.deb ...
Unpacking liborc-0.4-0:armhf (1:0.4.34-3) ...
Selecting previously unselected package iso-codes.
Preparing to unpack .../036-iso-codes_4.16.0-1_all.deb ...
Unpacking iso-codes (4.16.0-1) ...
Selecting previously unselected package libgstreamer-plugins-base1.0-0:armhf.
Preparing to unpack .../037-libgstreamer-plugins-base1.0-0_1.22.10-1_armhf.deb ...
Unpacking libgstreamer-plugins-base1.0-0:armhf (1.22.10-1) ...
Selecting previously unselected package libdmapsharing-4.0-3:armhf.
Preparing to unpack .../038-libdmapsharing-4.0-3_3.9.13-1_armhf.deb ...
Unpacking libdmapsharing-4.0-3:armhf (3.9.13-1) ...
Selecting previously unselected package gir1.2-dmap-4.0:armhf.
Preparing to unpack .../039-gir1.2-dmap-4.0_3.9.13-1_armhf.deb ...
Unpacking gir1.2-dmap-4.0:armhf (3.9.13-1) ...
Selecting previously unselected package gir1.2-glib-2.0-dev:armhf.
Preparing to unpack .../040-gir1.2-glib-2.0-dev_1.78.1-15_armhf.deb ...
Unpacking gir1.2-glib-2.0-dev:armhf (1.78.1-15) ...
Selecting previously unselected package libdrm-common.
Preparing to unpack .../041-libdrm-common_2.4.120-2_all.deb ...
Unpacking libdrm-common (2.4.120-2) ...
Selecting previously unselected package libdrm2:armhf.
Preparing to unpack .../042-libdrm2_2.4.120-2_armhf.deb ...
Unpacking libdrm2:armhf (2.4.120-2) ...
Selecting previously unselected package libglvnd0:armhf.
Preparing to unpack .../043-libglvnd0_1.7.0-1_armhf.deb ...
Unpacking libglvnd0:armhf (1.7.0-1) ...
Selecting previously unselected package libwayland-server0:armhf.
Preparing to unpack .../044-libwayland-server0_1.22.0-2.1+b1_armhf.deb ...
Unpacking libwayland-server0:armhf (1.22.0-2.1+b1) ...
Selecting previously unselected package libxau6:armhf.
Preparing to unpack .../045-libxau6_1%3a1.0.9-1_armhf.deb ...
Unpacking libxau6:armhf (1:1.0.9-1) ...
Selecting previously unselected package libxdmcp6:armhf.
Preparing to unpack .../046-libxdmcp6_1%3a1.1.2-3_armhf.deb ...
Unpacking libxdmcp6:armhf (1:1.1.2-3) ...
Selecting previously unselected package libxcb1:armhf.
Preparing to unpack .../047-libxcb1_1.15-1_armhf.deb ...
Unpacking libxcb1:armhf (1.15-1) ...
Selecting previously unselected package libxcb-randr0:armhf.
Preparing to unpack .../048-libxcb-randr0_1.15-1_armhf.deb ...
Unpacking libxcb-randr0:armhf (1.15-1) ...
Selecting previously unselected package libgbm1:armhf.
Preparing to unpack .../049-libgbm1_24.0.1-1_armhf.deb ...
Unpacking libgbm1:armhf (24.0.1-1) ...
Selecting previously unselected package libglapi-mesa:armhf.
Preparing to unpack .../050-libglapi-mesa_24.0.1-1_armhf.deb ...
Unpacking libglapi-mesa:armhf (24.0.1-1) ...
Selecting previously unselected package libwayland-client0:armhf.
Preparing to unpack .../051-libwayland-client0_1.22.0-2.1+b1_armhf.deb ...
Unpacking libwayland-client0:armhf (1.22.0-2.1+b1) ...
Selecting previously unselected package libx11-data.
Preparing to unpack .../052-libx11-data_2%3a1.8.7-1_all.deb ...
Unpacking libx11-data (2:1.8.7-1) ...
Selecting previously unselected package libx11-6:armhf.
Preparing to unpack .../053-libx11-6_2%3a1.8.7-1_armhf.deb ...
Unpacking libx11-6:armhf (2:1.8.7-1) ...
Selecting previously unselected package libx11-xcb1:armhf.
Preparing to unpack .../054-libx11-xcb1_2%3a1.8.7-1_armhf.deb ...
Unpacking libx11-xcb1:armhf (2:1.8.7-1) ...
Selecting previously unselected package libxcb-dri2-0:armhf.
Preparing to unpack .../055-libxcb-dri2-0_1.15-1_armhf.deb ...
Unpacking libxcb-dri2-0:armhf (1.15-1) ...
Selecting previously unselected package libxcb-dri3-0:armhf.
Preparing to unpack .../056-libxcb-dri3-0_1.15-1_armhf.deb ...
Unpacking libxcb-dri3-0:armhf (1.15-1) ...
Selecting previously unselected package libxcb-present0:armhf.
Preparing to unpack .../057-libxcb-present0_1.15-1_armhf.deb ...
Unpacking libxcb-present0:armhf (1.15-1) ...
Selecting previously unselected package libxcb-sync1:armhf.
Preparing to unpack .../058-libxcb-sync1_1.15-1_armhf.deb ...
Unpacking libxcb-sync1:armhf (1.15-1) ...
Selecting previously unselected package libxcb-xfixes0:armhf.
Preparing to unpack .../059-libxcb-xfixes0_1.15-1_armhf.deb ...
Unpacking libxcb-xfixes0:armhf (1.15-1) ...
Selecting previously unselected package libxshmfence1:armhf.
Preparing to unpack .../060-libxshmfence1_1.3-1_armhf.deb ...
Unpacking libxshmfence1:armhf (1.3-1) ...
Selecting previously unselected package libegl-mesa0:armhf.
Preparing to unpack .../061-libegl-mesa0_24.0.1-1_armhf.deb ...
Unpacking libegl-mesa0:armhf (24.0.1-1) ...
Selecting previously unselected package libegl1:armhf.
Preparing to unpack .../062-libegl1_1.7.0-1_armhf.deb ...
Unpacking libegl1:armhf (1.7.0-1) ...
Selecting previously unselected package libxcb-glx0:armhf.
Preparing to unpack .../063-libxcb-glx0_1.15-1_armhf.deb ...
Unpacking libxcb-glx0:armhf (1.15-1) ...
Selecting previously unselected package libxcb-shm0:armhf.
Preparing to unpack .../064-libxcb-shm0_1.15-1_armhf.deb ...
Unpacking libxcb-shm0:armhf (1.15-1) ...
Selecting previously unselected package libxext6:armhf.
Preparing to unpack .../065-libxext6_2%3a1.3.4-1+b1_armhf.deb ...
Unpacking libxext6:armhf (2:1.3.4-1+b1) ...
Selecting previously unselected package libxfixes3:armhf.
Preparing to unpack .../066-libxfixes3_1%3a6.0.0-2_armhf.deb ...
Unpacking libxfixes3:armhf (1:6.0.0-2) ...
Selecting previously unselected package libxxf86vm1:armhf.
Preparing to unpack .../067-libxxf86vm1_1%3a1.1.4-1+b2_armhf.deb ...
Unpacking libxxf86vm1:armhf (1:1.1.4-1+b2) ...
Selecting previously unselected package libvulkan1:armhf.
Preparing to unpack .../068-libvulkan1_1.3.275.0-1_armhf.deb ...
Unpacking libvulkan1:armhf (1.3.275.0-1) ...
Selecting previously unselected package libdrm-amdgpu1:armhf.
Preparing to unpack .../069-libdrm-amdgpu1_2.4.120-2_armhf.deb ...
Unpacking libdrm-amdgpu1:armhf (2.4.120-2) ...
Selecting previously unselected package libdrm-nouveau2:armhf.
Preparing to unpack .../070-libdrm-nouveau2_2.4.120-2_armhf.deb ...
Unpacking libdrm-nouveau2:armhf (2.4.120-2) ...
Selecting previously unselected package libdrm-radeon1:armhf.
Preparing to unpack .../071-libdrm-radeon1_2.4.120-2_armhf.deb ...
Unpacking libdrm-radeon1:armhf (2.4.120-2) ...
Selecting previously unselected package libedit2:armhf.
Preparing to unpack .../072-libedit2_3.1-20230828-1_armhf.deb ...
Unpacking libedit2:armhf (3.1-20230828-1) ...
Selecting previously unselected package libz3-4:armhf.
Preparing to unpack .../073-libz3-4_4.8.12-3.1+b2_armhf.deb ...
Unpacking libz3-4:armhf (4.8.12-3.1+b2) ...
Selecting previously unselected package libllvm17:armhf.
Preparing to unpack .../074-libllvm17_1%3a17.0.6-5_armhf.deb ...
Unpacking libllvm17:armhf (1:17.0.6-5) ...
Selecting previously unselected package libsensors-config.
Preparing to unpack .../075-libsensors-config_1%3a3.6.0-8_all.deb ...
Unpacking libsensors-config (1:3.6.0-8) ...
Selecting previously unselected package libsensors5:armhf.
Preparing to unpack .../076-libsensors5_1%3a3.6.0-8+b1_armhf.deb ...
Unpacking libsensors5:armhf (1:3.6.0-8+b1) ...
Selecting previously unselected package libgl1-mesa-dri:armhf.
Preparing to unpack .../077-libgl1-mesa-dri_24.0.1-1_armhf.deb ...
Unpacking libgl1-mesa-dri:armhf (24.0.1-1) ...
Selecting previously unselected package libglx-mesa0:armhf.
Preparing to unpack .../078-libglx-mesa0_24.0.1-1_armhf.deb ...
Unpacking libglx-mesa0:armhf (24.0.1-1) ...
Selecting previously unselected package libglx0:armhf.
Preparing to unpack .../079-libglx0_1.7.0-1_armhf.deb ...
Unpacking libglx0:armhf (1.7.0-1) ...
Selecting previously unselected package libgl1:armhf.
Preparing to unpack .../080-libgl1_1.7.0-1_armhf.deb ...
Unpacking libgl1:armhf (1.7.0-1) ...
Selecting previously unselected package libgudev-1.0-0:armhf.
Preparing to unpack .../081-libgudev-1.0-0_238-3_armhf.deb ...
Unpacking libgudev-1.0-0:armhf (238-3) ...
Selecting previously unselected package libwayland-cursor0:armhf.
Preparing to unpack .../082-libwayland-cursor0_1.22.0-2.1+b1_armhf.deb ...
Unpacking libwayland-cursor0:armhf (1.22.0-2.1+b1) ...
Selecting previously unselected package libwayland-egl1:armhf.
Preparing to unpack .../083-libwayland-egl1_1.22.0-2.1+b1_armhf.deb ...
Unpacking libwayland-egl1:armhf (1.22.0-2.1+b1) ...
Selecting previously unselected package libgstreamer-gl1.0-0:armhf.
Preparing to unpack .../084-libgstreamer-gl1.0-0_1.22.10-1_armhf.deb ...
Unpacking libgstreamer-gl1.0-0:armhf (1.22.10-1) ...
Selecting previously unselected package gir1.2-gst-plugins-base-1.0:armhf.
Preparing to unpack .../085-gir1.2-gst-plugins-base-1.0_1.22.10-1_armhf.deb ...
Unpacking gir1.2-gst-plugins-base-1.0:armhf (1.22.10-1) ...
Selecting previously unselected package gir1.2-gudev-1.0:armhf.
Preparing to unpack .../086-gir1.2-gudev-1.0_238-3_armhf.deb ...
Unpacking gir1.2-gudev-1.0:armhf (238-3) ...
Selecting previously unselected package uuid-dev:armhf.
Preparing to unpack .../087-uuid-dev_2.39.3-6_armhf.deb ...
Unpacking uuid-dev:armhf (2.39.3-6) ...
Selecting previously unselected package libblkid-dev:armhf.
Preparing to unpack .../088-libblkid-dev_2.39.3-6_armhf.deb ...
Unpacking libblkid-dev:armhf (2.39.3-6) ...
Selecting previously unselected package libbrotli-dev:armhf.
Preparing to unpack .../089-libbrotli-dev_1.1.0-2+b3_armhf.deb ...
Unpacking libbrotli-dev:armhf (1.1.0-2+b3) ...
Selecting previously unselected package libffi-dev:armhf.
Preparing to unpack .../090-libffi-dev_3.4.4-2_armhf.deb ...
Unpacking libffi-dev:armhf (3.4.4-2) ...
Selecting previously unselected package libglib2.0-data.
Preparing to unpack .../091-libglib2.0-data_2.78.4-1_all.deb ...
Unpacking libglib2.0-data (2.78.4-1) ...
Selecting previously unselected package libglib2.0-bin.
Preparing to unpack .../092-libglib2.0-bin_2.78.4-1_armhf.deb ...
Unpacking libglib2.0-bin (2.78.4-1) ...
Selecting previously unselected package python3-packaging.
Preparing to unpack .../093-python3-packaging_23.2-1_all.deb ...
Unpacking python3-packaging (23.2-1) ...
Selecting previously unselected package libglib2.0-dev-bin.
Preparing to unpack .../094-libglib2.0-dev-bin_2.78.4-1_armhf.deb ...
Unpacking libglib2.0-dev-bin (2.78.4-1) ...
Selecting previously unselected package libsepol-dev:armhf.
Preparing to unpack .../095-libsepol-dev_3.5-2_armhf.deb ...
Unpacking libsepol-dev:armhf (3.5-2) ...
Selecting previously unselected package libpcre2-16-0:armhf.
Preparing to unpack .../096-libpcre2-16-0_10.42-4_armhf.deb ...
Unpacking libpcre2-16-0:armhf (10.42-4) ...
Selecting previously unselected package libpcre2-32-0:armhf.
Preparing to unpack .../097-libpcre2-32-0_10.42-4_armhf.deb ...
Unpacking libpcre2-32-0:armhf (10.42-4) ...
Selecting previously unselected package libpcre2-posix3:armhf.
Preparing to unpack .../098-libpcre2-posix3_10.42-4_armhf.deb ...
Unpacking libpcre2-posix3:armhf (10.42-4) ...
Selecting previously unselected package libpcre2-dev:armhf.
Preparing to unpack .../099-libpcre2-dev_10.42-4_armhf.deb ...
Unpacking libpcre2-dev:armhf (10.42-4) ...
Selecting previously unselected package libselinux1-dev:armhf.
Preparing to unpack .../100-libselinux1-dev_3.5-2_armhf.deb ...
Unpacking libselinux1-dev:armhf (3.5-2) ...
Selecting previously unselected package libmount-dev:armhf.
Preparing to unpack .../101-libmount-dev_2.39.3-6_armhf.deb ...
Unpacking libmount-dev:armhf (2.39.3-6) ...
Selecting previously unselected package libpkgconf3:armhf.
Preparing to unpack .../102-libpkgconf3_1.8.1-1+b2_armhf.deb ...
Unpacking libpkgconf3:armhf (1.8.1-1+b2) ...
Selecting previously unselected package pkgconf-bin.
Preparing to unpack .../103-pkgconf-bin_1.8.1-1+b2_armhf.deb ...
Unpacking pkgconf-bin (1.8.1-1+b2) ...
Selecting previously unselected package pkgconf:armhf.
Preparing to unpack .../104-pkgconf_1.8.1-1+b2_armhf.deb ...
Unpacking pkgconf:armhf (1.8.1-1+b2) ...
Selecting previously unselected package zlib1g-dev:armhf.
Preparing to unpack .../105-zlib1g-dev_1%3a1.3.dfsg-3+b1_armhf.deb ...
Unpacking zlib1g-dev:armhf (1:1.3.dfsg-3+b1) ...
Selecting previously unselected package libglib2.0-dev:armhf.
Preparing to unpack .../106-libglib2.0-dev_2.78.4-1_armhf.deb ...
Unpacking libglib2.0-dev:armhf (2.78.4-1) ...
Selecting previously unselected package libnghttp2-dev:armhf.
Preparing to unpack .../107-libnghttp2-dev_1.59.0-1_armhf.deb ...
Unpacking libnghttp2-dev:armhf (1.59.0-1) ...
Selecting previously unselected package libpsl-dev:armhf.
Preparing to unpack .../108-libpsl-dev_0.21.2-1+b1_armhf.deb ...
Unpacking libpsl-dev:armhf (0.21.2-1+b1) ...
Selecting previously unselected package libsqlite3-dev:armhf.
Preparing to unpack .../109-libsqlite3-dev_3.45.1-1_armhf.deb ...
Unpacking libsqlite3-dev:armhf (3.45.1-1) ...
Selecting previously unselected package libsysprof-capture-4-dev:armhf.
Preparing to unpack .../110-libsysprof-capture-4-dev_46~beta-1_armhf.deb ...
Unpacking libsysprof-capture-4-dev:armhf (46~beta-1) ...
Selecting previously unselected package libsoup-3.0-dev:armhf.
Preparing to unpack .../111-libsoup-3.0-dev_3.4.4-5_armhf.deb ...
Unpacking libsoup-3.0-dev:armhf (3.4.4-5) ...
Selecting previously unselected package liblzma-dev:armhf.
Preparing to unpack .../112-liblzma-dev_5.4.5-0.3_armhf.deb ...
Unpacking liblzma-dev:armhf (5.4.5-0.3) ...
Selecting previously unselected package libunwind-dev:armhf.
Preparing to unpack .../113-libunwind-dev_1.6.2-3_armhf.deb ...
Unpacking libunwind-dev:armhf (1.6.2-3) ...
Selecting previously unselected package libzstd-dev:armhf.
Preparing to unpack .../114-libzstd-dev_1.5.5+dfsg2-2_armhf.deb ...
Unpacking libzstd-dev:armhf (1.5.5+dfsg2-2) ...
Selecting previously unselected package libelf-dev:armhf.
Preparing to unpack .../115-libelf-dev_0.190-1+b1_armhf.deb ...
Unpacking libelf-dev:armhf (0.190-1+b1) ...
Selecting previously unselected package libdw-dev:armhf.
Preparing to unpack .../116-libdw-dev_0.190-1+b1_armhf.deb ...
Unpacking libdw-dev:armhf (0.190-1+b1) ...
Selecting previously unselected package libgstreamer1.0-dev:armhf.
Preparing to unpack .../117-libgstreamer1.0-dev_1.22.10-1_armhf.deb ...
Unpacking libgstreamer1.0-dev:armhf (1.22.10-1) ...
Selecting previously unselected package liborc-0.4-dev-bin.
Preparing to unpack .../118-liborc-0.4-dev-bin_1%3a0.4.34-3_armhf.deb ...
Unpacking liborc-0.4-dev-bin (1:0.4.34-3) ...
Selecting previously unselected package liborc-0.4-dev:armhf.
Preparing to unpack .../119-liborc-0.4-dev_1%3a0.4.34-3_armhf.deb ...
Unpacking liborc-0.4-dev:armhf (1:0.4.34-3) ...
Selecting previously unselected package xorg-sgml-doctools.
Preparing to unpack .../120-xorg-sgml-doctools_1%3a1.11-1.1_all.deb ...
Unpacking xorg-sgml-doctools (1:1.11-1.1) ...
Selecting previously unselected package x11proto-dev.
Preparing to unpack .../121-x11proto-dev_2023.2-1_all.deb ...
Unpacking x11proto-dev (2023.2-1) ...
Selecting previously unselected package libxau-dev:armhf.
Preparing to unpack .../122-libxau-dev_1%3a1.0.9-1_armhf.deb ...
Unpacking libxau-dev:armhf (1:1.0.9-1) ...
Selecting previously unselected package libxdmcp-dev:armhf.
Preparing to unpack .../123-libxdmcp-dev_1%3a1.1.2-3_armhf.deb ...
Unpacking libxdmcp-dev:armhf (1:1.1.2-3) ...
Selecting previously unselected package xtrans-dev.
Preparing to unpack .../124-xtrans-dev_1.4.0-1_all.deb ...
Unpacking xtrans-dev (1.4.0-1) ...
Selecting previously unselected package libpthread-stubs0-dev:armhf.
Preparing to unpack .../125-libpthread-stubs0-dev_0.4-1_armhf.deb ...
Unpacking libpthread-stubs0-dev:armhf (0.4-1) ...
Selecting previously unselected package libxcb1-dev:armhf.
Preparing to unpack .../126-libxcb1-dev_1.15-1_armhf.deb ...
Unpacking libxcb1-dev:armhf (1.15-1) ...
Selecting previously unselected package libx11-dev:armhf.
Preparing to unpack .../127-libx11-dev_2%3a1.8.7-1_armhf.deb ...
Unpacking libx11-dev:armhf (2:1.8.7-1) ...
Selecting previously unselected package libglx-dev:armhf.
Preparing to unpack .../128-libglx-dev_1.7.0-1_armhf.deb ...
Unpacking libglx-dev:armhf (1.7.0-1) ...
Selecting previously unselected package libgl-dev:armhf.
Preparing to unpack .../129-libgl-dev_1.7.0-1_armhf.deb ...
Unpacking libgl-dev:armhf (1.7.0-1) ...
Selecting previously unselected package libegl-dev:armhf.
Preparing to unpack .../130-libegl-dev_1.7.0-1_armhf.deb ...
Unpacking libegl-dev:armhf (1.7.0-1) ...
Selecting previously unselected package libgles1:armhf.
Preparing to unpack .../131-libgles1_1.7.0-1_armhf.deb ...
Unpacking libgles1:armhf (1.7.0-1) ...
Selecting previously unselected package libgles2:armhf.
Preparing to unpack .../132-libgles2_1.7.0-1_armhf.deb ...
Unpacking libgles2:armhf (1.7.0-1) ...
Selecting previously unselected package libgles-dev:armhf.
Preparing to unpack .../133-libgles-dev_1.7.0-1_armhf.deb ...
Unpacking libgles-dev:armhf (1.7.0-1) ...
Selecting previously unselected package libx11-xcb-dev:armhf.
Preparing to unpack .../134-libx11-xcb-dev_2%3a1.8.7-1_armhf.deb ...
Unpacking libx11-xcb-dev:armhf (2:1.8.7-1) ...
Selecting previously unselected package libwayland-bin.
Preparing to unpack .../135-libwayland-bin_1.22.0-2.1+b1_armhf.deb ...
Unpacking libwayland-bin (1.22.0-2.1+b1) ...
Selecting previously unselected package libwayland-dev:armhf.
Preparing to unpack .../136-libwayland-dev_1.22.0-2.1+b1_armhf.deb ...
Unpacking libwayland-dev:armhf (1.22.0-2.1+b1) ...
Selecting previously unselected package libdrm-omap1:armhf.
Preparing to unpack .../137-libdrm-omap1_2.4.120-2_armhf.deb ...
Unpacking libdrm-omap1:armhf (2.4.120-2) ...
Selecting previously unselected package libdrm-freedreno1:armhf.
Preparing to unpack .../138-libdrm-freedreno1_2.4.120-2_armhf.deb ...
Unpacking libdrm-freedreno1:armhf (2.4.120-2) ...
Selecting previously unselected package libdrm-exynos1:armhf.
Preparing to unpack .../139-libdrm-exynos1_2.4.120-2_armhf.deb ...
Unpacking libdrm-exynos1:armhf (2.4.120-2) ...
Selecting previously unselected package libdrm-tegra0:armhf.
Preparing to unpack .../140-libdrm-tegra0_2.4.120-2_armhf.deb ...
Unpacking libdrm-tegra0:armhf (2.4.120-2) ...
Selecting previously unselected package libdrm-etnaviv1:armhf.
Preparing to unpack .../141-libdrm-etnaviv1_2.4.120-2_armhf.deb ...
Unpacking libdrm-etnaviv1:armhf (2.4.120-2) ...
Selecting previously unselected package libpciaccess0:armhf.
Preparing to unpack .../142-libpciaccess0_0.17-3_armhf.deb ...
Unpacking libpciaccess0:armhf (0.17-3) ...
Selecting previously unselected package libpciaccess-dev:armhf.
Preparing to unpack .../143-libpciaccess-dev_0.17-3_armhf.deb ...
Unpacking libpciaccess-dev:armhf (0.17-3) ...
Selecting previously unselected package libdrm-dev:armhf.
Preparing to unpack .../144-libdrm-dev_2.4.120-2_armhf.deb ...
Unpacking libdrm-dev:armhf (2.4.120-2) ...
Selecting previously unselected package libgbm-dev:armhf.
Preparing to unpack .../145-libgbm-dev_24.0.1-1_armhf.deb ...
Unpacking libgbm-dev:armhf (24.0.1-1) ...
Selecting previously unselected package libudev-dev:armhf.
Preparing to unpack .../146-libudev-dev_255.3-2_armhf.deb ...
Unpacking libudev-dev:armhf (255.3-2) ...
Selecting previously unselected package libgudev-1.0-dev:armhf.
Preparing to unpack .../147-libgudev-1.0-dev_238-3_armhf.deb ...
Unpacking libgudev-1.0-dev:armhf (238-3) ...
Selecting previously unselected package libgstreamer-plugins-base1.0-dev.
Preparing to unpack .../148-libgstreamer-plugins-base1.0-dev_1.22.10-1_armhf.deb ...
Unpacking libgstreamer-plugins-base1.0-dev (1.22.10-1) ...
Selecting previously unselected package libdmapsharing-4.0-dev:armhf.
Preparing to unpack .../149-libdmapsharing-4.0-dev_3.9.13-1_armhf.deb ...
Unpacking libdmapsharing-4.0-dev:armhf (3.9.13-1) ...
Setting up libsharpyuv0:armhf (1.3.2-0.4) ...
Setting up libwayland-server0:armhf (1.22.0-2.1+b1) ...
Setting up libpciaccess0:armhf (0.17-3) ...
Setting up libdw1:armhf (0.190-1+b1) ...
Setting up libxau6:armhf (1:1.0.9-1) ...
Setting up libxdmcp6:armhf (1:1.1.2-3) ...
Setting up libproxy1v5:armhf (0.4.18-2) ...
Setting up libpsl5:armhf (0.21.2-1+b1) ...
Setting up libxcb1:armhf (1.15-1) ...
Setting up libpciaccess-dev:armhf (0.17-3) ...
Setting up libxcb-xfixes0:armhf (1.15-1) ...
Setting up libzstd-dev:armhf (1.5.5+dfsg2-2) ...
Setting up liblerc4:armhf (4.0.0+ds-4+b1) ...
Setting up libglib2.0-0:armhf (2.78.4-1) ...
Setting up libglvnd0:armhf (1.7.0-1) ...
Setting up libxcb-glx0:armhf (1.15-1) ...
Setting up libbrotli1:armhf (1.1.0-2+b3) ...
Setting up libedit2:armhf (3.1-20230828-1) ...
Setting up libgdk-pixbuf2.0-common (2.42.10+dfsg-3) ...
Setting up libsensors-config (1:3.6.0-8) ...
Setting up libnghttp2-14:armhf (1.59.0-1) ...
Setting up libdeflate0:armhf (1.19-1) ...
Setting up libxcb-shm0:armhf (1.15-1) ...
Setting up libsoup-3.0-common (3.4.4-5) ...
Setting up libffi-dev:armhf (3.4.4-2) ...
Setting up libunwind8:armhf (1.6.2-3) ...
Setting up libpthread-stubs0-dev:armhf (0.4-1) ...
Setting up libjbig0:armhf (2.1-6.1+b1) ...
Setting up libpcre2-16-0:armhf (10.42-4) ...
Setting up libpsl-dev:armhf (0.21.2-1+b1) ...
Setting up libxcb-present0:armhf (1.15-1) ...
Setting up libdconf1:armhf (0.40.0-4+b1) ...
Setting up libsysprof-capture-4-dev:armhf (46~beta-1) ...
Setting up xtrans-dev (1.4.0-1) ...
Setting up libwayland-bin (1.22.0-2.1+b1) ...
Setting up libz3-4:armhf (4.8.12-3.1+b2) ...
Setting up libpcre2-32-0:armhf (10.42-4) ...
Setting up libglib2.0-data (2.78.4-1) ...
Setting up python3-packaging (23.2-1) ...
Setting up libpkgconf3:armhf (1.8.1-1+b2) ...
Setting up libgles2:armhf (1.7.0-1) ...
Setting up libjpeg62-turbo:armhf (1:2.1.5-2+b2) ...
Setting up libsqlite3-dev:armhf (3.45.1-1) ...
Setting up libx11-data (2:1.8.7-1) ...
Setting up libxcb-sync1:armhf (1.15-1) ...
Setting up uuid-dev:armhf (2.39.3-6) ...
Setting up libavahi-common-data:armhf (0.8-13+b1) ...
Setting up libgles1:armhf (1.7.0-1) ...
Setting up shared-mime-info (2.4-1) ...
Setting up libpng16-16:armhf (1.6.42-1) ...
Setting up liborc-0.4-0:armhf (1:0.4.34-3) ...
Setting up libudev-dev:armhf (255.3-2) ...
Setting up libsepol-dev:armhf (3.5-2) ...
Setting up pkgconf-bin (1.8.1-1+b2) ...
Setting up gir1.2-glib-2.0:armhf (1.78.1-15) ...
Setting up libsensors5:armhf (1:3.6.0-8+b1) ...
Setting up libglapi-mesa:armhf (24.0.1-1) ...
Setting up libvulkan1:armhf (1.3.275.0-1) ...
Setting up libwebp7:armhf (1.3.2-0.4) ...
Setting up liblzma-dev:armhf (5.4.5-0.3) ...
Setting up libxcb-dri2-0:armhf (1.15-1) ...
Setting up zlib1g-dev:armhf (1:1.3.dfsg-3+b1) ...
Setting up libpcre2-posix3:armhf (10.42-4) ...
Setting up gir1.2-glib-2.0-dev:armhf (1.78.1-15) ...
Setting up libxshmfence1:armhf (1.3-1) ...
Setting up libtiff6:armhf (4.5.1+git230720-4) ...
Setting up libxcb-randr0:armhf (1.15-1) ...
Setting up libx11-6:armhf (2:1.8.7-1) ...
Setting up xorg-sgml-doctools (1:1.11-1.1) ...
Setting up libgdk-pixbuf-2.0-0:armhf (2.42.10+dfsg-3+b1) ...
Setting up libwayland-egl1:armhf (1.22.0-2.1+b1) ...
Setting up glib-networking-common (2.78.0-1) ...
Setting up libllvm17:armhf (1:17.0.6-5) ...
Setting up libdrm-common (2.4.120-2) ...
Setting up iso-codes (4.16.0-1) ...
Setting up libbrotli-dev:armhf (1.1.0-2+b3) ...
Setting up libgudev-1.0-0:armhf (238-3) ...
Setting up libgstreamer1.0-0:armhf (1.22.10-1) ...
Setcap worked! gst-ptp-helper is not suid!
Setting up libwayland-client0:armhf (1.22.0-2.1+b1) ...
Setting up x11proto-dev (2023.2-1) ...
Setting up libxcb-dri3-0:armhf (1.15-1) ...
Setting up libglib2.0-dev-bin (2.78.4-1) ...
Setting up glib-networking-services (2.78.0-1+b1) ...
Setting up libblkid-dev:armhf (2.39.3-6) ...
Setting up libx11-xcb1:armhf (2:1.8.7-1) ...
Setting up gir1.2-gstreamer-1.0:armhf (1.22.10-1) ...
Setting up libxau-dev:armhf (1:1.0.9-1) ...
Setting up libunwind-dev:armhf (1.6.2-3) ...
Setting up libpcre2-dev:armhf (10.42-4) ...
Setting up libselinux1-dev:armhf (3.5-2) ...
Setting up libavahi-common3:armhf (0.8-13+b1) ...
Setting up libxext6:armhf (2:1.3.4-1+b1) ...
Setting up libglib2.0-bin (2.78.4-1) ...
Setting up liborc-0.4-dev-bin (1:0.4.34-3) ...
Setting up libgstreamer-plugins-base1.0-0:armhf (1.22.10-1) ...
Setting up dconf-service (0.40.0-4+b1) ...
Setting up pkgconf:armhf (1.8.1-1+b2) ...
Setting up libxxf86vm1:armhf (1:1.1.4-1+b2) ...
Setting up libxdmcp-dev:armhf (1:1.1.2-3) ...
Setting up libxfixes3:armhf (1:6.0.0-2) ...
Setting up gir1.2-gudev-1.0:armhf (238-3) ...
Setting up libelf-dev:armhf (0.190-1+b1) ...
Setting up libdrm2:armhf (2.4.120-2) ...
Setting up libwayland-cursor0:armhf (1.22.0-2.1+b1) ...
Setting up libavahi-glib1:armhf (0.8-13+b1) ...
Setting up libdrm-omap1:armhf (2.4.120-2) ...
Setting up liborc-0.4-dev:armhf (1:0.4.34-3) ...
Setting up libavahi-client3:armhf (0.8-13+b1) ...
Setting up libmount-dev:armhf (2.39.3-6) ...
Setting up libdrm-exynos1:armhf (2.4.120-2) ...
Setting up libdrm-amdgpu1:armhf (2.4.120-2) ...
Setting up libnghttp2-dev:armhf (1.59.0-1) ...
Setting up libdrm-nouveau2:armhf (2.4.120-2) ...
Setting up libdrm-etnaviv1:armhf (2.4.120-2) ...
Setting up libxcb1-dev:armhf (1.15-1) ...
Setting up dconf-gsettings-backend:armhf (0.40.0-4+b1) ...
Setting up libgbm1:armhf (24.0.1-1) ...
Setting up libdrm-radeon1:armhf (2.4.120-2) ...
Setting up libgl1-mesa-dri:armhf (24.0.1-1) ...
Setting up libx11-dev:armhf (2:1.8.7-1) ...
Setting up libwayland-dev:armhf (1.22.0-2.1+b1) ...
Setting up libdw-dev:armhf (0.190-1+b1) ...
Setting up libgbm-dev:armhf (24.0.1-1) ...
Setting up libegl-mesa0:armhf (24.0.1-1) ...
Setting up libglib2.0-dev:armhf (2.78.4-1) ...
Setting up libdrm-freedreno1:armhf (2.4.120-2) ...
Setting up libdrm-tegra0:armhf (2.4.120-2) ...
Setting up libegl1:armhf (1.7.0-1) ...
Setting up gsettings-desktop-schemas (46~beta-3) ...
Setting up libx11-xcb-dev:armhf (2:1.8.7-1) ...
Setting up libdrm-dev:armhf (2.4.120-2) ...
Setting up libglx-mesa0:armhf (24.0.1-1) ...
Setting up libglx0:armhf (1.7.0-1) ...
Setting up libgstreamer1.0-dev:armhf (1.22.10-1) ...
Setting up libgudev-1.0-dev:armhf (238-3) ...
Setting up libgl1:armhf (1.7.0-1) ...
Setting up libglx-dev:armhf (1.7.0-1) ...
Setting up glib-networking:armhf (2.78.0-1+b1) ...
Setting up libgl-dev:armhf (1.7.0-1) ...
Setting up libegl-dev:armhf (1.7.0-1) ...
Setting up libsoup-3.0-0:armhf (3.4.4-5) ...
Setting up libgstreamer-gl1.0-0:armhf (1.22.10-1) ...
Setting up gir1.2-soup-3.0:armhf (3.4.4-5) ...
Setting up libdmapsharing-4.0-3:armhf (3.9.13-1) ...
Setting up libgles-dev:armhf (1.7.0-1) ...
Setting up gir1.2-dmap-4.0:armhf (3.9.13-1) ...
Setting up gir1.2-gst-plugins-base-1.0:armhf (1.22.10-1) ...
Setting up libgstreamer-plugins-base1.0-dev (1.22.10-1) ...
Setting up libsoup-3.0-dev:armhf (3.4.4-5) ...
Setting up libdmapsharing-4.0-dev:armhf (3.9.13-1) ...
Processing triggers for libc-bin (2.37-13) ...
Reading package lists...
Building dependency tree...
Reading state information...
The following packages will be REMOVED:
  libdieharder-dev* libdieharder3* libgsl-dev* libgsl27* libgslcblas0*
0 upgraded, 0 newly installed, 5 to remove and 42 not upgraded.
After this operation, 8185 kB disk space will be freed.
(Reading database ... (Reading database ... 5%(Reading database ... 10%(Reading database ... 15%(Reading database ... 20%(Reading database ... 25%(Reading database ... 30%(Reading database ... 35%(Reading database ... 40%(Reading database ... 45%(Reading database ... 50%(Reading database ... 55%(Reading database ... 60%(Reading database ... 65%(Reading database ... 70%(Reading database ... 75%(Reading database ... 80%(Reading database ... 85%(Reading database ... 90%(Reading database ... 95%(Reading database ... 100%(Reading database ... 23553 files and directories currently installed.)
Removing libdieharder-dev (3.31.1.4-1) ...
Removing libdieharder3 (3.31.1.4-1) ...
Removing libgsl-dev (2.7.1+dfsg-6+b1) ...
Removing libgsl27:armhf (2.7.1+dfsg-6+b1) ...
Removing libgslcblas0:armhf (2.7.1+dfsg-6+b1) ...
Processing triggers for libc-bin (2.37-13) ...
