[2024-01-08T19:33:14+00:00] apt-get install mosquitto-dev abi-compliance-checker
Reading package lists...
Building dependency tree...
Reading state information...
abi-compliance-checker is already the newest version (2.3-2).
The following packages were automatically installed and are no longer required:
  libglib2.0-0 libmoonshot1 moonshot-ui-dev
Use 'apt autoremove' to remove them.
The following additional packages will be installed:
  libcjson1 libdlt2 libmosquitto1 libwebsockets19 libwrap0 mosquitto
Suggested packages:
  apparmor
The following NEW packages will be installed:
  libcjson1 libdlt2 libmosquitto1 libwebsockets19 libwrap0 mosquitto
  mosquitto-dev
0 upgraded, 7 newly installed, 0 to remove and 12 not upgraded.
Need to get 735 kB of archives.
After this operation, 1532 kB of additional disk space will be used.
Get:1 http://deb.debian.org/debian unstable/main armhf libcjson1 armhf 1.7.17-1 [25.3 kB]
Get:2 http://deb.debian.org/debian unstable/main armhf libmosquitto1 armhf 2.0.18-1 [85.6 kB]
Get:3 http://deb.debian.org/debian unstable/main armhf libdlt2 armhf 2.18.10-9+b1 [54.3 kB]
Get:4 http://deb.debian.org/debian unstable/main armhf libwebsockets19 armhf 4.3.3-1 [200 kB]
Get:5 http://deb.debian.org/debian unstable/main armhf libwrap0 armhf 7.6.q-32 [52.6 kB]
Get:6 http://deb.debian.org/debian unstable/main armhf mosquitto armhf 2.0.18-1 [258 kB]
Get:7 http://deb.debian.org/debian unstable/main armhf mosquitto-dev all 2.0.18-1 [59.8 kB]
debconf: delaying package configuration, since apt-utils is not installed
Fetched 735 kB in 0s (2228 kB/s)
Selecting previously unselected package libcjson1:armhf.
(Reading database ... (Reading database ... 5%(Reading database ... 10%(Reading database ... 15%(Reading database ... 20%(Reading database ... 25%(Reading database ... 30%(Reading database ... 35%(Reading database ... 40%(Reading database ... 45%(Reading database ... 50%(Reading database ... 55%(Reading database ... 60%(Reading database ... 65%(Reading database ... 70%(Reading database ... 75%(Reading database ... 80%(Reading database ... 85%(Reading database ... 90%(Reading database ... 95%(Reading database ... 100%(Reading database ... 19412 files and directories currently installed.)
Preparing to unpack .../0-libcjson1_1.7.17-1_armhf.deb ...
Unpacking libcjson1:armhf (1.7.17-1) ...
Selecting previously unselected package libmosquitto1:armhf.
Preparing to unpack .../1-libmosquitto1_2.0.18-1_armhf.deb ...
Unpacking libmosquitto1:armhf (2.0.18-1) ...
Selecting previously unselected package libdlt2:armhf.
Preparing to unpack .../2-libdlt2_2.18.10-9+b1_armhf.deb ...
Unpacking libdlt2:armhf (2.18.10-9+b1) ...
Selecting previously unselected package libwebsockets19:armhf.
Preparing to unpack .../3-libwebsockets19_4.3.3-1_armhf.deb ...
Unpacking libwebsockets19:armhf (4.3.3-1) ...
Selecting previously unselected package libwrap0:armhf.
Preparing to unpack .../4-libwrap0_7.6.q-32_armhf.deb ...
Unpacking libwrap0:armhf (7.6.q-32) ...
Selecting previously unselected package mosquitto.
Preparing to unpack .../5-mosquitto_2.0.18-1_armhf.deb ...
Unpacking mosquitto (2.0.18-1) ...
Selecting previously unselected package mosquitto-dev.
Preparing to unpack .../6-mosquitto-dev_2.0.18-1_all.deb ...
Unpacking mosquitto-dev (2.0.18-1) ...
Setting up libmosquitto1:armhf (2.0.18-1) ...
Setting up libcjson1:armhf (1.7.17-1) ...
Setting up libwebsockets19:armhf (4.3.3-1) ...
Setting up libwrap0:armhf (7.6.q-32) ...
Setting up libdlt2:armhf (2.18.10-9+b1) ...
Setting up mosquitto (2.0.18-1) ...
invoke-rc.d: could not determine current runlevel
Created symlink /etc/systemd/system/multi-user.target.wants/mosquitto.service → /usr/lib/systemd/system/mosquitto.service.
Setting up mosquitto-dev (2.0.18-1) ...
Processing triggers for libc-bin (2.37-13) ...
Reading package lists...
Building dependency tree...
Reading state information...
The following packages will be REMOVED:
  libglib2.0-0* libmoonshot1* moonshot-ui-dev*
0 upgraded, 0 newly installed, 3 to remove and 12 not upgraded.
After this operation, 3217 kB disk space will be freed.
(Reading database ... (Reading database ... 5%(Reading database ... 10%(Reading database ... 15%(Reading database ... 20%(Reading database ... 25%(Reading database ... 30%(Reading database ... 35%(Reading database ... 40%(Reading database ... 45%(Reading database ... 50%(Reading database ... 55%(Reading database ... 60%(Reading database ... 65%(Reading database ... 70%(Reading database ... 75%(Reading database ... 80%(Reading database ... 85%(Reading database ... 90%(Reading database ... 95%(Reading database ... 100%(Reading database ... 19495 files and directories currently installed.)
Removing moonshot-ui-dev (1.1.0+libsecret~2+b2) ...
Removing libmoonshot1:armhf (1.1.0+libsecret~2+b2) ...
Removing libglib2.0-0:armhf (2.78.3-1) ...
Processing triggers for libc-bin (2.37-13) ...
(Reading database ... (Reading database ... 5%(Reading database ... 10%(Reading database ... 15%(Reading database ... 20%(Reading database ... 25%(Reading database ... 30%(Reading database ... 35%(Reading database ... 40%(Reading database ... 45%(Reading database ... 50%(Reading database ... 55%(Reading database ... 60%(Reading database ... 65%(Reading database ... 70%(Reading database ... 75%(Reading database ... 80%(Reading database ... 85%(Reading database ... 90%(Reading database ... 95%(Reading database ... 100%(Reading database ... 19457 files and directories currently installed.)
Purging configuration files for libglib2.0-0:armhf (2.78.3-1) ...
