[2024-01-31T16:56:55+00:00] apt-get install blt-dev abi-compliance-checker
Reading package lists...
Building dependency tree...
Reading state information...
abi-compliance-checker is already the newest version (2.3-2).
The following package was automatically installed and is no longer required:
  binutils-dev
Use 'apt autoremove' to remove it.
The following additional packages will be installed:
  bzip2 fontconfig-config fonts-dejavu-core fonts-dejavu-mono libbrotli-dev
  libbrotli1 libbz2-1.0 libbz2-dev libexpat1-dev libfontconfig-dev
  libfontconfig1 libfontconfig1-dev libfreetype-dev libfreetype6 libpkgconf3
  libpng-dev libpng16-16 libpthread-stubs0-dev libtcl8.6 libtk8.6 libx11-6
  libx11-data libx11-dev libxau-dev libxau6 libxcb1 libxcb1-dev libxdmcp-dev
  libxdmcp6 libxext-dev libxext6 libxft-dev libxft2 libxrender-dev libxrender1
  libxss-dev libxss1 pkg-config pkgconf pkgconf-bin tcl8.6 tcl8.6-dev tk8.6
  tk8.6-blt2.5 tk8.6-dev uuid-dev x11-common x11proto-core-dev x11proto-dev
  xorg-sgml-doctools xtrans-dev
Suggested packages:
  blt-demo bzip2-doc freetype2-doc libx11-doc libxcb-doc libxext-doc
  tcl-tclreadline tcl8.6-doc tk8.6-doc
Recommended packages:
  bzip2-doc libpng-tools
The following NEW packages will be installed:
  blt-dev fontconfig-config fonts-dejavu-core fonts-dejavu-mono libbrotli-dev
  libbrotli1 libbz2-dev libexpat1-dev libfontconfig-dev libfontconfig1
  libfontconfig1-dev libfreetype-dev libfreetype6 libpkgconf3 libpng-dev
  libpng16-16 libpthread-stubs0-dev libtcl8.6 libtk8.6 libx11-6 libx11-data
  libx11-dev libxau-dev libxau6 libxcb1 libxcb1-dev libxdmcp-dev libxdmcp6
  libxext-dev libxext6 libxft-dev libxft2 libxrender-dev libxrender1
  libxss-dev libxss1 pkg-config pkgconf pkgconf-bin tcl8.6 tcl8.6-dev tk8.6
  tk8.6-blt2.5 tk8.6-dev uuid-dev x11-common x11proto-core-dev x11proto-dev
  xorg-sgml-doctools xtrans-dev
The following packages will be upgraded:
  bzip2 libbz2-1.0
2 upgraded, 50 newly installed, 0 to remove and 70 not upgraded.
Need to get 13.8 MB of archives.
After this operation, 37.4 MB of additional disk space will be used.
Get:1 http://deb.debian.org/debian unstable/main armhf bzip2 armhf 1.0.8-5+b2 [39.4 kB]
Get:2 http://deb.debian.org/debian unstable/main armhf libbz2-1.0 armhf 1.0.8-5+b2 [34.9 kB]
Get:3 http://deb.debian.org/debian unstable/main armhf libtcl8.6 armhf 8.6.13+dfsg-2 [922 kB]
Get:4 http://deb.debian.org/debian unstable/main armhf libbrotli1 armhf 1.1.0-2+b3 [284 kB]
Get:5 http://deb.debian.org/debian unstable/main armhf libpng16-16 armhf 1.6.42-1 [261 kB]
Get:6 http://deb.debian.org/debian unstable/main armhf libfreetype6 armhf 2.13.2+dfsg-1+b1 [371 kB]
Get:7 http://deb.debian.org/debian unstable/main armhf fonts-dejavu-mono all 2.37-8 [489 kB]
Get:8 http://deb.debian.org/debian unstable/main armhf fonts-dejavu-core all 2.37-8 [840 kB]
Get:9 http://deb.debian.org/debian unstable/main armhf fontconfig-config armhf 2.14.2-6+b1 [316 kB]
Get:10 http://deb.debian.org/debian unstable/main armhf libfontconfig1 armhf 2.14.2-6+b1 [369 kB]
Get:11 http://deb.debian.org/debian unstable/main armhf libxau6 armhf 1:1.0.9-1 [19.0 kB]
Get:12 http://deb.debian.org/debian unstable/main armhf libxdmcp6 armhf 1:1.1.2-3 [24.9 kB]
Get:13 http://deb.debian.org/debian unstable/main armhf libxcb1 armhf 1.15-1 [140 kB]
Get:14 http://deb.debian.org/debian unstable/main armhf libx11-data all 2:1.8.7-1 [328 kB]
Get:15 http://deb.debian.org/debian unstable/main armhf libx11-6 armhf 2:1.8.7-1 [735 kB]
Get:16 http://deb.debian.org/debian unstable/main armhf libxrender1 armhf 1:0.9.10-1.1 [30.1 kB]
Get:17 http://deb.debian.org/debian unstable/main armhf libxft2 armhf 2.3.6-1 [53.8 kB]
Get:18 http://deb.debian.org/debian unstable/main armhf libxext6 armhf 2:1.3.4-1+b1 [47.8 kB]
Get:19 http://deb.debian.org/debian unstable/main armhf x11-common all 1:7.7+23 [252 kB]
Get:20 http://deb.debian.org/debian unstable/main armhf libxss1 armhf 1:1.2.3-1 [17.2 kB]
Get:21 http://deb.debian.org/debian unstable/main armhf libtk8.6 armhf 8.6.13-2 [689 kB]
Get:22 http://deb.debian.org/debian unstable/main armhf tk8.6-blt2.5 armhf 2.5.3+dfsg-7 [481 kB]
Get:23 http://deb.debian.org/debian unstable/main armhf xorg-sgml-doctools all 1:1.11-1.1 [22.1 kB]
Get:24 http://deb.debian.org/debian unstable/main armhf x11proto-dev all 2023.2-1 [598 kB]
Get:25 http://deb.debian.org/debian unstable/main armhf x11proto-core-dev all 2023.2-1 [3288 B]
Get:26 http://deb.debian.org/debian unstable/main armhf libxau-dev armhf 1:1.0.9-1 [22.4 kB]
Get:27 http://deb.debian.org/debian unstable/main armhf libxdmcp-dev armhf 1:1.1.2-3 [40.7 kB]
Get:28 http://deb.debian.org/debian unstable/main armhf xtrans-dev all 1.4.0-1 [98.7 kB]
Get:29 http://deb.debian.org/debian unstable/main armhf libpthread-stubs0-dev armhf 0.4-1 [5344 B]
Get:30 http://deb.debian.org/debian unstable/main armhf libxcb1-dev armhf 1.15-1 [179 kB]
Get:31 http://deb.debian.org/debian unstable/main armhf libx11-dev armhf 2:1.8.7-1 [816 kB]
Get:32 http://deb.debian.org/debian unstable/main armhf libxext-dev armhf 2:1.3.4-1+b1 [103 kB]
Get:33 http://deb.debian.org/debian unstable/main armhf libxss-dev armhf 1:1.2.3-1 [23.1 kB]
Get:34 http://deb.debian.org/debian unstable/main armhf libexpat1-dev armhf 2.5.0-2+b2 [134 kB]
Get:35 http://deb.debian.org/debian unstable/main armhf libbrotli-dev armhf 1.1.0-2+b3 [292 kB]
Get:36 http://deb.debian.org/debian unstable/main armhf libbz2-dev armhf 1.0.8-5+b2 [28.2 kB]
Get:37 http://deb.debian.org/debian unstable/main armhf libpng-dev armhf 1.6.42-1 [344 kB]
Get:38 http://deb.debian.org/debian unstable/main armhf libfreetype-dev armhf 2.13.2+dfsg-1+b1 [546 kB]
Get:39 http://deb.debian.org/debian unstable/main armhf uuid-dev armhf 2.39.3-6 [39.6 kB]
Get:40 http://deb.debian.org/debian unstable/main armhf libpkgconf3 armhf 1.8.1-1+b2 [31.9 kB]
Get:41 http://deb.debian.org/debian unstable/main armhf pkgconf-bin armhf 1.8.1-1+b2 [28.9 kB]
Get:42 http://deb.debian.org/debian unstable/main armhf pkgconf armhf 1.8.1-1+b2 [26.2 kB]
Get:43 http://deb.debian.org/debian unstable/main armhf pkg-config armhf 1.8.1-1+b2 [14.0 kB]
Get:44 http://deb.debian.org/debian unstable/main armhf libfontconfig-dev armhf 2.14.2-6+b1 [394 kB]
Get:45 http://deb.debian.org/debian unstable/main armhf libfontconfig1-dev armhf 2.14.2-6+b1 [269 kB]
Get:46 http://deb.debian.org/debian unstable/main armhf libxrender-dev armhf 1:0.9.10-1.1 [38.1 kB]
Get:47 http://deb.debian.org/debian unstable/main armhf libxft-dev armhf 2.3.6-1 [73.2 kB]
Get:48 http://deb.debian.org/debian unstable/main armhf tcl8.6 armhf 8.6.13+dfsg-2 [120 kB]
Get:49 http://deb.debian.org/debian unstable/main armhf tcl8.6-dev armhf 8.6.13+dfsg-2 [936 kB]
Get:50 http://deb.debian.org/debian unstable/main armhf tk8.6 armhf 8.6.13-2 [69.3 kB]
Get:51 http://deb.debian.org/debian unstable/main armhf tk8.6-dev armhf 8.6.13-2 [716 kB]
Get:52 http://deb.debian.org/debian unstable/main armhf blt-dev armhf 2.5.3+dfsg-7 [994 kB]
debconf: delaying package configuration, since apt-utils is not installed
Fetched 13.8 MB in 1s (9408 kB/s)
(Reading database ... (Reading database ... 5%(Reading database ... 10%(Reading database ... 15%(Reading database ... 20%(Reading database ... 25%(Reading database ... 30%(Reading database ... 35%(Reading database ... 40%(Reading database ... 45%(Reading database ... 50%(Reading database ... 55%(Reading database ... 60%(Reading database ... 65%(Reading database ... 70%(Reading database ... 75%(Reading database ... 80%(Reading database ... 85%(Reading database ... 90%(Reading database ... 95%(Reading database ... 100%(Reading database ... 14544 files and directories currently installed.)
Preparing to unpack .../bzip2_1.0.8-5+b2_armhf.deb ...
Unpacking bzip2 (1.0.8-5+b2) over (1.0.8-5+b1) ...
Preparing to unpack .../libbz2-1.0_1.0.8-5+b2_armhf.deb ...
Unpacking libbz2-1.0:armhf (1.0.8-5+b2) over (1.0.8-5+b1) ...
Setting up libbz2-1.0:armhf (1.0.8-5+b2) ...
Selecting previously unselected package libtcl8.6:armhf.
(Reading database ... (Reading database ... 5%(Reading database ... 10%(Reading database ... 15%(Reading database ... 20%(Reading database ... 25%(Reading database ... 30%(Reading database ... 35%(Reading database ... 40%(Reading database ... 45%(Reading database ... 50%(Reading database ... 55%(Reading database ... 60%(Reading database ... 65%(Reading database ... 70%(Reading database ... 75%(Reading database ... 80%(Reading database ... 85%(Reading database ... 90%(Reading database ... 95%(Reading database ... 100%(Reading database ... 14544 files and directories currently installed.)
Preparing to unpack .../00-libtcl8.6_8.6.13+dfsg-2_armhf.deb ...
Unpacking libtcl8.6:armhf (8.6.13+dfsg-2) ...
Selecting previously unselected package libbrotli1:armhf.
Preparing to unpack .../01-libbrotli1_1.1.0-2+b3_armhf.deb ...
Unpacking libbrotli1:armhf (1.1.0-2+b3) ...
Selecting previously unselected package libpng16-16:armhf.
Preparing to unpack .../02-libpng16-16_1.6.42-1_armhf.deb ...
Unpacking libpng16-16:armhf (1.6.42-1) ...
Selecting previously unselected package libfreetype6:armhf.
Preparing to unpack .../03-libfreetype6_2.13.2+dfsg-1+b1_armhf.deb ...
Unpacking libfreetype6:armhf (2.13.2+dfsg-1+b1) ...
Selecting previously unselected package fonts-dejavu-mono.
Preparing to unpack .../04-fonts-dejavu-mono_2.37-8_all.deb ...
Unpacking fonts-dejavu-mono (2.37-8) ...
Selecting previously unselected package fonts-dejavu-core.
Preparing to unpack .../05-fonts-dejavu-core_2.37-8_all.deb ...
Unpacking fonts-dejavu-core (2.37-8) ...
Selecting previously unselected package fontconfig-config.
Preparing to unpack .../06-fontconfig-config_2.14.2-6+b1_armhf.deb ...
Unpacking fontconfig-config (2.14.2-6+b1) ...
Selecting previously unselected package libfontconfig1:armhf.
Preparing to unpack .../07-libfontconfig1_2.14.2-6+b1_armhf.deb ...
Unpacking libfontconfig1:armhf (2.14.2-6+b1) ...
Selecting previously unselected package libxau6:armhf.
Preparing to unpack .../08-libxau6_1%3a1.0.9-1_armhf.deb ...
Unpacking libxau6:armhf (1:1.0.9-1) ...
Selecting previously unselected package libxdmcp6:armhf.
Preparing to unpack .../09-libxdmcp6_1%3a1.1.2-3_armhf.deb ...
Unpacking libxdmcp6:armhf (1:1.1.2-3) ...
Selecting previously unselected package libxcb1:armhf.
Preparing to unpack .../10-libxcb1_1.15-1_armhf.deb ...
Unpacking libxcb1:armhf (1.15-1) ...
Selecting previously unselected package libx11-data.
Preparing to unpack .../11-libx11-data_2%3a1.8.7-1_all.deb ...
Unpacking libx11-data (2:1.8.7-1) ...
Selecting previously unselected package libx11-6:armhf.
Preparing to unpack .../12-libx11-6_2%3a1.8.7-1_armhf.deb ...
Unpacking libx11-6:armhf (2:1.8.7-1) ...
Selecting previously unselected package libxrender1:armhf.
Preparing to unpack .../13-libxrender1_1%3a0.9.10-1.1_armhf.deb ...
Unpacking libxrender1:armhf (1:0.9.10-1.1) ...
Selecting previously unselected package libxft2:armhf.
Preparing to unpack .../14-libxft2_2.3.6-1_armhf.deb ...
Unpacking libxft2:armhf (2.3.6-1) ...
Selecting previously unselected package libxext6:armhf.
Preparing to unpack .../15-libxext6_2%3a1.3.4-1+b1_armhf.deb ...
Unpacking libxext6:armhf (2:1.3.4-1+b1) ...
Selecting previously unselected package x11-common.
Preparing to unpack .../16-x11-common_1%3a7.7+23_all.deb ...
Unpacking x11-common (1:7.7+23) ...
Selecting previously unselected package libxss1:armhf.
Preparing to unpack .../17-libxss1_1%3a1.2.3-1_armhf.deb ...
Unpacking libxss1:armhf (1:1.2.3-1) ...
Selecting previously unselected package libtk8.6:armhf.
Preparing to unpack .../18-libtk8.6_8.6.13-2_armhf.deb ...
Unpacking libtk8.6:armhf (8.6.13-2) ...
Selecting previously unselected package tk8.6-blt2.5.
Preparing to unpack .../19-tk8.6-blt2.5_2.5.3+dfsg-7_armhf.deb ...
Unpacking tk8.6-blt2.5 (2.5.3+dfsg-7) ...
Selecting previously unselected package xorg-sgml-doctools.
Preparing to unpack .../20-xorg-sgml-doctools_1%3a1.11-1.1_all.deb ...
Unpacking xorg-sgml-doctools (1:1.11-1.1) ...
Selecting previously unselected package x11proto-dev.
Preparing to unpack .../21-x11proto-dev_2023.2-1_all.deb ...
Unpacking x11proto-dev (2023.2-1) ...
Selecting previously unselected package x11proto-core-dev.
Preparing to unpack .../22-x11proto-core-dev_2023.2-1_all.deb ...
Unpacking x11proto-core-dev (2023.2-1) ...
Selecting previously unselected package libxau-dev:armhf.
Preparing to unpack .../23-libxau-dev_1%3a1.0.9-1_armhf.deb ...
Unpacking libxau-dev:armhf (1:1.0.9-1) ...
Selecting previously unselected package libxdmcp-dev:armhf.
Preparing to unpack .../24-libxdmcp-dev_1%3a1.1.2-3_armhf.deb ...
Unpacking libxdmcp-dev:armhf (1:1.1.2-3) ...
Selecting previously unselected package xtrans-dev.
Preparing to unpack .../25-xtrans-dev_1.4.0-1_all.deb ...
Unpacking xtrans-dev (1.4.0-1) ...
Selecting previously unselected package libpthread-stubs0-dev:armhf.
Preparing to unpack .../26-libpthread-stubs0-dev_0.4-1_armhf.deb ...
Unpacking libpthread-stubs0-dev:armhf (0.4-1) ...
Selecting previously unselected package libxcb1-dev:armhf.
Preparing to unpack .../27-libxcb1-dev_1.15-1_armhf.deb ...
Unpacking libxcb1-dev:armhf (1.15-1) ...
Selecting previously unselected package libx11-dev:armhf.
Preparing to unpack .../28-libx11-dev_2%3a1.8.7-1_armhf.deb ...
Unpacking libx11-dev:armhf (2:1.8.7-1) ...
Selecting previously unselected package libxext-dev:armhf.
Preparing to unpack .../29-libxext-dev_2%3a1.3.4-1+b1_armhf.deb ...
Unpacking libxext-dev:armhf (2:1.3.4-1+b1) ...
Selecting previously unselected package libxss-dev:armhf.
Preparing to unpack .../30-libxss-dev_1%3a1.2.3-1_armhf.deb ...
Unpacking libxss-dev:armhf (1:1.2.3-1) ...
Selecting previously unselected package libexpat1-dev:armhf.
Preparing to unpack .../31-libexpat1-dev_2.5.0-2+b2_armhf.deb ...
Unpacking libexpat1-dev:armhf (2.5.0-2+b2) ...
Selecting previously unselected package libbrotli-dev:armhf.
Preparing to unpack .../32-libbrotli-dev_1.1.0-2+b3_armhf.deb ...
Unpacking libbrotli-dev:armhf (1.1.0-2+b3) ...
Selecting previously unselected package libbz2-dev:armhf.
Preparing to unpack .../33-libbz2-dev_1.0.8-5+b2_armhf.deb ...
Unpacking libbz2-dev:armhf (1.0.8-5+b2) ...
Selecting previously unselected package libpng-dev:armhf.
Preparing to unpack .../34-libpng-dev_1.6.42-1_armhf.deb ...
Unpacking libpng-dev:armhf (1.6.42-1) ...
Selecting previously unselected package libfreetype-dev:armhf.
Preparing to unpack .../35-libfreetype-dev_2.13.2+dfsg-1+b1_armhf.deb ...
Unpacking libfreetype-dev:armhf (2.13.2+dfsg-1+b1) ...
Selecting previously unselected package uuid-dev:armhf.
Preparing to unpack .../36-uuid-dev_2.39.3-6_armhf.deb ...
Unpacking uuid-dev:armhf (2.39.3-6) ...
Selecting previously unselected package libpkgconf3:armhf.
Preparing to unpack .../37-libpkgconf3_1.8.1-1+b2_armhf.deb ...
Unpacking libpkgconf3:armhf (1.8.1-1+b2) ...
Selecting previously unselected package pkgconf-bin.
Preparing to unpack .../38-pkgconf-bin_1.8.1-1+b2_armhf.deb ...
Unpacking pkgconf-bin (1.8.1-1+b2) ...
Selecting previously unselected package pkgconf:armhf.
Preparing to unpack .../39-pkgconf_1.8.1-1+b2_armhf.deb ...
Unpacking pkgconf:armhf (1.8.1-1+b2) ...
Selecting previously unselected package pkg-config:armhf.
Preparing to unpack .../40-pkg-config_1.8.1-1+b2_armhf.deb ...
Unpacking pkg-config:armhf (1.8.1-1+b2) ...
Selecting previously unselected package libfontconfig-dev:armhf.
Preparing to unpack .../41-libfontconfig-dev_2.14.2-6+b1_armhf.deb ...
Unpacking libfontconfig-dev:armhf (2.14.2-6+b1) ...
Selecting previously unselected package libfontconfig1-dev:armhf.
Preparing to unpack .../42-libfontconfig1-dev_2.14.2-6+b1_armhf.deb ...
Unpacking libfontconfig1-dev:armhf (2.14.2-6+b1) ...
Selecting previously unselected package libxrender-dev:armhf.
Preparing to unpack .../43-libxrender-dev_1%3a0.9.10-1.1_armhf.deb ...
Unpacking libxrender-dev:armhf (1:0.9.10-1.1) ...
Selecting previously unselected package libxft-dev:armhf.
Preparing to unpack .../44-libxft-dev_2.3.6-1_armhf.deb ...
Unpacking libxft-dev:armhf (2.3.6-1) ...
Selecting previously unselected package tcl8.6.
Preparing to unpack .../45-tcl8.6_8.6.13+dfsg-2_armhf.deb ...
Unpacking tcl8.6 (8.6.13+dfsg-2) ...
Selecting previously unselected package tcl8.6-dev:armhf.
Preparing to unpack .../46-tcl8.6-dev_8.6.13+dfsg-2_armhf.deb ...
Unpacking tcl8.6-dev:armhf (8.6.13+dfsg-2) ...
Selecting previously unselected package tk8.6.
Preparing to unpack .../47-tk8.6_8.6.13-2_armhf.deb ...
Unpacking tk8.6 (8.6.13-2) ...
Selecting previously unselected package tk8.6-dev:armhf.
Preparing to unpack .../48-tk8.6-dev_8.6.13-2_armhf.deb ...
Unpacking tk8.6-dev:armhf (8.6.13-2) ...
Selecting previously unselected package blt-dev.
Preparing to unpack .../49-blt-dev_2.5.3+dfsg-7_armhf.deb ...
Unpacking blt-dev (2.5.3+dfsg-7) ...
Setting up libxau6:armhf (1:1.0.9-1) ...
Setting up libxdmcp6:armhf (1:1.1.2-3) ...
Setting up libxcb1:armhf (1.15-1) ...
Setting up libbrotli1:armhf (1.1.0-2+b3) ...
Setting up x11-common (1:7.7+23) ...
invoke-rc.d: could not determine current runlevel
Setting up bzip2 (1.0.8-5+b2) ...
Setting up libpthread-stubs0-dev:armhf (0.4-1) ...
Setting up xtrans-dev (1.4.0-1) ...
Setting up libpkgconf3:armhf (1.8.1-1+b2) ...
Setting up libexpat1-dev:armhf (2.5.0-2+b2) ...
Setting up libx11-data (2:1.8.7-1) ...
Setting up uuid-dev:armhf (2.39.3-6) ...
Setting up fonts-dejavu-mono (2.37-8) ...
Setting up libpng16-16:armhf (1.6.42-1) ...
Setting up libtcl8.6:armhf (8.6.13+dfsg-2) ...
Setting up fonts-dejavu-core (2.37-8) ...
Setting up pkgconf-bin (1.8.1-1+b2) ...
Setting up libx11-6:armhf (2:1.8.7-1) ...
Setting up xorg-sgml-doctools (1:1.11-1.1) ...
Setting up libbrotli-dev:armhf (1.1.0-2+b3) ...
Setting up libbz2-dev:armhf (1.0.8-5+b2) ...
Setting up x11proto-dev (2023.2-1) ...
Setting up tcl8.6 (8.6.13+dfsg-2) ...
Setting up libxau-dev:armhf (1:1.0.9-1) ...
Setting up libxrender1:armhf (1:0.9.10-1.1) ...
Setting up fontconfig-config (2.14.2-6+b1) ...
Setting up tcl8.6-dev:armhf (8.6.13+dfsg-2) ...
Setting up libpng-dev:armhf (1.6.42-1) ...
Setting up libxext6:armhf (2:1.3.4-1+b1) ...
Setting up pkgconf:armhf (1.8.1-1+b2) ...
Setting up libxdmcp-dev:armhf (1:1.1.2-3) ...
Setting up libfreetype6:armhf (2.13.2+dfsg-1+b1) ...
Setting up x11proto-core-dev (2023.2-1) ...
Setting up pkg-config:armhf (1.8.1-1+b2) ...
Setting up libxss1:armhf (1:1.2.3-1) ...
Setting up libfontconfig1:armhf (2.14.2-6+b1) ...
Setting up libxft2:armhf (2.3.6-1) ...
Setting up libxcb1-dev:armhf (1.15-1) ...
Setting up libtk8.6:armhf (8.6.13-2) ...
Setting up libx11-dev:armhf (2:1.8.7-1) ...
Setting up libfreetype-dev:armhf (2.13.2+dfsg-1+b1) ...
Setting up libxext-dev:armhf (2:1.3.4-1+b1) ...
Setting up libxrender-dev:armhf (1:0.9.10-1.1) ...
Setting up tk8.6 (8.6.13-2) ...
Setting up tk8.6-blt2.5 (2.5.3+dfsg-7) ...
Setting up libfontconfig-dev:armhf (2.14.2-6+b1) ...
Setting up libxss-dev:armhf (1:1.2.3-1) ...
Setting up libxft-dev:armhf (2.3.6-1) ...
Setting up libfontconfig1-dev:armhf (2.14.2-6+b1) ...
Setting up tk8.6-dev:armhf (8.6.13-2) ...
Setting up blt-dev (2.5.3+dfsg-7) ...
Processing triggers for libc-bin (2.37-13) ...
Reading package lists...
Building dependency tree...
Reading state information...
The following packages will be REMOVED:
  binutils-dev*
0 upgraded, 0 newly installed, 1 to remove and 70 not upgraded.
After this operation, 18.1 MB disk space will be freed.
(Reading database ... (Reading database ... 5%(Reading database ... 10%(Reading database ... 15%(Reading database ... 20%(Reading database ... 25%(Reading database ... 30%(Reading database ... 35%(Reading database ... 40%(Reading database ... 45%(Reading database ... 50%(Reading database ... 55%(Reading database ... 60%(Reading database ... 65%(Reading database ... 70%(Reading database ... 75%(Reading database ... 80%(Reading database ... 85%(Reading database ... 90%(Reading database ... 95%(Reading database ... 100%(Reading database ... 16407 files and directories currently installed.)
Removing binutils-dev (2.42-2) ...
