Temporary header file '/tmp/iSx4r7gHjg/dump1.h' with the following content will be compiled to create GCC translation unit dump:

  // add defines
  #define __STDC_VERSION__ 201710L
#define _GXX_NULLPTR_T
#define CLUTTER_ENABLE_COMPOSITOR_API 1
#define _REGEX_NELTS(n)
#define _Atomic
#define PACKED
#ifdef __cplusplus
// C17 compat layer
#define _Alignof(type) alignof(type)
#endif
#define getaddrinfo_a(a,b,c,d)

  // add includes
  #include "/usr/include/android/sepol/boolean_record.h"
  #include "/usr/include/android/sepol/booleans.h"
  #include "/usr/include/android/sepol/context.h"
  #include "/usr/include/android/sepol/context_record.h"
  #include "/usr/include/android/sepol/debug.h"
  #include "/usr/include/android/sepol/errcodes.h"
  #include "/usr/include/android/sepol/handle.h"
  #include "/usr/include/android/sepol/ibendport_record.h"
  #include "/usr/include/android/sepol/ibendports.h"
  #include "/usr/include/android/sepol/ibpkey_record.h"
  #include "/usr/include/android/sepol/ibpkeys.h"
  #include "/usr/include/android/sepol/iface_record.h"
  #include "/usr/include/android/sepol/interfaces.h"
  #include "/usr/include/android/sepol/kernel_to_cil.h"
  #include "/usr/include/android/sepol/kernel_to_conf.h"
  #include "/usr/include/android/sepol/module.h"
  #include "/usr/include/android/sepol/module_to_cil.h"
  #include "/usr/include/android/sepol/node_record.h"
  #include "/usr/include/android/sepol/nodes.h"
  #include "/usr/include/android/sepol/policydb.h"
  #include "/usr/include/android/sepol/port_record.h"
  #include "/usr/include/android/sepol/ports.h"
  #include "/usr/include/android/sepol/roles.h"
  #include "/usr/include/android/sepol/sepol.h"
  #include "/usr/include/android/sepol/user_record.h"
  #include "/usr/include/android/sepol/users.h"

  // add classes
  _G_fpos64_t* tmp_add_class_0;
  _G_fpos_t* tmp_add_class_1;
  _IO_cookie_io_functions_t* tmp_add_class_2;
  av_extended_perms* tmp_add_class_3;
  avrule* tmp_add_class_4;
  avrule_block* tmp_add_class_5;
  avrule_decl* tmp_add_class_6;
  avtab* tmp_add_class_7;
  avtab_datum* tmp_add_class_8;
  avtab_extended_perms* tmp_add_class_9;
  avtab_key* tmp_add_class_10;
  avtab_node* tmp_add_class_11;
  cat_datum* tmp_add_class_12;
  class_datum* tmp_add_class_13;
  class_perm_node* tmp_add_class_14;
  common_datum* tmp_add_class_15;
  cond_bool_datum* tmp_add_class_16;
  constraint_expr* tmp_add_class_17;
  constraint_node* tmp_add_class_18;
  context_struct* tmp_add_class_19;
  ebitmap* tmp_add_class_20;
  ebitmap_node* tmp_add_class_21;
  filename_trans_datum* tmp_add_class_22;
  filename_trans_key* tmp_add_class_23;
  filename_trans_rule* tmp_add_class_24;
  genfs* tmp_add_class_25;
  hashtab_node* tmp_add_class_26;
  hashtab_val* tmp_add_class_27;
  level_datum* tmp_add_class_28;
  mls_level* tmp_add_class_29;
  mls_range* tmp_add_class_30;
  mls_semantic_cat* tmp_add_class_31;
  mls_semantic_level* tmp_add_class_32;
  mls_semantic_range* tmp_add_class_33;
  ocontext* tmp_add_class_34;
  perm_datum* tmp_add_class_35;
  policy_file* tmp_add_class_36;
  policydb* tmp_add_class_37;
  range_trans* tmp_add_class_38;
  range_trans_rule* tmp_add_class_39;
  role_allow* tmp_add_class_40;
  role_allow_rule* tmp_add_class_41;
  role_datum* tmp_add_class_42;
  role_set* tmp_add_class_43;
  role_trans* tmp_add_class_44;
  role_trans_rule* tmp_add_class_45;
  scope_datum* tmp_add_class_46;
  scope_index* tmp_add_class_47;
  sepol_av_decision* tmp_add_class_48;
  sepol_policy_file* tmp_add_class_49;
  sepol_policydb* tmp_add_class_50;
  sidtab_node* tmp_add_class_51;
  symtab_datum* tmp_add_class_52;
  type_datum* tmp_add_class_53;
  type_set* tmp_add_class_54;
  ucontext_t* tmp_add_class_55;
  user_datum* tmp_add_class_56;

The GCC parameters:
  gcc -fdump-lang-raw -fkeep-inline-functions -c -x c++ -fpermissive -w "/tmp/iSx4r7gHjg/dump1.h"  -I/usr/include/android

