[2024-01-08T01:46:59+00:00] apt-get install libopenxr-dev abi-compliance-checker
Reading package lists...
Building dependency tree...
Reading state information...
abi-compliance-checker is already the newest version (2.3-2).
The following additional packages will be installed:
  libjsoncpp25 libopenxr-loader1
Suggested packages:
  openxr-layer-corevalidation
The following NEW packages will be installed:
  libjsoncpp25 libopenxr-dev libopenxr-loader1
0 upgraded, 3 newly installed, 0 to remove and 33 not upgraded.
Need to get 253 kB of archives.
After this operation, 823 kB of additional disk space will be used.
Get:1 http://deb.debian.org/debian unstable/main armhf libjsoncpp25 armhf 1.9.5-6+b2 [69.9 kB]
Get:2 http://deb.debian.org/debian unstable/main armhf libopenxr-loader1 armhf 1.0.20~dfsg1-1+b2 [135 kB]
Get:3 http://deb.debian.org/debian unstable/main armhf libopenxr-dev armhf 1.0.20~dfsg1-1+b2 [48.2 kB]
debconf: delaying package configuration, since apt-utils is not installed
Fetched 253 kB in 0s (3430 kB/s)
Selecting previously unselected package libjsoncpp25:armhf.
(Reading database ... (Reading database ... 5%(Reading database ... 10%(Reading database ... 15%(Reading database ... 20%(Reading database ... 25%(Reading database ... 30%(Reading database ... 35%(Reading database ... 40%(Reading database ... 45%(Reading database ... 50%(Reading database ... 55%(Reading database ... 60%(Reading database ... 65%(Reading database ... 70%(Reading database ... 75%(Reading database ... 80%(Reading database ... 85%(Reading database ... 90%(Reading database ... 95%(Reading database ... 100%(Reading database ... 15659 files and directories currently installed.)
Preparing to unpack .../libjsoncpp25_1.9.5-6+b2_armhf.deb ...
Unpacking libjsoncpp25:armhf (1.9.5-6+b2) ...
Selecting previously unselected package libopenxr-loader1:armhf.
Preparing to unpack .../libopenxr-loader1_1.0.20~dfsg1-1+b2_armhf.deb ...
Unpacking libopenxr-loader1:armhf (1.0.20~dfsg1-1+b2) ...
Selecting previously unselected package libopenxr-dev:armhf.
Preparing to unpack .../libopenxr-dev_1.0.20~dfsg1-1+b2_armhf.deb ...
Unpacking libopenxr-dev:armhf (1.0.20~dfsg1-1+b2) ...
Setting up libjsoncpp25:armhf (1.9.5-6+b2) ...
Setting up libopenxr-loader1:armhf (1.0.20~dfsg1-1+b2) ...
Setting up libopenxr-dev:armhf (1.0.20~dfsg1-1+b2) ...
Processing triggers for libc-bin (2.37-13) ...
Reading package lists...
Building dependency tree...
Reading state information...
0 upgraded, 0 newly installed, 0 to remove and 33 not upgraded.
