Temporary header file '/tmp/9xj_TDzEDS/dump1.h' with the following content will be compiled to create GCC translation unit dump:

  // add defines
  #define __STDC_VERSION__ 201710L
#define _TIME_BITS 64
#define _FILE_OFFSET_BITS 64
#define _GXX_NULLPTR_T
#define CLUTTER_ENABLE_COMPOSITOR_API 1
#define _REGEX_NELTS(n)
#define _Atomic
#define PACKED
#ifdef __cplusplus
// C17 compat layer
#define _Alignof(type) alignof(type)
#endif
#define getaddrinfo_a(a,b,c,d)

  // add includes
  #include "/usr/include/stdio.h"
  #include "/usr/include/stdint.h"
  #include "/usr/include/bit.h"
  #include "/usr/include/control.h"
  #include "/usr/include/floorplan.h"
  #include "/usr/include/helper.h"
  #include "/usr/include/model.h"
  #include "/usr/include/parts.h"

  // add classes
  _G_fpos64_t* tmp_add_class_0;
  _G_fpos_t* tmp_add_class_1;
  _IO_cookie_io_functions_t* tmp_add_class_2;
  _cfg_atom* tmp_add_class_3;
  f_owner_ex* tmp_add_class_4;
  file_handle* tmp_add_class_5;
  flock64* tmp_add_class_6;
  fpga_bits* tmp_add_class_7;
  fpga_config* tmp_add_class_8;
  fpga_config_reg_rw* tmp_add_class_9;
  fpga_device* tmp_add_class_10;
  fpga_model* tmp_add_class_11;
  fpga_net* tmp_add_class_12;
  fpga_tile* tmp_add_class_13;
  fpgadev_bscan* tmp_add_class_14;
  fpgadev_bufgmux* tmp_add_class_15;
  fpgadev_bufio* tmp_add_class_16;
  fpgadev_iob* tmp_add_class_17;
  fpgadev_logic* tmp_add_class_18;
  fpgadev_logic_a2d* tmp_add_class_19;
  hashed_strarray* tmp_add_class_20;
  iovec* tmp_add_class_21;
  net_el* tmp_add_class_22;
  seed_data* tmp_add_class_23;
  statx_timestamp* tmp_add_class_24;
  sw_chain* tmp_add_class_25;
  sw_conns* tmp_add_class_26;
  sw_set* tmp_add_class_27;
  switch_to_rel* tmp_add_class_28;
  switch_to_yx* tmp_add_class_29;
  switch_to_yx_l2* tmp_add_class_30;
  w_net* tmp_add_class_31;
  w_net_i* tmp_add_class_32;
  w_point* tmp_add_class_33;
  w_yx* tmp_add_class_34;
  xc6_pkg_info* tmp_add_class_35;
  xc6_routing_bitpos* tmp_add_class_36;
  xc_die* tmp_add_class_37;
  xc_major_info* tmp_add_class_38;
  xc_type2_info* tmp_add_class_39;

The GCC parameters:
  gcc -fdump-lang-raw -fkeep-inline-functions -c -x c++ -fpermissive -w "/tmp/9xj_TDzEDS/dump1.h"

In file included from /tmp/9xj_TDzEDS/dump1.h:21:
/usr/include/control.h:12:25: error: 'dev_type_idx_t' has not been declared
   12 |         int* y, int* x, dev_type_idx_t* type_idx);
      |                         ^~~~~~~~~~~~~~
/usr/include/control.h:14:25: error: 'dev_type_idx_t' has not been declared
   14 |         int* y, int* x, dev_type_idx_t* idx);
      |                         ^~~~~~~~~~~~~~
/usr/include/control.h:16:9: error: 'dev_type_idx_t' has not been declared
   16 |         dev_type_idx_t idx);
      |         ^~~~~~~~~~~~~~
/usr/include/control.h:26:46: error: use of enum 'fpgadev_type' without previous declaration
   26 | int fdev_enum(struct fpga_model* model, enum fpgadev_type type, int enum_i,
      |                                              ^~~~~~~~~~~~
/usr/include/control.h:29:32: error: use of enum 'fpgadev_type' without previous declaration
   29 | const char* fdev_type2str(enum fpgadev_type type);
      |                                ^~~~~~~~~~~~
/usr/include/control.h:30:6: error: use of enum 'fpgadev_type' without previous declaration
   30 | enum fpgadev_type fdev_str2type(const char* str, int len);
      |      ^~~~~~~~~~~~
/usr/include/control.h:34:28: error: use of enum 'fpgadev_type' without previous declaration
   34 |         int y, int x, enum fpgadev_type type, dev_type_idx_t type_idx);
      |                            ^~~~~~~~~~~~
/usr/include/control.h:34:47: error: 'dev_type_idx_t' has not been declared
   34 |         int y, int x, enum fpgadev_type type, dev_type_idx_t type_idx);
      |                                               ^~~~~~~~~~~~~~
/usr/include/control.h:37:1: error: 'dev_idx_t' does not name a type; did you mean 'net_idx_t'?
   37 | dev_idx_t fpga_dev_idx(struct fpga_model* model,
      | ^~~~~~~~~
      | net_idx_t
/usr/include/control.h:42:1: error: 'dev_type_idx_t' does not name a type
   42 | dev_type_idx_t fdev_typeidx(struct fpga_model* model, int y, int x,
      | ^~~~~~~~~~~~~~
/usr/include/control.h:46:1: error: 'pinw_idx_t' does not name a type
   46 | pinw_idx_t fdev_pinw_str2idx(int devtype, const char* str, int len);
      | ^~~~~~~~~~
/usr/include/control.h:48:44: error: 'pinw_idx_t' has not been declared
   48 | const char* fdev_pinw_idx2str(int devtype, pinw_idx_t idx);
      |                                            ^~~~~~~~~~
/usr/include/control.h:53:31: error: 'pinw_idx_t' was not declared in this scope
   53 | const char* fdev_logic_pinstr(pinw_idx_t idx, int ld1_type);
      |                               ^~~~~~~~~~
/usr/include/control.h:53:47: error: expected primary-expression before 'int'
   53 | const char* fdev_logic_pinstr(pinw_idx_t idx, int ld1_type);
      |                                               ^~~
/usr/include/control.h:54:1: error: 'str16_t' does not name a type
   54 | str16_t fdev_logic_pinstr_i(struct fpga_model* model, pinw_idx_t idx, int ld1_type);
      | ^~~~~~~
/usr/include/control.h:119:9: error: 'str16_t' has not been declared
  119 |         str16_t name_i, int* connpt_dests_o, int* num_dests);
      |         ^~~~~~~
/usr/include/control.h:122:56: error: 'str16_t' has not been declared
  122 |         int connpt_dest_idx, int* dest_y, int* dest_x, str16_t* str_i);
      |                                                        ^~~~~~~
/usr/include/control.h:127:9: error: 'str16_t' has not been declared
  127 |         str16_t* pt, int target_y, int target_x, str16_t target_pt);
      |         ^~~~~~~
/usr/include/control.h:127:50: error: 'str16_t' has not been declared
  127 |         str16_t* pt, int target_y, int target_x, str16_t target_pt);
      |                                                  ^~~~~~~
/usr/include/control.h:149:9: error: 'str16_t' has not been declared
  149 |         str16_t name_i, int from_to);
      |         ^~~~~~~
/usr/include/control.h:156:9: error: 'str16_t' has not been declared
  156 |         str16_t start_switch, int from_to, struct sw_set* set);
      |         ^~~~~~~
/usr/include/control.h:159:48: error: 'str16_t' has not been declared
  159 |         const struct sw_set* set, int from_to, str16_t connpt);
      |                                                ^~~~~~~
/usr/include/control.h:161:42: error: 'str16_t' has not been declared
  161 |         struct sw_set* set, int from_to, str16_t connpt);
      |                                          ^~~~~~~
/usr/include/control.h:182:9: error: 'str16_t' has not been declared
  182 |         str16_t from_str_i, str16_t to_str_i);
      |         ^~~~~~~
/usr/include/control.h:182:29: error: 'str16_t' has not been declared
  182 |         str16_t from_str_i, str16_t to_str_i);
      |                             ^~~~~~~
/usr/include/control.h:186:1: error: 'str16_t' does not name a type
  186 | str16_t fpga_switch_str_i(struct fpga_model* model, int y, int x,
      | ^~~~~~~
/usr/include/control.h:242:23: error: 'str16_t' has not been declared
  242 |         int y, int x, str16_t start_switch, int from_to, int max_depth,
      |                       ^~~~~~~
/usr/include/control.h:252:9: error: 'str16_t' has not been declared
  252 |         str16_t from_sw, str16_t to_sw, int max_depth, net_idx_t exclusive_net,
      |         ^~~~~~~
/usr/include/control.h:252:26: error: 'str16_t' has not been declared
  252 |         str16_t from_sw, str16_t to_sw, int max_depth, net_idx_t exclusive_net,
      |                          ^~~~~~~
/usr/include/control.h:263:9: error: 'str16_t' does not name a type
  263 |         str16_t dest_str_i;
      |         ^~~~~~~
/usr/include/control.h:267:23: error: 'str16_t' has not been declared
  267 |         int y, int x, str16_t start_switch, int from_to, int max_depth,
      |                       ^~~~~~~
/usr/include/control.h:275:67: error: 'str16_t' has not been declared
  275 | int fpga_first_conn(struct fpga_model *model, int sw_y, int sw_x, str16_t sw_str,
      |                                                                   ^~~~~~~
/usr/include/control.h:277:58: error: 'str16_t' has not been declared
  277 |         struct sw_set *sw_set, int *dest_y, int *dest_x, str16_t *dest_connpt);
      |                                                          ^~~~~~~
/usr/include/control.h:281:9: error: 'str16_t' has not been declared
  281 |         str16_t sw, int from_to, int max_depth, swidx_t* block_list,
      |         ^~~~~~~
/usr/include/control.h:284:9: error: 'str16_t' has not been declared
  284 |         str16_t sw, int from_to, int max_depth);
      |         ^~~~~~~
/usr/include/control.h:299:9: error: 'str16_t' does not name a type
  299 |         str16_t start_switch;
      |         ^~~~~~~
/usr/include/control.h:307:9: error: 'str16_t' does not name a type
  307 |         str16_t dest_connpt;
      |         ^~~~~~~
/usr/include/control.h:339:9: error: 'str16_t' does not name a type
  339 |         str16_t start_switch;
      |         ^~~~~~~
/usr/include/control.h:344:9: error: 'str16_t' does not name a type
  344 |         str16_t target_connpt; // can be STRIDX_NO_ENTRY
      |         ^~~~~~~
/usr/include/control.h:350:9: error: 'str16_t' does not name a type
  350 |         str16_t dest_connpt;
      |         ^~~~~~~
/usr/include/control.h:399:28: error: use of enum 'fpgadev_type' without previous declaration
  399 |         int y, int x, enum fpgadev_type type, dev_type_idx_t type_idx,
      |                            ^~~~~~~~~~~~
/usr/include/control.h:399:47: error: 'dev_type_idx_t' has not been declared
  399 |         int y, int x, enum fpgadev_type type, dev_type_idx_t type_idx,
      |                                               ^~~~~~~~~~~~~~
/usr/include/control.h:400:9: error: 'pinw_idx_t' has not been declared
  400 |         pinw_idx_t pinw_idx);
      |         ^~~~~~~~~~
In file included from /usr/include/model.h:16,
                 from /tmp/9xj_TDzEDS/dump1.h:24:
/usr/include/helper.h:56:16: error: redefinition of 'struct _cfg_atom'
   56 | typedef struct _cfg_atom
      |                ^~~~~~~~~
In file included from /tmp/9xj_TDzEDS/dump1.h:23:
/usr/include/helper.h:56:16: note: previous definition of 'struct _cfg_atom'
   56 | typedef struct _cfg_atom
      |                ^~~~~~~~~
/usr/include/helper.h:62:3: error: conflicting declaration 'typedef int cfg_atom_t'
   62 | } cfg_atom_t;
      |   ^~~~~~~~~~
/usr/include/helper.h:62:3: note: previous declaration as 'typedef struct _cfg_atom cfg_atom_t'
   62 | } cfg_atom_t;
      |   ^~~~~~~~~~
/usr/include/helper.h:133:8: error: redefinition of 'struct hashed_strarray'
  133 | struct hashed_strarray
      |        ^~~~~~~~~~~~~~~
/usr/include/helper.h:133:8: note: previous definition of 'struct hashed_strarray'
  133 | struct hashed_strarray
      |        ^~~~~~~~~~~~~~~
In file included from /tmp/9xj_TDzEDS/dump1.h:25:
/usr/include/parts.h:41:8: error: redefinition of 'struct xc_major_info'
   41 | struct xc_major_info
      |        ^~~~~~~~~~~~~
In file included from /usr/include/model.h:17:
/usr/include/parts.h:41:8: note: previous definition of 'struct xc_major_info'
   41 | struct xc_major_info
      |        ^~~~~~~~~~~~~
/usr/include/parts.h:51:8: error: redefinition of 'struct xc_type2_info'
   51 | struct xc_type2_info
      |        ^~~~~~~~~~~~~
/usr/include/parts.h:51:8: note: previous definition of 'struct xc_type2_info'
   51 | struct xc_type2_info
      |        ^~~~~~~~~~~~~
/usr/include/parts.h:79:8: error: redefinition of 'struct xc_die'
   79 | struct xc_die
      |        ^~~~~~
/usr/include/parts.h:79:8: note: previous definition of 'struct xc_die'
   79 | struct xc_die
      |        ^~~~~~
/usr/include/parts.h:100:6: error: multiple definition of 'enum xc6_pkg'
  100 | enum xc6_pkg { TQG144, FTG256, CSG324, FGG484 };
      |      ^~~~~~~
/usr/include/parts.h:100:6: note: previous definition here
  100 | enum xc6_pkg { TQG144, FTG256, CSG324, FGG484 };
      |      ^~~~~~~
/usr/include/parts.h:103:8: error: redefinition of 'struct xc6_pkg_info'
  103 | struct xc6_pkg_info
      |        ^~~~~~~~~~~~
/usr/include/parts.h:103:8: note: previous definition of 'struct xc6_pkg_info'
  103 | struct xc6_pkg_info
      |        ^~~~~~~~~~~~
/usr/include/parts.h:214:6: error: multiple definition of 'enum major_type'
  214 | enum major_type { MAJ_ZERO, MAJ_LEFT, MAJ_RIGHT, MAJ_CENTER,
      |      ^~~~~~~~~~
/usr/include/parts.h:214:6: note: previous definition here
  214 | enum major_type { MAJ_ZERO, MAJ_LEFT, MAJ_RIGHT, MAJ_CENTER,
      |      ^~~~~~~~~~
/usr/include/parts.h:235:8: error: redefinition of 'struct xc6_routing_bitpos'
  235 | struct xc6_routing_bitpos
      |        ^~~~~~~~~~~~~~~~~~
/usr/include/parts.h:235:8: note: previous definition of 'struct xc6_routing_bitpos'
  235 | struct xc6_routing_bitpos
      |        ^~~~~~~~~~~~~~~~~~
/tmp/9xj_TDzEDS/dump1.h:63:3: error: 'xc6_pkg_info' does not name a type
   63 |   xc6_pkg_info* tmp_add_class_35;
      |   ^~~~~~~~~~~~
ERROR: some errors occurred when compiling headers
ERROR: see log for details:
  /home/adrien/armhf-time_t/out/logs/libfpga-dev/time_t/abi-compliance-checker.log


Creating library ABI dump ...
Dump path: out/logs/libfpga-dev/libfpga-dev_time_t.dump
