[2024-01-08T03:54:45+00:00] apt-get install libpolyclipping-dev abi-compliance-checker
Reading package lists...
Building dependency tree...
Reading state information...
abi-compliance-checker is already the newest version (2.3-2).
The following packages were automatically installed and are no longer required:
  icu-devtools libbrotli1 libclang-cpp17 libcurl4 libedit2 libffi-dev
  libgmp-dev libgmpxx4ldbl libicu-dev libllvm17 libncurses-dev libncurses6
  libnghttp2-14 libpfm4 libpolly-17-dev libpsl5 librtmp1 libssh2-1 libxml2-dev
  libz3-4 libz3-dev llvm-17 llvm-17-dev llvm-17-linker-tools llvm-17-runtime
  llvm-17-tools python3-distutils python3-lib2to3 python3-pkg-resources
  python3-pygments python3-setuptools python3-yaml
Use 'apt autoremove' to remove them.
The following NEW packages will be installed:
  libpolyclipping-dev libpolyclipping22
0 upgraded, 2 newly installed, 0 to remove and 27 not upgraded.
Need to get 50.7 kB of archives.
After this operation, 135 kB of additional disk space will be used.
Get:1 http://deb.debian.org/debian unstable/main armhf libpolyclipping22 armhf 6.4.2-7 [41.9 kB]
Get:2 http://deb.debian.org/debian unstable/main armhf libpolyclipping-dev armhf 6.4.2-7 [8812 B]
debconf: delaying package configuration, since apt-utils is not installed
Fetched 50.7 kB in 0s (163 kB/s)
Selecting previously unselected package libpolyclipping22:armhf.
(Reading database ... (Reading database ... 5%(Reading database ... 10%(Reading database ... 15%(Reading database ... 20%(Reading database ... 25%(Reading database ... 30%(Reading database ... 35%(Reading database ... 40%(Reading database ... 45%(Reading database ... 50%(Reading database ... 55%(Reading database ... 60%(Reading database ... 65%(Reading database ... 70%(Reading database ... 75%(Reading database ... 80%(Reading database ... 85%(Reading database ... 90%(Reading database ... 95%(Reading database ... 100%(Reading database ... 21022 files and directories currently installed.)
Preparing to unpack .../libpolyclipping22_6.4.2-7_armhf.deb ...
Unpacking libpolyclipping22:armhf (6.4.2-7) ...
Selecting previously unselected package libpolyclipping-dev:armhf.
Preparing to unpack .../libpolyclipping-dev_6.4.2-7_armhf.deb ...
Unpacking libpolyclipping-dev:armhf (6.4.2-7) ...
Setting up libpolyclipping22:armhf (6.4.2-7) ...
Setting up libpolyclipping-dev:armhf (6.4.2-7) ...
Processing triggers for libc-bin (2.37-13) ...
Reading package lists...
Building dependency tree...
Reading state information...
The following packages will be REMOVED:
  icu-devtools* libbrotli1* libclang-cpp17* libcurl4* libedit2* libffi-dev*
  libgmp-dev* libgmpxx4ldbl* libicu-dev* libllvm17* libncurses-dev*
  libncurses6* libnghttp2-14* libpfm4* libpolly-17-dev* libpsl5* librtmp1*
  libssh2-1* libxml2-dev* libz3-4* libz3-dev* llvm-17* llvm-17-dev*
  llvm-17-linker-tools* llvm-17-runtime* llvm-17-tools* python3-distutils*
  python3-lib2to3* python3-pkg-resources* python3-pygments*
  python3-setuptools* python3-yaml*
0 upgraded, 0 newly installed, 32 to remove and 27 not upgraded.
After this operation, 654 MB disk space will be freed.
(Reading database ... (Reading database ... 5%(Reading database ... 10%(Reading database ... 15%(Reading database ... 20%(Reading database ... 25%(Reading database ... 30%(Reading database ... 35%(Reading database ... 40%(Reading database ... 45%(Reading database ... 50%(Reading database ... 55%(Reading database ... 60%(Reading database ... 65%(Reading database ... 70%(Reading database ... 75%(Reading database ... 80%(Reading database ... 85%(Reading database ... 90%(Reading database ... 95%(Reading database ... 100%(Reading database ... 21034 files and directories currently installed.)
Removing llvm-17-dev (1:17.0.6-3) ...
Removing libxml2-dev:armhf (2.9.14+dfsg-1.3+b2) ...
Removing libicu-dev:armhf (72.1-4) ...
Removing icu-devtools (72.1-4) ...
Removing llvm-17 (1:17.0.6-3) ...
Removing libcurl4:armhf (8.5.0-2) ...
Removing libbrotli1:armhf (1.1.0-2+b3) ...
Removing libclang-cpp17 (1:17.0.6-3) ...
Removing llvm-17-runtime (1:17.0.6-3) ...
Removing llvm-17-linker-tools (1:17.0.6-3) ...
Removing libllvm17:armhf (1:17.0.6-3) ...
Removing libedit2:armhf (3.1-20230828-1) ...
Removing libffi-dev:armhf (3.4.4-2) ...
Removing libgmp-dev:armhf (2:6.3.0+dfsg-2) ...
Removing libgmpxx4ldbl:armhf (2:6.3.0+dfsg-2) ...
Removing libncurses-dev:armhf (6.4+20231209-1) ...
Removing libncurses6:armhf (6.4+20231209-1) ...
Removing libnghttp2-14:armhf (1.58.0-1) ...
Removing libpfm4:armhf (4.13.0+git16-g535c204-1) ...
Removing libpolly-17-dev:armhf (1:17.0.6-3) ...
Removing libpsl5:armhf (0.21.2-1+b1) ...
Removing librtmp1:armhf (2.4+20151223.gitfa8646d.1-2+b2) ...
Removing libssh2-1:armhf (1.11.0-4) ...
Removing libz3-dev:armhf (4.8.12-3.1+b2) ...
Removing llvm-17-tools (1:17.0.6-3) ...
Removing libz3-4:armhf (4.8.12-3.1+b2) ...
Removing python3-setuptools (68.1.2-2) ...
Removing python3-distutils (3.11.5-1) ...
Removing python3-lib2to3 (3.11.5-1) ...
Removing python3-pygments (2.15.1+dfsg-1) ...
Removing python3-pkg-resources (68.1.2-2) ...
Removing python3-yaml (6.0.1-1+b1) ...
Processing triggers for systemd (255.2-4) ...
Processing triggers for libc-bin (2.37-13) ...
