[2024-01-07T22:31:34+00:00] apt-get install libndctl-dev abi-compliance-checker
Reading package lists...
Building dependency tree...
Reading state information...
abi-compliance-checker is already the newest version (2.3-2).
The following packages were automatically installed and are no longer required:
  gnat gnat-12 libgnat-12 libncurses-dev libncurses6 libncursesada11-dev
  libncursesada6.2.3
Use 'apt autoremove' to remove them.
The following additional packages will be installed:
  libdaxctl1 libndctl6
The following NEW packages will be installed:
  libdaxctl1 libndctl-dev libndctl6
0 upgraded, 3 newly installed, 0 to remove and 36 not upgraded.
Need to get 82.6 kB of archives.
After this operation, 269 kB of additional disk space will be used.
Get:1 http://deb.debian.org/debian unstable/main armhf libdaxctl1 armhf 77-2 [18.4 kB]
Get:2 http://deb.debian.org/debian unstable/main armhf libndctl6 armhf 77-2 [51.9 kB]
Get:3 http://deb.debian.org/debian unstable/main armhf libndctl-dev armhf 77-2 [12.3 kB]
debconf: delaying package configuration, since apt-utils is not installed
Fetched 82.6 kB in 0s (843 kB/s)
Selecting previously unselected package libdaxctl1:armhf.
(Reading database ... (Reading database ... 5%(Reading database ... 10%(Reading database ... 15%(Reading database ... 20%(Reading database ... 25%(Reading database ... 30%(Reading database ... 35%(Reading database ... 40%(Reading database ... 45%(Reading database ... 50%(Reading database ... 55%(Reading database ... 60%(Reading database ... 65%(Reading database ... 70%(Reading database ... 75%(Reading database ... 80%(Reading database ... 85%(Reading database ... 90%(Reading database ... 95%(Reading database ... 100%(Reading database ... 17727 files and directories currently installed.)
Preparing to unpack .../libdaxctl1_77-2_armhf.deb ...
Unpacking libdaxctl1:armhf (77-2) ...
Selecting previously unselected package libndctl6:armhf.
Preparing to unpack .../libndctl6_77-2_armhf.deb ...
Unpacking libndctl6:armhf (77-2) ...
Selecting previously unselected package libndctl-dev:armhf.
Preparing to unpack .../libndctl-dev_77-2_armhf.deb ...
Unpacking libndctl-dev:armhf (77-2) ...
Setting up libdaxctl1:armhf (77-2) ...
Setting up libndctl6:armhf (77-2) ...
Setting up libndctl-dev:armhf (77-2) ...
Processing triggers for libc-bin (2.37-13) ...
Reading package lists...
Building dependency tree...
Reading state information...
The following packages will be REMOVED:
  gnat* gnat-12* libgnat-12* libncurses-dev* libncurses6* libncursesada11-dev*
  libncursesada6.2.3*
0 upgraded, 0 newly installed, 7 to remove and 36 not upgraded.
After this operation, 82.0 MB disk space will be freed.
(Reading database ... (Reading database ... 5%(Reading database ... 10%(Reading database ... 15%(Reading database ... 20%(Reading database ... 25%(Reading database ... 30%(Reading database ... 35%(Reading database ... 40%(Reading database ... 45%(Reading database ... 50%(Reading database ... 55%(Reading database ... 60%(Reading database ... 65%(Reading database ... 70%(Reading database ... 75%(Reading database ... 80%(Reading database ... 85%(Reading database ... 90%(Reading database ... 95%(Reading database ... 100%(Reading database ... 17745 files and directories currently installed.)
Removing libncursesada11-dev (6.3.20211021-9) ...
Removing gnat (12.2) ...
Removing gnat-12 (12.3.0-13) ...
Removing libncursesada6.2.3:armhf (6.3.20211021-9) ...
Removing libgnat-12:armhf (12.3.0-13) ...
Removing libncurses-dev:armhf (6.4+20231209-1) ...
Removing libncurses6:armhf (6.4+20231209-1) ...
Processing triggers for libc-bin (2.37-13) ...
