[2024-01-08T06:44:54+00:00] apt-get install libsdl-kitchensink-dev abi-compliance-checker
Reading package lists...
Building dependency tree...
Reading state information...
abi-compliance-checker is already the newest version (2.3-2).
The following packages were automatically installed and are no longer required:
  libdeflate-dev libglu1-mesa libglu1-mesa-dev libjbig-dev libjpeg-dev
  libjpeg62-turbo-dev liblerc-dev liblzma-dev libopengl-dev libopengl0
  libpng-dev libsdl-image1.2 libsdl-image1.2-dev libsdl1.2-dev libsdl1.2debian
  libsharpyuv-dev libtiff-dev libtiffxx6 libwebp-dev libwebpdecoder3
  libwebpdemux2 libzstd-dev
Use 'apt autoremove' to remove them.
The following additional packages will be installed:
  fontconfig fontconfig-config fonts-dejavu-core fonts-dejavu-mono libaom3
  libavcodec60 libavformat60 libavutil58 libbluray2 libbrotli1
  libcairo-gobject2 libcairo2 libchromaprint1 libcjson1 libcodec2-1.2
  libdatrie1 libdav1d7 libfontconfig1 libfreetype6 libfribidi0
  libgdk-pixbuf-2.0-0 libgdk-pixbuf2.0-common libgme0 libgraphite2-3 libgsm1
  libharfbuzz0b libhwy1 libjxl0.7 liblcms2-2 libmbedcrypto7 libnorm1
  libopenjp2-7 libopenmpt0 libpango-1.0-0 libpangocairo-1.0-0
  libpangoft2-1.0-0 libpgm-5.3-0 libpixman-1-0 librabbitmq4 librav1e0 librist4
  librsvg2-2 libsdl-kitchensink1 libshine3 libsnappy1v5 libsodium23 libsoxr0
  libspeex1 libsrt1.5-gnutls libssh-gcrypt-4 libsvtav1enc1d1 libswresample4
  libswscale7 libthai-data libthai0 libtheora0 libtwolame0 libudfread0
  libva-drm2 libva-x11-2 libva2 libvdpau1 libvorbisfile3 libvpx8 libx264-164
  libx265-199 libxcb-render0 libxvidcore4 libzmq5 libzvbi-common libzvbi0
  ocl-icd-libopencl1 shared-mime-info
Suggested packages:
  libbluray-bdj liblcms2-utils librsvg2-bin speex opencl-icd
Recommended packages:
  libaacs0 libgdk-pixbuf2.0-bin librsvg2-common va-driver-all | va-driver
  vdpau-driver-all | vdpau-driver
The following NEW packages will be installed:
  fontconfig fontconfig-config fonts-dejavu-core fonts-dejavu-mono libaom3
  libavcodec60 libavformat60 libavutil58 libbluray2 libbrotli1
  libcairo-gobject2 libcairo2 libchromaprint1 libcjson1 libcodec2-1.2
  libdatrie1 libdav1d7 libfontconfig1 libfreetype6 libfribidi0
  libgdk-pixbuf-2.0-0 libgdk-pixbuf2.0-common libgme0 libgraphite2-3 libgsm1
  libharfbuzz0b libhwy1 libjxl0.7 liblcms2-2 libmbedcrypto7 libnorm1
  libopenjp2-7 libopenmpt0 libpango-1.0-0 libpangocairo-1.0-0
  libpangoft2-1.0-0 libpgm-5.3-0 libpixman-1-0 librabbitmq4 librav1e0 librist4
  librsvg2-2 libsdl-kitchensink-dev libsdl-kitchensink1 libshine3 libsnappy1v5
  libsodium23 libsoxr0 libspeex1 libsrt1.5-gnutls libssh-gcrypt-4
  libsvtav1enc1d1 libswresample4 libswscale7 libthai-data libthai0 libtheora0
  libtwolame0 libudfread0 libva-drm2 libva-x11-2 libva2 libvdpau1
  libvorbisfile3 libvpx8 libx264-164 libx265-199 libxcb-render0 libxvidcore4
  libzmq5 libzvbi-common libzvbi0 ocl-icd-libopencl1 shared-mime-info
0 upgraded, 74 newly installed, 0 to remove and 22 not upgraded.
Need to get 35.4 MB of archives.
After this operation, 88.2 MB of additional disk space will be used.
Get:1 http://deb.debian.org/debian unstable/main armhf libbrotli1 armhf 1.1.0-2+b3 [284 kB]
Get:2 http://deb.debian.org/debian unstable/main armhf libfreetype6 armhf 2.13.2+dfsg-1+b1 [371 kB]
Get:3 http://deb.debian.org/debian unstable/main armhf fonts-dejavu-mono all 2.37-8 [489 kB]
Get:4 http://deb.debian.org/debian unstable/main armhf fonts-dejavu-core all 2.37-8 [840 kB]
Get:5 http://deb.debian.org/debian unstable/main armhf fontconfig-config armhf 2.14.2-6+b1 [316 kB]
Get:6 http://deb.debian.org/debian unstable/main armhf libfontconfig1 armhf 2.14.2-6+b1 [369 kB]
Get:7 http://deb.debian.org/debian unstable/main armhf fontconfig armhf 2.14.2-6+b1 [461 kB]
Get:8 http://deb.debian.org/debian unstable/main armhf libaom3 armhf 3.7.1-1+b1 [1432 kB]
Get:9 http://deb.debian.org/debian unstable/main armhf libva2 armhf 2.20.0-2 [65.3 kB]
Get:10 http://deb.debian.org/debian unstable/main armhf libva-drm2 armhf 2.20.0-2 [17.2 kB]
Get:11 http://deb.debian.org/debian unstable/main armhf libva-x11-2 armhf 2.20.0-2 [20.8 kB]
Get:12 http://deb.debian.org/debian unstable/main armhf libvdpau1 armhf 1.5-2 [24.4 kB]
Get:13 http://deb.debian.org/debian unstable/main armhf ocl-icd-libopencl1 armhf 2.3.2-1 [36.8 kB]
Get:14 http://deb.debian.org/debian unstable/main armhf libavutil58 armhf 7:6.1.1-1 [357 kB]
Get:15 http://deb.debian.org/debian unstable/main armhf libpixman-1-0 armhf 0.42.2-1 [465 kB]
Get:16 http://deb.debian.org/debian unstable/main armhf libxcb-render0 armhf 1.15-1 [114 kB]
Get:17 http://deb.debian.org/debian unstable/main armhf libcairo2 armhf 1.18.0-1+b1 [441 kB]
Get:18 http://deb.debian.org/debian unstable/main armhf libcodec2-1.2 armhf 1.2.0-2+b1 [8153 kB]
Get:19 http://deb.debian.org/debian unstable/main armhf libdav1d7 armhf 1.3.0-2+b1 [265 kB]
Get:20 http://deb.debian.org/debian unstable/main armhf libgsm1 armhf 1.0.22-1 [27.9 kB]
Get:21 http://deb.debian.org/debian unstable/main armhf libhwy1 armhf 1.0.7-8 [213 kB]
Get:22 http://deb.debian.org/debian unstable/main armhf liblcms2-2 armhf 2.14-2 [125 kB]
Get:23 http://deb.debian.org/debian unstable/main armhf libjxl0.7 armhf 0.7.0-10.2+b1 [644 kB]
Get:24 http://deb.debian.org/debian unstable/main armhf libopenjp2-7 armhf 2.5.0-2+b2 [170 kB]
Get:25 http://deb.debian.org/debian unstable/main armhf librav1e0 armhf 0.6.6-4 [546 kB]
Get:26 http://deb.debian.org/debian unstable/main armhf libcairo-gobject2 armhf 1.18.0-1+b1 [128 kB]
Get:27 http://deb.debian.org/debian unstable/main armhf libgdk-pixbuf2.0-common all 2.42.10+dfsg-3 [307 kB]
Get:28 http://deb.debian.org/debian unstable/main armhf shared-mime-info armhf 2.4-1 [746 kB]
Get:29 http://deb.debian.org/debian unstable/main armhf libgdk-pixbuf-2.0-0 armhf 2.42.10+dfsg-3 [123 kB]
Get:30 http://deb.debian.org/debian unstable/main armhf libfribidi0 armhf 1.0.13-3+b1 [69.4 kB]
Get:31 http://deb.debian.org/debian unstable/main armhf libgraphite2-3 armhf 1.3.14-2 [63.2 kB]
Get:32 http://deb.debian.org/debian unstable/main armhf libharfbuzz0b armhf 8.0.1-1+b2 [2104 kB]
Get:33 http://deb.debian.org/debian unstable/main armhf libthai-data all 0.1.29-2 [168 kB]
Get:34 http://deb.debian.org/debian unstable/main armhf libdatrie1 armhf 0.2.13-3 [34.4 kB]
Get:35 http://deb.debian.org/debian unstable/main armhf libthai0 armhf 0.1.29-2 [45.8 kB]
Get:36 http://deb.debian.org/debian unstable/main armhf libpango-1.0-0 armhf 1.51.0+ds-3 [191 kB]
Get:37 http://deb.debian.org/debian unstable/main armhf libpangoft2-1.0-0 armhf 1.51.0+ds-3 [40.7 kB]
Get:38 http://deb.debian.org/debian unstable/main armhf libpangocairo-1.0-0 armhf 1.51.0+ds-3 [30.8 kB]
Get:39 http://deb.debian.org/debian unstable/main armhf librsvg2-2 armhf 2.54.7+dfsg-2 [2184 kB]
Get:40 http://deb.debian.org/debian unstable/main armhf libshine3 armhf 3.1.1-2 [22.0 kB]
Get:41 http://deb.debian.org/debian unstable/main armhf libsnappy1v5 armhf 1.1.10-1 [24.9 kB]
Get:42 http://deb.debian.org/debian unstable/main armhf libspeex1 armhf 1.2.1-2 [45.8 kB]
Get:43 http://deb.debian.org/debian unstable/main armhf libsvtav1enc1d1 armhf 1.7.0+dfsg-2 [933 kB]
Get:44 http://deb.debian.org/debian unstable/main armhf libsoxr0 armhf 0.1.3-4 [67.0 kB]
Get:45 http://deb.debian.org/debian unstable/main armhf libswresample4 armhf 7:6.1.1-1 [85.8 kB]
Get:46 http://deb.debian.org/debian unstable/main armhf libtheora0 armhf 1.1.1+dfsg.1-16.1+b1 [129 kB]
Get:47 http://deb.debian.org/debian unstable/main armhf libtwolame0 armhf 0.4.0-2 [47.1 kB]
Get:48 http://deb.debian.org/debian unstable/main armhf libvpx8 armhf 1.13.1-2 [1359 kB]
Get:49 http://deb.debian.org/debian unstable/main armhf libx264-164 armhf 2:0.164.3095+gitbaee400-3+b2 [425 kB]
Get:50 http://deb.debian.org/debian unstable/main armhf libx265-199 armhf 3.5-2+b1 [580 kB]
Get:51 http://deb.debian.org/debian unstable/main armhf libxvidcore4 armhf 2:1.3.7-1 [203 kB]
Get:52 http://deb.debian.org/debian unstable/main armhf libzvbi-common all 0.2.42-1 [70.2 kB]
Get:53 http://deb.debian.org/debian unstable/main armhf libzvbi0 armhf 0.2.42-1 [243 kB]
Get:54 http://deb.debian.org/debian unstable/main armhf libavcodec60 armhf 7:6.1.1-1 [4858 kB]
Get:55 http://deb.debian.org/debian unstable/main armhf libudfread0 armhf 1.1.2-1 [14.4 kB]
Get:56 http://deb.debian.org/debian unstable/main armhf libbluray2 armhf 1:1.3.4-1 [122 kB]
Get:57 http://deb.debian.org/debian unstable/main armhf libchromaprint1 armhf 1.5.1-4 [31.9 kB]
Get:58 http://deb.debian.org/debian unstable/main armhf libgme0 armhf 0.6.3-7 [106 kB]
Get:59 http://deb.debian.org/debian unstable/main armhf libvorbisfile3 armhf 1.3.7-1 [25.4 kB]
Get:60 http://deb.debian.org/debian unstable/main armhf libopenmpt0 armhf 0.7.3-1 [696 kB]
Get:61 http://deb.debian.org/debian unstable/main armhf librabbitmq4 armhf 0.11.0-1+b1 [38.7 kB]
Get:62 http://deb.debian.org/debian unstable/main armhf libcjson1 armhf 1.7.17-1 [25.3 kB]
Get:63 http://deb.debian.org/debian unstable/main armhf libmbedcrypto7 armhf 2.28.6-1 [247 kB]
Get:64 http://deb.debian.org/debian unstable/main armhf librist4 armhf 0.2.10+dfsg-1 [65.2 kB]
Get:65 http://deb.debian.org/debian unstable/main armhf libsrt1.5-gnutls armhf 1.5.3-1 [291 kB]
Get:66 http://deb.debian.org/debian unstable/main armhf libssh-gcrypt-4 armhf 0.10.6-2 [191 kB]
Get:67 http://deb.debian.org/debian unstable/main armhf libnorm1 armhf 1.5.9+dfsg-3 [185 kB]
Get:68 http://deb.debian.org/debian unstable/main armhf libpgm-5.3-0 armhf 5.3.128~dfsg-2 [156 kB]
Get:69 http://deb.debian.org/debian unstable/main armhf libsodium23 armhf 1.0.18-1 [147 kB]
Get:70 http://deb.debian.org/debian unstable/main armhf libzmq5 armhf 4.3.5-1 [237 kB]
Get:71 http://deb.debian.org/debian unstable/main armhf libavformat60 armhf 7:6.1.1-1 [1052 kB]
Get:72 http://deb.debian.org/debian unstable/main armhf libswscale7 armhf 7:6.1.1-1 [169 kB]
Get:73 http://deb.debian.org/debian unstable/main armhf libsdl-kitchensink1 armhf 1.0.12-1 [20.4 kB]
Get:74 http://deb.debian.org/debian unstable/main armhf libsdl-kitchensink-dev armhf 1.0.12-1 [35.1 kB]
debconf: delaying package configuration, since apt-utils is not installed
Fetched 35.4 MB in 2s (23.2 MB/s)
Selecting previously unselected package libbrotli1:armhf.
(Reading database ... (Reading database ... 5%(Reading database ... 10%(Reading database ... 15%(Reading database ... 20%(Reading database ... 25%(Reading database ... 30%(Reading database ... 35%(Reading database ... 40%(Reading database ... 45%(Reading database ... 50%(Reading database ... 55%(Reading database ... 60%(Reading database ... 65%(Reading database ... 70%(Reading database ... 75%(Reading database ... 80%(Reading database ... 85%(Reading database ... 90%(Reading database ... 95%(Reading database ... 100%(Reading database ... 21598 files and directories currently installed.)
Preparing to unpack .../00-libbrotli1_1.1.0-2+b3_armhf.deb ...
Unpacking libbrotli1:armhf (1.1.0-2+b3) ...
Selecting previously unselected package libfreetype6:armhf.
Preparing to unpack .../01-libfreetype6_2.13.2+dfsg-1+b1_armhf.deb ...
Unpacking libfreetype6:armhf (2.13.2+dfsg-1+b1) ...
Selecting previously unselected package fonts-dejavu-mono.
Preparing to unpack .../02-fonts-dejavu-mono_2.37-8_all.deb ...
Unpacking fonts-dejavu-mono (2.37-8) ...
Selecting previously unselected package fonts-dejavu-core.
Preparing to unpack .../03-fonts-dejavu-core_2.37-8_all.deb ...
Unpacking fonts-dejavu-core (2.37-8) ...
Selecting previously unselected package fontconfig-config.
Preparing to unpack .../04-fontconfig-config_2.14.2-6+b1_armhf.deb ...
Unpacking fontconfig-config (2.14.2-6+b1) ...
Selecting previously unselected package libfontconfig1:armhf.
Preparing to unpack .../05-libfontconfig1_2.14.2-6+b1_armhf.deb ...
Unpacking libfontconfig1:armhf (2.14.2-6+b1) ...
Selecting previously unselected package fontconfig.
Preparing to unpack .../06-fontconfig_2.14.2-6+b1_armhf.deb ...
Unpacking fontconfig (2.14.2-6+b1) ...
Selecting previously unselected package libaom3:armhf.
Preparing to unpack .../07-libaom3_3.7.1-1+b1_armhf.deb ...
Unpacking libaom3:armhf (3.7.1-1+b1) ...
Selecting previously unselected package libva2:armhf.
Preparing to unpack .../08-libva2_2.20.0-2_armhf.deb ...
Unpacking libva2:armhf (2.20.0-2) ...
Selecting previously unselected package libva-drm2:armhf.
Preparing to unpack .../09-libva-drm2_2.20.0-2_armhf.deb ...
Unpacking libva-drm2:armhf (2.20.0-2) ...
Selecting previously unselected package libva-x11-2:armhf.
Preparing to unpack .../10-libva-x11-2_2.20.0-2_armhf.deb ...
Unpacking libva-x11-2:armhf (2.20.0-2) ...
Selecting previously unselected package libvdpau1:armhf.
Preparing to unpack .../11-libvdpau1_1.5-2_armhf.deb ...
Unpacking libvdpau1:armhf (1.5-2) ...
Selecting previously unselected package ocl-icd-libopencl1:armhf.
Preparing to unpack .../12-ocl-icd-libopencl1_2.3.2-1_armhf.deb ...
Unpacking ocl-icd-libopencl1:armhf (2.3.2-1) ...
Selecting previously unselected package libavutil58:armhf.
Preparing to unpack .../13-libavutil58_7%3a6.1.1-1_armhf.deb ...
Unpacking libavutil58:armhf (7:6.1.1-1) ...
Selecting previously unselected package libpixman-1-0:armhf.
Preparing to unpack .../14-libpixman-1-0_0.42.2-1_armhf.deb ...
Unpacking libpixman-1-0:armhf (0.42.2-1) ...
Selecting previously unselected package libxcb-render0:armhf.
Preparing to unpack .../15-libxcb-render0_1.15-1_armhf.deb ...
Unpacking libxcb-render0:armhf (1.15-1) ...
Selecting previously unselected package libcairo2:armhf.
Preparing to unpack .../16-libcairo2_1.18.0-1+b1_armhf.deb ...
Unpacking libcairo2:armhf (1.18.0-1+b1) ...
Selecting previously unselected package libcodec2-1.2:armhf.
Preparing to unpack .../17-libcodec2-1.2_1.2.0-2+b1_armhf.deb ...
Unpacking libcodec2-1.2:armhf (1.2.0-2+b1) ...
Selecting previously unselected package libdav1d7:armhf.
Preparing to unpack .../18-libdav1d7_1.3.0-2+b1_armhf.deb ...
Unpacking libdav1d7:armhf (1.3.0-2+b1) ...
Selecting previously unselected package libgsm1:armhf.
Preparing to unpack .../19-libgsm1_1.0.22-1_armhf.deb ...
Unpacking libgsm1:armhf (1.0.22-1) ...
Selecting previously unselected package libhwy1:armhf.
Preparing to unpack .../20-libhwy1_1.0.7-8_armhf.deb ...
Unpacking libhwy1:armhf (1.0.7-8) ...
Selecting previously unselected package liblcms2-2:armhf.
Preparing to unpack .../21-liblcms2-2_2.14-2_armhf.deb ...
Unpacking liblcms2-2:armhf (2.14-2) ...
Selecting previously unselected package libjxl0.7:armhf.
Preparing to unpack .../22-libjxl0.7_0.7.0-10.2+b1_armhf.deb ...
Unpacking libjxl0.7:armhf (0.7.0-10.2+b1) ...
Selecting previously unselected package libopenjp2-7:armhf.
Preparing to unpack .../23-libopenjp2-7_2.5.0-2+b2_armhf.deb ...
Unpacking libopenjp2-7:armhf (2.5.0-2+b2) ...
Selecting previously unselected package librav1e0:armhf.
Preparing to unpack .../24-librav1e0_0.6.6-4_armhf.deb ...
Unpacking librav1e0:armhf (0.6.6-4) ...
Selecting previously unselected package libcairo-gobject2:armhf.
Preparing to unpack .../25-libcairo-gobject2_1.18.0-1+b1_armhf.deb ...
Unpacking libcairo-gobject2:armhf (1.18.0-1+b1) ...
Selecting previously unselected package libgdk-pixbuf2.0-common.
Preparing to unpack .../26-libgdk-pixbuf2.0-common_2.42.10+dfsg-3_all.deb ...
Unpacking libgdk-pixbuf2.0-common (2.42.10+dfsg-3) ...
Selecting previously unselected package shared-mime-info.
Preparing to unpack .../27-shared-mime-info_2.4-1_armhf.deb ...
Unpacking shared-mime-info (2.4-1) ...
Selecting previously unselected package libgdk-pixbuf-2.0-0:armhf.
Preparing to unpack .../28-libgdk-pixbuf-2.0-0_2.42.10+dfsg-3_armhf.deb ...
Unpacking libgdk-pixbuf-2.0-0:armhf (2.42.10+dfsg-3) ...
Selecting previously unselected package libfribidi0:armhf.
Preparing to unpack .../29-libfribidi0_1.0.13-3+b1_armhf.deb ...
Unpacking libfribidi0:armhf (1.0.13-3+b1) ...
Selecting previously unselected package libgraphite2-3:armhf.
Preparing to unpack .../30-libgraphite2-3_1.3.14-2_armhf.deb ...
Unpacking libgraphite2-3:armhf (1.3.14-2) ...
Selecting previously unselected package libharfbuzz0b:armhf.
Preparing to unpack .../31-libharfbuzz0b_8.0.1-1+b2_armhf.deb ...
Unpacking libharfbuzz0b:armhf (8.0.1-1+b2) ...
Selecting previously unselected package libthai-data.
Preparing to unpack .../32-libthai-data_0.1.29-2_all.deb ...
Unpacking libthai-data (0.1.29-2) ...
Selecting previously unselected package libdatrie1:armhf.
Preparing to unpack .../33-libdatrie1_0.2.13-3_armhf.deb ...
Unpacking libdatrie1:armhf (0.2.13-3) ...
Selecting previously unselected package libthai0:armhf.
Preparing to unpack .../34-libthai0_0.1.29-2_armhf.deb ...
Unpacking libthai0:armhf (0.1.29-2) ...
Selecting previously unselected package libpango-1.0-0:armhf.
Preparing to unpack .../35-libpango-1.0-0_1.51.0+ds-3_armhf.deb ...
Unpacking libpango-1.0-0:armhf (1.51.0+ds-3) ...
Selecting previously unselected package libpangoft2-1.0-0:armhf.
Preparing to unpack .../36-libpangoft2-1.0-0_1.51.0+ds-3_armhf.deb ...
Unpacking libpangoft2-1.0-0:armhf (1.51.0+ds-3) ...
Selecting previously unselected package libpangocairo-1.0-0:armhf.
Preparing to unpack .../37-libpangocairo-1.0-0_1.51.0+ds-3_armhf.deb ...
Unpacking libpangocairo-1.0-0:armhf (1.51.0+ds-3) ...
Selecting previously unselected package librsvg2-2:armhf.
Preparing to unpack .../38-librsvg2-2_2.54.7+dfsg-2_armhf.deb ...
Unpacking librsvg2-2:armhf (2.54.7+dfsg-2) ...
Selecting previously unselected package libshine3:armhf.
Preparing to unpack .../39-libshine3_3.1.1-2_armhf.deb ...
Unpacking libshine3:armhf (3.1.1-2) ...
Selecting previously unselected package libsnappy1v5:armhf.
Preparing to unpack .../40-libsnappy1v5_1.1.10-1_armhf.deb ...
Unpacking libsnappy1v5:armhf (1.1.10-1) ...
Selecting previously unselected package libspeex1:armhf.
Preparing to unpack .../41-libspeex1_1.2.1-2_armhf.deb ...
Unpacking libspeex1:armhf (1.2.1-2) ...
Selecting previously unselected package libsvtav1enc1d1:armhf.
Preparing to unpack .../42-libsvtav1enc1d1_1.7.0+dfsg-2_armhf.deb ...
Unpacking libsvtav1enc1d1:armhf (1.7.0+dfsg-2) ...
Selecting previously unselected package libsoxr0:armhf.
Preparing to unpack .../43-libsoxr0_0.1.3-4_armhf.deb ...
Unpacking libsoxr0:armhf (0.1.3-4) ...
Selecting previously unselected package libswresample4:armhf.
Preparing to unpack .../44-libswresample4_7%3a6.1.1-1_armhf.deb ...
Unpacking libswresample4:armhf (7:6.1.1-1) ...
Selecting previously unselected package libtheora0:armhf.
Preparing to unpack .../45-libtheora0_1.1.1+dfsg.1-16.1+b1_armhf.deb ...
Unpacking libtheora0:armhf (1.1.1+dfsg.1-16.1+b1) ...
Selecting previously unselected package libtwolame0:armhf.
Preparing to unpack .../46-libtwolame0_0.4.0-2_armhf.deb ...
Unpacking libtwolame0:armhf (0.4.0-2) ...
Selecting previously unselected package libvpx8:armhf.
Preparing to unpack .../47-libvpx8_1.13.1-2_armhf.deb ...
Unpacking libvpx8:armhf (1.13.1-2) ...
Selecting previously unselected package libx264-164:armhf.
Preparing to unpack .../48-libx264-164_2%3a0.164.3095+gitbaee400-3+b2_armhf.deb ...
Unpacking libx264-164:armhf (2:0.164.3095+gitbaee400-3+b2) ...
Selecting previously unselected package libx265-199:armhf.
Preparing to unpack .../49-libx265-199_3.5-2+b1_armhf.deb ...
Unpacking libx265-199:armhf (3.5-2+b1) ...
Selecting previously unselected package libxvidcore4:armhf.
Preparing to unpack .../50-libxvidcore4_2%3a1.3.7-1_armhf.deb ...
Unpacking libxvidcore4:armhf (2:1.3.7-1) ...
Selecting previously unselected package libzvbi-common.
Preparing to unpack .../51-libzvbi-common_0.2.42-1_all.deb ...
Unpacking libzvbi-common (0.2.42-1) ...
Selecting previously unselected package libzvbi0:armhf.
Preparing to unpack .../52-libzvbi0_0.2.42-1_armhf.deb ...
Unpacking libzvbi0:armhf (0.2.42-1) ...
Selecting previously unselected package libavcodec60:armhf.
Preparing to unpack .../53-libavcodec60_7%3a6.1.1-1_armhf.deb ...
Unpacking libavcodec60:armhf (7:6.1.1-1) ...
Selecting previously unselected package libudfread0:armhf.
Preparing to unpack .../54-libudfread0_1.1.2-1_armhf.deb ...
Unpacking libudfread0:armhf (1.1.2-1) ...
Selecting previously unselected package libbluray2:armhf.
Preparing to unpack .../55-libbluray2_1%3a1.3.4-1_armhf.deb ...
Unpacking libbluray2:armhf (1:1.3.4-1) ...
Selecting previously unselected package libchromaprint1:armhf.
Preparing to unpack .../56-libchromaprint1_1.5.1-4_armhf.deb ...
Unpacking libchromaprint1:armhf (1.5.1-4) ...
Selecting previously unselected package libgme0:armhf.
Preparing to unpack .../57-libgme0_0.6.3-7_armhf.deb ...
Unpacking libgme0:armhf (0.6.3-7) ...
Selecting previously unselected package libvorbisfile3:armhf.
Preparing to unpack .../58-libvorbisfile3_1.3.7-1_armhf.deb ...
Unpacking libvorbisfile3:armhf (1.3.7-1) ...
Selecting previously unselected package libopenmpt0:armhf.
Preparing to unpack .../59-libopenmpt0_0.7.3-1_armhf.deb ...
Unpacking libopenmpt0:armhf (0.7.3-1) ...
Selecting previously unselected package librabbitmq4:armhf.
Preparing to unpack .../60-librabbitmq4_0.11.0-1+b1_armhf.deb ...
Unpacking librabbitmq4:armhf (0.11.0-1+b1) ...
Selecting previously unselected package libcjson1:armhf.
Preparing to unpack .../61-libcjson1_1.7.17-1_armhf.deb ...
Unpacking libcjson1:armhf (1.7.17-1) ...
Selecting previously unselected package libmbedcrypto7:armhf.
Preparing to unpack .../62-libmbedcrypto7_2.28.6-1_armhf.deb ...
Unpacking libmbedcrypto7:armhf (2.28.6-1) ...
Selecting previously unselected package librist4:armhf.
Preparing to unpack .../63-librist4_0.2.10+dfsg-1_armhf.deb ...
Unpacking librist4:armhf (0.2.10+dfsg-1) ...
Selecting previously unselected package libsrt1.5-gnutls:armhf.
Preparing to unpack .../64-libsrt1.5-gnutls_1.5.3-1_armhf.deb ...
Unpacking libsrt1.5-gnutls:armhf (1.5.3-1) ...
Selecting previously unselected package libssh-gcrypt-4:armhf.
Preparing to unpack .../65-libssh-gcrypt-4_0.10.6-2_armhf.deb ...
Unpacking libssh-gcrypt-4:armhf (0.10.6-2) ...
Selecting previously unselected package libnorm1:armhf.
Preparing to unpack .../66-libnorm1_1.5.9+dfsg-3_armhf.deb ...
Unpacking libnorm1:armhf (1.5.9+dfsg-3) ...
Selecting previously unselected package libpgm-5.3-0:armhf.
Preparing to unpack .../67-libpgm-5.3-0_5.3.128~dfsg-2_armhf.deb ...
Unpacking libpgm-5.3-0:armhf (5.3.128~dfsg-2) ...
Selecting previously unselected package libsodium23:armhf.
Preparing to unpack .../68-libsodium23_1.0.18-1_armhf.deb ...
Unpacking libsodium23:armhf (1.0.18-1) ...
Selecting previously unselected package libzmq5:armhf.
Preparing to unpack .../69-libzmq5_4.3.5-1_armhf.deb ...
Unpacking libzmq5:armhf (4.3.5-1) ...
Selecting previously unselected package libavformat60:armhf.
Preparing to unpack .../70-libavformat60_7%3a6.1.1-1_armhf.deb ...
Unpacking libavformat60:armhf (7:6.1.1-1) ...
Selecting previously unselected package libswscale7:armhf.
Preparing to unpack .../71-libswscale7_7%3a6.1.1-1_armhf.deb ...
Unpacking libswscale7:armhf (7:6.1.1-1) ...
Selecting previously unselected package libsdl-kitchensink1:armhf.
Preparing to unpack .../72-libsdl-kitchensink1_1.0.12-1_armhf.deb ...
Unpacking libsdl-kitchensink1:armhf (1.0.12-1) ...
Selecting previously unselected package libsdl-kitchensink-dev:armhf.
Preparing to unpack .../73-libsdl-kitchensink-dev_1.0.12-1_armhf.deb ...
Unpacking libsdl-kitchensink-dev:armhf (1.0.12-1) ...
Setting up libgme0:armhf (0.6.3-7) ...
Setting up libssh-gcrypt-4:armhf (0.10.6-2) ...
Setting up libgraphite2-3:armhf (1.3.14-2) ...
Setting up liblcms2-2:armhf (2.14-2) ...
Setting up libpixman-1-0:armhf (0.42.2-1) ...
Setting up libudfread0:armhf (1.1.2-1) ...
Setting up libaom3:armhf (3.7.1-1+b1) ...
Setting up librabbitmq4:armhf (0.11.0-1+b1) ...
Setting up libsodium23:armhf (1.0.18-1) ...
Setting up libspeex1:armhf (1.2.1-2) ...
Setting up libshine3:armhf (3.1.1-2) ...
Setting up libx264-164:armhf (2:0.164.3095+gitbaee400-3+b2) ...
Setting up libtwolame0:armhf (0.4.0-2) ...
Setting up libdatrie1:armhf (0.2.13-3) ...
Setting up libgsm1:armhf (1.0.22-1) ...
Setting up libxcb-render0:armhf (1.15-1) ...
Setting up libsoxr0:armhf (0.1.3-4) ...
Setting up libpgm-5.3-0:armhf (5.3.128~dfsg-2) ...
Setting up libcodec2-1.2:armhf (1.2.0-2+b1) ...
Setting up libbrotli1:armhf (1.1.0-2+b3) ...
Setting up libgdk-pixbuf2.0-common (2.42.10+dfsg-3) ...
Setting up libnorm1:armhf (1.5.9+dfsg-3) ...
Setting up libhwy1:armhf (1.0.7-8) ...
Setting up libsvtav1enc1d1:armhf (1.7.0+dfsg-2) ...
Setting up libcjson1:armhf (1.7.17-1) ...
Setting up libxvidcore4:armhf (2:1.3.7-1) ...
Setting up librav1e0:armhf (0.6.6-4) ...
Setting up libsnappy1v5:armhf (1.1.10-1) ...
Setting up libvorbisfile3:armhf (1.3.7-1) ...
Setting up libva2:armhf (2.20.0-2) ...
Setting up libfreetype6:armhf (2.13.2+dfsg-1+b1) ...
Setting up libmbedcrypto7:armhf (2.28.6-1) ...
Setting up libfribidi0:armhf (1.0.13-3+b1) ...
Setting up shared-mime-info (2.4-1) ...
Setting up fonts-dejavu-mono (2.37-8) ...
Setting up fonts-dejavu-core (2.37-8) ...
Setting up libvpx8:armhf (1.13.1-2) ...
Setting up libjxl0.7:armhf (0.7.0-10.2+b1) ...
Setting up libx265-199:armhf (3.5-2+b1) ...
Setting up libsrt1.5-gnutls:armhf (1.5.3-1) ...
Setting up libdav1d7:armhf (1.3.0-2+b1) ...
Setting up libva-drm2:armhf (2.20.0-2) ...
Setting up ocl-icd-libopencl1:armhf (2.3.2-1) ...
Setting up libvdpau1:armhf (1.5-2) ...
Setting up libopenjp2-7:armhf (2.5.0-2+b2) ...
Setting up libharfbuzz0b:armhf (8.0.1-1+b2) ...
Setting up libthai-data (0.1.29-2) ...
Setting up libgdk-pixbuf-2.0-0:armhf (2.42.10+dfsg-3) ...
Setting up libva-x11-2:armhf (2.20.0-2) ...
Setting up libopenmpt0:armhf (0.7.3-1) ...
Setting up libzvbi-common (0.2.42-1) ...
Setting up libzvbi0:armhf (0.2.42-1) ...
Setting up libzmq5:armhf (4.3.5-1) ...
Setting up fontconfig-config (2.14.2-6+b1) ...
Setting up libavutil58:armhf (7:6.1.1-1) ...
Setting up librist4:armhf (0.2.10+dfsg-1) ...
Setting up libthai0:armhf (0.1.29-2) ...
Setting up libswresample4:armhf (7:6.1.1-1) ...
Setting up libswscale7:armhf (7:6.1.1-1) ...
Processing triggers for libc-bin (2.37-13) ...
Processing triggers for sgml-base (1.31) ...
Setting up libfontconfig1:armhf (2.14.2-6+b1) ...
Setting up libbluray2:armhf (1:1.3.4-1) ...
Setting up fontconfig (2.14.2-6+b1) ...
Regenerating fonts cache... done.
Setting up libpango-1.0-0:armhf (1.51.0+ds-3) ...
Setting up libcairo2:armhf (1.18.0-1+b1) ...
Setting up libtheora0:armhf (1.1.1+dfsg.1-16.1+b1) ...
Setting up libcairo-gobject2:armhf (1.18.0-1+b1) ...
Setting up libpangoft2-1.0-0:armhf (1.51.0+ds-3) ...
Setting up libpangocairo-1.0-0:armhf (1.51.0+ds-3) ...
Setting up librsvg2-2:armhf (2.54.7+dfsg-2) ...
Setting up libavcodec60:armhf (7:6.1.1-1) ...
Setting up libchromaprint1:armhf (1.5.1-4) ...
Setting up libavformat60:armhf (7:6.1.1-1) ...
Setting up libsdl-kitchensink1:armhf (1.0.12-1) ...
Setting up libsdl-kitchensink-dev:armhf (1.0.12-1) ...
Processing triggers for libc-bin (2.37-13) ...
Reading package lists...
Building dependency tree...
Reading state information...
The following packages will be REMOVED:
  libdeflate-dev* libglu1-mesa* libglu1-mesa-dev* libjbig-dev* libjpeg-dev*
  libjpeg62-turbo-dev* liblerc-dev* liblzma-dev* libopengl-dev* libopengl0*
  libpng-dev* libsdl-image1.2* libsdl-image1.2-dev* libsdl1.2-dev*
  libsdl1.2debian* libsharpyuv-dev* libtiff-dev* libtiffxx6* libwebp-dev*
  libwebpdecoder3* libwebpdemux2* libzstd-dev*
0 upgraded, 0 newly installed, 22 to remove and 22 not upgraded.
After this operation, 8895 kB disk space will be freed.
(Reading database ... (Reading database ... 5%(Reading database ... 10%(Reading database ... 15%(Reading database ... 20%(Reading database ... 25%(Reading database ... 30%(Reading database ... 35%(Reading database ... 40%(Reading database ... 45%(Reading database ... 50%(Reading database ... 55%(Reading database ... 60%(Reading database ... 65%(Reading database ... 70%(Reading database ... 75%(Reading database ... 80%(Reading database ... 85%(Reading database ... 90%(Reading database ... 95%(Reading database ... 100%(Reading database ... 22515 files and directories currently installed.)
Removing libsdl-image1.2-dev:armhf (1.2.12-13+b2) ...
Removing libtiff-dev:armhf (4.5.1+git230720-3) ...
Removing libdeflate-dev:armhf (1.18-1) ...
Removing libsdl1.2-dev:armhf (1.2.68-2) ...
Removing libglu1-mesa-dev:armhf (9.0.2-1.1) ...
Removing libglu1-mesa:armhf (9.0.2-1.1) ...
Removing libjbig-dev:armhf (2.1-6.1) ...
Removing libjpeg-dev:armhf (1:2.1.5-2+b2) ...
Removing libjpeg62-turbo-dev:armhf (1:2.1.5-2+b2) ...
Removing liblerc-dev:armhf (4.0.0+ds-4) ...
Removing liblzma-dev:armhf (5.4.5-0.3) ...
Removing libopengl-dev:armhf (1.7.0-1) ...
Removing libopengl0:armhf (1.7.0-1) ...
Removing libpng-dev:armhf (1.6.40-3) ...
Removing libsdl-image1.2:armhf (1.2.12-13+b2) ...
Removing libsdl1.2debian:armhf (1.2.68-2) ...
Removing libwebp-dev:armhf (1.3.2-0.3) ...
Removing libsharpyuv-dev:armhf (1.3.2-0.3) ...
Removing libtiffxx6:armhf (4.5.1+git230720-3) ...
Removing libwebpdecoder3:armhf (1.3.2-0.3) ...
Removing libwebpdemux2:armhf (1.3.2-0.3) ...
Removing libzstd-dev:armhf (1.5.5+dfsg2-2) ...
Processing triggers for libc-bin (2.37-13) ...
