[2024-01-31T16:58:24+00:00] apt-get install cairo-dock-dbus-plug-in libglib2.0-dev abi-compliance-checker
Reading package lists...
Building dependency tree...
Reading state information...
libglib2.0-dev is already the newest version (2.78.3-2).
libglib2.0-dev set to manually installed.
abi-compliance-checker is already the newest version (2.3-2).
The following packages were automatically installed and are no longer required:
  budgie-core-dev gir1.2-atk-1.0 gir1.2-atspi-2.0 gir1.2-budgie-1.0
  gir1.2-budgieraven-1.0 gir1.2-cloudproviders-0.3.0 gir1.2-gdkpixbuf-2.0
  gir1.2-gtk-3.0 gir1.2-harfbuzz-0.0 gir1.2-pango-1.0 gir1.2-peas-1.0
  icu-devtools libatk-bridge2.0-dev libatk1.0-dev libatspi2.0-dev
  libbrotli-dev libbudgie-appindexer0 libbudgie-plugin0 libbudgie-private0
  libbudgie-raven-plugin0 libbudgietheme0 libbz2-dev
  libcairo-script-interpreter2 libcairo2-dev libcloudproviders-dev
  libdatrie-dev libdbus-1-dev libdeflate-dev libdrm-amdgpu1 libdrm-common
  libdrm-nouveau2 libdrm-radeon1 libdrm2 libedit2 libegl-dev libegl-mesa0
  libegl1 libegl1-mesa-dev libepoxy-dev libexpat1-dev libfontconfig-dev
  libfreetype-dev libfribidi-dev libgbm1 libgdk-pixbuf-2.0-dev libgee-0.8-2
  libgl-dev libgl1 libgl1-mesa-dri libglapi-mesa libgles-dev libgles1 libgles2
  libglvnd-core-dev libglvnd-dev libglvnd0 libglx-dev libglx-mesa0 libglx0
  libgraphite2-dev libgtk-3-dev libharfbuzz-cairo0 libharfbuzz-dev
  libharfbuzz-gobject0 libharfbuzz-icu0 libharfbuzz-subset0 libice-dev libice6
  libicu-dev libjbig-dev libjpeg-dev libjpeg62-turbo-dev liblerc-dev libllvm17
  liblzma-dev liblzo2-2 libopengl-dev libopengl0 libpango1.0-dev
  libpangoxft-1.0-0 libpeas-1.0-0 libpeas-common libpeas-dev libpixman-1-dev
  libpng-dev libpthread-stubs0-dev libpython3.11 libraven0 libsensors-config
  libsensors5 libsharpyuv-dev libsm-dev libsm6 libthai-dev libtiff-dev
  libtiffxx6 libvulkan1 libwayland-bin libwayland-dev libwayland-server0
  libwebp-dev libwebpdecoder3 libwebpdemux2 libwebpmux3 libx11-dev libx11-xcb1
  libxau-dev libxcb-dri2-0 libxcb-dri3-0 libxcb-glx0 libxcb-present0
  libxcb-randr0 libxcb-render0-dev libxcb-shm0-dev libxcb-sync1 libxcb-xfixes0
  libxcb1-dev libxcomposite-dev libxcursor-dev libxdamage-dev libxdmcp-dev
  libxext-dev libxfixes-dev libxft-dev libxft2 libxi-dev libxinerama-dev
  libxkbcommon-dev libxrandr-dev libxrender-dev libxshmfence1 libxtst-dev
  libxtst6 libxxf86vm1 libz3-4 libzstd-dev pango1.0-tools sgml-base
  wayland-protocols x11-common x11proto-dev xml-core xorg-sgml-doctools
  xtrans-dev
Use 'apt autoremove' to remove them.
The following additional packages will be installed:
  cairo-dock-plug-in-data libdbus-glib-1-2 libdbusmenu-glib4
  libdbusmenu-gtk3-4
Suggested packages:
  cairo-dock-dbus-plug-in-interface-python
  cairo-dock-dbus-plug-in-interface-ruby
  cairo-dock-dbus-plug-in-interface-vala
The following NEW packages will be installed:
  cairo-dock-dbus-plug-in cairo-dock-plug-in-data libdbus-glib-1-2
  libdbusmenu-glib4 libdbusmenu-gtk3-4
0 upgraded, 5 newly installed, 0 to remove and 69 not upgraded.
Need to get 721 kB of archives.
After this operation, 3879 kB of additional disk space will be used.
Get:1 http://deb.debian.org/debian unstable/main armhf libdbus-glib-1-2 armhf 0.112-3+b1 [52.2 kB]
Get:2 http://deb.debian.org/debian unstable/main armhf libdbusmenu-glib4 armhf 18.10.20180917~bzr492+repack1-3.1 [34.4 kB]
Get:3 http://deb.debian.org/debian unstable/main armhf libdbusmenu-gtk3-4 armhf 18.10.20180917~bzr492+repack1-3.1 [22.4 kB]
Get:4 http://deb.debian.org/debian unstable/main armhf cairo-dock-plug-in-data all 3.4.1+git20201022.a0d3415c-1.1 [563 kB]
Get:5 http://deb.debian.org/debian unstable/main armhf cairo-dock-dbus-plug-in armhf 3.4.1+git20201022.a0d3415c-1.1 [48.5 kB]
debconf: delaying package configuration, since apt-utils is not installed
Fetched 721 kB in 0s (3708 kB/s)
Selecting previously unselected package libdbus-glib-1-2:armhf.
(Reading database ... (Reading database ... 5%(Reading database ... 10%(Reading database ... 15%(Reading database ... 20%(Reading database ... 25%(Reading database ... 30%(Reading database ... 35%(Reading database ... 40%(Reading database ... 45%(Reading database ... 50%(Reading database ... 55%(Reading database ... 60%(Reading database ... 65%(Reading database ... 70%(Reading database ... 75%(Reading database ... 80%(Reading database ... 85%(Reading database ... 90%(Reading database ... 95%(Reading database ... 100%(Reading database ... 23040 files and directories currently installed.)
Preparing to unpack .../libdbus-glib-1-2_0.112-3+b1_armhf.deb ...
Unpacking libdbus-glib-1-2:armhf (0.112-3+b1) ...
Selecting previously unselected package libdbusmenu-glib4:armhf.
Preparing to unpack .../libdbusmenu-glib4_18.10.20180917~bzr492+repack1-3.1_armhf.deb ...
Unpacking libdbusmenu-glib4:armhf (18.10.20180917~bzr492+repack1-3.1) ...
Selecting previously unselected package libdbusmenu-gtk3-4:armhf.
Preparing to unpack .../libdbusmenu-gtk3-4_18.10.20180917~bzr492+repack1-3.1_armhf.deb ...
Unpacking libdbusmenu-gtk3-4:armhf (18.10.20180917~bzr492+repack1-3.1) ...
Selecting previously unselected package cairo-dock-plug-in-data.
Preparing to unpack .../cairo-dock-plug-in-data_3.4.1+git20201022.a0d3415c-1.1_all.deb ...
Unpacking cairo-dock-plug-in-data (3.4.1+git20201022.a0d3415c-1.1) ...
Selecting previously unselected package cairo-dock-dbus-plug-in.
Preparing to unpack .../cairo-dock-dbus-plug-in_3.4.1+git20201022.a0d3415c-1.1_armhf.deb ...
Unpacking cairo-dock-dbus-plug-in (3.4.1+git20201022.a0d3415c-1.1) ...
Setting up libdbusmenu-glib4:armhf (18.10.20180917~bzr492+repack1-3.1) ...
Setting up cairo-dock-plug-in-data (3.4.1+git20201022.a0d3415c-1.1) ...
Setting up libdbus-glib-1-2:armhf (0.112-3+b1) ...
Setting up libdbusmenu-gtk3-4:armhf (18.10.20180917~bzr492+repack1-3.1) ...
Setting up cairo-dock-dbus-plug-in (3.4.1+git20201022.a0d3415c-1.1) ...
Processing triggers for libc-bin (2.37-13) ...
Reading package lists...
Building dependency tree...
Reading state information...
The following packages will be REMOVED:
  budgie-core-dev* gir1.2-atk-1.0* gir1.2-atspi-2.0* gir1.2-budgie-1.0*
  gir1.2-budgieraven-1.0* gir1.2-cloudproviders-0.3.0* gir1.2-gdkpixbuf-2.0*
  gir1.2-gtk-3.0* gir1.2-harfbuzz-0.0* gir1.2-pango-1.0* gir1.2-peas-1.0*
  icu-devtools* libatk-bridge2.0-dev* libatk1.0-dev* libatspi2.0-dev*
  libbrotli-dev* libbudgie-appindexer0* libbudgie-plugin0* libbudgie-private0*
  libbudgie-raven-plugin0* libbudgietheme0* libbz2-dev*
  libcairo-script-interpreter2* libcairo2-dev* libcloudproviders-dev*
  libdatrie-dev* libdbus-1-dev* libdeflate-dev* libdrm-amdgpu1* libdrm-common*
  libdrm-nouveau2* libdrm-radeon1* libdrm2* libedit2* libegl-dev*
  libegl-mesa0* libegl1* libegl1-mesa-dev* libepoxy-dev* libexpat1-dev*
  libfontconfig-dev* libfreetype-dev* libfribidi-dev* libgbm1*
  libgdk-pixbuf-2.0-dev* libgee-0.8-2* libgl-dev* libgl1* libgl1-mesa-dri*
  libglapi-mesa* libgles-dev* libgles1* libgles2* libglvnd-core-dev*
  libglvnd-dev* libglvnd0* libglx-dev* libglx-mesa0* libglx0*
  libgraphite2-dev* libgtk-3-dev* libharfbuzz-cairo0* libharfbuzz-dev*
  libharfbuzz-gobject0* libharfbuzz-icu0* libharfbuzz-subset0* libice-dev*
  libice6* libicu-dev* libjbig-dev* libjpeg-dev* libjpeg62-turbo-dev*
  liblerc-dev* libllvm17* liblzma-dev* liblzo2-2* libopengl-dev* libopengl0*
  libpango1.0-dev* libpangoxft-1.0-0* libpeas-1.0-0* libpeas-common*
  libpeas-dev* libpixman-1-dev* libpng-dev* libpthread-stubs0-dev*
  libpython3.11* libraven0* libsensors-config* libsensors5* libsharpyuv-dev*
  libsm-dev* libsm6* libthai-dev* libtiff-dev* libtiffxx6* libvulkan1*
  libwayland-bin* libwayland-dev* libwayland-server0* libwebp-dev*
  libwebpdecoder3* libwebpdemux2* libwebpmux3* libx11-dev* libx11-xcb1*
  libxau-dev* libxcb-dri2-0* libxcb-dri3-0* libxcb-glx0* libxcb-present0*
  libxcb-randr0* libxcb-render0-dev* libxcb-shm0-dev* libxcb-sync1*
  libxcb-xfixes0* libxcb1-dev* libxcomposite-dev* libxcursor-dev*
  libxdamage-dev* libxdmcp-dev* libxext-dev* libxfixes-dev* libxft-dev*
  libxft2* libxi-dev* libxinerama-dev* libxkbcommon-dev* libxrandr-dev*
  libxrender-dev* libxshmfence1* libxtst-dev* libxtst6* libxxf86vm1* libz3-4*
  libzstd-dev* pango1.0-tools* sgml-base* wayland-protocols* x11-common*
  x11proto-dev* xml-core* xorg-sgml-doctools* xtrans-dev*
0 upgraded, 0 newly installed, 144 to remove and 69 not upgraded.
After this operation, 269 MB disk space will be freed.
(Reading database ... (Reading database ... 5%(Reading database ... 10%(Reading database ... 15%(Reading database ... 20%(Reading database ... 25%(Reading database ... 30%(Reading database ... 35%(Reading database ... 40%(Reading database ... 45%(Reading database ... 50%(Reading database ... 55%(Reading database ... 60%(Reading database ... 65%(Reading database ... 70%(Reading database ... 75%(Reading database ... 80%(Reading database ... 85%(Reading database ... 90%(Reading database ... 95%(Reading database ... 100%(Reading database ... 23118 files and directories currently installed.)
Removing budgie-core-dev (10.8.2-2) ...
Removing libpeas-dev:armhf (1.36.0-3) ...
Removing gir1.2-budgie-1.0 (10.8.2-2) ...
Removing libgtk-3-dev:armhf (3.24.41-1) ...
Removing libatk-bridge2.0-dev:armhf (2.50.0-1+b1) ...
Removing libatk1.0-dev:armhf (2.50.0-1+b1) ...
Removing libatspi2.0-dev:armhf (2.50.0-1+b1) ...
Removing gir1.2-atspi-2.0:armhf (2.50.0-1+b1) ...
Removing gir1.2-budgieraven-1.0 (10.8.2-2) ...
Removing libcloudproviders-dev:armhf (0.3.5-1) ...
Removing gir1.2-cloudproviders-0.3.0:armhf (0.3.5-1) ...
Removing libgdk-pixbuf-2.0-dev:armhf (2.42.10+dfsg-3) ...
Removing libpango1.0-dev:armhf (1.51.0+ds-4) ...
Removing libharfbuzz-dev:armhf (8.3.0-2) ...
Removing libicu-dev:armhf (72.1-4) ...
Removing icu-devtools (72.1-4) ...
Removing libcairo2-dev:armhf (1.18.0-1+b1) ...
Removing libxft-dev:armhf (2.3.6-1) ...
Removing libfontconfig-dev:armhf (2.14.2-6+b1) ...
Removing libfreetype-dev:armhf (2.13.2+dfsg-1+b1) ...
Removing libbrotli-dev:armhf (1.1.0-2+b3) ...
Removing libbudgie-appindexer0 (10.8.2-2) ...
Removing libraven0 (10.8.2-2) ...
Removing libbudgie-private0 (10.8.2-2) ...
Removing libbudgie-plugin0 (10.8.2-2) ...
Removing libbudgie-raven-plugin0 (10.8.2-2) ...
Removing libbudgietheme0 (10.8.2-2) ...
Removing libbz2-dev:armhf (1.0.8-5+b2) ...
Removing libcairo-script-interpreter2:armhf (1.18.0-1+b1) ...
Removing libthai-dev:armhf (0.1.29-2) ...
Removing libdatrie-dev:armhf (0.2.13-3) ...
Removing libdbus-1-dev:armhf (1.14.10-4) ...
Removing libtiff-dev:armhf (4.5.1+git230720-4) ...
Removing libdeflate-dev:armhf (1.18-1) ...
Removing libegl1-mesa-dev:armhf (23.3.4-1) ...
Removing libglvnd-dev:armhf (1.7.0-1) ...
Removing libgles-dev:armhf (1.7.0-1) ...
Removing libepoxy-dev:armhf (1.5.10-1+b2) ...
Removing libegl-dev:armhf (1.7.0-1) ...
Removing libegl1:armhf (1.7.0-1) ...
Removing libegl-mesa0:armhf (23.3.4-1) ...
Removing libgbm1:armhf (23.3.4-1) ...
Removing libexpat1-dev:armhf (2.5.0-2+b2) ...
Removing libfribidi-dev:armhf (1.0.13-3+b1) ...
Removing libgee-0.8-2:armhf (0.20.6-1) ...
Removing libgles1:armhf (1.7.0-1) ...
Removing libgles2:armhf (1.7.0-1) ...
Removing libglvnd-core-dev:armhf (1.7.0-1) ...
Removing libopengl-dev:armhf (1.7.0-1) ...
Removing libopengl0:armhf (1.7.0-1) ...
Removing libgraphite2-dev:armhf (1.3.14-2) ...
Removing libharfbuzz-cairo0:armhf (8.3.0-2) ...
Removing libharfbuzz-icu0:armhf (8.3.0-2) ...
Removing libharfbuzz-subset0:armhf (8.3.0-2) ...
Removing libsm-dev:armhf (2:1.2.3-1) ...
Removing libice-dev:armhf (2:1.0.10-1) ...
Removing libsm6:armhf (2:1.2.3-1) ...
Removing libice6:armhf (2:1.0.10-1) ...
Removing libjbig-dev:armhf (2.1-6.1) ...
Removing libjpeg-dev:armhf (1:2.1.5-2+b2) ...
Removing libjpeg62-turbo-dev:armhf (1:2.1.5-2+b2) ...
Removing liblerc-dev:armhf (4.0.0+ds-4) ...
Removing liblzma-dev:armhf (5.4.5-0.3) ...
Removing liblzo2-2:armhf (2.10-2) ...
Removing pango1.0-tools (1.51.0+ds-4) ...
Removing libpixman-1-dev:armhf (0.42.2-1) ...
Removing libpng-dev:armhf (1.6.42-1) ...
Removing libxcb-shm0-dev:armhf (1.15-1) ...
Removing libxcb-render0-dev:armhf (1.15-1) ...
Removing libwebp-dev:armhf (1.3.2-0.3) ...
Removing libsharpyuv-dev:armhf (1.3.2-0.3) ...
Removing libtiffxx6:armhf (4.5.1+git230720-4) ...
Removing libwayland-dev:armhf (1.22.0-2.1) ...
Removing libwayland-bin (1.22.0-2.1) ...
Removing libwayland-server0:armhf (1.22.0-2.1) ...
Removing libwebpdecoder3:armhf (1.3.2-0.3) ...
Removing libwebpdemux2:armhf (1.3.2-0.3) ...
Removing libwebpmux3:armhf (1.3.2-0.3) ...
Removing libxrandr-dev:armhf (2:1.5.2-2+b1) ...
Removing libxcursor-dev:armhf (1:1.2.1-1) ...
Removing libxrender-dev:armhf (1:0.9.10-1.1) ...
Removing libxtst-dev:armhf (2:1.2.3-1.1) ...
Removing libxcomposite-dev:armhf (1:0.4.5-1) ...
Removing libxdamage-dev:armhf (1:1.1.6-1) ...
Removing libxinerama-dev:armhf (2:1.1.4-3) ...
Removing libxi-dev:armhf (2:1.8-1+b1) ...
Removing libxfixes-dev:armhf (1:6.0.0-2) ...
Removing libxkbcommon-dev:armhf (1.6.0-1) ...
Removing libxtst6:armhf (2:1.2.3-1.1) ...
Removing libzstd-dev:armhf (1.5.5+dfsg2-2) ...
Removing xml-core (0.19) ...
Removing sgml-base (1.31) ...
Removing wayland-protocols (1.33-1) ...
Removing x11-common (1:7.7+23) ...
invoke-rc.d: could not determine current runlevel
Removing gir1.2-peas-1.0:armhf (1.36.0-3) ...
Removing gir1.2-gtk-3.0:armhf (3.24.41-1) ...
Removing gir1.2-atk-1.0:armhf (2.50.0-1+b1) ...
Removing gir1.2-gdkpixbuf-2.0:armhf (2.42.10+dfsg-3) ...
Removing gir1.2-pango-1.0:armhf (1.51.0+ds-4) ...
Removing gir1.2-harfbuzz-0.0:armhf (8.3.0-2) ...
Removing libgl-dev:armhf (1.7.0-1) ...
Removing libgl1:armhf (1.7.0-1) ...
Removing libglx-dev:armhf (1.7.0-1) ...
Removing libglx0:armhf (1.7.0-1) ...
Removing libglx-mesa0:armhf (23.3.4-1) ...
Removing libgl1-mesa-dri:armhf (23.3.4-1) ...
Removing libdrm-amdgpu1:armhf (2.4.120-1) ...
Removing libdrm-nouveau2:armhf (2.4.120-1) ...
Removing libdrm-radeon1:armhf (2.4.120-1) ...
Removing libllvm17:armhf (1:17.0.6-5) ...
Removing libedit2:armhf (3.1-20230828-1) ...
Removing libglapi-mesa:armhf (23.3.4-1) ...
Removing libglvnd0:armhf (1.7.0-1) ...
Removing libharfbuzz-gobject0:armhf (8.3.0-2) ...
Removing libpangoxft-1.0-0:armhf (1.51.0+ds-4) ...
Removing libpeas-1.0-0:armhf (1.36.0-3) ...
Removing libpeas-common (1.36.0-3) ...
Removing libpython3.11:armhf (3.11.7-2) ...
Removing libsensors5:armhf (1:3.6.0-8) ...
Removing libsensors-config (1:3.6.0-8) ...
Removing libvulkan1:armhf (1.3.275.0-1) ...
Removing libx11-xcb1:armhf (2:1.8.7-1) ...
Removing libxcb-dri2-0:armhf (1.15-1) ...
Removing libxcb-dri3-0:armhf (1.15-1) ...
Removing libxcb-glx0:armhf (1.15-1) ...
Removing libxcb-present0:armhf (1.15-1) ...
Removing libxcb-randr0:armhf (1.15-1) ...
Removing libxcb-sync1:armhf (1.15-1) ...
Removing libxcb-xfixes0:armhf (1.15-1) ...
Removing libxext-dev:armhf (2:1.3.4-1+b1) ...
Removing libxft2:armhf (2.3.6-1) ...
Removing libxshmfence1:armhf (1.3-1) ...
Removing libxxf86vm1:armhf (1:1.1.4-1+b2) ...
Removing libz3-4:armhf (4.8.12-3.1+b2) ...
Removing libdrm2:armhf (2.4.120-1) ...
Removing libdrm-common (2.4.120-1) ...
Removing libx11-dev:armhf (2:1.8.7-1) ...
Removing xtrans-dev (1.4.0-1) ...
Removing libxcb1-dev:armhf (1.15-1) ...
Removing libpthread-stubs0-dev:armhf (0.4-1) ...
Removing libxau-dev:armhf (1:1.0.9-1) ...
Removing libxdmcp-dev:armhf (1:1.1.2-3) ...
Removing x11proto-dev (2023.2-1) ...
Removing xorg-sgml-doctools (1:1.11-1.1) ...
Processing triggers for libc-bin (2.37-13) ...
Processing triggers for hicolor-icon-theme (0.17-2) ...
(Reading database ... (Reading database ... 5%(Reading database ... 10%(Reading database ... 15%(Reading database ... 20%(Reading database ... 25%(Reading database ... 30%(Reading database ... 35%(Reading database ... 40%(Reading database ... 45%(Reading database ... 50%(Reading database ... 55%(Reading database ... 60%(Reading database ... 65%(Reading database ... 70%(Reading database ... 75%(Reading database ... 80%(Reading database ... 85%(Reading database ... 90%(Reading database ... 95%(Reading database ... 100%(Reading database ... 19838 files and directories currently installed.)
Purging configuration files for libgl1-mesa-dri:armhf (23.3.4-1) ...
Purging configuration files for x11-common (1:7.7+23) ...
Purging configuration files for libsensors-config (1:3.6.0-8) ...
Purging configuration files for libdbus-1-dev:armhf (1.14.10-4) ...
Purging configuration files for xml-core (0.19) ...
dpkg: warning: while removing xml-core, directory '/etc/sgml' not empty so not removed
Purging configuration files for sgml-base (1.31) ...
