[2024-01-07T19:23:03+00:00] apt-get install libmlir-14-dev llvm-14-dev pybind11-dev libpython3-dev abi-compliance-checker
Reading package lists...
Building dependency tree...
Reading state information...
libmlir-14-dev is already the newest version (1:14.0.6-16).
libmlir-14-dev set to manually installed.
llvm-14-dev is already the newest version (1:14.0.6-16).
llvm-14-dev set to manually installed.
pybind11-dev is already the newest version (2.11.1-2).
pybind11-dev set to manually installed.
libpython3-dev is already the newest version (3.11.6-1).
libpython3-dev set to manually installed.
abi-compliance-checker is already the newest version (2.3-2).
0 upgraded, 0 newly installed, 0 to remove and 27 not upgraded.
Reading package lists...
Building dependency tree...
Reading state information...
0 upgraded, 0 newly installed, 0 to remove and 27 not upgraded.
