[2024-01-07T21:11:57+00:00] apt-get install libmrgingham-dev libopencv-core-dev abi-compliance-checker
Reading package lists...
Building dependency tree...
Reading state information...
abi-compliance-checker is already the newest version (2.3-2).
The following packages were automatically installed and are no longer required:
  libamd3 libcamd3 libccolamd3 libcholmod5 libcolamd3 libdogleg2 libfreeimage3
  libjxr0 libmrcal-dev libmrcal3 libraw23 libsuitesparseconfig7 libwebpmux3
Use 'apt autoremove' to remove them.
The following additional packages will be installed:
  fontconfig-config fonts-dejavu-core fonts-dejavu-mono gdal-data gdal-plugins
  libaec0 libarmadillo12 libarpack2 libblosc1 libbrotli1 libcfitsio10
  libcharls2 libcurl3-gnutls libcurl4 libdav1d7 libde265-0 libdrm-amdgpu1
  libdrm-common libdrm-nouveau2 libdrm-radeon1 libdrm2 libedit2 libfontconfig1
  libfreetype6 libfreexl1 libfyba0 libgdal34 libgdcm3.0 libgeos-c1v5
  libgeos3.12.1 libgeotiff5 libgif7 libgl1-mesa-dri libglapi-mesa libglvnd0
  libglx-mesa0 libglx0 libhdf4-0-alt libhdf5-103-1 libhdf5-hl-100
  libheif-plugin-dav1d libheif-plugin-libde265 libheif1 libhwloc15 libjson-c5
  libkmlbase1 libkmldom1 libkmlengine1 libldap-2.5-0 libllvm17 libltdl7
  libmariadb3 libminizip1 libmrgingham2 libnetcdf19 libnghttp2-14 libnspr4
  libnss3 libodbc2 libodbcinst2 libogdi4.1 libopencv-core406
  libopencv-features2d406 libopencv-flann406 libopencv-imgcodecs406
  libopencv-imgproc406 libpoppler126 libpq5 libproj25 libpsl5 libqhull-r8.0
  librtmp1 librttopo1 libsasl2-2 libsasl2-modules-db libsensors-config
  libsensors5 libsnappy1v5 libsocket++1 libspatialite8 libssh2-1 libsuperlu6
  libsz2 libtbb-dev libtbb12 libtbbbind-2-5 libtbbmalloc2 liburiparser1
  libvulkan1 libx11-6 libx11-data libx11-xcb1 libxau6 libxcb-dri2-0
  libxcb-dri3-0 libxcb-glx0 libxcb-present0 libxcb-randr0 libxcb-shm0
  libxcb-sync1 libxcb-xfixes0 libxcb1 libxdmcp6 libxerces-c3.2 libxext6
  libxfixes3 libxshmfence1 libxxf86vm1 libz3-4 mariadb-common mysql-common
  proj-data unixodbc-common zlib1g-dev
Suggested packages:
  geotiff-bin gdal-bin libgeotiff-epsg libhdf4-doc libhdf4-alt-dev hdf4-tools
  libheif-plugin-ffmpegdec libheif-plugin-jpegdec libheif-plugin-jpegenc
  libheif-plugin-j2kdec libheif-plugin-j2kenc libheif-plugin-rav1e
  libheif-plugin-svtenc odbc-postgresql tdsodbc ogdi-bin proj-bin lm-sensors
  libtbb-doc
Recommended packages:
  ca-certificates proj-bin libheif-plugin-aomenc libheif-plugin-x265
  libhwloc-plugins libldap-common poppler-data publicsuffix libsasl2-modules
  mesa-vulkan-drivers | vulkan-icd
The following NEW packages will be installed:
  fontconfig-config fonts-dejavu-core fonts-dejavu-mono gdal-data gdal-plugins
  libaec0 libarmadillo12 libarpack2 libblosc1 libbrotli1 libcfitsio10
  libcharls2 libcurl3-gnutls libcurl4 libdav1d7 libde265-0 libdrm-amdgpu1
  libdrm-common libdrm-nouveau2 libdrm-radeon1 libdrm2 libedit2 libfontconfig1
  libfreetype6 libfreexl1 libfyba0 libgdal34 libgdcm3.0 libgeos-c1v5
  libgeos3.12.1 libgeotiff5 libgif7 libgl1-mesa-dri libglapi-mesa libglvnd0
  libglx-mesa0 libglx0 libhdf4-0-alt libhdf5-103-1 libhdf5-hl-100
  libheif-plugin-dav1d libheif-plugin-libde265 libheif1 libhwloc15 libjson-c5
  libkmlbase1 libkmldom1 libkmlengine1 libldap-2.5-0 libllvm17 libltdl7
  libmariadb3 libminizip1 libmrgingham-dev libmrgingham2 libnetcdf19
  libnghttp2-14 libnspr4 libnss3 libodbc2 libodbcinst2 libogdi4.1
  libopencv-core-dev libopencv-core406 libopencv-features2d406
  libopencv-flann406 libopencv-imgcodecs406 libopencv-imgproc406 libpoppler126
  libpq5 libproj25 libpsl5 libqhull-r8.0 librtmp1 librttopo1 libsasl2-2
  libsasl2-modules-db libsensors-config libsensors5 libsnappy1v5 libsocket++1
  libspatialite8 libssh2-1 libsuperlu6 libsz2 libtbb-dev libtbb12
  libtbbbind-2-5 libtbbmalloc2 liburiparser1 libvulkan1 libx11-6 libx11-data
  libx11-xcb1 libxau6 libxcb-dri2-0 libxcb-dri3-0 libxcb-glx0 libxcb-present0
  libxcb-randr0 libxcb-shm0 libxcb-sync1 libxcb-xfixes0 libxcb1 libxdmcp6
  libxerces-c3.2 libxext6 libxfixes3 libxshmfence1 libxxf86vm1 libz3-4
  mariadb-common mysql-common proj-data unixodbc-common zlib1g-dev
0 upgraded, 116 newly installed, 0 to remove and 42 not upgraded.
Need to get 76.2 MB of archives.
After this operation, 273 MB of additional disk space will be used.
Get:1 http://deb.debian.org/debian unstable/main armhf fonts-dejavu-mono all 2.37-8 [489 kB]
Get:2 http://deb.debian.org/debian unstable/main armhf fonts-dejavu-core all 2.37-8 [840 kB]
Get:3 http://deb.debian.org/debian unstable/main armhf fontconfig-config armhf 2.14.2-6+b1 [316 kB]
Get:4 http://deb.debian.org/debian unstable/main armhf gdal-data all 3.8.2+dfsg-1 [543 kB]
Get:5 http://deb.debian.org/debian unstable/main armhf gdal-plugins armhf 3.8.2+dfsg-1 [327 kB]
Get:6 http://deb.debian.org/debian unstable/main armhf libaec0 armhf 1.1.2-1 [21.4 kB]
Get:7 http://deb.debian.org/debian unstable/main armhf libarpack2 armhf 3.9.1-1+b1 [84.7 kB]
Get:8 http://deb.debian.org/debian unstable/main armhf libsuperlu6 armhf 6.0.1+dfsg1-1 [138 kB]
Get:9 http://deb.debian.org/debian unstable/main armhf libarmadillo12 armhf 1:12.6.7+dfsg-1 [99.7 kB]
Get:10 http://deb.debian.org/debian unstable/main armhf libsnappy1v5 armhf 1.1.10-1 [24.9 kB]
Get:11 http://deb.debian.org/debian unstable/main armhf libblosc1 armhf 1.21.5+ds-1+b1 [37.2 kB]
Get:12 http://deb.debian.org/debian unstable/main armhf libbrotli1 armhf 1.1.0-2+b3 [284 kB]
Get:13 http://deb.debian.org/debian unstable/main armhf libsasl2-modules-db armhf 2.1.28+dfsg1-4+b1 [18.2 kB]
Get:14 http://deb.debian.org/debian unstable/main armhf libsasl2-2 armhf 2.1.28+dfsg1-4+b1 [50.1 kB]
Get:15 http://deb.debian.org/debian unstable/main armhf libldap-2.5-0 armhf 2.5.13+dfsg-5+b2 [158 kB]
Get:16 http://deb.debian.org/debian unstable/main armhf libnghttp2-14 armhf 1.58.0-1 [61.9 kB]
Get:17 http://deb.debian.org/debian unstable/main armhf libpsl5 armhf 0.21.2-1+b1 [57.8 kB]
Get:18 http://deb.debian.org/debian unstable/main armhf librtmp1 armhf 2.4+20151223.gitfa8646d.1-2+b2 [55.2 kB]
Get:19 http://deb.debian.org/debian unstable/main armhf libssh2-1 armhf 1.11.0-4 [197 kB]
Get:20 http://deb.debian.org/debian unstable/main armhf libcurl3-gnutls armhf 8.5.0-2 [378 kB]
Get:21 http://deb.debian.org/debian unstable/main armhf libcfitsio10 armhf 4.3.0-2+b1 [522 kB]
Get:22 http://deb.debian.org/debian unstable/main armhf libcharls2 armhf 2.4.2-2+b1 [79.9 kB]
Get:23 http://deb.debian.org/debian unstable/main armhf libcurl4 armhf 8.5.0-2 [383 kB]
Get:24 http://deb.debian.org/debian unstable/main armhf libdav1d7 armhf 1.3.0-2+b1 [265 kB]
Get:25 http://deb.debian.org/debian unstable/main armhf libde265-0 armhf 1.0.15-1 [145 kB]
Get:26 http://deb.debian.org/debian unstable/main armhf libdrm-common all 2.4.117-1 [7264 B]
Get:27 http://deb.debian.org/debian unstable/main armhf libdrm2 armhf 2.4.117-1 [33.1 kB]
Get:28 http://deb.debian.org/debian unstable/main armhf libdrm-amdgpu1 armhf 2.4.117-1 [19.6 kB]
Get:29 http://deb.debian.org/debian unstable/main armhf libdrm-nouveau2 armhf 2.4.117-1 [16.6 kB]
Get:30 http://deb.debian.org/debian unstable/main armhf libdrm-radeon1 armhf 2.4.117-1 [19.1 kB]
Get:31 http://deb.debian.org/debian unstable/main armhf libedit2 armhf 3.1-20230828-1 [76.8 kB]
Get:32 http://deb.debian.org/debian unstable/main armhf libfreetype6 armhf 2.13.2+dfsg-1+b1 [371 kB]
Get:33 http://deb.debian.org/debian unstable/main armhf libfontconfig1 armhf 2.14.2-6+b1 [369 kB]
Get:34 http://deb.debian.org/debian unstable/main armhf libminizip1 armhf 1:1.3.dfsg-3 [49.7 kB]
Get:35 http://deb.debian.org/debian unstable/main armhf libfreexl1 armhf 2.0.0-1+b1 [35.2 kB]
Get:36 http://deb.debian.org/debian unstable/main armhf libfyba0 armhf 4.1.1-8 [100 kB]
Get:37 http://deb.debian.org/debian unstable/main armhf libgeos3.12.1 armhf 3.12.1-1 [799 kB]
Get:38 http://deb.debian.org/debian unstable/main armhf libgeos-c1v5 armhf 3.12.1-1 [86.4 kB]
Get:39 http://deb.debian.org/debian unstable/main armhf proj-data all 9.3.1-1 [6268 kB]
Get:40 http://deb.debian.org/debian unstable/main armhf libproj25 armhf 9.3.1-1 [1145 kB]
Get:41 http://deb.debian.org/debian unstable/main armhf libgeotiff5 armhf 1.7.1-5 [59.9 kB]
Get:42 http://deb.debian.org/debian unstable/main armhf libgif7 armhf 5.2.1-2.5 [44.4 kB]
Get:43 http://deb.debian.org/debian unstable/main armhf libhdf4-0-alt armhf 4.2.16-3 [225 kB]
Get:44 http://deb.debian.org/debian unstable/main armhf libsz2 armhf 1.1.2-1 [7668 B]
Get:45 http://deb.debian.org/debian unstable/main armhf libhdf5-103-1 armhf 1.10.10+repack-3 [1185 kB]
Get:46 http://deb.debian.org/debian unstable/main armhf libheif-plugin-dav1d armhf 1.17.6-1 [9252 B]
Get:47 http://deb.debian.org/debian unstable/main armhf libheif-plugin-libde265 armhf 1.17.6-1 [12.0 kB]
Get:48 http://deb.debian.org/debian unstable/main armhf libheif1 armhf 1.17.6-1 [242 kB]
Get:49 http://deb.debian.org/debian unstable/main armhf libjson-c5 armhf 0.17-1 [40.0 kB]
Get:50 http://deb.debian.org/debian unstable/main armhf liburiparser1 armhf 0.9.7+dfsg-2 [37.3 kB]
Get:51 http://deb.debian.org/debian unstable/main armhf libkmlbase1 armhf 1.3.0-10 [40.3 kB]
Get:52 http://deb.debian.org/debian unstable/main armhf libkmldom1 armhf 1.3.0-10 [130 kB]
Get:53 http://deb.debian.org/debian unstable/main armhf libkmlengine1 armhf 1.3.0-10 [64.1 kB]
Get:54 http://deb.debian.org/debian unstable/main armhf mysql-common all 5.8+1.1.0 [6636 B]
Get:55 http://deb.debian.org/debian unstable/main armhf mariadb-common all 1:10.11.6-2 [25.2 kB]
Get:56 http://deb.debian.org/debian unstable/main armhf libmariadb3 armhf 1:10.11.6-2 [157 kB]
Get:57 http://deb.debian.org/debian unstable/main armhf libhdf5-hl-100 armhf 1.10.10+repack-3 [60.5 kB]
Get:58 http://deb.debian.org/debian unstable/main armhf libnetcdf19 armhf 1:4.9.2-3 [418 kB]
Get:59 http://deb.debian.org/debian unstable/main armhf libltdl7 armhf 2.4.7-7 [390 kB]
Get:60 http://deb.debian.org/debian unstable/main armhf libodbc2 armhf 2.3.12-1 [129 kB]
Get:61 http://deb.debian.org/debian unstable/main armhf unixodbc-common all 2.3.12-1 [8496 B]
Get:62 http://deb.debian.org/debian unstable/main armhf libodbcinst2 armhf 2.3.12-1 [28.1 kB]
Get:63 http://deb.debian.org/debian unstable/main armhf libogdi4.1 armhf 4.1.0+ds-6 [173 kB]
Get:64 http://deb.debian.org/debian unstable/main armhf libnspr4 armhf 2:4.35-1.1 [86.2 kB]
Get:65 http://deb.debian.org/debian unstable/main armhf libnss3 armhf 2:3.96.1-1 [1165 kB]
Get:66 http://deb.debian.org/debian unstable/main armhf libpoppler126 armhf 22.12.0-2+b1 [1704 kB]
Get:67 http://deb.debian.org/debian unstable/main armhf libpq5 armhf 16.1-1 [197 kB]
Get:68 http://deb.debian.org/debian unstable/main armhf libqhull-r8.0 armhf 2020.2-6 [219 kB]
Get:69 http://deb.debian.org/debian unstable/main armhf librttopo1 armhf 1.1.0-3 [146 kB]
Get:70 http://deb.debian.org/debian unstable/main armhf libspatialite8 armhf 5.1.0-1 [1723 kB]
Get:71 http://deb.debian.org/debian unstable/main armhf libxerces-c3.2 armhf 3.2.4+debian-1.1 [744 kB]
Get:72 http://deb.debian.org/debian unstable/main armhf libgdal34 armhf 3.8.2+dfsg-1 [7351 kB]
Get:73 http://deb.debian.org/debian unstable/main armhf libsocket++1 armhf 1.12.13+git20131030.5d039ba-1+b1 [68.8 kB]
Get:74 http://deb.debian.org/debian unstable/main armhf libgdcm3.0 armhf 3.0.22-2 [2003 kB]
Get:75 http://deb.debian.org/debian unstable/main armhf libvulkan1 armhf 1.3.268.0-1 [107 kB]
Get:76 http://deb.debian.org/debian unstable/main armhf libglapi-mesa armhf 23.3.2-2 [42.3 kB]
Get:77 http://deb.debian.org/debian unstable/main armhf libz3-4 armhf 4.8.12-3.1+b2 [6324 kB]
Get:78 http://deb.debian.org/debian unstable/main armhf libllvm17 armhf 1:17.0.6-3 [21.6 MB]
Get:79 http://deb.debian.org/debian unstable/main armhf libsensors-config all 1:3.6.0-8 [14.4 kB]
Get:80 http://deb.debian.org/debian unstable/main armhf libsensors5 armhf 1:3.6.0-8 [31.6 kB]
Get:81 http://deb.debian.org/debian unstable/main armhf libxau6 armhf 1:1.0.9-1 [19.0 kB]
Get:82 http://deb.debian.org/debian unstable/main armhf libxdmcp6 armhf 1:1.1.2-3 [24.9 kB]
Get:83 http://deb.debian.org/debian unstable/main armhf libxcb1 armhf 1.15-1 [140 kB]
Get:84 http://deb.debian.org/debian unstable/main armhf libxcb-dri3-0 armhf 1.15-1 [107 kB]
Get:85 http://deb.debian.org/debian unstable/main armhf libgl1-mesa-dri armhf 23.3.2-2 [6398 kB]
Get:86 http://deb.debian.org/debian unstable/main armhf libglvnd0 armhf 1.7.0-1 [52.3 kB]
Get:87 http://deb.debian.org/debian unstable/main armhf libx11-data all 2:1.8.7-1 [328 kB]
Get:88 http://deb.debian.org/debian unstable/main armhf libx11-6 armhf 2:1.8.7-1 [735 kB]
Get:89 http://deb.debian.org/debian unstable/main armhf libx11-xcb1 armhf 2:1.8.7-1 [231 kB]
Get:90 http://deb.debian.org/debian unstable/main armhf libxcb-dri2-0 armhf 1.15-1 [107 kB]
Get:91 http://deb.debian.org/debian unstable/main armhf libxcb-glx0 armhf 1.15-1 [120 kB]
Get:92 http://deb.debian.org/debian unstable/main armhf libxcb-present0 armhf 1.15-1 [105 kB]
Get:93 http://deb.debian.org/debian unstable/main armhf libxcb-randr0 armhf 1.15-1 [116 kB]
Get:94 http://deb.debian.org/debian unstable/main armhf libxcb-shm0 armhf 1.15-1 [106 kB]
Get:95 http://deb.debian.org/debian unstable/main armhf libxcb-sync1 armhf 1.15-1 [108 kB]
Get:96 http://deb.debian.org/debian unstable/main armhf libxcb-xfixes0 armhf 1.15-1 [110 kB]
Get:97 http://deb.debian.org/debian unstable/main armhf libxext6 armhf 2:1.3.4-1+b1 [47.8 kB]
Get:98 http://deb.debian.org/debian unstable/main armhf libxfixes3 armhf 1:6.0.0-2 [21.1 kB]
Get:99 http://deb.debian.org/debian unstable/main armhf libxshmfence1 armhf 1.3-1 [8592 B]
Get:100 http://deb.debian.org/debian unstable/main armhf libxxf86vm1 armhf 1:1.1.4-1+b2 [20.2 kB]
Get:101 http://deb.debian.org/debian unstable/main armhf libglx-mesa0 armhf 23.3.2-2 [129 kB]
Get:102 http://deb.debian.org/debian unstable/main armhf libhwloc15 armhf 2.10.0-1 [133 kB]
Get:103 http://deb.debian.org/debian unstable/main armhf libglx0 armhf 1.7.0-1 [32.2 kB]
Get:104 http://deb.debian.org/debian unstable/main armhf libtbbmalloc2 armhf 2021.11.0-2 [42.1 kB]
Get:105 http://deb.debian.org/debian unstable/main armhf libtbbbind-2-5 armhf 2021.11.0-2 [12.7 kB]
Get:106 http://deb.debian.org/debian unstable/main armhf libtbb12 armhf 2021.11.0-2 [73.4 kB]
Get:107 http://deb.debian.org/debian unstable/main armhf libopencv-core406 armhf 4.6.0+dfsg-13+b3 [859 kB]
Get:108 http://deb.debian.org/debian unstable/main armhf libopencv-flann406 armhf 4.6.0+dfsg-13+b3 [107 kB]
Get:109 http://deb.debian.org/debian unstable/main armhf libopencv-imgproc406 armhf 4.6.0+dfsg-13+b3 [826 kB]
Get:110 http://deb.debian.org/debian unstable/main armhf libopencv-features2d406 armhf 4.6.0+dfsg-13+b3 [199 kB]
Get:111 http://deb.debian.org/debian unstable/main armhf libopencv-imgcodecs406 armhf 4.6.0+dfsg-13+b3 [110 kB]
Get:112 http://deb.debian.org/debian unstable/main armhf libmrgingham2 armhf 1.24-1+b1 [52.4 kB]
Get:113 http://deb.debian.org/debian unstable/main armhf libmrgingham-dev armhf 1.24-1+b1 [4440 B]
Get:114 http://deb.debian.org/debian unstable/main armhf libtbb-dev armhf 2021.11.0-2 [193 kB]
Get:115 http://deb.debian.org/debian unstable/main armhf zlib1g-dev armhf 1:1.3.dfsg-3 [904 kB]
Get:116 http://deb.debian.org/debian unstable/main armhf libopencv-core-dev armhf 4.6.0+dfsg-13+b3 [1674 kB]
debconf: delaying package configuration, since apt-utils is not installed
Fetched 76.2 MB in 3s (27.9 MB/s)
Selecting previously unselected package fonts-dejavu-mono.
(Reading database ... (Reading database ... 5%(Reading database ... 10%(Reading database ... 15%(Reading database ... 20%(Reading database ... 25%(Reading database ... 30%(Reading database ... 35%(Reading database ... 40%(Reading database ... 45%(Reading database ... 50%(Reading database ... 55%(Reading database ... 60%(Reading database ... 65%(Reading database ... 70%(Reading database ... 75%(Reading database ... 80%(Reading database ... 85%(Reading database ... 90%(Reading database ... 95%(Reading database ... 100%(Reading database ... 13340 files and directories currently installed.)
Preparing to unpack .../000-fonts-dejavu-mono_2.37-8_all.deb ...
Unpacking fonts-dejavu-mono (2.37-8) ...
Selecting previously unselected package fonts-dejavu-core.
Preparing to unpack .../001-fonts-dejavu-core_2.37-8_all.deb ...
Unpacking fonts-dejavu-core (2.37-8) ...
Selecting previously unselected package fontconfig-config.
Preparing to unpack .../002-fontconfig-config_2.14.2-6+b1_armhf.deb ...
Unpacking fontconfig-config (2.14.2-6+b1) ...
Selecting previously unselected package gdal-data.
Preparing to unpack .../003-gdal-data_3.8.2+dfsg-1_all.deb ...
Unpacking gdal-data (3.8.2+dfsg-1) ...
Selecting previously unselected package gdal-plugins.
Preparing to unpack .../004-gdal-plugins_3.8.2+dfsg-1_armhf.deb ...
Unpacking gdal-plugins (3.8.2+dfsg-1) ...
Selecting previously unselected package libaec0:armhf.
Preparing to unpack .../005-libaec0_1.1.2-1_armhf.deb ...
Unpacking libaec0:armhf (1.1.2-1) ...
Selecting previously unselected package libarpack2:armhf.
Preparing to unpack .../006-libarpack2_3.9.1-1+b1_armhf.deb ...
Unpacking libarpack2:armhf (3.9.1-1+b1) ...
Selecting previously unselected package libsuperlu6:armhf.
Preparing to unpack .../007-libsuperlu6_6.0.1+dfsg1-1_armhf.deb ...
Unpacking libsuperlu6:armhf (6.0.1+dfsg1-1) ...
Selecting previously unselected package libarmadillo12.
Preparing to unpack .../008-libarmadillo12_1%3a12.6.7+dfsg-1_armhf.deb ...
Unpacking libarmadillo12 (1:12.6.7+dfsg-1) ...
Selecting previously unselected package libsnappy1v5:armhf.
Preparing to unpack .../009-libsnappy1v5_1.1.10-1_armhf.deb ...
Unpacking libsnappy1v5:armhf (1.1.10-1) ...
Selecting previously unselected package libblosc1:armhf.
Preparing to unpack .../010-libblosc1_1.21.5+ds-1+b1_armhf.deb ...
Unpacking libblosc1:armhf (1.21.5+ds-1+b1) ...
Selecting previously unselected package libbrotli1:armhf.
Preparing to unpack .../011-libbrotli1_1.1.0-2+b3_armhf.deb ...
Unpacking libbrotli1:armhf (1.1.0-2+b3) ...
Selecting previously unselected package libsasl2-modules-db:armhf.
Preparing to unpack .../012-libsasl2-modules-db_2.1.28+dfsg1-4+b1_armhf.deb ...
Unpacking libsasl2-modules-db:armhf (2.1.28+dfsg1-4+b1) ...
Selecting previously unselected package libsasl2-2:armhf.
Preparing to unpack .../013-libsasl2-2_2.1.28+dfsg1-4+b1_armhf.deb ...
Unpacking libsasl2-2:armhf (2.1.28+dfsg1-4+b1) ...
Selecting previously unselected package libldap-2.5-0:armhf.
Preparing to unpack .../014-libldap-2.5-0_2.5.13+dfsg-5+b2_armhf.deb ...
Unpacking libldap-2.5-0:armhf (2.5.13+dfsg-5+b2) ...
Selecting previously unselected package libnghttp2-14:armhf.
Preparing to unpack .../015-libnghttp2-14_1.58.0-1_armhf.deb ...
Unpacking libnghttp2-14:armhf (1.58.0-1) ...
Selecting previously unselected package libpsl5:armhf.
Preparing to unpack .../016-libpsl5_0.21.2-1+b1_armhf.deb ...
Unpacking libpsl5:armhf (0.21.2-1+b1) ...
Selecting previously unselected package librtmp1:armhf.
Preparing to unpack .../017-librtmp1_2.4+20151223.gitfa8646d.1-2+b2_armhf.deb ...
Unpacking librtmp1:armhf (2.4+20151223.gitfa8646d.1-2+b2) ...
Selecting previously unselected package libssh2-1:armhf.
Preparing to unpack .../018-libssh2-1_1.11.0-4_armhf.deb ...
Unpacking libssh2-1:armhf (1.11.0-4) ...
Selecting previously unselected package libcurl3-gnutls:armhf.
Preparing to unpack .../019-libcurl3-gnutls_8.5.0-2_armhf.deb ...
Unpacking libcurl3-gnutls:armhf (8.5.0-2) ...
Selecting previously unselected package libcfitsio10:armhf.
Preparing to unpack .../020-libcfitsio10_4.3.0-2+b1_armhf.deb ...
Unpacking libcfitsio10:armhf (4.3.0-2+b1) ...
Selecting previously unselected package libcharls2:armhf.
Preparing to unpack .../021-libcharls2_2.4.2-2+b1_armhf.deb ...
Unpacking libcharls2:armhf (2.4.2-2+b1) ...
Selecting previously unselected package libcurl4:armhf.
Preparing to unpack .../022-libcurl4_8.5.0-2_armhf.deb ...
Unpacking libcurl4:armhf (8.5.0-2) ...
Selecting previously unselected package libdav1d7:armhf.
Preparing to unpack .../023-libdav1d7_1.3.0-2+b1_armhf.deb ...
Unpacking libdav1d7:armhf (1.3.0-2+b1) ...
Selecting previously unselected package libde265-0:armhf.
Preparing to unpack .../024-libde265-0_1.0.15-1_armhf.deb ...
Unpacking libde265-0:armhf (1.0.15-1) ...
Selecting previously unselected package libdrm-common.
Preparing to unpack .../025-libdrm-common_2.4.117-1_all.deb ...
Unpacking libdrm-common (2.4.117-1) ...
Selecting previously unselected package libdrm2:armhf.
Preparing to unpack .../026-libdrm2_2.4.117-1_armhf.deb ...
Unpacking libdrm2:armhf (2.4.117-1) ...
Selecting previously unselected package libdrm-amdgpu1:armhf.
Preparing to unpack .../027-libdrm-amdgpu1_2.4.117-1_armhf.deb ...
Unpacking libdrm-amdgpu1:armhf (2.4.117-1) ...
Selecting previously unselected package libdrm-nouveau2:armhf.
Preparing to unpack .../028-libdrm-nouveau2_2.4.117-1_armhf.deb ...
Unpacking libdrm-nouveau2:armhf (2.4.117-1) ...
Selecting previously unselected package libdrm-radeon1:armhf.
Preparing to unpack .../029-libdrm-radeon1_2.4.117-1_armhf.deb ...
Unpacking libdrm-radeon1:armhf (2.4.117-1) ...
Selecting previously unselected package libedit2:armhf.
Preparing to unpack .../030-libedit2_3.1-20230828-1_armhf.deb ...
Unpacking libedit2:armhf (3.1-20230828-1) ...
Selecting previously unselected package libfreetype6:armhf.
Preparing to unpack .../031-libfreetype6_2.13.2+dfsg-1+b1_armhf.deb ...
Unpacking libfreetype6:armhf (2.13.2+dfsg-1+b1) ...
Selecting previously unselected package libfontconfig1:armhf.
Preparing to unpack .../032-libfontconfig1_2.14.2-6+b1_armhf.deb ...
Unpacking libfontconfig1:armhf (2.14.2-6+b1) ...
Selecting previously unselected package libminizip1:armhf.
Preparing to unpack .../033-libminizip1_1%3a1.3.dfsg-3_armhf.deb ...
Unpacking libminizip1:armhf (1:1.3.dfsg-3) ...
Selecting previously unselected package libfreexl1:armhf.
Preparing to unpack .../034-libfreexl1_2.0.0-1+b1_armhf.deb ...
Unpacking libfreexl1:armhf (2.0.0-1+b1) ...
Selecting previously unselected package libfyba0:armhf.
Preparing to unpack .../035-libfyba0_4.1.1-8_armhf.deb ...
Unpacking libfyba0:armhf (4.1.1-8) ...
Selecting previously unselected package libgeos3.12.1:armhf.
Preparing to unpack .../036-libgeos3.12.1_3.12.1-1_armhf.deb ...
Unpacking libgeos3.12.1:armhf (3.12.1-1) ...
Selecting previously unselected package libgeos-c1v5:armhf.
Preparing to unpack .../037-libgeos-c1v5_3.12.1-1_armhf.deb ...
Unpacking libgeos-c1v5:armhf (3.12.1-1) ...
Selecting previously unselected package proj-data.
Preparing to unpack .../038-proj-data_9.3.1-1_all.deb ...
Unpacking proj-data (9.3.1-1) ...
Selecting previously unselected package libproj25:armhf.
Preparing to unpack .../039-libproj25_9.3.1-1_armhf.deb ...
Unpacking libproj25:armhf (9.3.1-1) ...
Selecting previously unselected package libgeotiff5:armhf.
Preparing to unpack .../040-libgeotiff5_1.7.1-5_armhf.deb ...
Unpacking libgeotiff5:armhf (1.7.1-5) ...
Selecting previously unselected package libgif7:armhf.
Preparing to unpack .../041-libgif7_5.2.1-2.5_armhf.deb ...
Unpacking libgif7:armhf (5.2.1-2.5) ...
Selecting previously unselected package libhdf4-0-alt.
Preparing to unpack .../042-libhdf4-0-alt_4.2.16-3_armhf.deb ...
Unpacking libhdf4-0-alt (4.2.16-3) ...
Selecting previously unselected package libsz2:armhf.
Preparing to unpack .../043-libsz2_1.1.2-1_armhf.deb ...
Unpacking libsz2:armhf (1.1.2-1) ...
Selecting previously unselected package libhdf5-103-1:armhf.
Preparing to unpack .../044-libhdf5-103-1_1.10.10+repack-3_armhf.deb ...
Unpacking libhdf5-103-1:armhf (1.10.10+repack-3) ...
Selecting previously unselected package libheif-plugin-dav1d:armhf.
Preparing to unpack .../045-libheif-plugin-dav1d_1.17.6-1_armhf.deb ...
Unpacking libheif-plugin-dav1d:armhf (1.17.6-1) ...
Selecting previously unselected package libheif-plugin-libde265:armhf.
Preparing to unpack .../046-libheif-plugin-libde265_1.17.6-1_armhf.deb ...
Unpacking libheif-plugin-libde265:armhf (1.17.6-1) ...
Selecting previously unselected package libheif1:armhf.
Preparing to unpack .../047-libheif1_1.17.6-1_armhf.deb ...
Unpacking libheif1:armhf (1.17.6-1) ...
Selecting previously unselected package libjson-c5:armhf.
Preparing to unpack .../048-libjson-c5_0.17-1_armhf.deb ...
Unpacking libjson-c5:armhf (0.17-1) ...
Selecting previously unselected package liburiparser1:armhf.
Preparing to unpack .../049-liburiparser1_0.9.7+dfsg-2_armhf.deb ...
Unpacking liburiparser1:armhf (0.9.7+dfsg-2) ...
Selecting previously unselected package libkmlbase1:armhf.
Preparing to unpack .../050-libkmlbase1_1.3.0-10_armhf.deb ...
Unpacking libkmlbase1:armhf (1.3.0-10) ...
Selecting previously unselected package libkmldom1:armhf.
Preparing to unpack .../051-libkmldom1_1.3.0-10_armhf.deb ...
Unpacking libkmldom1:armhf (1.3.0-10) ...
Selecting previously unselected package libkmlengine1:armhf.
Preparing to unpack .../052-libkmlengine1_1.3.0-10_armhf.deb ...
Unpacking libkmlengine1:armhf (1.3.0-10) ...
Selecting previously unselected package mysql-common.
Preparing to unpack .../053-mysql-common_5.8+1.1.0_all.deb ...
Unpacking mysql-common (5.8+1.1.0) ...
Selecting previously unselected package mariadb-common.
Preparing to unpack .../054-mariadb-common_1%3a10.11.6-2_all.deb ...
Unpacking mariadb-common (1:10.11.6-2) ...
Selecting previously unselected package libmariadb3:armhf.
Preparing to unpack .../055-libmariadb3_1%3a10.11.6-2_armhf.deb ...
Unpacking libmariadb3:armhf (1:10.11.6-2) ...
Selecting previously unselected package libhdf5-hl-100:armhf.
Preparing to unpack .../056-libhdf5-hl-100_1.10.10+repack-3_armhf.deb ...
Unpacking libhdf5-hl-100:armhf (1.10.10+repack-3) ...
Selecting previously unselected package libnetcdf19:armhf.
Preparing to unpack .../057-libnetcdf19_1%3a4.9.2-3_armhf.deb ...
Unpacking libnetcdf19:armhf (1:4.9.2-3) ...
Selecting previously unselected package libltdl7:armhf.
Preparing to unpack .../058-libltdl7_2.4.7-7_armhf.deb ...
Unpacking libltdl7:armhf (2.4.7-7) ...
Selecting previously unselected package libodbc2:armhf.
Preparing to unpack .../059-libodbc2_2.3.12-1_armhf.deb ...
Unpacking libodbc2:armhf (2.3.12-1) ...
Selecting previously unselected package unixodbc-common.
Preparing to unpack .../060-unixodbc-common_2.3.12-1_all.deb ...
Unpacking unixodbc-common (2.3.12-1) ...
Selecting previously unselected package libodbcinst2:armhf.
Preparing to unpack .../061-libodbcinst2_2.3.12-1_armhf.deb ...
Unpacking libodbcinst2:armhf (2.3.12-1) ...
Selecting previously unselected package libogdi4.1.
Preparing to unpack .../062-libogdi4.1_4.1.0+ds-6_armhf.deb ...
Unpacking libogdi4.1 (4.1.0+ds-6) ...
Selecting previously unselected package libnspr4:armhf.
Preparing to unpack .../063-libnspr4_2%3a4.35-1.1_armhf.deb ...
Unpacking libnspr4:armhf (2:4.35-1.1) ...
Selecting previously unselected package libnss3:armhf.
Preparing to unpack .../064-libnss3_2%3a3.96.1-1_armhf.deb ...
Unpacking libnss3:armhf (2:3.96.1-1) ...
Selecting previously unselected package libpoppler126:armhf.
Preparing to unpack .../065-libpoppler126_22.12.0-2+b1_armhf.deb ...
Unpacking libpoppler126:armhf (22.12.0-2+b1) ...
Selecting previously unselected package libpq5:armhf.
Preparing to unpack .../066-libpq5_16.1-1_armhf.deb ...
Unpacking libpq5:armhf (16.1-1) ...
Selecting previously unselected package libqhull-r8.0:armhf.
Preparing to unpack .../067-libqhull-r8.0_2020.2-6_armhf.deb ...
Unpacking libqhull-r8.0:armhf (2020.2-6) ...
Selecting previously unselected package librttopo1:armhf.
Preparing to unpack .../068-librttopo1_1.1.0-3_armhf.deb ...
Unpacking librttopo1:armhf (1.1.0-3) ...
Selecting previously unselected package libspatialite8:armhf.
Preparing to unpack .../069-libspatialite8_5.1.0-1_armhf.deb ...
Unpacking libspatialite8:armhf (5.1.0-1) ...
Selecting previously unselected package libxerces-c3.2:armhf.
Preparing to unpack .../070-libxerces-c3.2_3.2.4+debian-1.1_armhf.deb ...
Unpacking libxerces-c3.2:armhf (3.2.4+debian-1.1) ...
Selecting previously unselected package libgdal34.
Preparing to unpack .../071-libgdal34_3.8.2+dfsg-1_armhf.deb ...
Unpacking libgdal34 (3.8.2+dfsg-1) ...
Selecting previously unselected package libsocket++1:armhf.
Preparing to unpack .../072-libsocket++1_1.12.13+git20131030.5d039ba-1+b1_armhf.deb ...
Unpacking libsocket++1:armhf (1.12.13+git20131030.5d039ba-1+b1) ...
Selecting previously unselected package libgdcm3.0:armhf.
Preparing to unpack .../073-libgdcm3.0_3.0.22-2_armhf.deb ...
Unpacking libgdcm3.0:armhf (3.0.22-2) ...
Selecting previously unselected package libvulkan1:armhf.
Preparing to unpack .../074-libvulkan1_1.3.268.0-1_armhf.deb ...
Unpacking libvulkan1:armhf (1.3.268.0-1) ...
Selecting previously unselected package libglapi-mesa:armhf.
Preparing to unpack .../075-libglapi-mesa_23.3.2-2_armhf.deb ...
Unpacking libglapi-mesa:armhf (23.3.2-2) ...
Selecting previously unselected package libz3-4:armhf.
Preparing to unpack .../076-libz3-4_4.8.12-3.1+b2_armhf.deb ...
Unpacking libz3-4:armhf (4.8.12-3.1+b2) ...
Selecting previously unselected package libllvm17:armhf.
Preparing to unpack .../077-libllvm17_1%3a17.0.6-3_armhf.deb ...
Unpacking libllvm17:armhf (1:17.0.6-3) ...
Selecting previously unselected package libsensors-config.
Preparing to unpack .../078-libsensors-config_1%3a3.6.0-8_all.deb ...
Unpacking libsensors-config (1:3.6.0-8) ...
Selecting previously unselected package libsensors5:armhf.
Preparing to unpack .../079-libsensors5_1%3a3.6.0-8_armhf.deb ...
Unpacking libsensors5:armhf (1:3.6.0-8) ...
Selecting previously unselected package libxau6:armhf.
Preparing to unpack .../080-libxau6_1%3a1.0.9-1_armhf.deb ...
Unpacking libxau6:armhf (1:1.0.9-1) ...
Selecting previously unselected package libxdmcp6:armhf.
Preparing to unpack .../081-libxdmcp6_1%3a1.1.2-3_armhf.deb ...
Unpacking libxdmcp6:armhf (1:1.1.2-3) ...
Selecting previously unselected package libxcb1:armhf.
Preparing to unpack .../082-libxcb1_1.15-1_armhf.deb ...
Unpacking libxcb1:armhf (1.15-1) ...
Selecting previously unselected package libxcb-dri3-0:armhf.
Preparing to unpack .../083-libxcb-dri3-0_1.15-1_armhf.deb ...
Unpacking libxcb-dri3-0:armhf (1.15-1) ...
Selecting previously unselected package libgl1-mesa-dri:armhf.
Preparing to unpack .../084-libgl1-mesa-dri_23.3.2-2_armhf.deb ...
Unpacking libgl1-mesa-dri:armhf (23.3.2-2) ...
Selecting previously unselected package libglvnd0:armhf.
Preparing to unpack .../085-libglvnd0_1.7.0-1_armhf.deb ...
Unpacking libglvnd0:armhf (1.7.0-1) ...
Selecting previously unselected package libx11-data.
Preparing to unpack .../086-libx11-data_2%3a1.8.7-1_all.deb ...
Unpacking libx11-data (2:1.8.7-1) ...
Selecting previously unselected package libx11-6:armhf.
Preparing to unpack .../087-libx11-6_2%3a1.8.7-1_armhf.deb ...
Unpacking libx11-6:armhf (2:1.8.7-1) ...
Selecting previously unselected package libx11-xcb1:armhf.
Preparing to unpack .../088-libx11-xcb1_2%3a1.8.7-1_armhf.deb ...
Unpacking libx11-xcb1:armhf (2:1.8.7-1) ...
Selecting previously unselected package libxcb-dri2-0:armhf.
Preparing to unpack .../089-libxcb-dri2-0_1.15-1_armhf.deb ...
Unpacking libxcb-dri2-0:armhf (1.15-1) ...
Selecting previously unselected package libxcb-glx0:armhf.
Preparing to unpack .../090-libxcb-glx0_1.15-1_armhf.deb ...
Unpacking libxcb-glx0:armhf (1.15-1) ...
Selecting previously unselected package libxcb-present0:armhf.
Preparing to unpack .../091-libxcb-present0_1.15-1_armhf.deb ...
Unpacking libxcb-present0:armhf (1.15-1) ...
Selecting previously unselected package libxcb-randr0:armhf.
Preparing to unpack .../092-libxcb-randr0_1.15-1_armhf.deb ...
Unpacking libxcb-randr0:armhf (1.15-1) ...
Selecting previously unselected package libxcb-shm0:armhf.
Preparing to unpack .../093-libxcb-shm0_1.15-1_armhf.deb ...
Unpacking libxcb-shm0:armhf (1.15-1) ...
Selecting previously unselected package libxcb-sync1:armhf.
Preparing to unpack .../094-libxcb-sync1_1.15-1_armhf.deb ...
Unpacking libxcb-sync1:armhf (1.15-1) ...
Selecting previously unselected package libxcb-xfixes0:armhf.
Preparing to unpack .../095-libxcb-xfixes0_1.15-1_armhf.deb ...
Unpacking libxcb-xfixes0:armhf (1.15-1) ...
Selecting previously unselected package libxext6:armhf.
Preparing to unpack .../096-libxext6_2%3a1.3.4-1+b1_armhf.deb ...
Unpacking libxext6:armhf (2:1.3.4-1+b1) ...
Selecting previously unselected package libxfixes3:armhf.
Preparing to unpack .../097-libxfixes3_1%3a6.0.0-2_armhf.deb ...
Unpacking libxfixes3:armhf (1:6.0.0-2) ...
Selecting previously unselected package libxshmfence1:armhf.
Preparing to unpack .../098-libxshmfence1_1.3-1_armhf.deb ...
Unpacking libxshmfence1:armhf (1.3-1) ...
Selecting previously unselected package libxxf86vm1:armhf.
Preparing to unpack .../099-libxxf86vm1_1%3a1.1.4-1+b2_armhf.deb ...
Unpacking libxxf86vm1:armhf (1:1.1.4-1+b2) ...
Selecting previously unselected package libglx-mesa0:armhf.
Preparing to unpack .../100-libglx-mesa0_23.3.2-2_armhf.deb ...
Unpacking libglx-mesa0:armhf (23.3.2-2) ...
Selecting previously unselected package libhwloc15:armhf.
Preparing to unpack .../101-libhwloc15_2.10.0-1_armhf.deb ...
Unpacking libhwloc15:armhf (2.10.0-1) ...
Selecting previously unselected package libglx0:armhf.
Preparing to unpack .../102-libglx0_1.7.0-1_armhf.deb ...
Unpacking libglx0:armhf (1.7.0-1) ...
Selecting previously unselected package libtbbmalloc2:armhf.
Preparing to unpack .../103-libtbbmalloc2_2021.11.0-2_armhf.deb ...
Unpacking libtbbmalloc2:armhf (2021.11.0-2) ...
Selecting previously unselected package libtbbbind-2-5:armhf.
Preparing to unpack .../104-libtbbbind-2-5_2021.11.0-2_armhf.deb ...
Unpacking libtbbbind-2-5:armhf (2021.11.0-2) ...
Selecting previously unselected package libtbb12:armhf.
Preparing to unpack .../105-libtbb12_2021.11.0-2_armhf.deb ...
Unpacking libtbb12:armhf (2021.11.0-2) ...
Selecting previously unselected package libopencv-core406:armhf.
Preparing to unpack .../106-libopencv-core406_4.6.0+dfsg-13+b3_armhf.deb ...
Unpacking libopencv-core406:armhf (4.6.0+dfsg-13+b3) ...
Selecting previously unselected package libopencv-flann406:armhf.
Preparing to unpack .../107-libopencv-flann406_4.6.0+dfsg-13+b3_armhf.deb ...
Unpacking libopencv-flann406:armhf (4.6.0+dfsg-13+b3) ...
Selecting previously unselected package libopencv-imgproc406:armhf.
Preparing to unpack .../108-libopencv-imgproc406_4.6.0+dfsg-13+b3_armhf.deb ...
Unpacking libopencv-imgproc406:armhf (4.6.0+dfsg-13+b3) ...
Selecting previously unselected package libopencv-features2d406:armhf.
Preparing to unpack .../109-libopencv-features2d406_4.6.0+dfsg-13+b3_armhf.deb ...
Unpacking libopencv-features2d406:armhf (4.6.0+dfsg-13+b3) ...
Selecting previously unselected package libopencv-imgcodecs406:armhf.
Preparing to unpack .../110-libopencv-imgcodecs406_4.6.0+dfsg-13+b3_armhf.deb ...
Unpacking libopencv-imgcodecs406:armhf (4.6.0+dfsg-13+b3) ...
Selecting previously unselected package libmrgingham2:armhf.
Preparing to unpack .../111-libmrgingham2_1.24-1+b1_armhf.deb ...
Unpacking libmrgingham2:armhf (1.24-1+b1) ...
Selecting previously unselected package libmrgingham-dev:armhf.
Preparing to unpack .../112-libmrgingham-dev_1.24-1+b1_armhf.deb ...
Unpacking libmrgingham-dev:armhf (1.24-1+b1) ...
Selecting previously unselected package libtbb-dev:armhf.
Preparing to unpack .../113-libtbb-dev_2021.11.0-2_armhf.deb ...
Unpacking libtbb-dev:armhf (2021.11.0-2) ...
Selecting previously unselected package zlib1g-dev:armhf.
Preparing to unpack .../114-zlib1g-dev_1%3a1.3.dfsg-3_armhf.deb ...
Unpacking zlib1g-dev:armhf (1:1.3.dfsg-3) ...
Selecting previously unselected package libopencv-core-dev:armhf.
Preparing to unpack .../115-libopencv-core-dev_4.6.0+dfsg-13+b3_armhf.deb ...
Unpacking libopencv-core-dev:armhf (4.6.0+dfsg-13+b3) ...
Setting up libtbbmalloc2:armhf (2021.11.0-2) ...
Setting up mysql-common (5.8+1.1.0) ...
update-alternatives: using /etc/mysql/my.cnf.fallback to provide /etc/mysql/my.cnf (my.cnf) in auto mode
Setting up libxau6:armhf (1:1.0.9-1) ...
Setting up libxdmcp6:armhf (1:1.1.2-3) ...
Setting up libpsl5:armhf (0.21.2-1+b1) ...
Setting up libxcb1:armhf (1.15-1) ...
Setting up libxcb-xfixes0:armhf (1.15-1) ...
Setting up proj-data (9.3.1-1) ...
Setting up libogdi4.1 (4.1.0+ds-6) ...
Setting up libcharls2:armhf (2.4.2-2+b1) ...
Setting up libminizip1:armhf (1:1.3.dfsg-3) ...
Setting up libglvnd0:armhf (1.7.0-1) ...
Setting up libxcb-glx0:armhf (1.15-1) ...
Setting up libbrotli1:armhf (1.1.0-2+b3) ...
Setting up libedit2:armhf (3.1-20230828-1) ...
Setting up libarpack2:armhf (3.9.1-1+b1) ...
Setting up libsensors-config (1:3.6.0-8) ...
Setting up libnghttp2-14:armhf (1.58.0-1) ...
Setting up libqhull-r8.0:armhf (2020.2-6) ...
Setting up libxcb-shm0:armhf (1.15-1) ...
Setting up libsuperlu6:armhf (6.0.1+dfsg1-1) ...
Setting up libaec0:armhf (1.1.2-1) ...
Setting up gdal-data (3.8.2+dfsg-1) ...
Setting up libsnappy1v5:armhf (1.1.10-1) ...
Setting up libsasl2-modules-db:armhf (2.1.28+dfsg1-4+b1) ...
Setting up libxcb-present0:armhf (1.15-1) ...
Setting up libgeos3.12.1:armhf (3.12.1-1) ...
Setting up mariadb-common (1:10.11.6-2) ...
update-alternatives: using /etc/mysql/mariadb.cnf to provide /etc/mysql/my.cnf (my.cnf) in auto mode
Setting up libz3-4:armhf (4.8.12-3.1+b2) ...
Setting up libfreetype6:armhf (2.13.2+dfsg-1+b1) ...
Setting up libx11-data (2:1.8.7-1) ...
Setting up libnspr4:armhf (2:4.35-1.1) ...
Setting up libxcb-sync1:armhf (1.15-1) ...
Setting up librtmp1:armhf (2.4+20151223.gitfa8646d.1-2+b2) ...
Setting up fonts-dejavu-mono (2.37-8) ...
Setting up libhwloc15:armhf (2.10.0-1) ...
Setting up libgeos-c1v5:armhf (3.12.1-1) ...
Setting up libmariadb3:armhf (1:10.11.6-2) ...
Setting up fonts-dejavu-core (2.37-8) ...
Setting up unixodbc-common (2.3.12-1) ...
Setting up libsocket++1:armhf (1.12.13+git20131030.5d039ba-1+b1) ...
Setting up libsensors5:armhf (1:3.6.0-8) ...
Setting up libltdl7:armhf (2.4.7-7) ...
Setting up libglapi-mesa:armhf (23.3.2-2) ...
Setting up libsasl2-2:armhf (2.1.28+dfsg1-4+b1) ...
Setting up libvulkan1:armhf (1.3.268.0-1) ...
Setting up libhdf4-0-alt (4.2.16-3) ...
Setting up libxcb-dri2-0:armhf (1.15-1) ...
Setting up libgif7:armhf (5.2.1-2.5) ...
Setting up zlib1g-dev:armhf (1:1.3.dfsg-3) ...
Setting up libodbc2:armhf (2.3.12-1) ...
Setting up liburiparser1:armhf (0.9.7+dfsg-2) ...
Setting up librttopo1:armhf (1.1.0-3) ...
Setting up libdav1d7:armhf (1.3.0-2+b1) ...
Setting up libfreexl1:armhf (2.0.0-1+b1) ...
Setting up libxshmfence1:armhf (1.3-1) ...
Setting up libxcb-randr0:armhf (1.15-1) ...
Setting up libfyba0:armhf (4.1.1-8) ...
Setting up libkmlbase1:armhf (1.3.0-10) ...
Setting up libblosc1:armhf (1.21.5+ds-1+b1) ...
Setting up libx11-6:armhf (2:1.8.7-1) ...
Setting up libssh2-1:armhf (1.11.0-4) ...
Setting up libde265-0:armhf (1.0.15-1) ...
Setting up libllvm17:armhf (1:17.0.6-3) ...
Setting up libdrm-common (2.4.117-1) ...
Setting up libjson-c5:armhf (0.17-1) ...
Setting up libarmadillo12 (1:12.6.7+dfsg-1) ...
Setting up libsz2:armhf (1.1.2-1) ...
Setting up gdal-plugins (3.8.2+dfsg-1) ...
Setting up libkmldom1:armhf (1.3.0-10) ...
Setting up libxcb-dri3-0:armhf (1.15-1) ...
Setting up libx11-xcb1:armhf (2:1.8.7-1) ...
Setting up libodbcinst2:armhf (2.3.12-1) ...
Setting up libkmlengine1:armhf (1.3.0-10) ...
Setting up fontconfig-config (2.14.2-6+b1) ...
Setting up libxext6:armhf (2:1.3.4-1+b1) ...
Setting up libnss3:armhf (2:3.96.1-1) ...
Setting up libldap-2.5-0:armhf (2.5.13+dfsg-5+b2) ...
Setting up libxxf86vm1:armhf (1:1.1.4-1+b2) ...
Setting up libtbbbind-2-5:armhf (2021.11.0-2) ...
Setting up libxfixes3:armhf (1:6.0.0-2) ...
Setting up libgdcm3.0:armhf (3.0.22-2) ...
Setting up libdrm2:armhf (2.4.117-1) ...
Setting up libcurl4:armhf (8.5.0-2) ...
Setting up libfontconfig1:armhf (2.14.2-6+b1) ...
Setting up libdrm-amdgpu1:armhf (2.4.117-1) ...
Setting up libdrm-nouveau2:armhf (2.4.117-1) ...
Setting up libdrm-radeon1:armhf (2.4.117-1) ...
Setting up libgl1-mesa-dri:armhf (23.3.2-2) ...
Setting up libpq5:armhf (16.1-1) ...
Setting up libcurl3-gnutls:armhf (8.5.0-2) ...
Setting up libtbb12:armhf (2021.11.0-2) ...
Setting up libcfitsio10:armhf (4.3.0-2+b1) ...
Setting up libpoppler126:armhf (22.12.0-2+b1) ...
Setting up libhdf5-103-1:armhf (1.10.10+repack-3) ...
Setting up libtbb-dev:armhf (2021.11.0-2) ...
Setting up libhdf5-hl-100:armhf (1.10.10+repack-3) ...
Setting up libglx-mesa0:armhf (23.3.2-2) ...
Setting up libxerces-c3.2:armhf (3.2.4+debian-1.1) ...
Setting up libglx0:armhf (1.7.0-1) ...
Setting up libproj25:armhf (9.3.1-1) ...
Setting up libgeotiff5:armhf (1.7.1-5) ...
Setting up libspatialite8:armhf (5.1.0-1) ...
Setting up libnetcdf19:armhf (1:4.9.2-3) ...
Setting up libopencv-core406:armhf (4.6.0+dfsg-13+b3) ...
Setting up libopencv-flann406:armhf (4.6.0+dfsg-13+b3) ...
Setting up libopencv-core-dev:armhf (4.6.0+dfsg-13+b3) ...
Setting up libopencv-imgproc406:armhf (4.6.0+dfsg-13+b3) ...
Setting up libopencv-features2d406:armhf (4.6.0+dfsg-13+b3) ...
Setting up libheif-plugin-dav1d:armhf (1.17.6-1) ...
Setting up libheif-plugin-libde265:armhf (1.17.6-1) ...
Setting up libheif1:armhf (1.17.6-1) ...
Setting up libgdal34 (3.8.2+dfsg-1) ...
Setting up libopencv-imgcodecs406:armhf (4.6.0+dfsg-13+b3) ...
Setting up libmrgingham2:armhf (1.24-1+b1) ...
Setting up libmrgingham-dev:armhf (1.24-1+b1) ...
Processing triggers for libc-bin (2.37-13) ...
Reading package lists...
Building dependency tree...
Reading state information...
The following packages will be REMOVED:
  libamd3* libcamd3* libccolamd3* libcholmod5* libcolamd3* libdogleg2*
  libfreeimage3* libjxr0* libmrcal-dev* libmrcal3* libraw23*
  libsuitesparseconfig7* libwebpmux3*
0 upgraded, 0 newly installed, 13 to remove and 42 not upgraded.
After this operation, 5038 kB disk space will be freed.
(Reading database ... (Reading database ... 5%(Reading database ... 10%(Reading database ... 15%(Reading database ... 20%(Reading database ... 25%(Reading database ... 30%(Reading database ... 35%(Reading database ... 40%(Reading database ... 45%(Reading database ... 50%(Reading database ... 55%(Reading database ... 60%(Reading database ... 65%(Reading database ... 70%(Reading database ... 75%(Reading database ... 80%(Reading database ... 85%(Reading database ... 90%(Reading database ... 95%(Reading database ... 100%(Reading database ... 15139 files and directories currently installed.)
Removing libmrcal-dev:armhf (2.3-4+b1) ...
Removing libmrcal3:armhf (2.3-4+b1) ...
Removing libdogleg2:armhf (0.16-4+b1) ...
Removing libcholmod5:armhf (1:7.4.0+dfsg-2) ...
Removing libamd3:armhf (1:7.4.0+dfsg-2) ...
Removing libcamd3:armhf (1:7.4.0+dfsg-2) ...
Removing libccolamd3:armhf (1:7.4.0+dfsg-2) ...
Removing libcolamd3:armhf (1:7.4.0+dfsg-2) ...
Removing libfreeimage3:armhf (3.18.0+ds2-10) ...
Removing libjxr0:armhf (1.2~git20170615.f752187-5) ...
Removing libraw23:armhf (0.21.1-7) ...
Removing libsuitesparseconfig7:armhf (1:7.4.0+dfsg-2) ...
Removing libwebpmux3:armhf (1.3.2-0.3) ...
Processing triggers for libc-bin (2.37-13) ...
