[2024-01-31T17:06:42+00:00] apt-get install coinor-libipopt-dev abi-compliance-checker
Reading package lists...
Building dependency tree...
Reading state information...
abi-compliance-checker is already the newest version (2.3-2).
The following packages were automatically installed and are no longer required:
  coinor-libdylp-dev coinor-libdylp1
Use 'apt autoremove' to remove them.
The following additional packages will be installed:
  coinor-libipopt1v5 cpp-13 cpp-13-arm-linux-gnueabihf g++-13
  g++-13-arm-linux-gnueabihf gcc-13 gcc-13-arm-linux-gnueabihf gcc-13-base
  gfortran-13 gfortran-13-arm-linux-gnueabihf ibverbs-providers libcbor0.10
  libedit2 libevent-2.1-7 libevent-core-2.1-7 libevent-dev
  libevent-extra-2.1-7 libevent-openssl-2.1-7 libevent-pthreads-2.1-7
  libfabric1 libfido2-1 libgcc-13-dev libgfortran-13-dev libhwloc-dev
  libhwloc-plugins libhwloc15 libibverbs-dev libibverbs1 libjs-jquery-ui
  libltdl-dev libltdl7 libmumps-5.6 libmumps-dev libmumps-headers-dev
  libmumps-seq-5.6 libmumps-seq-dev libmunge2 libnl-3-200 libnl-3-dev
  libnl-route-3-200 libnl-route-3-dev libnuma-dev libnuma1 libopenmpi-dev
  libopenmpi3 libpciaccess0 libpmix-dev libpmix2 librdmacm1
  libscalapack-mpi-dev libscalapack-openmpi-dev libscalapack-openmpi2.2
  libscotch-7.0 libstdc++-13-dev libx11-6 libx11-data libxau6 libxcb1
  libxdmcp6 libxext6 libxnvctrl0 mpi-default-bin mpi-default-dev
  ocl-icd-libopencl1 openmpi-bin openmpi-common openssh-client
Suggested packages:
  gcc-13-locales cpp-13-doc gcc-13-doc gfortran-13-doc libcoarrays-dev
  libjs-jquery-ui-docs libtool-doc openmpi-doc pciutils scalapack-doc
  libstdc++-13-doc opencl-icd gfortran | fortran-compiler keychain libpam-ssh
  monkeysphere ssh-askpass
Recommended packages:
  javascript-common libtool libcoarrays-openmpi-dev xauth
The following NEW packages will be installed:
  coinor-libipopt-dev coinor-libipopt1v5 cpp-13-arm-linux-gnueabihf
  g++-13-arm-linux-gnueabihf gcc-13-arm-linux-gnueabihf gfortran-13
  gfortran-13-arm-linux-gnueabihf ibverbs-providers libcbor0.10 libedit2
  libevent-2.1-7 libevent-core-2.1-7 libevent-dev libevent-extra-2.1-7
  libevent-openssl-2.1-7 libevent-pthreads-2.1-7 libfabric1 libfido2-1
  libgfortran-13-dev libhwloc-dev libhwloc-plugins libhwloc15 libibverbs-dev
  libibverbs1 libjs-jquery-ui libltdl-dev libltdl7 libmumps-5.6 libmumps-dev
  libmumps-headers-dev libmumps-seq-5.6 libmumps-seq-dev libmunge2 libnl-3-200
  libnl-3-dev libnl-route-3-200 libnl-route-3-dev libnuma-dev libnuma1
  libopenmpi-dev libopenmpi3 libpciaccess0 libpmix-dev libpmix2 librdmacm1
  libscalapack-mpi-dev libscalapack-openmpi-dev libscalapack-openmpi2.2
  libscotch-7.0 libx11-6 libx11-data libxau6 libxcb1 libxdmcp6 libxext6
  libxnvctrl0 mpi-default-bin mpi-default-dev ocl-icd-libopencl1 openmpi-bin
  openmpi-common openssh-client
The following packages will be upgraded:
  cpp-13 g++-13 gcc-13 gcc-13-base libgcc-13-dev libstdc++-13-dev
6 upgraded, 62 newly installed, 0 to remove and 59 not upgraded.
Need to get 65.9 MB of archives.
After this operation, 113 MB of additional disk space will be used.
Get:1 http://deb.debian.org/debian unstable/main armhf libedit2 armhf 3.1-20230828-1 [76.8 kB]
Get:2 http://deb.debian.org/debian unstable/main armhf libcbor0.10 armhf 0.10.2-1.1 [23.9 kB]
Get:3 http://deb.debian.org/debian unstable/main armhf libfido2-1 armhf 1.14.0-1 [69.9 kB]
Get:4 http://deb.debian.org/debian unstable/main armhf openssh-client armhf 1:9.6p1-3 [880 kB]
Get:5 http://deb.debian.org/debian unstable/main armhf libscotch-7.0 armhf 7.0.4-1 [412 kB]
Get:6 http://deb.debian.org/debian unstable/main armhf libmumps-seq-5.6 armhf 5.6.2-2 [1710 kB]
Get:7 http://deb.debian.org/debian unstable/main armhf coinor-libipopt1v5 armhf 3.11.9-2.3+b2 [550 kB]
Get:8 http://deb.debian.org/debian unstable/main armhf libmumps-headers-dev all 5.6.2-2 [34.6 kB]
Get:9 http://deb.debian.org/debian unstable/main armhf libevent-core-2.1-7 armhf 2.1.12-stable-8 [120 kB]
Get:10 http://deb.debian.org/debian unstable/main armhf libevent-pthreads-2.1-7 armhf 2.1.12-stable-8 [53.2 kB]
Get:11 http://deb.debian.org/debian unstable/main armhf libnl-3-200 armhf 3.7.0-0.3 [51.7 kB]
Get:12 http://deb.debian.org/debian unstable/main armhf libnl-route-3-200 armhf 3.7.0-0.3 [153 kB]
Get:13 http://deb.debian.org/debian unstable/main armhf libibverbs1 armhf 48.0-1.1 [54.4 kB]
Get:14 http://deb.debian.org/debian unstable/main armhf librdmacm1 armhf 48.0-1.1 [61.6 kB]
Get:15 http://deb.debian.org/debian unstable/main armhf libfabric1 armhf 1.17.0-3 [385 kB]
Get:16 http://deb.debian.org/debian unstable/main armhf libhwloc15 armhf 2.10.0-1 [133 kB]
Get:17 http://deb.debian.org/debian unstable/main armhf libmunge2 armhf 0.5.15-3 [15.8 kB]
Get:18 http://deb.debian.org/debian unstable/main armhf libpciaccess0 armhf 0.17-3 [49.0 kB]
Get:19 http://deb.debian.org/debian unstable/main armhf libxau6 armhf 1:1.0.9-1 [19.0 kB]
Get:20 http://deb.debian.org/debian unstable/main armhf libxdmcp6 armhf 1:1.1.2-3 [24.9 kB]
Get:21 http://deb.debian.org/debian unstable/main armhf libxcb1 armhf 1.15-1 [140 kB]
Get:22 http://deb.debian.org/debian unstable/main armhf libx11-data all 2:1.8.7-1 [328 kB]
Get:23 http://deb.debian.org/debian unstable/main armhf libx11-6 armhf 2:1.8.7-1 [735 kB]
Get:24 http://deb.debian.org/debian unstable/main armhf libxext6 armhf 2:1.3.4-1+b1 [47.8 kB]
Get:25 http://deb.debian.org/debian unstable/main armhf libxnvctrl0 armhf 525.125.06-1 [12.4 kB]
Get:26 http://deb.debian.org/debian unstable/main armhf ocl-icd-libopencl1 armhf 2.3.2-1 [36.8 kB]
Get:27 http://deb.debian.org/debian unstable/main armhf libhwloc-plugins armhf 2.10.0-1 [15.8 kB]
Get:28 http://deb.debian.org/debian unstable/main armhf libpmix2 armhf 5.0.1-4 [544 kB]
Get:29 http://deb.debian.org/debian unstable/main armhf libopenmpi3 armhf 4.1.6-5 [1855 kB]
Get:30 http://deb.debian.org/debian unstable/main armhf openmpi-common all 4.1.6-5 [168 kB]
Get:31 http://deb.debian.org/debian unstable/main armhf openmpi-bin armhf 4.1.6-5 [194 kB]
Get:32 http://deb.debian.org/debian unstable/main armhf mpi-default-bin armhf 1.15 [2408 B]
Get:33 http://deb.debian.org/debian unstable/main armhf libscalapack-openmpi2.2 armhf 2.2.1-3 [1237 kB]
Get:34 http://deb.debian.org/debian unstable/main armhf libmumps-5.6 armhf 5.6.2-2 [1684 kB]
Get:35 http://deb.debian.org/debian unstable/main armhf libscalapack-openmpi-dev armhf 2.2.1-3 [9636 B]
Get:36 http://deb.debian.org/debian unstable/main armhf g++-13 armhf 13.2.0-13 [14.3 kB]
Get:37 http://deb.debian.org/debian unstable/main armhf gcc-13 armhf 13.2.0-13 [445 kB]
Get:38 http://deb.debian.org/debian unstable/main armhf cpp-13 armhf 13.2.0-13 [1284 B]
Get:39 http://deb.debian.org/debian unstable/main armhf cpp-13-arm-linux-gnueabihf armhf 13.2.0-13 [7814 kB]
Get:40 http://deb.debian.org/debian unstable/main armhf libstdc++-13-dev armhf 13.2.0-13 [2215 kB]
Get:41 http://deb.debian.org/debian unstable/main armhf libgcc-13-dev armhf 13.2.0-13 [780 kB]
Get:42 http://deb.debian.org/debian unstable/main armhf gcc-13-arm-linux-gnueabihf armhf 13.2.0-13 [14.7 MB]
Get:43 http://deb.debian.org/debian unstable/main armhf g++-13-arm-linux-gnueabihf armhf 13.2.0-13 [8557 kB]
Get:44 http://deb.debian.org/debian unstable/main armhf gcc-13-base armhf 13.2.0-13 [42.6 kB]
Get:45 http://deb.debian.org/debian unstable/main armhf libgfortran-13-dev armhf 13.2.0-13 [306 kB]
Get:46 http://deb.debian.org/debian unstable/main armhf gfortran-13-arm-linux-gnueabihf armhf 13.2.0-13 [8193 kB]
Get:47 http://deb.debian.org/debian unstable/main armhf gfortran-13 armhf 13.2.0-13 [10.5 kB]
Get:48 http://deb.debian.org/debian unstable/main armhf ibverbs-providers armhf 48.0-1.1 [28.3 kB]
Get:49 http://deb.debian.org/debian unstable/main armhf libnl-3-dev armhf 3.7.0-0.3 [94.3 kB]
Get:50 http://deb.debian.org/debian unstable/main armhf libnl-route-3-dev armhf 3.7.0-0.3 [180 kB]
Get:51 http://deb.debian.org/debian unstable/main armhf libibverbs-dev armhf 48.0-1.1 [197 kB]
Get:52 http://deb.debian.org/debian unstable/main armhf libnuma1 armhf 2.0.16-1 [17.8 kB]
Get:53 http://deb.debian.org/debian unstable/main armhf libnuma-dev armhf 2.0.16-1 [33.0 kB]
Get:54 http://deb.debian.org/debian unstable/main armhf libltdl7 armhf 2.4.7-7 [390 kB]
Get:55 http://deb.debian.org/debian unstable/main armhf libltdl-dev armhf 2.4.7-7 [162 kB]
Get:56 http://deb.debian.org/debian unstable/main armhf libhwloc-dev armhf 2.10.0-1 [223 kB]
Get:57 http://deb.debian.org/debian unstable/main armhf libevent-2.1-7 armhf 2.1.12-stable-8 [161 kB]
Get:58 http://deb.debian.org/debian unstable/main armhf libevent-extra-2.1-7 armhf 2.1.12-stable-8 [97.5 kB]
Get:59 http://deb.debian.org/debian unstable/main armhf libevent-openssl-2.1-7 armhf 2.1.12-stable-8 [58.3 kB]
Get:60 http://deb.debian.org/debian unstable/main armhf libevent-dev armhf 2.1.12-stable-8 [290 kB]
Get:61 http://deb.debian.org/debian unstable/main armhf libpmix-dev armhf 5.0.1-4 [3843 kB]
Get:62 http://deb.debian.org/debian unstable/main armhf libjs-jquery-ui all 1.13.2+dfsg-1 [250 kB]
Get:63 http://deb.debian.org/debian unstable/main armhf libopenmpi-dev armhf 4.1.6-5 [922 kB]
Get:64 http://deb.debian.org/debian unstable/main armhf mpi-default-dev armhf 1.15 [3152 B]
Get:65 http://deb.debian.org/debian unstable/main armhf libscalapack-mpi-dev armhf 2.2.1-3 [4776 B]
Get:66 http://deb.debian.org/debian unstable/main armhf libmumps-dev armhf 5.6.2-2 [1604 kB]
Get:67 http://deb.debian.org/debian unstable/main armhf libmumps-seq-dev armhf 5.6.2-2 [1610 kB]
Get:68 http://deb.debian.org/debian unstable/main armhf coinor-libipopt-dev armhf 3.11.9-2.3+b2 [814 kB]
debconf: delaying package configuration, since apt-utils is not installed
Fetched 65.9 MB in 2s (38.9 MB/s)
Selecting previously unselected package libedit2:armhf.
(Reading database ... (Reading database ... 5%(Reading database ... 10%(Reading database ... 15%(Reading database ... 20%(Reading database ... 25%(Reading database ... 30%(Reading database ... 35%(Reading database ... 40%(Reading database ... 45%(Reading database ... 50%(Reading database ... 55%(Reading database ... 60%(Reading database ... 65%(Reading database ... 70%(Reading database ... 75%(Reading database ... 80%(Reading database ... 85%(Reading database ... 90%(Reading database ... 95%(Reading database ... 100%(Reading database ... 17520 files and directories currently installed.)
Preparing to unpack .../00-libedit2_3.1-20230828-1_armhf.deb ...
Unpacking libedit2:armhf (3.1-20230828-1) ...
Selecting previously unselected package libcbor0.10:armhf.
Preparing to unpack .../01-libcbor0.10_0.10.2-1.1_armhf.deb ...
Unpacking libcbor0.10:armhf (0.10.2-1.1) ...
Selecting previously unselected package libfido2-1:armhf.
Preparing to unpack .../02-libfido2-1_1.14.0-1_armhf.deb ...
Unpacking libfido2-1:armhf (1.14.0-1) ...
Selecting previously unselected package openssh-client.
Preparing to unpack .../03-openssh-client_1%3a9.6p1-3_armhf.deb ...
Unpacking openssh-client (1:9.6p1-3) ...
Selecting previously unselected package libscotch-7.0:armhf.
Preparing to unpack .../04-libscotch-7.0_7.0.4-1_armhf.deb ...
Unpacking libscotch-7.0:armhf (7.0.4-1) ...
Selecting previously unselected package libmumps-seq-5.6:armhf.
Preparing to unpack .../05-libmumps-seq-5.6_5.6.2-2_armhf.deb ...
Unpacking libmumps-seq-5.6:armhf (5.6.2-2) ...
Selecting previously unselected package coinor-libipopt1v5.
Preparing to unpack .../06-coinor-libipopt1v5_3.11.9-2.3+b2_armhf.deb ...
Unpacking coinor-libipopt1v5 (3.11.9-2.3+b2) ...
Selecting previously unselected package libmumps-headers-dev.
Preparing to unpack .../07-libmumps-headers-dev_5.6.2-2_all.deb ...
Unpacking libmumps-headers-dev (5.6.2-2) ...
Selecting previously unselected package libevent-core-2.1-7:armhf.
Preparing to unpack .../08-libevent-core-2.1-7_2.1.12-stable-8_armhf.deb ...
Unpacking libevent-core-2.1-7:armhf (2.1.12-stable-8) ...
Selecting previously unselected package libevent-pthreads-2.1-7:armhf.
Preparing to unpack .../09-libevent-pthreads-2.1-7_2.1.12-stable-8_armhf.deb ...
Unpacking libevent-pthreads-2.1-7:armhf (2.1.12-stable-8) ...
Selecting previously unselected package libnl-3-200:armhf.
Preparing to unpack .../10-libnl-3-200_3.7.0-0.3_armhf.deb ...
Unpacking libnl-3-200:armhf (3.7.0-0.3) ...
Selecting previously unselected package libnl-route-3-200:armhf.
Preparing to unpack .../11-libnl-route-3-200_3.7.0-0.3_armhf.deb ...
Unpacking libnl-route-3-200:armhf (3.7.0-0.3) ...
Selecting previously unselected package libibverbs1:armhf.
Preparing to unpack .../12-libibverbs1_48.0-1.1_armhf.deb ...
Unpacking libibverbs1:armhf (48.0-1.1) ...
Selecting previously unselected package librdmacm1:armhf.
Preparing to unpack .../13-librdmacm1_48.0-1.1_armhf.deb ...
Unpacking librdmacm1:armhf (48.0-1.1) ...
Selecting previously unselected package libfabric1:armhf.
Preparing to unpack .../14-libfabric1_1.17.0-3_armhf.deb ...
Unpacking libfabric1:armhf (1.17.0-3) ...
Selecting previously unselected package libhwloc15:armhf.
Preparing to unpack .../15-libhwloc15_2.10.0-1_armhf.deb ...
Unpacking libhwloc15:armhf (2.10.0-1) ...
Selecting previously unselected package libmunge2:armhf.
Preparing to unpack .../16-libmunge2_0.5.15-3_armhf.deb ...
Unpacking libmunge2:armhf (0.5.15-3) ...
Selecting previously unselected package libpciaccess0:armhf.
Preparing to unpack .../17-libpciaccess0_0.17-3_armhf.deb ...
Unpacking libpciaccess0:armhf (0.17-3) ...
Selecting previously unselected package libxau6:armhf.
Preparing to unpack .../18-libxau6_1%3a1.0.9-1_armhf.deb ...
Unpacking libxau6:armhf (1:1.0.9-1) ...
Selecting previously unselected package libxdmcp6:armhf.
Preparing to unpack .../19-libxdmcp6_1%3a1.1.2-3_armhf.deb ...
Unpacking libxdmcp6:armhf (1:1.1.2-3) ...
Selecting previously unselected package libxcb1:armhf.
Preparing to unpack .../20-libxcb1_1.15-1_armhf.deb ...
Unpacking libxcb1:armhf (1.15-1) ...
Selecting previously unselected package libx11-data.
Preparing to unpack .../21-libx11-data_2%3a1.8.7-1_all.deb ...
Unpacking libx11-data (2:1.8.7-1) ...
Selecting previously unselected package libx11-6:armhf.
Preparing to unpack .../22-libx11-6_2%3a1.8.7-1_armhf.deb ...
Unpacking libx11-6:armhf (2:1.8.7-1) ...
Selecting previously unselected package libxext6:armhf.
Preparing to unpack .../23-libxext6_2%3a1.3.4-1+b1_armhf.deb ...
Unpacking libxext6:armhf (2:1.3.4-1+b1) ...
Selecting previously unselected package libxnvctrl0:armhf.
Preparing to unpack .../24-libxnvctrl0_525.125.06-1_armhf.deb ...
Unpacking libxnvctrl0:armhf (525.125.06-1) ...
Selecting previously unselected package ocl-icd-libopencl1:armhf.
Preparing to unpack .../25-ocl-icd-libopencl1_2.3.2-1_armhf.deb ...
Unpacking ocl-icd-libopencl1:armhf (2.3.2-1) ...
Selecting previously unselected package libhwloc-plugins:armhf.
Preparing to unpack .../26-libhwloc-plugins_2.10.0-1_armhf.deb ...
Unpacking libhwloc-plugins:armhf (2.10.0-1) ...
Selecting previously unselected package libpmix2:armhf.
Preparing to unpack .../27-libpmix2_5.0.1-4_armhf.deb ...
Unpacking libpmix2:armhf (5.0.1-4) ...
Selecting previously unselected package libopenmpi3:armhf.
Preparing to unpack .../28-libopenmpi3_4.1.6-5_armhf.deb ...
Unpacking libopenmpi3:armhf (4.1.6-5) ...
Selecting previously unselected package openmpi-common.
Preparing to unpack .../29-openmpi-common_4.1.6-5_all.deb ...
Unpacking openmpi-common (4.1.6-5) ...
Selecting previously unselected package openmpi-bin.
Preparing to unpack .../30-openmpi-bin_4.1.6-5_armhf.deb ...
Unpacking openmpi-bin (4.1.6-5) ...
Selecting previously unselected package mpi-default-bin.
Preparing to unpack .../31-mpi-default-bin_1.15_armhf.deb ...
Unpacking mpi-default-bin (1.15) ...
Selecting previously unselected package libscalapack-openmpi2.2:armhf.
Preparing to unpack .../32-libscalapack-openmpi2.2_2.2.1-3_armhf.deb ...
Unpacking libscalapack-openmpi2.2:armhf (2.2.1-3) ...
Selecting previously unselected package libmumps-5.6:armhf.
Preparing to unpack .../33-libmumps-5.6_5.6.2-2_armhf.deb ...
Unpacking libmumps-5.6:armhf (5.6.2-2) ...
Selecting previously unselected package libscalapack-openmpi-dev:armhf.
Preparing to unpack .../34-libscalapack-openmpi-dev_2.2.1-3_armhf.deb ...
Unpacking libscalapack-openmpi-dev:armhf (2.2.1-3) ...
Preparing to unpack .../35-g++-13_13.2.0-13_armhf.deb ...
Unpacking g++-13 (13.2.0-13) over (13.2.0-8) ...
Preparing to unpack .../36-gcc-13_13.2.0-13_armhf.deb ...
Unpacking gcc-13 (13.2.0-13) over (13.2.0-8) ...
Preparing to unpack .../37-cpp-13_13.2.0-13_armhf.deb ...
Unpacking cpp-13 (13.2.0-13) over (13.2.0-8) ...
Selecting previously unselected package cpp-13-arm-linux-gnueabihf.
Preparing to unpack .../38-cpp-13-arm-linux-gnueabihf_13.2.0-13_armhf.deb ...
Unpacking cpp-13-arm-linux-gnueabihf (13.2.0-13) ...
Preparing to unpack .../39-libstdc++-13-dev_13.2.0-13_armhf.deb ...
Unpacking libstdc++-13-dev:armhf (13.2.0-13) over (13.2.0-8) ...
Preparing to unpack .../40-libgcc-13-dev_13.2.0-13_armhf.deb ...
Unpacking libgcc-13-dev:armhf (13.2.0-13) over (13.2.0-8) ...
Selecting previously unselected package gcc-13-arm-linux-gnueabihf.
Preparing to unpack .../41-gcc-13-arm-linux-gnueabihf_13.2.0-13_armhf.deb ...
Unpacking gcc-13-arm-linux-gnueabihf (13.2.0-13) ...
Selecting previously unselected package g++-13-arm-linux-gnueabihf.
Preparing to unpack .../42-g++-13-arm-linux-gnueabihf_13.2.0-13_armhf.deb ...
Unpacking g++-13-arm-linux-gnueabihf (13.2.0-13) ...
Preparing to unpack .../43-gcc-13-base_13.2.0-13_armhf.deb ...
Unpacking gcc-13-base:armhf (13.2.0-13) over (13.2.0-8) ...
Selecting previously unselected package libgfortran-13-dev:armhf.
Preparing to unpack .../44-libgfortran-13-dev_13.2.0-13_armhf.deb ...
Unpacking libgfortran-13-dev:armhf (13.2.0-13) ...
Selecting previously unselected package gfortran-13-arm-linux-gnueabihf.
Preparing to unpack .../45-gfortran-13-arm-linux-gnueabihf_13.2.0-13_armhf.deb ...
Unpacking gfortran-13-arm-linux-gnueabihf (13.2.0-13) ...
Selecting previously unselected package gfortran-13.
Preparing to unpack .../46-gfortran-13_13.2.0-13_armhf.deb ...
Unpacking gfortran-13 (13.2.0-13) ...
Selecting previously unselected package ibverbs-providers:armhf.
Preparing to unpack .../47-ibverbs-providers_48.0-1.1_armhf.deb ...
Unpacking ibverbs-providers:armhf (48.0-1.1) ...
Selecting previously unselected package libnl-3-dev:armhf.
Preparing to unpack .../48-libnl-3-dev_3.7.0-0.3_armhf.deb ...
Unpacking libnl-3-dev:armhf (3.7.0-0.3) ...
Selecting previously unselected package libnl-route-3-dev:armhf.
Preparing to unpack .../49-libnl-route-3-dev_3.7.0-0.3_armhf.deb ...
Unpacking libnl-route-3-dev:armhf (3.7.0-0.3) ...
Selecting previously unselected package libibverbs-dev:armhf.
Preparing to unpack .../50-libibverbs-dev_48.0-1.1_armhf.deb ...
Unpacking libibverbs-dev:armhf (48.0-1.1) ...
Selecting previously unselected package libnuma1:armhf.
Preparing to unpack .../51-libnuma1_2.0.16-1_armhf.deb ...
Unpacking libnuma1:armhf (2.0.16-1) ...
Selecting previously unselected package libnuma-dev:armhf.
Preparing to unpack .../52-libnuma-dev_2.0.16-1_armhf.deb ...
Unpacking libnuma-dev:armhf (2.0.16-1) ...
Selecting previously unselected package libltdl7:armhf.
Preparing to unpack .../53-libltdl7_2.4.7-7_armhf.deb ...
Unpacking libltdl7:armhf (2.4.7-7) ...
Selecting previously unselected package libltdl-dev:armhf.
Preparing to unpack .../54-libltdl-dev_2.4.7-7_armhf.deb ...
Unpacking libltdl-dev:armhf (2.4.7-7) ...
Selecting previously unselected package libhwloc-dev:armhf.
Preparing to unpack .../55-libhwloc-dev_2.10.0-1_armhf.deb ...
Unpacking libhwloc-dev:armhf (2.10.0-1) ...
Selecting previously unselected package libevent-2.1-7:armhf.
Preparing to unpack .../56-libevent-2.1-7_2.1.12-stable-8_armhf.deb ...
Unpacking libevent-2.1-7:armhf (2.1.12-stable-8) ...
Selecting previously unselected package libevent-extra-2.1-7:armhf.
Preparing to unpack .../57-libevent-extra-2.1-7_2.1.12-stable-8_armhf.deb ...
Unpacking libevent-extra-2.1-7:armhf (2.1.12-stable-8) ...
Selecting previously unselected package libevent-openssl-2.1-7:armhf.
Preparing to unpack .../58-libevent-openssl-2.1-7_2.1.12-stable-8_armhf.deb ...
Unpacking libevent-openssl-2.1-7:armhf (2.1.12-stable-8) ...
Selecting previously unselected package libevent-dev.
Preparing to unpack .../59-libevent-dev_2.1.12-stable-8_armhf.deb ...
Unpacking libevent-dev (2.1.12-stable-8) ...
Selecting previously unselected package libpmix-dev:armhf.
Preparing to unpack .../60-libpmix-dev_5.0.1-4_armhf.deb ...
Unpacking libpmix-dev:armhf (5.0.1-4) ...
Selecting previously unselected package libjs-jquery-ui.
Preparing to unpack .../61-libjs-jquery-ui_1.13.2+dfsg-1_all.deb ...
Unpacking libjs-jquery-ui (1.13.2+dfsg-1) ...
Selecting previously unselected package libopenmpi-dev:armhf.
Preparing to unpack .../62-libopenmpi-dev_4.1.6-5_armhf.deb ...
Unpacking libopenmpi-dev:armhf (4.1.6-5) ...
Selecting previously unselected package mpi-default-dev.
Preparing to unpack .../63-mpi-default-dev_1.15_armhf.deb ...
Unpacking mpi-default-dev (1.15) ...
Selecting previously unselected package libscalapack-mpi-dev:armhf.
Preparing to unpack .../64-libscalapack-mpi-dev_2.2.1-3_armhf.deb ...
Unpacking libscalapack-mpi-dev:armhf (2.2.1-3) ...
Selecting previously unselected package libmumps-dev:armhf.
Preparing to unpack .../65-libmumps-dev_5.6.2-2_armhf.deb ...
Unpacking libmumps-dev:armhf (5.6.2-2) ...
Selecting previously unselected package libmumps-seq-dev:armhf.
Preparing to unpack .../66-libmumps-seq-dev_5.6.2-2_armhf.deb ...
Unpacking libmumps-seq-dev:armhf (5.6.2-2) ...
Selecting previously unselected package coinor-libipopt-dev.
Preparing to unpack .../67-coinor-libipopt-dev_3.11.9-2.3+b2_armhf.deb ...
Unpacking coinor-libipopt-dev (3.11.9-2.3+b2) ...
Setting up libpciaccess0:armhf (0.17-3) ...
Setting up libxau6:armhf (1:1.0.9-1) ...
Setting up libxdmcp6:armhf (1:1.1.2-3) ...
Setting up libxcb1:armhf (1.15-1) ...
Setting up libcbor0.10:armhf (0.10.2-1.1) ...
Setting up libscotch-7.0:armhf (7.0.4-1) ...
Setting up libedit2:armhf (3.1-20230828-1) ...
Setting up libjs-jquery-ui (1.13.2+dfsg-1) ...
Setting up gcc-13-base:armhf (13.2.0-13) ...
Setting up libmunge2:armhf (0.5.15-3) ...
Setting up libx11-data (2:1.8.7-1) ...
Setting up libhwloc15:armhf (2.10.0-1) ...
Setting up libevent-core-2.1-7:armhf (2.1.12-stable-8) ...
Setting up libevent-2.1-7:armhf (2.1.12-stable-8) ...
Setting up libltdl7:armhf (2.4.7-7) ...
Setting up libmumps-seq-5.6:armhf (5.6.2-2) ...
Setting up libmumps-headers-dev (5.6.2-2) ...
Setting up libnuma1:armhf (2.0.16-1) ...
Setting up libgcc-13-dev:armhf (13.2.0-13) ...
Setting up ocl-icd-libopencl1:armhf (2.3.2-1) ...
Setting up libnl-3-200:armhf (3.7.0-0.3) ...
Setting up openmpi-common (4.1.6-5) ...
Setting up libx11-6:armhf (2:1.8.7-1) ...
Setting up libfido2-1:armhf (1.14.0-1) ...
Setting up coinor-libipopt1v5 (3.11.9-2.3+b2) ...
Setting up libgfortran-13-dev:armhf (13.2.0-13) ...
Setting up libstdc++-13-dev:armhf (13.2.0-13) ...
Setting up libevent-pthreads-2.1-7:armhf (2.1.12-stable-8) ...
Setting up libevent-extra-2.1-7:armhf (2.1.12-stable-8) ...
Setting up cpp-13-arm-linux-gnueabihf (13.2.0-13) ...
Setting up openssh-client (1:9.6p1-3) ...
Setting up libxext6:armhf (2:1.3.4-1+b1) ...
Setting up libevent-openssl-2.1-7:armhf (2.1.12-stable-8) ...
Setting up gcc-13-arm-linux-gnueabihf (13.2.0-13) ...
Setting up libnuma-dev:armhf (2.0.16-1) ...
Setting up libnl-route-3-200:armhf (3.7.0-0.3) ...
Setting up libxnvctrl0:armhf (525.125.06-1) ...
Setting up libltdl-dev:armhf (2.4.7-7) ...
Setting up libevent-dev (2.1.12-stable-8) ...
Setting up gcc-13 (13.2.0-13) ...
Setting up libnl-3-dev:armhf (3.7.0-0.3) ...
Setting up libhwloc-dev:armhf (2.10.0-1) ...
Setting up g++-13-arm-linux-gnueabihf (13.2.0-13) ...
Setting up gfortran-13-arm-linux-gnueabihf (13.2.0-13) ...
Setting up g++-13 (13.2.0-13) ...
Setting up libibverbs1:armhf (48.0-1.1) ...
Setting up cpp-13 (13.2.0-13) ...
Setting up ibverbs-providers:armhf (48.0-1.1) ...
Setting up libhwloc-plugins:armhf (2.10.0-1) ...
Setting up libnl-route-3-dev:armhf (3.7.0-0.3) ...
Setting up gfortran-13 (13.2.0-13) ...
Setting up librdmacm1:armhf (48.0-1.1) ...
Setting up libpmix2:armhf (5.0.1-4) ...
Setting up libibverbs-dev:armhf (48.0-1.1) ...
Setting up libpmix-dev:armhf (5.0.1-4) ...
Setting up libfabric1:armhf (1.17.0-3) ...
Setting up libopenmpi3:armhf (4.1.6-5) ...
Setting up openmpi-bin (4.1.6-5) ...
update-alternatives: using /usr/bin/mpirun.openmpi to provide /usr/bin/mpirun (mpirun) in auto mode
update-alternatives: using /usr/bin/mpicc.openmpi to provide /usr/bin/mpicc (mpi) in auto mode
Setting up mpi-default-bin (1.15) ...
Setting up libopenmpi-dev:armhf (4.1.6-5) ...
update-alternatives: using /usr/lib/arm-linux-gnueabihf/openmpi/include to provide /usr/include/arm-linux-gnueabihf/mpi (mpi-arm-linux-gnueabihf) in auto mode
Setting up libscalapack-openmpi2.2:armhf (2.2.1-3) ...
Setting up libmumps-5.6:armhf (5.6.2-2) ...
Setting up libscalapack-openmpi-dev:armhf (2.2.1-3) ...
Setting up mpi-default-dev (1.15) ...
Setting up libscalapack-mpi-dev:armhf (2.2.1-3) ...
Setting up libmumps-dev:armhf (5.6.2-2) ...
Setting up libmumps-seq-dev:armhf (5.6.2-2) ...
Setting up coinor-libipopt-dev (3.11.9-2.3+b2) ...
Processing triggers for libc-bin (2.37-13) ...
Reading package lists...
Building dependency tree...
Reading state information...
The following packages will be REMOVED:
  coinor-libdylp-dev* coinor-libdylp1*
0 upgraded, 0 newly installed, 2 to remove and 59 not upgraded.
After this operation, 1055 kB disk space will be freed.
(Reading database ... (Reading database ... 5%(Reading database ... 10%(Reading database ... 15%(Reading database ... 20%(Reading database ... 25%(Reading database ... 30%(Reading database ... 35%(Reading database ... 40%(Reading database ... 45%(Reading database ... 50%(Reading database ... 55%(Reading database ... 60%(Reading database ... 65%(Reading database ... 70%(Reading database ... 75%(Reading database ... 80%(Reading database ... 85%(Reading database ... 90%(Reading database ... 95%(Reading database ... 100%(Reading database ... 21284 files and directories currently installed.)
Removing coinor-libdylp-dev (1.10.4-3+b1) ...
Removing coinor-libdylp1:armhf (1.10.4-3+b1) ...
Processing triggers for libc-bin (2.37-13) ...
