Temporary header file '/tmp/8BMnmwvGuW/dump1.h' with the following content will be compiled to create GCC translation unit dump:

  // add defines
  #define __STDC_VERSION__ 201710L
#define _TIME_BITS 64
#define _FILE_OFFSET_BITS 64
#define _GXX_NULLPTR_T
#define CLUTTER_ENABLE_COMPOSITOR_API 1
#define _REGEX_NELTS(n)
#define _Atomic
#define PACKED
#ifdef __cplusplus
// C17 compat layer
#define _Alignof(type) alignof(type)
#endif
#define getaddrinfo_a(a,b,c,d)

  // add includes
  #include "/usr/include/libhashkit/hashkit.h"
  #include "/usr/include/libhashkit-1.0/algorithm.h"
  #include "/usr/include/libhashkit-1.0/basic_string.h"
  #include "/usr/include/libhashkit-1.0/behavior.h"
  #include "/usr/include/libhashkit-1.0/configure.h"
  #include "/usr/include/libhashkit-1.0/digest.h"
  #include "/usr/include/libhashkit-1.0/function.h"
  #include "/usr/include/libhashkit-1.0/has.h"
  #include "/usr/include/libhashkit-1.0/hashkit.h"
  #include "/usr/include/libhashkit-1.0/hashkit.hpp"
  #include "/usr/include/libhashkit-1.0/str_algorithm.h"
  #include "/usr/include/libhashkit-1.0/strerror.h"
  #include "/usr/include/libhashkit-1.0/string.h"
  #include "/usr/include/libhashkit-1.0/types.h"
  #include "/usr/include/libhashkit-1.0/visibility.h"

  // add classes
  Hashkit* tmp_add_class_0;
  _G_fpos64_t* tmp_add_class_1;
  _G_fpos_t* tmp_add_class_2;
  _IO_cookie_io_functions_t* tmp_add_class_3;
  hashkit_st* tmp_add_class_4;

The GCC parameters:
  gcc -fdump-lang-raw -fkeep-inline-functions -c -x c++ -fpermissive -w "/tmp/8BMnmwvGuW/dump1.h"

