Using GCC 13 (arm-linux-gnueabihf, target: arm)
WARNING: May not work properly with GCC 4.8.[0-2], 6.* and higher due to bug #78040 in GCC. Please try other GCC versions with the help of --gcc-path=PATH option or create ABI dumps by ABI Dumper tool instead to avoid using GCC. Test selected GCC version first by -test option.
Checking header(s) time_t ...
Temporary header file '/tmp/N0dLrB19to/dump1.h' with the following content will be compiled to create GCC translation unit dump:

  // add defines
  #define __STDC_VERSION__ 201710L
#define _TIME_BITS 64
#define _FILE_OFFSET_BITS 64
#define _GXX_NULLPTR_T
#define CLUTTER_ENABLE_COMPOSITOR_API 1
#define _REGEX_NELTS(n)
#define _Atomic
#define PACKED
#ifdef __cplusplus
// C17 compat layer
#define _Alignof(type) alignof(type)
#endif
#define getaddrinfo_a(a,b,c,d) 
#define _Static_assert(...);

  // add includes
  #include "/usr/lib/llvm-16/include/mlir/Dialect/LLVMIR/FunctionCallUtils.h"
  #include "/usr/lib/llvm-16/include/mlir/Dialect/LLVMIR/LLVMAttrs.h"
  #include "/usr/lib/llvm-16/include/mlir/Dialect/LLVMIR/LLVMDialect.h"
  #include "/usr/lib/llvm-16/include/mlir/Dialect/LLVMIR/LLVMTypes.h"
  #include "/usr/lib/llvm-16/include/mlir/Dialect/LLVMIR/NVVMDialect.h"
  #include "/usr/lib/llvm-16/include/mlir/Dialect/LLVMIR/ROCDLDialect.h"
  #include "/usr/lib/llvm-16/include/mlir/Dialect/LLVMIR/Transforms/LegalizeForExport.h"
  #include "/usr/lib/llvm-16/include/mlir/Dialect/LLVMIR/Transforms/OptimizeForNVVM.h"
  #include "/usr/lib/llvm-16/include/mlir/Dialect/LLVMIR/Transforms/Passes.h"
  #include "/usr/lib/llvm-16/include/mlir/Dialect/LLVMIR/Transforms/RequestCWrappers.h"

  // add namespaces
  namespace llvm{typedef int tmp_add_type_1;}
  llvm::tmp_add_type_1 tmp_add_func_1(){return 0;};
  namespace llvm{namespace APIntOps{typedef int tmp_add_type_2;}}
  llvm::APIntOps::tmp_add_type_2 tmp_add_func_2(){return 0;};
  namespace llvm{namespace AttributeFuncs{typedef int tmp_add_type_3;}}
  llvm::AttributeFuncs::tmp_add_type_3 tmp_add_func_3(){return 0;};
  namespace llvm{namespace BitmaskEnumDetail{typedef int tmp_add_type_4;}}
  llvm::BitmaskEnumDetail::tmp_add_type_4 tmp_add_func_4(){return 0;};
  namespace llvm{namespace CallingConv{typedef int tmp_add_type_5;}}
  llvm::CallingConv::tmp_add_type_5 tmp_add_func_5(){return 0;};
  namespace llvm{namespace cl{typedef int tmp_add_type_6;}}
  llvm::cl::tmp_add_type_6 tmp_add_func_6(){return 0;};
  namespace llvm{namespace cl{namespace detail{typedef int tmp_add_type_7;}}}
  llvm::cl::detail::tmp_add_type_7 tmp_add_func_7(){return 0;};
  namespace llvm{namespace CodeGenOpt{typedef int tmp_add_type_8;}}
  llvm::CodeGenOpt::tmp_add_type_8 tmp_add_func_8(){return 0;};
  namespace llvm{namespace CodeModel{typedef int tmp_add_type_9;}}
  llvm::CodeModel::tmp_add_type_9 tmp_add_func_9(){return 0;};
  namespace llvm{namespace detail{typedef int tmp_add_type_10;}}
  llvm::detail::tmp_add_type_10 tmp_add_func_10(){return 0;};
  namespace llvm{namespace details{typedef int tmp_add_type_11;}}
  llvm::details::tmp_add_type_11 tmp_add_func_11(){return 0;};
  namespace llvm{namespace hashing{typedef int tmp_add_type_12;}}
  llvm::hashing::tmp_add_type_12 tmp_add_func_12(){return 0;};
  namespace llvm{namespace hashing{namespace detail{typedef int tmp_add_type_13;}}}
  llvm::hashing::detail::tmp_add_type_13 tmp_add_func_13(){return 0;};
  namespace llvm{namespace Intrinsic{typedef int tmp_add_type_14;}}
  llvm::Intrinsic::tmp_add_type_14 tmp_add_func_14(){return 0;};
  namespace llvm{namespace mdconst{typedef int tmp_add_type_15;}}
  llvm::mdconst::tmp_add_type_15 tmp_add_func_15(){return 0;};
  namespace llvm{namespace mdconst{namespace detail{typedef int tmp_add_type_16;}}}
  llvm::mdconst::detail::tmp_add_type_16 tmp_add_func_16(){return 0;};
  namespace llvm{namespace numbers{typedef int tmp_add_type_17;}}
  llvm::numbers::tmp_add_type_17 tmp_add_func_17(){return 0;};
  namespace llvm{namespace PICLevel{typedef int tmp_add_type_18;}}
  llvm::PICLevel::tmp_add_type_18 tmp_add_func_18(){return 0;};
  namespace llvm{namespace PIELevel{typedef int tmp_add_type_19;}}
  llvm::PIELevel::tmp_add_type_19 tmp_add_func_19(){return 0;};
  namespace llvm{namespace Reloc{typedef int tmp_add_type_20;}}
  llvm::Reloc::tmp_add_type_20 tmp_add_func_20(){return 0;};
  namespace llvm{namespace remarks{typedef int tmp_add_type_21;}}
  llvm::remarks::tmp_add_type_21 tmp_add_func_21(){return 0;};
  namespace llvm{namespace support{typedef int tmp_add_type_22;}}
  llvm::support::tmp_add_type_22 tmp_add_func_22(){return 0;};
  namespace llvm{namespace support{namespace detail{typedef int tmp_add_type_23;}}}
  llvm::support::detail::tmp_add_type_23 tmp_add_func_23(){return 0;};
  namespace llvm{namespace support{namespace endian{typedef int tmp_add_type_24;}}}
  llvm::support::endian::tmp_add_type_24 tmp_add_func_24(){return 0;};
  namespace llvm{namespace SyncScope{typedef int tmp_add_type_25;}}
  llvm::SyncScope::tmp_add_type_25 tmp_add_func_25(){return 0;};
  namespace llvm{namespace sys{typedef int tmp_add_type_26;}}
  llvm::sys::tmp_add_type_26 tmp_add_func_26(){return 0;};
  namespace llvm{namespace sys{namespace fs{typedef int tmp_add_type_27;}}}
  llvm::sys::fs::tmp_add_type_27 tmp_add_func_27(){return 0;};
  namespace llvm{namespace TLSModel{typedef int tmp_add_type_28;}}
  llvm::TLSModel::tmp_add_type_28 tmp_add_func_28(){return 0;};
  namespace llvm{namespace vfs{typedef int tmp_add_type_29;}}
  llvm::vfs::tmp_add_type_29 tmp_add_func_29(){return 0;};
  namespace llvm{namespace ZeroCallUsedRegs{typedef int tmp_add_type_30;}}
  llvm::ZeroCallUsedRegs::tmp_add_type_30 tmp_add_func_30(){return 0;};
  namespace mlir{typedef int tmp_add_type_31;}
  mlir::tmp_add_type_31 tmp_add_func_31(){return 0;};
  namespace mlir{namespace AttributeTrait{typedef int tmp_add_type_32;}}
  mlir::AttributeTrait::tmp_add_type_32 tmp_add_func_32(){return 0;};
  namespace mlir{namespace detail{typedef int tmp_add_type_33;}}
  mlir::detail::tmp_add_type_33 tmp_add_func_33(){return 0;};
  namespace mlir{namespace detail{namespace StorageUserTrait{typedef int tmp_add_type_34;}}}
  mlir::detail::StorageUserTrait::tmp_add_type_34 tmp_add_func_34(){return 0;};
  namespace mlir{namespace impl{typedef int tmp_add_type_35;}}
  mlir::impl::tmp_add_type_35 tmp_add_func_35(){return 0;};
  namespace mlir{namespace LLVM{typedef int tmp_add_type_36;}}
  mlir::LLVM::tmp_add_type_36 tmp_add_func_36(){return 0;};
  namespace mlir{namespace LLVM{namespace cconv{typedef int tmp_add_type_37;}}}
  mlir::LLVM::cconv::tmp_add_type_37 tmp_add_func_37(){return 0;};
  namespace mlir{namespace LLVM{namespace detail{typedef int tmp_add_type_38;}}}
  mlir::LLVM::detail::tmp_add_type_38 tmp_add_func_38(){return 0;};
  namespace mlir{namespace LLVM{namespace linkage{typedef int tmp_add_type_39;}}}
  mlir::LLVM::linkage::tmp_add_type_39 tmp_add_func_39(){return 0;};
  namespace mlir{namespace MemoryEffects{typedef int tmp_add_type_40;}}
  mlir::MemoryEffects::tmp_add_type_40 tmp_add_func_40(){return 0;};
  namespace mlir{namespace NVVM{typedef int tmp_add_type_41;}}
  mlir::NVVM::tmp_add_type_41 tmp_add_func_41(){return 0;};
  namespace mlir{namespace NVVM{namespace detail{typedef int tmp_add_type_42;}}}
  mlir::NVVM::detail::tmp_add_type_42 tmp_add_func_42(){return 0;};
  namespace mlir{namespace OpTrait{typedef int tmp_add_type_43;}}
  mlir::OpTrait::tmp_add_type_43 tmp_add_func_43(){return 0;};
  namespace mlir{namespace OpTrait{namespace detail{typedef int tmp_add_type_44;}}}
  mlir::OpTrait::detail::tmp_add_type_44 tmp_add_func_44(){return 0;};
  namespace mlir{namespace OpTrait{namespace impl{typedef int tmp_add_type_45;}}}
  mlir::OpTrait::impl::tmp_add_type_45 tmp_add_func_45(){return 0;};
  namespace mlir{namespace ROCDL{typedef int tmp_add_type_46;}}
  mlir::ROCDL::tmp_add_type_46 tmp_add_func_46(){return 0;};
  namespace mlir{namespace ROCDL{namespace detail{typedef int tmp_add_type_47;}}}
  mlir::ROCDL::detail::tmp_add_type_47 tmp_add_func_47(){return 0;};
  namespace mlir{namespace SideEffects{typedef int tmp_add_type_48;}}
  mlir::SideEffects::tmp_add_type_48 tmp_add_func_48(){return 0;};
  namespace mlir{namespace Speculation{typedef int tmp_add_type_49;}}
  mlir::Speculation::tmp_add_type_49 tmp_add_func_49(){return 0;};
  namespace mlir{namespace TypeTrait{typedef int tmp_add_type_50;}}
  mlir::TypeTrait::tmp_add_type_50 tmp_add_func_50(){return 0;};
  namespace llvm{namespace adl_detail{typedef int tmp_add_type_51;}}
  llvm::adl_detail::tmp_add_type_51 tmp_add_func_51(){return 0;};
  namespace llvm{namespace bitfields_details{typedef int tmp_add_type_52;}}
  llvm::bitfields_details::tmp_add_type_52 tmp_add_func_52(){return 0;};
  namespace llvm{namespace callable_detail{typedef int tmp_add_type_53;}}
  llvm::callable_detail::tmp_add_type_53 tmp_add_func_53(){return 0;};
  namespace llvm{namespace ilist_detail{typedef int tmp_add_type_54;}}
  llvm::ilist_detail::tmp_add_type_54 tmp_add_func_54(){return 0;};
  namespace llvm{namespace pointer_union_detail{typedef int tmp_add_type_55;}}
  llvm::pointer_union_detail::tmp_add_type_55 tmp_add_func_55(){return 0;};
  namespace llvm{namespace trailing_objects_internal{typedef int tmp_add_type_56;}}
  llvm::trailing_objects_internal::tmp_add_type_56 tmp_add_func_56(){return 0;};
  namespace mlir{namespace detail{namespace analysis_impl{typedef int tmp_add_type_57;}}}
  mlir::detail::analysis_impl::tmp_add_type_57 tmp_add_func_57(){return 0;};
  namespace mlir{namespace detail{namespace pass_options{typedef int tmp_add_type_58;}}}
  mlir::detail::pass_options::tmp_add_type_58 tmp_add_func_58(){return 0;};
  namespace mlir{namespace detail{namespace storage_user_base_impl{typedef int tmp_add_type_59;}}}
  mlir::detail::storage_user_base_impl::tmp_add_type_59 tmp_add_func_59(){return 0;};
  namespace mlir{namespace function_interface_impl{typedef int tmp_add_type_60;}}
  mlir::function_interface_impl::tmp_add_type_60 tmp_add_func_60(){return 0;};
  namespace mlir{namespace op_definition_impl{typedef int tmp_add_type_61;}}
  mlir::op_definition_impl::tmp_add_type_61 tmp_add_func_61(){return 0;};

  // add classes
  _G_fpos64_t* tmp_add_class_0;
  _G_fpos_t* tmp_add_class_1;
  _IO_cookie_io_functions_t* tmp_add_class_2;

The GCC parameters:
  gcc -fdump-lang-raw -fkeep-inline-functions -c -x c++ -fpermissive -w "/tmp/N0dLrB19to/dump1.h"  -I/usr/include/llvm-c-16 -I/usr/include/llvm-16 -I/usr/lib/llvm-16/include

Creating library ABI dump ...
Dump path: out/logs/libmlir-16-dev=dialect-llvmir/libmlir-16-dev=dialect-llvmir_time_t.dump
