Temporary header file '/tmp/vuOm_rlyzd/dump1.h' with the following content will be compiled to create GCC translation unit dump:

  // add defines
  #define __STDC_VERSION__ 201710L
#define _GXX_NULLPTR_T
#define CLUTTER_ENABLE_COMPOSITOR_API 1
#define _REGEX_NELTS(n)
#define _Atomic
#define PACKED
#ifdef __cplusplus
// C17 compat layer
#define _Alignof(type) alignof(type)
#endif
#define getaddrinfo_a(a,b,c,d)

  // add includes
  #include "/usr/include/wn.h"
  #include "/usr/include/wngrind.h"

  // add classes
  _G_fpos64_t* tmp_add_class_0;
  _G_fpos_t* tmp_add_class_1;
  _IO_cookie_io_functions_t* tmp_add_class_2;
  flist* tmp_add_class_3;
  framelist* tmp_add_class_4;
  pointer* tmp_add_class_5;
  si* tmp_add_class_6;
  ss* tmp_add_class_7;
  symbol* tmp_add_class_8;
  synlist* tmp_add_class_9;
  synonym* tmp_add_class_10;
  synset* tmp_add_class_11;

The GCC parameters:
  gcc -fdump-lang-raw -fkeep-inline-functions -c -x c++ -fpermissive -w "/tmp/vuOm_rlyzd/dump1.h"

