[2024-01-06T20:14:36+00:00] apt-get install liberfa-dev abi-compliance-checker
Reading package lists...
Building dependency tree...
Reading state information...
abi-compliance-checker is already the newest version (2.3-2).
The following packages were automatically installed and are no longer required:
  liberasurecode-dev liberasurecode1
Use 'apt autoremove' to remove them.
The following NEW packages will be installed:
  liberfa-dev liberfa1
0 upgraded, 2 newly installed, 0 to remove and 12 not upgraded.
Need to get 251 kB of archives.
After this operation, 1011 kB of additional disk space will be used.
Get:1 http://deb.debian.org/debian unstable/main armhf liberfa1 armhf 2.0.1-1 [118 kB]
Get:2 http://deb.debian.org/debian unstable/main armhf liberfa-dev armhf 2.0.1-1 [133 kB]
debconf: delaying package configuration, since apt-utils is not installed
Fetched 251 kB in 0s (609 kB/s)
Selecting previously unselected package liberfa1:armhf.
(Reading database ... (Reading database ... 5%(Reading database ... 10%(Reading database ... 15%(Reading database ... 20%(Reading database ... 25%(Reading database ... 30%(Reading database ... 35%(Reading database ... 40%(Reading database ... 45%(Reading database ... 50%(Reading database ... 55%(Reading database ... 60%(Reading database ... 65%(Reading database ... 70%(Reading database ... 75%(Reading database ... 80%(Reading database ... 85%(Reading database ... 90%(Reading database ... 95%(Reading database ... 100%(Reading database ... 20071 files and directories currently installed.)
Preparing to unpack .../liberfa1_2.0.1-1_armhf.deb ...
Unpacking liberfa1:armhf (2.0.1-1) ...
Selecting previously unselected package liberfa-dev:armhf.
Preparing to unpack .../liberfa-dev_2.0.1-1_armhf.deb ...
Unpacking liberfa-dev:armhf (2.0.1-1) ...
Setting up liberfa1:armhf (2.0.1-1) ...
Setting up liberfa-dev:armhf (2.0.1-1) ...
Processing triggers for libc-bin (2.37-13) ...
Reading package lists...
Building dependency tree...
Reading state information...
The following packages will be REMOVED:
  liberasurecode-dev* liberasurecode1*
0 upgraded, 0 newly installed, 2 to remove and 12 not upgraded.
After this operation, 225 kB disk space will be freed.
(Reading database ... (Reading database ... 5%(Reading database ... 10%(Reading database ... 15%(Reading database ... 20%(Reading database ... 25%(Reading database ... 30%(Reading database ... 35%(Reading database ... 40%(Reading database ... 45%(Reading database ... 50%(Reading database ... 55%(Reading database ... 60%(Reading database ... 65%(Reading database ... 70%(Reading database ... 75%(Reading database ... 80%(Reading database ... 85%(Reading database ... 90%(Reading database ... 95%(Reading database ... 100%(Reading database ... 20090 files and directories currently installed.)
Removing liberasurecode-dev:armhf (1.6.2-1) ...
Removing liberasurecode1:armhf (1.6.2-1) ...
Processing triggers for libc-bin (2.37-13) ...
