[2024-01-07T10:46:06+00:00] apt-get install libgstreamermm-1.0-dev abi-compliance-checker
Reading package lists...
Building dependency tree...
Reading state information...
abi-compliance-checker is already the newest version (2.3-2).
The following additional packages will be installed:
  gir1.2-gst-plugins-base-1.0 gir1.2-gudev-1.0 icu-devtools iso-codes
  libdrm-amdgpu1 libdrm-common libdrm-dev libdrm-etnaviv1 libdrm-exynos1
  libdrm-freedreno1 libdrm-nouveau2 libdrm-omap1 libdrm-radeon1 libdrm-tegra0
  libdrm2 libedit2 libegl-dev libegl-mesa0 libegl1 libgbm-dev libgbm1
  libgl-dev libgl1 libgl1-mesa-dri libglapi-mesa libgles-dev libgles1 libgles2
  libglibmm-2.4-1v5 libglibmm-2.4-dev libglvnd0 libglx-dev libglx-mesa0
  libglx0 libgstreamer-gl1.0-0 libgstreamer-plugins-base1.0-0
  libgstreamer-plugins-base1.0-dev libgstreamermm-1.0-1 libgudev-1.0-0
  libgudev-1.0-dev libicu-dev libllvm17 liborc-0.4-0 liborc-0.4-dev
  liborc-0.4-dev-bin libpciaccess-dev libpciaccess0 libpthread-stubs0-dev
  libsensors-config libsensors5 libsigc++-2.0-0v5 libsigc++-2.0-dev
  libudev-dev libvulkan1 libwayland-bin libwayland-client0 libwayland-cursor0
  libwayland-dev libwayland-egl1 libwayland-server0 libx11-6 libx11-data
  libx11-dev libx11-xcb-dev libx11-xcb1 libxau-dev libxau6 libxcb-dri2-0
  libxcb-dri3-0 libxcb-glx0 libxcb-present0 libxcb-randr0 libxcb-shm0
  libxcb-sync1 libxcb-xfixes0 libxcb1 libxcb1-dev libxdmcp-dev libxdmcp6
  libxext6 libxfixes3 libxml++2.6-2v5 libxml++2.6-dev libxml2-dev
  libxshmfence1 libxxf86vm1 libz3-4 x11proto-dev xorg-sgml-doctools xtrans-dev
Suggested packages:
  isoquery libglibmm-2.4-doc libgtkmm-3.0-dev libvisual-0.4-plugins
  libgstreamermm-1.0-doc icu-doc liborc-0.4-doc pciutils lm-sensors
  libsigc++-2.0-doc libwayland-doc libx11-doc libxcb-doc libxml++2.6-doc
Recommended packages:
  gstreamer1.0-gl gstreamer1.0-plugins-base gstreamer1.0-alsa gstreamer1.0-x
  mesa-vulkan-drivers | vulkan-icd
The following NEW packages will be installed:
  gir1.2-gst-plugins-base-1.0 gir1.2-gudev-1.0 icu-devtools iso-codes
  libdrm-amdgpu1 libdrm-common libdrm-dev libdrm-etnaviv1 libdrm-exynos1
  libdrm-freedreno1 libdrm-nouveau2 libdrm-omap1 libdrm-radeon1 libdrm-tegra0
  libdrm2 libedit2 libegl-dev libegl-mesa0 libegl1 libgbm-dev libgbm1
  libgl-dev libgl1 libgl1-mesa-dri libglapi-mesa libgles-dev libgles1 libgles2
  libglibmm-2.4-1v5 libglibmm-2.4-dev libglvnd0 libglx-dev libglx-mesa0
  libglx0 libgstreamer-gl1.0-0 libgstreamer-plugins-base1.0-0
  libgstreamer-plugins-base1.0-dev libgstreamermm-1.0-1 libgstreamermm-1.0-dev
  libgudev-1.0-0 libgudev-1.0-dev libicu-dev libllvm17 liborc-0.4-0
  liborc-0.4-dev liborc-0.4-dev-bin libpciaccess-dev libpciaccess0
  libpthread-stubs0-dev libsensors-config libsensors5 libsigc++-2.0-0v5
  libsigc++-2.0-dev libudev-dev libvulkan1 libwayland-bin libwayland-client0
  libwayland-cursor0 libwayland-dev libwayland-egl1 libwayland-server0
  libx11-6 libx11-data libx11-dev libx11-xcb-dev libx11-xcb1 libxau-dev
  libxau6 libxcb-dri2-0 libxcb-dri3-0 libxcb-glx0 libxcb-present0
  libxcb-randr0 libxcb-shm0 libxcb-sync1 libxcb-xfixes0 libxcb1 libxcb1-dev
  libxdmcp-dev libxdmcp6 libxext6 libxfixes3 libxml++2.6-2v5 libxml++2.6-dev
  libxml2-dev libxshmfence1 libxxf86vm1 libz3-4 x11proto-dev
  xorg-sgml-doctools xtrans-dev
0 upgraded, 91 newly installed, 0 to remove and 37 not upgraded.
Need to get 58.3 MB of archives.
After this operation, 258 MB of additional disk space will be used.
Get:1 http://deb.debian.org/debian unstable/main armhf libdrm-common all 2.4.117-1 [7264 B]
Get:2 http://deb.debian.org/debian unstable/main armhf libdrm2 armhf 2.4.117-1 [33.1 kB]
Get:3 http://deb.debian.org/debian unstable/main armhf libglvnd0 armhf 1.7.0-1 [52.3 kB]
Get:4 http://deb.debian.org/debian unstable/main armhf libwayland-server0 armhf 1.22.0-2.1 [26.1 kB]
Get:5 http://deb.debian.org/debian unstable/main armhf libxau6 armhf 1:1.0.9-1 [19.0 kB]
Get:6 http://deb.debian.org/debian unstable/main armhf libxdmcp6 armhf 1:1.1.2-3 [24.9 kB]
Get:7 http://deb.debian.org/debian unstable/main armhf libxcb1 armhf 1.15-1 [140 kB]
Get:8 http://deb.debian.org/debian unstable/main armhf libxcb-randr0 armhf 1.15-1 [116 kB]
Get:9 http://deb.debian.org/debian unstable/main armhf libgbm1 armhf 23.3.2-2 [36.4 kB]
Get:10 http://deb.debian.org/debian unstable/main armhf libglapi-mesa armhf 23.3.2-2 [42.3 kB]
Get:11 http://deb.debian.org/debian unstable/main armhf libwayland-client0 armhf 1.22.0-2.1 [20.0 kB]
Get:12 http://deb.debian.org/debian unstable/main armhf libx11-data all 2:1.8.7-1 [328 kB]
Get:13 http://deb.debian.org/debian unstable/main armhf libx11-6 armhf 2:1.8.7-1 [735 kB]
Get:14 http://deb.debian.org/debian unstable/main armhf libx11-xcb1 armhf 2:1.8.7-1 [231 kB]
Get:15 http://deb.debian.org/debian unstable/main armhf libxcb-dri2-0 armhf 1.15-1 [107 kB]
Get:16 http://deb.debian.org/debian unstable/main armhf libxcb-dri3-0 armhf 1.15-1 [107 kB]
Get:17 http://deb.debian.org/debian unstable/main armhf libxcb-present0 armhf 1.15-1 [105 kB]
Get:18 http://deb.debian.org/debian unstable/main armhf libxcb-sync1 armhf 1.15-1 [108 kB]
Get:19 http://deb.debian.org/debian unstable/main armhf libxcb-xfixes0 armhf 1.15-1 [110 kB]
Get:20 http://deb.debian.org/debian unstable/main armhf libxshmfence1 armhf 1.3-1 [8592 B]
Get:21 http://deb.debian.org/debian unstable/main armhf libegl-mesa0 armhf 23.3.2-2 [97.7 kB]
Get:22 http://deb.debian.org/debian unstable/main armhf libegl1 armhf 1.7.0-1 [28.7 kB]
Get:23 http://deb.debian.org/debian unstable/main armhf libxcb-glx0 armhf 1.15-1 [120 kB]
Get:24 http://deb.debian.org/debian unstable/main armhf libxcb-shm0 armhf 1.15-1 [106 kB]
Get:25 http://deb.debian.org/debian unstable/main armhf libxext6 armhf 2:1.3.4-1+b1 [47.8 kB]
Get:26 http://deb.debian.org/debian unstable/main armhf libxfixes3 armhf 1:6.0.0-2 [21.1 kB]
Get:27 http://deb.debian.org/debian unstable/main armhf libxxf86vm1 armhf 1:1.1.4-1+b2 [20.2 kB]
Get:28 http://deb.debian.org/debian unstable/main armhf libvulkan1 armhf 1.3.268.0-1 [107 kB]
Get:29 http://deb.debian.org/debian unstable/main armhf libdrm-amdgpu1 armhf 2.4.117-1 [19.6 kB]
Get:30 http://deb.debian.org/debian unstable/main armhf libdrm-nouveau2 armhf 2.4.117-1 [16.6 kB]
Get:31 http://deb.debian.org/debian unstable/main armhf libdrm-radeon1 armhf 2.4.117-1 [19.1 kB]
Get:32 http://deb.debian.org/debian unstable/main armhf libedit2 armhf 3.1-20230828-1 [76.8 kB]
Get:33 http://deb.debian.org/debian unstable/main armhf libz3-4 armhf 4.8.12-3.1+b2 [6324 kB]
Get:34 http://deb.debian.org/debian unstable/main armhf libllvm17 armhf 1:17.0.6-3 [21.6 MB]
Get:35 http://deb.debian.org/debian unstable/main armhf libsensors-config all 1:3.6.0-8 [14.4 kB]
Get:36 http://deb.debian.org/debian unstable/main armhf libsensors5 armhf 1:3.6.0-8 [31.6 kB]
Get:37 http://deb.debian.org/debian unstable/main armhf libgl1-mesa-dri armhf 23.3.2-2 [6398 kB]
Get:38 http://deb.debian.org/debian unstable/main armhf libglx-mesa0 armhf 23.3.2-2 [129 kB]
Get:39 http://deb.debian.org/debian unstable/main armhf libglx0 armhf 1.7.0-1 [32.2 kB]
Get:40 http://deb.debian.org/debian unstable/main armhf libgl1 armhf 1.7.0-1 [90.8 kB]
Get:41 http://deb.debian.org/debian unstable/main armhf liborc-0.4-0 armhf 1:0.4.34-3 [143 kB]
Get:42 http://deb.debian.org/debian unstable/main armhf iso-codes all 4.15.0-1 [2906 kB]
Get:43 http://deb.debian.org/debian unstable/main armhf libgstreamer-plugins-base1.0-0 armhf 1.22.8-1 [873 kB]
Get:44 http://deb.debian.org/debian unstable/main armhf libgudev-1.0-0 armhf 238-3 [12.5 kB]
Get:45 http://deb.debian.org/debian unstable/main armhf libwayland-cursor0 armhf 1.22.0-2.1 [9908 B]
Get:46 http://deb.debian.org/debian unstable/main armhf libwayland-egl1 armhf 1.22.0-2.1 [5124 B]
Get:47 http://deb.debian.org/debian unstable/main armhf libgstreamer-gl1.0-0 armhf 1.22.8-1 [237 kB]
Get:48 http://deb.debian.org/debian unstable/main armhf gir1.2-gst-plugins-base-1.0 armhf 1.22.8-1 [166 kB]
Get:49 http://deb.debian.org/debian unstable/main armhf gir1.2-gudev-1.0 armhf 238-3 [5040 B]
Get:50 http://deb.debian.org/debian unstable/main armhf icu-devtools armhf 72.1-4 [184 kB]
Get:51 http://deb.debian.org/debian unstable/main armhf libdrm-omap1 armhf 2.4.117-1 [8372 B]
Get:52 http://deb.debian.org/debian unstable/main armhf libdrm-freedreno1 armhf 2.4.117-1 [18.3 kB]
Get:53 http://deb.debian.org/debian unstable/main armhf libdrm-exynos1 armhf 2.4.117-1 [12.3 kB]
Get:54 http://deb.debian.org/debian unstable/main armhf libdrm-tegra0 armhf 2.4.117-1 [9784 B]
Get:55 http://deb.debian.org/debian unstable/main armhf libdrm-etnaviv1 armhf 2.4.117-1 [12.2 kB]
Get:56 http://deb.debian.org/debian unstable/main armhf libpciaccess0 armhf 0.17-3 [49.0 kB]
Get:57 http://deb.debian.org/debian unstable/main armhf libpciaccess-dev armhf 0.17-3 [53.6 kB]
Get:58 http://deb.debian.org/debian unstable/main armhf libdrm-dev armhf 2.4.117-1 [254 kB]
Get:59 http://deb.debian.org/debian unstable/main armhf xorg-sgml-doctools all 1:1.11-1.1 [22.1 kB]
Get:60 http://deb.debian.org/debian unstable/main armhf x11proto-dev all 2023.2-1 [598 kB]
Get:61 http://deb.debian.org/debian unstable/main armhf libxau-dev armhf 1:1.0.9-1 [22.4 kB]
Get:62 http://deb.debian.org/debian unstable/main armhf libxdmcp-dev armhf 1:1.1.2-3 [40.7 kB]
Get:63 http://deb.debian.org/debian unstable/main armhf xtrans-dev all 1.4.0-1 [98.7 kB]
Get:64 http://deb.debian.org/debian unstable/main armhf libpthread-stubs0-dev armhf 0.4-1 [5344 B]
Get:65 http://deb.debian.org/debian unstable/main armhf libxcb1-dev armhf 1.15-1 [179 kB]
Get:66 http://deb.debian.org/debian unstable/main armhf libx11-dev armhf 2:1.8.7-1 [816 kB]
Get:67 http://deb.debian.org/debian unstable/main armhf libglx-dev armhf 1.7.0-1 [15.5 kB]
Get:68 http://deb.debian.org/debian unstable/main armhf libgl-dev armhf 1.7.0-1 [100 kB]
Get:69 http://deb.debian.org/debian unstable/main armhf libegl-dev armhf 1.7.0-1 [19.2 kB]
Get:70 http://deb.debian.org/debian unstable/main armhf libgbm-dev armhf 23.3.2-2 [20.0 kB]
Get:71 http://deb.debian.org/debian unstable/main armhf libgles1 armhf 1.7.0-1 [12.0 kB]
Get:72 http://deb.debian.org/debian unstable/main armhf libgles2 armhf 1.7.0-1 [17.4 kB]
Get:73 http://deb.debian.org/debian unstable/main armhf libgles-dev armhf 1.7.0-1 [50.5 kB]
Get:74 http://deb.debian.org/debian unstable/main armhf libsigc++-2.0-0v5 armhf 2.12.1-1 [22.8 kB]
Get:75 http://deb.debian.org/debian unstable/main armhf libglibmm-2.4-1v5 armhf 2.66.6-2 [504 kB]
Get:76 http://deb.debian.org/debian unstable/main armhf libsigc++-2.0-dev armhf 2.12.1-1 [72.1 kB]
Get:77 http://deb.debian.org/debian unstable/main armhf libglibmm-2.4-dev armhf 2.66.6-2 [466 kB]
Get:78 http://deb.debian.org/debian unstable/main armhf liborc-0.4-dev-bin armhf 1:0.4.34-3 [18.9 kB]
Get:79 http://deb.debian.org/debian unstable/main armhf liborc-0.4-dev armhf 1:0.4.34-3 [27.7 kB]
Get:80 http://deb.debian.org/debian unstable/main armhf libx11-xcb-dev armhf 2:1.8.7-1 [234 kB]
Get:81 http://deb.debian.org/debian unstable/main armhf libwayland-bin armhf 1.22.0-2.1 [17.7 kB]
Get:82 http://deb.debian.org/debian unstable/main armhf libwayland-dev armhf 1.22.0-2.1 [70.3 kB]
Get:83 http://deb.debian.org/debian unstable/main armhf libudev-dev armhf 255.2-4 [59.2 kB]
Get:84 http://deb.debian.org/debian unstable/main armhf libgudev-1.0-dev armhf 238-3 [29.0 kB]
Get:85 http://deb.debian.org/debian unstable/main armhf libgstreamer-plugins-base1.0-dev armhf 1.22.8-1 [521 kB]
Get:86 http://deb.debian.org/debian unstable/main armhf libgstreamermm-1.0-1 armhf 1.10.0+dfsg-4+b1 [394 kB]
Get:87 http://deb.debian.org/debian unstable/main armhf libxml++2.6-2v5 armhf 2.40.1-3 [78.5 kB]
Get:88 http://deb.debian.org/debian unstable/main armhf libicu-dev armhf 72.1-4 [10.1 MB]
Get:89 http://deb.debian.org/debian unstable/main armhf libxml2-dev armhf 2.9.14+dfsg-1.3+b2 [717 kB]
Get:90 http://deb.debian.org/debian unstable/main armhf libxml++2.6-dev armhf 2.40.1-3 [57.4 kB]
Get:91 http://deb.debian.org/debian unstable/main armhf libgstreamermm-1.0-dev armhf 1.10.0+dfsg-4+b1 [346 kB]
debconf: delaying package configuration, since apt-utils is not installed
Fetched 58.3 MB in 2s (25.8 MB/s)
Selecting previously unselected package libdrm-common.
(Reading database ... (Reading database ... 5%(Reading database ... 10%(Reading database ... 15%(Reading database ... 20%(Reading database ... 25%(Reading database ... 30%(Reading database ... 35%(Reading database ... 40%(Reading database ... 45%(Reading database ... 50%(Reading database ... 55%(Reading database ... 60%(Reading database ... 65%(Reading database ... 70%(Reading database ... 75%(Reading database ... 80%(Reading database ... 85%(Reading database ... 90%(Reading database ... 95%(Reading database ... 100%(Reading database ... 16635 files and directories currently installed.)
Preparing to unpack .../00-libdrm-common_2.4.117-1_all.deb ...
Unpacking libdrm-common (2.4.117-1) ...
Selecting previously unselected package libdrm2:armhf.
Preparing to unpack .../01-libdrm2_2.4.117-1_armhf.deb ...
Unpacking libdrm2:armhf (2.4.117-1) ...
Selecting previously unselected package libglvnd0:armhf.
Preparing to unpack .../02-libglvnd0_1.7.0-1_armhf.deb ...
Unpacking libglvnd0:armhf (1.7.0-1) ...
Selecting previously unselected package libwayland-server0:armhf.
Preparing to unpack .../03-libwayland-server0_1.22.0-2.1_armhf.deb ...
Unpacking libwayland-server0:armhf (1.22.0-2.1) ...
Selecting previously unselected package libxau6:armhf.
Preparing to unpack .../04-libxau6_1%3a1.0.9-1_armhf.deb ...
Unpacking libxau6:armhf (1:1.0.9-1) ...
Selecting previously unselected package libxdmcp6:armhf.
Preparing to unpack .../05-libxdmcp6_1%3a1.1.2-3_armhf.deb ...
Unpacking libxdmcp6:armhf (1:1.1.2-3) ...
Selecting previously unselected package libxcb1:armhf.
Preparing to unpack .../06-libxcb1_1.15-1_armhf.deb ...
Unpacking libxcb1:armhf (1.15-1) ...
Selecting previously unselected package libxcb-randr0:armhf.
Preparing to unpack .../07-libxcb-randr0_1.15-1_armhf.deb ...
Unpacking libxcb-randr0:armhf (1.15-1) ...
Selecting previously unselected package libgbm1:armhf.
Preparing to unpack .../08-libgbm1_23.3.2-2_armhf.deb ...
Unpacking libgbm1:armhf (23.3.2-2) ...
Selecting previously unselected package libglapi-mesa:armhf.
Preparing to unpack .../09-libglapi-mesa_23.3.2-2_armhf.deb ...
Unpacking libglapi-mesa:armhf (23.3.2-2) ...
Selecting previously unselected package libwayland-client0:armhf.
Preparing to unpack .../10-libwayland-client0_1.22.0-2.1_armhf.deb ...
Unpacking libwayland-client0:armhf (1.22.0-2.1) ...
Selecting previously unselected package libx11-data.
Preparing to unpack .../11-libx11-data_2%3a1.8.7-1_all.deb ...
Unpacking libx11-data (2:1.8.7-1) ...
Selecting previously unselected package libx11-6:armhf.
Preparing to unpack .../12-libx11-6_2%3a1.8.7-1_armhf.deb ...
Unpacking libx11-6:armhf (2:1.8.7-1) ...
Selecting previously unselected package libx11-xcb1:armhf.
Preparing to unpack .../13-libx11-xcb1_2%3a1.8.7-1_armhf.deb ...
Unpacking libx11-xcb1:armhf (2:1.8.7-1) ...
Selecting previously unselected package libxcb-dri2-0:armhf.
Preparing to unpack .../14-libxcb-dri2-0_1.15-1_armhf.deb ...
Unpacking libxcb-dri2-0:armhf (1.15-1) ...
Selecting previously unselected package libxcb-dri3-0:armhf.
Preparing to unpack .../15-libxcb-dri3-0_1.15-1_armhf.deb ...
Unpacking libxcb-dri3-0:armhf (1.15-1) ...
Selecting previously unselected package libxcb-present0:armhf.
Preparing to unpack .../16-libxcb-present0_1.15-1_armhf.deb ...
Unpacking libxcb-present0:armhf (1.15-1) ...
Selecting previously unselected package libxcb-sync1:armhf.
Preparing to unpack .../17-libxcb-sync1_1.15-1_armhf.deb ...
Unpacking libxcb-sync1:armhf (1.15-1) ...
Selecting previously unselected package libxcb-xfixes0:armhf.
Preparing to unpack .../18-libxcb-xfixes0_1.15-1_armhf.deb ...
Unpacking libxcb-xfixes0:armhf (1.15-1) ...
Selecting previously unselected package libxshmfence1:armhf.
Preparing to unpack .../19-libxshmfence1_1.3-1_armhf.deb ...
Unpacking libxshmfence1:armhf (1.3-1) ...
Selecting previously unselected package libegl-mesa0:armhf.
Preparing to unpack .../20-libegl-mesa0_23.3.2-2_armhf.deb ...
Unpacking libegl-mesa0:armhf (23.3.2-2) ...
Selecting previously unselected package libegl1:armhf.
Preparing to unpack .../21-libegl1_1.7.0-1_armhf.deb ...
Unpacking libegl1:armhf (1.7.0-1) ...
Selecting previously unselected package libxcb-glx0:armhf.
Preparing to unpack .../22-libxcb-glx0_1.15-1_armhf.deb ...
Unpacking libxcb-glx0:armhf (1.15-1) ...
Selecting previously unselected package libxcb-shm0:armhf.
Preparing to unpack .../23-libxcb-shm0_1.15-1_armhf.deb ...
Unpacking libxcb-shm0:armhf (1.15-1) ...
Selecting previously unselected package libxext6:armhf.
Preparing to unpack .../24-libxext6_2%3a1.3.4-1+b1_armhf.deb ...
Unpacking libxext6:armhf (2:1.3.4-1+b1) ...
Selecting previously unselected package libxfixes3:armhf.
Preparing to unpack .../25-libxfixes3_1%3a6.0.0-2_armhf.deb ...
Unpacking libxfixes3:armhf (1:6.0.0-2) ...
Selecting previously unselected package libxxf86vm1:armhf.
Preparing to unpack .../26-libxxf86vm1_1%3a1.1.4-1+b2_armhf.deb ...
Unpacking libxxf86vm1:armhf (1:1.1.4-1+b2) ...
Selecting previously unselected package libvulkan1:armhf.
Preparing to unpack .../27-libvulkan1_1.3.268.0-1_armhf.deb ...
Unpacking libvulkan1:armhf (1.3.268.0-1) ...
Selecting previously unselected package libdrm-amdgpu1:armhf.
Preparing to unpack .../28-libdrm-amdgpu1_2.4.117-1_armhf.deb ...
Unpacking libdrm-amdgpu1:armhf (2.4.117-1) ...
Selecting previously unselected package libdrm-nouveau2:armhf.
Preparing to unpack .../29-libdrm-nouveau2_2.4.117-1_armhf.deb ...
Unpacking libdrm-nouveau2:armhf (2.4.117-1) ...
Selecting previously unselected package libdrm-radeon1:armhf.
Preparing to unpack .../30-libdrm-radeon1_2.4.117-1_armhf.deb ...
Unpacking libdrm-radeon1:armhf (2.4.117-1) ...
Selecting previously unselected package libedit2:armhf.
Preparing to unpack .../31-libedit2_3.1-20230828-1_armhf.deb ...
Unpacking libedit2:armhf (3.1-20230828-1) ...
Selecting previously unselected package libz3-4:armhf.
Preparing to unpack .../32-libz3-4_4.8.12-3.1+b2_armhf.deb ...
Unpacking libz3-4:armhf (4.8.12-3.1+b2) ...
Selecting previously unselected package libllvm17:armhf.
Preparing to unpack .../33-libllvm17_1%3a17.0.6-3_armhf.deb ...
Unpacking libllvm17:armhf (1:17.0.6-3) ...
Selecting previously unselected package libsensors-config.
Preparing to unpack .../34-libsensors-config_1%3a3.6.0-8_all.deb ...
Unpacking libsensors-config (1:3.6.0-8) ...
Selecting previously unselected package libsensors5:armhf.
Preparing to unpack .../35-libsensors5_1%3a3.6.0-8_armhf.deb ...
Unpacking libsensors5:armhf (1:3.6.0-8) ...
Selecting previously unselected package libgl1-mesa-dri:armhf.
Preparing to unpack .../36-libgl1-mesa-dri_23.3.2-2_armhf.deb ...
Unpacking libgl1-mesa-dri:armhf (23.3.2-2) ...
Selecting previously unselected package libglx-mesa0:armhf.
Preparing to unpack .../37-libglx-mesa0_23.3.2-2_armhf.deb ...
Unpacking libglx-mesa0:armhf (23.3.2-2) ...
Selecting previously unselected package libglx0:armhf.
Preparing to unpack .../38-libglx0_1.7.0-1_armhf.deb ...
Unpacking libglx0:armhf (1.7.0-1) ...
Selecting previously unselected package libgl1:armhf.
Preparing to unpack .../39-libgl1_1.7.0-1_armhf.deb ...
Unpacking libgl1:armhf (1.7.0-1) ...
Selecting previously unselected package liborc-0.4-0:armhf.
Preparing to unpack .../40-liborc-0.4-0_1%3a0.4.34-3_armhf.deb ...
Unpacking liborc-0.4-0:armhf (1:0.4.34-3) ...
Selecting previously unselected package iso-codes.
Preparing to unpack .../41-iso-codes_4.15.0-1_all.deb ...
Unpacking iso-codes (4.15.0-1) ...
Selecting previously unselected package libgstreamer-plugins-base1.0-0:armhf.
Preparing to unpack .../42-libgstreamer-plugins-base1.0-0_1.22.8-1_armhf.deb ...
Unpacking libgstreamer-plugins-base1.0-0:armhf (1.22.8-1) ...
Selecting previously unselected package libgudev-1.0-0:armhf.
Preparing to unpack .../43-libgudev-1.0-0_238-3_armhf.deb ...
Unpacking libgudev-1.0-0:armhf (238-3) ...
Selecting previously unselected package libwayland-cursor0:armhf.
Preparing to unpack .../44-libwayland-cursor0_1.22.0-2.1_armhf.deb ...
Unpacking libwayland-cursor0:armhf (1.22.0-2.1) ...
Selecting previously unselected package libwayland-egl1:armhf.
Preparing to unpack .../45-libwayland-egl1_1.22.0-2.1_armhf.deb ...
Unpacking libwayland-egl1:armhf (1.22.0-2.1) ...
Selecting previously unselected package libgstreamer-gl1.0-0:armhf.
Preparing to unpack .../46-libgstreamer-gl1.0-0_1.22.8-1_armhf.deb ...
Unpacking libgstreamer-gl1.0-0:armhf (1.22.8-1) ...
Selecting previously unselected package gir1.2-gst-plugins-base-1.0:armhf.
Preparing to unpack .../47-gir1.2-gst-plugins-base-1.0_1.22.8-1_armhf.deb ...
Unpacking gir1.2-gst-plugins-base-1.0:armhf (1.22.8-1) ...
Selecting previously unselected package gir1.2-gudev-1.0:armhf.
Preparing to unpack .../48-gir1.2-gudev-1.0_238-3_armhf.deb ...
Unpacking gir1.2-gudev-1.0:armhf (238-3) ...
Selecting previously unselected package icu-devtools.
Preparing to unpack .../49-icu-devtools_72.1-4_armhf.deb ...
Unpacking icu-devtools (72.1-4) ...
Selecting previously unselected package libdrm-omap1:armhf.
Preparing to unpack .../50-libdrm-omap1_2.4.117-1_armhf.deb ...
Unpacking libdrm-omap1:armhf (2.4.117-1) ...
Selecting previously unselected package libdrm-freedreno1:armhf.
Preparing to unpack .../51-libdrm-freedreno1_2.4.117-1_armhf.deb ...
Unpacking libdrm-freedreno1:armhf (2.4.117-1) ...
Selecting previously unselected package libdrm-exynos1:armhf.
Preparing to unpack .../52-libdrm-exynos1_2.4.117-1_armhf.deb ...
Unpacking libdrm-exynos1:armhf (2.4.117-1) ...
Selecting previously unselected package libdrm-tegra0:armhf.
Preparing to unpack .../53-libdrm-tegra0_2.4.117-1_armhf.deb ...
Unpacking libdrm-tegra0:armhf (2.4.117-1) ...
Selecting previously unselected package libdrm-etnaviv1:armhf.
Preparing to unpack .../54-libdrm-etnaviv1_2.4.117-1_armhf.deb ...
Unpacking libdrm-etnaviv1:armhf (2.4.117-1) ...
Selecting previously unselected package libpciaccess0:armhf.
Preparing to unpack .../55-libpciaccess0_0.17-3_armhf.deb ...
Unpacking libpciaccess0:armhf (0.17-3) ...
Selecting previously unselected package libpciaccess-dev:armhf.
Preparing to unpack .../56-libpciaccess-dev_0.17-3_armhf.deb ...
Unpacking libpciaccess-dev:armhf (0.17-3) ...
Selecting previously unselected package libdrm-dev:armhf.
Preparing to unpack .../57-libdrm-dev_2.4.117-1_armhf.deb ...
Unpacking libdrm-dev:armhf (2.4.117-1) ...
Selecting previously unselected package xorg-sgml-doctools.
Preparing to unpack .../58-xorg-sgml-doctools_1%3a1.11-1.1_all.deb ...
Unpacking xorg-sgml-doctools (1:1.11-1.1) ...
Selecting previously unselected package x11proto-dev.
Preparing to unpack .../59-x11proto-dev_2023.2-1_all.deb ...
Unpacking x11proto-dev (2023.2-1) ...
Selecting previously unselected package libxau-dev:armhf.
Preparing to unpack .../60-libxau-dev_1%3a1.0.9-1_armhf.deb ...
Unpacking libxau-dev:armhf (1:1.0.9-1) ...
Selecting previously unselected package libxdmcp-dev:armhf.
Preparing to unpack .../61-libxdmcp-dev_1%3a1.1.2-3_armhf.deb ...
Unpacking libxdmcp-dev:armhf (1:1.1.2-3) ...
Selecting previously unselected package xtrans-dev.
Preparing to unpack .../62-xtrans-dev_1.4.0-1_all.deb ...
Unpacking xtrans-dev (1.4.0-1) ...
Selecting previously unselected package libpthread-stubs0-dev:armhf.
Preparing to unpack .../63-libpthread-stubs0-dev_0.4-1_armhf.deb ...
Unpacking libpthread-stubs0-dev:armhf (0.4-1) ...
Selecting previously unselected package libxcb1-dev:armhf.
Preparing to unpack .../64-libxcb1-dev_1.15-1_armhf.deb ...
Unpacking libxcb1-dev:armhf (1.15-1) ...
Selecting previously unselected package libx11-dev:armhf.
Preparing to unpack .../65-libx11-dev_2%3a1.8.7-1_armhf.deb ...
Unpacking libx11-dev:armhf (2:1.8.7-1) ...
Selecting previously unselected package libglx-dev:armhf.
Preparing to unpack .../66-libglx-dev_1.7.0-1_armhf.deb ...
Unpacking libglx-dev:armhf (1.7.0-1) ...
Selecting previously unselected package libgl-dev:armhf.
Preparing to unpack .../67-libgl-dev_1.7.0-1_armhf.deb ...
Unpacking libgl-dev:armhf (1.7.0-1) ...
Selecting previously unselected package libegl-dev:armhf.
Preparing to unpack .../68-libegl-dev_1.7.0-1_armhf.deb ...
Unpacking libegl-dev:armhf (1.7.0-1) ...
Selecting previously unselected package libgbm-dev:armhf.
Preparing to unpack .../69-libgbm-dev_23.3.2-2_armhf.deb ...
Unpacking libgbm-dev:armhf (23.3.2-2) ...
Selecting previously unselected package libgles1:armhf.
Preparing to unpack .../70-libgles1_1.7.0-1_armhf.deb ...
Unpacking libgles1:armhf (1.7.0-1) ...
Selecting previously unselected package libgles2:armhf.
Preparing to unpack .../71-libgles2_1.7.0-1_armhf.deb ...
Unpacking libgles2:armhf (1.7.0-1) ...
Selecting previously unselected package libgles-dev:armhf.
Preparing to unpack .../72-libgles-dev_1.7.0-1_armhf.deb ...
Unpacking libgles-dev:armhf (1.7.0-1) ...
Selecting previously unselected package libsigc++-2.0-0v5:armhf.
Preparing to unpack .../73-libsigc++-2.0-0v5_2.12.1-1_armhf.deb ...
Unpacking libsigc++-2.0-0v5:armhf (2.12.1-1) ...
Selecting previously unselected package libglibmm-2.4-1v5:armhf.
Preparing to unpack .../74-libglibmm-2.4-1v5_2.66.6-2_armhf.deb ...
Unpacking libglibmm-2.4-1v5:armhf (2.66.6-2) ...
Selecting previously unselected package libsigc++-2.0-dev:armhf.
Preparing to unpack .../75-libsigc++-2.0-dev_2.12.1-1_armhf.deb ...
Unpacking libsigc++-2.0-dev:armhf (2.12.1-1) ...
Selecting previously unselected package libglibmm-2.4-dev:armhf.
Preparing to unpack .../76-libglibmm-2.4-dev_2.66.6-2_armhf.deb ...
Unpacking libglibmm-2.4-dev:armhf (2.66.6-2) ...
Selecting previously unselected package liborc-0.4-dev-bin.
Preparing to unpack .../77-liborc-0.4-dev-bin_1%3a0.4.34-3_armhf.deb ...
Unpacking liborc-0.4-dev-bin (1:0.4.34-3) ...
Selecting previously unselected package liborc-0.4-dev:armhf.
Preparing to unpack .../78-liborc-0.4-dev_1%3a0.4.34-3_armhf.deb ...
Unpacking liborc-0.4-dev:armhf (1:0.4.34-3) ...
Selecting previously unselected package libx11-xcb-dev:armhf.
Preparing to unpack .../79-libx11-xcb-dev_2%3a1.8.7-1_armhf.deb ...
Unpacking libx11-xcb-dev:armhf (2:1.8.7-1) ...
Selecting previously unselected package libwayland-bin.
Preparing to unpack .../80-libwayland-bin_1.22.0-2.1_armhf.deb ...
Unpacking libwayland-bin (1.22.0-2.1) ...
Selecting previously unselected package libwayland-dev:armhf.
Preparing to unpack .../81-libwayland-dev_1.22.0-2.1_armhf.deb ...
Unpacking libwayland-dev:armhf (1.22.0-2.1) ...
Selecting previously unselected package libudev-dev:armhf.
Preparing to unpack .../82-libudev-dev_255.2-4_armhf.deb ...
Unpacking libudev-dev:armhf (255.2-4) ...
Selecting previously unselected package libgudev-1.0-dev:armhf.
Preparing to unpack .../83-libgudev-1.0-dev_238-3_armhf.deb ...
Unpacking libgudev-1.0-dev:armhf (238-3) ...
Selecting previously unselected package libgstreamer-plugins-base1.0-dev.
Preparing to unpack .../84-libgstreamer-plugins-base1.0-dev_1.22.8-1_armhf.deb ...
Unpacking libgstreamer-plugins-base1.0-dev (1.22.8-1) ...
Selecting previously unselected package libgstreamermm-1.0-1:armhf.
Preparing to unpack .../85-libgstreamermm-1.0-1_1.10.0+dfsg-4+b1_armhf.deb ...
Unpacking libgstreamermm-1.0-1:armhf (1.10.0+dfsg-4+b1) ...
Selecting previously unselected package libxml++2.6-2v5:armhf.
Preparing to unpack .../86-libxml++2.6-2v5_2.40.1-3_armhf.deb ...
Unpacking libxml++2.6-2v5:armhf (2.40.1-3) ...
Selecting previously unselected package libicu-dev:armhf.
Preparing to unpack .../87-libicu-dev_72.1-4_armhf.deb ...
Unpacking libicu-dev:armhf (72.1-4) ...
Selecting previously unselected package libxml2-dev:armhf.
Preparing to unpack .../88-libxml2-dev_2.9.14+dfsg-1.3+b2_armhf.deb ...
Unpacking libxml2-dev:armhf (2.9.14+dfsg-1.3+b2) ...
Selecting previously unselected package libxml++2.6-dev:armhf.
Preparing to unpack .../89-libxml++2.6-dev_2.40.1-3_armhf.deb ...
Unpacking libxml++2.6-dev:armhf (2.40.1-3) ...
Selecting previously unselected package libgstreamermm-1.0-dev:armhf.
Preparing to unpack .../90-libgstreamermm-1.0-dev_1.10.0+dfsg-4+b1_armhf.deb ...
Unpacking libgstreamermm-1.0-dev:armhf (1.10.0+dfsg-4+b1) ...
Setting up libwayland-server0:armhf (1.22.0-2.1) ...
Setting up libpciaccess0:armhf (0.17-3) ...
Setting up libxau6:armhf (1:1.0.9-1) ...
Setting up libxdmcp6:armhf (1:1.1.2-3) ...
Setting up libxcb1:armhf (1.15-1) ...
Setting up libpciaccess-dev:armhf (0.17-3) ...
Setting up libxcb-xfixes0:armhf (1.15-1) ...
Setting up libglvnd0:armhf (1.7.0-1) ...
Setting up libxcb-glx0:armhf (1.15-1) ...
Setting up libedit2:armhf (3.1-20230828-1) ...
Setting up libsensors-config (1:3.6.0-8) ...
Setting up libxcb-shm0:armhf (1.15-1) ...
Setting up libpthread-stubs0-dev:armhf (0.4-1) ...
Setting up libxcb-present0:armhf (1.15-1) ...
Setting up xtrans-dev (1.4.0-1) ...
Setting up libwayland-bin (1.22.0-2.1) ...
Setting up libz3-4:armhf (4.8.12-3.1+b2) ...
Setting up libgles2:armhf (1.7.0-1) ...
Setting up libx11-data (2:1.8.7-1) ...
Setting up libxcb-sync1:armhf (1.15-1) ...
Setting up libsigc++-2.0-0v5:armhf (2.12.1-1) ...
Setting up libgles1:armhf (1.7.0-1) ...
Setting up liborc-0.4-0:armhf (1:0.4.34-3) ...
Setting up icu-devtools (72.1-4) ...
Setting up libudev-dev:armhf (255.2-4) ...
Setting up libsensors5:armhf (1:3.6.0-8) ...
Setting up libglapi-mesa:armhf (23.3.2-2) ...
Setting up libvulkan1:armhf (1.3.268.0-1) ...
Setting up libxcb-dri2-0:armhf (1.15-1) ...
Setting up libxshmfence1:armhf (1.3-1) ...
Setting up libxcb-randr0:armhf (1.15-1) ...
Setting up libx11-6:armhf (2:1.8.7-1) ...
Setting up xorg-sgml-doctools (1:1.11-1.1) ...
Setting up libwayland-egl1:armhf (1.22.0-2.1) ...
Setting up libllvm17:armhf (1:17.0.6-3) ...
Setting up libdrm-common (2.4.117-1) ...
Setting up libicu-dev:armhf (72.1-4) ...
Setting up iso-codes (4.15.0-1) ...
Setting up libgudev-1.0-0:armhf (238-3) ...
Setting up libwayland-client0:armhf (1.22.0-2.1) ...
Setting up x11proto-dev (2023.2-1) ...
Setting up libxcb-dri3-0:armhf (1.15-1) ...
Setting up libglibmm-2.4-1v5:armhf (2.66.6-2) ...
Setting up libx11-xcb1:armhf (2:1.8.7-1) ...
Setting up libxau-dev:armhf (1:1.0.9-1) ...
Setting up libxext6:armhf (2:1.3.4-1+b1) ...
Setting up liborc-0.4-dev-bin (1:0.4.34-3) ...
Setting up libgstreamer-plugins-base1.0-0:armhf (1.22.8-1) ...
Setting up libxxf86vm1:armhf (1:1.1.4-1+b2) ...
Setting up libsigc++-2.0-dev:armhf (2.12.1-1) ...
Setting up libxdmcp-dev:armhf (1:1.1.2-3) ...
Setting up libxml2-dev:armhf (2.9.14+dfsg-1.3+b2) ...
Setting up libgstreamermm-1.0-1:armhf (1.10.0+dfsg-4+b1) ...
Setting up libxml++2.6-2v5:armhf (2.40.1-3) ...
Setting up libxfixes3:armhf (1:6.0.0-2) ...
Setting up libglibmm-2.4-dev:armhf (2.66.6-2) ...
Setting up gir1.2-gudev-1.0:armhf (238-3) ...
Setting up libdrm2:armhf (2.4.117-1) ...
Setting up libwayland-cursor0:armhf (1.22.0-2.1) ...
Setting up libdrm-omap1:armhf (2.4.117-1) ...
Setting up liborc-0.4-dev:armhf (1:0.4.34-3) ...
Setting up libdrm-exynos1:armhf (2.4.117-1) ...
Setting up libdrm-amdgpu1:armhf (2.4.117-1) ...
Setting up libdrm-nouveau2:armhf (2.4.117-1) ...
Setting up libdrm-etnaviv1:armhf (2.4.117-1) ...
Setting up libxcb1-dev:armhf (1.15-1) ...
Setting up libgbm1:armhf (23.3.2-2) ...
Setting up libdrm-radeon1:armhf (2.4.117-1) ...
Setting up libxml++2.6-dev:armhf (2.40.1-3) ...
Setting up libgl1-mesa-dri:armhf (23.3.2-2) ...
Setting up libgudev-1.0-dev:armhf (238-3) ...
Setting up libx11-dev:armhf (2:1.8.7-1) ...
Setting up libwayland-dev:armhf (1.22.0-2.1) ...
Setting up libgbm-dev:armhf (23.3.2-2) ...
Setting up libegl-mesa0:armhf (23.3.2-2) ...
Setting up libdrm-freedreno1:armhf (2.4.117-1) ...
Setting up libdrm-tegra0:armhf (2.4.117-1) ...
Setting up libegl1:armhf (1.7.0-1) ...
Setting up libx11-xcb-dev:armhf (2:1.8.7-1) ...
Setting up libdrm-dev:armhf (2.4.117-1) ...
Setting up libglx-mesa0:armhf (23.3.2-2) ...
Setting up libglx0:armhf (1.7.0-1) ...
Setting up libgl1:armhf (1.7.0-1) ...
Setting up libglx-dev:armhf (1.7.0-1) ...
Setting up libgl-dev:armhf (1.7.0-1) ...
Setting up libegl-dev:armhf (1.7.0-1) ...
Setting up libgstreamer-gl1.0-0:armhf (1.22.8-1) ...
Setting up libgles-dev:armhf (1.7.0-1) ...
Setting up gir1.2-gst-plugins-base-1.0:armhf (1.22.8-1) ...
Setting up libgstreamer-plugins-base1.0-dev (1.22.8-1) ...
Setting up libgstreamermm-1.0-dev:armhf (1.10.0+dfsg-4+b1) ...
Processing triggers for libc-bin (2.37-13) ...
Reading package lists...
Building dependency tree...
Reading state information...
0 upgraded, 0 newly installed, 0 to remove and 37 not upgraded.
