[2024-01-08T14:55:24+00:00] apt-get install libzimg-dev abi-compliance-checker
Reading package lists...
Building dependency tree...
Reading state information...
abi-compliance-checker is already the newest version (2.3-2).
The following packages were automatically installed and are no longer required:
  icu-devtools libicu-dev liblzma-dev libxapian-dev libxapian30 libzim-dev
  libzim8 libzstd-dev
Use 'apt autoremove' to remove them.
The following NEW packages will be installed:
  libzimg-dev libzimg2
0 upgraded, 2 newly installed, 0 to remove and 13 not upgraded.
Need to get 216 kB of archives.
After this operation, 972 kB of additional disk space will be used.
Get:1 http://deb.debian.org/debian unstable/main armhf libzimg2 armhf 3.0.5+ds1-1 [71.1 kB]
Get:2 http://deb.debian.org/debian unstable/main armhf libzimg-dev armhf 3.0.5+ds1-1 [145 kB]
debconf: delaying package configuration, since apt-utils is not installed
Fetched 216 kB in 0s (4372 kB/s)
Selecting previously unselected package libzimg2:armhf.
(Reading database ... (Reading database ... 5%(Reading database ... 10%(Reading database ... 15%(Reading database ... 20%(Reading database ... 25%(Reading database ... 30%(Reading database ... 35%(Reading database ... 40%(Reading database ... 45%(Reading database ... 50%(Reading database ... 55%(Reading database ... 60%(Reading database ... 65%(Reading database ... 70%(Reading database ... 75%(Reading database ... 80%(Reading database ... 85%(Reading database ... 90%(Reading database ... 95%(Reading database ... 100%(Reading database ... 17464 files and directories currently installed.)
Preparing to unpack .../libzimg2_3.0.5+ds1-1_armhf.deb ...
Unpacking libzimg2:armhf (3.0.5+ds1-1) ...
Selecting previously unselected package libzimg-dev:armhf.
Preparing to unpack .../libzimg-dev_3.0.5+ds1-1_armhf.deb ...
Unpacking libzimg-dev:armhf (3.0.5+ds1-1) ...
Setting up libzimg2:armhf (3.0.5+ds1-1) ...
Setting up libzimg-dev:armhf (3.0.5+ds1-1) ...
Processing triggers for libc-bin (2.37-13) ...
Reading package lists...
Building dependency tree...
Reading state information...
The following packages will be REMOVED:
  icu-devtools* libicu-dev* liblzma-dev* libxapian-dev* libxapian30*
  libzim-dev* libzim8* libzstd-dev*
0 upgraded, 0 newly installed, 8 to remove and 13 not upgraded.
After this operation, 50.9 MB disk space will be freed.
(Reading database ... (Reading database ... 5%(Reading database ... 10%(Reading database ... 15%(Reading database ... 20%(Reading database ... 25%(Reading database ... 30%(Reading database ... 35%(Reading database ... 40%(Reading database ... 45%(Reading database ... 50%(Reading database ... 55%(Reading database ... 60%(Reading database ... 65%(Reading database ... 70%(Reading database ... 75%(Reading database ... 80%(Reading database ... 85%(Reading database ... 90%(Reading database ... 95%(Reading database ... 100%(Reading database ... 17494 files and directories currently installed.)
Removing libzim-dev (8.2.1-2) ...
Removing libicu-dev:armhf (72.1-4) ...
Removing icu-devtools (72.1-4) ...
Removing liblzma-dev:armhf (5.4.5-0.3) ...
Removing libxapian-dev (1.4.22-1) ...
Removing libzim8:armhf (8.2.1-2) ...
Removing libxapian30:armhf (1.4.22-1) ...
Removing libzstd-dev:armhf (1.5.5+dfsg2-2) ...
Processing triggers for libc-bin (2.37-13) ...
