[2024-01-07T22:31:40+00:00] apt-get install libndp-dev abi-compliance-checker
Reading package lists...
Building dependency tree...
Reading state information...
abi-compliance-checker is already the newest version (2.3-2).
The following packages were automatically installed and are no longer required:
  libdaxctl1 libndctl-dev libndctl6
Use 'apt autoremove' to remove them.
The following NEW packages will be installed:
  libndp-dev libndp0
0 upgraded, 2 newly installed, 0 to remove and 36 not upgraded.
Need to get 22.8 kB of archives.
After this operation, 84.0 kB of additional disk space will be used.
Get:1 http://deb.debian.org/debian unstable/main armhf libndp0 armhf 1.8-1 [10.6 kB]
Get:2 http://deb.debian.org/debian unstable/main armhf libndp-dev armhf 1.8-1 [12.2 kB]
debconf: delaying package configuration, since apt-utils is not installed
Fetched 22.8 kB in 0s (202 kB/s)
Selecting previously unselected package libndp0:armhf.
(Reading database ... (Reading database ... 5%(Reading database ... 10%(Reading database ... 15%(Reading database ... 20%(Reading database ... 25%(Reading database ... 30%(Reading database ... 35%(Reading database ... 40%(Reading database ... 45%(Reading database ... 50%(Reading database ... 55%(Reading database ... 60%(Reading database ... 65%(Reading database ... 70%(Reading database ... 75%(Reading database ... 80%(Reading database ... 85%(Reading database ... 90%(Reading database ... 95%(Reading database ... 100%(Reading database ... 14861 files and directories currently installed.)
Preparing to unpack .../libndp0_1.8-1_armhf.deb ...
Unpacking libndp0:armhf (1.8-1) ...
Selecting previously unselected package libndp-dev:armhf.
Preparing to unpack .../libndp-dev_1.8-1_armhf.deb ...
Unpacking libndp-dev:armhf (1.8-1) ...
Setting up libndp0:armhf (1.8-1) ...
Setting up libndp-dev:armhf (1.8-1) ...
Processing triggers for libc-bin (2.37-13) ...
Reading package lists...
Building dependency tree...
Reading state information...
The following packages will be REMOVED:
  libdaxctl1* libndctl-dev* libndctl6*
0 upgraded, 0 newly installed, 3 to remove and 36 not upgraded.
After this operation, 269 kB disk space will be freed.
(Reading database ... (Reading database ... 5%(Reading database ... 10%(Reading database ... 15%(Reading database ... 20%(Reading database ... 25%(Reading database ... 30%(Reading database ... 35%(Reading database ... 40%(Reading database ... 45%(Reading database ... 50%(Reading database ... 55%(Reading database ... 60%(Reading database ... 65%(Reading database ... 70%(Reading database ... 75%(Reading database ... 80%(Reading database ... 85%(Reading database ... 90%(Reading database ... 95%(Reading database ... 100%(Reading database ... 14873 files and directories currently installed.)
Removing libndctl-dev:armhf (77-2) ...
Removing libndctl6:armhf (77-2) ...
Removing libdaxctl1:armhf (77-2) ...
Processing triggers for libc-bin (2.37-13) ...
