[2024-01-08T15:44:58+00:00] apt-get install llvm-14-dev googletest abi-compliance-checker
Reading package lists...
Building dependency tree...
Reading state information...
llvm-14-dev is already the newest version (1:14.0.6-16).
llvm-14-dev set to manually installed.
googletest is already the newest version (1.14.0-1).
googletest set to manually installed.
abi-compliance-checker is already the newest version (2.3-2).
0 upgraded, 0 newly installed, 0 to remove and 12 not upgraded.
Reading package lists...
Building dependency tree...
Reading state information...
0 upgraded, 0 newly installed, 0 to remove and 12 not upgraded.
