Temporary header file '/tmp/ceEbzub_XR/dump1.h' with the following content will be compiled to create GCC translation unit dump:

  // add defines
  #define __STDC_VERSION__ 201710L
#define _FILE_OFFSET_BITS 64
#define _GXX_NULLPTR_T
#define CLUTTER_ENABLE_COMPOSITOR_API 1
#define _REGEX_NELTS(n)
#define _Atomic
#define PACKED
#ifdef __cplusplus
// C17 compat layer
#define _Alignof(type) alignof(type)
#endif
#define getaddrinfo_a(a,b,c,d)

  // add includes
  #include "/usr/include/shairport/shairport.h"

  // add classes
  AudioOutput* tmp_add_class_0;
  _G_fpos64_t* tmp_add_class_1;
  _G_fpos_t* tmp_add_class_2;
  _IO_cookie_io_functions_t* tmp_add_class_3;
  ao_info* tmp_add_class_4;
  ao_option* tmp_add_class_5;
  ao_sample_format* tmp_add_class_6;
  comms* tmp_add_class_7;
  connection* tmp_add_class_8;
  keyring* tmp_add_class_9;
  printfPtr* tmp_add_class_10;
  shairbuffer* tmp_add_class_11;

The GCC parameters:
  gcc -fdump-lang-raw -fkeep-inline-functions -c -x c++ -fpermissive -w "/tmp/ceEbzub_XR/dump1.h"

