Temporary header file '/tmp/DnSbqYwxhK/dump1.h' with the following content will be compiled to create GCC translation unit dump:

  // add defines
  #define __STDC_VERSION__ 201710L
#define _GXX_NULLPTR_T
#define CLUTTER_ENABLE_COMPOSITOR_API 1
#define _REGEX_NELTS(n)
#define _Atomic
#define PACKED
#ifdef __cplusplus
// C17 compat layer
#define _Alignof(type) alignof(type)
#endif
#define getaddrinfo_a(a,b,c,d)

  // add includes
  #include "/usr/include/QuaZip-Qt6-1.4/quazip/JlCompress.h"
  #include "/usr/include/QuaZip-Qt6-1.4/quazip/ioapi.h"
  #include "/usr/include/QuaZip-Qt6-1.4/quazip/minizip_crypt.h"
  #include "/usr/include/QuaZip-Qt6-1.4/quazip/quaadler32.h"
  #include "/usr/include/QuaZip-Qt6-1.4/quazip/quachecksum32.h"
  #include "/usr/include/QuaZip-Qt6-1.4/quazip/quacrc32.h"
  #include "/usr/include/QuaZip-Qt6-1.4/quazip/quagzipfile.h"
  #include "/usr/include/QuaZip-Qt6-1.4/quazip/quaziodevice.h"
  #include "/usr/include/QuaZip-Qt6-1.4/quazip/quazip.h"
  #include "/usr/include/QuaZip-Qt6-1.4/quazip/quazip_global.h"
  #include "/usr/include/QuaZip-Qt6-1.4/quazip/quazip_qt_compat.h"
  #include "/usr/include/QuaZip-Qt6-1.4/quazip/quazipdir.h"
  #include "/usr/include/QuaZip-Qt6-1.4/quazip/quazipfile.h"
  #include "/usr/include/QuaZip-Qt6-1.4/quazip/quazipfileinfo.h"
  #include "/usr/include/QuaZip-Qt6-1.4/quazip/quazipnewinfo.h"
  #include "/usr/include/QuaZip-Qt6-1.4/quazip/unzip.h"
  #include "/usr/include/QuaZip-Qt6-1.4/quazip/zip.h"

  // add namespaces
  namespace QAlgorithmsPrivate{typedef int tmp_add_type_1;}
  QAlgorithmsPrivate::tmp_add_type_1 tmp_add_func_1(){return 0;};
  namespace QContainerInfo{typedef int tmp_add_type_2;}
  QContainerInfo::tmp_add_type_2 tmp_add_func_2(){return 0;};
  namespace QHashPrivate{typedef int tmp_add_type_3;}
  QHashPrivate::tmp_add_type_3 tmp_add_func_3(){return 0;};
  namespace QHashPrivate{namespace GrowthPolicy{typedef int tmp_add_type_4;}}
  QHashPrivate::GrowthPolicy::tmp_add_type_4 tmp_add_func_4(){return 0;};
  namespace Qt{typedef int tmp_add_type_5;}
  Qt::tmp_add_type_5 tmp_add_func_5(){return 0;};
  namespace Qt{namespace Literals{typedef int tmp_add_type_6;}}
  Qt::Literals::tmp_add_type_6 tmp_add_func_6(){return 0;};
  namespace Qt{namespace Literals{namespace StringLiterals{typedef int tmp_add_type_7;}}}
  Qt::Literals::StringLiterals::tmp_add_type_7 tmp_add_func_7(){return 0;};
  namespace QtGlobalStatic{typedef int tmp_add_type_8;}
  QtGlobalStatic::tmp_add_type_8 tmp_add_func_8(){return 0;};
  namespace QtLiterals{typedef int tmp_add_type_9;}
  QtLiterals::tmp_add_type_9 tmp_add_func_9(){return 0;};
  namespace QtMetaContainerPrivate{typedef int tmp_add_type_10;}
  QtMetaContainerPrivate::tmp_add_type_10 tmp_add_func_10(){return 0;};
  namespace QtMetaTypePrivate{typedef int tmp_add_type_11;}
  QtMetaTypePrivate::tmp_add_type_11 tmp_add_func_11(){return 0;};
  namespace QtPrivate{typedef int tmp_add_type_12;}
  QtPrivate::tmp_add_type_12 tmp_add_func_12(){return 0;};
  namespace QtPrivate{namespace detail{typedef int tmp_add_type_13;}}
  QtPrivate::detail::tmp_add_type_13 tmp_add_func_13(){return 0;};
  namespace QtPrivate{namespace SwapExceptionTester{typedef int tmp_add_type_14;}}
  QtPrivate::SwapExceptionTester::tmp_add_type_14 tmp_add_func_14(){return 0;};
  namespace QtPrivate{namespace Tok{typedef int tmp_add_type_15;}}
  QtPrivate::Tok::tmp_add_type_15 tmp_add_func_15(){return 0;};
  namespace QtSharedPointer{typedef int tmp_add_type_16;}
  QtSharedPointer::tmp_add_type_16 tmp_add_func_16(){return 0;};
  namespace QTypeTraits{typedef int tmp_add_type_17;}
  QTypeTraits::tmp_add_type_17 tmp_add_func_17(){return 0;};
  namespace QTypeTraits{namespace detail{typedef int tmp_add_type_18;}}
  QTypeTraits::detail::tmp_add_type_18 tmp_add_func_18(){return 0;};
  namespace q_has_char8_t{typedef int tmp_add_type_19;}
  q_has_char8_t::tmp_add_type_19 tmp_add_func_19(){return 0;};
  namespace q_no_char8_t{typedef int tmp_add_type_20;}
  q_no_char8_t::tmp_add_type_20 tmp_add_func_20(){return 0;};

  // add classes
  JlCompress* tmp_add_class_0;
  QAdoptSharedDataTag* tmp_add_class_1;
  QAnyStringView* tmp_add_class_2;
  QArrayData* tmp_add_class_3;
  QAtomicInt* tmp_add_class_4;
  QBindingStatus* tmp_add_class_5;
  QBindingStorage* tmp_add_class_6;
  QByteArray* tmp_add_class_7;
  QByteArrayView* tmp_add_class_8;
  QCalendar* tmp_add_class_9;
  QChar* tmp_add_class_10;
  QContiguousCacheData* tmp_add_class_11;
  QDataStream* tmp_add_class_12;
  QDate* tmp_add_class_13;
  QDateTime* tmp_add_class_14;
  QDebug* tmp_add_class_15;
  QDebugStateSaver* tmp_add_class_16;
  QDir* tmp_add_class_17;
  QFile* tmp_add_class_18;
  QFileDevice* tmp_add_class_19;
  QFileInfo* tmp_add_class_20;
  QFlag* tmp_add_class_21;
  QGenericArgument* tmp_add_class_22;
  QGenericReturnArgument* tmp_add_class_23;
  QHashDummyValue* tmp_add_class_24;
  QHashSeed* tmp_add_class_25;
  QIODevice* tmp_add_class_26;
  QIODeviceBase* tmp_add_class_27;
  QIncompatibleFlag* tmp_add_class_28;
  QInternal* tmp_add_class_29;
  QKeyCombination* tmp_add_class_30;
  QLatin1Char* tmp_add_class_31;
  QLatin1String* tmp_add_class_32;
  QLocale* tmp_add_class_33;
  QMessageLogContext* tmp_add_class_34;
  QMessageLogger* tmp_add_class_35;
  QMetaAssociation* tmp_add_class_36;
  QMetaContainer* tmp_add_class_37;
  QMetaObject* tmp_add_class_38;
  QMetaSequence* tmp_add_class_39;
  QMetaType* tmp_add_class_40;
  QMethodRawArguments* tmp_add_class_41;
  QNoDebug* tmp_add_class_42;
  QObject* tmp_add_class_43;
  QObjectData* tmp_add_class_44;
  QPartialOrdering* tmp_add_class_45;
  QSaveFile* tmp_add_class_46;
  QScopedPointerPodDeleter* tmp_add_class_47;
  QSharedData* tmp_add_class_48;
  QSignalBlocker* tmp_add_class_49;
  QString* tmp_add_class_50;
  QStringConverter* tmp_add_class_51;
  QStringConverterBase* tmp_add_class_52;
  QStringDecoder* tmp_add_class_53;
  QStringEncoder* tmp_add_class_54;
  QStringMatcher* tmp_add_class_55;
  QStringTokenizerBaseBase* tmp_add_class_56;
  QStringView* tmp_add_class_57;
  QSysInfo* tmp_add_class_58;
  QTextCodec* tmp_add_class_59;
  QTextDecoder* tmp_add_class_60;
  QTextEncoder* tmp_add_class_61;
  QTextStream* tmp_add_class_62;
  QTextStreamManipulator* tmp_add_class_63;
  QTime* tmp_add_class_64;
  QVLABaseBase* tmp_add_class_65;
  QVariant* tmp_add_class_66;
  QVariantConstPointer* tmp_add_class_67;
  QuaAdler32* tmp_add_class_68;
  QuaChecksum32* tmp_add_class_69;
  QuaCrc32* tmp_add_class_70;
  QuaGzipFile* tmp_add_class_71;
  QuaZIODevice* tmp_add_class_72;
  QuaZip* tmp_add_class_73;
  QuaZipDir* tmp_add_class_74;
  QuaZipFile* tmp_add_class_75;
  QuaZipFileInfo* tmp_add_class_76;
  QuaZipFileInfo64* tmp_add_class_77;
  QuaZipNewInfo* tmp_add_class_78;
  _G_fpos64_t* tmp_add_class_79;
  _G_fpos_t* tmp_add_class_80;
  _IO_cookie_io_functions_t* tmp_add_class_81;
  gzFile_s* tmp_add_class_82;
  gz_header_s* tmp_add_class_83;
  tm_unz_s* tmp_add_class_84;
  tm_zip_s* tmp_add_class_85;
  unz64_file_pos_s* tmp_add_class_86;
  unz_file_info64_s* tmp_add_class_87;
  unz_file_info_s* tmp_add_class_88;
  unz_file_pos_s* tmp_add_class_89;
  unz_global_info64_s* tmp_add_class_90;
  unz_global_info_s* tmp_add_class_91;
  z_stream_s* tmp_add_class_92;
  zlib_filefunc64_32_def_s* tmp_add_class_93;
  zlib_filefunc64_def_s* tmp_add_class_94;
  zlib_filefunc_def_s* tmp_add_class_95;

The GCC parameters:
  gcc -fdump-lang-raw -fkeep-inline-functions -c -x c++ -fpermissive -w "/tmp/DnSbqYwxhK/dump1.h"  -I/usr/include/arm-linux-gnueabihf/qt6

