[2024-01-08T06:10:28+00:00] apt-get install libroscpp-msg-dev abi-compliance-checker
Reading package lists...
Building dependency tree...
Reading state information...
libroscpp-msg-dev is already the newest version (1.16.0+ds-3+b2).
libroscpp-msg-dev set to manually installed.
abi-compliance-checker is already the newest version (2.3-2).
The following packages were automatically installed and are no longer required:
  libapr1 libapr1-dev libaprutil1 libaprutil1-dbd-sqlite3 libaprutil1-dev
  libb64-0d libb64-dev libboost-filesystem-dev libboost-regex-dev
  libboost-system-dev libboost-thread-dev libexpat1-dev libldap-dev
  libldap2-dev liblog4cxx-dev liblog4cxx15 libros-rosgraph-msgs-dev
  librosconsole-dev librosconsole3d libroscpp-dev libroscpp4d libsctp-dev
  libsctp1 libstd-msgs-dev libxmlrpcpp-dev libxmlrpcpp3d ros-message-runtime
  uuid-dev
Use 'apt autoremove' to remove them.
0 upgraded, 0 newly installed, 0 to remove and 24 not upgraded.
Reading package lists...
Building dependency tree...
Reading state information...
The following packages will be REMOVED:
  libapr1* libapr1-dev* libaprutil1* libaprutil1-dbd-sqlite3* libaprutil1-dev*
  libb64-0d* libb64-dev* libboost-filesystem-dev* libboost-regex-dev*
  libboost-system-dev* libboost-thread-dev* libexpat1-dev* libldap-dev*
  libldap2-dev* liblog4cxx-dev* liblog4cxx15* libros-rosgraph-msgs-dev*
  librosconsole-dev* librosconsole3d* libroscpp-dev* libroscpp4d* libsctp-dev*
  libsctp1* libstd-msgs-dev* libxmlrpcpp-dev* libxmlrpcpp3d*
  ros-message-runtime* uuid-dev*
0 upgraded, 0 newly installed, 28 to remove and 24 not upgraded.
After this operation, 22.9 MB disk space will be freed.
(Reading database ... (Reading database ... 5%(Reading database ... 10%(Reading database ... 15%(Reading database ... 20%(Reading database ... 25%(Reading database ... 30%(Reading database ... 35%(Reading database ... 40%(Reading database ... 45%(Reading database ... 50%(Reading database ... 55%(Reading database ... 60%(Reading database ... 65%(Reading database ... 70%(Reading database ... 75%(Reading database ... 80%(Reading database ... 85%(Reading database ... 90%(Reading database ... 95%(Reading database ... 100%(Reading database ... 36303 files and directories currently installed.)
Removing libroscpp-dev:armhf (1.16.0+ds-3+b2) ...
Removing librosconsole-dev:armhf (1.14.3-11+b1) ...
Removing liblog4cxx-dev:armhf (1.1.0-1) ...
Removing libaprutil1-dev (1.6.3-1+b1) ...
Removing libapr1-dev (1.7.2-3+b2) ...
Removing libroscpp4d:armhf (1.16.0+ds-3+b2) ...
Removing librosconsole3d:armhf (1.14.3-11+b1) ...
Removing liblog4cxx15:armhf (1.1.0-1) ...
Removing libaprutil1-dbd-sqlite3:armhf (1.6.3-1+b1) ...
Removing libaprutil1:armhf (1.6.3-1+b1) ...
Removing libxmlrpcpp-dev:armhf (1.16.0+ds-3+b2) ...
Removing libb64-dev:armhf (1.2-5+b1) ...
Removing libxmlrpcpp3d:armhf (1.16.0+ds-3+b2) ...
Removing libb64-0d:armhf (1.2-5+b1) ...
Removing libboost-filesystem-dev:armhf (1.83.0.2) ...
Removing libboost-regex-dev:armhf (1.83.0.2) ...
Removing libboost-system-dev:armhf (1.83.0.2) ...
Removing libboost-thread-dev:armhf (1.83.0.2) ...
Removing libexpat1-dev:armhf (2.5.0-2+b2) ...
Removing libldap2-dev (2.5.13+dfsg-5) ...
Removing libldap-dev:armhf (2.5.13+dfsg-5+b2) ...
Removing libros-rosgraph-msgs-dev:armhf (1.11.3-3) ...
Removing libsctp-dev:armhf (1.0.19+dfsg-2) ...
Removing libsctp1:armhf (1.0.19+dfsg-2) ...
Removing libstd-msgs-dev:armhf (0.5.13-3) ...
Removing ros-message-runtime:armhf (0.4.13-5) ...
Removing uuid-dev:armhf (2.39.3-6) ...
Removing libapr1:armhf (1.7.2-3+b2) ...
Processing triggers for libc-bin (2.37-13) ...
