[2024-01-08T06:50:54+00:00] apt-get install libsemanage-dev abi-compliance-checker
Reading package lists...
Building dependency tree...
Reading state information...
abi-compliance-checker is already the newest version (2.3-2).
The following additional packages will be installed:
  libbz2-dev libsemanage2
Recommended packages:
  bzip2-doc
The following NEW packages will be installed:
  libbz2-dev libsemanage-dev
The following packages will be upgraded:
  libsemanage2
1 upgraded, 2 newly installed, 0 to remove and 20 not upgraded.
Need to get 221 kB of archives.
After this operation, 644 kB of additional disk space will be used.
Get:1 http://deb.debian.org/debian unstable/main armhf libsemanage2 armhf 3.5-1+b2 [77.2 kB]
Get:2 http://deb.debian.org/debian unstable/main armhf libbz2-dev armhf 1.0.8-5+b2 [28.2 kB]
Get:3 http://deb.debian.org/debian unstable/main armhf libsemanage-dev armhf 3.5-1+b2 [116 kB]
debconf: delaying package configuration, since apt-utils is not installed
Fetched 221 kB in 1s (168 kB/s)
(Reading database ... (Reading database ... 5%(Reading database ... 10%(Reading database ... 15%(Reading database ... 20%(Reading database ... 25%(Reading database ... 30%(Reading database ... 35%(Reading database ... 40%(Reading database ... 45%(Reading database ... 50%(Reading database ... 55%(Reading database ... 60%(Reading database ... 65%(Reading database ... 70%(Reading database ... 75%(Reading database ... 80%(Reading database ... 85%(Reading database ... 90%(Reading database ... 95%(Reading database ... 100%(Reading database ... 17424 files and directories currently installed.)
Preparing to unpack .../libsemanage2_3.5-1+b2_armhf.deb ...
Unpacking libsemanage2:armhf (3.5-1+b2) over (3.5-1+b1) ...
Setting up libsemanage2:armhf (3.5-1+b2) ...
Selecting previously unselected package libbz2-dev:armhf.
(Reading database ... (Reading database ... 5%(Reading database ... 10%(Reading database ... 15%(Reading database ... 20%(Reading database ... 25%(Reading database ... 30%(Reading database ... 35%(Reading database ... 40%(Reading database ... 45%(Reading database ... 50%(Reading database ... 55%(Reading database ... 60%(Reading database ... 65%(Reading database ... 70%(Reading database ... 75%(Reading database ... 80%(Reading database ... 85%(Reading database ... 90%(Reading database ... 95%(Reading database ... 100%(Reading database ... 17424 files and directories currently installed.)
Preparing to unpack .../libbz2-dev_1.0.8-5+b2_armhf.deb ...
Unpacking libbz2-dev:armhf (1.0.8-5+b2) ...
Selecting previously unselected package libsemanage-dev:armhf.
Preparing to unpack .../libsemanage-dev_3.5-1+b2_armhf.deb ...
Unpacking libsemanage-dev:armhf (3.5-1+b2) ...
Setting up libbz2-dev:armhf (1.0.8-5+b2) ...
Setting up libsemanage-dev:armhf (3.5-1+b2) ...
Processing triggers for libc-bin (2.37-13) ...
Reading package lists...
Building dependency tree...
Reading state information...
0 upgraded, 0 newly installed, 0 to remove and 20 not upgraded.
