Using GCC 13 (arm-linux-gnueabihf, target: arm)
WARNING: May not work properly with GCC 4.8.[0-2], 6.* and higher due to bug #78040 in GCC. Please try other GCC versions with the help of --gcc-path=PATH option or create ABI dumps by ABI Dumper tool instead to avoid using GCC. Test selected GCC version first by -test option.
Checking header(s) base ...
Temporary header file '/tmp/LcNY12J9EN/dump1.h' with the following content will be compiled to create GCC translation unit dump:

  // add defines
  #define __STDC_VERSION__ 201710L
#define _GXX_NULLPTR_T
#define CLUTTER_ENABLE_COMPOSITOR_API 1
#define _REGEX_NELTS(n)
#define _Atomic
#define PACKED
#ifdef __cplusplus
// C17 compat layer
#define _Alignof(type) alignof(type)
#endif
#define getaddrinfo_a(a,b,c,d)

  // add includes
  #include "/usr/include/netsvcs/Base_Optimizer.h"
  #include "/usr/include/netsvcs/Client_Logging_Handler.h"
  #include "/usr/include/netsvcs/Log_Message_Receiver.h"
  #include "/usr/include/netsvcs/Name_Handler.h"
  #include "/usr/include/netsvcs/Server_Logging_Handler.h"
  #include "/usr/include/netsvcs/Server_Logging_Handler_T.h"
  #include "/usr/include/netsvcs/TS_Clerk_Handler.h"
  #include "/usr/include/netsvcs/TS_Server_Handler.h"
  #include "/usr/include/netsvcs/Time_Request_Reply.h"
  #include "/usr/include/netsvcs/Token_Handler.h"

The GCC parameters:
  gcc -fdump-lang-raw -fkeep-inline-functions -c -x c++ -fpermissive -w "/tmp/LcNY12J9EN/dump1.h"

In file included from /tmp/LcNY12J9EN/dump1.h:16:
/usr/include/netsvcs/Base_Optimizer.h:38:10: fatal error: Base_Optimizer.cpp: No such file or directory
   38 | #include "Base_Optimizer.cpp"
      |          ^~~~~~~~~~~~~~~~~~~~
compilation terminated.
ERROR: some errors occurred when compiling headers
ERROR: see log for details:
  /home/adrien/armhf-time_t/out/logs/libnetsvcs-dev/base/abi-compliance-checker.log


ERROR: can't compile header(s)
