Using GCC 13 (arm-linux-gnueabihf, target: arm)
WARNING: May not work properly with GCC 4.8.[0-2], 6.* and higher due to bug #78040 in GCC. Please try other GCC versions with the help of --gcc-path=PATH option or create ABI dumps by ABI Dumper tool instead to avoid using GCC. Test selected GCC version first by -test option.
Checking header(s) time_t ...
Temporary header file '/tmp/A4kqmwFJmO/dump1.h' with the following content will be compiled to create GCC translation unit dump:

  // add defines
  #define __STDC_VERSION__ 201710L
#define _TIME_BITS 64
#define _FILE_OFFSET_BITS 64
#define _GXX_NULLPTR_T
#define CLUTTER_ENABLE_COMPOSITOR_API 1
#define _REGEX_NELTS(n)
#define _Atomic
#define PACKED
#ifdef __cplusplus
// C17 compat layer
#define _Alignof(type) alignof(type)
#endif
#define getaddrinfo_a(a,b,c,d)

  // add includes
  #include "/usr/include/MMB/AddBackboneOxygenForces.h"
  #include "/usr/include/MMB/AddNASTForces.h"
  #include "/usr/include/MMB/AtomSpringContainer.h"
  #include "/usr/include/MMB/BaseInteractionParameterReader.h"
  #include "/usr/include/MMB/BasePairContainer.h"
  #include "/usr/include/MMB/BiopolymerClass.h"
  #include "/usr/include/MMB/BiopolymerClassTwoTransformForces.h"
  #include "/usr/include/MMB/CalcTransformCorrection.h"
  #include "/usr/include/MMB/CenterOfMass.h"
  #include "/usr/include/MMB/CifOutput.h"
  #include "/usr/include/MMB/Constexpr.h"
  #include "/usr/include/MMB/ConstraintContainer.h"
  #include "/usr/include/MMB/ContactContainer.h"
  #include "/usr/include/MMB/DensityContainer.h"
  #include "/usr/include/MMB/DensityForce.h"
  #include "/usr/include/MMB/DensityMap.h"
  #include "/usr/include/MMB/DisplacementContainer.h"
  #include "/usr/include/MMB/ElectrostaticPotentialGridForce.h"
  #include "/usr/include/MMB/ExportMacros.h"
  #include "/usr/include/MMB/ExtraMath.h"
  #include "/usr/include/MMB/GeometricCenter.h"
  #include "/usr/include/MMB/HarmonicVelocityRescalingThermostat.h"
  #include "/usr/include/MMB/Impossible.h"
  #include "/usr/include/MMB/KBBackboneTorsionForce.h"
  #include "/usr/include/MMB/Lepton.h"
  #include "/usr/include/MMB/LigandDroplet.h"
  #include "/usr/include/MMB/Ligands.h"
  #include "/usr/include/MMB/Ligands.sam.h"
  #include "/usr/include/MMB/MMBLogger.h"
  #include "/usr/include/MMB/MMB_config.h"
  #include "/usr/include/MMB/MobilizerContainer.h"
  #include "/usr/include/MMB/MoleculeContainer.h"
  #include "/usr/include/MMB/MonoAtoms.h"
  #include "/usr/include/MMB/Mutation.h"
  #include "/usr/include/MMB/NTC_FORCE_CLASS.h"
  #include "/usr/include/MMB/NTC_PARAMETER_READER.h"
  #include "/usr/include/MMB/NtCBackboneTorsionForce.h"
  #include "/usr/include/MMB/NtCForces.h"
  #include "/usr/include/MMB/NtCInteractionParameterReader.h"
  #include "/usr/include/MMB/NtC_Class_Container.h"
  #include "/usr/include/MMB/ParameterReader.h"
  #include "/usr/include/MMB/ParameterReader_wrapper.h"
  #include "/usr/include/MMB/PeriodicParameterReaderUpdater.h"
  #include "/usr/include/MMB/PeriodicPdbAndCOMWriter.h"
  #include "/usr/include/MMB/PeriodicPdbAndEnergySingleFrameWriter.h"
  #include "/usr/include/MMB/PeriodicPdbAndEnergyWriter.h"
  #include "/usr/include/MMB/PeriodicPdbSingleFrameWriter.h"
  #include "/usr/include/MMB/PeriodicScrubber.h"
  #include "/usr/include/MMB/ProgressWriter.h"
  #include "/usr/include/MMB/RandomizeRNACoordinates.h"
  #include "/usr/include/MMB/Repel.h"
  #include "/usr/include/MMB/ResidueStretchContainer.h"
  #include "/usr/include/MMB/RigidifyFormedHelices.h"
  #include "/usr/include/MMB/SetChiMobility.h"
  #include "/usr/include/MMB/SetSingleBondMobility.h"
  #include "/usr/include/MMB/Spiral.h"
  #include "/usr/include/MMB/StackingForceSubsystem.h"
  #include "/usr/include/MMB/Sterics.h"
  #include "/usr/include/MMB/TetherForce.h"
  #include "/usr/include/MMB/Threading.h"
  #include "/usr/include/MMB/UnitCellParameters.h"
  #include "/usr/include/MMB/Utils.h"
  #include "/usr/include/MMB/WadleyKeatingDuartePyleTorsionForce.h"
  #include "/usr/include/MMB/Water.h"
  #include "/usr/include/MMB/WaterDroplet.h"
  #include "/usr/include/MMB/superimposer.h"

  // add namespaces
  namespace BiopolymerType{typedef int tmp_add_type_1;}
  BiopolymerType::tmp_add_type_1 tmp_add_func_1(){return 0;};
  namespace gemmi{typedef int tmp_add_type_2;}
  gemmi::tmp_add_type_2 tmp_add_func_2(){return 0;};
  namespace gemmi{namespace cif{typedef int tmp_add_type_3;}}
  gemmi::cif::tmp_add_type_3 tmp_add_func_3(){return 0;};
  namespace gemmi{namespace cif{namespace rules{typedef int tmp_add_type_4;}}}
  gemmi::cif::rules::tmp_add_type_4 tmp_add_func_4(){return 0;};
  namespace gemmi{namespace impl{typedef int tmp_add_type_5;}}
  gemmi::impl::tmp_add_type_5 tmp_add_func_5(){return 0;};
  namespace OpenMM{typedef int tmp_add_type_6;}
  OpenMM::tmp_add_type_6 tmp_add_func_6(){return 0;};
  namespace sajson{typedef int tmp_add_type_7;}
  sajson::tmp_add_type_7 tmp_add_func_7(){return 0;};
  namespace sajson{namespace internal{typedef int tmp_add_type_8;}}
  sajson::internal::tmp_add_type_8 tmp_add_func_8(){return 0;};
  namespace seqan{typedef int tmp_add_type_9;}
  seqan::tmp_add_type_9 tmp_add_func_9(){return 0;};
  namespace seqan{namespace ClassTest{typedef int tmp_add_type_10;}}
  seqan::ClassTest::tmp_add_type_10 tmp_add_func_10(){return 0;};
  namespace seqan{namespace detail{typedef int tmp_add_type_11;}}
  seqan::detail::tmp_add_type_11 tmp_add_func_11(){return 0;};
  namespace seqan{namespace impl{typedef int tmp_add_type_12;}}
  seqan::impl::tmp_add_type_12 tmp_add_func_12(){return 0;};
  namespace seqan{namespace impl{namespace score{typedef int tmp_add_type_13;}}}
  seqan::impl::score::tmp_add_type_13 tmp_add_func_13(){return 0;};
  namespace SimTK{typedef int tmp_add_type_14;}
  SimTK::tmp_add_type_14 tmp_add_func_14(){return 0;};
  namespace SimTK{namespace BondMobility{typedef int tmp_add_type_15;}}
  SimTK::BondMobility::tmp_add_type_15 tmp_add_func_15(){return 0;};
  namespace SimTK{namespace CIFOut{typedef int tmp_add_type_16;}}
  SimTK::CIFOut::tmp_add_type_16 tmp_add_func_16(){return 0;};
  namespace SimTK{namespace DuMM{typedef int tmp_add_type_17;}}
  SimTK::DuMM::tmp_add_type_17 tmp_add_func_17(){return 0;};
  namespace SimTK{namespace Exception{typedef int tmp_add_type_18;}}
  SimTK::Exception::tmp_add_type_18 tmp_add_func_18(){return 0;};
  namespace SimTK{namespace Impl{typedef int tmp_add_type_19;}}
  SimTK::Impl::tmp_add_type_19 tmp_add_func_19(){return 0;};
  namespace SimTK{namespace mdunits{typedef int tmp_add_type_20;}}
  SimTK::mdunits::tmp_add_type_20 tmp_add_func_20(){return 0;};
  namespace SimTK{namespace Ordinality{typedef int tmp_add_type_21;}}
  SimTK::Ordinality::tmp_add_type_21 tmp_add_func_21(){return 0;};
  namespace SimTK{namespace Pdb{typedef int tmp_add_type_22;}}
  SimTK::Pdb::tmp_add_type_22 tmp_add_func_22(){return 0;};
  namespace SimTK{namespace units{typedef int tmp_add_type_23;}}
  SimTK::units::tmp_add_type_23 tmp_add_func_23(){return 0;};
  namespace SimTK{namespace units{namespace md{typedef int tmp_add_type_24;}}}
  SimTK::units::md::tmp_add_type_24 tmp_add_func_24(){return 0;};
  namespace SimTK{namespace Xml{typedef int tmp_add_type_25;}}
  SimTK::Xml::tmp_add_type_25 tmp_add_func_25(){return 0;};
  namespace tao{typedef int tmp_add_type_26;}
  tao::tmp_add_type_26 tmp_add_func_26(){return 0;};
  namespace tao{namespace pegtl{typedef int tmp_add_type_27;}}
  tao::pegtl::tmp_add_type_27 tmp_add_func_27(){return 0;};
  namespace tao{namespace pegtl{namespace ascii{typedef int tmp_add_type_28;}}}
  tao::pegtl::ascii::tmp_add_type_28 tmp_add_func_28(){return 0;};
  namespace tao{namespace pegtl{namespace internal{typedef int tmp_add_type_29;}}}
  tao::pegtl::internal::tmp_add_type_29 tmp_add_func_29(){return 0;};
  namespace tao{namespace pegtl{namespace special{typedef int tmp_add_type_30;}}}
  tao::pegtl::special::tmp_add_type_30 tmp_add_func_30(){return 0;};
  namespace tao{namespace pegtl{namespace utf8{typedef int tmp_add_type_31;}}}
  tao::pegtl::utf8::tmp_add_type_31 tmp_add_func_31(){return 0;};
  namespace fast_float{typedef int tmp_add_type_32;}
  fast_float::tmp_add_type_32 tmp_add_func_32(){return 0;};
  namespace fast_float{namespace detail{typedef int tmp_add_type_33;}}
  fast_float::detail::tmp_add_type_33 tmp_add_func_33(){return 0;};
  namespace gemmi{namespace pdb_impl{typedef int tmp_add_type_34;}}
  gemmi::pdb_impl::tmp_add_type_34 tmp_add_func_34(){return 0;};
  namespace sajson{namespace double_storage{typedef int tmp_add_type_35;}}
  sajson::double_storage::tmp_add_type_35 tmp_add_func_35(){return 0;};
  namespace sajson{namespace integer_storage{typedef int tmp_add_type_36;}}
  sajson::integer_storage::tmp_add_type_36 tmp_add_func_36(){return 0;};
  namespace seqan{namespace __anon141caf09ce11{typedef int tmp_add_type_37;}}
  seqan::__anon141caf09ce11::tmp_add_type_37 tmp_add_func_37(){return 0;};
  namespace seqan{namespace concept_checking{typedef int tmp_add_type_38;}}
  seqan::concept_checking::tmp_add_type_38 tmp_add_func_38(){return 0;};
  namespace seqan{namespace impl{namespace dp_cell{typedef int tmp_add_type_39;}}}
  seqan::impl::dp_cell::tmp_add_type_39 tmp_add_func_39(){return 0;};

The GCC parameters:
  gcc -fdump-lang-raw -fkeep-inline-functions -c -x c++ -fpermissive -w "/tmp/A4kqmwFJmO/dump1.h"  -I/usr/include/MMB -I/usr/include/simbody -I/usr/include/molmodel

In file included from /tmp/A4kqmwFJmO/dump1.h:42:
/usr/include/MMB/Lepton.h:4:10: fatal error: lepton/CompiledExpression.h: No such file or directory
    4 | #include <lepton/CompiledExpression.h>
      |          ^~~~~~~~~~~~~~~~~~~~~~~~~~~~~
compilation terminated.
ERROR: some errors occurred when compiling headers
ERROR: see log for details:
  /home/adrien/armhf-time_t/out/logs/libmmb-dev/time_t/abi-compliance-checker.log


ERROR: can't compile header(s)
