[2024-01-07T15:03:25+00:00] apt-get install libkmnkbp-dev abi-compliance-checker
Reading package lists...
Building dependency tree...
Reading state information...
abi-compliance-checker is already the newest version (2.3-2).
The following packages were automatically installed and are no longer required:
  libboost-dev libboost1.83-dev libexpat1-dev libkml-dev libkmlbase1
  libkmlconvenience1 libkmldom1 libkmlengine1 libkmlregionator1 libkmlxsd1
  libminizip-dev libminizip1 liburiparser-dev liburiparser1 zlib1g-dev
Use 'apt autoremove' to remove them.
Suggested packages:
  keyman
The following NEW packages will be installed:
  libkmnkbp-dev libkmnkbp0-0
0 upgraded, 2 newly installed, 0 to remove and 30 not upgraded.
Need to get 176 kB of archives.
After this operation, 329 kB of additional disk space will be used.
Get:1 http://deb.debian.org/debian unstable/main armhf libkmnkbp0-0 armhf 16.0.144-1 [103 kB]
Get:2 http://deb.debian.org/debian unstable/main armhf libkmnkbp-dev armhf 16.0.144-1 [72.1 kB]
debconf: delaying package configuration, since apt-utils is not installed
Fetched 176 kB in 0s (414 kB/s)
Selecting previously unselected package libkmnkbp0-0:armhf.
(Reading database ... (Reading database ... 5%(Reading database ... 10%(Reading database ... 15%(Reading database ... 20%(Reading database ... 25%(Reading database ... 30%(Reading database ... 35%(Reading database ... 40%(Reading database ... 45%(Reading database ... 50%(Reading database ... 55%(Reading database ... 60%(Reading database ... 65%(Reading database ... 70%(Reading database ... 75%(Reading database ... 80%(Reading database ... 85%(Reading database ... 90%(Reading database ... 95%(Reading database ... 100%(Reading database ... 33230 files and directories currently installed.)
Preparing to unpack .../libkmnkbp0-0_16.0.144-1_armhf.deb ...
Unpacking libkmnkbp0-0:armhf (16.0.144-1) ...
Selecting previously unselected package libkmnkbp-dev:armhf.
Preparing to unpack .../libkmnkbp-dev_16.0.144-1_armhf.deb ...
Unpacking libkmnkbp-dev:armhf (16.0.144-1) ...
Setting up libkmnkbp0-0:armhf (16.0.144-1) ...
Setting up libkmnkbp-dev:armhf (16.0.144-1) ...
Processing triggers for libc-bin (2.37-13) ...
Reading package lists...
Building dependency tree...
Reading state information...
The following packages will be REMOVED:
  libboost-dev* libboost1.83-dev* libexpat1-dev* libkml-dev* libkmlbase1*
  libkmlconvenience1* libkmldom1* libkmlengine1* libkmlregionator1*
  libkmlxsd1* libminizip-dev* libminizip1* liburiparser-dev* liburiparser1*
  zlib1g-dev*
0 upgraded, 0 newly installed, 15 to remove and 30 not upgraded.
After this operation, 168 MB disk space will be freed.
(Reading database ... (Reading database ... 5%(Reading database ... 10%(Reading database ... 15%(Reading database ... 20%(Reading database ... 25%(Reading database ... 30%(Reading database ... 35%(Reading database ... 40%(Reading database ... 45%(Reading database ... 50%(Reading database ... 55%(Reading database ... 60%(Reading database ... 65%(Reading database ... 70%(Reading database ... 75%(Reading database ... 80%(Reading database ... 85%(Reading database ... 90%(Reading database ... 95%(Reading database ... 100%(Reading database ... 33251 files and directories currently installed.)
Removing libkml-dev:armhf (1.3.0-10) ...
Removing libboost-dev:armhf (1.83.0.2) ...
Removing libboost1.83-dev:armhf (1.83.0-2+b2) ...
Removing libexpat1-dev:armhf (2.5.0-2+b2) ...
Removing libkmlregionator1:armhf (1.3.0-10) ...
Removing libkmlconvenience1:armhf (1.3.0-10) ...
Removing libkmlxsd1:armhf (1.3.0-10) ...
Removing libkmlengine1:armhf (1.3.0-10) ...
Removing libkmldom1:armhf (1.3.0-10) ...
Removing libminizip-dev:armhf (1:1.3.dfsg-3) ...
Removing liburiparser-dev (0.9.7+dfsg-2) ...
Removing zlib1g-dev:armhf (1:1.3.dfsg-3) ...
Removing libkmlbase1:armhf (1.3.0-10) ...
Removing libminizip1:armhf (1:1.3.dfsg-3) ...
Removing liburiparser1:armhf (0.9.7+dfsg-2) ...
Processing triggers for libc-bin (2.37-13) ...
