[2024-01-07T22:21:28+00:00] apt-get install libmypaint-dev abi-compliance-checker
Reading package lists...
Building dependency tree...
Reading state information...
abi-compliance-checker is already the newest version (2.3-2).
The following packages were automatically installed and are no longer required:
  libasound2 libasound2-data libasyncns0 libbrotli1 libdecor-0-0 libdeflate0
  libdrm-amdgpu1 libdrm-common libdrm-nouveau2 libdrm-radeon1 libdrm2 libedit2
  libflac12 libfreeimage3 libfreetype6 libgbm1 libgl1 libgl1-mesa-dri
  libglapi-mesa libglew2.2 libglvnd0 libglx-mesa0 libglx0 libice6
  libimath-3-1-29 libjbig0 libjpeg62-turbo libjxr0 liblcms2-2 liblerc4
  libllvm17 libmp3lame0 libmpg123-0 libmygui-dev
  libmygui.ogreplatform0debian1v5 libmygui.opengl3platform0debian1v5
  libmygui.openglplatform0debian1v5 libmyguiengine3debian1v5 libogg0
  libogre1.12.10 libopenexr-3-1-30 libopengl0 libopenjp2-7 libopus0
  libpng16-16 libpugixml1v5 libpulse0 libraw23 libsamplerate0 libsdl2-2.0-0
  libsensors-config libsensors5 libsharpyuv0 libsm6 libsndfile1 libstb0
  libtiff6 libvorbis0a libvorbisenc2 libvulkan1 libwayland-client0
  libwayland-cursor0 libwayland-egl1 libwayland-server0 libwebp7 libwebpmux3
  libx11-6 libx11-data libx11-xcb1 libxau6 libxaw7 libxcb-dri2-0 libxcb-dri3-0
  libxcb-glx0 libxcb-present0 libxcb-randr0 libxcb-shm0 libxcb-sync1
  libxcb-xfixes0 libxcb1 libxcursor1 libxdmcp6 libxext6 libxfixes3 libxi6
  libxkbcommon0 libxmu6 libxpm4 libxrandr2 libxrender1 libxshmfence1 libxss1
  libxt6 libxxf86vm1 libz3-4 libzzip-0-13 x11-common xkb-data
Use 'apt autoremove' to remove them.
The following additional packages will be installed:
  gir1.2-glib-2.0 gir1.2-mypaint-1.5 libblkid-dev libffi-dev
  libgirepository-1.0-1 libglib2.0-0 libglib2.0-bin libglib2.0-data
  libglib2.0-dev libglib2.0-dev-bin libjson-c-dev libmount-dev
  libmypaint-1.5-1 libmypaint-common libpcre2-16-0 libpcre2-32-0 libpcre2-dev
  libpcre2-posix3 libpkgconf3 libselinux1-dev libsepol-dev pkg-config pkgconf
  pkgconf-bin python3-distutils python3-lib2to3 uuid-dev zlib1g-dev
Suggested packages:
  low-memory-monitor libgirepository1.0-dev libglib2.0-doc
  libgdk-pixbuf2.0-bin libxml2-utils libmypaint-doc
Recommended packages:
  shared-mime-info xdg-user-dirs
The following NEW packages will be installed:
  gir1.2-glib-2.0 gir1.2-mypaint-1.5 libblkid-dev libffi-dev
  libgirepository-1.0-1 libglib2.0-0 libglib2.0-bin libglib2.0-data
  libglib2.0-dev libglib2.0-dev-bin libjson-c-dev libmount-dev
  libmypaint-1.5-1 libmypaint-common libmypaint-dev libpcre2-16-0
  libpcre2-32-0 libpcre2-dev libpcre2-posix3 libpkgconf3 libselinux1-dev
  libsepol-dev pkg-config pkgconf pkgconf-bin python3-distutils
  python3-lib2to3 uuid-dev zlib1g-dev
0 upgraded, 29 newly installed, 0 to remove and 36 not upgraded.
Need to get 7960 kB of archives.
After this operation, 32.4 MB of additional disk space will be used.
Get:1 http://deb.debian.org/debian unstable/main armhf libglib2.0-0 armhf 2.78.3-1 [1282 kB]
Get:2 http://deb.debian.org/debian unstable/main armhf libgirepository-1.0-1 armhf 1.78.1-6 [94.8 kB]
Get:3 http://deb.debian.org/debian unstable/main armhf gir1.2-glib-2.0 armhf 1.78.1-6 [165 kB]
Get:4 http://deb.debian.org/debian unstable/main armhf libmypaint-common all 1.6.0-2 [140 kB]
Get:5 http://deb.debian.org/debian unstable/main armhf libmypaint-1.5-1 armhf 1.6.0-2 [41.2 kB]
Get:6 http://deb.debian.org/debian unstable/main armhf gir1.2-mypaint-1.5 armhf 1.6.0-2 [8216 B]
Get:7 http://deb.debian.org/debian unstable/main armhf uuid-dev armhf 2.39.3-6 [39.6 kB]
Get:8 http://deb.debian.org/debian unstable/main armhf libblkid-dev armhf 2.39.3-6 [186 kB]
Get:9 http://deb.debian.org/debian unstable/main armhf libffi-dev armhf 3.4.4-2 [55.7 kB]
Get:10 http://deb.debian.org/debian unstable/main armhf libglib2.0-data all 2.78.3-1 [1223 kB]
Get:11 http://deb.debian.org/debian unstable/main armhf libglib2.0-bin armhf 2.78.3-1 [108 kB]
Get:12 http://deb.debian.org/debian unstable/main armhf python3-lib2to3 all 3.11.5-1 [77.5 kB]
Get:13 http://deb.debian.org/debian unstable/main armhf python3-distutils all 3.11.5-1 [131 kB]
Get:14 http://deb.debian.org/debian unstable/main armhf libglib2.0-dev-bin armhf 2.78.3-1 [154 kB]
Get:15 http://deb.debian.org/debian unstable/main armhf libsepol-dev armhf 3.5-2 [319 kB]
Get:16 http://deb.debian.org/debian unstable/main armhf libpcre2-16-0 armhf 10.42-4 [211 kB]
Get:17 http://deb.debian.org/debian unstable/main armhf libpcre2-32-0 armhf 10.42-4 [202 kB]
Get:18 http://deb.debian.org/debian unstable/main armhf libpcre2-posix3 armhf 10.42-4 [55.0 kB]
Get:19 http://deb.debian.org/debian unstable/main armhf libpcre2-dev armhf 10.42-4 [668 kB]
Get:20 http://deb.debian.org/debian unstable/main armhf libselinux1-dev armhf 3.5-1+b2 [151 kB]
Get:21 http://deb.debian.org/debian unstable/main armhf libmount-dev armhf 2.39.3-6 [23.6 kB]
Get:22 http://deb.debian.org/debian unstable/main armhf libpkgconf3 armhf 1.8.1-1+b2 [31.9 kB]
Get:23 http://deb.debian.org/debian unstable/main armhf pkgconf-bin armhf 1.8.1-1+b2 [28.9 kB]
Get:24 http://deb.debian.org/debian unstable/main armhf pkgconf armhf 1.8.1-1+b2 [26.2 kB]
Get:25 http://deb.debian.org/debian unstable/main armhf pkg-config armhf 1.8.1-1+b2 [14.0 kB]
Get:26 http://deb.debian.org/debian unstable/main armhf zlib1g-dev armhf 1:1.3.dfsg-3 [904 kB]
Get:27 http://deb.debian.org/debian unstable/main armhf libglib2.0-dev armhf 2.78.3-1 [1526 kB]
Get:28 http://deb.debian.org/debian unstable/main armhf libjson-c-dev armhf 0.17-1 [68.0 kB]
Get:29 http://deb.debian.org/debian unstable/main armhf libmypaint-dev armhf 1.6.0-2 [24.7 kB]
debconf: delaying package configuration, since apt-utils is not installed
Fetched 7960 kB in 1s (12.5 MB/s)
Selecting previously unselected package libglib2.0-0:armhf.
(Reading database ... (Reading database ... 5%(Reading database ... 10%(Reading database ... 15%(Reading database ... 20%(Reading database ... 25%(Reading database ... 30%(Reading database ... 35%(Reading database ... 40%(Reading database ... 45%(Reading database ... 50%(Reading database ... 55%(Reading database ... 60%(Reading database ... 65%(Reading database ... 70%(Reading database ... 75%(Reading database ... 80%(Reading database ... 85%(Reading database ... 90%(Reading database ... 95%(Reading database ... 100%(Reading database ... 16432 files and directories currently installed.)
Preparing to unpack .../00-libglib2.0-0_2.78.3-1_armhf.deb ...
Unpacking libglib2.0-0:armhf (2.78.3-1) ...
Selecting previously unselected package libgirepository-1.0-1:armhf.
Preparing to unpack .../01-libgirepository-1.0-1_1.78.1-6_armhf.deb ...
Unpacking libgirepository-1.0-1:armhf (1.78.1-6) ...
Selecting previously unselected package gir1.2-glib-2.0:armhf.
Preparing to unpack .../02-gir1.2-glib-2.0_1.78.1-6_armhf.deb ...
Unpacking gir1.2-glib-2.0:armhf (1.78.1-6) ...
Selecting previously unselected package libmypaint-common.
Preparing to unpack .../03-libmypaint-common_1.6.0-2_all.deb ...
Unpacking libmypaint-common (1.6.0-2) ...
Selecting previously unselected package libmypaint-1.5-1:armhf.
Preparing to unpack .../04-libmypaint-1.5-1_1.6.0-2_armhf.deb ...
Unpacking libmypaint-1.5-1:armhf (1.6.0-2) ...
Selecting previously unselected package gir1.2-mypaint-1.5:armhf.
Preparing to unpack .../05-gir1.2-mypaint-1.5_1.6.0-2_armhf.deb ...
Unpacking gir1.2-mypaint-1.5:armhf (1.6.0-2) ...
Selecting previously unselected package uuid-dev:armhf.
Preparing to unpack .../06-uuid-dev_2.39.3-6_armhf.deb ...
Unpacking uuid-dev:armhf (2.39.3-6) ...
Selecting previously unselected package libblkid-dev:armhf.
Preparing to unpack .../07-libblkid-dev_2.39.3-6_armhf.deb ...
Unpacking libblkid-dev:armhf (2.39.3-6) ...
Selecting previously unselected package libffi-dev:armhf.
Preparing to unpack .../08-libffi-dev_3.4.4-2_armhf.deb ...
Unpacking libffi-dev:armhf (3.4.4-2) ...
Selecting previously unselected package libglib2.0-data.
Preparing to unpack .../09-libglib2.0-data_2.78.3-1_all.deb ...
Unpacking libglib2.0-data (2.78.3-1) ...
Selecting previously unselected package libglib2.0-bin.
Preparing to unpack .../10-libglib2.0-bin_2.78.3-1_armhf.deb ...
Unpacking libglib2.0-bin (2.78.3-1) ...
Selecting previously unselected package python3-lib2to3.
Preparing to unpack .../11-python3-lib2to3_3.11.5-1_all.deb ...
Unpacking python3-lib2to3 (3.11.5-1) ...
Selecting previously unselected package python3-distutils.
Preparing to unpack .../12-python3-distutils_3.11.5-1_all.deb ...
Unpacking python3-distutils (3.11.5-1) ...
Selecting previously unselected package libglib2.0-dev-bin.
Preparing to unpack .../13-libglib2.0-dev-bin_2.78.3-1_armhf.deb ...
Unpacking libglib2.0-dev-bin (2.78.3-1) ...
Selecting previously unselected package libsepol-dev:armhf.
Preparing to unpack .../14-libsepol-dev_3.5-2_armhf.deb ...
Unpacking libsepol-dev:armhf (3.5-2) ...
Selecting previously unselected package libpcre2-16-0:armhf.
Preparing to unpack .../15-libpcre2-16-0_10.42-4_armhf.deb ...
Unpacking libpcre2-16-0:armhf (10.42-4) ...
Selecting previously unselected package libpcre2-32-0:armhf.
Preparing to unpack .../16-libpcre2-32-0_10.42-4_armhf.deb ...
Unpacking libpcre2-32-0:armhf (10.42-4) ...
Selecting previously unselected package libpcre2-posix3:armhf.
Preparing to unpack .../17-libpcre2-posix3_10.42-4_armhf.deb ...
Unpacking libpcre2-posix3:armhf (10.42-4) ...
Selecting previously unselected package libpcre2-dev:armhf.
Preparing to unpack .../18-libpcre2-dev_10.42-4_armhf.deb ...
Unpacking libpcre2-dev:armhf (10.42-4) ...
Selecting previously unselected package libselinux1-dev:armhf.
Preparing to unpack .../19-libselinux1-dev_3.5-1+b2_armhf.deb ...
Unpacking libselinux1-dev:armhf (3.5-1+b2) ...
Selecting previously unselected package libmount-dev:armhf.
Preparing to unpack .../20-libmount-dev_2.39.3-6_armhf.deb ...
Unpacking libmount-dev:armhf (2.39.3-6) ...
Selecting previously unselected package libpkgconf3:armhf.
Preparing to unpack .../21-libpkgconf3_1.8.1-1+b2_armhf.deb ...
Unpacking libpkgconf3:armhf (1.8.1-1+b2) ...
Selecting previously unselected package pkgconf-bin.
Preparing to unpack .../22-pkgconf-bin_1.8.1-1+b2_armhf.deb ...
Unpacking pkgconf-bin (1.8.1-1+b2) ...
Selecting previously unselected package pkgconf:armhf.
Preparing to unpack .../23-pkgconf_1.8.1-1+b2_armhf.deb ...
Unpacking pkgconf:armhf (1.8.1-1+b2) ...
Selecting previously unselected package pkg-config:armhf.
Preparing to unpack .../24-pkg-config_1.8.1-1+b2_armhf.deb ...
Unpacking pkg-config:armhf (1.8.1-1+b2) ...
Selecting previously unselected package zlib1g-dev:armhf.
Preparing to unpack .../25-zlib1g-dev_1%3a1.3.dfsg-3_armhf.deb ...
Unpacking zlib1g-dev:armhf (1:1.3.dfsg-3) ...
Selecting previously unselected package libglib2.0-dev:armhf.
Preparing to unpack .../26-libglib2.0-dev_2.78.3-1_armhf.deb ...
Unpacking libglib2.0-dev:armhf (2.78.3-1) ...
Selecting previously unselected package libjson-c-dev:armhf.
Preparing to unpack .../27-libjson-c-dev_0.17-1_armhf.deb ...
Unpacking libjson-c-dev:armhf (0.17-1) ...
Selecting previously unselected package libmypaint-dev:armhf.
Preparing to unpack .../28-libmypaint-dev_1.6.0-2_armhf.deb ...
Unpacking libmypaint-dev:armhf (1.6.0-2) ...
Setting up libmypaint-common (1.6.0-2) ...
Setting up libglib2.0-0:armhf (2.78.3-1) ...
No schema files found: doing nothing.
Setting up libjson-c-dev:armhf (0.17-1) ...
Setting up libffi-dev:armhf (3.4.4-2) ...
Setting up libpcre2-16-0:armhf (10.42-4) ...
Setting up libmypaint-1.5-1:armhf (1.6.0-2) ...
Setting up libpcre2-32-0:armhf (10.42-4) ...
Setting up libglib2.0-data (2.78.3-1) ...
Setting up libpkgconf3:armhf (1.8.1-1+b2) ...
Setting up uuid-dev:armhf (2.39.3-6) ...
Setting up libsepol-dev:armhf (3.5-2) ...
Setting up pkgconf-bin (1.8.1-1+b2) ...
Setting up zlib1g-dev:armhf (1:1.3.dfsg-3) ...
Setting up libpcre2-posix3:armhf (10.42-4) ...
Setting up libgirepository-1.0-1:armhf (1.78.1-6) ...
Setting up python3-lib2to3 (3.11.5-1) ...
Setting up python3-distutils (3.11.5-1) ...
Setting up libglib2.0-dev-bin (2.78.3-1) ...
Setting up libblkid-dev:armhf (2.39.3-6) ...
Setting up libpcre2-dev:armhf (10.42-4) ...
Setting up libselinux1-dev:armhf (3.5-1+b2) ...
Setting up libglib2.0-bin (2.78.3-1) ...
Setting up pkgconf:armhf (1.8.1-1+b2) ...
Setting up pkg-config:armhf (1.8.1-1+b2) ...
Setting up gir1.2-glib-2.0:armhf (1.78.1-6) ...
Setting up libmount-dev:armhf (2.39.3-6) ...
Setting up gir1.2-mypaint-1.5:armhf (1.6.0-2) ...
Setting up libglib2.0-dev:armhf (2.78.3-1) ...
Setting up libmypaint-dev:armhf (1.6.0-2) ...
Processing triggers for libc-bin (2.37-13) ...
Reading package lists...
Building dependency tree...
Reading state information...
The following packages will be REMOVED:
  libasound2* libasound2-data* libasyncns0* libbrotli1* libdecor-0-0*
  libdeflate0* libdrm-amdgpu1* libdrm-common* libdrm-nouveau2* libdrm-radeon1*
  libdrm2* libedit2* libflac12* libfreeimage3* libfreetype6* libgbm1* libgl1*
  libgl1-mesa-dri* libglapi-mesa* libglew2.2* libglvnd0* libglx-mesa0*
  libglx0* libice6* libimath-3-1-29* libjbig0* libjpeg62-turbo* libjxr0*
  liblcms2-2* liblerc4* libllvm17* libmp3lame0* libmpg123-0* libmygui-dev*
  libmygui.ogreplatform0debian1v5* libmygui.opengl3platform0debian1v5*
  libmygui.openglplatform0debian1v5* libmyguiengine3debian1v5* libogg0*
  libogre1.12.10* libopenexr-3-1-30* libopengl0* libopenjp2-7* libopus0*
  libpng16-16* libpugixml1v5* libpulse0* libraw23* libsamplerate0*
  libsdl2-2.0-0* libsensors-config* libsensors5* libsharpyuv0* libsm6*
  libsndfile1* libstb0* libtiff6* libvorbis0a* libvorbisenc2* libvulkan1*
  libwayland-client0* libwayland-cursor0* libwayland-egl1* libwayland-server0*
  libwebp7* libwebpmux3* libx11-6* libx11-data* libx11-xcb1* libxau6* libxaw7*
  libxcb-dri2-0* libxcb-dri3-0* libxcb-glx0* libxcb-present0* libxcb-randr0*
  libxcb-shm0* libxcb-sync1* libxcb-xfixes0* libxcb1* libxcursor1* libxdmcp6*
  libxext6* libxfixes3* libxi6* libxkbcommon0* libxmu6* libxpm4* libxrandr2*
  libxrender1* libxshmfence1* libxss1* libxt6* libxxf86vm1* libz3-4*
  libzzip-0-13* x11-common* xkb-data*
0 upgraded, 0 newly installed, 98 to remove and 36 not upgraded.
After this operation, 198 MB disk space will be freed.
(Reading database ... (Reading database ... 5%(Reading database ... 10%(Reading database ... 15%(Reading database ... 20%(Reading database ... 25%(Reading database ... 30%(Reading database ... 35%(Reading database ... 40%(Reading database ... 45%(Reading database ... 50%(Reading database ... 55%(Reading database ... 60%(Reading database ... 65%(Reading database ... 70%(Reading database ... 75%(Reading database ... 80%(Reading database ... 85%(Reading database ... 90%(Reading database ... 95%(Reading database ... 100%(Reading database ... 17933 files and directories currently installed.)
Removing libmygui-dev (3.4.2+dfsg-1) ...
Removing libmygui.ogreplatform0debian1v5 (3.4.2+dfsg-1) ...
Removing libogre1.12.10 (1.12.10+dfsg2-3+b1) ...
Removing libsdl2-2.0-0:armhf (2.28.5+dfsg-3) ...
Removing libasound2:armhf (1.2.10-3) ...
Removing libasound2-data (1.2.10-3) ...
Removing libpulse0:armhf (16.1+dfsg1-3) ...
Removing libasyncns0:armhf (0.8-6+b3) ...
Removing libmygui.openglplatform0debian1v5 (3.4.2+dfsg-1) ...
Removing libmygui.opengl3platform0debian1v5 (3.4.2+dfsg-1) ...
Removing libmyguiengine3debian1v5 (3.4.2+dfsg-1) ...
Removing libfreetype6:armhf (2.13.2+dfsg-1+b1) ...
Removing libbrotli1:armhf (1.1.0-2+b3) ...
Removing libdecor-0-0:armhf (0.2.1-1) ...
Removing libfreeimage3:armhf (3.18.0+ds2-10) ...
Removing libtiff6:armhf (4.5.1+git230720-3) ...
Removing libdeflate0:armhf (1.18-1) ...
Removing libglew2.2:armhf (2.2.0-4+b1) ...
Removing libgl1:armhf (1.7.0-1) ...
Removing libglx0:armhf (1.7.0-1) ...
Removing libglx-mesa0:armhf (23.3.2-2) ...
Removing libgl1-mesa-dri:armhf (23.3.2-2) ...
Removing libdrm-amdgpu1:armhf (2.4.117-1) ...
Removing libgbm1:armhf (23.3.2-2) ...
Removing libdrm-radeon1:armhf (2.4.117-1) ...
Removing libdrm-nouveau2:armhf (2.4.117-1) ...
Removing libllvm17:armhf (1:17.0.6-3) ...
Removing libedit2:armhf (3.1-20230828-1) ...
Removing libsndfile1:armhf (1.2.2-1) ...
Removing libflac12:armhf (1.4.3+ds-2+b1) ...
Removing libglapi-mesa:armhf (23.3.2-2) ...
Removing libopengl0:armhf (1.7.0-1) ...
Removing libglvnd0:armhf (1.7.0-1) ...
Removing libxaw7:armhf (2:1.0.14-1) ...
Removing libxmu6:armhf (2:1.1.3-3) ...
Removing libxt6:armhf (1:1.2.1-1.1) ...
Removing libsm6:armhf (2:1.2.3-1) ...
Removing libice6:armhf (2:1.0.10-1) ...
Removing libopenexr-3-1-30:armhf (3.1.5-5.1) ...
Removing libimath-3-1-29:armhf (3.1.9-3+b1) ...
Removing libjbig0:armhf (2.1-6.1) ...
Removing libraw23:armhf (0.21.1-7) ...
Removing libjpeg62-turbo:armhf (1:2.1.5-2+b2) ...
Removing libjxr0:armhf (1.2~git20170615.f752187-5) ...
Removing liblcms2-2:armhf (2.14-2) ...
Removing liblerc4:armhf (4.0.0+ds-4) ...
Removing libmp3lame0:armhf (3.100-6+b2) ...
Removing libmpg123-0:armhf (1.32.3-1) ...
Removing libvorbisenc2:armhf (1.3.7-1) ...
Removing libvorbis0a:armhf (1.3.7-1) ...
Removing libogg0:armhf (1.3.5-3) ...
Removing libopenjp2-7:armhf (2.5.0-2+b2) ...
Removing libopus0:armhf (1.4-1) ...
Removing libpng16-16:armhf (1.6.40-3) ...
Removing libpugixml1v5:armhf (1.14-0.1) ...
Removing libsamplerate0:armhf (0.2.2-4) ...
Removing libsensors5:armhf (1:3.6.0-8) ...
Removing libsensors-config (1:3.6.0-8) ...
Removing libwebpmux3:armhf (1.3.2-0.3) ...
Removing libwebp7:armhf (1.3.2-0.3) ...
Removing libsharpyuv0:armhf (1.3.2-0.3) ...
Removing libstb0:armhf (0.0~git20230129.5736b15+ds-1) ...
Removing libvulkan1:armhf (1.3.268.0-1) ...
Removing libwayland-cursor0:armhf (1.22.0-2.1) ...
Removing libwayland-client0:armhf (1.22.0-2.1) ...
Removing libwayland-egl1:armhf (1.22.0-2.1) ...
Removing libwayland-server0:armhf (1.22.0-2.1) ...
Removing libxxf86vm1:armhf (1:1.1.4-1+b2) ...
Removing libxss1:armhf (1:1.2.3-1) ...
Removing libx11-xcb1:armhf (2:1.8.7-1) ...
Removing libxcb-xfixes0:armhf (1.15-1) ...
Removing libxcb-sync1:armhf (1.15-1) ...
Removing libxcb-dri2-0:armhf (1.15-1) ...
Removing libxcb-dri3-0:armhf (1.15-1) ...
Removing libxcb-glx0:armhf (1.15-1) ...
Removing libxcb-present0:armhf (1.15-1) ...
Removing libxcb-randr0:armhf (1.15-1) ...
Removing libxcb-shm0:armhf (1.15-1) ...
Removing libxcursor1:armhf (1:1.2.1-1) ...
Removing libxrandr2:armhf (2:1.5.2-2+b1) ...
Removing libxfixes3:armhf (1:6.0.0-2) ...
Removing libxi6:armhf (2:1.8-1+b1) ...
Removing libxkbcommon0:armhf (1.6.0-1) ...
Removing libxpm4:armhf (1:3.5.17-1) ...
Removing libxrender1:armhf (1:0.9.10-1.1) ...
Removing libxshmfence1:armhf (1.3-1) ...
Removing libz3-4:armhf (4.8.12-3.1+b2) ...
Removing libzzip-0-13:armhf (0.13.72+dfsg.1-1.1) ...
Removing x11-common (1:7.7+23) ...
invoke-rc.d: could not determine current runlevel
Removing xkb-data (2.38-2) ...
Removing libdrm2:armhf (2.4.117-1) ...
Removing libdrm-common (2.4.117-1) ...
Removing libxext6:armhf (2:1.3.4-1+b1) ...
Removing libx11-6:armhf (2:1.8.7-1) ...
Removing libx11-data (2:1.8.7-1) ...
Removing libxcb1:armhf (1.15-1) ...
Removing libxau6:armhf (1:1.0.9-1) ...
Removing libxdmcp6:armhf (1:1.1.2-3) ...
Processing triggers for libc-bin (2.37-13) ...
(Reading database ... (Reading database ... 5%(Reading database ... 10%(Reading database ... 15%(Reading database ... 20%(Reading database ... 25%(Reading database ... 30%(Reading database ... 35%(Reading database ... 40%(Reading database ... 45%(Reading database ... 50%(Reading database ... 55%(Reading database ... 60%(Reading database ... 65%(Reading database ... 70%(Reading database ... 75%(Reading database ... 80%(Reading database ... 85%(Reading database ... 90%(Reading database ... 95%(Reading database ... 100%(Reading database ... 16244 files and directories currently installed.)
Purging configuration files for libpulse0:armhf (16.1+dfsg1-3) ...
Purging configuration files for libgl1-mesa-dri:armhf (23.3.2-2) ...
Purging configuration files for x11-common (1:7.7+23) ...
Purging configuration files for libsensors-config (1:3.6.0-8) ...
