[2024-01-31T18:43:52+00:00] apt-get install libapt-pkg-dev abi-compliance-checker
Reading package lists...
Building dependency tree...
Reading state information...
abi-compliance-checker is already the newest version (2.3-2).
The following packages were automatically installed and are no longer required:
  libapr1 libapr1-dev libaprutil1 libaprutil1-dev libldap-dev libldap2-dev
  libsctp-dev libsctp1 uuid-dev
Use 'apt autoremove' to remove them.
The following additional packages will be installed:
  apt libapt-pkg6.0
Suggested packages:
  apt-doc aptitude | synaptic | wajig powermgmt-base
Recommended packages:
  ca-certificates
The following NEW packages will be installed:
  libapt-pkg-dev
The following packages will be upgraded:
  apt libapt-pkg6.0
2 upgraded, 1 newly installed, 0 to remove and 48 not upgraded.
Need to get 2297 kB of archives.
After this operation, 614 kB of additional disk space will be used.
Get:1 http://deb.debian.org/debian unstable/main armhf libapt-pkg6.0 armhf 2.7.10 [883 kB]
Get:2 http://deb.debian.org/debian unstable/main armhf apt armhf 2.7.10 [1300 kB]
Get:3 http://deb.debian.org/debian unstable/main armhf libapt-pkg-dev armhf 2.7.10 [115 kB]
debconf: delaying package configuration, since apt-utils is not installed
Fetched 2297 kB in 2s (1094 kB/s)
(Reading database ... (Reading database ... 5%(Reading database ... 10%(Reading database ... 15%(Reading database ... 20%(Reading database ... 25%(Reading database ... 30%(Reading database ... 35%(Reading database ... 40%(Reading database ... 45%(Reading database ... 50%(Reading database ... 55%(Reading database ... 60%(Reading database ... 65%(Reading database ... 70%(Reading database ... 75%(Reading database ... 80%(Reading database ... 85%(Reading database ... 90%(Reading database ... 95%(Reading database ... 100%(Reading database ... 21041 files and directories currently installed.)
Preparing to unpack .../libapt-pkg6.0_2.7.10_armhf.deb ...
Unpacking libapt-pkg6.0:armhf (2.7.10) over (2.7.7) ...
Setting up libapt-pkg6.0:armhf (2.7.10) ...
(Reading database ... (Reading database ... 5%(Reading database ... 10%(Reading database ... 15%(Reading database ... 20%(Reading database ... 25%(Reading database ... 30%(Reading database ... 35%(Reading database ... 40%(Reading database ... 45%(Reading database ... 50%(Reading database ... 55%(Reading database ... 60%(Reading database ... 65%(Reading database ... 70%(Reading database ... 75%(Reading database ... 80%(Reading database ... 85%(Reading database ... 90%(Reading database ... 95%(Reading database ... 100%(Reading database ... 21041 files and directories currently installed.)
Preparing to unpack .../archives/apt_2.7.10_armhf.deb ...
Unpacking apt (2.7.10) over (2.7.7) ...
Setting up apt (2.7.10) ...
Selecting previously unselected package libapt-pkg-dev:armhf.
(Reading database ... (Reading database ... 5%(Reading database ... 10%(Reading database ... 15%(Reading database ... 20%(Reading database ... 25%(Reading database ... 30%(Reading database ... 35%(Reading database ... 40%(Reading database ... 45%(Reading database ... 50%(Reading database ... 55%(Reading database ... 60%(Reading database ... 65%(Reading database ... 70%(Reading database ... 75%(Reading database ... 80%(Reading database ... 85%(Reading database ... 90%(Reading database ... 95%(Reading database ... 100%(Reading database ... 21041 files and directories currently installed.)
Preparing to unpack .../libapt-pkg-dev_2.7.10_armhf.deb ...
Unpacking libapt-pkg-dev:armhf (2.7.10) ...
Setting up libapt-pkg-dev:armhf (2.7.10) ...
Processing triggers for libc-bin (2.37-13) ...
Reading package lists...
Building dependency tree...
Reading state information...
The following packages will be REMOVED:
  libapr1* libapr1-dev* libaprutil1* libaprutil1-dev* libldap-dev*
  libldap2-dev* libsctp-dev* libsctp1* uuid-dev*
0 upgraded, 0 newly installed, 9 to remove and 48 not upgraded.
After this operation, 16.8 MB disk space will be freed.
(Reading database ... (Reading database ... 5%(Reading database ... 10%(Reading database ... 15%(Reading database ... 20%(Reading database ... 25%(Reading database ... 30%(Reading database ... 35%(Reading database ... 40%(Reading database ... 45%(Reading database ... 50%(Reading database ... 55%(Reading database ... 60%(Reading database ... 65%(Reading database ... 70%(Reading database ... 75%(Reading database ... 80%(Reading database ... 85%(Reading database ... 90%(Reading database ... 95%(Reading database ... 100%(Reading database ... 21116 files and directories currently installed.)
Removing libaprutil1-dev (1.6.3-1+b1) ...
Removing libapr1-dev (1.7.2-3+b2) ...
Removing libaprutil1:armhf (1.6.3-1+b1) ...
Removing libapr1:armhf (1.7.2-3+b2) ...
Removing libldap2-dev (2.5.13+dfsg-5) ...
Removing libldap-dev:armhf (2.5.13+dfsg-5+b3) ...
Removing libsctp-dev:armhf (1.0.19+dfsg-2) ...
Removing libsctp1:armhf (1.0.19+dfsg-2) ...
Removing uuid-dev:armhf (2.39.3-6) ...
Processing triggers for libc-bin (2.37-13) ...
