[2024-01-08T08:01:53+00:00] apt-get install libsigrok-dev abi-compliance-checker
Reading package lists...
Building dependency tree...
Reading state information...
abi-compliance-checker is already the newest version (2.3-2).
The following packages were automatically installed and are no longer required:
  fontconfig fontconfig-config fonts-dejavu-core fonts-dejavu-mono
  libavahi-client3 libavahi-common-data libavahi-common3 libbrotli1 libcups2
  libdouble-conversion3 libdrm-amdgpu1 libdrm-common libdrm-nouveau2
  libdrm-radeon1 libdrm2 libegl-dev libegl-mesa0 libegl1 libevdev2
  libfontconfig1 libfreetype6 libgbm1 libgl-dev libgl1 libgl1-mesa-dri
  libglapi-mesa libgles-dev libgles1 libgles2 libglvnd0 libglx-dev
  libglx-mesa0 libglx0 libgraphite2-3 libgudev-1.0-0 libharfbuzz0b libice6
  libinput-bin libinput10 libjpeg62-turbo libllvm17 libmd4c0 libmtdev1
  libpng16-16 libpthread-stubs0-dev libqt5concurrent5 libqt5core5a libqt5dbus5
  libqt5gui5 libqt5network5 libqt5printsupport5 libqt5sql5 libqt5test5
  libqt5widgets5 libqt5xml5 libsensors-config libsensors5 libsignon-qt5-1
  libsignon-qt5-dev libsm6 libvulkan-dev libvulkan1 libwacom-common libwacom9
  libwayland-client0 libwayland-server0 libx11-dev libx11-xcb1 libxau-dev
  libxcb-dri2-0 libxcb-dri3-0 libxcb-glx0 libxcb-icccm4 libxcb-image0
  libxcb-keysyms1 libxcb-present0 libxcb-randr0 libxcb-render-util0
  libxcb-render0 libxcb-shape0 libxcb-shm0 libxcb-sync1 libxcb-util1
  libxcb-xfixes0 libxcb-xinerama0 libxcb-xinput0 libxcb-xkb1 libxcb1-dev
  libxdmcp-dev libxext-dev libxext6 libxfixes3 libxkbcommon-x11-0
  libxkbcommon0 libxrender1 libxshmfence1 libxxf86vm1 qt5-qmake qt5-qmake-bin
  qtbase5-dev qtbase5-dev-tools qtchooser shared-mime-info x11-common
  x11proto-dev xkb-data xorg-sgml-doctools xtrans-dev
Use 'apt autoremove' to remove them.
The following additional packages will be installed:
  libblkid-dev libbluetooth-dev libbluetooth3 libffi-dev libftdi1-2
  libftdi1-dev libglib2.0-bin libglib2.0-data libglib2.0-dev
  libglib2.0-dev-bin libhidapi-dev libhidapi-hidraw0 libhidapi-libusb0
  libieee1284-3 libmount-dev libpcre2-32-0 libpcre2-dev libpcre2-posix3
  libpkgconf3 libselinux1-dev libsepol-dev libserialport-dev libserialport0
  libsigrok4 libusb-1.0-0 libusb-1.0-0-dev libzip-dev libzip4 pkg-config
  pkgconf pkgconf-bin python3-distutils python3-lib2to3 uuid-dev zlib1g-dev
Suggested packages:
  libgirepository1.0-dev libglib2.0-doc libgdk-pixbuf2.0-bin libxml2-utils
Recommended packages:
  libftdi1-doc libusb-1.0-doc
The following NEW packages will be installed:
  libblkid-dev libbluetooth-dev libbluetooth3 libffi-dev libftdi1-2
  libftdi1-dev libglib2.0-bin libglib2.0-data libglib2.0-dev
  libglib2.0-dev-bin libhidapi-dev libhidapi-hidraw0 libhidapi-libusb0
  libieee1284-3 libmount-dev libpcre2-32-0 libpcre2-dev libpcre2-posix3
  libpkgconf3 libselinux1-dev libsepol-dev libserialport-dev libserialport0
  libsigrok-dev libsigrok4 libusb-1.0-0 libusb-1.0-0-dev libzip-dev libzip4
  pkg-config pkgconf pkgconf-bin python3-distutils python3-lib2to3 uuid-dev
  zlib1g-dev
0 upgraded, 36 newly installed, 0 to remove and 20 not upgraded.
Need to get 8498 kB of archives.
After this operation, 31.9 MB of additional disk space will be used.
Get:1 http://deb.debian.org/debian unstable/main armhf uuid-dev armhf 2.39.3-6 [39.6 kB]
Get:2 http://deb.debian.org/debian unstable/main armhf libblkid-dev armhf 2.39.3-6 [186 kB]
Get:3 http://deb.debian.org/debian unstable/main armhf libbluetooth3 armhf 5.71-1 [98.1 kB]
Get:4 http://deb.debian.org/debian unstable/main armhf libbluetooth-dev armhf 5.71-1 [328 kB]
Get:5 http://deb.debian.org/debian unstable/main armhf libffi-dev armhf 3.4.4-2 [55.7 kB]
Get:6 http://deb.debian.org/debian unstable/main armhf libusb-1.0-0 armhf 2:1.0.26-1 [56.3 kB]
Get:7 http://deb.debian.org/debian unstable/main armhf libftdi1-2 armhf 1.5-6+b3 [28.7 kB]
Get:8 http://deb.debian.org/debian unstable/main armhf libusb-1.0-0-dev armhf 2:1.0.26-1 [78.5 kB]
Get:9 http://deb.debian.org/debian unstable/main armhf libftdi1-dev armhf 1.5-6+b3 [36.4 kB]
Get:10 http://deb.debian.org/debian unstable/main armhf libglib2.0-data all 2.78.3-1 [1223 kB]
Get:11 http://deb.debian.org/debian unstable/main armhf libglib2.0-bin armhf 2.78.3-1 [108 kB]
Get:12 http://deb.debian.org/debian unstable/main armhf python3-lib2to3 all 3.11.5-1 [77.5 kB]
Get:13 http://deb.debian.org/debian unstable/main armhf python3-distutils all 3.11.5-1 [131 kB]
Get:14 http://deb.debian.org/debian unstable/main armhf libglib2.0-dev-bin armhf 2.78.3-1 [154 kB]
Get:15 http://deb.debian.org/debian unstable/main armhf libsepol-dev armhf 3.5-2 [319 kB]
Get:16 http://deb.debian.org/debian unstable/main armhf libpcre2-32-0 armhf 10.42-4 [202 kB]
Get:17 http://deb.debian.org/debian unstable/main armhf libpcre2-posix3 armhf 10.42-4 [55.0 kB]
Get:18 http://deb.debian.org/debian unstable/main armhf libpcre2-dev armhf 10.42-4 [668 kB]
Get:19 http://deb.debian.org/debian unstable/main armhf libselinux1-dev armhf 3.5-1+b2 [151 kB]
Get:20 http://deb.debian.org/debian unstable/main armhf libmount-dev armhf 2.39.3-6 [23.6 kB]
Get:21 http://deb.debian.org/debian unstable/main armhf libpkgconf3 armhf 1.8.1-1+b2 [31.9 kB]
Get:22 http://deb.debian.org/debian unstable/main armhf pkgconf-bin armhf 1.8.1-1+b2 [28.9 kB]
Get:23 http://deb.debian.org/debian unstable/main armhf pkgconf armhf 1.8.1-1+b2 [26.2 kB]
Get:24 http://deb.debian.org/debian unstable/main armhf pkg-config armhf 1.8.1-1+b2 [14.0 kB]
Get:25 http://deb.debian.org/debian unstable/main armhf zlib1g-dev armhf 1:1.3.dfsg-3 [904 kB]
Get:26 http://deb.debian.org/debian unstable/main armhf libglib2.0-dev armhf 2.78.3-1 [1526 kB]
Get:27 http://deb.debian.org/debian unstable/main armhf libhidapi-libusb0 armhf 0.14.0-1 [13.5 kB]
Get:28 http://deb.debian.org/debian unstable/main armhf libhidapi-hidraw0 armhf 0.14.0-1 [10.8 kB]
Get:29 http://deb.debian.org/debian unstable/main armhf libhidapi-dev armhf 0.14.0-1 [25.6 kB]
Get:30 http://deb.debian.org/debian unstable/main armhf libieee1284-3 armhf 0.2.11-14 [26.0 kB]
Get:31 http://deb.debian.org/debian unstable/main armhf libserialport0 armhf 0.1.1-4 [42.1 kB]
Get:32 http://deb.debian.org/debian unstable/main armhf libserialport-dev armhf 0.1.1-4 [57.1 kB]
Get:33 http://deb.debian.org/debian unstable/main armhf libzip4 armhf 1.7.3-1+b1 [50.5 kB]
Get:34 http://deb.debian.org/debian unstable/main armhf libsigrok4 armhf 0.5.2-5 [760 kB]
Get:35 http://deb.debian.org/debian unstable/main armhf libzip-dev armhf 1.7.3-1+b1 [163 kB]
Get:36 http://deb.debian.org/debian unstable/main armhf libsigrok-dev armhf 0.5.2-5 [798 kB]
debconf: delaying package configuration, since apt-utils is not installed
Fetched 8498 kB in 1s (10.0 MB/s)
Selecting previously unselected package uuid-dev:armhf.
(Reading database ... (Reading database ... 5%(Reading database ... 10%(Reading database ... 15%(Reading database ... 20%(Reading database ... 25%(Reading database ... 30%(Reading database ... 35%(Reading database ... 40%(Reading database ... 45%(Reading database ... 50%(Reading database ... 55%(Reading database ... 60%(Reading database ... 65%(Reading database ... 70%(Reading database ... 75%(Reading database ... 80%(Reading database ... 85%(Reading database ... 90%(Reading database ... 95%(Reading database ... 100%(Reading database ... 22190 files and directories currently installed.)
Preparing to unpack .../00-uuid-dev_2.39.3-6_armhf.deb ...
Unpacking uuid-dev:armhf (2.39.3-6) ...
Selecting previously unselected package libblkid-dev:armhf.
Preparing to unpack .../01-libblkid-dev_2.39.3-6_armhf.deb ...
Unpacking libblkid-dev:armhf (2.39.3-6) ...
Selecting previously unselected package libbluetooth3:armhf.
Preparing to unpack .../02-libbluetooth3_5.71-1_armhf.deb ...
Unpacking libbluetooth3:armhf (5.71-1) ...
Selecting previously unselected package libbluetooth-dev:armhf.
Preparing to unpack .../03-libbluetooth-dev_5.71-1_armhf.deb ...
Unpacking libbluetooth-dev:armhf (5.71-1) ...
Selecting previously unselected package libffi-dev:armhf.
Preparing to unpack .../04-libffi-dev_3.4.4-2_armhf.deb ...
Unpacking libffi-dev:armhf (3.4.4-2) ...
Selecting previously unselected package libusb-1.0-0:armhf.
Preparing to unpack .../05-libusb-1.0-0_2%3a1.0.26-1_armhf.deb ...
Unpacking libusb-1.0-0:armhf (2:1.0.26-1) ...
Selecting previously unselected package libftdi1-2:armhf.
Preparing to unpack .../06-libftdi1-2_1.5-6+b3_armhf.deb ...
Unpacking libftdi1-2:armhf (1.5-6+b3) ...
Selecting previously unselected package libusb-1.0-0-dev:armhf.
Preparing to unpack .../07-libusb-1.0-0-dev_2%3a1.0.26-1_armhf.deb ...
Unpacking libusb-1.0-0-dev:armhf (2:1.0.26-1) ...
Selecting previously unselected package libftdi1-dev.
Preparing to unpack .../08-libftdi1-dev_1.5-6+b3_armhf.deb ...
Unpacking libftdi1-dev (1.5-6+b3) ...
Selecting previously unselected package libglib2.0-data.
Preparing to unpack .../09-libglib2.0-data_2.78.3-1_all.deb ...
Unpacking libglib2.0-data (2.78.3-1) ...
Selecting previously unselected package libglib2.0-bin.
Preparing to unpack .../10-libglib2.0-bin_2.78.3-1_armhf.deb ...
Unpacking libglib2.0-bin (2.78.3-1) ...
Selecting previously unselected package python3-lib2to3.
Preparing to unpack .../11-python3-lib2to3_3.11.5-1_all.deb ...
Unpacking python3-lib2to3 (3.11.5-1) ...
Selecting previously unselected package python3-distutils.
Preparing to unpack .../12-python3-distutils_3.11.5-1_all.deb ...
Unpacking python3-distutils (3.11.5-1) ...
Selecting previously unselected package libglib2.0-dev-bin.
Preparing to unpack .../13-libglib2.0-dev-bin_2.78.3-1_armhf.deb ...
Unpacking libglib2.0-dev-bin (2.78.3-1) ...
Selecting previously unselected package libsepol-dev:armhf.
Preparing to unpack .../14-libsepol-dev_3.5-2_armhf.deb ...
Unpacking libsepol-dev:armhf (3.5-2) ...
Selecting previously unselected package libpcre2-32-0:armhf.
Preparing to unpack .../15-libpcre2-32-0_10.42-4_armhf.deb ...
Unpacking libpcre2-32-0:armhf (10.42-4) ...
Selecting previously unselected package libpcre2-posix3:armhf.
Preparing to unpack .../16-libpcre2-posix3_10.42-4_armhf.deb ...
Unpacking libpcre2-posix3:armhf (10.42-4) ...
Selecting previously unselected package libpcre2-dev:armhf.
Preparing to unpack .../17-libpcre2-dev_10.42-4_armhf.deb ...
Unpacking libpcre2-dev:armhf (10.42-4) ...
Selecting previously unselected package libselinux1-dev:armhf.
Preparing to unpack .../18-libselinux1-dev_3.5-1+b2_armhf.deb ...
Unpacking libselinux1-dev:armhf (3.5-1+b2) ...
Selecting previously unselected package libmount-dev:armhf.
Preparing to unpack .../19-libmount-dev_2.39.3-6_armhf.deb ...
Unpacking libmount-dev:armhf (2.39.3-6) ...
Selecting previously unselected package libpkgconf3:armhf.
Preparing to unpack .../20-libpkgconf3_1.8.1-1+b2_armhf.deb ...
Unpacking libpkgconf3:armhf (1.8.1-1+b2) ...
Selecting previously unselected package pkgconf-bin.
Preparing to unpack .../21-pkgconf-bin_1.8.1-1+b2_armhf.deb ...
Unpacking pkgconf-bin (1.8.1-1+b2) ...
Selecting previously unselected package pkgconf:armhf.
Preparing to unpack .../22-pkgconf_1.8.1-1+b2_armhf.deb ...
Unpacking pkgconf:armhf (1.8.1-1+b2) ...
Selecting previously unselected package pkg-config:armhf.
Preparing to unpack .../23-pkg-config_1.8.1-1+b2_armhf.deb ...
Unpacking pkg-config:armhf (1.8.1-1+b2) ...
Selecting previously unselected package zlib1g-dev:armhf.
Preparing to unpack .../24-zlib1g-dev_1%3a1.3.dfsg-3_armhf.deb ...
Unpacking zlib1g-dev:armhf (1:1.3.dfsg-3) ...
Selecting previously unselected package libglib2.0-dev:armhf.
Preparing to unpack .../25-libglib2.0-dev_2.78.3-1_armhf.deb ...
Unpacking libglib2.0-dev:armhf (2.78.3-1) ...
Selecting previously unselected package libhidapi-libusb0:armhf.
Preparing to unpack .../26-libhidapi-libusb0_0.14.0-1_armhf.deb ...
Unpacking libhidapi-libusb0:armhf (0.14.0-1) ...
Selecting previously unselected package libhidapi-hidraw0:armhf.
Preparing to unpack .../27-libhidapi-hidraw0_0.14.0-1_armhf.deb ...
Unpacking libhidapi-hidraw0:armhf (0.14.0-1) ...
Selecting previously unselected package libhidapi-dev:armhf.
Preparing to unpack .../28-libhidapi-dev_0.14.0-1_armhf.deb ...
Unpacking libhidapi-dev:armhf (0.14.0-1) ...
Selecting previously unselected package libieee1284-3:armhf.
Preparing to unpack .../29-libieee1284-3_0.2.11-14_armhf.deb ...
Unpacking libieee1284-3:armhf (0.2.11-14) ...
Selecting previously unselected package libserialport0:armhf.
Preparing to unpack .../30-libserialport0_0.1.1-4_armhf.deb ...
Unpacking libserialport0:armhf (0.1.1-4) ...
Selecting previously unselected package libserialport-dev:armhf.
Preparing to unpack .../31-libserialport-dev_0.1.1-4_armhf.deb ...
Unpacking libserialport-dev:armhf (0.1.1-4) ...
Selecting previously unselected package libzip4:armhf.
Preparing to unpack .../32-libzip4_1.7.3-1+b1_armhf.deb ...
Unpacking libzip4:armhf (1.7.3-1+b1) ...
Selecting previously unselected package libsigrok4:armhf.
Preparing to unpack .../33-libsigrok4_0.5.2-5_armhf.deb ...
Unpacking libsigrok4:armhf (0.5.2-5) ...
Selecting previously unselected package libzip-dev:armhf.
Preparing to unpack .../34-libzip-dev_1.7.3-1+b1_armhf.deb ...
Unpacking libzip-dev:armhf (1.7.3-1+b1) ...
Selecting previously unselected package libsigrok-dev:armhf.
Preparing to unpack .../35-libsigrok-dev_0.5.2-5_armhf.deb ...
Unpacking libsigrok-dev:armhf (0.5.2-5) ...
Setting up libzip4:armhf (1.7.3-1+b1) ...
Setting up libhidapi-hidraw0:armhf (0.14.0-1) ...
Setting up libffi-dev:armhf (3.4.4-2) ...
Setting up libpcre2-32-0:armhf (10.42-4) ...
Setting up libglib2.0-data (2.78.3-1) ...
Setting up libpkgconf3:armhf (1.8.1-1+b2) ...
Setting up uuid-dev:armhf (2.39.3-6) ...
Setting up libsepol-dev:armhf (3.5-2) ...
Setting up pkgconf-bin (1.8.1-1+b2) ...
Setting up zlib1g-dev:armhf (1:1.3.dfsg-3) ...
Setting up libpcre2-posix3:armhf (10.42-4) ...
Setting up libbluetooth3:armhf (5.71-1) ...
Setting up libusb-1.0-0:armhf (2:1.0.26-1) ...
Setting up libieee1284-3:armhf (0.2.11-14) ...
Setting up python3-lib2to3 (3.11.5-1) ...
Setting up libserialport0:armhf (0.1.1-4) ...
Setting up python3-distutils (3.11.5-1) ...
Setting up libglib2.0-dev-bin (2.78.3-1) ...
Setting up libblkid-dev:armhf (2.39.3-6) ...
Setting up libzip-dev:armhf (1.7.3-1+b1) ...
Setting up libpcre2-dev:armhf (10.42-4) ...
Setting up libserialport-dev:armhf (0.1.1-4) ...
Setting up libselinux1-dev:armhf (3.5-1+b2) ...
Setting up libglib2.0-bin (2.78.3-1) ...
Setting up libusb-1.0-0-dev:armhf (2:1.0.26-1) ...
Setting up pkgconf:armhf (1.8.1-1+b2) ...
Setting up libftdi1-2:armhf (1.5-6+b3) ...
Setting up libftdi1-dev (1.5-6+b3) ...
Setting up libbluetooth-dev:armhf (5.71-1) ...
Setting up libhidapi-libusb0:armhf (0.14.0-1) ...
Setting up pkg-config:armhf (1.8.1-1+b2) ...
Setting up libsigrok4:armhf (0.5.2-5) ...
No diversion 'diversion of /lib/udev/rules.d/60-libsigrok.rules to /lib/udev/rules.d/60-libsigrok.rules.usr-is-merged by usr-is-merged', none removed.
No diversion 'diversion of /lib/udev/rules.d/61-libsigrok-plugdev.rules to /lib/udev/rules.d/61-libsigrok-plugdev.rules.usr-is-merged by usr-is-merged', none removed.
No diversion 'diversion of /lib/udev/rules.d/61-libsigrok-uaccess.rules to /lib/udev/rules.d/61-libsigrok-uaccess.rules.usr-is-merged by usr-is-merged', none removed.
Setting up libmount-dev:armhf (2.39.3-6) ...
Setting up libhidapi-dev:armhf (0.14.0-1) ...
Setting up libglib2.0-dev:armhf (2.78.3-1) ...
Processing triggers for libglib2.0-0:armhf (2.78.3-1) ...
No schema files found: doing nothing.
Processing triggers for libc-bin (2.37-13) ...
Processing triggers for shared-mime-info (2.4-1) ...
Setting up libsigrok-dev:armhf (0.5.2-5) ...
Reading package lists...
Building dependency tree...
Reading state information...
The following packages will be REMOVED:
  fontconfig* fontconfig-config* fonts-dejavu-core* fonts-dejavu-mono*
  libavahi-client3* libavahi-common-data* libavahi-common3* libbrotli1*
  libcups2* libdouble-conversion3* libdrm-amdgpu1* libdrm-common*
  libdrm-nouveau2* libdrm-radeon1* libdrm2* libegl-dev* libegl-mesa0* libegl1*
  libevdev2* libfontconfig1* libfreetype6* libgbm1* libgl-dev* libgl1*
  libgl1-mesa-dri* libglapi-mesa* libgles-dev* libgles1* libgles2* libglvnd0*
  libglx-dev* libglx-mesa0* libglx0* libgraphite2-3* libgudev-1.0-0*
  libharfbuzz0b* libice6* libinput-bin* libinput10* libjpeg62-turbo*
  libllvm17* libmd4c0* libmtdev1* libpng16-16* libpthread-stubs0-dev*
  libqt5concurrent5* libqt5core5a* libqt5dbus5* libqt5gui5* libqt5network5*
  libqt5printsupport5* libqt5sql5* libqt5test5* libqt5widgets5* libqt5xml5*
  libsensors-config* libsensors5* libsignon-qt5-1* libsignon-qt5-dev* libsm6*
  libvulkan-dev* libvulkan1* libwacom-common* libwacom9* libwayland-client0*
  libwayland-server0* libx11-dev* libx11-xcb1* libxau-dev* libxcb-dri2-0*
  libxcb-dri3-0* libxcb-glx0* libxcb-icccm4* libxcb-image0* libxcb-keysyms1*
  libxcb-present0* libxcb-randr0* libxcb-render-util0* libxcb-render0*
  libxcb-shape0* libxcb-shm0* libxcb-sync1* libxcb-util1* libxcb-xfixes0*
  libxcb-xinerama0* libxcb-xinput0* libxcb-xkb1* libxcb1-dev* libxdmcp-dev*
  libxext-dev* libxext6* libxfixes3* libxkbcommon-x11-0* libxkbcommon0*
  libxrender1* libxshmfence1* libxxf86vm1* qt5-qmake* qt5-qmake-bin*
  qtbase5-dev* qtbase5-dev-tools* qtchooser* shared-mime-info* x11-common*
  x11proto-dev* xkb-data* xorg-sgml-doctools* xtrans-dev*
0 upgraded, 0 newly installed, 108 to remove and 20 not upgraded.
After this operation, 244 MB disk space will be freed.
(Reading database ... (Reading database ... 5%(Reading database ... 10%(Reading database ... 15%(Reading database ... 20%(Reading database ... 25%(Reading database ... 30%(Reading database ... 35%(Reading database ... 40%(Reading database ... 45%(Reading database ... 50%(Reading database ... 55%(Reading database ... 60%(Reading database ... 65%(Reading database ... 70%(Reading database ... 75%(Reading database ... 80%(Reading database ... 85%(Reading database ... 90%(Reading database ... 95%(Reading database ... 100%(Reading database ... 23876 files and directories currently installed.)
Removing libsignon-qt5-dev:armhf (8.61-1) ...
Removing qtbase5-dev:armhf (5.15.10+dfsg-5) ...
Removing libqt5printsupport5:armhf (5.15.10+dfsg-5) ...
Removing libqt5widgets5:armhf (5.15.10+dfsg-5) ...
Removing libqt5gui5:armhf (5.15.10+dfsg-5) ...
Removing fontconfig (2.14.2-6+b1) ...
Removing libfontconfig1:armhf (2.14.2-6+b1) ...
Removing fontconfig-config (2.14.2-6+b1) ...
Removing fonts-dejavu-core (2.37-8) ...
Removing fonts-dejavu-mono (2.37-8) ...
Removing libcups2:armhf (2.4.7-1+b1) ...
Removing libavahi-client3:armhf (0.8-13+b1) ...
Removing libavahi-common3:armhf (0.8-13+b1) ...
Removing libavahi-common-data:armhf (0.8-13+b1) ...
Removing libharfbuzz0b:armhf (8.0.1-1+b2) ...
Removing libfreetype6:armhf (2.13.2+dfsg-1+b1) ...
Removing libbrotli1:armhf (1.1.0-2+b3) ...
Removing libsignon-qt5-1:armhf (8.61-1) ...
Removing qtbase5-dev-tools (5.15.10+dfsg-5) ...
Removing libqt5xml5:armhf (5.15.10+dfsg-5) ...
Removing libqt5test5:armhf (5.15.10+dfsg-5) ...
Removing libgles-dev:armhf (1.7.0-1) ...
Removing libegl-dev:armhf (1.7.0-1) ...
Removing libgl-dev:armhf (1.7.0-1) ...
Removing libgl1:armhf (1.7.0-1) ...
Removing libglx-dev:armhf (1.7.0-1) ...
Removing libglx0:armhf (1.7.0-1) ...
Removing libglx-mesa0:armhf (23.3.2-2) ...
Removing libgl1-mesa-dri:armhf (23.3.2-2) ...
Removing libdrm-amdgpu1:armhf (2.4.117-1) ...
Removing libegl1:armhf (1.7.0-1) ...
Removing libegl-mesa0:armhf (23.3.2-2) ...
Removing libgbm1:armhf (23.3.2-2) ...
Removing libdrm-nouveau2:armhf (2.4.117-1) ...
Removing libdrm-radeon1:armhf (2.4.117-1) ...
Removing libinput10:armhf (1.23.0-2.1) ...
Removing libinput-bin (1.23.0-2.1) ...
Removing libevdev2:armhf (1.13.1+dfsg-1) ...
Removing libglapi-mesa:armhf (23.3.2-2) ...
Removing libgles1:armhf (1.7.0-1) ...
Removing libgles2:armhf (1.7.0-1) ...
Removing libglvnd0:armhf (1.7.0-1) ...
Removing libgraphite2-3:armhf (1.3.14-2) ...
Removing libwacom9:armhf (2.8.0-1) ...
Removing libgudev-1.0-0:armhf (238-3) ...
Removing libsm6:armhf (2:1.2.3-1) ...
Removing libice6:armhf (2:1.0.10-1) ...
Removing libjpeg62-turbo:armhf (1:2.1.5-2+b2) ...
Removing libllvm17:armhf (1:17.0.6-3) ...
Removing libmd4c0:armhf (0.4.8-1) ...
Removing libmtdev1:armhf (1.1.6-1) ...
Removing libpng16-16:armhf (1.6.40-3) ...
Removing libxext-dev:armhf (2:1.3.4-1+b1) ...
Removing libx11-dev:armhf (2:1.8.7-1) ...
Removing libxcb1-dev:armhf (1.15-1) ...
Removing libpthread-stubs0-dev:armhf (0.4-1) ...
Removing libqt5concurrent5:armhf (5.15.10+dfsg-5) ...
Removing libqt5network5:armhf (5.15.10+dfsg-5) ...
Removing libqt5dbus5:armhf (5.15.10+dfsg-5) ...
Removing libqt5sql5:armhf (5.15.10+dfsg-5) ...
Removing libsensors5:armhf (1:3.6.0-8) ...
Removing libsensors-config (1:3.6.0-8) ...
Removing libvulkan-dev:armhf (1.3.268.0-1) ...
Removing libvulkan1:armhf (1.3.268.0-1) ...
Removing libwacom-common (2.8.0-1) ...
dpkg: warning: while removing libwacom-common, directory '/lib/udev/hwdb.d' not empty so not removed
Removing libwayland-client0:armhf (1.22.0-2.1) ...
Removing libwayland-server0:armhf (1.22.0-2.1) ...
Removing libx11-xcb1:armhf (2:1.8.7-1) ...
Removing libxau-dev:armhf (1:1.0.9-1) ...
Removing libxcb-dri2-0:armhf (1.15-1) ...
Removing libxcb-dri3-0:armhf (1.15-1) ...
Removing libxcb-glx0:armhf (1.15-1) ...
Removing libxcb-icccm4:armhf (0.4.1-1.1) ...
Removing libxcb-image0:armhf (0.4.0-2) ...
Removing libxcb-keysyms1:armhf (0.4.0-1+b2) ...
Removing libxcb-present0:armhf (1.15-1) ...
Removing libxcb-randr0:armhf (1.15-1) ...
Removing libxcb-render-util0:armhf (0.3.9-1+b1) ...
Removing libxcb-render0:armhf (1.15-1) ...
Removing libxcb-shape0:armhf (1.15-1) ...
Removing libxcb-shm0:armhf (1.15-1) ...
Removing libxcb-sync1:armhf (1.15-1) ...
Removing libxcb-util1:armhf (0.4.0-1+b1) ...
Removing libxcb-xfixes0:armhf (1.15-1) ...
Removing libxcb-xinerama0:armhf (1.15-1) ...
Removing libxcb-xinput0:armhf (1.15-1) ...
Removing libxkbcommon-x11-0:armhf (1.6.0-1) ...
Removing libxcb-xkb1:armhf (1.15-1) ...
Removing libxdmcp-dev:armhf (1:1.1.2-3) ...
Removing libxxf86vm1:armhf (1:1.1.4-1+b2) ...
Removing libxext6:armhf (2:1.3.4-1+b1) ...
Removing libxfixes3:armhf (1:6.0.0-2) ...
Removing libxkbcommon0:armhf (1.6.0-1) ...
Removing libxrender1:armhf (1:0.9.10-1.1) ...
Removing libxshmfence1:armhf (1.3-1) ...
Removing qt5-qmake:armhf (5.15.10+dfsg-5) ...
Removing qt5-qmake-bin (5.15.10+dfsg-5) ...
Removing qtchooser (66-2) ...
Removing x11-common (1:7.7+23) ...
invoke-rc.d: could not determine current runlevel
Removing x11proto-dev (2023.2-1) ...
Removing xkb-data (2.38-2) ...
Removing xorg-sgml-doctools (1:1.11-1.1) ...
Removing xtrans-dev (1.4.0-1) ...
Removing libqt5core5a:armhf (5.15.10+dfsg-5) ...
Removing libdouble-conversion3:armhf (3.3.0-1+b1) ...
Removing libdrm2:armhf (2.4.117-1) ...
Removing libdrm-common (2.4.117-1) ...
Removing shared-mime-info (2.4-1) ...
Processing triggers for udev (255.2-4) ...
Processing triggers for libc-bin (2.37-13) ...
(Reading database ... (Reading database ... 5%(Reading database ... 10%(Reading database ... 15%(Reading database ... 20%(Reading database ... 25%(Reading database ... 30%(Reading database ... 35%(Reading database ... 40%(Reading database ... 45%(Reading database ... 50%(Reading database ... 55%(Reading database ... 60%(Reading database ... 65%(Reading database ... 70%(Reading database ... 75%(Reading database ... 80%(Reading database ... 85%(Reading database ... 90%(Reading database ... 95%(Reading database ... 100%(Reading database ... 18776 files and directories currently installed.)
Purging configuration files for fontconfig (2.14.2-6+b1) ...
Purging configuration files for fontconfig-config (2.14.2-6+b1) ...
Purging configuration files for libgl1-mesa-dri:armhf (23.3.2-2) ...
Purging configuration files for x11-common (1:7.7+23) ...
Purging configuration files for libsensors-config (1:3.6.0-8) ...
Purging configuration files for shared-mime-info (2.4-1) ...
Purging configuration files for fonts-dejavu-mono (2.37-8) ...
Purging configuration files for fonts-dejavu-core (2.37-8) ...
