Temporary header file '/tmp/xDv_HWCPlc/dump1.h' with the following content will be compiled to create GCC translation unit dump:

  // add defines
  #define __STDC_VERSION__ 201710L
#define _GXX_NULLPTR_T
#define CLUTTER_ENABLE_COMPOSITOR_API 1
#define _REGEX_NELTS(n)
#define _Atomic
#define PACKED
#ifdef __cplusplus
// C17 compat layer
#define _Alignof(type) alignof(type)
#endif
#define getaddrinfo_a(a,b,c,d)

  // add includes
  #include "/usr/include/KF5/KService/kapplicationtrader.h"
  #include "/usr/include/KF5/KService/kautostart.h"
  #include "/usr/include/KF5/KService/kdbusservicestarter.h"
  #include "/usr/include/KF5/KService/kmimetypetrader.h"
  #include "/usr/include/KF5/KService/kplugininfo.h"
  #include "/usr/include/KF5/KService/kplugintrader.h"
  #include "/usr/include/KF5/KService/kservice.h"
  #include "/usr/include/KF5/KService/kservice_export.h"
  #include "/usr/include/KF5/KService/kservice_version.h"
  #include "/usr/include/KF5/KService/kserviceaction.h"
  #include "/usr/include/KF5/KService/kservicegroup.h"
  #include "/usr/include/KF5/KService/kservicetype.h"
  #include "/usr/include/KF5/KService/kservicetypeprofile.h"
  #include "/usr/include/KF5/KService/kservicetypetrader.h"
  #include "/usr/include/KF5/KService/ksycoca.h"
  #include "/usr/include/KF5/KService/ksycocaentry.h"
  #include "/usr/include/KF5/KService/ksycocatype.h"
  #include "/usr/include/KF5/KService/ktoolinvocation.h"

  // add namespaces
  namespace ConversionCheck{typedef int tmp_add_type_1;}
  ConversionCheck::tmp_add_type_1 tmp_add_func_1(){return 0;};
  namespace KApplicationTrader{typedef int tmp_add_type_2;}
  KApplicationTrader::tmp_add_type_2 tmp_add_func_2(){return 0;};
  namespace KParts{typedef int tmp_add_type_3;}
  KParts::tmp_add_type_3 tmp_add_func_3(){return 0;};
  namespace KServiceTypeProfile{typedef int tmp_add_type_4;}
  KServiceTypeProfile::tmp_add_type_4 tmp_add_func_4(){return 0;};
  namespace QAlgorithmsPrivate{typedef int tmp_add_type_5;}
  QAlgorithmsPrivate::tmp_add_type_5 tmp_add_func_5(){return 0;};
  namespace QJsonPrivate{typedef int tmp_add_type_6;}
  QJsonPrivate::tmp_add_type_6 tmp_add_func_6(){return 0;};
  namespace Qt{typedef int tmp_add_type_7;}
  Qt::tmp_add_type_7 tmp_add_func_7(){return 0;};
  namespace QTextStreamFunctions{typedef int tmp_add_type_8;}
  QTextStreamFunctions::tmp_add_type_8 tmp_add_func_8(){return 0;};
  namespace QtGlobalStatic{typedef int tmp_add_type_9;}
  QtGlobalStatic::tmp_add_type_9 tmp_add_func_9(){return 0;};
  namespace QtMetaTypePrivate{typedef int tmp_add_type_10;}
  QtMetaTypePrivate::tmp_add_type_10 tmp_add_func_10(){return 0;};
  namespace QtMetaTypePrivate{namespace QtPrivate{typedef int tmp_add_type_11;}}
  QtMetaTypePrivate::QtPrivate::tmp_add_type_11 tmp_add_func_11(){return 0;};
  namespace QtMetaTypePrivate{namespace QtPrivate{namespace ContainerCapabilitiesMetaProgrammingHelper{typedef int tmp_add_type_12;}}}
  QtMetaTypePrivate::QtPrivate::ContainerCapabilitiesMetaProgrammingHelper::tmp_add_type_12 tmp_add_func_12(){return 0;};
  namespace QtPrivate{typedef int tmp_add_type_13;}
  QtPrivate::tmp_add_type_13 tmp_add_func_13(){return 0;};
  namespace QtPrivate{namespace DeprecatedRefClassBehavior{typedef int tmp_add_type_14;}}
  QtPrivate::DeprecatedRefClassBehavior::tmp_add_type_14 tmp_add_func_14(){return 0;};
  namespace QtPrivate{namespace SwapExceptionTester{typedef int tmp_add_type_15;}}
  QtPrivate::SwapExceptionTester::tmp_add_type_15 tmp_add_func_15(){return 0;};
  namespace QtSharedPointer{typedef int tmp_add_type_16;}
  QtSharedPointer::tmp_add_type_16 tmp_add_func_16(){return 0;};

  // add classes
  KAutostart* tmp_add_class_0;
  KConfig* tmp_add_class_1;
  KConfigBase* tmp_add_class_2;
  KConfigGroup* tmp_add_class_3;
  KDBusServiceStarter* tmp_add_class_4;
  KMimeTypeTrader* tmp_add_class_5;
  KPluginFactory* tmp_add_class_6;
  KPluginInfo* tmp_add_class_7;
  KPluginLoader* tmp_add_class_8;
  KPluginMetaData* tmp_add_class_9;
  KPluginName* tmp_add_class_10;
  KPluginTrader* tmp_add_class_11;
  KService* tmp_add_class_12;
  KServiceAction* tmp_add_class_13;
  KServiceGroup* tmp_add_class_14;
  KServiceType* tmp_add_class_15;
  KServiceTypeTrader* tmp_add_class_16;
  KSycoca* tmp_add_class_17;
  KSycocaEntry* tmp_add_class_18;
  KToolInvocation* tmp_add_class_19;
  K_EXPORT_PLUGIN_is_deprecated_see_KDE5PORTING* tmp_add_class_20;
  QArrayData* tmp_add_class_21;
  QAssociativeIterable* tmp_add_class_22;
  QAtomicInt* tmp_add_class_23;
  QByteArray* tmp_add_class_24;
  QByteArrayDataPtr* tmp_add_class_25;
  QByteRef* tmp_add_class_26;
  QCborError* tmp_add_class_27;
  QCborParserError* tmp_add_class_28;
  QCborValue* tmp_add_class_29;
  QCborValueRef* tmp_add_class_30;
  QChar* tmp_add_class_31;
  QCharRef* tmp_add_class_32;
  QChildEvent* tmp_add_class_33;
  QContiguousCacheData* tmp_add_class_34;
  QCoreApplication* tmp_add_class_35;
  QDataStream* tmp_add_class_36;
  QDate* tmp_add_class_37;
  QDateTime* tmp_add_class_38;
  QDebug* tmp_add_class_39;
  QDebugStateSaver* tmp_add_class_40;
  QDeferredDeleteEvent* tmp_add_class_41;
  QDynamicPropertyChangeEvent* tmp_add_class_42;
  QEvent* tmp_add_class_43;
  QEventLoop* tmp_add_class_44;
  QEventLoopLocker* tmp_add_class_45;
  QFlag* tmp_add_class_46;
  QGenericArgument* tmp_add_class_47;
  QGenericReturnArgument* tmp_add_class_48;
  QHashData* tmp_add_class_49;
  QHashDummyValue* tmp_add_class_50;
  QIODevice* tmp_add_class_51;
  QIncompatibleFlag* tmp_add_class_52;
  QInternal* tmp_add_class_53;
  QJsonObject* tmp_add_class_54;
  QJsonValue* tmp_add_class_55;
  QJsonValuePtr* tmp_add_class_56;
  QJsonValueRef* tmp_add_class_57;
  QJsonValueRefPtr* tmp_add_class_58;
  QLatin1Char* tmp_add_class_59;
  QLatin1String* tmp_add_class_60;
  QLibrary* tmp_add_class_61;
  QListData* tmp_add_class_62;
  QLocale* tmp_add_class_63;
  QMapDataBase* tmp_add_class_64;
  QMapNodeBase* tmp_add_class_65;
  QMargins* tmp_add_class_66;
  QMarginsF* tmp_add_class_67;
  QMessageLogContext* tmp_add_class_68;
  QMessageLogger* tmp_add_class_69;
  QMetaObject* tmp_add_class_70;
  QMetaType* tmp_add_class_71;
  QNoDebug* tmp_add_class_72;
  QObject* tmp_add_class_73;
  QObjectData* tmp_add_class_74;
  QObjectUserData* tmp_add_class_75;
  QPluginLoader* tmp_add_class_76;
  QPoint* tmp_add_class_77;
  QPointF* tmp_add_class_78;
  QRect* tmp_add_class_79;
  QRectF* tmp_add_class_80;
  QRegExp* tmp_add_class_81;
  QRegularExpression* tmp_add_class_82;
  QRegularExpressionMatch* tmp_add_class_83;
  QRegularExpressionMatchIterator* tmp_add_class_84;
  QScopedPointerPodDeleter* tmp_add_class_85;
  QSequentialIterable* tmp_add_class_86;
  QSharedData* tmp_add_class_87;
  QSignalBlocker* tmp_add_class_88;
  QSize* tmp_add_class_89;
  QSizeF* tmp_add_class_90;
  QStandardPaths* tmp_add_class_91;
  QStaticPlugin* tmp_add_class_92;
  QString* tmp_add_class_93;
  QStringDataPtr* tmp_add_class_94;
  QStringList* tmp_add_class_95;
  QStringMatcher* tmp_add_class_96;
  QStringRef* tmp_add_class_97;
  QStringView* tmp_add_class_98;
  QSysInfo* tmp_add_class_99;
  QTextStream* tmp_add_class_100;
  QTextStreamManipulator* tmp_add_class_101;
  QTime* tmp_add_class_102;
  QTimerEvent* tmp_add_class_103;
  QUrl* tmp_add_class_104;
  QUuid* tmp_add_class_105;
  QVariant* tmp_add_class_106;
  QVariantComparisonHelper* tmp_add_class_107;
  _G_fpos64_t* tmp_add_class_108;
  _G_fpos_t* tmp_add_class_109;
  _IO_cookie_io_functions_t* tmp_add_class_110;

The GCC parameters:
  gcc -fdump-lang-raw -fkeep-inline-functions -c -x c++ -fpermissive -w "/tmp/xDv_HWCPlc/dump1.h"  -I/usr/include/KF5/KService -I/usr/include/arm-linux-gnueabihf/qt5 -I/usr/include/KF5/KCoreAddons -I/usr/include/KF5/KConfigCore -I/usr/include/arm-linux-gnueabihf/qt5/QtCore

