[2024-01-07T17:18:25+00:00] apt-get install libmaa-dev abi-compliance-checker
Reading package lists...
Building dependency tree...
Reading state information...
abi-compliance-checker is already the newest version (2.3-2).
The following packages were automatically installed and are no longer required:
  libm4ri-0.0.20200125 libm4ri-dev libm4rie-0.0.20200125 libm4rie-dev
  libpng16-16
Use 'apt autoremove' to remove them.
The following NEW packages will be installed:
  libmaa-dev libmaa4
0 upgraded, 2 newly installed, 0 to remove and 27 not upgraded.
Need to get 142 kB of archives.
After this operation, 301 kB of additional disk space will be used.
Get:1 http://deb.debian.org/debian unstable/main armhf libmaa4 armhf 1.4.7-1 [31.9 kB]
Get:2 http://deb.debian.org/debian unstable/main armhf libmaa-dev armhf 1.4.7-1 [110 kB]
debconf: delaying package configuration, since apt-utils is not installed
Fetched 142 kB in 0s (1220 kB/s)
Selecting previously unselected package libmaa4:armhf.
(Reading database ... (Reading database ... 5%(Reading database ... 10%(Reading database ... 15%(Reading database ... 20%(Reading database ... 25%(Reading database ... 30%(Reading database ... 35%(Reading database ... 40%(Reading database ... 45%(Reading database ... 50%(Reading database ... 55%(Reading database ... 60%(Reading database ... 65%(Reading database ... 70%(Reading database ... 75%(Reading database ... 80%(Reading database ... 85%(Reading database ... 90%(Reading database ... 95%(Reading database ... 100%(Reading database ... 15879 files and directories currently installed.)
Preparing to unpack .../libmaa4_1.4.7-1_armhf.deb ...
Unpacking libmaa4:armhf (1.4.7-1) ...
Selecting previously unselected package libmaa-dev:armhf.
Preparing to unpack .../libmaa-dev_1.4.7-1_armhf.deb ...
Unpacking libmaa-dev:armhf (1.4.7-1) ...
Setting up libmaa4:armhf (1.4.7-1) ...
Setting up libmaa-dev:armhf (1.4.7-1) ...
Processing triggers for libc-bin (2.37-13) ...
Reading package lists...
Building dependency tree...
Reading state information...
The following packages will be REMOVED:
  libm4ri-0.0.20200125* libm4ri-dev* libm4rie-0.0.20200125* libm4rie-dev*
  libpng16-16*
0 upgraded, 0 newly installed, 5 to remove and 27 not upgraded.
After this operation, 2147 kB disk space will be freed.
(Reading database ... (Reading database ... 5%(Reading database ... 10%(Reading database ... 15%(Reading database ... 20%(Reading database ... 25%(Reading database ... 30%(Reading database ... 35%(Reading database ... 40%(Reading database ... 45%(Reading database ... 50%(Reading database ... 55%(Reading database ... 60%(Reading database ... 65%(Reading database ... 70%(Reading database ... 75%(Reading database ... 80%(Reading database ... 85%(Reading database ... 90%(Reading database ... 95%(Reading database ... 100%(Reading database ... 15899 files and directories currently installed.)
Removing libm4ri-dev (20200125-1+b1) ...
Removing libm4rie-dev:armhf (20200125-1+b2) ...
Removing libm4rie-0.0.20200125:armhf (20200125-1+b2) ...
Removing libm4ri-0.0.20200125:armhf (20200125-1+b1) ...
Removing libpng16-16:armhf (1.6.40-3) ...
Processing triggers for libc-bin (2.37-13) ...
