Temporary header file '/tmp/Q332Ln6h1G/dump1.h' with the following content will be compiled to create GCC translation unit dump:

  // add defines
  #define __STDC_VERSION__ 201710L
#define _GXX_NULLPTR_T
#define CLUTTER_ENABLE_COMPOSITOR_API 1
#define _REGEX_NELTS(n)
#define _Atomic
#define PACKED
#ifdef __cplusplus
// C17 compat layer
#define _Alignof(type) alignof(type)
#endif
#define getaddrinfo_a(a,b,c,d) 
#define BOOST_ENDIAN_DEPRECATED_NAMES
#define BOOST_MP_USE_QUAD
#define BOOST_CHRONO_VERSION 2
#define BOOST_SERIALIZATION_VECTOR_VERSION 4
#undef __STDC_VERSION__

  // add includes
  #include "/usr/include/c++/13/iostream"
  #include "/usr/include/boost/config/platform/linux.hpp"
  #include "/usr/include/boost/config/compiler/gcc.hpp"
  #include "/usr/include/boost/config/stdlib/libstdcpp3.hpp"
  #include "/usr/include/boost/hana/ext/boost.hpp"
  #include "/usr/include/boost/hana/ext/std.hpp"
  #include "/usr/include/boost/hana/fwd/core.hpp"
  #include "/usr/include/boost/histogram/serialization.hpp"
  #include "/usr/include/boost/histogram/ostream.hpp"
  #include "/usr/include/boost/iostreams/filter/stdio.hpp"
  #include "/usr/include/boost/iostreams/filter/newline.hpp"
  #include "/usr/include/boost/iostreams/combine.hpp"
  #include "/usr/include/boost/iostreams/skip.hpp"
  #include "/usr/include/boost/iostreams/filter/counter.hpp"
  #include "/usr/include/boost/iostreams/filter/regex.hpp"
  #include "/usr/include/boost/iostreams/filter/test.hpp"
  #include "/usr/include/boost/iostreams/device/file.hpp"
  #include "/usr/include/boost/iostreams/device/file_descriptor.hpp"
  #include "/usr/include/boost/iostreams/device/mapped_file.hpp"
  #include "/usr/include/boost/iostreams/invert.hpp"
  #include "/usr/include/boost/iostreams/filter/lzma.hpp"
  #include "/usr/include/boost/iostreams/filtering_stream.hpp"
  #include "/usr/include/boost/iostreams/tee.hpp"
  #include "/usr/include/boost/iostreams/filter/zstd.hpp"
  #include "/usr/include/boost/iostreams/filter/bzip2.hpp"
  #include "/usr/include/boost/iostreams/filter/grep.hpp"
  #include "/usr/include/boost/iostreams/restrict.hpp"
  #include "/usr/include/boost/iostreams/code_converter.hpp"
  #include "/usr/include/boost/iostreams/filter/gzip.hpp"
  #include "/usr/include/boost/iostreams/slice.hpp"
  #include "/usr/include/boost/math/interpolators/cardinal_quadratic_b_spline.hpp"
  #include "/usr/include/boost/math/tools/atomic.hpp"
  #include "/usr/include/boost/math/concepts/real_type_concept.hpp"
  #include "/usr/include/boost/math/concepts/std_real_concept.hpp"
  #include "/usr/include/boost/math/complex/acosh.hpp"
  #include "/usr/include/boost/math/special_functions/gegenbauer.hpp"
  #include "/usr/include/boost/math/interpolators/cardinal_quintic_b_spline.hpp"
  #include "/usr/include/boost/math/complex/asinh.hpp"
  #include "/usr/include/boost/math/tools/minima.hpp"
  #include "/usr/include/boost/math/tools/univariate_statistics.hpp"
  #include "/usr/include/boost/math/special_functions/bessel_iterators.hpp"
  #include "/usr/include/boost/math/interpolators/whittaker_shannon.hpp"
  #include "/usr/include/boost/math/quadrature/sinh_sinh.hpp"
  #include "/usr/include/boost/math/statistics/t_test.hpp"
  #include "/usr/include/boost/math/tools/stats.hpp"
  #include "/usr/include/boost/math/complex/atanh.hpp"
  #include "/usr/include/boost/math/concepts/distributions.hpp"
  #include "/usr/include/boost/math/complex/fabs.hpp"
  #include "/usr/include/boost/math/special_functions/nonfinite_num_facets.hpp"
  #include "/usr/include/boost/math/interpolators/vector_barycentric_rational.hpp"
  #include "/usr/include/boost/math/complex/asin.hpp"
  #include "/usr/include/boost/math/interpolators/cardinal_trigonometric.hpp"
  #include "/usr/include/boost/math/statistics/linear_regression.hpp"
  #include "/usr/include/boost/math/interpolators/cubic_hermite.hpp"
  #include "/usr/include/boost/math/tools/condition_numbers.hpp"
  #include "/usr/include/boost/math/distributions.hpp"
  #include "/usr/include/boost/math/special_functions/cardinal_b_spline.hpp"
  #include "/usr/include/boost/math/statistics/signal_statistics.hpp"
  #include "/usr/include/boost/math/quadrature/exp_sinh.hpp"
  #include "/usr/include/boost/math/quadrature/tanh_sinh.hpp"
  #include "/usr/include/boost/math/differentiation/lanczos_smoothing.hpp"
  #include "/usr/include/boost/math/quadrature/naive_monte_carlo.hpp"
  #include "/usr/include/boost/math/quadrature/gauss_kronrod.hpp"
  #include "/usr/include/boost/math/tools/numerical_differentiation.hpp"
  #include "/usr/include/boost/math/complex/acos.hpp"
  #include "/usr/include/boost/math/quadrature/wavelet_transforms.hpp"
  #include "/usr/include/boost/math/interpolators/barycentric_rational.hpp"
  #include "/usr/include/boost/math/tr1.hpp"
  #include "/usr/include/boost/math/interpolators/cubic_b_spline.hpp"
  #include "/usr/include/boost/math/interpolators/cardinal_cubic_b_spline.hpp"
  #include "/usr/include/boost/math/complex/atan.hpp"
  #include "/usr/include/boost/math/interpolators/catmull_rom.hpp"
  #include "/usr/include/boost/math/quadrature/ooura_fourier_integrals.hpp"
  #include "/usr/include/boost/math/interpolators/makima.hpp"
  #include "/usr/include/boost/math/interpolators/septic_hermite.hpp"
  #include "/usr/include/boost/math/constants/info.hpp"
  #include "/usr/include/boost/math/octonion.hpp"
  #include "/usr/include/boost/math/common_factor.hpp"
  #include "/usr/include/boost/math/statistics/anderson_darling.hpp"
  #include "/usr/include/boost/math/interpolators/pchip.hpp"
  #include "/usr/include/boost/math/special_functions.hpp"
  #include "/usr/include/boost/math/cstdfloat/cstdfloat_complex.hpp"
  #include "/usr/include/boost/math/complex/details.hpp"
  #include "/usr/include/boost/math/special_functions/prime.hpp"
  #include "/usr/include/boost/math/special_functions/chebyshev_transform.hpp"
  #include "/usr/include/boost/math/distributions/empirical_cumulative_distribution_function.hpp"
  #include "/usr/include/boost/math/tools/norms.hpp"
  #include "/usr/include/boost/math/interpolators/quintic_hermite.hpp"
  #include "/usr/include/boost/math/concepts/real_concept.hpp"
  #include "/usr/include/boost/math/special_functions/jacobi.hpp"
  #include "/usr/include/boost/math/tools/test_value.hpp"
  #include "/usr/include/boost/math/tools/bivariate_statistics.hpp"
  #include "/usr/include/boost/math/statistics/runs_test.hpp"
  #include "/usr/include/boost/math/statistics/ljung_box.hpp"
  #include "/usr/include/boost/mpi/collectives/gatherv.hpp"
  #include "/usr/include/boost/mpi/collectives/all_to_all.hpp"
  #include "/usr/include/boost/mpi/collectives/scan.hpp"
  #include "/usr/include/boost/mpi/collectives/scatterv.hpp"
  #include "/usr/include/boost/mpi/cartesian_communicator.hpp"
  #include "/usr/include/boost/mpi/collectives/all_gather.hpp"
  #include "/usr/include/boost/mpi/collectives/all_reduce.hpp"
  #include "/usr/include/boost/mpi/error_string.hpp"
  #include "/usr/include/boost/mpi/collectives/gather.hpp"
  #include "/usr/include/boost/mpi/python/skeleton_and_content.hpp"
  #include "/usr/include/boost/mpi/collectives/all_gatherv.hpp"
  #include "/usr/include/boost/multiprecision/cpp_dec_float.hpp"
  #include "/usr/include/boost/multiprecision/mpc.hpp"
  #include "/usr/include/boost/multiprecision/tommath.hpp"
  #include "/usr/include/boost/multiprecision/miller_rabin.hpp"
  #include "/usr/include/boost/multiprecision/cpp_complex.hpp"
  #include "/usr/include/boost/multiprecision/concepts/mp_number_archetypes.hpp"
  #include "/usr/include/boost/multiprecision/eigen.hpp"
  #include "/usr/include/boost/multiprecision/mpfi.hpp"
  #include "/usr/include/boost/multiprecision/traits/is_backend.hpp"
  #include "/usr/include/boost/numeric/odeint/iterator/integrate/integrate_n_steps.hpp"
  #include "/usr/include/boost/numeric/odeint/iterator/times_iterator.hpp"
  #include "/usr/include/boost/numeric/conversion/sign_mixture.hpp"
  #include "/usr/include/boost/numeric/odeint/util/n_ary_helper.hpp"
  #include "/usr/include/boost/numeric/ublas/experimental/sparse_view.hpp"
  #include "/usr/include/boost/numeric/ublas/tensor/extents.hpp"
  #include "/usr/include/boost/numeric/conversion/int_float_mixture.hpp"
  #include "/usr/include/boost/numeric/conversion/udt_builtin_mixture.hpp"
  #include "/usr/include/boost/numeric/odeint/iterator/integrate/integrate_const.hpp"
  #include "/usr/include/boost/numeric/odeint/iterator/n_step_iterator.hpp"
  #include "/usr/include/boost/numeric/ublas/tensor/multi_index_utility.hpp"
  #include "/usr/include/boost/numeric/odeint.hpp"
  #include "/usr/include/boost/numeric/ublas/tensor/storage_traits.hpp"
  #include "/usr/include/boost/numeric/odeint/iterator/n_step_time_iterator.hpp"
  #include "/usr/include/boost/numeric/odeint/util/split_adaptor.hpp"
  #include "/usr/include/boost/numeric/interval/ext/integer.hpp"
  #include "/usr/include/boost/numeric/conversion/int_float_mixture_enum.hpp"
  #include "/usr/include/boost/numeric/ublas/tensor.hpp"
  #include "/usr/include/boost/numeric/ublas/tensor/multi_index.hpp"
  #include "/usr/include/boost/numeric/odeint/algebra/fusion_algebra_dispatcher.hpp"
  #include "/usr/include/boost/numeric/odeint/iterator/integrate/integrate.hpp"
  #include "/usr/include/boost/numeric/ublas/operations.hpp"
  #include "/usr/include/boost/numeric/ublas/doxydoc.hpp"
  #include "/usr/include/boost/numeric/odeint/iterator/integrate/integrate_times.hpp"
  #include "/usr/include/boost/numeric/ublas/operation_blocked.hpp"
  #include "/usr/include/boost/numeric/ublas/symmetric.hpp"
  #include "/usr/include/boost/numeric/ublas/tensor/operators_arithmetic.hpp"
  #include "/usr/include/boost/numeric/ublas/vector_of_vector.hpp"
  #include "/usr/include/boost/numeric/odeint/util/split.hpp"
  #include "/usr/include/boost/numeric/ublas/hermitian.hpp"
  #include "/usr/include/boost/numeric/conversion/bounds.hpp"
  #include "/usr/include/boost/numeric/conversion/cast.hpp"
  #include "/usr/include/boost/numeric/ublas/tensor/operators_comparison.hpp"
  #include "/usr/include/boost/numeric/ublas/assignment.hpp"
  #include "/usr/include/boost/numeric/ublas/tensor/strides.hpp"
  #include "/usr/include/boost/numeric/conversion/is_subranged.hpp"
  #include "/usr/include/boost/numeric/ublas/tensor/index.hpp"
  #include "/usr/include/boost/numeric/interval/compare/tribool.hpp"
  #include "/usr/include/boost/numeric/ublas/tensor/functions.hpp"
  #include "/usr/include/boost/numeric/ublas/tensor/ostream.hpp"
  #include "/usr/include/boost/numeric/odeint/iterator/integrate/observer_collection.hpp"
  #include "/usr/include/boost/numeric/ublas/io.hpp"
  #include "/usr/include/boost/numeric/conversion/udt_builtin_mixture_enum.hpp"
  #include "/usr/include/boost/numeric/conversion/sign_mixture_enum.hpp"
  #include "/usr/include/boost/numeric/ublas/tensor/multiplication.hpp"
  #include "/usr/include/boost/numeric/interval/io.hpp"
  #include "/usr/include/boost/numeric/ublas/operation_sparse.hpp"
  #include "/usr/include/boost/numeric/ublas/opencl.hpp"
  #include "/usr/include/boost/numeric/ublas/matrix_vector.hpp"
  #include "/usr/include/boost/numeric/ublas/banded.hpp"
  #include "/usr/include/boost/numeric/ublas/tensor/algorithms.hpp"
  #include "/usr/include/boost/numeric/ublas/tensor/tensor.hpp"
  #include "/usr/include/boost/numeric/ublas/blas.hpp"
  #include "/usr/include/boost/numeric/odeint/iterator/times_time_iterator.hpp"
  #include "/usr/include/boost/numeric/interval/limits.hpp"
  #include "/usr/include/boost/parameter/python.hpp"
  #include "/usr/include/boost/python/slice_nil.hpp"
  #include "/usr/include/boost/python/scope.hpp"
  #include "/usr/include/boost/python/exception_translator.hpp"
  #include "/usr/include/boost/python/object_attributes.hpp"
  #include "/usr/include/boost/python/suite/indexing/vector_indexing_suite.hpp"
  #include "/usr/include/boost/python/object/instance.hpp"
  #include "/usr/include/boost/python/instance_holder.hpp"
  #include "/usr/include/boost/python/dict.hpp"
  #include "/usr/include/boost/python/converter/to_python_function_type.hpp"
  #include "/usr/include/boost/python/converter/arg_to_python.hpp"
  #include "/usr/include/boost/python/copy_non_const_reference.hpp"
  #include "/usr/include/boost/python/object/value_holder_fwd.hpp"
  #include "/usr/include/boost/python/return_by_value.hpp"
  #include "/usr/include/boost/python/to_python_converter.hpp"
  #include "/usr/include/boost/python/operators.hpp"
  #include "/usr/include/boost/python/override.hpp"
  #include "/usr/include/boost/python/implicit.hpp"
  #include "/usr/include/boost/python/copy_const_reference.hpp"
  #include "/usr/include/boost/python/self.hpp"
  #include "/usr/include/boost/python/object/class.hpp"
  #include "/usr/include/boost/python/call_method.hpp"
  #include "/usr/include/boost/python/to_python_value.hpp"
  #include "/usr/include/boost/python/converter/pyobject_traits.hpp"
  #include "/usr/include/boost/python/lvalue_from_pytype.hpp"
  #include "/usr/include/boost/python/converter/as_to_python_function.hpp"
  #include "/usr/include/boost/python/object_items.hpp"
  #include "/usr/include/boost/python/return_internal_reference.hpp"
  #include "/usr/include/boost/python/object/function_handle.hpp"
  #include "/usr/include/boost/python/object_protocol_core.hpp"
  #include "/usr/include/boost/python/exec.hpp"
  #include "/usr/include/boost/python/long.hpp"
  #include "/usr/include/boost/python/object_operators.hpp"
  #include "/usr/include/boost/python/object/class_detail.hpp"
  #include "/usr/include/boost/python/module.hpp"
  #include "/usr/include/boost/python/class_fwd.hpp"
  #include "/usr/include/boost/python/reference_existing_object.hpp"
  #include "/usr/include/boost/python/converter/pytype_function.hpp"
  #include "/usr/include/boost/python/converter/context_result_converter.hpp"
  #include "/usr/include/boost/python/ssize_t.hpp"
  #include "/usr/include/boost/python/suite/indexing/map_indexing_suite.hpp"
  #include "/usr/include/boost/python/stl_iterator.hpp"
  #include "/usr/include/boost/python/make_constructor.hpp"
  #include "/usr/include/boost/python/numpy.hpp"
  #include "/usr/include/boost/python/module_init.hpp"
  #include "/usr/include/boost/python/base_type_traits.hpp"
  #include "/usr/include/boost/python/object/find_instance.hpp"
  #include "/usr/include/boost/python/object/iterator_core.hpp"
  #include "/usr/include/boost/python/converter/return_from_python.hpp"
  #include "/usr/include/boost/python/slice.hpp"
  #include "/usr/include/boost/python/object_protocol.hpp"
  #include "/usr/include/boost/python/proxy.hpp"
  #include "/usr/include/boost/python/to_python_indirect.hpp"
  #include "/usr/include/boost/python/docstring_options.hpp"
  #include "/usr/include/boost/python/suite/indexing/indexing_suite.hpp"
  #include "/usr/include/boost/python/register_ptr_to_python.hpp"
  #include "/usr/include/boost/python/errors.hpp"
  #include "/usr/include/boost/python/wrapper.hpp"
  #include "/usr/include/boost/python/return_arg.hpp"
  #include "/usr/include/boost/python/converter/implicit.hpp"
  #include "/usr/include/boost/python/object/inheritance_query.hpp"
  #include "/usr/include/boost/python/make_function.hpp"
  #include "/usr/include/boost/python/object/py_function.hpp"
  #include "/usr/include/boost/python/with_custodian_and_ward.hpp"
  #include "/usr/include/boost/python/init.hpp"
  #include "/usr/include/boost/python/converter/obj_mgr_arg_from_python.hpp"
  #include "/usr/include/boost/python/class.hpp"
  #include "/usr/include/boost/python/object_core.hpp"
  #include "/usr/include/boost/python/object/function_object.hpp"
  #include "/usr/include/boost/python/converter/arg_to_python_base.hpp"
  #include "/usr/include/boost/python/object/pickle_support.hpp"
  #include "/usr/include/boost/python/other.hpp"
  #include "/usr/include/boost/python/arg_from_python.hpp"
  #include "/usr/include/boost/python/object/class_metadata.hpp"
  #include "/usr/include/boost/python/manage_new_object.hpp"
  #include "/usr/include/boost/python/cast.hpp"
  #include "/usr/include/boost/python/object/make_holder.hpp"
  #include "/usr/include/boost/python/import.hpp"
  #include "/usr/include/boost/python/handle_fwd.hpp"
  #include "/usr/include/boost/python/object/iterator.hpp"
  #include "/usr/include/boost/python/object/stl_iterator_core.hpp"
  #include "/usr/include/boost/python/object/add_to_namespace.hpp"
  #include "/usr/include/boost/python/return_opaque_pointer.hpp"
  #include "/usr/include/boost/python/object/enum_base.hpp"
  #include "/usr/include/boost/python/pure_virtual.hpp"
  #include "/usr/include/boost/python/converter/constructor_function.hpp"
  #include "/usr/include/boost/python/args.hpp"
  #include "/usr/include/boost/python/return_value_policy.hpp"
  #include "/usr/include/boost/python/converter/pyobject_type.hpp"
  #include "/usr/include/boost/python/converter/registered_pointee.hpp"
  #include "/usr/include/boost/python/object_fwd.hpp"
  #include "/usr/include/boost/python/converter/convertible_function.hpp"
  #include "/usr/include/boost/python/object_slices.hpp"
  #include "/usr/include/boost/python/converter/pointer_type_id.hpp"
  #include "/usr/include/boost/python/object/function_doc_signature.hpp"
  #include "/usr/include/boost/python/borrowed.hpp"
  #include "/usr/include/boost/python/back_reference.hpp"
  #include "/usr/include/boost/python/converter/arg_from_python.hpp"
  #include "/usr/include/boost/python/default_call_policies.hpp"
  #include "/usr/include/boost/python/overloads.hpp"
  #include "/usr/include/boost/python/suite/indexing/container_utils.hpp"
  #include "/usr/include/boost/python/opaque_pointer_converter.hpp"
  #include "/usr/include/boost/python/call.hpp"
  #include "/usr/include/boost/python/data_members.hpp"
  #include "/usr/include/boost/python/iterator.hpp"
  #include "/usr/include/boost/python/enum.hpp"
  #include "/usr/include/boost/python/object/life_support.hpp"
  #include "/usr/include/boost/python/raw_function.hpp"
  #include "/usr/include/boost/python/object/forward.hpp"
  #include "/usr/include/boost/sort/common/int_array.hpp"
  #include "/usr/include/boost/sort/heap_sort/heap_sort.hpp"
  #include "/usr/include/boost/sort/common/util/search.hpp"
  #include "/usr/include/boost/sort/common/time_measure.hpp"
  #include "/usr/include/boost/sort/block_indirect_sort/blk_detail/constants.hpp"
  #include "/usr/include/boost/sort/common/file_vector.hpp"

  // add namespaces
  namespace boost{typedef int tmp_add_type_1;}
  boost::tmp_add_type_1 tmp_add_func_1(){return 0;};
  namespace boost{namespace algorithm{typedef int tmp_add_type_2;}}
  boost::algorithm::tmp_add_type_2 tmp_add_func_2(){return 0;};
  namespace boost{namespace algorithm{namespace detail{typedef int tmp_add_type_3;}}}
  boost::algorithm::detail::tmp_add_type_3 tmp_add_func_3(){return 0;};
  namespace boost{namespace archive{typedef int tmp_add_type_4;}}
  boost::archive::tmp_add_type_4 tmp_add_func_4(){return 0;};
  namespace boost{namespace archive{namespace detail{typedef int tmp_add_type_5;}}}
  boost::archive::detail::tmp_add_type_5 tmp_add_func_5(){return 0;};
  namespace boost{namespace atomics{typedef int tmp_add_type_6;}}
  boost::atomics::tmp_add_type_6 tmp_add_func_6(){return 0;};
  namespace boost{namespace atomics{namespace detail{typedef int tmp_add_type_7;}}}
  boost::atomics::detail::tmp_add_type_7 tmp_add_func_7(){return 0;};
  namespace boost{namespace chrono{typedef int tmp_add_type_8;}}
  boost::chrono::tmp_add_type_8 tmp_add_func_8(){return 0;};
  namespace boost{namespace chrono{namespace detail{typedef int tmp_add_type_9;}}}
  boost::chrono::detail::tmp_add_type_9 tmp_add_func_9(){return 0;};
  namespace boost{namespace compute{typedef int tmp_add_type_10;}}
  boost::compute::tmp_add_type_10 tmp_add_func_10(){return 0;};
  namespace boost{namespace compute{namespace detail{typedef int tmp_add_type_11;}}}
  boost::compute::detail::tmp_add_type_11 tmp_add_func_11(){return 0;};
  namespace boost{namespace compute{namespace lambda{typedef int tmp_add_type_12;}}}
  boost::compute::lambda::tmp_add_type_12 tmp_add_func_12(){return 0;};
  namespace boost{namespace compute{namespace lambda{namespace detail{typedef int tmp_add_type_13;}}}}
  boost::compute::lambda::detail::tmp_add_type_13 tmp_add_func_13(){return 0;};
  namespace boost{namespace compute{namespace placeholders{typedef int tmp_add_type_14;}}}
  boost::compute::placeholders::tmp_add_type_14 tmp_add_func_14(){return 0;};
  namespace boost{namespace concepts{typedef int tmp_add_type_15;}}
  boost::concepts::tmp_add_type_15 tmp_add_func_15(){return 0;};
  namespace boost{namespace concepts{namespace detail{typedef int tmp_add_type_16;}}}
  boost::concepts::detail::tmp_add_type_16 tmp_add_func_16(){return 0;};
  namespace boost{namespace container{typedef int tmp_add_type_17;}}
  boost::container::tmp_add_type_17 tmp_add_func_17(){return 0;};
  namespace boost{namespace container{namespace dtl{typedef int tmp_add_type_18;}}}
  boost::container::dtl::tmp_add_type_18 tmp_add_func_18(){return 0;};
  namespace boost{namespace container{namespace pmr{typedef int tmp_add_type_19;}}}
  boost::container::pmr::tmp_add_type_19 tmp_add_func_19(){return 0;};
  namespace boost{namespace conversion{typedef int tmp_add_type_20;}}
  boost::conversion::tmp_add_type_20 tmp_add_func_20(){return 0;};
  namespace boost{namespace conversion{namespace detail{typedef int tmp_add_type_21;}}}
  boost::conversion::detail::tmp_add_type_21 tmp_add_func_21(){return 0;};
  namespace boost{namespace core{typedef int tmp_add_type_22;}}
  boost::core::tmp_add_type_22 tmp_add_func_22(){return 0;};
  namespace boost{namespace deprecated{typedef int tmp_add_type_23;}}
  boost::deprecated::tmp_add_type_23 tmp_add_func_23(){return 0;};
  namespace boost{namespace detail{typedef int tmp_add_type_24;}}
  boost::detail::tmp_add_type_24 tmp_add_func_24(){return 0;};
  namespace boost{namespace detail{namespace function{typedef int tmp_add_type_25;}}}
  boost::detail::function::tmp_add_type_25 tmp_add_func_25(){return 0;};
  namespace boost{namespace details{typedef int tmp_add_type_26;}}
  boost::details::tmp_add_type_26 tmp_add_func_26(){return 0;};
  namespace boost{namespace foreach{typedef int tmp_add_type_27;}}
  boost::foreach::tmp_add_type_27 tmp_add_func_27(){return 0;};
  namespace boost{namespace functional{typedef int tmp_add_type_28;}}
  boost::functional::tmp_add_type_28 tmp_add_func_28(){return 0;};
  namespace boost{namespace functional{namespace detail{typedef int tmp_add_type_29;}}}
  boost::functional::detail::tmp_add_type_29 tmp_add_func_29(){return 0;};
  namespace boost{namespace fusion{typedef int tmp_add_type_30;}}
  boost::fusion::tmp_add_type_30 tmp_add_func_30(){return 0;};
  namespace boost{namespace fusion{namespace detail{typedef int tmp_add_type_31;}}}
  boost::fusion::detail::tmp_add_type_31 tmp_add_func_31(){return 0;};
  namespace boost{namespace fusion{namespace detail{namespace barrier{typedef int tmp_add_type_32;}}}}
  boost::fusion::detail::barrier::tmp_add_type_32 tmp_add_func_32(){return 0;};
  namespace boost{namespace fusion{namespace extension{typedef int tmp_add_type_33;}}}
  boost::fusion::extension::tmp_add_type_33 tmp_add_func_33(){return 0;};
  namespace boost{namespace fusion{namespace operators{typedef int tmp_add_type_34;}}}
  boost::fusion::operators::tmp_add_type_34 tmp_add_func_34(){return 0;};
  namespace boost{namespace fusion{namespace traits{typedef int tmp_add_type_35;}}}
  boost::fusion::traits::tmp_add_type_35 tmp_add_func_35(){return 0;};
  namespace boost{namespace graph{typedef int tmp_add_type_36;}}
  boost::graph::tmp_add_type_36 tmp_add_func_36(){return 0;};
  namespace boost{namespace graph{namespace detail{typedef int tmp_add_type_37;}}}
  boost::graph::detail::tmp_add_type_37 tmp_add_func_37(){return 0;};
  namespace boost{namespace hana{typedef int tmp_add_type_38;}}
  boost::hana::tmp_add_type_38 tmp_add_func_38(){return 0;};
  namespace boost{namespace hana{namespace detail{typedef int tmp_add_type_39;}}}
  boost::hana::detail::tmp_add_type_39 tmp_add_func_39(){return 0;};
  namespace boost{namespace hana{namespace detail{namespace operators{typedef int tmp_add_type_40;}}}}
  boost::hana::detail::operators::tmp_add_type_40 tmp_add_func_40(){return 0;};
  namespace boost{namespace hana{namespace detail{namespace variadic{typedef int tmp_add_type_41;}}}}
  boost::hana::detail::variadic::tmp_add_type_41 tmp_add_func_41(){return 0;};
  namespace boost{namespace hana{namespace ext{typedef int tmp_add_type_42;}}}
  boost::hana::ext::tmp_add_type_42 tmp_add_func_42(){return 0;};
  namespace boost{namespace hana{namespace ext{namespace boost{typedef int tmp_add_type_43;}}}}
  boost::hana::ext::boost::tmp_add_type_43 tmp_add_func_43(){return 0;};
  namespace boost{namespace hana{namespace ext{namespace boost{namespace fusion{typedef int tmp_add_type_44;}}}}}
  boost::hana::ext::boost::fusion::tmp_add_type_44 tmp_add_func_44(){return 0;};
  namespace boost{namespace hana{namespace ext{namespace boost{namespace mpl{typedef int tmp_add_type_45;}}}}}
  boost::hana::ext::boost::mpl::tmp_add_type_45 tmp_add_func_45(){return 0;};
  namespace boost{namespace hana{namespace ext{namespace std{typedef int tmp_add_type_46;}}}}
  boost::hana::ext::std::tmp_add_type_46 tmp_add_func_46(){return 0;};
  namespace boost{namespace hana{namespace literals{typedef int tmp_add_type_47;}}}
  boost::hana::literals::tmp_add_type_47 tmp_add_func_47(){return 0;};
  namespace boost{namespace histogram{typedef int tmp_add_type_48;}}
  boost::histogram::tmp_add_type_48 tmp_add_func_48(){return 0;};
  namespace boost{namespace histogram{namespace accumulators{typedef int tmp_add_type_49;}}}
  boost::histogram::accumulators::tmp_add_type_49 tmp_add_func_49(){return 0;};
  namespace boost{namespace histogram{namespace axis{typedef int tmp_add_type_50;}}}
  boost::histogram::axis::tmp_add_type_50 tmp_add_func_50(){return 0;};
  namespace boost{namespace histogram{namespace axis{namespace option{typedef int tmp_add_type_51;}}}}
  boost::histogram::axis::option::tmp_add_type_51 tmp_add_func_51(){return 0;};
  namespace boost{namespace histogram{namespace axis{namespace traits{typedef int tmp_add_type_52;}}}}
  boost::histogram::axis::traits::tmp_add_type_52 tmp_add_func_52(){return 0;};
  namespace boost{namespace histogram{namespace axis{namespace transform{typedef int tmp_add_type_53;}}}}
  boost::histogram::axis::transform::tmp_add_type_53 tmp_add_func_53(){return 0;};
  namespace boost{namespace histogram{namespace detail{typedef int tmp_add_type_54;}}}
  boost::histogram::detail::tmp_add_type_54 tmp_add_func_54(){return 0;};
  namespace boost{namespace integer{typedef int tmp_add_type_55;}}
  boost::integer::tmp_add_type_55 tmp_add_func_55(){return 0;};
  namespace boost{namespace integer{namespace detail{typedef int tmp_add_type_56;}}}
  boost::integer::detail::tmp_add_type_56 tmp_add_func_56(){return 0;};
  namespace boost{namespace intrusive{typedef int tmp_add_type_57;}}
  boost::intrusive::tmp_add_type_57 tmp_add_func_57(){return 0;};
  namespace boost{namespace intrusive{namespace detail{typedef int tmp_add_type_58;}}}
  boost::intrusive::detail::tmp_add_type_58 tmp_add_func_58(){return 0;};
  namespace boost{namespace io{typedef int tmp_add_type_59;}}
  boost::io::tmp_add_type_59 tmp_add_func_59(){return 0;};
  namespace boost{namespace iostreams{typedef int tmp_add_type_60;}}
  boost::iostreams::tmp_add_type_60 tmp_add_func_60(){return 0;};
  namespace boost{namespace iostreams{namespace bzip2{typedef int tmp_add_type_61;}}}
  boost::iostreams::bzip2::tmp_add_type_61 tmp_add_func_61(){return 0;};
  namespace boost{namespace iostreams{namespace detail{typedef int tmp_add_type_62;}}}
  boost::iostreams::detail::tmp_add_type_62 tmp_add_func_62(){return 0;};
  namespace boost{namespace iostreams{namespace grep{typedef int tmp_add_type_63;}}}
  boost::iostreams::grep::tmp_add_type_63 tmp_add_func_63(){return 0;};
  namespace boost{namespace iostreams{namespace gzip{typedef int tmp_add_type_64;}}}
  boost::iostreams::gzip::tmp_add_type_64 tmp_add_func_64(){return 0;};
  namespace boost{namespace iostreams{namespace gzip{namespace flags{typedef int tmp_add_type_65;}}}}
  boost::iostreams::gzip::flags::tmp_add_type_65 tmp_add_func_65(){return 0;};
  namespace boost{namespace iostreams{namespace gzip{namespace magic{typedef int tmp_add_type_66;}}}}
  boost::iostreams::gzip::magic::tmp_add_type_66 tmp_add_func_66(){return 0;};
  namespace boost{namespace iostreams{namespace gzip{namespace method{typedef int tmp_add_type_67;}}}}
  boost::iostreams::gzip::method::tmp_add_type_67 tmp_add_func_67(){return 0;};
  namespace boost{namespace iostreams{namespace lzma{typedef int tmp_add_type_68;}}}
  boost::iostreams::lzma::tmp_add_type_68 tmp_add_func_68(){return 0;};
  namespace boost{namespace iostreams{namespace newline{typedef int tmp_add_type_69;}}}
  boost::iostreams::newline::tmp_add_type_69 tmp_add_func_69(){return 0;};
  namespace boost{namespace iostreams{namespace zlib{typedef int tmp_add_type_70;}}}
  boost::iostreams::zlib::tmp_add_type_70 tmp_add_func_70(){return 0;};
  namespace boost{namespace iostreams{namespace zstd{typedef int tmp_add_type_71;}}}
  boost::iostreams::zstd::tmp_add_type_71 tmp_add_func_71(){return 0;};
  namespace boost{namespace iterators{typedef int tmp_add_type_72;}}
  boost::iterators::tmp_add_type_72 tmp_add_func_72(){return 0;};
  namespace boost{namespace iterators{namespace detail{typedef int tmp_add_type_73;}}}
  boost::iterators::detail::tmp_add_type_73 tmp_add_func_73(){return 0;};
  namespace boost{namespace logic{typedef int tmp_add_type_74;}}
  boost::logic::tmp_add_type_74 tmp_add_func_74(){return 0;};
  namespace boost{namespace logic{namespace detail{typedef int tmp_add_type_75;}}}
  boost::logic::detail::tmp_add_type_75 tmp_add_func_75(){return 0;};
  namespace boost{namespace math{typedef int tmp_add_type_76;}}
  boost::math::tmp_add_type_76 tmp_add_func_76(){return 0;};
  namespace boost{namespace math{namespace concepts{typedef int tmp_add_type_77;}}}
  boost::math::concepts::tmp_add_type_77 tmp_add_func_77(){return 0;};
  namespace boost{namespace math{namespace constants{typedef int tmp_add_type_78;}}}
  boost::math::constants::tmp_add_type_78 tmp_add_func_78(){return 0;};
  namespace boost{namespace math{namespace constants{namespace detail{typedef int tmp_add_type_79;}}}}
  boost::math::constants::detail::tmp_add_type_79 tmp_add_func_79(){return 0;};
  namespace boost{namespace math{namespace constants{namespace detail{namespace detail{typedef int tmp_add_type_80;}}}}}
  boost::math::constants::detail::detail::tmp_add_type_80 tmp_add_func_80(){return 0;};
  namespace boost{namespace math{namespace detail{typedef int tmp_add_type_81;}}}
  boost::math::detail::tmp_add_type_81 tmp_add_func_81(){return 0;};
  namespace boost{namespace math{namespace differentiation{typedef int tmp_add_type_82;}}}
  boost::math::differentiation::tmp_add_type_82 tmp_add_func_82(){return 0;};
  namespace boost{namespace math{namespace differentiation{namespace detail{typedef int tmp_add_type_83;}}}}
  boost::math::differentiation::detail::tmp_add_type_83 tmp_add_func_83(){return 0;};
  namespace boost{namespace math{namespace filters{typedef int tmp_add_type_84;}}}
  boost::math::filters::tmp_add_type_84 tmp_add_func_84(){return 0;};
  namespace boost{namespace math{namespace interpolators{typedef int tmp_add_type_85;}}}
  boost::math::interpolators::tmp_add_type_85 tmp_add_func_85(){return 0;};
  namespace boost{namespace math{namespace interpolators{namespace detail{typedef int tmp_add_type_86;}}}}
  boost::math::interpolators::detail::tmp_add_type_86 tmp_add_func_86(){return 0;};
  namespace boost{namespace math{namespace lanczos{typedef int tmp_add_type_87;}}}
  boost::math::lanczos::tmp_add_type_87 tmp_add_func_87(){return 0;};
  namespace boost{namespace math{namespace policies{typedef int tmp_add_type_88;}}}
  boost::math::policies::tmp_add_type_88 tmp_add_func_88(){return 0;};
  namespace boost{namespace math{namespace policies{namespace detail{typedef int tmp_add_type_89;}}}}
  boost::math::policies::detail::tmp_add_type_89 tmp_add_func_89(){return 0;};
  namespace boost{namespace math{namespace quadrature{typedef int tmp_add_type_90;}}}
  boost::math::quadrature::tmp_add_type_90 tmp_add_func_90(){return 0;};
  namespace boost{namespace math{namespace quadrature{namespace detail{typedef int tmp_add_type_91;}}}}
  boost::math::quadrature::detail::tmp_add_type_91 tmp_add_func_91(){return 0;};
  namespace boost{namespace math{namespace statistics{typedef int tmp_add_type_92;}}}
  boost::math::statistics::tmp_add_type_92 tmp_add_func_92(){return 0;};
  namespace boost{namespace math{namespace tools{typedef int tmp_add_type_93;}}}
  boost::math::tools::tmp_add_type_93 tmp_add_func_93(){return 0;};
  namespace boost{namespace math{namespace tools{namespace detail{typedef int tmp_add_type_94;}}}}
  boost::math::tools::detail::tmp_add_type_94 tmp_add_func_94(){return 0;};
  namespace boost{namespace math{namespace tools{namespace detail{namespace dummy{typedef int tmp_add_type_95;}}}}}
  boost::math::tools::detail::dummy::tmp_add_type_95 tmp_add_func_95(){return 0;};
  namespace boost{namespace math{namespace tr1{typedef int tmp_add_type_96;}}}
  boost::math::tr1::tmp_add_type_96 tmp_add_func_96(){return 0;};
  namespace boost{namespace movelib{typedef int tmp_add_type_97;}}
  boost::movelib::tmp_add_type_97 tmp_add_func_97(){return 0;};
  namespace boost{namespace mp11{typedef int tmp_add_type_98;}}
  boost::mp11::tmp_add_type_98 tmp_add_func_98(){return 0;};
  namespace boost{namespace mp11{namespace detail{typedef int tmp_add_type_99;}}}
  boost::mp11::detail::tmp_add_type_99 tmp_add_func_99(){return 0;};
  namespace boost{namespace mpi{typedef int tmp_add_type_100;}}
  boost::mpi::tmp_add_type_100 tmp_add_func_100(){return 0;};
  namespace boost{namespace mpi{namespace detail{typedef int tmp_add_type_101;}}}
  boost::mpi::detail::tmp_add_type_101 tmp_add_func_101(){return 0;};
  namespace boost{namespace mpi{namespace python{typedef int tmp_add_type_102;}}}
  boost::mpi::python::tmp_add_type_102 tmp_add_func_102(){return 0;};
  namespace boost{namespace mpi{namespace python{namespace detail{typedef int tmp_add_type_103;}}}}
  boost::mpi::python::detail::tmp_add_type_103 tmp_add_func_103(){return 0;};
  namespace boost{namespace mpi{namespace threading{typedef int tmp_add_type_104;}}}
  boost::mpi::threading::tmp_add_type_104 tmp_add_func_104(){return 0;};
  namespace boost{namespace mpl{typedef int tmp_add_type_105;}}
  boost::mpl::tmp_add_type_105 tmp_add_func_105(){return 0;};
  namespace boost{namespace mpl{namespace aux{typedef int tmp_add_type_106;}}}
  boost::mpl::aux::tmp_add_type_106 tmp_add_func_106(){return 0;};
  namespace boost{namespace mpl{namespace placeholders{typedef int tmp_add_type_107;}}}
  boost::mpl::placeholders::tmp_add_type_107 tmp_add_func_107(){return 0;};
  namespace boost{namespace multiprecision{typedef int tmp_add_type_108;}}
  boost::multiprecision::tmp_add_type_108 tmp_add_func_108(){return 0;};
  namespace boost{namespace multiprecision{namespace backends{typedef int tmp_add_type_109;}}}
  boost::multiprecision::backends::tmp_add_type_109 tmp_add_func_109(){return 0;};
  namespace boost{namespace multiprecision{namespace backends{namespace detail{typedef int tmp_add_type_110;}}}}
  boost::multiprecision::backends::detail::tmp_add_type_110 tmp_add_func_110(){return 0;};
  namespace boost{namespace multiprecision{namespace concepts{typedef int tmp_add_type_111;}}}
  boost::multiprecision::concepts::tmp_add_type_111 tmp_add_func_111(){return 0;};
  namespace boost{namespace multiprecision{namespace detail{typedef int tmp_add_type_112;}}}
  boost::multiprecision::detail::tmp_add_type_112 tmp_add_func_112(){return 0;};
  namespace boost{namespace multiprecision{namespace literals{typedef int tmp_add_type_113;}}}
  boost::multiprecision::literals::tmp_add_type_113 tmp_add_func_113(){return 0;};
  namespace boost{namespace multiprecision{namespace literals{namespace detail{typedef int tmp_add_type_114;}}}}
  boost::multiprecision::literals::detail::tmp_add_type_114 tmp_add_func_114(){return 0;};
  namespace boost{namespace numeric{typedef int tmp_add_type_115;}}
  boost::numeric::tmp_add_type_115 tmp_add_func_115(){return 0;};
  namespace boost{namespace numeric{namespace boundsdetail{typedef int tmp_add_type_116;}}}
  boost::numeric::boundsdetail::tmp_add_type_116 tmp_add_func_116(){return 0;};
  namespace boost{namespace numeric{namespace convdetail{typedef int tmp_add_type_117;}}}
  boost::numeric::convdetail::tmp_add_type_117 tmp_add_func_117(){return 0;};
  namespace boost{namespace numeric{namespace odeint{typedef int tmp_add_type_118;}}}
  boost::numeric::odeint::tmp_add_type_118 tmp_add_func_118(){return 0;};
  namespace boost{namespace numeric{namespace odeint{namespace detail{typedef int tmp_add_type_119;}}}}
  boost::numeric::odeint::detail::tmp_add_type_119 tmp_add_func_119(){return 0;};
  namespace boost{namespace numeric{namespace odeint{namespace traits{typedef int tmp_add_type_120;}}}}
  boost::numeric::odeint::traits::tmp_add_type_120 tmp_add_func_120(){return 0;};
  namespace boost{namespace numeric{namespace odeint{namespace version{typedef int tmp_add_type_121;}}}}
  boost::numeric::odeint::version::tmp_add_type_121 tmp_add_func_121(){return 0;};
  namespace boost{namespace numeric{namespace ublas{typedef int tmp_add_type_122;}}}
  boost::numeric::ublas::tmp_add_type_122 tmp_add_func_122(){return 0;};
  namespace boost{namespace numeric{namespace ublas{namespace detail{typedef int tmp_add_type_123;}}}}
  boost::numeric::ublas::detail::tmp_add_type_123 tmp_add_func_123(){return 0;};
  namespace boost{namespace numeric{namespace ublas{namespace detail{namespace recursive{typedef int tmp_add_type_124;}}}}}
  boost::numeric::ublas::detail::recursive::tmp_add_type_124 tmp_add_func_124(){return 0;};
  namespace boost{namespace numeric{namespace ublas{namespace dimension{typedef int tmp_add_type_125;}}}}
  boost::numeric::ublas::dimension::tmp_add_type_125 tmp_add_func_125(){return 0;};
  namespace boost{namespace numeric{namespace ublas{namespace hidden{typedef int tmp_add_type_126;}}}}
  boost::numeric::ublas::hidden::tmp_add_type_126 tmp_add_func_126(){return 0;};
  namespace boost{namespace numeric{namespace ublas{namespace index{typedef int tmp_add_type_127;}}}}
  boost::numeric::ublas::index::tmp_add_type_127 tmp_add_func_127(){return 0;};
  namespace boost{namespace numeric{namespace ublas{namespace opencl{typedef int tmp_add_type_128;}}}}
  boost::numeric::ublas::opencl::tmp_add_type_128 tmp_add_func_128(){return 0;};
  namespace boost{namespace numeric{namespace ublas{namespace raw{typedef int tmp_add_type_129;}}}}
  boost::numeric::ublas::raw::tmp_add_type_129 tmp_add_func_129(){return 0;};
  namespace boost{namespace numeric{namespace ublas{namespace tag{typedef int tmp_add_type_130;}}}}
  boost::numeric::ublas::tag::tmp_add_type_130 tmp_add_func_130(){return 0;};
  namespace boost{namespace parameter{typedef int tmp_add_type_131;}}
  boost::parameter::tmp_add_type_131 tmp_add_func_131(){return 0;};
  namespace boost{namespace parameter{namespace aux{typedef int tmp_add_type_132;}}}
  boost::parameter::aux::tmp_add_type_132 tmp_add_func_132(){return 0;};
  namespace boost{namespace parameter{namespace python{typedef int tmp_add_type_133;}}}
  boost::parameter::python::tmp_add_type_133 tmp_add_func_133(){return 0;};
  namespace boost{namespace parameter{namespace python{namespace aux{typedef int tmp_add_type_134;}}}}
  boost::parameter::python::aux::tmp_add_type_134 tmp_add_func_134(){return 0;};
  namespace boost{namespace placeholders{typedef int tmp_add_type_135;}}
  boost::placeholders::tmp_add_type_135 tmp_add_func_135(){return 0;};
  namespace boost{namespace proto{typedef int tmp_add_type_136;}}
  boost::proto::tmp_add_type_136 tmp_add_func_136(){return 0;};
  namespace boost{namespace proto{namespace context{typedef int tmp_add_type_137;}}}
  boost::proto::context::tmp_add_type_137 tmp_add_func_137(){return 0;};
  namespace boost{namespace proto{namespace detail{typedef int tmp_add_type_138;}}}
  boost::proto::detail::tmp_add_type_138 tmp_add_func_138(){return 0;};
  namespace boost{namespace proto{namespace detail{namespace anyns{typedef int tmp_add_type_139;}}}}
  boost::proto::detail::anyns::tmp_add_type_139 tmp_add_func_139(){return 0;};
  namespace boost{namespace proto{namespace functional{typedef int tmp_add_type_140;}}}
  boost::proto::functional::tmp_add_type_140 tmp_add_func_140(){return 0;};
  namespace boost{namespace proto{namespace utility{typedef int tmp_add_type_141;}}}
  boost::proto::utility::tmp_add_type_141 tmp_add_func_141(){return 0;};
  namespace boost{namespace python{typedef int tmp_add_type_142;}}
  boost::python::tmp_add_type_142 tmp_add_func_142(){return 0;};
  namespace boost{namespace python{namespace api{typedef int tmp_add_type_143;}}}
  boost::python::api::tmp_add_type_143 tmp_add_func_143(){return 0;};
  namespace boost{namespace python{namespace converter{typedef int tmp_add_type_144;}}}
  boost::python::converter::tmp_add_type_144 tmp_add_func_144(){return 0;};
  namespace boost{namespace python{namespace converter{namespace detail{typedef int tmp_add_type_145;}}}}
  boost::python::converter::detail::tmp_add_type_145 tmp_add_func_145(){return 0;};
  namespace boost{namespace python{namespace converter{namespace registry{typedef int tmp_add_type_146;}}}}
  boost::python::converter::registry::tmp_add_type_146 tmp_add_func_146(){return 0;};
  namespace boost{namespace python{namespace detail{typedef int tmp_add_type_147;}}}
  boost::python::detail::tmp_add_type_147 tmp_add_func_147(){return 0;};
  namespace boost{namespace python{namespace detail{namespace error{typedef int tmp_add_type_148;}}}}
  boost::python::detail::error::tmp_add_type_148 tmp_add_func_148(){return 0;};
  namespace boost{namespace python{namespace numpy{typedef int tmp_add_type_149;}}}
  boost::python::numpy::tmp_add_type_149 tmp_add_func_149(){return 0;};
  namespace boost{namespace python{namespace numpy{namespace detail{typedef int tmp_add_type_150;}}}}
  boost::python::numpy::detail::tmp_add_type_150 tmp_add_func_150(){return 0;};
  namespace boost{namespace python{namespace objects{typedef int tmp_add_type_151;}}}
  boost::python::objects::tmp_add_type_151 tmp_add_func_151(){return 0;};
  namespace boost{namespace python{namespace objects{namespace detail{typedef int tmp_add_type_152;}}}}
  boost::python::objects::detail::tmp_add_type_152 tmp_add_func_152(){return 0;};
  namespace boost{namespace random{typedef int tmp_add_type_153;}}
  boost::random::tmp_add_type_153 tmp_add_func_153(){return 0;};
  namespace boost{namespace random{namespace detail{typedef int tmp_add_type_154;}}}
  boost::random::detail::tmp_add_type_154 tmp_add_func_154(){return 0;};
  namespace boost{namespace random{namespace traits{typedef int tmp_add_type_155;}}}
  boost::random::traits::tmp_add_type_155 tmp_add_func_155(){return 0;};
  namespace boost{namespace range{typedef int tmp_add_type_156;}}
  boost::range::tmp_add_type_156 tmp_add_func_156(){return 0;};
  namespace boost{namespace serialization{typedef int tmp_add_type_157;}}
  boost::serialization::tmp_add_type_157 tmp_add_func_157(){return 0;};
  namespace boost{namespace serialization{namespace detail{typedef int tmp_add_type_158;}}}
  boost::serialization::detail::tmp_add_type_158 tmp_add_func_158(){return 0;};
  namespace boost{namespace serialization{namespace ext{typedef int tmp_add_type_159;}}}
  boost::serialization::ext::tmp_add_type_159 tmp_add_func_159(){return 0;};
  namespace boost{namespace serialization{namespace stl{typedef int tmp_add_type_160;}}}
  boost::serialization::stl::tmp_add_type_160 tmp_add_func_160(){return 0;};
  namespace boost{namespace sort{typedef int tmp_add_type_161;}}
  boost::sort::tmp_add_type_161 tmp_add_func_161(){return 0;};
  namespace boost{namespace sort{namespace common{typedef int tmp_add_type_162;}}}
  boost::sort::common::tmp_add_type_162 tmp_add_func_162(){return 0;};
  namespace boost{namespace sort{namespace common{namespace util{typedef int tmp_add_type_163;}}}}
  boost::sort::common::util::tmp_add_type_163 tmp_add_func_163(){return 0;};
  namespace boost{namespace tuples{typedef int tmp_add_type_164;}}
  boost::tuples::tmp_add_type_164 tmp_add_func_164(){return 0;};
  namespace boost{namespace tuples{namespace detail{typedef int tmp_add_type_165;}}}
  boost::tuples::detail::tmp_add_type_165 tmp_add_func_165(){return 0;};
  namespace boost{namespace typeindex{typedef int tmp_add_type_166;}}
  boost::typeindex::tmp_add_type_166 tmp_add_func_166(){return 0;};
  namespace boost{namespace typeindex{namespace detail{typedef int tmp_add_type_167;}}}
  boost::typeindex::detail::tmp_add_type_167 tmp_add_func_167(){return 0;};
  namespace boost{namespace units{typedef int tmp_add_type_168;}}
  boost::units::tmp_add_type_168 tmp_add_func_168(){return 0;};
  namespace boost{namespace units{namespace detail{typedef int tmp_add_type_169;}}}
  boost::units::detail::tmp_add_type_169 tmp_add_func_169(){return 0;};
  namespace boost{namespace uuids{typedef int tmp_add_type_170;}}
  boost::uuids::tmp_add_type_170 tmp_add_func_170(){return 0;};
  namespace boost{namespace uuids{namespace detail{typedef int tmp_add_type_171;}}}
  boost::uuids::detail::tmp_add_type_171 tmp_add_func_171(){return 0;};
  namespace boost{namespace variant2{typedef int tmp_add_type_172;}}
  boost::variant2::tmp_add_type_172 tmp_add_func_172(){return 0;};
  namespace boost{namespace variant2{namespace detail{typedef int tmp_add_type_173;}}}
  boost::variant2::detail::tmp_add_type_173 tmp_add_func_173(){return 0;};
  namespace boost{namespace variant2{namespace detail{namespace det2{typedef int tmp_add_type_174;}}}}
  boost::variant2::detail::det2::tmp_add_type_174 tmp_add_func_174(){return 0;};
  namespace Eigen{typedef int tmp_add_type_175;}
  Eigen::tmp_add_type_175 tmp_add_func_175(){return 0;};
  namespace Eigen{namespace Architecture{typedef int tmp_add_type_176;}}
  Eigen::Architecture::tmp_add_type_176 tmp_add_func_176(){return 0;};
  namespace Eigen{namespace indexing{typedef int tmp_add_type_177;}}
  Eigen::indexing::tmp_add_type_177 tmp_add_func_177(){return 0;};
  namespace Eigen{namespace internal{typedef int tmp_add_type_178;}}
  Eigen::internal::tmp_add_type_178 tmp_add_func_178(){return 0;};
  namespace Eigen{namespace numext{typedef int tmp_add_type_179;}}
  Eigen::numext::tmp_add_type_179 tmp_add_func_179(){return 0;};
  namespace Eigen{namespace placeholders{typedef int tmp_add_type_180;}}
  Eigen::placeholders::tmp_add_type_180 tmp_add_func_180(){return 0;};
  namespace Eigen{namespace symbolic{typedef int tmp_add_type_181;}}
  Eigen::symbolic::tmp_add_type_181 tmp_add_func_181(){return 0;};
  namespace _hana{typedef int tmp_add_type_182;}
  _hana::tmp_add_type_182 tmp_add_func_182(){return 0;};
  namespace boost{namespace __anon6ec1d8e13ac11{typedef int tmp_add_type_183;}}
  boost::__anon6ec1d8e13ac11::tmp_add_type_183 tmp_add_func_183(){return 0;};
  namespace boost{namespace _bi{typedef int tmp_add_type_184;}}
  boost::_bi::tmp_add_type_184 tmp_add_func_184(){return 0;};
  namespace boost{namespace _mfi{typedef int tmp_add_type_185;}}
  boost::_mfi::tmp_add_type_185 tmp_add_func_185(){return 0;};
  namespace boost{namespace atomics{namespace detail{namespace lock_pool{typedef int tmp_add_type_186;}}}}
  boost::atomics::detail::lock_pool::tmp_add_type_186 tmp_add_func_186(){return 0;};
  namespace boost{namespace binary_op_detail{typedef int tmp_add_type_187;}}
  boost::binary_op_detail::tmp_add_type_187 tmp_add_func_187(){return 0;};
  namespace boost{namespace chrono{namespace chrono_detail{typedef int tmp_add_type_188;}}}
  boost::chrono::chrono_detail::tmp_add_type_188 tmp_add_func_188(){return 0;};
  namespace boost{namespace container{namespace container_detail_really_deep_namespace{typedef int tmp_add_type_189;}}}
  boost::container::container_detail_really_deep_namespace::tmp_add_type_189 tmp_add_func_189(){return 0;};
  namespace boost{namespace default_{typedef int tmp_add_type_190;}}
  boost::default_::tmp_add_type_190 tmp_add_func_190(){return 0;};
  namespace boost{namespace detail{namespace aligned_storage{typedef int tmp_add_type_191;}}}
  boost::detail::aligned_storage::tmp_add_type_191 tmp_add_func_191(){return 0;};
  namespace boost{namespace detail{namespace indirect_traits{typedef int tmp_add_type_192;}}}
  boost::detail::indirect_traits::tmp_add_type_192 tmp_add_func_192(){return 0;};
  namespace boost{namespace detail{namespace is_incrementable_{typedef int tmp_add_type_193;}}}
  boost::detail::is_incrementable_::tmp_add_type_193 tmp_add_func_193(){return 0;};
  namespace boost{namespace detail{namespace multi_array{typedef int tmp_add_type_194;}}}
  boost::detail::multi_array::tmp_add_type_194 tmp_add_func_194(){return 0;};
  namespace boost{namespace detail{namespace static_log2_impl{typedef int tmp_add_type_195;}}}
  boost::detail::static_log2_impl::tmp_add_type_195 tmp_add_func_195(){return 0;};
  namespace boost{namespace empty_{typedef int tmp_add_type_196;}}
  boost::empty_::tmp_add_type_196 tmp_add_func_196(){return 0;};
  namespace boost{namespace exception_detail{typedef int tmp_add_type_197;}}
  boost::exception_detail::tmp_add_type_197 tmp_add_func_197(){return 0;};
  namespace boost{namespace foreach_detail_{typedef int tmp_add_type_198;}}
  boost::foreach_detail_::tmp_add_type_198 tmp_add_func_198(){return 0;};
  namespace boost{namespace function_types{typedef int tmp_add_type_199;}}
  boost::function_types::tmp_add_type_199 tmp_add_func_199(){return 0;};
  namespace boost{namespace function_types{namespace detail{typedef int tmp_add_type_200;}}}
  boost::function_types::detail::tmp_add_type_200 tmp_add_func_200(){return 0;};
  namespace boost{namespace fusion{namespace advance_detail{typedef int tmp_add_type_201;}}}
  boost::fusion::advance_detail::tmp_add_type_201 tmp_add_func_201(){return 0;};
  namespace boost{namespace fusion{namespace detail{namespace adl_barrier{typedef int tmp_add_type_202;}}}}
  boost::fusion::detail::adl_barrier::tmp_add_type_202 tmp_add_func_202(){return 0;};
  namespace boost{namespace fusion{namespace distance_detail{typedef int tmp_add_type_203;}}}
  boost::fusion::distance_detail::tmp_add_type_203 tmp_add_func_203(){return 0;};
  namespace boost{namespace fusion{namespace iterator_operators{typedef int tmp_add_type_204;}}}
  boost::fusion::iterator_operators::tmp_add_type_204 tmp_add_func_204(){return 0;};
  namespace boost{namespace fusion{namespace result_of{typedef int tmp_add_type_205;}}}
  boost::fusion::result_of::tmp_add_type_205 tmp_add_func_205(){return 0;};
  namespace boost{namespace fusion{namespace vector_detail{typedef int tmp_add_type_206;}}}
  boost::fusion::vector_detail::tmp_add_type_206 tmp_add_func_206(){return 0;};
  namespace boost{namespace fusion{namespace vector_detail{namespace result_of{typedef int tmp_add_type_207;}}}}
  boost::fusion::vector_detail::result_of::tmp_add_type_207 tmp_add_func_207(){return 0;};
  namespace boost{namespace graph_detail{typedef int tmp_add_type_208;}}
  boost::graph_detail::tmp_add_type_208 tmp_add_func_208(){return 0;};
  namespace boost{namespace graph_introspect_detail{typedef int tmp_add_type_209;}}
  boost::graph_introspect_detail::tmp_add_type_209 tmp_add_func_209(){return 0;};
  namespace boost{namespace hana{namespace constant_detail{typedef int tmp_add_type_210;}}}
  boost::hana::constant_detail::tmp_add_type_210 tmp_add_func_210(){return 0;};
  namespace boost{namespace hana{namespace convert_detail{typedef int tmp_add_type_211;}}}
  boost::hana::convert_detail::tmp_add_type_211 tmp_add_func_211(){return 0;};
  namespace boost{namespace hana{namespace core_detail{typedef int tmp_add_type_212;}}}
  boost::hana::core_detail::tmp_add_type_212 tmp_add_func_212(){return 0;};
  namespace boost{namespace hana{namespace ic_detail{typedef int tmp_add_type_213;}}}
  boost::hana::ic_detail::tmp_add_type_213 tmp_add_func_213(){return 0;};
  namespace boost{namespace hana{namespace mpl_detail{typedef int tmp_add_type_214;}}}
  boost::hana::mpl_detail::tmp_add_type_214 tmp_add_func_214(){return 0;};
  namespace boost{namespace hana{namespace placeholder_detail{typedef int tmp_add_type_215;}}}
  boost::hana::placeholder_detail::tmp_add_type_215 tmp_add_func_215(){return 0;};
  namespace boost{namespace hana{namespace struct_detail{typedef int tmp_add_type_216;}}}
  boost::hana::struct_detail::tmp_add_type_216 tmp_add_func_216(){return 0;};
  namespace boost{namespace hana{namespace template_detail{typedef int tmp_add_type_217;}}}
  boost::hana::template_detail::tmp_add_type_217 tmp_add_func_217(){return 0;};
  namespace boost{namespace hana{namespace type_detail{typedef int tmp_add_type_218;}}}
  boost::hana::type_detail::tmp_add_type_218 tmp_add_func_218(){return 0;};
  namespace boost{namespace hash_detail{typedef int tmp_add_type_219;}}
  boost::hash_detail::tmp_add_type_219 tmp_add_func_219(){return 0;};
  namespace boost{namespace integer{namespace gcd_detail{typedef int tmp_add_type_220;}}}
  boost::integer::gcd_detail::tmp_add_type_220 tmp_add_func_220(){return 0;};
  namespace boost{namespace iostreams{namespace detail{namespace is_boost_stream_buffer_impl_{typedef int tmp_add_type_221;}}}}
  boost::iostreams::detail::is_boost_stream_buffer_impl_::tmp_add_type_221 tmp_add_func_221(){return 0;};
  namespace boost{namespace iostreams{namespace detail{namespace is_boost_stream_impl_{typedef int tmp_add_type_222;}}}}
  boost::iostreams::detail::is_boost_stream_impl_::tmp_add_type_222 tmp_add_func_222(){return 0;};
  namespace boost{namespace iostreams{namespace detail{namespace is_dereferenceable_{typedef int tmp_add_type_223;}}}}
  boost::iostreams::detail::is_dereferenceable_::tmp_add_type_223 tmp_add_func_223(){return 0;};
  namespace boost{namespace iostreams{namespace detail{namespace is_filtering_stream_impl_impl_{typedef int tmp_add_type_224;}}}}
  boost::iostreams::detail::is_filtering_stream_impl_impl_::tmp_add_type_224 tmp_add_func_224(){return 0;};
  namespace boost{namespace iostreams{namespace detail{namespace is_filtering_streambuf_impl_impl_{typedef int tmp_add_type_225;}}}}
  boost::iostreams::detail::is_filtering_streambuf_impl_impl_::tmp_add_type_225 tmp_add_func_225(){return 0;};
  namespace boost{namespace iostreams{namespace detail{namespace is_filtering_wstream_impl_impl_{typedef int tmp_add_type_226;}}}}
  boost::iostreams::detail::is_filtering_wstream_impl_impl_::tmp_add_type_226 tmp_add_func_226(){return 0;};
  namespace boost{namespace iostreams{namespace detail{namespace is_filtering_wstreambuf_impl_impl_{typedef int tmp_add_type_227;}}}}
  boost::iostreams::detail::is_filtering_wstreambuf_impl_impl_::tmp_add_type_227 tmp_add_func_227(){return 0;};
  namespace boost{namespace iostreams{namespace detail{namespace is_linked_impl_{typedef int tmp_add_type_228;}}}}
  boost::iostreams::detail::is_linked_impl_::tmp_add_type_228 tmp_add_func_228(){return 0;};
  namespace boost{namespace iostreams{namespace gzip{namespace extra_flags{typedef int tmp_add_type_229;}}}}
  boost::iostreams::gzip::extra_flags::tmp_add_type_229 tmp_add_func_229(){return 0;};
  namespace boost{namespace iostreams{namespace is_filebuf_impl_{typedef int tmp_add_type_230;}}}
  boost::iostreams::is_filebuf_impl_::tmp_add_type_230 tmp_add_func_230(){return 0;};
  namespace boost{namespace iostreams{namespace is_fstream_impl_{typedef int tmp_add_type_231;}}}
  boost::iostreams::is_fstream_impl_::tmp_add_type_231 tmp_add_func_231(){return 0;};
  namespace boost{namespace iostreams{namespace is_ifstream_impl_{typedef int tmp_add_type_232;}}}
  boost::iostreams::is_ifstream_impl_::tmp_add_type_232 tmp_add_func_232(){return 0;};
  namespace boost{namespace iostreams{namespace is_iostream_impl_{typedef int tmp_add_type_233;}}}
  boost::iostreams::is_iostream_impl_::tmp_add_type_233 tmp_add_func_233(){return 0;};
  namespace boost{namespace iostreams{namespace is_istream_impl_{typedef int tmp_add_type_234;}}}
  boost::iostreams::is_istream_impl_::tmp_add_type_234 tmp_add_func_234(){return 0;};
  namespace boost{namespace iostreams{namespace is_istringstream_impl_{typedef int tmp_add_type_235;}}}
  boost::iostreams::is_istringstream_impl_::tmp_add_type_235 tmp_add_func_235(){return 0;};
  namespace boost{namespace iostreams{namespace is_iterator_range_impl_{typedef int tmp_add_type_236;}}}
  boost::iostreams::is_iterator_range_impl_::tmp_add_type_236 tmp_add_func_236(){return 0;};
  namespace boost{namespace iostreams{namespace is_ofstream_impl_{typedef int tmp_add_type_237;}}}
  boost::iostreams::is_ofstream_impl_::tmp_add_type_237 tmp_add_func_237(){return 0;};
  namespace boost{namespace iostreams{namespace is_ostream_impl_{typedef int tmp_add_type_238;}}}
  boost::iostreams::is_ostream_impl_::tmp_add_type_238 tmp_add_func_238(){return 0;};
  namespace boost{namespace iostreams{namespace is_ostringstream_impl_{typedef int tmp_add_type_239;}}}
  boost::iostreams::is_ostringstream_impl_::tmp_add_type_239 tmp_add_func_239(){return 0;};
  namespace boost{namespace iostreams{namespace is_streambuf_impl_{typedef int tmp_add_type_240;}}}
  boost::iostreams::is_streambuf_impl_::tmp_add_type_240 tmp_add_func_240(){return 0;};
  namespace boost{namespace iostreams{namespace is_string_impl_{typedef int tmp_add_type_241;}}}
  boost::iostreams::is_string_impl_::tmp_add_type_241 tmp_add_func_241(){return 0;};
  namespace boost{namespace iostreams{namespace is_stringbuf_impl_{typedef int tmp_add_type_242;}}}
  boost::iostreams::is_stringbuf_impl_::tmp_add_type_242 tmp_add_func_242(){return 0;};
  namespace boost{namespace iostreams{namespace is_stringstream_impl_{typedef int tmp_add_type_243;}}}
  boost::iostreams::is_stringstream_impl_::tmp_add_type_243 tmp_add_func_243(){return 0;};
  namespace boost{namespace iterator_range_detail{typedef int tmp_add_type_244;}}
  boost::iterator_range_detail::tmp_add_type_244 tmp_add_func_244(){return 0;};
  namespace boost{namespace iterators{namespace advance_adl_barrier{typedef int tmp_add_type_245;}}}
  boost::iterators::advance_adl_barrier::tmp_add_type_245 tmp_add_func_245(){return 0;};
  namespace boost{namespace iterators{namespace distance_adl_barrier{typedef int tmp_add_type_246;}}}
  boost::iterators::distance_adl_barrier::tmp_add_type_246 tmp_add_func_246(){return 0;};
  namespace boost{namespace math{namespace __anon6ec1d8e1f211{typedef int tmp_add_type_247;}}}
  boost::math::__anon6ec1d8e1f211::tmp_add_type_247 tmp_add_func_247(){return 0;};
  namespace boost{namespace math{namespace __anon6ec1d8e1f211{namespace hyperexp_detail{typedef int tmp_add_type_248;}}}}
  boost::math::__anon6ec1d8e1f211::hyperexp_detail::tmp_add_type_248 tmp_add_func_248(){return 0;};
  namespace boost{namespace math{namespace arcsine_detail{typedef int tmp_add_type_249;}}}
  boost::math::arcsine_detail::tmp_add_type_249 tmp_add_func_249(){return 0;};
  namespace boost{namespace math{namespace bernoulli_detail{typedef int tmp_add_type_250;}}}
  boost::math::bernoulli_detail::tmp_add_type_250 tmp_add_func_250(){return 0;};
  namespace boost{namespace math{namespace beta_detail{typedef int tmp_add_type_251;}}}
  boost::math::beta_detail::tmp_add_type_251 tmp_add_func_251(){return 0;};
  namespace boost{namespace math{namespace binomial_detail{typedef int tmp_add_type_252;}}}
  boost::math::binomial_detail::tmp_add_type_252 tmp_add_func_252(){return 0;};
  namespace boost{namespace math{namespace constants{namespace detail{namespace khinchin_detail{typedef int tmp_add_type_253;}}}}}
  boost::math::constants::detail::khinchin_detail::tmp_add_type_253 tmp_add_func_253(){return 0;};
  namespace boost{namespace math{namespace constexpr_detail{typedef int tmp_add_type_254;}}}
  boost::math::constexpr_detail::tmp_add_type_254 tmp_add_func_254(){return 0;};
  namespace boost{namespace math{namespace detail{namespace airy_zero{typedef int tmp_add_type_255;}}}}
  boost::math::detail::airy_zero::tmp_add_type_255 tmp_add_func_255(){return 0;};
  namespace boost{namespace math{namespace detail{namespace airy_zero{namespace airy_ai_zero_detail{typedef int tmp_add_type_256;}}}}}
  boost::math::detail::airy_zero::airy_ai_zero_detail::tmp_add_type_256 tmp_add_func_256(){return 0;};
  namespace boost{namespace math{namespace detail{namespace airy_zero{namespace airy_bi_zero_detail{typedef int tmp_add_type_257;}}}}}
  boost::math::detail::airy_zero::airy_bi_zero_detail::tmp_add_type_257 tmp_add_func_257(){return 0;};
  namespace boost{namespace math{namespace detail{namespace bessel_zero{typedef int tmp_add_type_258;}}}}
  boost::math::detail::bessel_zero::tmp_add_type_258 tmp_add_func_258(){return 0;};
  namespace boost{namespace math{namespace detail{namespace bessel_zero{namespace cyl_bessel_j_zero_detail{typedef int tmp_add_type_259;}}}}}
  boost::math::detail::bessel_zero::cyl_bessel_j_zero_detail::tmp_add_type_259 tmp_add_func_259(){return 0;};
  namespace boost{namespace math{namespace detail{namespace bessel_zero{namespace cyl_neumann_zero_detail{typedef int tmp_add_type_260;}}}}}
  boost::math::detail::bessel_zero::cyl_neumann_zero_detail::tmp_add_type_260 tmp_add_func_260(){return 0;};
  namespace boost{namespace math{namespace double_constants{typedef int tmp_add_type_261;}}}
  boost::math::double_constants::tmp_add_type_261 tmp_add_func_261(){return 0;};
  namespace boost{namespace math{namespace float_constants{typedef int tmp_add_type_262;}}}
  boost::math::float_constants::tmp_add_type_262 tmp_add_func_262(){return 0;};
  namespace boost{namespace math{namespace geometric_detail{typedef int tmp_add_type_263;}}}
  boost::math::geometric_detail::tmp_add_type_263 tmp_add_func_263(){return 0;};
  namespace boost{namespace math{namespace lambert_w_detail{typedef int tmp_add_type_264;}}}
  boost::math::lambert_w_detail::tmp_add_type_264 tmp_add_func_264(){return 0;};
  namespace boost{namespace math{namespace lambert_w_detail{namespace lambert_w_lookup{typedef int tmp_add_type_265;}}}}
  boost::math::lambert_w_detail::lambert_w_lookup::tmp_add_type_265 tmp_add_func_265(){return 0;};
  namespace boost{namespace math{namespace long_double_constants{typedef int tmp_add_type_266;}}}
  boost::math::long_double_constants::tmp_add_type_266 tmp_add_func_266(){return 0;};
  namespace boost{namespace math{namespace negative_binomial_detail{typedef int tmp_add_type_267;}}}
  boost::math::negative_binomial_detail::tmp_add_type_267 tmp_add_func_267(){return 0;};
  namespace boost{namespace math{namespace poisson_detail{typedef int tmp_add_type_268;}}}
  boost::math::poisson_detail::tmp_add_type_268 tmp_add_func_268(){return 0;};
  namespace boost{namespace math_detail{typedef int tmp_add_type_269;}}
  boost::math_detail::tmp_add_type_269 tmp_add_func_269(){return 0;};
  namespace boost{namespace move_detail{typedef int tmp_add_type_270;}}
  boost::move_detail::tmp_add_type_270 tmp_add_func_270(){return 0;};
  namespace boost{namespace multi_array_concepts{typedef int tmp_add_type_271;}}
  boost::multi_array_concepts::tmp_add_type_271 tmp_add_func_271(){return 0;};
  namespace boost{namespace multi_array_concepts{namespace detail{typedef int tmp_add_type_272;}}}
  boost::multi_array_concepts::detail::tmp_add_type_272 tmp_add_func_272(){return 0;};
  namespace boost{namespace multi_array_types{typedef int tmp_add_type_273;}}
  boost::multi_array_types::tmp_add_type_273 tmp_add_func_273(){return 0;};
  namespace boost{namespace multiprecision{namespace cpp_bf_io_detail{typedef int tmp_add_type_274;}}}
  boost::multiprecision::cpp_bf_io_detail::tmp_add_type_274 tmp_add_func_274(){return 0;};
  namespace boost{namespace multiprecision{namespace default_ops{typedef int tmp_add_type_275;}}}
  boost::multiprecision::default_ops::tmp_add_type_275 tmp_add_func_275(){return 0;};
  namespace boost{namespace multiprecision{namespace default_ops{namespace detail{typedef int tmp_add_type_276;}}}}
  boost::multiprecision::default_ops::detail::tmp_add_type_276 tmp_add_func_276(){return 0;};
  namespace boost{namespace multiprecision{namespace default_ops_adl{typedef int tmp_add_type_277;}}}
  boost::multiprecision::default_ops_adl::tmp_add_type_277 tmp_add_func_277(){return 0;};
  namespace boost{namespace multiprecision{namespace std_constexpr{typedef int tmp_add_type_278;}}}
  boost::multiprecision::std_constexpr::tmp_add_type_278 tmp_add_func_278(){return 0;};
  namespace boost{namespace next_prior_detail{typedef int tmp_add_type_279;}}
  boost::next_prior_detail::tmp_add_type_279 tmp_add_func_279(){return 0;};
  namespace boost{namespace noncopyable_{typedef int tmp_add_type_280;}}
  boost::noncopyable_::tmp_add_type_280 tmp_add_func_280(){return 0;};
  namespace boost{namespace numeric{namespace interval_lib{typedef int tmp_add_type_281;}}}
  boost::numeric::interval_lib::tmp_add_type_281 tmp_add_func_281(){return 0;};
  namespace boost{namespace numeric{namespace interval_lib{namespace compare{typedef int tmp_add_type_282;}}}}
  boost::numeric::interval_lib::compare::tmp_add_type_282 tmp_add_func_282(){return 0;};
  namespace boost{namespace numeric{namespace interval_lib{namespace compare{namespace tribool{typedef int tmp_add_type_283;}}}}}
  boost::numeric::interval_lib::compare::tribool::tmp_add_type_283 tmp_add_func_283(){return 0;};
  namespace boost{namespace numeric{namespace interval_lib{namespace detail{typedef int tmp_add_type_284;}}}}
  boost::numeric::interval_lib::detail::tmp_add_type_284 tmp_add_func_284(){return 0;};
  namespace boost{namespace numeric{namespace interval_lib{namespace user{typedef int tmp_add_type_285;}}}}
  boost::numeric::interval_lib::user::tmp_add_type_285 tmp_add_func_285(){return 0;};
  namespace boost{namespace numeric{namespace odeint{namespace detail{namespace symplectic_euler_coef{typedef int tmp_add_type_286;}}}}}
  boost::numeric::odeint::detail::symplectic_euler_coef::tmp_add_type_286 tmp_add_func_286(){return 0;};
  namespace boost{namespace numeric{namespace odeint{namespace detail{namespace symplectic_rkn_sb3a_mclachlan{typedef int tmp_add_type_287;}}}}}
  boost::numeric::odeint::detail::symplectic_rkn_sb3a_mclachlan::tmp_add_type_287 tmp_add_func_287(){return 0;};
  namespace boost{namespace numeric{namespace odeint{namespace range_detail{typedef int tmp_add_type_288;}}}}
  boost::numeric::odeint::range_detail::tmp_add_type_288 tmp_add_func_288(){return 0;};
  namespace boost{namespace numeric{namespace odeint{namespace result_of{typedef int tmp_add_type_289;}}}}
  boost::numeric::odeint::result_of::tmp_add_type_289 tmp_add_func_289(){return 0;};
  namespace boost{namespace numeric{namespace ublas{namespace blas_1{typedef int tmp_add_type_290;}}}}
  boost::numeric::ublas::blas_1::tmp_add_type_290 tmp_add_func_290(){return 0;};
  namespace boost{namespace numeric{namespace ublas{namespace blas_2{typedef int tmp_add_type_291;}}}}
  boost::numeric::ublas::blas_2::tmp_add_type_291 tmp_add_func_291(){return 0;};
  namespace boost{namespace numeric{namespace ublas{namespace blas_3{typedef int tmp_add_type_292;}}}}
  boost::numeric::ublas::blas_3::tmp_add_type_292 tmp_add_func_292(){return 0;};
  namespace boost{namespace numeric{namespace ublas{namespace detail{namespace __anon6ec1d8e13ec11{typedef int tmp_add_type_293;}}}}}
  boost::numeric::ublas::detail::__anon6ec1d8e13ec11::tmp_add_type_293 tmp_add_func_293(){return 0;};
  namespace boost{namespace numeric{namespace ublas{namespace fill_policy{typedef int tmp_add_type_294;}}}}
  boost::numeric::ublas::fill_policy::tmp_add_type_294 tmp_add_func_294(){return 0;};
  namespace boost{namespace numeric{namespace ublas{namespace nonassignable_{typedef int tmp_add_type_295;}}}}
  boost::numeric::ublas::nonassignable_::tmp_add_type_295 tmp_add_func_295(){return 0;};
  namespace boost{namespace numeric{namespace ublas{namespace traverse_policy{typedef int tmp_add_type_296;}}}}
  boost::numeric::ublas::traverse_policy::tmp_add_type_296 tmp_add_func_296(){return 0;};
  namespace boost{namespace numeric{namespace ublas{namespace type_deduction_detail{typedef int tmp_add_type_297;}}}}
  boost::numeric::ublas::type_deduction_detail::tmp_add_type_297 tmp_add_func_297(){return 0;};
  namespace boost{namespace operators_impl{typedef int tmp_add_type_298;}}
  boost::operators_impl::tmp_add_type_298 tmp_add_func_298(){return 0;};
  namespace boost{namespace operators_impl{namespace operators_detail{typedef int tmp_add_type_299;}}}
  boost::operators_impl::operators_detail::tmp_add_type_299 tmp_add_func_299(){return 0;};
  namespace boost{namespace optional_config{typedef int tmp_add_type_300;}}
  boost::optional_config::tmp_add_type_300 tmp_add_func_300(){return 0;};
  namespace boost{namespace optional_detail{typedef int tmp_add_type_301;}}
  boost::optional_detail::tmp_add_type_301 tmp_add_func_301(){return 0;};
  namespace boost{namespace optional_ns{typedef int tmp_add_type_302;}}
  boost::optional_ns::tmp_add_type_302 tmp_add_func_302(){return 0;};
  namespace boost{namespace proto{namespace argsns_{typedef int tmp_add_type_303;}}}
  boost::proto::argsns_::tmp_add_type_303 tmp_add_func_303(){return 0;};
  namespace boost{namespace proto{namespace detail{namespace get_pointerns{typedef int tmp_add_type_304;}}}}
  boost::proto::detail::get_pointerns::tmp_add_type_304 tmp_add_func_304(){return 0;};
  namespace boost{namespace proto{namespace detail{namespace has_get_pointerns{typedef int tmp_add_type_305;}}}}
  boost::proto::detail::has_get_pointerns::tmp_add_type_305 tmp_add_func_305(){return 0;};
  namespace boost{namespace proto{namespace domainns_{typedef int tmp_add_type_306;}}}
  boost::proto::domainns_::tmp_add_type_306 tmp_add_func_306(){return 0;};
  namespace boost{namespace proto{namespace envns_{typedef int tmp_add_type_307;}}}
  boost::proto::envns_::tmp_add_type_307 tmp_add_func_307(){return 0;};
  namespace boost{namespace proto{namespace exprns_{typedef int tmp_add_type_308;}}}
  boost::proto::exprns_::tmp_add_type_308 tmp_add_func_308(){return 0;};
  namespace boost{namespace proto{namespace hidden_detail_{typedef int tmp_add_type_309;}}}
  boost::proto::hidden_detail_::tmp_add_type_309 tmp_add_func_309(){return 0;};
  namespace boost{namespace proto{namespace result_of{typedef int tmp_add_type_310;}}}
  boost::proto::result_of::tmp_add_type_310 tmp_add_func_310(){return 0;};
  namespace boost{namespace proto{namespace tagns_{typedef int tmp_add_type_311;}}}
  boost::proto::tagns_::tmp_add_type_311 tmp_add_func_311(){return 0;};
  namespace boost{namespace proto{namespace tagns_{namespace tag{typedef int tmp_add_type_312;}}}}
  boost::proto::tagns_::tag::tmp_add_type_312 tmp_add_func_312(){return 0;};
  namespace boost{namespace python{namespace container_utils{typedef int tmp_add_type_313;}}}
  boost::python::container_utils::tmp_add_type_313 tmp_add_func_313(){return 0;};
  namespace boost{namespace python{namespace detail{namespace wrapper_base_{typedef int tmp_add_type_314;}}}}
  boost::python::detail::wrapper_base_::tmp_add_type_314 tmp_add_func_314(){return 0;};
  namespace boost{namespace python{namespace error_messages{typedef int tmp_add_type_315;}}}
  boost::python::error_messages::tmp_add_type_315 tmp_add_func_315(){return 0;};
  namespace boost{namespace python{namespace self_ns{typedef int tmp_add_type_316;}}}
  boost::python::self_ns::tmp_add_type_316 tmp_add_func_316(){return 0;};
  namespace boost{namespace random{namespace hyperexp_detail{typedef int tmp_add_type_317;}}}
  boost::random::hyperexp_detail::tmp_add_type_317 tmp_add_func_317(){return 0;};
  namespace boost{namespace range_adl_barrier{typedef int tmp_add_type_318;}}
  boost::range_adl_barrier::tmp_add_type_318 tmp_add_func_318(){return 0;};
  namespace boost{namespace range_detail{typedef int tmp_add_type_319;}}
  boost::range_detail::tmp_add_type_319 tmp_add_func_319(){return 0;};
  namespace boost{namespace range_distance_adl_barrier{typedef int tmp_add_type_320;}}
  boost::range_distance_adl_barrier::tmp_add_type_320 tmp_add_func_320(){return 0;};
  namespace boost{namespace ratio_detail{typedef int tmp_add_type_321;}}
  boost::ratio_detail::tmp_add_type_321 tmp_add_func_321(){return 0;};
  namespace boost{namespace rational_detail{typedef int tmp_add_type_322;}}
  boost::rational_detail::tmp_add_type_322 tmp_add_func_322(){return 0;};
  namespace boost{namespace re_detail_107400{typedef int tmp_add_type_323;}}
  boost::re_detail_107400::tmp_add_type_323 tmp_add_func_323(){return 0;};
  namespace boost{namespace regex_constants{typedef int tmp_add_type_324;}}
  boost::regex_constants::tmp_add_type_324 tmp_add_func_324(){return 0;};
  namespace boost{namespace serialization{namespace cpp_int_detail{typedef int tmp_add_type_325;}}}
  boost::serialization::cpp_int_detail::tmp_add_type_325 tmp_add_func_325(){return 0;};
  namespace boost{namespace serialization{namespace smart_cast_impl{typedef int tmp_add_type_326;}}}
  boost::serialization::smart_cast_impl::tmp_add_type_326 tmp_add_func_326(){return 0;};
  namespace boost{namespace serialization{namespace typeid_system{typedef int tmp_add_type_327;}}}
  boost::serialization::typeid_system::tmp_add_type_327 tmp_add_func_327(){return 0;};
  namespace boost{namespace serialization{namespace void_cast_detail{typedef int tmp_add_type_328;}}}
  boost::serialization::void_cast_detail::tmp_add_type_328 tmp_add_func_328(){return 0;};
  namespace boost{namespace sort{namespace heap_detail{typedef int tmp_add_type_329;}}}
  boost::sort::heap_detail::tmp_add_type_329 tmp_add_func_329(){return 0;};
  namespace boost{namespace tt_align_ns{typedef int tmp_add_type_330;}}
  boost::tt_align_ns::tmp_add_type_330 tmp_add_func_330(){return 0;};
  namespace boost{namespace type_of{typedef int tmp_add_type_331;}}
  boost::type_of::tmp_add_type_331 tmp_add_func_331(){return 0;};
  namespace boost{namespace type_traits{typedef int tmp_add_type_332;}}
  boost::type_traits::tmp_add_type_332 tmp_add_func_332(){return 0;};
  namespace boost{namespace type_traits{namespace detail{typedef int tmp_add_type_333;}}}
  boost::type_traits::detail::tmp_add_type_333 tmp_add_func_333(){return 0;};
  namespace boost{namespace type_traits_detail{typedef int tmp_add_type_334;}}
  boost::type_traits_detail::tmp_add_type_334 tmp_add_func_334(){return 0;};
  namespace boost{namespace type_traits_swappable_detail{typedef int tmp_add_type_335;}}
  boost::type_traits_swappable_detail::tmp_add_type_335 tmp_add_func_335(){return 0;};
  namespace boost{namespace units{namespace detail{namespace typeof_pow_adl_barrier{typedef int tmp_add_type_336;}}}}
  boost::units::detail::typeof_pow_adl_barrier::tmp_add_type_336 tmp_add_func_336(){return 0;};
  namespace boost{namespace units{namespace typeof_{typedef int tmp_add_type_337;}}}
  boost::units::typeof_::tmp_add_type_337 tmp_add_func_337(){return 0;};
  namespace boost_concepts{typedef int tmp_add_type_338;}
  boost_concepts::tmp_add_type_338 tmp_add_func_338(){return 0;};
  namespace boost_concepts{namespace detail{typedef int tmp_add_type_339;}}
  boost_concepts::detail::tmp_add_type_339 tmp_add_func_339(){return 0;};
  namespace boost_optional_detail{typedef int tmp_add_type_340;}
  boost_optional_detail::tmp_add_type_340 tmp_add_func_340(){return 0;};
  namespace boost_swap_impl{typedef int tmp_add_type_341;}
  boost_swap_impl::tmp_add_type_341 tmp_add_func_341(){return 0;};
  namespace Eigen{namespace bfloat16_impl{typedef int tmp_add_type_342;}}
  Eigen::bfloat16_impl::tmp_add_type_342 tmp_add_func_342(){return 0;};
  namespace Eigen{namespace half_impl{typedef int tmp_add_type_343;}}
  Eigen::half_impl::tmp_add_type_343 tmp_add_func_343(){return 0;};
  namespace Eigen{namespace internal{namespace std_fallback{typedef int tmp_add_type_344;}}}
  Eigen::internal::std_fallback::tmp_add_type_344 tmp_add_func_344(){return 0;};
  namespace mpl_{typedef int tmp_add_type_345;}
  mpl_::tmp_add_type_345 tmp_add_func_345(){return 0;};
  namespace mpl_{namespace aux{typedef int tmp_add_type_346;}}
  mpl_::aux::tmp_add_type_346 tmp_add_func_346(){return 0;};
  namespace std_workaround{typedef int tmp_add_type_347;}
  std_workaround::tmp_add_type_347 tmp_add_func_347(){return 0;};

  // add classes
  PyCodeObject* tmp_add_class_0;
  PyConfig* tmp_add_class_1;
  PyGetSetDef* tmp_add_class_2;
  PyMethodDef* tmp_add_class_3;
  PyModuleDef* tmp_add_class_4;
  PyModuleDef_Base* tmp_add_class_5;
  PyModuleDef_Slot* tmp_add_class_6;
  PyPreConfig* tmp_add_class_7;
  PyStructSequence_Desc* tmp_add_class_8;
  PyStructSequence_Field* tmp_add_class_9;
  _G_fpos64_t* tmp_add_class_10;
  _G_fpos_t* tmp_add_class_11;
  _IO_cookie_io_functions_t* tmp_add_class_12;
  _PyArg_Parser* tmp_add_class_13;
  _PyCFrame* tmp_add_class_14;
  _PyWeakReference* tmp_add_class_15;
  _Py_Identifier* tmp_add_class_16;
  _Py_tss_t* tmp_add_class_17;
  _cl_buffer_region* tmp_add_class_18;
  _cl_device_integer_dot_product_acceleration_properties_khr* tmp_add_class_19;
  _cl_device_pci_bus_info_khr* tmp_add_class_20;
  _cl_image_desc* tmp_add_class_21;
  _cl_image_format* tmp_add_class_22;
  _cl_mem_android_native_buffer_host_ptr* tmp_add_class_23;
  _cl_mem_ext_host_ptr* tmp_add_class_24;
  _cl_mem_ion_host_ptr* tmp_add_class_25;
  _cl_motion_estimation_desc_intel* tmp_add_class_26;
  _cl_mutable_base_config_khr* tmp_add_class_27;
  _cl_mutable_dispatch_arg_khr* tmp_add_class_28;
  _cl_mutable_dispatch_config_khr* tmp_add_class_29;
  _cl_mutable_dispatch_exec_info_khr* tmp_add_class_30;
  _cl_name_version* tmp_add_class_31;
  _cl_name_version_khr* tmp_add_class_32;
  _cl_queue_family_properties_intel* tmp_add_class_33;
  _err_stackitem* tmp_add_class_34;
  _frozen* tmp_add_class_35;
  _heaptypeobject* tmp_add_class_36;
  _inittab* tmp_add_class_37;
  _line_offsets* tmp_add_class_38;
  _longobject* tmp_add_class_39;
  _object* tmp_add_class_40;
  _opaque* tmp_add_class_41;
  _specialization_cache* tmp_add_class_42;
  _stack_chunk* tmp_add_class_43;
  _traceback* tmp_add_class_44;
  _ts* tmp_add_class_45;
  _typeobject* tmp_add_class_46;
  _xid* tmp_add_class_47;
  fftw_iodim64_do_not_use_me* tmp_add_class_48;
  fftw_iodim_do_not_use_me* tmp_add_class_49;
  futex_waitv* tmp_add_class_50;
  itimerval* tmp_add_class_51;
  ompi_status_public_t* tmp_add_class_52;
  robust_list* tmp_add_class_53;
  robust_list_head* tmp_add_class_54;
  statx_timestamp* tmp_add_class_55;
  wrapperbase* tmp_add_class_56;

The GCC parameters:
  gcc -fdump-lang-raw -fkeep-inline-functions -c -x c++ -fpermissive -w -xc++-header "/tmp/Q332Ln6h1G/dump1.h"  -I/usr/include/eigen3 -I/usr/include/arm-linux-gnueabihf/mpi -I/usr/include/python3.11 -I/usr/include/arm-linux-gnueabihf/mpi/openmpi -I/usr/include/arm-linux-gnueabihf/mpi/openmpi/orte -I/usr/include/arm-linux-gnueabihf/mpi/openmpi/ompi/mca/io -I/usr/include/eigen3/Eigen/src/Core/arch/HIP/hcc

