[2024-01-06T15:47:11+00:00] apt-get install libcairomm-1.16-dev abi-compliance-checker
Reading package lists...
Building dependency tree...
Reading state information...
abi-compliance-checker is already the newest version (2.3-2).
The following packages were automatically installed and are no longer required:
  libcairomm-1.0-1v5 libcairomm-1.0-dev libsigc++-2.0-0v5 libsigc++-2.0-dev
Use 'apt autoremove' to remove them.
The following additional packages will be installed:
  libcairomm-1.16-1 libsigc++-3.0-0 libsigc++-3.0-dev
Suggested packages:
  libcairomm-1.16-doc libsigc++-3.0-doc
The following NEW packages will be installed:
  libcairomm-1.16-1 libcairomm-1.16-dev libsigc++-3.0-0 libsigc++-3.0-dev
0 upgraded, 4 newly installed, 0 to remove and 15 not upgraded.
Need to get 196 kB of archives.
After this operation, 851 kB of additional disk space will be used.
Get:1 http://deb.debian.org/debian unstable/main armhf libsigc++-3.0-0 armhf 3.6.0-1 [27.7 kB]
Get:2 http://deb.debian.org/debian unstable/main armhf libcairomm-1.16-1 armhf 1.18.0-1 [52.9 kB]
Get:3 http://deb.debian.org/debian unstable/main armhf libsigc++-3.0-dev armhf 3.6.0-1 [51.1 kB]
Get:4 http://deb.debian.org/debian unstable/main armhf libcairomm-1.16-dev armhf 1.18.0-1 [64.1 kB]
debconf: delaying package configuration, since apt-utils is not installed
Fetched 196 kB in 1s (287 kB/s)
Selecting previously unselected package libsigc++-3.0-0:armhf.
(Reading database ... (Reading database ... 5%(Reading database ... 10%(Reading database ... 15%(Reading database ... 20%(Reading database ... 25%(Reading database ... 30%(Reading database ... 35%(Reading database ... 40%(Reading database ... 45%(Reading database ... 50%(Reading database ... 55%(Reading database ... 60%(Reading database ... 65%(Reading database ... 70%(Reading database ... 75%(Reading database ... 80%(Reading database ... 85%(Reading database ... 90%(Reading database ... 95%(Reading database ... 100%(Reading database ... 20639 files and directories currently installed.)
Preparing to unpack .../libsigc++-3.0-0_3.6.0-1_armhf.deb ...
Unpacking libsigc++-3.0-0:armhf (3.6.0-1) ...
Selecting previously unselected package libcairomm-1.16-1:armhf.
Preparing to unpack .../libcairomm-1.16-1_1.18.0-1_armhf.deb ...
Unpacking libcairomm-1.16-1:armhf (1.18.0-1) ...
Selecting previously unselected package libsigc++-3.0-dev:armhf.
Preparing to unpack .../libsigc++-3.0-dev_3.6.0-1_armhf.deb ...
Unpacking libsigc++-3.0-dev:armhf (3.6.0-1) ...
Selecting previously unselected package libcairomm-1.16-dev:armhf.
Preparing to unpack .../libcairomm-1.16-dev_1.18.0-1_armhf.deb ...
Unpacking libcairomm-1.16-dev:armhf (1.18.0-1) ...
Setting up libsigc++-3.0-0:armhf (3.6.0-1) ...
Setting up libcairomm-1.16-1:armhf (1.18.0-1) ...
Setting up libsigc++-3.0-dev:armhf (3.6.0-1) ...
Setting up libcairomm-1.16-dev:armhf (1.18.0-1) ...
Processing triggers for libc-bin (2.37-13) ...
Reading package lists...
Building dependency tree...
Reading state information...
The following packages will be REMOVED:
  libcairomm-1.0-1v5* libcairomm-1.0-dev* libsigc++-2.0-0v5*
  libsigc++-2.0-dev*
0 upgraded, 0 newly installed, 4 to remove and 15 not upgraded.
After this operation, 1749 kB disk space will be freed.
(Reading database ... (Reading database ... 5%(Reading database ... 10%(Reading database ... 15%(Reading database ... 20%(Reading database ... 25%(Reading database ... 30%(Reading database ... 35%(Reading database ... 40%(Reading database ... 45%(Reading database ... 50%(Reading database ... 55%(Reading database ... 60%(Reading database ... 65%(Reading database ... 70%(Reading database ... 75%(Reading database ... 80%(Reading database ... 85%(Reading database ... 90%(Reading database ... 95%(Reading database ... 100%(Reading database ... 20757 files and directories currently installed.)
Removing libcairomm-1.0-dev:armhf (1.14.5-1) ...
Removing libcairomm-1.0-1v5:armhf (1.14.5-1) ...
Removing libsigc++-2.0-dev:armhf (2.12.1-1) ...
Removing libsigc++-2.0-0v5:armhf (2.12.1-1) ...
Processing triggers for libc-bin (2.37-13) ...
