[2024-01-07T11:18:59+00:00] apt-get install libharminv-dev abi-compliance-checker
Reading package lists...
Building dependency tree...
Reading state information...
abi-compliance-checker is already the newest version (2.3-2).
The following packages were automatically installed and are no longer required:
  fontconfig-config fonts-dejavu-core fonts-dejavu-mono gir1.2-freedesktop
  gir1.2-glib-2.0 gir1.2-harfbuzz-0.0 icu-devtools libblkid-dev libbrotli-dev
  libbrotli1 libbz2-dev libcairo-gobject2 libcairo-script-interpreter2
  libcairo2 libcairo2-dev libexpat1-dev libffi-dev libfontconfig-dev
  libfontconfig1 libfreetype-dev libfreetype6 libgirepository-1.0-1
  libglib2.0-0 libglib2.0-bin libglib2.0-data libglib2.0-dev
  libglib2.0-dev-bin libgraphite2-3 libgraphite2-dev libharfbuzz-cairo0
  libharfbuzz-dev libharfbuzz-gobject0 libharfbuzz-icu0 libharfbuzz-subset0
  libharfbuzz0b libice-dev libice6 libicu-dev liblzo2-2 libmount-dev
  libpcre2-16-0 libpcre2-32-0 libpcre2-dev libpcre2-posix3 libpixman-1-0
  libpixman-1-dev libpkgconf3 libpng-dev libpng16-16 libpthread-stubs0-dev
  libselinux1-dev libsepol-dev libsm-dev libsm6 libx11-6 libx11-data
  libx11-dev libxau-dev libxau6 libxcb-render0 libxcb-render0-dev libxcb-shm0
  libxcb-shm0-dev libxcb1 libxcb1-dev libxdmcp-dev libxdmcp6 libxext-dev
  libxext6 libxrender-dev libxrender1 pkg-config pkgconf pkgconf-bin
  python3-distutils python3-lib2to3 uuid-dev x11-common x11proto-core-dev
  x11proto-dev xorg-sgml-doctools xtrans-dev zlib1g-dev
Use 'apt autoremove' to remove them.
The following additional packages will be installed:
  libblas3 libgfortran5 libharminv3 liblapack3
The following NEW packages will be installed:
  libblas3 libgfortran5 libharminv-dev libharminv3 liblapack3
0 upgraded, 5 newly installed, 0 to remove and 35 not upgraded.
Need to get 2108 kB of archives.
After this operation, 5261 kB of additional disk space will be used.
Get:1 http://deb.debian.org/debian unstable/main armhf libblas3 armhf 3.11.0-2 [105 kB]
Get:2 http://deb.debian.org/debian unstable/main armhf libgfortran5 armhf 13.2.0-9 [254 kB]
Get:3 http://deb.debian.org/debian unstable/main armhf liblapack3 armhf 3.11.0-2 [1724 kB]
Get:4 http://deb.debian.org/debian unstable/main armhf libharminv3 armhf 1.4.2-1 [13.1 kB]
Get:5 http://deb.debian.org/debian unstable/main armhf libharminv-dev armhf 1.4.2-1 [12.4 kB]
debconf: delaying package configuration, since apt-utils is not installed
Fetched 2108 kB in 0s (8556 kB/s)
Selecting previously unselected package libblas3:armhf.
(Reading database ... (Reading database ... 5%(Reading database ... 10%(Reading database ... 15%(Reading database ... 20%(Reading database ... 25%(Reading database ... 30%(Reading database ... 35%(Reading database ... 40%(Reading database ... 45%(Reading database ... 50%(Reading database ... 55%(Reading database ... 60%(Reading database ... 65%(Reading database ... 70%(Reading database ... 75%(Reading database ... 80%(Reading database ... 85%(Reading database ... 90%(Reading database ... 95%(Reading database ... 100%(Reading database ... 18209 files and directories currently installed.)
Preparing to unpack .../libblas3_3.11.0-2_armhf.deb ...
Unpacking libblas3:armhf (3.11.0-2) ...
Selecting previously unselected package libgfortran5:armhf.
Preparing to unpack .../libgfortran5_13.2.0-9_armhf.deb ...
Unpacking libgfortran5:armhf (13.2.0-9) ...
Selecting previously unselected package liblapack3:armhf.
Preparing to unpack .../liblapack3_3.11.0-2_armhf.deb ...
Unpacking liblapack3:armhf (3.11.0-2) ...
Selecting previously unselected package libharminv3.
Preparing to unpack .../libharminv3_1.4.2-1_armhf.deb ...
Unpacking libharminv3 (1.4.2-1) ...
Selecting previously unselected package libharminv-dev.
Preparing to unpack .../libharminv-dev_1.4.2-1_armhf.deb ...
Unpacking libharminv-dev (1.4.2-1) ...
Setting up libblas3:armhf (3.11.0-2) ...
update-alternatives: using /usr/lib/arm-linux-gnueabihf/blas/libblas.so.3 to provide /usr/lib/arm-linux-gnueabihf/libblas.so.3 (libblas.so.3-arm-linux-gnueabihf) in auto mode
Setting up libgfortran5:armhf (13.2.0-9) ...
Setting up liblapack3:armhf (3.11.0-2) ...
update-alternatives: using /usr/lib/arm-linux-gnueabihf/lapack/liblapack.so.3 to provide /usr/lib/arm-linux-gnueabihf/liblapack.so.3 (liblapack.so.3-arm-linux-gnueabihf) in auto mode
Setting up libharminv3 (1.4.2-1) ...
Setting up libharminv-dev (1.4.2-1) ...
Processing triggers for libc-bin (2.37-13) ...
Reading package lists...
Building dependency tree...
Reading state information...
The following packages will be REMOVED:
  fontconfig-config* fonts-dejavu-core* fonts-dejavu-mono* gir1.2-freedesktop*
  gir1.2-glib-2.0* gir1.2-harfbuzz-0.0* icu-devtools* libblkid-dev*
  libbrotli-dev* libbrotli1* libbz2-dev* libcairo-gobject2*
  libcairo-script-interpreter2* libcairo2* libcairo2-dev* libexpat1-dev*
  libffi-dev* libfontconfig-dev* libfontconfig1* libfreetype-dev*
  libfreetype6* libgirepository-1.0-1* libglib2.0-0* libglib2.0-bin*
  libglib2.0-data* libglib2.0-dev* libglib2.0-dev-bin* libgraphite2-3*
  libgraphite2-dev* libharfbuzz-cairo0* libharfbuzz-dev* libharfbuzz-gobject0*
  libharfbuzz-icu0* libharfbuzz-subset0* libharfbuzz0b* libice-dev* libice6*
  libicu-dev* liblzo2-2* libmount-dev* libpcre2-16-0* libpcre2-32-0*
  libpcre2-dev* libpcre2-posix3* libpixman-1-0* libpixman-1-dev* libpkgconf3*
  libpng-dev* libpng16-16* libpthread-stubs0-dev* libselinux1-dev*
  libsepol-dev* libsm-dev* libsm6* libx11-6* libx11-data* libx11-dev*
  libxau-dev* libxau6* libxcb-render0* libxcb-render0-dev* libxcb-shm0*
  libxcb-shm0-dev* libxcb1* libxcb1-dev* libxdmcp-dev* libxdmcp6* libxext-dev*
  libxext6* libxrender-dev* libxrender1* pkg-config* pkgconf* pkgconf-bin*
  python3-distutils* python3-lib2to3* uuid-dev* x11-common* x11proto-core-dev*
  x11proto-dev* xorg-sgml-doctools* xtrans-dev* zlib1g-dev*
0 upgraded, 0 newly installed, 83 to remove and 35 not upgraded.
After this operation, 117 MB disk space will be freed.
(Reading database ... (Reading database ... 5%(Reading database ... 10%(Reading database ... 15%(Reading database ... 20%(Reading database ... 25%(Reading database ... 30%(Reading database ... 35%(Reading database ... 40%(Reading database ... 45%(Reading database ... 50%(Reading database ... 55%(Reading database ... 60%(Reading database ... 65%(Reading database ... 70%(Reading database ... 75%(Reading database ... 80%(Reading database ... 85%(Reading database ... 90%(Reading database ... 95%(Reading database ... 100%(Reading database ... 18238 files and directories currently installed.)
Removing libcairo2-dev:armhf (1.18.0-1+b1) ...
Removing libfontconfig-dev:armhf (2.14.2-6+b1) ...
Removing libharfbuzz-dev:armhf (8.0.1-1+b2) ...
Removing libharfbuzz-cairo0:armhf (8.0.1-1+b2) ...
Removing gir1.2-harfbuzz-0.0:armhf (8.0.1-1+b2) ...
Removing gir1.2-freedesktop:armhf (1.78.1-6) ...
Removing gir1.2-glib-2.0:armhf (1.78.1-6) ...
Removing libicu-dev:armhf (72.1-4) ...
Removing icu-devtools (72.1-4) ...
Removing libglib2.0-dev:armhf (2.78.3-1) ...
Removing libmount-dev:armhf (2.39.3-6) ...
Removing libblkid-dev:armhf (2.39.3-6) ...
Removing libfreetype-dev:armhf (2.13.2+dfsg-1+b1) ...
Removing libbrotli-dev:armhf (1.1.0-2+b3) ...
Removing libharfbuzz-subset0:armhf (8.0.1-1+b2) ...
Removing libharfbuzz-icu0:armhf (8.0.1-1+b2) ...
Removing libcairo-script-interpreter2:armhf (1.18.0-1+b1) ...
Removing libbz2-dev:armhf (1.0.8-5+b2) ...
Removing libcairo-gobject2:armhf (1.18.0-1+b1) ...
Removing libexpat1-dev:armhf (2.5.0-2+b2) ...
Removing libffi-dev:armhf (3.4.4-2) ...
Removing libgirepository-1.0-1:armhf (1.78.1-6) ...
Removing libharfbuzz-gobject0:armhf (8.0.1-1+b2) ...
Removing libglib2.0-bin (2.78.3-1) ...
Removing libglib2.0-data (2.78.3-1) ...
Removing libglib2.0-dev-bin (2.78.3-1) ...
Removing libgraphite2-dev:armhf (1.3.14-2) ...
Removing libsm-dev:armhf (2:1.2.3-1) ...
Removing libice-dev:armhf (2:1.0.10-1) ...
Removing libsm6:armhf (2:1.2.3-1) ...
Removing libice6:armhf (2:1.0.10-1) ...
Removing liblzo2-2:armhf (2.10-2) ...
Removing libselinux1-dev:armhf (3.5-1+b2) ...
Removing libpcre2-dev:armhf (10.42-4) ...
Removing libpcre2-16-0:armhf (10.42-4) ...
Removing libpcre2-32-0:armhf (10.42-4) ...
Removing libpcre2-posix3:armhf (10.42-4) ...
Removing libpixman-1-dev:armhf (0.42.2-1) ...
Removing pkg-config:armhf (1.8.1-1+b2) ...
Removing pkgconf:armhf (1.8.1-1+b2) ...
Removing pkgconf-bin (1.8.1-1+b2) ...
Removing libpkgconf3:armhf (1.8.1-1+b2) ...
Removing libpng-dev:armhf (1.6.40-3) ...
Removing libxcb-shm0-dev:armhf (1.15-1) ...
Removing libxcb-render0-dev:armhf (1.15-1) ...
Removing libsepol-dev:armhf (3.5-2) ...
Removing libxrender-dev:armhf (1:0.9.10-1.1) ...
Removing libxext-dev:armhf (2:1.3.4-1+b1) ...
Removing libx11-dev:armhf (2:1.8.7-1) ...
Removing python3-distutils (3.11.5-1) ...
Removing python3-lib2to3 (3.11.5-1) ...
Removing uuid-dev:armhf (2.39.3-6) ...
Removing x11-common (1:7.7+23) ...
invoke-rc.d: could not determine current runlevel
Removing x11proto-core-dev (2023.2-1) ...
Removing xtrans-dev (1.4.0-1) ...
Removing zlib1g-dev:armhf (1:1.3.dfsg-3) ...
Removing libcairo2:armhf (1.18.0-1+b1) ...
Removing libfontconfig1:armhf (2.14.2-6+b1) ...
Removing fontconfig-config (2.14.2-6+b1) ...
Removing fonts-dejavu-core (2.37-8) ...
Removing fonts-dejavu-mono (2.37-8) ...
Removing libharfbuzz0b:armhf (8.0.1-1+b2) ...
Removing libfreetype6:armhf (2.13.2+dfsg-1+b1) ...
Removing libbrotli1:armhf (1.1.0-2+b3) ...
Removing libglib2.0-0:armhf (2.78.3-1) ...
Removing libgraphite2-3:armhf (1.3.14-2) ...
Removing libpixman-1-0:armhf (0.42.2-1) ...
Removing libpng16-16:armhf (1.6.40-3) ...
Removing libxcb1-dev:armhf (1.15-1) ...
Removing libpthread-stubs0-dev:armhf (0.4-1) ...
Removing libxrender1:armhf (1:0.9.10-1.1) ...
Removing libxau-dev:armhf (1:1.0.9-1) ...
Removing libxcb-shm0:armhf (1.15-1) ...
Removing libxcb-render0:armhf (1.15-1) ...
Removing libxdmcp-dev:armhf (1:1.1.2-3) ...
Removing libxext6:armhf (2:1.3.4-1+b1) ...
Removing x11proto-dev (2023.2-1) ...
Removing xorg-sgml-doctools (1:1.11-1.1) ...
Removing libx11-6:armhf (2:1.8.7-1) ...
Removing libx11-data (2:1.8.7-1) ...
Removing libxcb1:armhf (1.15-1) ...
Removing libxau6:armhf (1:1.0.9-1) ...
Removing libxdmcp6:armhf (1:1.1.2-3) ...
Processing triggers for libc-bin (2.37-13) ...
(Reading database ... (Reading database ... 5%(Reading database ... 10%(Reading database ... 15%(Reading database ... 20%(Reading database ... 25%(Reading database ... 30%(Reading database ... 35%(Reading database ... 40%(Reading database ... 45%(Reading database ... 50%(Reading database ... 55%(Reading database ... 60%(Reading database ... 65%(Reading database ... 70%(Reading database ... 75%(Reading database ... 80%(Reading database ... 85%(Reading database ... 90%(Reading database ... 95%(Reading database ... 100%(Reading database ... 15328 files and directories currently installed.)
Purging configuration files for libglib2.0-0:armhf (2.78.3-1) ...
Purging configuration files for fontconfig-config (2.14.2-6+b1) ...
Purging configuration files for x11-common (1:7.7+23) ...
Purging configuration files for pkgconf:armhf (1.8.1-1+b2) ...
Purging configuration files for fonts-dejavu-mono (2.37-8) ...
Purging configuration files for pkg-config:armhf (1.8.1-1+b2) ...
Purging configuration files for fonts-dejavu-core (2.37-8) ...
