[2024-01-08T02:04:00+00:00] apt-get install libow-dev abi-compliance-checker
Reading package lists...
Building dependency tree...
Reading state information...
abi-compliance-checker is already the newest version (2.3-2).
The following packages were automatically installed and are no longer required:
  libblkid-dev libffi-dev libglib2.0-0 libglib2.0-bin libglib2.0-data
  libglib2.0-dev libglib2.0-dev-bin libmount-dev libots-dev libots0
  libpcre2-16-0 libpcre2-32-0 libpcre2-dev libpcre2-posix3 libpkgconf3
  libselinux1-dev libsepol-dev pkg-config pkgconf pkgconf-bin
  python3-distutils python3-lib2to3 uuid-dev zlib1g-dev
Use 'apt autoremove' to remove them.
The following additional packages will be installed:
  libavahi-client3 libavahi-common-data libavahi-common3 libftdi1-2
  libow-3.2-4 libowcapi-3.2-4 libusb-1.0-0 owfs-common ucf
The following NEW packages will be installed:
  libavahi-client3 libavahi-common-data libavahi-common3 libftdi1-2
  libow-3.2-4 libow-dev libowcapi-3.2-4 libusb-1.0-0 owfs-common ucf
0 upgraded, 10 newly installed, 0 to remove and 33 not upgraded.
Need to get 657 kB of archives.
After this operation, 2287 kB of additional disk space will be used.
Get:1 http://deb.debian.org/debian unstable/main armhf ucf all 3.0043+nmu1 [55.2 kB]
Get:2 http://deb.debian.org/debian unstable/main armhf libavahi-common-data armhf 0.8-13+b1 [111 kB]
Get:3 http://deb.debian.org/debian unstable/main armhf libavahi-common3 armhf 0.8-13+b1 [40.1 kB]
Get:4 http://deb.debian.org/debian unstable/main armhf libavahi-client3 armhf 0.8-13+b1 [43.4 kB]
Get:5 http://deb.debian.org/debian unstable/main armhf libusb-1.0-0 armhf 2:1.0.26-1 [56.3 kB]
Get:6 http://deb.debian.org/debian unstable/main armhf libftdi1-2 armhf 1.5-6+b3 [28.7 kB]
Get:7 http://deb.debian.org/debian unstable/main armhf owfs-common all 3.2p4+dfsg1-4.2 [14.4 kB]
Get:8 http://deb.debian.org/debian unstable/main armhf libow-3.2-4 armhf 3.2p4+dfsg1-4.2 [285 kB]
Get:9 http://deb.debian.org/debian unstable/main armhf libowcapi-3.2-4 armhf 3.2p4+dfsg1-4.2 [8720 B]
Get:10 http://deb.debian.org/debian unstable/main armhf libow-dev armhf 3.2p4+dfsg1-4.2 [14.2 kB]
debconf: delaying package configuration, since apt-utils is not installed
Fetched 657 kB in 1s (1294 kB/s)
Selecting previously unselected package ucf.
(Reading database ... (Reading database ... 5%(Reading database ... 10%(Reading database ... 15%(Reading database ... 20%(Reading database ... 25%(Reading database ... 30%(Reading database ... 35%(Reading database ... 40%(Reading database ... 45%(Reading database ... 50%(Reading database ... 55%(Reading database ... 60%(Reading database ... 65%(Reading database ... 70%(Reading database ... 75%(Reading database ... 80%(Reading database ... 85%(Reading database ... 90%(Reading database ... 95%(Reading database ... 100%(Reading database ... 17716 files and directories currently installed.)
Preparing to unpack .../0-ucf_3.0043+nmu1_all.deb ...
Moving old data out of the way
Unpacking ucf (3.0043+nmu1) ...
Selecting previously unselected package libavahi-common-data:armhf.
Preparing to unpack .../1-libavahi-common-data_0.8-13+b1_armhf.deb ...
Unpacking libavahi-common-data:armhf (0.8-13+b1) ...
Selecting previously unselected package libavahi-common3:armhf.
Preparing to unpack .../2-libavahi-common3_0.8-13+b1_armhf.deb ...
Unpacking libavahi-common3:armhf (0.8-13+b1) ...
Selecting previously unselected package libavahi-client3:armhf.
Preparing to unpack .../3-libavahi-client3_0.8-13+b1_armhf.deb ...
Unpacking libavahi-client3:armhf (0.8-13+b1) ...
Selecting previously unselected package libusb-1.0-0:armhf.
Preparing to unpack .../4-libusb-1.0-0_2%3a1.0.26-1_armhf.deb ...
Unpacking libusb-1.0-0:armhf (2:1.0.26-1) ...
Selecting previously unselected package libftdi1-2:armhf.
Preparing to unpack .../5-libftdi1-2_1.5-6+b3_armhf.deb ...
Unpacking libftdi1-2:armhf (1.5-6+b3) ...
Selecting previously unselected package owfs-common.
Preparing to unpack .../6-owfs-common_3.2p4+dfsg1-4.2_all.deb ...
Unpacking owfs-common (3.2p4+dfsg1-4.2) ...
Selecting previously unselected package libow-3.2-4:armhf.
Preparing to unpack .../7-libow-3.2-4_3.2p4+dfsg1-4.2_armhf.deb ...
Unpacking libow-3.2-4:armhf (3.2p4+dfsg1-4.2) ...
Selecting previously unselected package libowcapi-3.2-4:armhf.
Preparing to unpack .../8-libowcapi-3.2-4_3.2p4+dfsg1-4.2_armhf.deb ...
Unpacking libowcapi-3.2-4:armhf (3.2p4+dfsg1-4.2) ...
Selecting previously unselected package libow-dev:armhf.
Preparing to unpack .../9-libow-dev_3.2p4+dfsg1-4.2_armhf.deb ...
Unpacking libow-dev:armhf (3.2p4+dfsg1-4.2) ...
Setting up libavahi-common-data:armhf (0.8-13+b1) ...
Setting up ucf (3.0043+nmu1) ...
Setting up libusb-1.0-0:armhf (2:1.0.26-1) ...
Setting up owfs-common (3.2p4+dfsg1-4.2) ...

Creating config file /etc/owfs.conf with new version
Setting up libavahi-common3:armhf (0.8-13+b1) ...
Setting up libftdi1-2:armhf (1.5-6+b3) ...
Setting up libavahi-client3:armhf (0.8-13+b1) ...
Setting up libow-3.2-4:armhf (3.2p4+dfsg1-4.2) ...
Setting up libowcapi-3.2-4:armhf (3.2p4+dfsg1-4.2) ...
Setting up libow-dev:armhf (3.2p4+dfsg1-4.2) ...
Processing triggers for libc-bin (2.37-13) ...
Reading package lists...
Building dependency tree...
Reading state information...
The following packages will be REMOVED:
  libblkid-dev* libffi-dev* libglib2.0-0* libglib2.0-bin* libglib2.0-data*
  libglib2.0-dev* libglib2.0-dev-bin* libmount-dev* libots-dev* libots0*
  libpcre2-16-0* libpcre2-32-0* libpcre2-dev* libpcre2-posix3* libpkgconf3*
  libselinux1-dev* libsepol-dev* pkg-config* pkgconf* pkgconf-bin*
  python3-distutils* python3-lib2to3* uuid-dev* zlib1g-dev*
0 upgraded, 0 newly installed, 24 to remove and 33 not upgraded.
After this operation, 30.1 MB disk space will be freed.
(Reading database ... (Reading database ... 5%(Reading database ... 10%(Reading database ... 15%(Reading database ... 20%(Reading database ... 25%(Reading database ... 30%(Reading database ... 35%(Reading database ... 40%(Reading database ... 45%(Reading database ... 50%(Reading database ... 55%(Reading database ... 60%(Reading database ... 65%(Reading database ... 70%(Reading database ... 75%(Reading database ... 80%(Reading database ... 85%(Reading database ... 90%(Reading database ... 95%(Reading database ... 100%(Reading database ... 17902 files and directories currently installed.)
Removing libglib2.0-dev:armhf (2.78.3-1) ...
Removing libmount-dev:armhf (2.39.3-6) ...
Removing libblkid-dev:armhf (2.39.3-6) ...
Removing libffi-dev:armhf (3.4.4-2) ...
Removing libots-dev:armhf (0.5.0-8) ...
Removing libots0:armhf (0.5.0-8) ...
Removing libglib2.0-bin (2.78.3-1) ...
Removing libglib2.0-data (2.78.3-1) ...
Removing libglib2.0-dev-bin (2.78.3-1) ...
Removing libselinux1-dev:armhf (3.5-1+b2) ...
Removing libpcre2-dev:armhf (10.42-4) ...
Removing libpcre2-16-0:armhf (10.42-4) ...
Removing libpcre2-32-0:armhf (10.42-4) ...
Removing libpcre2-posix3:armhf (10.42-4) ...
Removing pkg-config:armhf (1.8.1-1+b2) ...
Removing pkgconf:armhf (1.8.1-1+b2) ...
Removing pkgconf-bin (1.8.1-1+b2) ...
Removing libpkgconf3:armhf (1.8.1-1+b2) ...
Removing libsepol-dev:armhf (3.5-2) ...
Removing python3-distutils (3.11.5-1) ...
Removing python3-lib2to3 (3.11.5-1) ...
Removing uuid-dev:armhf (2.39.3-6) ...
Removing zlib1g-dev:armhf (1:1.3.dfsg-3) ...
Removing libglib2.0-0:armhf (2.78.3-1) ...
Processing triggers for libc-bin (2.37-13) ...
(Reading database ... (Reading database ... 5%(Reading database ... 10%(Reading database ... 15%(Reading database ... 20%(Reading database ... 25%(Reading database ... 30%(Reading database ... 35%(Reading database ... 40%(Reading database ... 45%(Reading database ... 50%(Reading database ... 55%(Reading database ... 60%(Reading database ... 65%(Reading database ... 70%(Reading database ... 75%(Reading database ... 80%(Reading database ... 85%(Reading database ... 90%(Reading database ... 95%(Reading database ... 100%(Reading database ... 16508 files and directories currently installed.)
Purging configuration files for libglib2.0-0:armhf (2.78.3-1) ...
Purging configuration files for pkgconf:armhf (1.8.1-1+b2) ...
Purging configuration files for pkg-config:armhf (1.8.1-1+b2) ...
