Using GCC 13 (arm-linux-gnueabihf, target: arm)
WARNING: May not work properly with GCC 4.8.[0-2], 6.* and higher due to bug #78040 in GCC. Please try other GCC versions with the help of --gcc-path=PATH option or create ABI dumps by ABI Dumper tool instead to avoid using GCC. Test selected GCC version first by -test option.
Checking header(s) time_t ...
Temporary header file '/tmp/_EyBtNdpcc/dump1.h' with the following content will be compiled to create GCC translation unit dump:

  // add defines
  #define __STDC_VERSION__ 201710L
#define _TIME_BITS 64
#define _FILE_OFFSET_BITS 64
#define _GXX_NULLPTR_T
#define CLUTTER_ENABLE_COMPOSITOR_API 1
#define _REGEX_NELTS(n)
#define _Atomic
#define PACKED
#ifdef __cplusplus
// C17 compat layer
#define _Alignof(type) alignof(type)
#endif
#define getaddrinfo_a(a,b,c,d)

  // add includes
  #include "/usr/include/librecast/blake3.h"
  #include "/usr/include/librecast/crypto.h"
  #include "/usr/include/librecast/errors.h"
  #include "/usr/include/librecast/if.h"
  #include "/usr/include/librecast/mdex.h"
  #include "/usr/include/librecast/mld.h"
  #include "/usr/include/librecast/mtree.h"
  #include "/usr/include/librecast/net.h"
  #include "/usr/include/librecast/q.h"
  #include "/usr/include/librecast/sync.h"
  #include "/usr/include/librecast/types.h"
  #include "/usr/include/librecast.h"

  // add classes
  _G_fpos64_t* tmp_add_class_0;
  _G_fpos_t* tmp_add_class_1;
  _IO_cookie_io_functions_t* tmp_add_class_2;
  addrinfo* tmp_add_class_3;
  cmsghdr* tmp_add_class_4;
  crypto_aead_aes256gcm_state_* tmp_add_class_5;
  crypto_auth_hmacsha256_state* tmp_add_class_6;
  crypto_auth_hmacsha512_state* tmp_add_class_7;
  crypto_generichash_blake2b_state* tmp_add_class_8;
  crypto_hash_sha256_state* tmp_add_class_9;
  crypto_hash_sha512_state* tmp_add_class_10;
  crypto_onetimeauth_poly1305_state* tmp_add_class_11;
  crypto_secretstream_xchacha20poly1305_state* tmp_add_class_12;
  crypto_sign_ed25519ph_state* tmp_add_class_13;
  ethhdr* tmp_add_class_14;
  f_owner_ex* tmp_add_class_15;
  file_handle* tmp_add_class_16;
  flock64* tmp_add_class_17;
  gaicb* tmp_add_class_18;
  group_filter* tmp_add_class_19;
  group_req* tmp_add_class_20;
  group_source_req* tmp_add_class_21;
  hostent* tmp_add_class_22;
  icmp6_filter* tmp_add_class_23;
  icmp6_hdr* tmp_add_class_24;
  icmp6_router_renum* tmp_add_class_25;
  ifaddr* tmp_add_class_26;
  ifconf* tmp_add_class_27;
  ifmap* tmp_add_class_28;
  ifreq* tmp_add_class_29;
  in6_addr* tmp_add_class_30;
  in6_pktinfo* tmp_add_class_31;
  in_addr* tmp_add_class_32;
  in_pktinfo* tmp_add_class_33;
  iovec* tmp_add_class_34;
  ip6_mtuinfo* tmp_add_class_35;
  ip_mreq* tmp_add_class_36;
  ip_mreq_source* tmp_add_class_37;
  ip_mreqn* tmp_add_class_38;
  ip_msfilter* tmp_add_class_39;
  ip_opts* tmp_add_class_40;
  ipv6_mreq* tmp_add_class_41;
  lc_key_s* tmp_add_class_42;
  lc_message_t* tmp_add_class_43;
  lc_messagelist_t* tmp_add_class_44;
  lc_socket_call_s* tmp_add_class_45;
  lc_stat_s* tmp_add_class_46;
  linger* tmp_add_class_47;
  mdex_entry_s* tmp_add_class_48;
  mdex_file_s* tmp_add_class_49;
  mdex_filemeta* tmp_add_class_50;
  mdex_idx_s* tmp_add_class_51;
  mdex_mem_s* tmp_add_class_52;
  mdex_s* tmp_add_class_53;
  mdex_stack_s* tmp_add_class_54;
  mld_grp_s* tmp_add_class_55;
  mld_hdr* tmp_add_class_56;
  mmsghdr* tmp_add_class_57;
  msghdr* tmp_add_class_58;
  mtree_s* tmp_add_class_59;
  nd_neighbor_advert* tmp_add_class_60;
  nd_neighbor_solicit* tmp_add_class_61;
  nd_opt_adv_interval* tmp_add_class_62;
  nd_opt_hdr* tmp_add_class_63;
  nd_opt_home_agent_info* tmp_add_class_64;
  nd_opt_mtu* tmp_add_class_65;
  nd_opt_prefix_info* tmp_add_class_66;
  nd_opt_rd_hdr* tmp_add_class_67;
  nd_redirect* tmp_add_class_68;
  nd_router_advert* tmp_add_class_69;
  nd_router_solicit* tmp_add_class_70;
  net_tree_s* tmp_add_class_71;
  netent* tmp_add_class_72;
  osockaddr* tmp_add_class_73;
  protoent* tmp_add_class_74;
  q_job_s* tmp_add_class_75;
  q_s* tmp_add_class_76;
  randombytes_implementation* tmp_add_class_77;
  rpcent* tmp_add_class_78;
  rr_pco_match* tmp_add_class_79;
  rr_pco_use* tmp_add_class_80;
  rr_result* tmp_add_class_81;
  servent* tmp_add_class_82;
  sock_filter* tmp_add_class_83;
  sock_fprog* tmp_add_class_84;
  sockaddr* tmp_add_class_85;
  sockaddr_in* tmp_add_class_86;
  sockaddr_in6* tmp_add_class_87;
  sockaddr_storage* tmp_add_class_88;
  statx_timestamp* tmp_add_class_89;
  tun_filter* tmp_add_class_90;
  tun_pi* tmp_add_class_91;
  ucontext_t* tmp_add_class_92;
  ucred* tmp_add_class_93;

The GCC parameters:
  gcc -fdump-lang-raw -fkeep-inline-functions -c -x c++ -fpermissive -w "/tmp/_EyBtNdpcc/dump1.h"

In file included from /tmp/_EyBtNdpcc/dump1.h:22:
/usr/include/librecast/mdex.h:127:57: error: expected ',' or '...' before 'path'
  127 | char *mdex_sharepath(mdex_t *mdex, const char *restrict path);
      |                                                         ^~~~
In file included from /tmp/_EyBtNdpcc/dump1.h:23:
/usr/include/librecast/mld.h:43:15: error: expected constructor, destructor, or type conversion before '(' token
   43 | _Static_assert(MLD2_ROBUSTNESS <= 0x7, "QRV > 3 bits");
      |               ^
In file included from /usr/include/librecast/mtree.h:15,
                 from /tmp/_EyBtNdpcc/dump1.h:24:
/usr/include/librecast/q.h:43:85: error: expected ',' or '...' before 'arg'
   43 | int q_pool_create(pthread_t tid[], int nthreads, void *(*f)(void *), void *restrict arg);
      |                                                                                     ^~~
/usr/include/librecast/q.h:45:55: error: expected ',' or '...' before 'arg'
   45 | int q_push(q_t *q, void *(*f)(void *), void *restrict arg);
      |                                                       ^~~
/usr/include/librecast/q.h:46:57: error: expected ',' or '...' before 'arg'
   46 | int q_search(q_t *q, void *(*f)(void *), void *restrict arg);
      |                                                         ^~~
/usr/include/librecast/q.h:47:58: error: expected ',' or '...' before 'arg'
   47 | int q_trypush(q_t *q, void *(*f)(void *), void *restrict arg);
      |                                                          ^~~
ERROR: some errors occurred when compiling headers
ERROR: see log for details:
  /home/adrien/armhf-time_t/out/logs/liblibrecast-dev/time_t/abi-compliance-checker.log


Creating library ABI dump ...
Dump path: out/logs/liblibrecast-dev/liblibrecast-dev_time_t.dump
