Temporary header file '/tmp/ZkIDt66_ck/dump1.h' with the following content will be compiled to create GCC translation unit dump:

  // add defines
  #define __STDC_VERSION__ 201710L
#define _TIME_BITS 64
#define _FILE_OFFSET_BITS 64
#define _GXX_NULLPTR_T
#define CLUTTER_ENABLE_COMPOSITOR_API 1
#define _REGEX_NELTS(n)
#define _Atomic
#define PACKED
#ifdef __cplusplus
// C17 compat layer
#define _Alignof(type) alignof(type)
#endif
#define getaddrinfo_a(a,b,c,d)

  // add includes
  #include "/usr/include/libinputsynth-0.15/inputsynth.h"

  // add classes
  _GArray* tmp_add_class_0;
  _GByteArray* tmp_add_class_1;
  _GCClosure* tmp_add_class_2;
  _GClosure* tmp_add_class_3;
  _GClosureNotifyData* tmp_add_class_4;
  _GCompletion* tmp_add_class_5;
  _GCond* tmp_add_class_6;
  _GDate* tmp_add_class_7;
  _GDebugKey* tmp_add_class_8;
  _GDoubleIEEE754* tmp_add_class_9;
  _GEnumClass* tmp_add_class_10;
  _GEnumValue* tmp_add_class_11;
  _GError* tmp_add_class_12;
  _GFlagsClass* tmp_add_class_13;
  _GFlagsValue* tmp_add_class_14;
  _GFloatIEEE754* tmp_add_class_15;
  _GHashTableIter* tmp_add_class_16;
  _GHook* tmp_add_class_17;
  _GHookList* tmp_add_class_18;
  _GIOChannel* tmp_add_class_19;
  _GIOFuncs* tmp_add_class_20;
  _GInterfaceInfo* tmp_add_class_21;
  _GList* tmp_add_class_22;
  _GLogField* tmp_add_class_23;
  _GMarkupParser* tmp_add_class_24;
  _GMemVTable* tmp_add_class_25;
  _GMutex* tmp_add_class_26;
  _GNode* tmp_add_class_27;
  _GObject* tmp_add_class_28;
  _GObjectClass* tmp_add_class_29;
  _GObjectConstructParam* tmp_add_class_30;
  _GOnce* tmp_add_class_31;
  _GOptionEntry* tmp_add_class_32;
  _GParamSpec* tmp_add_class_33;
  _GParamSpecBoolean* tmp_add_class_34;
  _GParamSpecBoxed* tmp_add_class_35;
  _GParamSpecChar* tmp_add_class_36;
  _GParamSpecClass* tmp_add_class_37;
  _GParamSpecDouble* tmp_add_class_38;
  _GParamSpecEnum* tmp_add_class_39;
  _GParamSpecFlags* tmp_add_class_40;
  _GParamSpecFloat* tmp_add_class_41;
  _GParamSpecGType* tmp_add_class_42;
  _GParamSpecInt* tmp_add_class_43;
  _GParamSpecInt64* tmp_add_class_44;
  _GParamSpecLong* tmp_add_class_45;
  _GParamSpecObject* tmp_add_class_46;
  _GParamSpecOverride* tmp_add_class_47;
  _GParamSpecParam* tmp_add_class_48;
  _GParamSpecPointer* tmp_add_class_49;
  _GParamSpecString* tmp_add_class_50;
  _GParamSpecTypeInfo* tmp_add_class_51;
  _GParamSpecUChar* tmp_add_class_52;
  _GParamSpecUInt* tmp_add_class_53;
  _GParamSpecUInt64* tmp_add_class_54;
  _GParamSpecULong* tmp_add_class_55;
  _GParamSpecUnichar* tmp_add_class_56;
  _GParamSpecValueArray* tmp_add_class_57;
  _GParamSpecVariant* tmp_add_class_58;
  _GParameter* tmp_add_class_59;
  _GPathBuf* tmp_add_class_60;
  _GPollFD* tmp_add_class_61;
  _GPrivate* tmp_add_class_62;
  _GPtrArray* tmp_add_class_63;
  _GQueue* tmp_add_class_64;
  _GRWLock* tmp_add_class_65;
  _GRecMutex* tmp_add_class_66;
  _GSList* tmp_add_class_67;
  _GScanner* tmp_add_class_68;
  _GScannerConfig* tmp_add_class_69;
  _GSignalInvocationHint* tmp_add_class_70;
  _GSignalQuery* tmp_add_class_71;
  _GSource* tmp_add_class_72;
  _GSourceCallbackFuncs* tmp_add_class_73;
  _GSourceFuncs* tmp_add_class_74;
  _GStaticPrivate* tmp_add_class_75;
  _GStaticRWLock* tmp_add_class_76;
  _GStaticRecMutex* tmp_add_class_77;
  _GString* tmp_add_class_78;
  _GThread* tmp_add_class_79;
  _GThreadFunctions* tmp_add_class_80;
  _GThreadPool* tmp_add_class_81;
  _GTimeVal* tmp_add_class_82;
  _GTokenValue* tmp_add_class_83;
  _GTrashStack* tmp_add_class_84;
  _GTuples* tmp_add_class_85;
  _GTypeClass* tmp_add_class_86;
  _GTypeFundamentalInfo* tmp_add_class_87;
  _GTypeInfo* tmp_add_class_88;
  _GTypeInstance* tmp_add_class_89;
  _GTypeInterface* tmp_add_class_90;
  _GTypeModule* tmp_add_class_91;
  _GTypeModuleClass* tmp_add_class_92;
  _GTypePluginClass* tmp_add_class_93;
  _GTypeQuery* tmp_add_class_94;
  _GTypeValueTable* tmp_add_class_95;
  _GUriParamsIter* tmp_add_class_96;
  _GValue* tmp_add_class_97;
  _GValueArray* tmp_add_class_98;
  _GVariantBuilder* tmp_add_class_99;
  _GVariantDict* tmp_add_class_100;
  _GVariantIter* tmp_add_class_101;
  _InputSynth* tmp_add_class_102;
  _InputSynthClass* tmp_add_class_103;
  ucontext_t* tmp_add_class_104;

The GCC parameters:
  gcc -fdump-lang-raw -fkeep-inline-functions -c -x c++ -fpermissive -w "/tmp/ZkIDt66_ck/dump1.h"  -I/usr/include/glib-2.0 -I/lib/arm-linux-gnueabihf/glib-2.0/include

