[2024-01-07T09:20:04+00:00] apt-get install libgdsii-dev abi-compliance-checker
Reading package lists...
Building dependency tree...
Reading state information...
abi-compliance-checker is already the newest version (2.3-2).
The following packages were automatically installed and are no longer required:
  icu-devtools libblkid-dev libdeflate0 libffi-dev libgdk-pixbuf-2.0-0
  libgdk-pixbuf2.0-bin libgdk-pixbuf2.0-common libgdome2-0 libgdome2-dev
  libglib2.0-0 libglib2.0-bin libglib2.0-data libglib2.0-dev
  libglib2.0-dev-bin libicu-dev libjbig0 libjpeg62-turbo liblerc4 libmount-dev
  libpcre2-16-0 libpcre2-32-0 libpcre2-dev libpcre2-posix3 libpkgconf3
  libpng16-16 libselinux1-dev libsepol-dev libsharpyuv0 libtiff6 libwebp7
  libxml2-dev pkg-config pkgconf pkgconf-bin python3-distutils python3-lib2to3
  shared-mime-info uuid-dev zlib1g-dev
Use 'apt autoremove' to remove them.
The following NEW packages will be installed:
  libgdsii-dev libgdsii0
0 upgraded, 2 newly installed, 0 to remove and 40 not upgraded.
Need to get 56.7 kB of archives.
After this operation, 186 kB of additional disk space will be used.
Get:1 http://deb.debian.org/debian unstable/main armhf libgdsii0 armhf 0.2+ds.1-1 [25.8 kB]
Get:2 http://deb.debian.org/debian unstable/main armhf libgdsii-dev armhf 0.2+ds.1-1 [30.8 kB]
debconf: delaying package configuration, since apt-utils is not installed
Fetched 56.7 kB in 1s (95.0 kB/s)
Selecting previously unselected package libgdsii0:armhf.
(Reading database ... (Reading database ... 5%(Reading database ... 10%(Reading database ... 15%(Reading database ... 20%(Reading database ... 25%(Reading database ... 30%(Reading database ... 35%(Reading database ... 40%(Reading database ... 45%(Reading database ... 50%(Reading database ... 55%(Reading database ... 60%(Reading database ... 65%(Reading database ... 70%(Reading database ... 75%(Reading database ... 80%(Reading database ... 85%(Reading database ... 90%(Reading database ... 95%(Reading database ... 100%(Reading database ... 16744 files and directories currently installed.)
Preparing to unpack .../libgdsii0_0.2+ds.1-1_armhf.deb ...
Unpacking libgdsii0:armhf (0.2+ds.1-1) ...
Selecting previously unselected package libgdsii-dev:armhf.
Preparing to unpack .../libgdsii-dev_0.2+ds.1-1_armhf.deb ...
Unpacking libgdsii-dev:armhf (0.2+ds.1-1) ...
Setting up libgdsii0:armhf (0.2+ds.1-1) ...
Setting up libgdsii-dev:armhf (0.2+ds.1-1) ...
Processing triggers for libc-bin (2.37-13) ...
Reading package lists...
Building dependency tree...
Reading state information...
The following packages will be REMOVED:
  icu-devtools* libblkid-dev* libdeflate0* libffi-dev* libgdk-pixbuf-2.0-0*
  libgdk-pixbuf2.0-bin* libgdk-pixbuf2.0-common* libgdome2-0* libgdome2-dev*
  libglib2.0-0* libglib2.0-bin* libglib2.0-data* libglib2.0-dev*
  libglib2.0-dev-bin* libicu-dev* libjbig0* libjpeg62-turbo* liblerc4*
  libmount-dev* libpcre2-16-0* libpcre2-32-0* libpcre2-dev* libpcre2-posix3*
  libpkgconf3* libpng16-16* libselinux1-dev* libsepol-dev* libsharpyuv0*
  libtiff6* libwebp7* libxml2-dev* pkg-config* pkgconf* pkgconf-bin*
  python3-distutils* python3-lib2to3* shared-mime-info* uuid-dev* zlib1g-dev*
0 upgraded, 0 newly installed, 39 to remove and 40 not upgraded.
After this operation, 90.8 MB disk space will be freed.
(Reading database ... (Reading database ... 5%(Reading database ... 10%(Reading database ... 15%(Reading database ... 20%(Reading database ... 25%(Reading database ... 30%(Reading database ... 35%(Reading database ... 40%(Reading database ... 45%(Reading database ... 50%(Reading database ... 55%(Reading database ... 60%(Reading database ... 65%(Reading database ... 70%(Reading database ... 75%(Reading database ... 80%(Reading database ... 85%(Reading database ... 90%(Reading database ... 95%(Reading database ... 100%(Reading database ... 16757 files and directories currently installed.)
Removing libgdome2-dev:armhf (0.8.1+debian-9) ...
Removing libxml2-dev:armhf (2.9.14+dfsg-1.3+b2) ...
Removing libicu-dev:armhf (72.1-4) ...
Removing icu-devtools (72.1-4) ...
Removing libglib2.0-dev:armhf (2.78.3-1) ...
Removing libmount-dev:armhf (2.39.3-6) ...
Removing libblkid-dev:armhf (2.39.3-6) ...
Removing libgdk-pixbuf2.0-bin (2.42.10+dfsg-3) ...
Removing libgdk-pixbuf-2.0-0:armhf (2.42.10+dfsg-3) ...
Removing libtiff6:armhf (4.5.1+git230720-3) ...
Removing libdeflate0:armhf (1.18-1) ...
Removing libffi-dev:armhf (3.4.4-2) ...
Removing libgdk-pixbuf2.0-common (2.42.10+dfsg-3) ...
Removing libgdome2-0:armhf (0.8.1+debian-9) ...
Removing shared-mime-info (2.4-1) ...
Removing libglib2.0-bin (2.78.3-1) ...
Removing libglib2.0-data (2.78.3-1) ...
Removing libglib2.0-dev-bin (2.78.3-1) ...
Removing libjbig0:armhf (2.1-6.1) ...
Removing libjpeg62-turbo:armhf (1:2.1.5-2+b2) ...
Removing liblerc4:armhf (4.0.0+ds-4) ...
Removing libselinux1-dev:armhf (3.5-1+b2) ...
Removing libpcre2-dev:armhf (10.42-4) ...
Removing libpcre2-16-0:armhf (10.42-4) ...
Removing libpcre2-32-0:armhf (10.42-4) ...
Removing libpcre2-posix3:armhf (10.42-4) ...
Removing pkg-config:armhf (1.8.1-1+b2) ...
Removing pkgconf:armhf (1.8.1-1+b2) ...
Removing pkgconf-bin (1.8.1-1+b2) ...
Removing libpkgconf3:armhf (1.8.1-1+b2) ...
Removing libpng16-16:armhf (1.6.40-3) ...
Removing libsepol-dev:armhf (3.5-2) ...
Removing libwebp7:armhf (1.3.2-0.3) ...
Removing libsharpyuv0:armhf (1.3.2-0.3) ...
Removing python3-distutils (3.11.5-1) ...
Removing python3-lib2to3 (3.11.5-1) ...
Removing uuid-dev:armhf (2.39.3-6) ...
Removing zlib1g-dev:armhf (1:1.3.dfsg-3) ...
Removing libglib2.0-0:armhf (2.78.3-1) ...
Processing triggers for libc-bin (2.37-13) ...
(Reading database ... (Reading database ... 5%(Reading database ... 10%(Reading database ... 15%(Reading database ... 20%(Reading database ... 25%(Reading database ... 30%(Reading database ... 35%(Reading database ... 40%(Reading database ... 45%(Reading database ... 50%(Reading database ... 55%(Reading database ... 60%(Reading database ... 65%(Reading database ... 70%(Reading database ... 75%(Reading database ... 80%(Reading database ... 85%(Reading database ... 90%(Reading database ... 95%(Reading database ... 100%(Reading database ... 14730 files and directories currently installed.)
Purging configuration files for libglib2.0-0:armhf (2.78.3-1) ...
Purging configuration files for pkgconf:armhf (1.8.1-1+b2) ...
Purging configuration files for shared-mime-info (2.4-1) ...
Purging configuration files for pkg-config:armhf (1.8.1-1+b2) ...
Purging configuration files for libgdk-pixbuf-2.0-0:armhf (2.42.10+dfsg-3) ...
