[2024-01-06T20:23:27+00:00] apt-get install libfabric-dev abi-compliance-checker
Reading package lists...
Building dependency tree...
Reading state information...
abi-compliance-checker is already the newest version (2.3-2).
The following packages were automatically installed and are no longer required:
  libfaad-dev libfaad2
Use 'apt autoremove' to remove them.
The following additional packages will be installed:
  libfabric1 libibverbs1 libnl-3-200 libnl-route-3-200 librdmacm1
Recommended packages:
  ibverbs-providers
The following NEW packages will be installed:
  libfabric-dev libfabric1 libibverbs1 libnl-3-200 libnl-route-3-200
  librdmacm1
0 upgraded, 6 newly installed, 0 to remove and 12 not upgraded.
Need to get 1347 kB of archives.
After this operation, 3568 kB of additional disk space will be used.
Get:1 http://deb.debian.org/debian unstable/main armhf libnl-3-200 armhf 3.7.0-0.2+b1 [55.8 kB]
Get:2 http://deb.debian.org/debian unstable/main armhf libnl-route-3-200 armhf 3.7.0-0.2+b1 [156 kB]
Get:3 http://deb.debian.org/debian unstable/main armhf libibverbs1 armhf 48.0-1 [53.5 kB]
Get:4 http://deb.debian.org/debian unstable/main armhf librdmacm1 armhf 48.0-1 [61.1 kB]
Get:5 http://deb.debian.org/debian unstable/main armhf libfabric1 armhf 1.17.0-3 [385 kB]
Get:6 http://deb.debian.org/debian unstable/main armhf libfabric-dev armhf 1.17.0-3 [635 kB]
debconf: delaying package configuration, since apt-utils is not installed
Fetched 1347 kB in 0s (4275 kB/s)
Selecting previously unselected package libnl-3-200:armhf.
(Reading database ... (Reading database ... 5%(Reading database ... 10%(Reading database ... 15%(Reading database ... 20%(Reading database ... 25%(Reading database ... 30%(Reading database ... 35%(Reading database ... 40%(Reading database ... 45%(Reading database ... 50%(Reading database ... 55%(Reading database ... 60%(Reading database ... 65%(Reading database ... 70%(Reading database ... 75%(Reading database ... 80%(Reading database ... 85%(Reading database ... 90%(Reading database ... 95%(Reading database ... 100%(Reading database ... 20047 files and directories currently installed.)
Preparing to unpack .../0-libnl-3-200_3.7.0-0.2+b1_armhf.deb ...
Unpacking libnl-3-200:armhf (3.7.0-0.2+b1) ...
Selecting previously unselected package libnl-route-3-200:armhf.
Preparing to unpack .../1-libnl-route-3-200_3.7.0-0.2+b1_armhf.deb ...
Unpacking libnl-route-3-200:armhf (3.7.0-0.2+b1) ...
Selecting previously unselected package libibverbs1:armhf.
Preparing to unpack .../2-libibverbs1_48.0-1_armhf.deb ...
Unpacking libibverbs1:armhf (48.0-1) ...
Selecting previously unselected package librdmacm1:armhf.
Preparing to unpack .../3-librdmacm1_48.0-1_armhf.deb ...
Unpacking librdmacm1:armhf (48.0-1) ...
Selecting previously unselected package libfabric1:armhf.
Preparing to unpack .../4-libfabric1_1.17.0-3_armhf.deb ...
Unpacking libfabric1:armhf (1.17.0-3) ...
Selecting previously unselected package libfabric-dev:armhf.
Preparing to unpack .../5-libfabric-dev_1.17.0-3_armhf.deb ...
Unpacking libfabric-dev:armhf (1.17.0-3) ...
Setting up libnl-3-200:armhf (3.7.0-0.2+b1) ...
Setting up libnl-route-3-200:armhf (3.7.0-0.2+b1) ...
Setting up libibverbs1:armhf (48.0-1) ...
Setting up librdmacm1:armhf (48.0-1) ...
Setting up libfabric1:armhf (1.17.0-3) ...
Setting up libfabric-dev:armhf (1.17.0-3) ...
Processing triggers for libc-bin (2.37-13) ...
Reading package lists...
Building dependency tree...
Reading state information...
The following packages will be REMOVED:
  libfaad-dev* libfaad2*
0 upgraded, 0 newly installed, 2 to remove and 12 not upgraded.
After this operation, 538 kB disk space will be freed.
(Reading database ... (Reading database ... 5%(Reading database ... 10%(Reading database ... 15%(Reading database ... 20%(Reading database ... 25%(Reading database ... 30%(Reading database ... 35%(Reading database ... 40%(Reading database ... 45%(Reading database ... 50%(Reading database ... 55%(Reading database ... 60%(Reading database ... 65%(Reading database ... 70%(Reading database ... 75%(Reading database ... 80%(Reading database ... 85%(Reading database ... 90%(Reading database ... 95%(Reading database ... 100%(Reading database ... 20270 files and directories currently installed.)
Removing libfaad-dev:armhf (2.11.1-1) ...
Removing libfaad2:armhf (2.11.1-1) ...
Processing triggers for libc-bin (2.37-13) ...
