[2024-01-08T14:00:10+00:00] apt-get install libxcb-xinput-dev abi-compliance-checker
Reading package lists...
Building dependency tree...
Reading state information...
abi-compliance-checker is already the newest version (2.3-2).
The following packages were automatically installed and are no longer required:
  libxcb-xinerama0 libxcb-xinerama0-dev
Use 'apt autoremove' to remove them.
The following additional packages will be installed:
  libxcb-render0 libxcb-render0-dev libxcb-shape0 libxcb-shape0-dev
  libxcb-xfixes0 libxcb-xfixes0-dev libxcb-xinput0
The following NEW packages will be installed:
  libxcb-render0 libxcb-render0-dev libxcb-shape0 libxcb-shape0-dev
  libxcb-xfixes0 libxcb-xfixes0-dev libxcb-xinput-dev libxcb-xinput0
0 upgraded, 8 newly installed, 0 to remove and 16 not upgraded.
Need to get 937 kB of archives.
After this operation, 1971 kB of additional disk space will be used.
Get:1 http://deb.debian.org/debian unstable/main armhf libxcb-render0 armhf 1.15-1 [114 kB]
Get:2 http://deb.debian.org/debian unstable/main armhf libxcb-render0-dev armhf 1.15-1 [118 kB]
Get:3 http://deb.debian.org/debian unstable/main armhf libxcb-shape0 armhf 1.15-1 [106 kB]
Get:4 http://deb.debian.org/debian unstable/main armhf libxcb-shape0-dev armhf 1.15-1 [107 kB]
Get:5 http://deb.debian.org/debian unstable/main armhf libxcb-xfixes0 armhf 1.15-1 [110 kB]
Get:6 http://deb.debian.org/debian unstable/main armhf libxcb-xfixes0-dev armhf 1.15-1 [112 kB]
Get:7 http://deb.debian.org/debian unstable/main armhf libxcb-xinput0 armhf 1.15-1 [127 kB]
Get:8 http://deb.debian.org/debian unstable/main armhf libxcb-xinput-dev armhf 1.15-1 [142 kB]
debconf: delaying package configuration, since apt-utils is not installed
Fetched 937 kB in 0s (6496 kB/s)
Selecting previously unselected package libxcb-render0:armhf.
(Reading database ... (Reading database ... 5%(Reading database ... 10%(Reading database ... 15%(Reading database ... 20%(Reading database ... 25%(Reading database ... 30%(Reading database ... 35%(Reading database ... 40%(Reading database ... 45%(Reading database ... 50%(Reading database ... 55%(Reading database ... 60%(Reading database ... 65%(Reading database ... 70%(Reading database ... 75%(Reading database ... 80%(Reading database ... 85%(Reading database ... 90%(Reading database ... 95%(Reading database ... 100%(Reading database ... 17327 files and directories currently installed.)
Preparing to unpack .../0-libxcb-render0_1.15-1_armhf.deb ...
Unpacking libxcb-render0:armhf (1.15-1) ...
Selecting previously unselected package libxcb-render0-dev:armhf.
Preparing to unpack .../1-libxcb-render0-dev_1.15-1_armhf.deb ...
Unpacking libxcb-render0-dev:armhf (1.15-1) ...
Selecting previously unselected package libxcb-shape0:armhf.
Preparing to unpack .../2-libxcb-shape0_1.15-1_armhf.deb ...
Unpacking libxcb-shape0:armhf (1.15-1) ...
Selecting previously unselected package libxcb-shape0-dev:armhf.
Preparing to unpack .../3-libxcb-shape0-dev_1.15-1_armhf.deb ...
Unpacking libxcb-shape0-dev:armhf (1.15-1) ...
Selecting previously unselected package libxcb-xfixes0:armhf.
Preparing to unpack .../4-libxcb-xfixes0_1.15-1_armhf.deb ...
Unpacking libxcb-xfixes0:armhf (1.15-1) ...
Selecting previously unselected package libxcb-xfixes0-dev:armhf.
Preparing to unpack .../5-libxcb-xfixes0-dev_1.15-1_armhf.deb ...
Unpacking libxcb-xfixes0-dev:armhf (1.15-1) ...
Selecting previously unselected package libxcb-xinput0:armhf.
Preparing to unpack .../6-libxcb-xinput0_1.15-1_armhf.deb ...
Unpacking libxcb-xinput0:armhf (1.15-1) ...
Selecting previously unselected package libxcb-xinput-dev:armhf.
Preparing to unpack .../7-libxcb-xinput-dev_1.15-1_armhf.deb ...
Unpacking libxcb-xinput-dev:armhf (1.15-1) ...
Setting up libxcb-xfixes0:armhf (1.15-1) ...
Setting up libxcb-xinput0:armhf (1.15-1) ...
Setting up libxcb-render0:armhf (1.15-1) ...
Setting up libxcb-shape0:armhf (1.15-1) ...
Setting up libxcb-render0-dev:armhf (1.15-1) ...
Setting up libxcb-shape0-dev:armhf (1.15-1) ...
Setting up libxcb-xfixes0-dev:armhf (1.15-1) ...
Setting up libxcb-xinput-dev:armhf (1.15-1) ...
Processing triggers for libc-bin (2.37-13) ...
Reading package lists...
Building dependency tree...
Reading state information...
The following packages will be REMOVED:
  libxcb-xinerama0* libxcb-xinerama0-dev*
0 upgraded, 0 newly installed, 2 to remove and 16 not upgraded.
After this operation, 319 kB disk space will be freed.
(Reading database ... (Reading database ... 5%(Reading database ... 10%(Reading database ... 15%(Reading database ... 20%(Reading database ... 25%(Reading database ... 30%(Reading database ... 35%(Reading database ... 40%(Reading database ... 45%(Reading database ... 50%(Reading database ... 55%(Reading database ... 60%(Reading database ... 65%(Reading database ... 70%(Reading database ... 75%(Reading database ... 80%(Reading database ... 85%(Reading database ... 90%(Reading database ... 95%(Reading database ... 100%(Reading database ... 17383 files and directories currently installed.)
Removing libxcb-xinerama0-dev:armhf (1.15-1) ...
Removing libxcb-xinerama0:armhf (1.15-1) ...
Processing triggers for libc-bin (2.37-13) ...
