Temporary header file '/tmp/rQPWyPdSZA/dump1.h' with the following content will be compiled to create GCC translation unit dump:

  // add defines
  #define __STDC_VERSION__ 201710L
#define _GXX_NULLPTR_T
#define CLUTTER_ENABLE_COMPOSITOR_API 1
#define _REGEX_NELTS(n)
#define _Atomic
#define PACKED
#ifdef __cplusplus
// C17 compat layer
#define _Alignof(type) alignof(type)
#endif
#define getaddrinfo_a(a,b,c,d)

  // add includes
  #include "/usr/include/qcustomplot.h"

  // add namespaces
  namespace q20{typedef int tmp_add_type_1;}
  q20::tmp_add_type_1 tmp_add_func_1(){return 0;};
  namespace q20{namespace ranges{typedef int tmp_add_type_2;}}
  q20::ranges::tmp_add_type_2 tmp_add_func_2(){return 0;};
  namespace q23{typedef int tmp_add_type_3;}
  q23::tmp_add_type_3 tmp_add_func_3(){return 0;};
  namespace QAlgorithmsPrivate{typedef int tmp_add_type_4;}
  QAlgorithmsPrivate::tmp_add_type_4 tmp_add_func_4(){return 0;};
  namespace QColorConstants{typedef int tmp_add_type_5;}
  QColorConstants::tmp_add_type_5 tmp_add_func_5(){return 0;};
  namespace QColorConstants{namespace Svg{typedef int tmp_add_type_6;}}
  QColorConstants::Svg::tmp_add_type_6 tmp_add_func_6(){return 0;};
  namespace QContainerInfo{typedef int tmp_add_type_7;}
  QContainerInfo::tmp_add_type_7 tmp_add_func_7(){return 0;};
  namespace QCP{typedef int tmp_add_type_8;}
  QCP::tmp_add_type_8 tmp_add_func_8(){return 0;};
  namespace QDrawBorderPixmap{typedef int tmp_add_type_9;}
  QDrawBorderPixmap::tmp_add_type_9 tmp_add_func_9(){return 0;};
  namespace QHashPrivate{typedef int tmp_add_type_10;}
  QHashPrivate::tmp_add_type_10 tmp_add_func_10(){return 0;};
  namespace QHashPrivate{namespace GrowthPolicy{typedef int tmp_add_type_11;}}
  QHashPrivate::GrowthPolicy::tmp_add_type_11 tmp_add_func_11(){return 0;};
  namespace QJsonPrivate{typedef int tmp_add_type_12;}
  QJsonPrivate::tmp_add_type_12 tmp_add_func_12(){return 0;};
  namespace QMdi{typedef int tmp_add_type_13;}
  QMdi::tmp_add_type_13 tmp_add_func_13(){return 0;};
  namespace QNativeInterface{typedef int tmp_add_type_14;}
  QNativeInterface::tmp_add_type_14 tmp_add_func_14(){return 0;};
  namespace QNativeInterface{namespace Private{typedef int tmp_add_type_15;}}
  QNativeInterface::Private::tmp_add_type_15 tmp_add_func_15(){return 0;};
  namespace Qt{typedef int tmp_add_type_16;}
  Qt::tmp_add_type_16 tmp_add_func_16(){return 0;};
  namespace Qt{namespace Literals{typedef int tmp_add_type_17;}}
  Qt::Literals::tmp_add_type_17 tmp_add_func_17(){return 0;};
  namespace Qt{namespace Literals{namespace StringLiterals{typedef int tmp_add_type_18;}}}
  Qt::Literals::StringLiterals::tmp_add_type_18 tmp_add_func_18(){return 0;};
  namespace QtFuture{typedef int tmp_add_type_19;}
  QtFuture::tmp_add_type_19 tmp_add_func_19(){return 0;};
  namespace QtGlobalStatic{typedef int tmp_add_type_20;}
  QtGlobalStatic::tmp_add_type_20 tmp_add_func_20(){return 0;};
  namespace QtLiterals{typedef int tmp_add_type_21;}
  QtLiterals::tmp_add_type_21 tmp_add_func_21(){return 0;};
  namespace QtMetaContainerPrivate{typedef int tmp_add_type_22;}
  QtMetaContainerPrivate::tmp_add_type_22 tmp_add_func_22(){return 0;};
  namespace QtMetaTypePrivate{typedef int tmp_add_type_23;}
  QtMetaTypePrivate::tmp_add_type_23 tmp_add_func_23(){return 0;};
  namespace QtPrivate{typedef int tmp_add_type_24;}
  QtPrivate::tmp_add_type_24 tmp_add_func_24(){return 0;};
  namespace QtPrivate{namespace BindableWarnings{typedef int tmp_add_type_25;}}
  QtPrivate::BindableWarnings::tmp_add_type_25 tmp_add_func_25(){return 0;};
  namespace QtPrivate{namespace detail{typedef int tmp_add_type_26;}}
  QtPrivate::detail::tmp_add_type_26 tmp_add_func_26(){return 0;};
  namespace QtPrivate{namespace SwapExceptionTester{typedef int tmp_add_type_27;}}
  QtPrivate::SwapExceptionTester::tmp_add_type_27 tmp_add_func_27(){return 0;};
  namespace QtPrivate{namespace Tok{typedef int tmp_add_type_28;}}
  QtPrivate::Tok::tmp_add_type_28 tmp_add_func_28(){return 0;};
  namespace QtSharedPointer{typedef int tmp_add_type_29;}
  QtSharedPointer::tmp_add_type_29 tmp_add_func_29(){return 0;};
  namespace QtStringBuilder{typedef int tmp_add_type_30;}
  QtStringBuilder::tmp_add_type_30 tmp_add_func_30(){return 0;};
  namespace QtTsan{typedef int tmp_add_type_31;}
  QtTsan::tmp_add_type_31 tmp_add_func_31(){return 0;};
  namespace QTypeTraits{typedef int tmp_add_type_32;}
  QTypeTraits::tmp_add_type_32 tmp_add_func_32(){return 0;};
  namespace QTypeTraits{namespace detail{typedef int tmp_add_type_33;}}
  QTypeTraits::detail::tmp_add_type_33 tmp_add_func_33(){return 0;};
  namespace qxp{typedef int tmp_add_type_34;}
  qxp::tmp_add_type_34 tmp_add_func_34(){return 0;};
  namespace qxp{namespace detail{typedef int tmp_add_type_35;}}
  qxp::detail::tmp_add_type_35 tmp_add_func_35(){return 0;};
  namespace q_has_char8_t{typedef int tmp_add_type_36;}
  q_has_char8_t::tmp_add_type_36 tmp_add_func_36(){return 0;};
  namespace q_no_char8_t{typedef int tmp_add_type_37;}
  q_no_char8_t::tmp_add_type_37 tmp_add_func_37(){return 0;};

  // add classes
  QAbstractAnimation* tmp_add_class_0;
  QAbstractButton* tmp_add_class_1;
  QAbstractConcatenable* tmp_add_class_2;
  QAbstractEventDispatcher* tmp_add_class_3;
  QAbstractFileIconProvider* tmp_add_class_4;
  QAbstractGraphicsShapeItem* tmp_add_class_5;
  QAbstractItemDelegate* tmp_add_class_6;
  QAbstractItemModel* tmp_add_class_7;
  QAbstractItemView* tmp_add_class_8;
  QAbstractListModel* tmp_add_class_9;
  QAbstractNativeEventFilter* tmp_add_class_10;
  QAbstractPrintDialog* tmp_add_class_11;
  QAbstractProxyModel* tmp_add_class_12;
  QAbstractScrollArea* tmp_add_class_13;
  QAbstractSlider* tmp_add_class_14;
  QAbstractSpinBox* tmp_add_class_15;
  QAbstractTableModel* tmp_add_class_16;
  QAbstractTextDocumentLayout* tmp_add_class_17;
  QAbstractUndoItem* tmp_add_class_18;
  QAccessible* tmp_add_class_19;
  QAccessibleActionInterface* tmp_add_class_20;
  QAccessibleApplication* tmp_add_class_21;
  QAccessibleBridge* tmp_add_class_22;
  QAccessibleBridgePlugin* tmp_add_class_23;
  QAccessibleEditableTextInterface* tmp_add_class_24;
  QAccessibleEvent* tmp_add_class_25;
  QAccessibleHyperlinkInterface* tmp_add_class_26;
  QAccessibleImageInterface* tmp_add_class_27;
  QAccessibleInterface* tmp_add_class_28;
  QAccessibleObject* tmp_add_class_29;
  QAccessiblePlugin* tmp_add_class_30;
  QAccessibleStateChangeEvent* tmp_add_class_31;
  QAccessibleTableCellInterface* tmp_add_class_32;
  QAccessibleTableInterface* tmp_add_class_33;
  QAccessibleTableModelChangeEvent* tmp_add_class_34;
  QAccessibleTextCursorEvent* tmp_add_class_35;
  QAccessibleTextInsertEvent* tmp_add_class_36;
  QAccessibleTextInterface* tmp_add_class_37;
  QAccessibleTextRemoveEvent* tmp_add_class_38;
  QAccessibleTextSelectionEvent* tmp_add_class_39;
  QAccessibleTextUpdateEvent* tmp_add_class_40;
  QAccessibleValueChangeEvent* tmp_add_class_41;
  QAccessibleValueInterface* tmp_add_class_42;
  QAccessibleWidget* tmp_add_class_43;
  QAction* tmp_add_class_44;
  QActionEvent* tmp_add_class_45;
  QActionGroup* tmp_add_class_46;
  QAdoptSharedDataTag* tmp_add_class_47;
  QAnimationDriver* tmp_add_class_48;
  QAnimationGroup* tmp_add_class_49;
  QAnyStringView* tmp_add_class_50;
  QApplication* tmp_add_class_51;
  QApplicationStateChangeEvent* tmp_add_class_52;
  QArrayData* tmp_add_class_53;
  QAssociativeConstIterator* tmp_add_class_54;
  QAssociativeIterable* tmp_add_class_55;
  QAssociativeIterator* tmp_add_class_56;
  QAtomicInt* tmp_add_class_57;
  QBackingStore* tmp_add_class_58;
  QBasicMutex* tmp_add_class_59;
  QBasicTimer* tmp_add_class_60;
  QBindingStatus* tmp_add_class_61;
  QBindingStorage* tmp_add_class_62;
  QBitArray* tmp_add_class_63;
  QBitRef* tmp_add_class_64;
  QBitmap* tmp_add_class_65;
  QBoxLayout* tmp_add_class_66;
  QBrush* tmp_add_class_67;
  QBrushData* tmp_add_class_68;
  QBrushDataPointerDeleter* tmp_add_class_69;
  QBuffer* tmp_add_class_70;
  QButtonGroup* tmp_add_class_71;
  QByteArray* tmp_add_class_72;
  QByteArrayMatcher* tmp_add_class_73;
  QByteArrayView* tmp_add_class_74;
  QCPAbstractItem* tmp_add_class_75;
  QCPAbstractLegendItem* tmp_add_class_76;
  QCPAbstractPaintBuffer* tmp_add_class_77;
  QCPAbstractPlottable* tmp_add_class_78;
  QCPAxis* tmp_add_class_79;
  QCPAxisPainterPrivate* tmp_add_class_80;
  QCPAxisRect* tmp_add_class_81;
  QCPAxisTicker* tmp_add_class_82;
  QCPAxisTickerDateTime* tmp_add_class_83;
  QCPAxisTickerFixed* tmp_add_class_84;
  QCPAxisTickerLog* tmp_add_class_85;
  QCPAxisTickerPi* tmp_add_class_86;
  QCPAxisTickerText* tmp_add_class_87;
  QCPAxisTickerTime* tmp_add_class_88;
  QCPBars* tmp_add_class_89;
  QCPBarsData* tmp_add_class_90;
  QCPBarsGroup* tmp_add_class_91;
  QCPColorGradient* tmp_add_class_92;
  QCPColorMap* tmp_add_class_93;
  QCPColorMapData* tmp_add_class_94;
  QCPColorScale* tmp_add_class_95;
  QCPColorScaleAxisRectPrivate* tmp_add_class_96;
  QCPCurve* tmp_add_class_97;
  QCPCurveData* tmp_add_class_98;
  QCPDataRange* tmp_add_class_99;
  QCPDataSelection* tmp_add_class_100;
  QCPErrorBars* tmp_add_class_101;
  QCPErrorBarsData* tmp_add_class_102;
  QCPFinancial* tmp_add_class_103;
  QCPFinancialData* tmp_add_class_104;
  QCPGraph* tmp_add_class_105;
  QCPGraphData* tmp_add_class_106;
  QCPGrid* tmp_add_class_107;
  QCPItemAnchor* tmp_add_class_108;
  QCPItemBracket* tmp_add_class_109;
  QCPItemCurve* tmp_add_class_110;
  QCPItemEllipse* tmp_add_class_111;
  QCPItemLine* tmp_add_class_112;
  QCPItemPixmap* tmp_add_class_113;
  QCPItemPosition* tmp_add_class_114;
  QCPItemRect* tmp_add_class_115;
  QCPItemStraightLine* tmp_add_class_116;
  QCPItemText* tmp_add_class_117;
  QCPItemTracer* tmp_add_class_118;
  QCPLabelPainterPrivate* tmp_add_class_119;
  QCPLayer* tmp_add_class_120;
  QCPLayerable* tmp_add_class_121;
  QCPLayout* tmp_add_class_122;
  QCPLayoutElement* tmp_add_class_123;
  QCPLayoutGrid* tmp_add_class_124;
  QCPLayoutInset* tmp_add_class_125;
  QCPLegend* tmp_add_class_126;
  QCPLineEnding* tmp_add_class_127;
  QCPMarginGroup* tmp_add_class_128;
  QCPPaintBufferPixmap* tmp_add_class_129;
  QCPPainter* tmp_add_class_130;
  QCPPlottableInterface1D* tmp_add_class_131;
  QCPPlottableLegendItem* tmp_add_class_132;
  QCPPolarAxisAngular* tmp_add_class_133;
  QCPPolarAxisRadial* tmp_add_class_134;
  QCPPolarGraph* tmp_add_class_135;
  QCPPolarGrid* tmp_add_class_136;
  QCPPolarLegendItem* tmp_add_class_137;
  QCPRange* tmp_add_class_138;
  QCPScatterStyle* tmp_add_class_139;
  QCPSelectionDecorator* tmp_add_class_140;
  QCPSelectionDecoratorBracket* tmp_add_class_141;
  QCPSelectionRect* tmp_add_class_142;
  QCPStatisticalBox* tmp_add_class_143;
  QCPStatisticalBoxData* tmp_add_class_144;
  QCPTextElement* tmp_add_class_145;
  QCPVector2D* tmp_add_class_146;
  QCalendar* tmp_add_class_147;
  QCalendarWidget* tmp_add_class_148;
  QCborArray* tmp_add_class_149;
  QCborError* tmp_add_class_150;
  QCborMap* tmp_add_class_151;
  QCborParserError* tmp_add_class_152;
  QCborStreamReader* tmp_add_class_153;
  QCborStreamWriter* tmp_add_class_154;
  QCborValue* tmp_add_class_155;
  QCborValueConstRef* tmp_add_class_156;
  QCborValueRef* tmp_add_class_157;
  QChar* tmp_add_class_158;
  QCheckBox* tmp_add_class_159;
  QChildEvent* tmp_add_class_160;
  QClipboard* tmp_add_class_161;
  QCloseEvent* tmp_add_class_162;
  QCollator* tmp_add_class_163;
  QCollatorSortKey* tmp_add_class_164;
  QColor* tmp_add_class_165;
  QColorDialog* tmp_add_class_166;
  QColorSpace* tmp_add_class_167;
  QColorTransform* tmp_add_class_168;
  QColormap* tmp_add_class_169;
  QColumnView* tmp_add_class_170;
  QComboBox* tmp_add_class_171;
  QCommandLineOption* tmp_add_class_172;
  QCommandLineParser* tmp_add_class_173;
  QCommandLinkButton* tmp_add_class_174;
  QCommonStyle* tmp_add_class_175;
  QCompleter* tmp_add_class_176;
  QConcatenateTablesProxyModel* tmp_add_class_177;
  QConicalGradient* tmp_add_class_178;
  QContextMenuEvent* tmp_add_class_179;
  QContiguousCacheData* tmp_add_class_180;
  QCoreApplication* tmp_add_class_181;
  QCryptographicHash* tmp_add_class_182;
  QCursor* tmp_add_class_183;
  QCustomPlot* tmp_add_class_184;
  QDataStream* tmp_add_class_185;
  QDataWidgetMapper* tmp_add_class_186;
  QDate* tmp_add_class_187;
  QDateEdit* tmp_add_class_188;
  QDateTime* tmp_add_class_189;
  QDateTimeEdit* tmp_add_class_190;
  QDeadlineTimer* tmp_add_class_191;
  QDebug* tmp_add_class_192;
  QDebugStateSaver* tmp_add_class_193;
  QDeferredDeleteEvent* tmp_add_class_194;
  QDesktopServices* tmp_add_class_195;
  QDial* tmp_add_class_196;
  QDialog* tmp_add_class_197;
  QDialogButtonBox* tmp_add_class_198;
  QDir* tmp_add_class_199;
  QDirIterator* tmp_add_class_200;
  QDockWidget* tmp_add_class_201;
  QDoubleSpinBox* tmp_add_class_202;
  QDoubleValidator* tmp_add_class_203;
  QDrag* tmp_add_class_204;
  QDragEnterEvent* tmp_add_class_205;
  QDragLeaveEvent* tmp_add_class_206;
  QDragMoveEvent* tmp_add_class_207;
  QDropEvent* tmp_add_class_208;
  QDynamicPropertyChangeEvent* tmp_add_class_209;
  QEasingCurve* tmp_add_class_210;
  QElapsedTimer* tmp_add_class_211;
  QEnterEvent* tmp_add_class_212;
  QErrorMessage* tmp_add_class_213;
  QEvent* tmp_add_class_214;
  QEventLoop* tmp_add_class_215;
  QEventLoopLocker* tmp_add_class_216;
  QEventPoint* tmp_add_class_217;
  QException* tmp_add_class_218;
  QExposeEvent* tmp_add_class_219;
  QFactoryInterface* tmp_add_class_220;
  QFile* tmp_add_class_221;
  QFileDevice* tmp_add_class_222;
  QFileDialog* tmp_add_class_223;
  QFileIconProvider* tmp_add_class_224;
  QFileInfo* tmp_add_class_225;
  QFileOpenEvent* tmp_add_class_226;
  QFileSelector* tmp_add_class_227;
  QFileSystemModel* tmp_add_class_228;
  QFileSystemWatcher* tmp_add_class_229;
  QFlag* tmp_add_class_230;
  QFocusEvent* tmp_add_class_231;
  QFocusFrame* tmp_add_class_232;
  QFont* tmp_add_class_233;
  QFontComboBox* tmp_add_class_234;
  QFontDatabase* tmp_add_class_235;
  QFontDialog* tmp_add_class_236;
  QFontInfo* tmp_add_class_237;
  QFontMetrics* tmp_add_class_238;
  QFontMetricsF* tmp_add_class_239;
  QFormLayout* tmp_add_class_240;
  QFrame* tmp_add_class_241;
  QFutureInterfaceBase* tmp_add_class_242;
  QFutureWatcherBase* tmp_add_class_243;
  QGenericArgument* tmp_add_class_244;
  QGenericPlugin* tmp_add_class_245;
  QGenericPluginFactory* tmp_add_class_246;
  QGenericReturnArgument* tmp_add_class_247;
  QGesture* tmp_add_class_248;
  QGestureEvent* tmp_add_class_249;
  QGestureRecognizer* tmp_add_class_250;
  QGlyphRun* tmp_add_class_251;
  QGradient* tmp_add_class_252;
  QGraphicsAnchor* tmp_add_class_253;
  QGraphicsAnchorLayout* tmp_add_class_254;
  QGraphicsBlurEffect* tmp_add_class_255;
  QGraphicsColorizeEffect* tmp_add_class_256;
  QGraphicsDropShadowEffect* tmp_add_class_257;
  QGraphicsEffect* tmp_add_class_258;
  QGraphicsEllipseItem* tmp_add_class_259;
  QGraphicsGridLayout* tmp_add_class_260;
  QGraphicsItem* tmp_add_class_261;
  QGraphicsItemAnimation* tmp_add_class_262;
  QGraphicsItemGroup* tmp_add_class_263;
  QGraphicsLayout* tmp_add_class_264;
  QGraphicsLayoutItem* tmp_add_class_265;
  QGraphicsLineItem* tmp_add_class_266;
  QGraphicsLinearLayout* tmp_add_class_267;
  QGraphicsObject* tmp_add_class_268;
  QGraphicsOpacityEffect* tmp_add_class_269;
  QGraphicsPathItem* tmp_add_class_270;
  QGraphicsPixmapItem* tmp_add_class_271;
  QGraphicsPolygonItem* tmp_add_class_272;
  QGraphicsProxyWidget* tmp_add_class_273;
  QGraphicsRectItem* tmp_add_class_274;
  QGraphicsRotation* tmp_add_class_275;
  QGraphicsScale* tmp_add_class_276;
  QGraphicsScene* tmp_add_class_277;
  QGraphicsSceneContextMenuEvent* tmp_add_class_278;
  QGraphicsSceneDragDropEvent* tmp_add_class_279;
  QGraphicsSceneEvent* tmp_add_class_280;
  QGraphicsSceneHelpEvent* tmp_add_class_281;
  QGraphicsSceneHoverEvent* tmp_add_class_282;
  QGraphicsSceneMouseEvent* tmp_add_class_283;
  QGraphicsSceneMoveEvent* tmp_add_class_284;
  QGraphicsSceneResizeEvent* tmp_add_class_285;
  QGraphicsSceneWheelEvent* tmp_add_class_286;
  QGraphicsSimpleTextItem* tmp_add_class_287;
  QGraphicsTextItem* tmp_add_class_288;
  QGraphicsTransform* tmp_add_class_289;
  QGraphicsView* tmp_add_class_290;
  QGraphicsWidget* tmp_add_class_291;
  QGridLayout* tmp_add_class_292;
  QGroupBox* tmp_add_class_293;
  QGuiApplication* tmp_add_class_294;
  QHBoxLayout* tmp_add_class_295;
  QHashDummyValue* tmp_add_class_296;
  QHashSeed* tmp_add_class_297;
  QHeaderView* tmp_add_class_298;
  QHelpEvent* tmp_add_class_299;
  QHideEvent* tmp_add_class_300;
  QHoverEvent* tmp_add_class_301;
  QIODevice* tmp_add_class_302;
  QIODeviceBase* tmp_add_class_303;
  QIcon* tmp_add_class_304;
  QIconDragEvent* tmp_add_class_305;
  QIconEngine* tmp_add_class_306;
  QIconEnginePlugin* tmp_add_class_307;
  QIdentityProxyModel* tmp_add_class_308;
  QImage* tmp_add_class_309;
  QImageIOHandler* tmp_add_class_310;
  QImageIOPlugin* tmp_add_class_311;
  QImageReader* tmp_add_class_312;
  QImageWriter* tmp_add_class_313;
  QIncompatibleFlag* tmp_add_class_314;
  QInputDevice* tmp_add_class_315;
  QInputDialog* tmp_add_class_316;
  QInputEvent* tmp_add_class_317;
  QInputMethod* tmp_add_class_318;
  QInputMethodEvent* tmp_add_class_319;
  QInputMethodQueryEvent* tmp_add_class_320;
  QIntValidator* tmp_add_class_321;
  QInternal* tmp_add_class_322;
  QItemDelegate* tmp_add_class_323;
  QItemEditorCreatorBase* tmp_add_class_324;
  QItemEditorFactory* tmp_add_class_325;
  QItemSelection* tmp_add_class_326;
  QItemSelectionModel* tmp_add_class_327;
  QItemSelectionRange* tmp_add_class_328;
  QJsonArray* tmp_add_class_329;
  QJsonDocument* tmp_add_class_330;
  QJsonObject* tmp_add_class_331;
  QJsonParseError* tmp_add_class_332;
  QJsonValue* tmp_add_class_333;
  QJsonValueConstRef* tmp_add_class_334;
  QJsonValueRef* tmp_add_class_335;
  QKeyCombination* tmp_add_class_336;
  QKeyEvent* tmp_add_class_337;
  QKeySequence* tmp_add_class_338;
  QKeySequenceEdit* tmp_add_class_339;
  QLCDNumber* tmp_add_class_340;
  QLabel* tmp_add_class_341;
  QLatin1Char* tmp_add_class_342;
  QLatin1String* tmp_add_class_343;
  QLayout* tmp_add_class_344;
  QLayoutItem* tmp_add_class_345;
  QLibrary* tmp_add_class_346;
  QLibraryInfo* tmp_add_class_347;
  QLine* tmp_add_class_348;
  QLineEdit* tmp_add_class_349;
  QLineF* tmp_add_class_350;
  QLinearGradient* tmp_add_class_351;
  QListView* tmp_add_class_352;
  QListWidget* tmp_add_class_353;
  QListWidgetItem* tmp_add_class_354;
  QLocale* tmp_add_class_355;
  QLockFile* tmp_add_class_356;
  QLoggingCategory* tmp_add_class_357;
  QMainWindow* tmp_add_class_358;
  QMargins* tmp_add_class_359;
  QMarginsF* tmp_add_class_360;
  QMatrix4x4* tmp_add_class_361;
  QMdiArea* tmp_add_class_362;
  QMdiSubWindow* tmp_add_class_363;
  QMenu* tmp_add_class_364;
  QMenuBar* tmp_add_class_365;
  QMessageAuthenticationCode* tmp_add_class_366;
  QMessageBox* tmp_add_class_367;
  QMessageLogContext* tmp_add_class_368;
  QMessageLogger* tmp_add_class_369;
  QMetaAssociation* tmp_add_class_370;
  QMetaClassInfo* tmp_add_class_371;
  QMetaContainer* tmp_add_class_372;
  QMetaEnum* tmp_add_class_373;
  QMetaMethod* tmp_add_class_374;
  QMetaObject* tmp_add_class_375;
  QMetaProperty* tmp_add_class_376;
  QMetaSequence* tmp_add_class_377;
  QMetaType* tmp_add_class_378;
  QMethodRawArguments* tmp_add_class_379;
  QMimeData* tmp_add_class_380;
  QMimeDatabase* tmp_add_class_381;
  QMimeType* tmp_add_class_382;
  QModelIndex* tmp_add_class_383;
  QModelRoleData* tmp_add_class_384;
  QModelRoleDataSpan* tmp_add_class_385;
  QMouseEvent* tmp_add_class_386;
  QMoveEvent* tmp_add_class_387;
  QMovie* tmp_add_class_388;
  QMutex* tmp_add_class_389;
  QNativeGestureEvent* tmp_add_class_390;
  QNoDebug* tmp_add_class_391;
  QObject* tmp_add_class_392;
  QObjectCleanupHandler* tmp_add_class_393;
  QObjectData* tmp_add_class_394;
  QOffscreenSurface* tmp_add_class_395;
  QOpenGLContext* tmp_add_class_396;
  QOpenGLContextGroup* tmp_add_class_397;
  QOpenGLExtraFunctions* tmp_add_class_398;
  QOpenGLExtraFunctionsPrivate* tmp_add_class_399;
  QOpenGLFunctions* tmp_add_class_400;
  QOpenGLFunctionsPrivate* tmp_add_class_401;
  QOperatingSystemVersion* tmp_add_class_402;
  QOperatingSystemVersionBase* tmp_add_class_403;
  QPageLayout* tmp_add_class_404;
  QPageRanges* tmp_add_class_405;
  QPageSetupDialog* tmp_add_class_406;
  QPageSize* tmp_add_class_407;
  QPagedPaintDevice* tmp_add_class_408;
  QPaintDevice* tmp_add_class_409;
  QPaintDeviceWindow* tmp_add_class_410;
  QPaintEngine* tmp_add_class_411;
  QPaintEngineState* tmp_add_class_412;
  QPaintEvent* tmp_add_class_413;
  QPainter* tmp_add_class_414;
  QPainterPath* tmp_add_class_415;
  QPainterPathStroker* tmp_add_class_416;
  QPalette* tmp_add_class_417;
  QPanGesture* tmp_add_class_418;
  QParallelAnimationGroup* tmp_add_class_419;
  QPartialOrdering* tmp_add_class_420;
  QPauseAnimation* tmp_add_class_421;
  QPdfWriter* tmp_add_class_422;
  QPen* tmp_add_class_423;
  QPersistentModelIndex* tmp_add_class_424;
  QPicture* tmp_add_class_425;
  QPinchGesture* tmp_add_class_426;
  QPixelFormat* tmp_add_class_427;
  QPixmap* tmp_add_class_428;
  QPixmapCache* tmp_add_class_429;
  QPlainTextDocumentLayout* tmp_add_class_430;
  QPlainTextEdit* tmp_add_class_431;
  QPlatformSurfaceEvent* tmp_add_class_432;
  QPluginLoader* tmp_add_class_433;
  QPluginMetaData* tmp_add_class_434;
  QPoint* tmp_add_class_435;
  QPointF* tmp_add_class_436;
  QPointerEvent* tmp_add_class_437;
  QPointingDevice* tmp_add_class_438;
  QPointingDeviceUniqueId* tmp_add_class_439;
  QPolygon* tmp_add_class_440;
  QPolygonF* tmp_add_class_441;
  QPrintDialog* tmp_add_class_442;
  QPrintEngine* tmp_add_class_443;
  QPrintPreviewDialog* tmp_add_class_444;
  QPrintPreviewWidget* tmp_add_class_445;
  QPrinter* tmp_add_class_446;
  QPrinterInfo* tmp_add_class_447;
  QProcess* tmp_add_class_448;
  QProcessEnvironment* tmp_add_class_449;
  QProgressBar* tmp_add_class_450;
  QProgressDialog* tmp_add_class_451;
  QPropertyAnimation* tmp_add_class_452;
  QPropertyBindingError* tmp_add_class_453;
  QPropertyBindingPrivatePtr* tmp_add_class_454;
  QPropertyBindingSourceLocation* tmp_add_class_455;
  QPropertyNotifier* tmp_add_class_456;
  QPropertyObserver* tmp_add_class_457;
  QPropertyObserverBase* tmp_add_class_458;
  QPropertyProxyBindingData* tmp_add_class_459;
  QProxyStyle* tmp_add_class_460;
  QPushButton* tmp_add_class_461;
  QQuaternion* tmp_add_class_462;
  QRadialGradient* tmp_add_class_463;
  QRadioButton* tmp_add_class_464;
  QRandomGenerator* tmp_add_class_465;
  QRandomGenerator64* tmp_add_class_466;
  QRasterWindow* tmp_add_class_467;
  QRawFont* tmp_add_class_468;
  QReadLocker* tmp_add_class_469;
  QReadWriteLock* tmp_add_class_470;
  QRect* tmp_add_class_471;
  QRectF* tmp_add_class_472;
  QRecursiveMutex* tmp_add_class_473;
  QRegion* tmp_add_class_474;
  QRegularExpression* tmp_add_class_475;
  QRegularExpressionMatch* tmp_add_class_476;
  QRegularExpressionMatchIterator* tmp_add_class_477;
  QRegularExpressionValidator* tmp_add_class_478;
  QResizeEvent* tmp_add_class_479;
  QResource* tmp_add_class_480;
  QRgba64* tmp_add_class_481;
  QRubberBand* tmp_add_class_482;
  QRunnable* tmp_add_class_483;
  QSaveFile* tmp_add_class_484;
  QScopedPointerPodDeleter* tmp_add_class_485;
  QScreen* tmp_add_class_486;
  QScreenOrientationChangeEvent* tmp_add_class_487;
  QScrollArea* tmp_add_class_488;
  QScrollBar* tmp_add_class_489;
  QScrollEvent* tmp_add_class_490;
  QScrollPrepareEvent* tmp_add_class_491;
  QScroller* tmp_add_class_492;
  QScrollerProperties* tmp_add_class_493;
  QSemaphore* tmp_add_class_494;
  QSemaphoreReleaser* tmp_add_class_495;
  QSequentialAnimationGroup* tmp_add_class_496;
  QSequentialConstIterator* tmp_add_class_497;
  QSequentialIterable* tmp_add_class_498;
  QSequentialIterator* tmp_add_class_499;
  QSessionManager* tmp_add_class_500;
  QSettings* tmp_add_class_501;
  QSharedData* tmp_add_class_502;
  QSharedMemory* tmp_add_class_503;
  QShortcut* tmp_add_class_504;
  QShortcutEvent* tmp_add_class_505;
  QShowEvent* tmp_add_class_506;
  QSignalBlocker* tmp_add_class_507;
  QSignalMapper* tmp_add_class_508;
  QSinglePointEvent* tmp_add_class_509;
  QSize* tmp_add_class_510;
  QSizeF* tmp_add_class_511;
  QSizeGrip* tmp_add_class_512;
  QSizePolicy* tmp_add_class_513;
  QSlider* tmp_add_class_514;
  QSocketDescriptor* tmp_add_class_515;
  QSocketNotifier* tmp_add_class_516;
  QSortFilterProxyModel* tmp_add_class_517;
  QSpacerItem* tmp_add_class_518;
  QSpinBox* tmp_add_class_519;
  QSplashScreen* tmp_add_class_520;
  QSplitter* tmp_add_class_521;
  QSplitterHandle* tmp_add_class_522;
  QStackedLayout* tmp_add_class_523;
  QStackedWidget* tmp_add_class_524;
  QStandardItem* tmp_add_class_525;
  QStandardItemModel* tmp_add_class_526;
  QStandardPaths* tmp_add_class_527;
  QStaticByteArrayMatcherBase* tmp_add_class_528;
  QStaticPlugin* tmp_add_class_529;
  QStaticText* tmp_add_class_530;
  QStatusBar* tmp_add_class_531;
  QStatusTipEvent* tmp_add_class_532;
  QStorageInfo* tmp_add_class_533;
  QString* tmp_add_class_534;
  QStringConverter* tmp_add_class_535;
  QStringConverterBase* tmp_add_class_536;
  QStringDecoder* tmp_add_class_537;
  QStringEncoder* tmp_add_class_538;
  QStringListModel* tmp_add_class_539;
  QStringMatcher* tmp_add_class_540;
  QStringTokenizerBaseBase* tmp_add_class_541;
  QStringView* tmp_add_class_542;
  QStyle* tmp_add_class_543;
  QStyleFactory* tmp_add_class_544;
  QStyleHintReturn* tmp_add_class_545;
  QStyleHintReturnMask* tmp_add_class_546;
  QStyleHintReturnVariant* tmp_add_class_547;
  QStyleHints* tmp_add_class_548;
  QStyleOption* tmp_add_class_549;
  QStyleOptionButton* tmp_add_class_550;
  QStyleOptionComboBox* tmp_add_class_551;
  QStyleOptionComplex* tmp_add_class_552;
  QStyleOptionDockWidget* tmp_add_class_553;
  QStyleOptionFocusRect* tmp_add_class_554;
  QStyleOptionFrame* tmp_add_class_555;
  QStyleOptionGraphicsItem* tmp_add_class_556;
  QStyleOptionGroupBox* tmp_add_class_557;
  QStyleOptionHeader* tmp_add_class_558;
  QStyleOptionHeaderV2* tmp_add_class_559;
  QStyleOptionMenuItem* tmp_add_class_560;
  QStyleOptionProgressBar* tmp_add_class_561;
  QStyleOptionRubberBand* tmp_add_class_562;
  QStyleOptionSizeGrip* tmp_add_class_563;
  QStyleOptionSlider* tmp_add_class_564;
  QStyleOptionSpinBox* tmp_add_class_565;
  QStyleOptionTab* tmp_add_class_566;
  QStyleOptionTabBarBase* tmp_add_class_567;
  QStyleOptionTabWidgetFrame* tmp_add_class_568;
  QStyleOptionTitleBar* tmp_add_class_569;
  QStyleOptionToolBar* tmp_add_class_570;
  QStyleOptionToolBox* tmp_add_class_571;
  QStyleOptionToolButton* tmp_add_class_572;
  QStyleOptionViewItem* tmp_add_class_573;
  QStylePainter* tmp_add_class_574;
  QStylePlugin* tmp_add_class_575;
  QStyledItemDelegate* tmp_add_class_576;
  QSurface* tmp_add_class_577;
  QSurfaceFormat* tmp_add_class_578;
  QSwipeGesture* tmp_add_class_579;
  QSyntaxHighlighter* tmp_add_class_580;
  QSysInfo* tmp_add_class_581;
  QSystemSemaphore* tmp_add_class_582;
  QSystemTrayIcon* tmp_add_class_583;
  QTabBar* tmp_add_class_584;
  QTabWidget* tmp_add_class_585;
  QTableView* tmp_add_class_586;
  QTableWidget* tmp_add_class_587;
  QTableWidgetItem* tmp_add_class_588;
  QTableWidgetSelectionRange* tmp_add_class_589;
  QTabletEvent* tmp_add_class_590;
  QTapAndHoldGesture* tmp_add_class_591;
  QTapGesture* tmp_add_class_592;
  QTemporaryDir* tmp_add_class_593;
  QTemporaryFile* tmp_add_class_594;
  QTextBlock* tmp_add_class_595;
  QTextBlockFormat* tmp_add_class_596;
  QTextBlockGroup* tmp_add_class_597;
  QTextBlockUserData* tmp_add_class_598;
  QTextBoundaryFinder* tmp_add_class_599;
  QTextBrowser* tmp_add_class_600;
  QTextCharFormat* tmp_add_class_601;
  QTextCursor* tmp_add_class_602;
  QTextDocument* tmp_add_class_603;
  QTextDocumentFragment* tmp_add_class_604;
  QTextDocumentWriter* tmp_add_class_605;
  QTextEdit* tmp_add_class_606;
  QTextFormat* tmp_add_class_607;
  QTextFragment* tmp_add_class_608;
  QTextFrame* tmp_add_class_609;
  QTextFrameFormat* tmp_add_class_610;
  QTextFrameLayoutData* tmp_add_class_611;
  QTextImageFormat* tmp_add_class_612;
  QTextInlineObject* tmp_add_class_613;
  QTextItem* tmp_add_class_614;
  QTextLayout* tmp_add_class_615;
  QTextLength* tmp_add_class_616;
  QTextLine* tmp_add_class_617;
  QTextList* tmp_add_class_618;
  QTextListFormat* tmp_add_class_619;
  QTextObject* tmp_add_class_620;
  QTextObjectInterface* tmp_add_class_621;
  QTextOption* tmp_add_class_622;
  QTextStream* tmp_add_class_623;
  QTextStreamManipulator* tmp_add_class_624;
  QTextTable* tmp_add_class_625;
  QTextTableCell* tmp_add_class_626;
  QTextTableCellFormat* tmp_add_class_627;
  QTextTableFormat* tmp_add_class_628;
  QThread* tmp_add_class_629;
  QThreadPool* tmp_add_class_630;
  QThreadStorageData* tmp_add_class_631;
  QTileRules* tmp_add_class_632;
  QTime* tmp_add_class_633;
  QTimeEdit* tmp_add_class_634;
  QTimeLine* tmp_add_class_635;
  QTimeZone* tmp_add_class_636;
  QTimer* tmp_add_class_637;
  QTimerEvent* tmp_add_class_638;
  QToolBar* tmp_add_class_639;
  QToolBarChangeEvent* tmp_add_class_640;
  QToolBox* tmp_add_class_641;
  QToolButton* tmp_add_class_642;
  QToolTip* tmp_add_class_643;
  QTouchEvent* tmp_add_class_644;
  QTransform* tmp_add_class_645;
  QTranslator* tmp_add_class_646;
  QTransposeProxyModel* tmp_add_class_647;
  QTreeView* tmp_add_class_648;
  QTreeWidget* tmp_add_class_649;
  QTreeWidgetItem* tmp_add_class_650;
  QTreeWidgetItemIterator* tmp_add_class_651;
  QTypeRevision* tmp_add_class_652;
  QUndoCommand* tmp_add_class_653;
  QUndoGroup* tmp_add_class_654;
  QUndoStack* tmp_add_class_655;
  QUndoView* tmp_add_class_656;
  QUnhandledException* tmp_add_class_657;
  QUntypedBindable* tmp_add_class_658;
  QUntypedPropertyBinding* tmp_add_class_659;
  QUntypedPropertyData* tmp_add_class_660;
  QUrl* tmp_add_class_661;
  QUrlQuery* tmp_add_class_662;
  QUuid* tmp_add_class_663;
  QVBoxLayout* tmp_add_class_664;
  QVLABaseBase* tmp_add_class_665;
  QValidator* tmp_add_class_666;
  QVariant* tmp_add_class_667;
  QVariantAnimation* tmp_add_class_668;
  QVariantConstPointer* tmp_add_class_669;
  QVector2D* tmp_add_class_670;
  QVector3D* tmp_add_class_671;
  QVector4D* tmp_add_class_672;
  QVersionNumber* tmp_add_class_673;
  QWaitCondition* tmp_add_class_674;
  QWhatsThis* tmp_add_class_675;
  QWhatsThisClickedEvent* tmp_add_class_676;
  QWheelEvent* tmp_add_class_677;
  QWidget* tmp_add_class_678;
  QWidgetAction* tmp_add_class_679;
  QWidgetData* tmp_add_class_680;
  QWidgetItem* tmp_add_class_681;
  QWidgetItemV2* tmp_add_class_682;
  QWindow* tmp_add_class_683;
  QWindowStateChangeEvent* tmp_add_class_684;
  QWizard* tmp_add_class_685;
  QWizardPage* tmp_add_class_686;
  QWriteLocker* tmp_add_class_687;
  QXmlStreamAttribute* tmp_add_class_688;
  QXmlStreamAttributes* tmp_add_class_689;
  QXmlStreamEntityDeclaration* tmp_add_class_690;
  QXmlStreamEntityResolver* tmp_add_class_691;
  QXmlStreamNamespaceDeclaration* tmp_add_class_692;
  QXmlStreamNotationDeclaration* tmp_add_class_693;
  QXmlStreamReader* tmp_add_class_694;
  QXmlStreamWriter* tmp_add_class_695;
  _G_fpos64_t* tmp_add_class_696;
  _G_fpos_t* tmp_add_class_697;
  _IO_cookie_io_functions_t* tmp_add_class_698;
  qfloat16* tmp_add_class_699;

The GCC parameters:
  gcc -fdump-lang-raw -fkeep-inline-functions -c -x c++ -fpermissive -w "/tmp/rQPWyPdSZA/dump1.h"  -I/usr/include/arm-linux-gnueabihf/qt6 -I/usr/include/arm-linux-gnueabihf/qt5 -I/usr/include/arm-linux-gnueabihf/qt6/QtOpenGL -I/usr/include/arm-linux-gnueabihf/qt6/QtCore

