[2024-02-21T00:02:20+00:00] apt-get install libmozjs-102-dev libchardet-dev libnspr4-dev abi-compliance-checker
Reading package lists...
Building dependency tree...
Reading state information...
abi-compliance-checker is already the newest version (2.3-2).
The following packages were automatically installed and are no longer required:
  libmorph libmorph-dev
Use 'apt autoremove' to remove them.
The following additional packages will be installed:
  libchardet1 libmozjs-102-0 libnspr4
The following NEW packages will be installed:
  libchardet-dev libchardet1 libmozjs-102-0 libmozjs-102-dev libnspr4
  libnspr4-dev
0 upgraded, 6 newly installed, 0 to remove and 33 not upgraded.
Need to get 16.5 MB of archives.
After this operation, 61.2 MB of additional disk space will be used.
Get:1 http://deb.debian.org/debian unstable/main armhf libchardet1 armhf 1.0.4-1+b11 [59.3 kB]
Get:2 http://deb.debian.org/debian unstable/main armhf libchardet-dev armhf 1.0.4-1+b11 [73.7 kB]
Get:3 http://deb.debian.org/debian unstable/main armhf libmozjs-102-0 armhf 102.15.1-1 [7127 kB]
Get:4 http://deb.debian.org/debian unstable/main armhf libmozjs-102-dev armhf 102.15.1-1 [9015 kB]
Get:5 http://deb.debian.org/debian unstable/main armhf libnspr4 armhf 2:4.35-1.1 [86.2 kB]
Get:6 http://deb.debian.org/debian unstable/main armhf libnspr4-dev armhf 2:4.35-1.1 [187 kB]
debconf: delaying package configuration, since apt-utils is not installed
Fetched 16.5 MB in 1s (32.1 MB/s)
Selecting previously unselected package libchardet1:armhf.
(Reading database ... (Reading database ... 5%(Reading database ... 10%(Reading database ... 15%(Reading database ... 20%(Reading database ... 25%(Reading database ... 30%(Reading database ... 35%(Reading database ... 40%(Reading database ... 45%(Reading database ... 50%(Reading database ... 55%(Reading database ... 60%(Reading database ... 65%(Reading database ... 70%(Reading database ... 75%(Reading database ... 80%(Reading database ... 85%(Reading database ... 90%(Reading database ... 95%(Reading database ... 100%(Reading database ... 18100 files and directories currently installed.)
Preparing to unpack .../0-libchardet1_1.0.4-1+b11_armhf.deb ...
Unpacking libchardet1:armhf (1.0.4-1+b11) ...
Selecting previously unselected package libchardet-dev:armhf.
Preparing to unpack .../1-libchardet-dev_1.0.4-1+b11_armhf.deb ...
Unpacking libchardet-dev:armhf (1.0.4-1+b11) ...
Selecting previously unselected package libmozjs-102-0:armhf.
Preparing to unpack .../2-libmozjs-102-0_102.15.1-1_armhf.deb ...
Unpacking libmozjs-102-0:armhf (102.15.1-1) ...
Selecting previously unselected package libmozjs-102-dev.
Preparing to unpack .../3-libmozjs-102-dev_102.15.1-1_armhf.deb ...
Unpacking libmozjs-102-dev (102.15.1-1) ...
Selecting previously unselected package libnspr4:armhf.
Preparing to unpack .../4-libnspr4_2%3a4.35-1.1_armhf.deb ...
Unpacking libnspr4:armhf (2:4.35-1.1) ...
Selecting previously unselected package libnspr4-dev.
Preparing to unpack .../5-libnspr4-dev_2%3a4.35-1.1_armhf.deb ...
Unpacking libnspr4-dev (2:4.35-1.1) ...
Setting up libchardet1:armhf (1.0.4-1+b11) ...
Setting up libnspr4:armhf (2:4.35-1.1) ...
Setting up libmozjs-102-0:armhf (102.15.1-1) ...
Setting up libchardet-dev:armhf (1.0.4-1+b11) ...
Setting up libmozjs-102-dev (102.15.1-1) ...
Setting up libnspr4-dev (2:4.35-1.1) ...
Processing triggers for libc-bin (2.37-15) ...
Reading package lists...
Building dependency tree...
Reading state information...
The following packages will be REMOVED:
  libmorph* libmorph-dev*
0 upgraded, 0 newly installed, 2 to remove and 33 not upgraded.
After this operation, 368 kB disk space will be freed.
(Reading database ... (Reading database ... 5%(Reading database ... 10%(Reading database ... 15%(Reading database ... 20%(Reading database ... 25%(Reading database ... 30%(Reading database ... 35%(Reading database ... 40%(Reading database ... 45%(Reading database ... 50%(Reading database ... 55%(Reading database ... 60%(Reading database ... 65%(Reading database ... 70%(Reading database ... 75%(Reading database ... 80%(Reading database ... 85%(Reading database ... 90%(Reading database ... 95%(Reading database ... 100%(Reading database ... 18787 files and directories currently installed.)
Removing libmorph-dev (1:20150712-4) ...
Removing libmorph (1:20150712-4) ...
Processing triggers for libc-bin (2.37-15) ...
