Temporary header file '/tmp/k5G1xnxltO/dump1.h' with the following content will be compiled to create GCC translation unit dump:

  // add defines
  #define __STDC_VERSION__ 201710L
#define _TIME_BITS 64
#define _FILE_OFFSET_BITS 64
#define _GXX_NULLPTR_T
#define CLUTTER_ENABLE_COMPOSITOR_API 1
#define _REGEX_NELTS(n)
#define _Atomic
#define PACKED
#ifdef __cplusplus
// C17 compat layer
#define _Alignof(type) alignof(type)
#endif
#define getaddrinfo_a(a,b,c,d)

  // add includes
  #include "/usr/include/rostest/permuter.h"

  // add namespaces
  namespace boost{typedef int tmp_add_type_1;}
  boost::tmp_add_type_1 tmp_add_func_1(){return 0;};
  namespace boost{namespace chrono{typedef int tmp_add_type_2;}}
  boost::chrono::tmp_add_type_2 tmp_add_func_2(){return 0;};
  namespace boost{namespace chrono{namespace detail{typedef int tmp_add_type_3;}}}
  boost::chrono::detail::tmp_add_type_3 tmp_add_func_3(){return 0;};
  namespace boost{namespace core{typedef int tmp_add_type_4;}}
  boost::core::tmp_add_type_4 tmp_add_func_4(){return 0;};
  namespace boost{namespace CV{typedef int tmp_add_type_5;}}
  boost::CV::tmp_add_type_5 tmp_add_func_5(){return 0;};
  namespace boost{namespace detail{typedef int tmp_add_type_6;}}
  boost::detail::tmp_add_type_6 tmp_add_func_6(){return 0;};
  namespace boost{namespace gregorian{typedef int tmp_add_type_7;}}
  boost::gregorian::tmp_add_type_7 tmp_add_func_7(){return 0;};
  namespace boost{namespace movelib{typedef int tmp_add_type_8;}}
  boost::movelib::tmp_add_type_8 tmp_add_func_8(){return 0;};
  namespace boost{namespace mpl{typedef int tmp_add_type_9;}}
  boost::mpl::tmp_add_type_9 tmp_add_func_9(){return 0;};
  namespace boost{namespace mpl{namespace aux{typedef int tmp_add_type_10;}}}
  boost::mpl::aux::tmp_add_type_10 tmp_add_func_10(){return 0;};
  namespace boost{namespace numeric{typedef int tmp_add_type_11;}}
  boost::numeric::tmp_add_type_11 tmp_add_func_11(){return 0;};
  namespace boost{namespace numeric{namespace boundsdetail{typedef int tmp_add_type_12;}}}
  boost::numeric::boundsdetail::tmp_add_type_12 tmp_add_func_12(){return 0;};
  namespace boost{namespace numeric{namespace convdetail{typedef int tmp_add_type_13;}}}
  boost::numeric::convdetail::tmp_add_type_13 tmp_add_func_13(){return 0;};
  namespace boost{namespace posix{typedef int tmp_add_type_14;}}
  boost::posix::tmp_add_type_14 tmp_add_func_14(){return 0;};
  namespace boost{namespace pthread{typedef int tmp_add_type_15;}}
  boost::pthread::tmp_add_type_15 tmp_add_func_15(){return 0;};
  namespace boost{namespace sync{typedef int tmp_add_type_16;}}
  boost::sync::tmp_add_type_16 tmp_add_func_16(){return 0;};
  namespace boost{namespace sync{namespace detail{typedef int tmp_add_type_17;}}}
  boost::sync::detail::tmp_add_type_17 tmp_add_func_17(){return 0;};
  namespace boost{namespace system{typedef int tmp_add_type_18;}}
  boost::system::tmp_add_type_18 tmp_add_func_18(){return 0;};
  namespace boost{namespace system{namespace detail{typedef int tmp_add_type_19;}}}
  boost::system::detail::tmp_add_type_19 tmp_add_func_19(){return 0;};
  namespace boost{namespace system{namespace errc{typedef int tmp_add_type_20;}}}
  boost::system::errc::tmp_add_type_20 tmp_add_func_20(){return 0;};
  namespace rostest{typedef int tmp_add_type_21;}
  rostest::tmp_add_type_21 tmp_add_func_21(){return 0;};
  namespace boost{namespace chrono{namespace chrono_detail{typedef int tmp_add_type_22;}}}
  boost::chrono::chrono_detail::tmp_add_type_22 tmp_add_func_22(){return 0;};
  namespace boost{namespace date_time{typedef int tmp_add_type_23;}}
  boost::date_time::tmp_add_type_23 tmp_add_func_23(){return 0;};
  namespace boost{namespace exception_detail{typedef int tmp_add_type_24;}}
  boost::exception_detail::tmp_add_type_24 tmp_add_func_24(){return 0;};
  namespace boost{namespace move_detail{typedef int tmp_add_type_25;}}
  boost::move_detail::tmp_add_type_25 tmp_add_func_25(){return 0;};
  namespace boost{namespace operators_impl{typedef int tmp_add_type_26;}}
  boost::operators_impl::tmp_add_type_26 tmp_add_func_26(){return 0;};
  namespace boost{namespace operators_impl{namespace operators_detail{typedef int tmp_add_type_27;}}}
  boost::operators_impl::operators_detail::tmp_add_type_27 tmp_add_func_27(){return 0;};
  namespace boost{namespace posix_time{typedef int tmp_add_type_28;}}
  boost::posix_time::tmp_add_type_28 tmp_add_func_28(){return 0;};
  namespace boost{namespace ratio_detail{typedef int tmp_add_type_29;}}
  boost::ratio_detail::tmp_add_type_29 tmp_add_func_29(){return 0;};
  namespace boost{namespace thread_detail{typedef int tmp_add_type_30;}}
  boost::thread_detail::tmp_add_type_30 tmp_add_func_30(){return 0;};
  namespace boost{namespace type_traits{typedef int tmp_add_type_31;}}
  boost::type_traits::tmp_add_type_31 tmp_add_func_31(){return 0;};
  namespace boost{namespace type_traits_detail{typedef int tmp_add_type_32;}}
  boost::type_traits_detail::tmp_add_type_32 tmp_add_func_32(){return 0;};
  namespace mpl_{typedef int tmp_add_type_33;}
  mpl_::tmp_add_type_33 tmp_add_func_33(){return 0;};
  namespace mpl_{namespace aux{typedef int tmp_add_type_34;}}
  mpl_::aux::tmp_add_type_34 tmp_add_func_34(){return 0;};

  // add classes
  _G_fpos64_t* tmp_add_class_0;
  _G_fpos_t* tmp_add_class_1;
  _IO_cookie_io_functions_t* tmp_add_class_2;
  itimerval* tmp_add_class_3;

The GCC parameters:
  gcc -fdump-lang-raw -fkeep-inline-functions -c -x c++ -fpermissive -w "/tmp/k5G1xnxltO/dump1.h"

