Using GCC 13 (arm-linux-gnueabihf, target: arm)
WARNING: May not work properly with GCC 4.8.[0-2], 6.* and higher due to bug #78040 in GCC. Please try other GCC versions with the help of --gcc-path=PATH option or create ABI dumps by ABI Dumper tool instead to avoid using GCC. Test selected GCC version first by -test option.
Checking header(s) base ...
Temporary header file '/tmp/P7uddBEVaG/dump1.h' with the following content will be compiled to create GCC translation unit dump:

  // add defines
  #define __STDC_VERSION__ 201710L
#define _GXX_NULLPTR_T
#define CLUTTER_ENABLE_COMPOSITOR_API 1
#define _REGEX_NELTS(n)
#define _Atomic
#define PACKED
#ifdef __cplusplus
// C17 compat layer
#define _Alignof(type) alignof(type)
#endif
#define getaddrinfo_a(a,b,c,d)

  // add includes
  #include "/usr/include/mirplatform/mir/console_services.h"
  #include "/usr/include/mirplatform/mir/emergency_cleanup_registry.h"
  #include "/usr/include/mirplatform/mir/graphics/buffer.h"
  #include "/usr/include/mirplatform/mir/graphics/buffer_basic.h"
  #include "/usr/include/mirplatform/mir/graphics/buffer_id.h"
  #include "/usr/include/mirplatform/mir/graphics/buffer_properties.h"
  #include "/usr/include/mirplatform/mir/graphics/cursor.h"
  #include "/usr/include/mirplatform/mir/graphics/cursor_image.h"
  #include "/usr/include/mirplatform/mir/graphics/display.h"
  #include "/usr/include/mirplatform/mir/graphics/display_buffer.h"
  #include "/usr/include/mirplatform/mir/graphics/display_configuration.h"
  #include "/usr/include/mirplatform/mir/graphics/display_configuration_policy.h"
  #include "/usr/include/mirplatform/mir/graphics/display_report.h"
  #include "/usr/include/mirplatform/mir/graphics/dmabuf_buffer.h"
  #include "/usr/include/mirplatform/mir/graphics/drm_formats.h"
  #include "/usr/include/mirplatform/mir/graphics/egl_context_executor.h"
  #include "/usr/include/mirplatform/mir/graphics/egl_error.h"
  #include "/usr/include/mirplatform/mir/graphics/egl_extensions.h"
  #include "/usr/include/mirplatform/mir/graphics/egl_logger.h"
  #include "/usr/include/mirplatform/mir/graphics/egl_resources.h"
  #include "/usr/include/mirplatform/mir/graphics/egl_wayland_allocator.h"
  #include "/usr/include/mirplatform/mir/graphics/event_handler_register.h"
  #include "/usr/include/mirplatform/mir/graphics/frame.h"
  #include "/usr/include/mirplatform/mir/graphics/gamma_curves.h"
  #include "/usr/include/mirplatform/mir/graphics/gl_config.h"
  #include "/usr/include/mirplatform/mir/graphics/gl_format.h"
  #include "/usr/include/mirplatform/mir/graphics/graphic_buffer_allocator.h"
  #include "/usr/include/mirplatform/mir/graphics/linux_dmabuf.h"
  #include "/usr/include/mirplatform/mir/graphics/platform.h"
  #include "/usr/include/mirplatform/mir/graphics/program.h"
  #include "/usr/include/mirplatform/mir/graphics/program_factory.h"
  #include "/usr/include/mirplatform/mir/graphics/renderable.h"
  #include "/usr/include/mirplatform/mir/graphics/texture.h"
  #include "/usr/include/mirplatform/mir/graphics/transformation.h"
  #include "/usr/include/mirplatform/mir/input/event_builder.h"
  #include "/usr/include/mirplatform/mir/input/input_device.h"
  #include "/usr/include/mirplatform/mir/input/input_device_info.h"
  #include "/usr/include/mirplatform/mir/input/input_device_registry.h"
  #include "/usr/include/mirplatform/mir/input/input_report.h"
  #include "/usr/include/mirplatform/mir/input/input_sink.h"
  #include "/usr/include/mirplatform/mir/input/platform.h"
  #include "/usr/include/mirplatform/mir/input/pointer_settings.h"
  #include "/usr/include/mirplatform/mir/input/touchpad_settings.h"
  #include "/usr/include/mirplatform/mir/input/touchscreen_settings.h"
  #include "/usr/include/mirplatform/mir/module_properties.h"
  #include "/usr/include/mirplatform/mir/options/configuration.h"
  #include "/usr/include/mirplatform/mir/options/option.h"
  #include "/usr/include/mirplatform/mir/options/program_option.h"
  #include "/usr/include/mirplatform/mir/renderer/sw/pixel_source.h"

  // add namespaces
  namespace boost{typedef int tmp_add_type_1;}
  boost::tmp_add_type_1 tmp_add_func_1(){return 0;};
  namespace boost{namespace detail{typedef int tmp_add_type_2;}}
  boost::detail::tmp_add_type_2 tmp_add_func_2(){return 0;};
  namespace glm{typedef int tmp_add_type_3;}
  glm::tmp_add_type_3 tmp_add_func_3(){return 0;};
  namespace glm{namespace detail{typedef int tmp_add_type_4;}}
  glm::detail::tmp_add_type_4 tmp_add_func_4(){return 0;};
  namespace mir{typedef int tmp_add_type_5;}
  mir::tmp_add_type_5 tmp_add_func_5(){return 0;};
  namespace mir{namespace detail{typedef int tmp_add_type_6;}}
  mir::detail::tmp_add_type_6 tmp_add_func_6(){return 0;};
  namespace mir{namespace geometry{typedef int tmp_add_type_7;}}
  mir::geometry::tmp_add_type_7 tmp_add_func_7(){return 0;};
  namespace mir{namespace geometry{namespace generic{typedef int tmp_add_type_8;}}}
  mir::geometry::generic::tmp_add_type_8 tmp_add_func_8(){return 0;};
  namespace mir{namespace graphics{typedef int tmp_add_type_9;}}
  mir::graphics::tmp_add_type_9 tmp_add_func_9(){return 0;};
  namespace mir{namespace graphics{namespace common{typedef int tmp_add_type_10;}}}
  mir::graphics::common::tmp_add_type_10 tmp_add_func_10(){return 0;};
  namespace mir{namespace graphics{namespace detail{typedef int tmp_add_type_11;}}}
  mir::graphics::detail::tmp_add_type_11 tmp_add_func_11(){return 0;};
  namespace mir{namespace graphics{namespace wayland{typedef int tmp_add_type_12;}}}
  mir::graphics::wayland::tmp_add_type_12 tmp_add_func_12(){return 0;};
  namespace mir{namespace logging{typedef int tmp_add_type_13;}}
  mir::logging::tmp_add_type_13 tmp_add_func_13(){return 0;};
  namespace mir{namespace renderer{typedef int tmp_add_type_14;}}
  mir::renderer::tmp_add_type_14 tmp_add_func_14(){return 0;};
  namespace mir{namespace renderer{namespace gl{typedef int tmp_add_type_15;}}}
  mir::renderer::gl::tmp_add_type_15 tmp_add_func_15(){return 0;};
  namespace mir{namespace renderer{namespace software{typedef int tmp_add_type_16;}}}
  mir::renderer::software::tmp_add_type_16 tmp_add_func_16(){return 0;};
  namespace mir{namespace time{typedef int tmp_add_type_17;}}
  mir::time::tmp_add_type_17 tmp_add_func_17(){return 0;};
  namespace boost{namespace exception_detail{typedef int tmp_add_type_18;}}
  boost::exception_detail::tmp_add_type_18 tmp_add_func_18(){return 0;};
  namespace mir{namespace __anonac5c5db15d11{typedef int tmp_add_type_19;}}
  mir::__anonac5c5db15d11::tmp_add_type_19 tmp_add_func_19(){return 0;};

The GCC parameters:
  gcc -fdump-lang-raw -fkeep-inline-functions -c -x c++ -fpermissive -w "/tmp/P7uddBEVaG/dump1.h"  -I/usr/include/mirrenderer -I/usr/include/mirplatform -I/usr/include/mircore -I/usr/include/mircommon

In file included from /tmp/P7uddBEVaG/dump1.h:43:
/usr/include/mirplatform/mir/graphics/linux_dmabuf.h:21:10: fatal error: linux-dmabuf-unstable-v1_wrapper.h: No such file or directory
   21 | #include "linux-dmabuf-unstable-v1_wrapper.h"
      |          ^~~~~~~~~~~~~~~~~~~~~~~~~~~~~~~~~~~~
compilation terminated.
ERROR: some errors occurred when compiling headers
ERROR: see log for details:
  /home/adrien/armhf-time_t/out/logs/libmirplatform-dev/base/abi-compliance-checker.log


ERROR: can't compile header(s)
