Temporary header file '/tmp/HFJVyAQyek/dump1.h' with the following content will be compiled to create GCC translation unit dump:

  // add defines
  #define __STDC_VERSION__ 201710L
#define _FILE_OFFSET_BITS 64
#define _GXX_NULLPTR_T
#define CLUTTER_ENABLE_COMPOSITOR_API 1
#define _REGEX_NELTS(n)
#define _Atomic
#define PACKED
#ifdef __cplusplus
// C17 compat layer
#define _Alignof(type) alignof(type)
#endif
#define getaddrinfo_a(a,b,c,d)

  // add includes
  #include "/usr/include/cleri/choice.h"
  #include "/usr/include/cleri/cleri.h"
  #include "/usr/include/cleri/dup.h"
  #include "/usr/include/cleri/expecting.h"
  #include "/usr/include/cleri/grammar.h"
  #include "/usr/include/cleri/keyword.h"
  #include "/usr/include/cleri/kwcache.h"
  #include "/usr/include/cleri/list.h"
  #include "/usr/include/cleri/node.h"
  #include "/usr/include/cleri/olist.h"
  #include "/usr/include/cleri/optional.h"
  #include "/usr/include/cleri/parse.h"
  #include "/usr/include/cleri/prio.h"
  #include "/usr/include/cleri/ref.h"
  #include "/usr/include/cleri/regex.h"
  #include "/usr/include/cleri/repeat.h"
  #include "/usr/include/cleri/rule.h"
  #include "/usr/include/cleri/sequence.h"
  #include "/usr/include/cleri/this.h"
  #include "/usr/include/cleri/token.h"
  #include "/usr/include/cleri/tokens.h"
  #include "/usr/include/cleri/version.h"

  // add classes
  cleri_choice_s* tmp_add_class_0;
  cleri_dup_s* tmp_add_class_1;
  cleri_exp_modes_s* tmp_add_class_2;
  cleri_expecting_s* tmp_add_class_3;
  cleri_grammar_s* tmp_add_class_4;
  cleri_keyword_s* tmp_add_class_5;
  cleri_list_s* tmp_add_class_6;
  cleri_node_s* tmp_add_class_7;
  cleri_olist_s* tmp_add_class_8;
  cleri_optional_s* tmp_add_class_9;
  cleri_parse_s* tmp_add_class_10;
  cleri_prio_s* tmp_add_class_11;
  cleri_regex_s* tmp_add_class_12;
  cleri_repeat_s* tmp_add_class_13;
  cleri_rule_s* tmp_add_class_14;
  cleri_rule_store_s* tmp_add_class_15;
  cleri_rule_tested_s* tmp_add_class_16;
  cleri_s* tmp_add_class_17;
  cleri_sequence_s* tmp_add_class_18;
  cleri_tlist_s* tmp_add_class_19;
  cleri_token_s* tmp_add_class_20;
  cleri_tokens_s* tmp_add_class_21;
  cleri_u* tmp_add_class_22;
  pcre2_callout_block_16* tmp_add_class_23;
  pcre2_callout_block_32* tmp_add_class_24;
  pcre2_callout_block_8* tmp_add_class_25;
  pcre2_callout_enumerate_block_16* tmp_add_class_26;
  pcre2_callout_enumerate_block_32* tmp_add_class_27;
  pcre2_callout_enumerate_block_8* tmp_add_class_28;
  pcre2_substitute_callout_block_16* tmp_add_class_29;
  pcre2_substitute_callout_block_32* tmp_add_class_30;
  pcre2_substitute_callout_block_8* tmp_add_class_31;

The GCC parameters:
  gcc -fdump-lang-raw -fkeep-inline-functions -c -x c++ -fpermissive -w "/tmp/HFJVyAQyek/dump1.h"

