[2024-01-07T12:25:38+00:00] apt-get install libinhomog-dev libgsl-dev abi-compliance-checker
Reading package lists...
Building dependency tree...
Reading state information...
abi-compliance-checker is already the newest version (2.3-2).
The following packages were automatically installed and are no longer required:
  adwaita-icon-theme at-spi2-common dconf-gsettings-backend dconf-service
  fontconfig fontconfig-config fonts-dejavu-core fonts-dejavu-mono
  gir1.2-atk-1.0 gir1.2-atspi-2.0 gir1.2-cloudproviders-0.3.0
  gir1.2-freedesktop gir1.2-gdkpixbuf-2.0 gir1.2-glib-2.0 gir1.2-gtk-3.0
  gir1.2-harfbuzz-0.0 gir1.2-infinity-0.7 gir1.2-pango-1.0
  gtk-update-icon-cache hicolor-icon-theme icu-devtools libatk-bridge2.0-0
  libatk-bridge2.0-dev libatk1.0-0 libatk1.0-dev libatspi2.0-0 libatspi2.0-dev
  libavahi-client3 libavahi-common-data libavahi-common3 libblkid-dev
  libbrotli-dev libbrotli1 libbz2-dev libcairo-gobject2
  libcairo-script-interpreter2 libcairo2 libcairo2-dev libcloudproviders-dev
  libcloudproviders0 libcolord2 libcups2 libdaemon0 libdatrie-dev libdatrie1
  libdbus-1-dev libdconf1 libdeflate-dev libdeflate0 libdrm-amdgpu1
  libdrm-common libdrm-nouveau2 libdrm-radeon1 libdrm2 libedit2 libegl-dev
  libegl-mesa0 libegl1 libegl1-mesa-dev libepoxy-dev libepoxy0 libevent-2.1-7
  libexpat1-dev libffi-dev libfontconfig-dev libfontconfig1 libfreetype-dev
  libfreetype6 libfribidi-dev libfribidi0 libgbm1 libgdk-pixbuf-2.0-0
  libgdk-pixbuf-2.0-dev libgdk-pixbuf2.0-bin libgdk-pixbuf2.0-common
  libgirepository-1.0-1 libgl-dev libgl1 libgl1-mesa-dri libglapi-mesa
  libgles-dev libgles1 libgles2 libglib2.0-0 libglib2.0-bin libglib2.0-data
  libglib2.0-dev libglib2.0-dev-bin libglvnd-core-dev libglvnd-dev libglvnd0
  libglx-dev libglx-mesa0 libglx0 libgmp-dev libgmpxx4ldbl libgnutls-dane0
  libgnutls-openssl27 libgnutls28-dev libgraphite2-3 libgraphite2-dev
  libgsasl-dev libgsasl18 libgssglue-dev libgssglue1 libgtk-3-0
  libgtk-3-common libgtk-3-dev libharfbuzz-cairo0 libharfbuzz-dev
  libharfbuzz-gobject0 libharfbuzz-icu0 libharfbuzz-subset0 libharfbuzz0b
  libice-dev libice6 libicu-dev libidn-dev libidn12 libidn2-dev
  libinfgtk-0.7-0 libinfinity-0.7-0 libinfinity-0.7-dev libjbig-dev libjbig0
  libjpeg-dev libjpeg62-turbo libjpeg62-turbo-dev liblcms2-2 liblerc-dev
  liblerc4 libllvm17 liblzma-dev liblzo2-2 libmount-dev libntlm0 libntlm0-dev
  libopengl-dev libopengl0 libp11-kit-dev libpango-1.0-0 libpango1.0-dev
  libpangocairo-1.0-0 libpangoft2-1.0-0 libpangoxft-1.0-0 libpcre2-16-0
  libpcre2-32-0 libpcre2-dev libpcre2-posix3 libpixman-1-0 libpixman-1-dev
  libpkgconf3 libpng-dev libpng16-16 libpthread-stubs0-dev libselinux1-dev
  libsensors-config libsensors5 libsepol-dev libsharpyuv-dev libsharpyuv0
  libsm-dev libsm6 libtasn1-6-dev libthai-data libthai-dev libthai0
  libtiff-dev libtiff6 libtiffxx6 libunbound8 libvulkan1 libwayland-bin
  libwayland-client0 libwayland-cursor0 libwayland-dev libwayland-egl1
  libwayland-server0 libwebp-dev libwebp7 libwebpdecoder3 libwebpdemux2
  libwebpmux3 libx11-6 libx11-data libx11-dev libx11-xcb1 libxau-dev libxau6
  libxcb-dri2-0 libxcb-dri3-0 libxcb-glx0 libxcb-present0 libxcb-randr0
  libxcb-render0 libxcb-render0-dev libxcb-shm0 libxcb-shm0-dev libxcb-sync1
  libxcb-xfixes0 libxcb1 libxcb1-dev libxcomposite-dev libxcomposite1
  libxcursor-dev libxcursor1 libxdamage-dev libxdamage1 libxdmcp-dev libxdmcp6
  libxext-dev libxext6 libxfixes-dev libxfixes3 libxft-dev libxft2 libxi-dev
  libxi6 libxinerama-dev libxinerama1 libxkbcommon-dev libxkbcommon0
  libxml2-dev libxrandr-dev libxrandr2 libxrender-dev libxrender1
  libxshmfence1 libxtst-dev libxtst6 libxxf86vm1 libz3-4 libzstd-dev
  nettle-dev pango1.0-tools pkg-config pkgconf pkgconf-bin python3-distutils
  python3-lib2to3 sgml-base shared-mime-info uuid-dev wayland-protocols
  x11-common x11proto-dev xkb-data xml-core xorg-sgml-doctools xtrans-dev
  zlib1g-dev
Use 'apt autoremove' to remove them.
The following additional packages will be installed:
  libgsl27 libgslcblas0 libinhomog0
Suggested packages:
  gsl-ref-psdoc | gsl-doc-pdf | gsl-doc-info | gsl-ref-html
The following NEW packages will be installed:
  libgsl-dev libgsl27 libgslcblas0 libinhomog-dev libinhomog0
0 upgraded, 5 newly installed, 0 to remove and 34 not upgraded.
Need to get 1911 kB of archives.
After this operation, 7519 kB of additional disk space will be used.
Get:1 http://deb.debian.org/debian unstable/main armhf libgslcblas0 armhf 2.7.1+dfsg-6 [79.2 kB]
Get:2 http://deb.debian.org/debian unstable/main armhf libgsl27 armhf 2.7.1+dfsg-6 [762 kB]
Get:3 http://deb.debian.org/debian unstable/main armhf libgsl-dev armhf 2.7.1+dfsg-6 [972 kB]
Get:4 http://deb.debian.org/debian unstable/main armhf libinhomog0 armhf 0.1.9.2-1+b3 [42.0 kB]
Get:5 http://deb.debian.org/debian unstable/main armhf libinhomog-dev armhf 0.1.9.2-1+b3 [55.2 kB]
debconf: delaying package configuration, since apt-utils is not installed
Fetched 1911 kB in 1s (3819 kB/s)
Selecting previously unselected package libgslcblas0:armhf.
(Reading database ... (Reading database ... 5%(Reading database ... 10%(Reading database ... 15%(Reading database ... 20%(Reading database ... 25%(Reading database ... 30%(Reading database ... 35%(Reading database ... 40%(Reading database ... 45%(Reading database ... 50%(Reading database ... 55%(Reading database ... 60%(Reading database ... 65%(Reading database ... 70%(Reading database ... 75%(Reading database ... 80%(Reading database ... 85%(Reading database ... 90%(Reading database ... 95%(Reading database ... 100%(Reading database ... 23671 files and directories currently installed.)
Preparing to unpack .../libgslcblas0_2.7.1+dfsg-6_armhf.deb ...
Unpacking libgslcblas0:armhf (2.7.1+dfsg-6) ...
Selecting previously unselected package libgsl27:armhf.
Preparing to unpack .../libgsl27_2.7.1+dfsg-6_armhf.deb ...
Unpacking libgsl27:armhf (2.7.1+dfsg-6) ...
Selecting previously unselected package libgsl-dev.
Preparing to unpack .../libgsl-dev_2.7.1+dfsg-6_armhf.deb ...
Unpacking libgsl-dev (2.7.1+dfsg-6) ...
Selecting previously unselected package libinhomog0.
Preparing to unpack .../libinhomog0_0.1.9.2-1+b3_armhf.deb ...
Unpacking libinhomog0 (0.1.9.2-1+b3) ...
Selecting previously unselected package libinhomog-dev.
Preparing to unpack .../libinhomog-dev_0.1.9.2-1+b3_armhf.deb ...
Unpacking libinhomog-dev (0.1.9.2-1+b3) ...
Setting up libgslcblas0:armhf (2.7.1+dfsg-6) ...
Setting up libgsl27:armhf (2.7.1+dfsg-6) ...
Setting up libinhomog0 (0.1.9.2-1+b3) ...
Setting up libgsl-dev (2.7.1+dfsg-6) ...
Setting up libinhomog-dev (0.1.9.2-1+b3) ...
Processing triggers for libc-bin (2.37-13) ...
Reading package lists...
Building dependency tree...
Reading state information...
The following packages will be REMOVED:
  adwaita-icon-theme* at-spi2-common* dconf-gsettings-backend* dconf-service*
  fontconfig* fontconfig-config* fonts-dejavu-core* fonts-dejavu-mono*
  gir1.2-atk-1.0* gir1.2-atspi-2.0* gir1.2-cloudproviders-0.3.0*
  gir1.2-freedesktop* gir1.2-gdkpixbuf-2.0* gir1.2-glib-2.0* gir1.2-gtk-3.0*
  gir1.2-harfbuzz-0.0* gir1.2-infinity-0.7* gir1.2-pango-1.0*
  gtk-update-icon-cache* hicolor-icon-theme* icu-devtools* libatk-bridge2.0-0*
  libatk-bridge2.0-dev* libatk1.0-0* libatk1.0-dev* libatspi2.0-0*
  libatspi2.0-dev* libavahi-client3* libavahi-common-data* libavahi-common3*
  libblkid-dev* libbrotli-dev* libbrotli1* libbz2-dev* libcairo-gobject2*
  libcairo-script-interpreter2* libcairo2* libcairo2-dev*
  libcloudproviders-dev* libcloudproviders0* libcolord2* libcups2* libdaemon0*
  libdatrie-dev* libdatrie1* libdbus-1-dev* libdconf1* libdeflate-dev*
  libdeflate0* libdrm-amdgpu1* libdrm-common* libdrm-nouveau2* libdrm-radeon1*
  libdrm2* libedit2* libegl-dev* libegl-mesa0* libegl1* libegl1-mesa-dev*
  libepoxy-dev* libepoxy0* libevent-2.1-7* libexpat1-dev* libffi-dev*
  libfontconfig-dev* libfontconfig1* libfreetype-dev* libfreetype6*
  libfribidi-dev* libfribidi0* libgbm1* libgdk-pixbuf-2.0-0*
  libgdk-pixbuf-2.0-dev* libgdk-pixbuf2.0-bin* libgdk-pixbuf2.0-common*
  libgirepository-1.0-1* libgl-dev* libgl1* libgl1-mesa-dri* libglapi-mesa*
  libgles-dev* libgles1* libgles2* libglib2.0-0* libglib2.0-bin*
  libglib2.0-data* libglib2.0-dev* libglib2.0-dev-bin* libglvnd-core-dev*
  libglvnd-dev* libglvnd0* libglx-dev* libglx-mesa0* libglx0* libgmp-dev*
  libgmpxx4ldbl* libgnutls-dane0* libgnutls-openssl27* libgnutls28-dev*
  libgraphite2-3* libgraphite2-dev* libgsasl-dev* libgsasl18* libgssglue-dev*
  libgssglue1* libgtk-3-0* libgtk-3-common* libgtk-3-dev* libharfbuzz-cairo0*
  libharfbuzz-dev* libharfbuzz-gobject0* libharfbuzz-icu0*
  libharfbuzz-subset0* libharfbuzz0b* libice-dev* libice6* libicu-dev*
  libidn-dev* libidn12* libidn2-dev* libinfgtk-0.7-0* libinfinity-0.7-0*
  libinfinity-0.7-dev* libjbig-dev* libjbig0* libjpeg-dev* libjpeg62-turbo*
  libjpeg62-turbo-dev* liblcms2-2* liblerc-dev* liblerc4* libllvm17*
  liblzma-dev* liblzo2-2* libmount-dev* libntlm0* libntlm0-dev* libopengl-dev*
  libopengl0* libp11-kit-dev* libpango-1.0-0* libpango1.0-dev*
  libpangocairo-1.0-0* libpangoft2-1.0-0* libpangoxft-1.0-0* libpcre2-16-0*
  libpcre2-32-0* libpcre2-dev* libpcre2-posix3* libpixman-1-0*
  libpixman-1-dev* libpkgconf3* libpng-dev* libpng16-16*
  libpthread-stubs0-dev* libselinux1-dev* libsensors-config* libsensors5*
  libsepol-dev* libsharpyuv-dev* libsharpyuv0* libsm-dev* libsm6*
  libtasn1-6-dev* libthai-data* libthai-dev* libthai0* libtiff-dev* libtiff6*
  libtiffxx6* libunbound8* libvulkan1* libwayland-bin* libwayland-client0*
  libwayland-cursor0* libwayland-dev* libwayland-egl1* libwayland-server0*
  libwebp-dev* libwebp7* libwebpdecoder3* libwebpdemux2* libwebpmux3*
  libx11-6* libx11-data* libx11-dev* libx11-xcb1* libxau-dev* libxau6*
  libxcb-dri2-0* libxcb-dri3-0* libxcb-glx0* libxcb-present0* libxcb-randr0*
  libxcb-render0* libxcb-render0-dev* libxcb-shm0* libxcb-shm0-dev*
  libxcb-sync1* libxcb-xfixes0* libxcb1* libxcb1-dev* libxcomposite-dev*
  libxcomposite1* libxcursor-dev* libxcursor1* libxdamage-dev* libxdamage1*
  libxdmcp-dev* libxdmcp6* libxext-dev* libxext6* libxfixes-dev* libxfixes3*
  libxft-dev* libxft2* libxi-dev* libxi6* libxinerama-dev* libxinerama1*
  libxkbcommon-dev* libxkbcommon0* libxml2-dev* libxrandr-dev* libxrandr2*
  libxrender-dev* libxrender1* libxshmfence1* libxtst-dev* libxtst6*
  libxxf86vm1* libz3-4* libzstd-dev* nettle-dev* pango1.0-tools* pkg-config*
  pkgconf* pkgconf-bin* python3-distutils* python3-lib2to3* sgml-base*
  shared-mime-info* uuid-dev* wayland-protocols* x11-common* x11proto-dev*
  xkb-data* xml-core* xorg-sgml-doctools* xtrans-dev* zlib1g-dev*
0 upgraded, 0 newly installed, 251 to remove and 34 not upgraded.
After this operation, 424 MB disk space will be freed.
(Reading database ... (Reading database ... 5%(Reading database ... 10%(Reading database ... 15%(Reading database ... 20%(Reading database ... 25%(Reading database ... 30%(Reading database ... 35%(Reading database ... 40%(Reading database ... 45%(Reading database ... 50%(Reading database ... 55%(Reading database ... 60%(Reading database ... 65%(Reading database ... 70%(Reading database ... 75%(Reading database ... 80%(Reading database ... 85%(Reading database ... 90%(Reading database ... 95%(Reading database ... 100%(Reading database ... 23999 files and directories currently installed.)
Removing libinfinity-0.7-dev (0.7.2-2) ...
Removing gir1.2-infinity-0.7:armhf (0.7.2-2) ...
Removing libinfgtk-0.7-0:armhf (0.7.2-2) ...
Removing libgtk-3-dev:armhf (3.24.39-1) ...
Removing gir1.2-gtk-3.0:armhf (3.24.39-1) ...
Removing libgtk-3-0:armhf (3.24.39-1) ...
Removing adwaita-icon-theme (45.0-2) ...
Removing libatk-bridge2.0-dev:armhf (2.50.0-1+b1) ...
Removing libatk-bridge2.0-0:armhf (2.50.0-1+b1) ...
Removing libatk1.0-dev:armhf (2.50.0-1+b1) ...
Removing libgtk-3-common (3.24.39-1) ...
Removing dconf-gsettings-backend:armhf (0.40.0-4+b1) ...
Removing dconf-service (0.40.0-4+b1) ...
Removing libpango1.0-dev:armhf (1.51.0+ds-3) ...
Removing gir1.2-pango-1.0:armhf (1.51.0+ds-3) ...
Removing pango1.0-tools (1.51.0+ds-3) ...
Removing libxft-dev:armhf (2.3.6-1) ...
Removing libpangoxft-1.0-0:armhf (1.51.0+ds-3) ...
Removing libxft2:armhf (2.3.6-1) ...
Removing libpangocairo-1.0-0:armhf (1.51.0+ds-3) ...
Removing libpangoft2-1.0-0:armhf (1.51.0+ds-3) ...
Removing gir1.2-atk-1.0:armhf (2.50.0-1+b1) ...
Removing libatspi2.0-dev:armhf (2.50.0-1+b1) ...
Removing gir1.2-atspi-2.0:armhf (2.50.0-1+b1) ...
Removing libcloudproviders-dev:armhf (0.3.5-1) ...
Removing gir1.2-cloudproviders-0.3.0:armhf (0.3.5-1) ...
Removing libharfbuzz-dev:armhf (8.0.1-1+b2) ...
Removing gir1.2-harfbuzz-0.0:armhf (8.0.1-1+b2) ...
Removing gir1.2-freedesktop:armhf (1.78.1-6) ...
Removing libgdk-pixbuf-2.0-dev:armhf (2.42.10+dfsg-3) ...
Removing gir1.2-gdkpixbuf-2.0:armhf (2.42.10+dfsg-3) ...
Removing gir1.2-glib-2.0:armhf (1.78.1-6) ...
Removing gtk-update-icon-cache (3.24.39-1) ...
Removing hicolor-icon-theme (0.17-2) ...
Removing libxml2-dev:armhf (2.9.14+dfsg-1.3+b2) ...
Removing libicu-dev:armhf (72.1-4) ...
Removing icu-devtools (72.1-4) ...
Removing libatspi2.0-0:armhf (2.50.0-1+b1) ...
Removing libinfinity-0.7-0:armhf (0.7.2-2) ...
Removing libcups2:armhf (2.4.7-1+b1) ...
Removing libavahi-client3:armhf (0.8-13+b1) ...
Removing libavahi-common3:armhf (0.8-13+b1) ...
Removing libavahi-common-data:armhf (0.8-13+b1) ...
Removing libcairo2-dev:armhf (1.18.0-1+b1) ...
Removing libglib2.0-dev:armhf (2.78.3-1) ...
Removing libmount-dev:armhf (2.39.3-6) ...
Removing libblkid-dev:armhf (2.39.3-6) ...
Removing libfontconfig-dev:armhf (2.14.2-6+b1) ...
Removing libfreetype-dev:armhf (2.13.2+dfsg-1+b1) ...
Removing libbrotli-dev:armhf (1.1.0-2+b3) ...
Removing libharfbuzz-subset0:armhf (8.0.1-1+b2) ...
Removing libbz2-dev:armhf (1.0.8-5+b2) ...
Removing libcairo-gobject2:armhf (1.18.0-1+b1) ...
Removing libcairo-script-interpreter2:armhf (1.18.0-1+b1) ...
Removing libharfbuzz-cairo0:armhf (8.0.1-1+b2) ...
Removing libcairo2:armhf (1.18.0-1+b1) ...
Removing libcloudproviders0:armhf (0.3.5-1) ...
Removing libcolord2:armhf (1.4.6-5) ...
Removing libdaemon0:armhf (0.14-7.1) ...
Removing libthai-dev:armhf (0.1.29-2) ...
Removing libdatrie-dev:armhf (0.2.13-3) ...
Removing libdbus-1-dev:armhf (1.14.10-3+b1) ...
Removing libdconf1:armhf (0.40.0-4+b1) ...
Removing libtiff-dev:armhf (4.5.1+git230720-3) ...
Removing libdeflate-dev:armhf (1.18-1) ...
Removing libtiffxx6:armhf (4.5.1+git230720-3) ...
Removing libgdk-pixbuf2.0-bin (2.42.10+dfsg-3) ...
Removing libgdk-pixbuf-2.0-0:armhf (2.42.10+dfsg-3) ...
Removing libtiff6:armhf (4.5.1+git230720-3) ...
Removing libdeflate0:armhf (1.18-1) ...
Removing libegl1-mesa-dev:armhf (23.3.2-2) ...
Removing libglvnd-dev:armhf (1.7.0-1) ...
Removing libgles-dev:armhf (1.7.0-1) ...
Removing libepoxy-dev:armhf (1.5.10-1+b2) ...
Removing libegl-dev:armhf (1.7.0-1) ...
Removing libegl1:armhf (1.7.0-1) ...
Removing libegl-mesa0:armhf (23.3.2-2) ...
Removing libgbm1:armhf (23.3.2-2) ...
Removing libepoxy0:armhf (1.5.10-1+b2) ...
Removing libgnutls28-dev:armhf (3.8.2-1) ...
Removing libgnutls-dane0:armhf (3.8.2-1) ...
Removing libunbound8:armhf (1.18.0-2+b1) ...
Removing libevent-2.1-7:armhf (2.1.12-stable-8) ...
Removing libexpat1-dev:armhf (2.5.0-2+b2) ...
Removing libwayland-dev:armhf (1.22.0-2.1) ...
Removing libffi-dev:armhf (3.4.4-2) ...
Removing libfribidi-dev:armhf (1.0.13-3+b1) ...
Removing libgdk-pixbuf2.0-common (2.42.10+dfsg-3) ...
Removing libgirepository-1.0-1:armhf (1.78.1-6) ...
Removing libgles1:armhf (1.7.0-1) ...
Removing libgles2:armhf (1.7.0-1) ...
Removing shared-mime-info (2.4-1) ...
Removing libharfbuzz-gobject0:armhf (8.0.1-1+b2) ...
Removing libglib2.0-bin (2.78.3-1) ...
Removing libglib2.0-data (2.78.3-1) ...
Removing libglib2.0-dev-bin (2.78.3-1) ...
Removing libglvnd-core-dev:armhf (1.7.0-1) ...
Removing libopengl-dev:armhf (1.7.0-1) ...
Removing libopengl0:armhf (1.7.0-1) ...
Removing nettle-dev:armhf (3.9.1-2) ...
Removing libgmp-dev:armhf (2:6.3.0+dfsg-2) ...
Removing libgmpxx4ldbl:armhf (2:6.3.0+dfsg-2) ...
Removing libgnutls-openssl27:armhf (3.8.2-1) ...
Removing libgraphite2-dev:armhf (1.3.14-2) ...
Removing libgsasl-dev:armhf (2.2.1-1) ...
Removing libgsasl18:armhf (2.2.1-1) ...
Removing libgssglue-dev:armhf (0.8-2) ...
Removing libgssglue1:armhf (0.8-2) ...
Removing libharfbuzz-icu0:armhf (8.0.1-1+b2) ...
Removing libsm-dev:armhf (2:1.2.3-1) ...
Removing libice-dev:armhf (2:1.0.10-1) ...
Removing libsm6:armhf (2:1.2.3-1) ...
Removing libice6:armhf (2:1.0.10-1) ...
Removing libidn-dev:armhf (1.41-1) ...
Removing libidn12:armhf (1.41-1) ...
Removing libidn2-dev:armhf (2.3.4-1+b2) ...
Removing libjbig-dev:armhf (2.1-6.1) ...
Removing libjbig0:armhf (2.1-6.1) ...
Removing libjpeg-dev:armhf (1:2.1.5-2+b2) ...
Removing libjpeg62-turbo-dev:armhf (1:2.1.5-2+b2) ...
Removing libjpeg62-turbo:armhf (1:2.1.5-2+b2) ...
Removing liblcms2-2:armhf (2.14-2) ...
Removing liblerc-dev:armhf (4.0.0+ds-4) ...
Removing liblerc4:armhf (4.0.0+ds-4) ...
Removing liblzma-dev:armhf (5.4.5-0.3) ...
Removing liblzo2-2:armhf (2.10-2) ...
Removing libntlm0-dev:armhf (1.7-1) ...
Removing libntlm0:armhf (1.7-1) ...
Removing libp11-kit-dev:armhf (0.25.3-4) ...
Removing libselinux1-dev:armhf (3.5-1+b2) ...
Removing libpcre2-dev:armhf (10.42-4) ...
Removing libpcre2-16-0:armhf (10.42-4) ...
Removing libpcre2-32-0:armhf (10.42-4) ...
Removing libpcre2-posix3:armhf (10.42-4) ...
Removing libpixman-1-dev:armhf (0.42.2-1) ...
Removing libpixman-1-0:armhf (0.42.2-1) ...
Removing pkg-config:armhf (1.8.1-1+b2) ...
Removing pkgconf:armhf (1.8.1-1+b2) ...
Removing pkgconf-bin (1.8.1-1+b2) ...
Removing libpkgconf3:armhf (1.8.1-1+b2) ...
Removing libpng-dev:armhf (1.6.40-3) ...
Removing libxcb-shm0-dev:armhf (1.15-1) ...
Removing libxcb-render0-dev:armhf (1.15-1) ...
Removing libsepol-dev:armhf (3.5-2) ...
Removing libwebp-dev:armhf (1.3.2-0.3) ...
Removing libsharpyuv-dev:armhf (1.3.2-0.3) ...
Removing libwebpmux3:armhf (1.3.2-0.3) ...
Removing libwebpdemux2:armhf (1.3.2-0.3) ...
Removing libwebp7:armhf (1.3.2-0.3) ...
Removing libsharpyuv0:armhf (1.3.2-0.3) ...
Removing libtasn1-6-dev:armhf (4.19.0-3+b2) ...
Removing libwayland-bin (1.22.0-2.1) ...
Removing libwayland-cursor0:armhf (1.22.0-2.1) ...
Removing libwayland-client0:armhf (1.22.0-2.1) ...
Removing libwayland-egl1:armhf (1.22.0-2.1) ...
Removing libwayland-server0:armhf (1.22.0-2.1) ...
Removing libwebpdecoder3:armhf (1.3.2-0.3) ...
Removing libxrandr-dev:armhf (2:1.5.2-2+b1) ...
Removing libxcursor-dev:armhf (1:1.2.1-1) ...
Removing libxrender-dev:armhf (1:0.9.10-1.1) ...
Removing libxtst-dev:armhf (2:1.2.3-1.1) ...
Removing libxcb-render0:armhf (1.15-1) ...
Removing libxcomposite-dev:armhf (1:0.4.5-1) ...
Removing libxcomposite1:armhf (1:0.4.5-1) ...
Removing libxcursor1:armhf (1:1.2.1-1) ...
Removing libxdamage-dev:armhf (1:1.1.6-1) ...
Removing libxdamage1:armhf (1:1.1.6-1) ...
Removing libxinerama-dev:armhf (2:1.1.4-3) ...
Removing libxtst6:armhf (2:1.2.3-1.1) ...
Removing libxi-dev:armhf (2:1.8-1+b1) ...
Removing libxfixes-dev:armhf (1:6.0.0-2) ...
Removing libxi6:armhf (2:1.8-1+b1) ...
Removing libxinerama1:armhf (2:1.1.4-3) ...
Removing libxkbcommon-dev:armhf (1.6.0-1) ...
Removing libxkbcommon0:armhf (1.6.0-1) ...
Removing libxrandr2:armhf (2:1.5.2-2+b1) ...
Removing libxrender1:armhf (1:0.9.10-1.1) ...
Removing libzstd-dev:armhf (1.5.5+dfsg2-2) ...
Removing python3-distutils (3.11.5-1) ...
Removing python3-lib2to3 (3.11.5-1) ...
Removing xml-core (0.19) ...
Removing sgml-base (1.31) ...
Removing uuid-dev:armhf (2.39.3-6) ...
Removing wayland-protocols (1.32-1) ...
Removing x11-common (1:7.7+23) ...
invoke-rc.d: could not determine current runlevel
Removing xkb-data (2.38-2) ...
Removing zlib1g-dev:armhf (1:1.3.dfsg-3) ...
Removing libatk1.0-0:armhf (2.50.0-1+b1) ...
Removing at-spi2-common (2.50.0-1) ...
Removing libpango-1.0-0:armhf (1.51.0+ds-3) ...
Removing fontconfig (2.14.2-6+b1) ...
Removing libfontconfig1:armhf (2.14.2-6+b1) ...
Removing fontconfig-config (2.14.2-6+b1) ...
Removing fonts-dejavu-core (2.37-8) ...
Removing fonts-dejavu-mono (2.37-8) ...
Removing libharfbuzz0b:armhf (8.0.1-1+b2) ...
Removing libfreetype6:armhf (2.13.2+dfsg-1+b1) ...
Removing libbrotli1:armhf (1.1.0-2+b3) ...
Removing libthai0:armhf (0.1.29-2) ...
Removing libdatrie1:armhf (0.2.13-3) ...
Removing libgl-dev:armhf (1.7.0-1) ...
Removing libgl1:armhf (1.7.0-1) ...
Removing libglx-dev:armhf (1.7.0-1) ...
Removing libglx0:armhf (1.7.0-1) ...
Removing libglx-mesa0:armhf (23.3.2-2) ...
Removing libgl1-mesa-dri:armhf (23.3.2-2) ...
Removing libdrm-amdgpu1:armhf (2.4.117-1) ...
Removing libdrm-nouveau2:armhf (2.4.117-1) ...
Removing libdrm-radeon1:armhf (2.4.117-1) ...
Removing libllvm17:armhf (1:17.0.6-3) ...
Removing libedit2:armhf (3.1-20230828-1) ...
Removing libfribidi0:armhf (1.0.13-3+b1) ...
Removing libglapi-mesa:armhf (23.3.2-2) ...
Removing libglib2.0-0:armhf (2.78.3-1) ...
Removing libglvnd0:armhf (1.7.0-1) ...
Removing libgraphite2-3:armhf (1.3.14-2) ...
Removing libpng16-16:armhf (1.6.40-3) ...
Removing libsensors5:armhf (1:3.6.0-8) ...
Removing libsensors-config (1:3.6.0-8) ...
Removing libthai-data (0.1.29-2) ...
Removing libvulkan1:armhf (1.3.268.0-1) ...
Removing libxxf86vm1:armhf (1:1.1.4-1+b2) ...
Removing libx11-xcb1:armhf (2:1.8.7-1) ...
Removing libxcb-xfixes0:armhf (1.15-1) ...
Removing libxcb-sync1:armhf (1.15-1) ...
Removing libxcb-dri2-0:armhf (1.15-1) ...
Removing libxcb-dri3-0:armhf (1.15-1) ...
Removing libxcb-glx0:armhf (1.15-1) ...
Removing libxcb-present0:armhf (1.15-1) ...
Removing libxcb-randr0:armhf (1.15-1) ...
Removing libxcb-shm0:armhf (1.15-1) ...
Removing libxext-dev:armhf (2:1.3.4-1+b1) ...
Removing libxext6:armhf (2:1.3.4-1+b1) ...
Removing libxfixes3:armhf (1:6.0.0-2) ...
Removing libxshmfence1:armhf (1.3-1) ...
Removing libz3-4:armhf (4.8.12-3.1+b2) ...
Removing libdrm2:armhf (2.4.117-1) ...
Removing libdrm-common (2.4.117-1) ...
Removing libx11-dev:armhf (2:1.8.7-1) ...
Removing libx11-6:armhf (2:1.8.7-1) ...
Removing libx11-data (2:1.8.7-1) ...
Removing xtrans-dev (1.4.0-1) ...
Removing libxcb1-dev:armhf (1.15-1) ...
Removing libpthread-stubs0-dev:armhf (0.4-1) ...
Removing libxau-dev:armhf (1:1.0.9-1) ...
Removing libxcb1:armhf (1.15-1) ...
Removing libxau6:armhf (1:1.0.9-1) ...
Removing libxdmcp-dev:armhf (1:1.1.2-3) ...
Removing libxdmcp6:armhf (1:1.1.2-3) ...
Removing x11proto-dev (2023.2-1) ...
Removing xorg-sgml-doctools (1:1.11-1.1) ...
Processing triggers for install-info (7.1-2) ...
Processing triggers for libc-bin (2.37-13) ...
(Reading database ... (Reading database ... 5%(Reading database ... 10%(Reading database ... 15%(Reading database ... 20%(Reading database ... 25%(Reading database ... 30%(Reading database ... 35%(Reading database ... 40%(Reading database ... 45%(Reading database ... 50%(Reading database ... 55%(Reading database ... 60%(Reading database ... 65%(Reading database ... 70%(Reading database ... 75%(Reading database ... 80%(Reading database ... 85%(Reading database ... 90%(Reading database ... 95%(Reading database ... 100%(Reading database ... 15662 files and directories currently installed.)
Purging configuration files for fontconfig (2.14.2-6+b1) ...
Purging configuration files for libglib2.0-0:armhf (2.78.3-1) ...
Purging configuration files for fontconfig-config (2.14.2-6+b1) ...
Purging configuration files for libgtk-3-0:armhf (3.24.39-1) ...
Purging configuration files for libgl1-mesa-dri:armhf (23.3.2-2) ...
Purging configuration files for x11-common (1:7.7+23) ...
Purging configuration files for libsensors-config (1:3.6.0-8) ...
Purging configuration files for pkgconf:armhf (1.8.1-1+b2) ...
Purging configuration files for adwaita-icon-theme (45.0-2) ...
Purging configuration files for libdbus-1-dev:armhf (1.14.10-3+b1) ...
Purging configuration files for shared-mime-info (2.4-1) ...
Purging configuration files for fonts-dejavu-mono (2.37-8) ...
Purging configuration files for libgssglue1:armhf (0.8-2) ...
Purging configuration files for pkg-config:armhf (1.8.1-1+b2) ...
Purging configuration files for fonts-dejavu-core (2.37-8) ...
Purging configuration files for xml-core (0.19) ...
dpkg: warning: while removing xml-core, directory '/etc/sgml' not empty so not removed
Purging configuration files for libgdk-pixbuf-2.0-0:armhf (2.42.10+dfsg-3) ...
Purging configuration files for sgml-base (1.31) ...
Purging configuration files for libgtk-3-common (3.24.39-1) ...
