Temporary header file '/tmp/tNjhFYHtut/dump1.h' with the following content will be compiled to create GCC translation unit dump:

  // add defines
  #define __STDC_VERSION__ 201710L
#define _TIME_BITS 64
#define _FILE_OFFSET_BITS 64
#define _GXX_NULLPTR_T
#define CLUTTER_ENABLE_COMPOSITOR_API 1
#define _REGEX_NELTS(n)
#define _Atomic
#define PACKED
#ifdef __cplusplus
// C17 compat layer
#define _Alignof(type) alignof(type)
#endif
#define getaddrinfo_a(a,b,c,d)

  // add includes
  #include "/usr/include/ngtcp2/ngtcp2.h"
  #include "/usr/include/ngtcp2/version.h"

  // add classes
  cmsghdr* tmp_add_class_0;
  group_filter* tmp_add_class_1;
  group_req* tmp_add_class_2;
  group_source_req* tmp_add_class_3;
  in6_addr* tmp_add_class_4;
  in6_pktinfo* tmp_add_class_5;
  in_addr* tmp_add_class_6;
  in_pktinfo* tmp_add_class_7;
  iovec* tmp_add_class_8;
  ip6_mtuinfo* tmp_add_class_9;
  ip_mreq* tmp_add_class_10;
  ip_mreq_source* tmp_add_class_11;
  ip_mreqn* tmp_add_class_12;
  ip_msfilter* tmp_add_class_13;
  ip_opts* tmp_add_class_14;
  ipv6_mreq* tmp_add_class_15;
  linger* tmp_add_class_16;
  mmsghdr* tmp_add_class_17;
  msghdr* tmp_add_class_18;
  ngtcp2_addr* tmp_add_class_19;
  ngtcp2_callbacks* tmp_add_class_20;
  ngtcp2_cid* tmp_add_class_21;
  ngtcp2_cid_token* tmp_add_class_22;
  ngtcp2_conn_stat* tmp_add_class_23;
  ngtcp2_connection_close_error* tmp_add_class_24;
  ngtcp2_crypto_aead* tmp_add_class_25;
  ngtcp2_crypto_aead_ctx* tmp_add_class_26;
  ngtcp2_crypto_cipher* tmp_add_class_27;
  ngtcp2_crypto_cipher_ctx* tmp_add_class_28;
  ngtcp2_crypto_ctx* tmp_add_class_29;
  ngtcp2_crypto_md* tmp_add_class_30;
  ngtcp2_info* tmp_add_class_31;
  ngtcp2_mem* tmp_add_class_32;
  ngtcp2_path* tmp_add_class_33;
  ngtcp2_path_storage* tmp_add_class_34;
  ngtcp2_pkt_hd* tmp_add_class_35;
  ngtcp2_pkt_info* tmp_add_class_36;
  ngtcp2_pkt_stateless_reset* tmp_add_class_37;
  ngtcp2_preferred_addr* tmp_add_class_38;
  ngtcp2_qlog_settings* tmp_add_class_39;
  ngtcp2_rand_ctx* tmp_add_class_40;
  ngtcp2_settings* tmp_add_class_41;
  ngtcp2_sockaddr_union* tmp_add_class_42;
  ngtcp2_transport_params* tmp_add_class_43;
  ngtcp2_vec* tmp_add_class_44;
  ngtcp2_version_cid* tmp_add_class_45;
  ngtcp2_version_info* tmp_add_class_46;
  osockaddr* tmp_add_class_47;
  sockaddr* tmp_add_class_48;
  sockaddr_in* tmp_add_class_49;
  sockaddr_in6* tmp_add_class_50;
  sockaddr_storage* tmp_add_class_51;
  ucred* tmp_add_class_52;

The GCC parameters:
  gcc -fdump-lang-raw -fkeep-inline-functions -c -x c++ -fpermissive -w "/tmp/tNjhFYHtut/dump1.h"

