[2024-01-08T13:57:45+00:00] apt-get install libxcb-ewmh-dev abi-compliance-checker
Reading package lists...
Building dependency tree...
Reading state information...
abi-compliance-checker is already the newest version (2.3-2).
The following packages were automatically installed and are no longer required:
  libxcb-dri3-0 libxcb-dri3-dev
Use 'apt autoremove' to remove them.
The following NEW packages will be installed:
  libxcb-ewmh-dev libxcb-ewmh2
0 upgraded, 2 newly installed, 0 to remove and 16 not upgraded.
Need to get 70.6 kB of archives.
After this operation, 249 kB of additional disk space will be used.
Get:1 http://deb.debian.org/debian unstable/main armhf libxcb-ewmh2 armhf 0.4.1-1.1 [31.5 kB]
Get:2 http://deb.debian.org/debian unstable/main armhf libxcb-ewmh-dev armhf 0.4.1-1.1 [39.1 kB]
debconf: delaying package configuration, since apt-utils is not installed
Fetched 70.6 kB in 0s (1359 kB/s)
Selecting previously unselected package libxcb-ewmh2:armhf.
(Reading database ... (Reading database ... 5%(Reading database ... 10%(Reading database ... 15%(Reading database ... 20%(Reading database ... 25%(Reading database ... 30%(Reading database ... 35%(Reading database ... 40%(Reading database ... 45%(Reading database ... 50%(Reading database ... 55%(Reading database ... 60%(Reading database ... 65%(Reading database ... 70%(Reading database ... 75%(Reading database ... 80%(Reading database ... 85%(Reading database ... 90%(Reading database ... 95%(Reading database ... 100%(Reading database ... 17327 files and directories currently installed.)
Preparing to unpack .../libxcb-ewmh2_0.4.1-1.1_armhf.deb ...
Unpacking libxcb-ewmh2:armhf (0.4.1-1.1) ...
Selecting previously unselected package libxcb-ewmh-dev:armhf.
Preparing to unpack .../libxcb-ewmh-dev_0.4.1-1.1_armhf.deb ...
Unpacking libxcb-ewmh-dev:armhf (0.4.1-1.1) ...
Setting up libxcb-ewmh2:armhf (0.4.1-1.1) ...
Setting up libxcb-ewmh-dev:armhf (0.4.1-1.1) ...
Processing triggers for libc-bin (2.37-13) ...
Reading package lists...
Building dependency tree...
Reading state information...
The following packages will be REMOVED:
  libxcb-dri3-0* libxcb-dri3-dev*
0 upgraded, 0 newly installed, 2 to remove and 16 not upgraded.
After this operation, 336 kB disk space will be freed.
(Reading database ... (Reading database ... 5%(Reading database ... 10%(Reading database ... 15%(Reading database ... 20%(Reading database ... 25%(Reading database ... 30%(Reading database ... 35%(Reading database ... 40%(Reading database ... 45%(Reading database ... 50%(Reading database ... 55%(Reading database ... 60%(Reading database ... 65%(Reading database ... 70%(Reading database ... 75%(Reading database ... 80%(Reading database ... 85%(Reading database ... 90%(Reading database ... 95%(Reading database ... 100%(Reading database ... 17345 files and directories currently installed.)
Removing libxcb-dri3-dev:armhf (1.15-1) ...
Removing libxcb-dri3-0:armhf (1.15-1) ...
Processing triggers for libc-bin (2.37-13) ...
