[2024-01-08T12:38:26+00:00] apt-get install libvisp-mbt-dev abi-compliance-checker
Reading package lists...
Building dependency tree...
Reading state information...
abi-compliance-checker is already the newest version (2.3-2).
The following additional packages will be installed:
  libcoin-dev libcoin80c libgl-dev libglew-dev libglu1-mesa libglu1-mesa-dev
  libglx-dev libice-dev libopengl-dev libpthread-stubs0-dev libsm-dev
  libvisp-ar-dev libvisp-ar3.6 libvisp-blob-dev libvisp-blob3.6
  libvisp-gui-dev libvisp-gui3.6 libvisp-io-dev libvisp-io3.6 libvisp-mbt3.6
  libvisp-me-dev libvisp-me3.6 libvisp-vision-dev libvisp-vision3.6
  libvisp-visual-features-dev libvisp-visual-features3.6 libx11-dev libxau-dev
  libxcb1-dev libxdmcp-dev libxext-dev libxfixes-dev libxi-dev libxi6
  libxmu-dev libxmu-headers libxmu6 libxpm-dev libxt-dev libxt6 x11proto-dev
  xorg-sgml-doctools xtrans-dev
Suggested packages:
  libcoin-doc libopenal0a libsimage-dev libice-doc libsm-doc libx11-doc
  libxcb-doc libxext-doc libxt-doc
The following NEW packages will be installed:
  libcoin-dev libcoin80c libgl-dev libglew-dev libglu1-mesa libglu1-mesa-dev
  libglx-dev libice-dev libopengl-dev libpthread-stubs0-dev libsm-dev
  libvisp-ar-dev libvisp-ar3.6 libvisp-blob-dev libvisp-blob3.6
  libvisp-gui-dev libvisp-gui3.6 libvisp-io-dev libvisp-io3.6 libvisp-mbt-dev
  libvisp-mbt3.6 libvisp-me-dev libvisp-me3.6 libvisp-vision-dev
  libvisp-vision3.6 libvisp-visual-features-dev libvisp-visual-features3.6
  libx11-dev libxau-dev libxcb1-dev libxdmcp-dev libxext-dev libxfixes-dev
  libxi-dev libxi6 libxmu-dev libxmu-headers libxmu6 libxpm-dev libxt-dev
  libxt6 x11proto-dev xorg-sgml-doctools xtrans-dev
0 upgraded, 44 newly installed, 0 to remove and 16 not upgraded.
Need to get 8020 kB of archives.
After this operation, 28.5 MB of additional disk space will be used.
Get:1 http://deb.debian.org/debian unstable/main armhf libcoin80c armhf 4.0.2+ds-1 [1998 kB]
Get:2 http://deb.debian.org/debian unstable/main armhf xorg-sgml-doctools all 1:1.11-1.1 [22.1 kB]
Get:3 http://deb.debian.org/debian unstable/main armhf x11proto-dev all 2023.2-1 [598 kB]
Get:4 http://deb.debian.org/debian unstable/main armhf libxau-dev armhf 1:1.0.9-1 [22.4 kB]
Get:5 http://deb.debian.org/debian unstable/main armhf libxdmcp-dev armhf 1:1.1.2-3 [40.7 kB]
Get:6 http://deb.debian.org/debian unstable/main armhf xtrans-dev all 1.4.0-1 [98.7 kB]
Get:7 http://deb.debian.org/debian unstable/main armhf libpthread-stubs0-dev armhf 0.4-1 [5344 B]
Get:8 http://deb.debian.org/debian unstable/main armhf libxcb1-dev armhf 1.15-1 [179 kB]
Get:9 http://deb.debian.org/debian unstable/main armhf libx11-dev armhf 2:1.8.7-1 [816 kB]
Get:10 http://deb.debian.org/debian unstable/main armhf libglx-dev armhf 1.7.0-1 [15.5 kB]
Get:11 http://deb.debian.org/debian unstable/main armhf libgl-dev armhf 1.7.0-1 [100 kB]
Get:12 http://deb.debian.org/debian unstable/main armhf libopengl-dev armhf 1.7.0-1 [5104 B]
Get:13 http://deb.debian.org/debian unstable/main armhf libglu1-mesa armhf 9.0.2-1.1 [137 kB]
Get:14 http://deb.debian.org/debian unstable/main armhf libglu1-mesa-dev armhf 9.0.2-1.1 [177 kB]
Get:15 http://deb.debian.org/debian unstable/main armhf libglew-dev armhf 2.2.0-4+b1 [266 kB]
Get:16 http://deb.debian.org/debian unstable/main armhf libxext-dev armhf 2:1.3.4-1+b1 [103 kB]
Get:17 http://deb.debian.org/debian unstable/main armhf libxi6 armhf 2:1.8-1+b1 [78.6 kB]
Get:18 http://deb.debian.org/debian unstable/main armhf libxfixes-dev armhf 1:6.0.0-2 [23.3 kB]
Get:19 http://deb.debian.org/debian unstable/main armhf libxi-dev armhf 2:1.8-1+b1 [239 kB]
Get:20 http://deb.debian.org/debian unstable/main armhf libxt6 armhf 1:1.2.1-1.1 [157 kB]
Get:21 http://deb.debian.org/debian unstable/main armhf libice-dev armhf 2:1.0.10-1 [61.9 kB]
Get:22 http://deb.debian.org/debian unstable/main armhf libsm-dev armhf 2:1.2.3-1 [36.1 kB]
Get:23 http://deb.debian.org/debian unstable/main armhf libxt-dev armhf 1:1.2.1-1.1 [384 kB]
Get:24 http://deb.debian.org/debian unstable/main armhf libxmu6 armhf 2:1.1.3-3 [52.6 kB]
Get:25 http://deb.debian.org/debian unstable/main armhf libxmu-headers all 2:1.1.3-3 [68.5 kB]
Get:26 http://deb.debian.org/debian unstable/main armhf libxmu-dev armhf 2:1.1.3-3 [59.1 kB]
Get:27 http://deb.debian.org/debian unstable/main armhf libxpm-dev armhf 1:3.5.17-1 [124 kB]
Get:28 http://deb.debian.org/debian unstable/main armhf libcoin-dev armhf 4.0.2+ds-1 [220 kB]
Get:29 http://deb.debian.org/debian unstable/main armhf libvisp-io3.6 armhf 3.6.0-2 [212 kB]
Get:30 http://deb.debian.org/debian unstable/main armhf libvisp-io-dev armhf 3.6.0-2 [47.6 kB]
Get:31 http://deb.debian.org/debian unstable/main armhf libvisp-ar3.6 armhf 3.6.0-2 [35.9 kB]
Get:32 http://deb.debian.org/debian unstable/main armhf libvisp-ar-dev armhf 3.6.0-2 [40.5 kB]
Get:33 http://deb.debian.org/debian unstable/main armhf libvisp-blob3.6 armhf 3.6.0-2 [58.6 kB]
Get:34 http://deb.debian.org/debian unstable/main armhf libvisp-blob-dev armhf 3.6.0-2 [40.3 kB]
Get:35 http://deb.debian.org/debian unstable/main armhf libvisp-gui3.6 armhf 3.6.0-2 [89.4 kB]
Get:36 http://deb.debian.org/debian unstable/main armhf libvisp-gui-dev armhf 3.6.0-2 [48.7 kB]
Get:37 http://deb.debian.org/debian unstable/main armhf libvisp-me3.6 armhf 3.6.0-2 [84.5 kB]
Get:38 http://deb.debian.org/debian unstable/main armhf libvisp-me-dev armhf 3.6.0-2 [51.7 kB]
Get:39 http://deb.debian.org/debian unstable/main armhf libvisp-visual-features3.6 armhf 3.6.0-2 [103 kB]
Get:40 http://deb.debian.org/debian unstable/main armhf libvisp-visual-features-dev armhf 3.6.0-2 [58.5 kB]
Get:41 http://deb.debian.org/debian unstable/main armhf libvisp-vision3.6 armhf 3.6.0-2 [316 kB]
Get:42 http://deb.debian.org/debian unstable/main armhf libvisp-vision-dev armhf 3.6.0-2 [64.8 kB]
Get:43 http://deb.debian.org/debian unstable/main armhf libvisp-mbt3.6 armhf 3.6.0-2 [610 kB]
Get:44 http://deb.debian.org/debian unstable/main armhf libvisp-mbt-dev armhf 3.6.0-2 [70.2 kB]
debconf: delaying package configuration, since apt-utils is not installed
Fetched 8020 kB in 1s (7913 kB/s)
Selecting previously unselected package libcoin80c:armhf.
(Reading database ... (Reading database ... 5%(Reading database ... 10%(Reading database ... 15%(Reading database ... 20%(Reading database ... 25%(Reading database ... 30%(Reading database ... 35%(Reading database ... 40%(Reading database ... 45%(Reading database ... 50%(Reading database ... 55%(Reading database ... 60%(Reading database ... 65%(Reading database ... 70%(Reading database ... 75%(Reading database ... 80%(Reading database ... 85%(Reading database ... 90%(Reading database ... 95%(Reading database ... 100%(Reading database ... 29180 files and directories currently installed.)
Preparing to unpack .../00-libcoin80c_4.0.2+ds-1_armhf.deb ...
Unpacking libcoin80c:armhf (4.0.2+ds-1) ...
Selecting previously unselected package xorg-sgml-doctools.
Preparing to unpack .../01-xorg-sgml-doctools_1%3a1.11-1.1_all.deb ...
Unpacking xorg-sgml-doctools (1:1.11-1.1) ...
Selecting previously unselected package x11proto-dev.
Preparing to unpack .../02-x11proto-dev_2023.2-1_all.deb ...
Unpacking x11proto-dev (2023.2-1) ...
Selecting previously unselected package libxau-dev:armhf.
Preparing to unpack .../03-libxau-dev_1%3a1.0.9-1_armhf.deb ...
Unpacking libxau-dev:armhf (1:1.0.9-1) ...
Selecting previously unselected package libxdmcp-dev:armhf.
Preparing to unpack .../04-libxdmcp-dev_1%3a1.1.2-3_armhf.deb ...
Unpacking libxdmcp-dev:armhf (1:1.1.2-3) ...
Selecting previously unselected package xtrans-dev.
Preparing to unpack .../05-xtrans-dev_1.4.0-1_all.deb ...
Unpacking xtrans-dev (1.4.0-1) ...
Selecting previously unselected package libpthread-stubs0-dev:armhf.
Preparing to unpack .../06-libpthread-stubs0-dev_0.4-1_armhf.deb ...
Unpacking libpthread-stubs0-dev:armhf (0.4-1) ...
Selecting previously unselected package libxcb1-dev:armhf.
Preparing to unpack .../07-libxcb1-dev_1.15-1_armhf.deb ...
Unpacking libxcb1-dev:armhf (1.15-1) ...
Selecting previously unselected package libx11-dev:armhf.
Preparing to unpack .../08-libx11-dev_2%3a1.8.7-1_armhf.deb ...
Unpacking libx11-dev:armhf (2:1.8.7-1) ...
Selecting previously unselected package libglx-dev:armhf.
Preparing to unpack .../09-libglx-dev_1.7.0-1_armhf.deb ...
Unpacking libglx-dev:armhf (1.7.0-1) ...
Selecting previously unselected package libgl-dev:armhf.
Preparing to unpack .../10-libgl-dev_1.7.0-1_armhf.deb ...
Unpacking libgl-dev:armhf (1.7.0-1) ...
Selecting previously unselected package libopengl-dev:armhf.
Preparing to unpack .../11-libopengl-dev_1.7.0-1_armhf.deb ...
Unpacking libopengl-dev:armhf (1.7.0-1) ...
Selecting previously unselected package libglu1-mesa:armhf.
Preparing to unpack .../12-libglu1-mesa_9.0.2-1.1_armhf.deb ...
Unpacking libglu1-mesa:armhf (9.0.2-1.1) ...
Selecting previously unselected package libglu1-mesa-dev:armhf.
Preparing to unpack .../13-libglu1-mesa-dev_9.0.2-1.1_armhf.deb ...
Unpacking libglu1-mesa-dev:armhf (9.0.2-1.1) ...
Selecting previously unselected package libglew-dev:armhf.
Preparing to unpack .../14-libglew-dev_2.2.0-4+b1_armhf.deb ...
Unpacking libglew-dev:armhf (2.2.0-4+b1) ...
Selecting previously unselected package libxext-dev:armhf.
Preparing to unpack .../15-libxext-dev_2%3a1.3.4-1+b1_armhf.deb ...
Unpacking libxext-dev:armhf (2:1.3.4-1+b1) ...
Selecting previously unselected package libxi6:armhf.
Preparing to unpack .../16-libxi6_2%3a1.8-1+b1_armhf.deb ...
Unpacking libxi6:armhf (2:1.8-1+b1) ...
Selecting previously unselected package libxfixes-dev:armhf.
Preparing to unpack .../17-libxfixes-dev_1%3a6.0.0-2_armhf.deb ...
Unpacking libxfixes-dev:armhf (1:6.0.0-2) ...
Selecting previously unselected package libxi-dev:armhf.
Preparing to unpack .../18-libxi-dev_2%3a1.8-1+b1_armhf.deb ...
Unpacking libxi-dev:armhf (2:1.8-1+b1) ...
Selecting previously unselected package libxt6:armhf.
Preparing to unpack .../19-libxt6_1%3a1.2.1-1.1_armhf.deb ...
Unpacking libxt6:armhf (1:1.2.1-1.1) ...
Selecting previously unselected package libice-dev:armhf.
Preparing to unpack .../20-libice-dev_2%3a1.0.10-1_armhf.deb ...
Unpacking libice-dev:armhf (2:1.0.10-1) ...
Selecting previously unselected package libsm-dev:armhf.
Preparing to unpack .../21-libsm-dev_2%3a1.2.3-1_armhf.deb ...
Unpacking libsm-dev:armhf (2:1.2.3-1) ...
Selecting previously unselected package libxt-dev:armhf.
Preparing to unpack .../22-libxt-dev_1%3a1.2.1-1.1_armhf.deb ...
Unpacking libxt-dev:armhf (1:1.2.1-1.1) ...
Selecting previously unselected package libxmu6:armhf.
Preparing to unpack .../23-libxmu6_2%3a1.1.3-3_armhf.deb ...
Unpacking libxmu6:armhf (2:1.1.3-3) ...
Selecting previously unselected package libxmu-headers.
Preparing to unpack .../24-libxmu-headers_2%3a1.1.3-3_all.deb ...
Unpacking libxmu-headers (2:1.1.3-3) ...
Selecting previously unselected package libxmu-dev:armhf.
Preparing to unpack .../25-libxmu-dev_2%3a1.1.3-3_armhf.deb ...
Unpacking libxmu-dev:armhf (2:1.1.3-3) ...
Selecting previously unselected package libxpm-dev:armhf.
Preparing to unpack .../26-libxpm-dev_1%3a3.5.17-1_armhf.deb ...
Unpacking libxpm-dev:armhf (1:3.5.17-1) ...
Selecting previously unselected package libcoin-dev.
Preparing to unpack .../27-libcoin-dev_4.0.2+ds-1_armhf.deb ...
Unpacking libcoin-dev (4.0.2+ds-1) ...
Selecting previously unselected package libvisp-io3.6:armhf.
Preparing to unpack .../28-libvisp-io3.6_3.6.0-2_armhf.deb ...
Unpacking libvisp-io3.6:armhf (3.6.0-2) ...
Selecting previously unselected package libvisp-io-dev:armhf.
Preparing to unpack .../29-libvisp-io-dev_3.6.0-2_armhf.deb ...
Unpacking libvisp-io-dev:armhf (3.6.0-2) ...
Selecting previously unselected package libvisp-ar3.6:armhf.
Preparing to unpack .../30-libvisp-ar3.6_3.6.0-2_armhf.deb ...
Unpacking libvisp-ar3.6:armhf (3.6.0-2) ...
Selecting previously unselected package libvisp-ar-dev:armhf.
Preparing to unpack .../31-libvisp-ar-dev_3.6.0-2_armhf.deb ...
Unpacking libvisp-ar-dev:armhf (3.6.0-2) ...
Selecting previously unselected package libvisp-blob3.6:armhf.
Preparing to unpack .../32-libvisp-blob3.6_3.6.0-2_armhf.deb ...
Unpacking libvisp-blob3.6:armhf (3.6.0-2) ...
Selecting previously unselected package libvisp-blob-dev:armhf.
Preparing to unpack .../33-libvisp-blob-dev_3.6.0-2_armhf.deb ...
Unpacking libvisp-blob-dev:armhf (3.6.0-2) ...
Selecting previously unselected package libvisp-gui3.6:armhf.
Preparing to unpack .../34-libvisp-gui3.6_3.6.0-2_armhf.deb ...
Unpacking libvisp-gui3.6:armhf (3.6.0-2) ...
Selecting previously unselected package libvisp-gui-dev:armhf.
Preparing to unpack .../35-libvisp-gui-dev_3.6.0-2_armhf.deb ...
Unpacking libvisp-gui-dev:armhf (3.6.0-2) ...
Selecting previously unselected package libvisp-me3.6:armhf.
Preparing to unpack .../36-libvisp-me3.6_3.6.0-2_armhf.deb ...
Unpacking libvisp-me3.6:armhf (3.6.0-2) ...
Selecting previously unselected package libvisp-me-dev:armhf.
Preparing to unpack .../37-libvisp-me-dev_3.6.0-2_armhf.deb ...
Unpacking libvisp-me-dev:armhf (3.6.0-2) ...
Selecting previously unselected package libvisp-visual-features3.6:armhf.
Preparing to unpack .../38-libvisp-visual-features3.6_3.6.0-2_armhf.deb ...
Unpacking libvisp-visual-features3.6:armhf (3.6.0-2) ...
Selecting previously unselected package libvisp-visual-features-dev:armhf.
Preparing to unpack .../39-libvisp-visual-features-dev_3.6.0-2_armhf.deb ...
Unpacking libvisp-visual-features-dev:armhf (3.6.0-2) ...
Selecting previously unselected package libvisp-vision3.6:armhf.
Preparing to unpack .../40-libvisp-vision3.6_3.6.0-2_armhf.deb ...
Unpacking libvisp-vision3.6:armhf (3.6.0-2) ...
Selecting previously unselected package libvisp-vision-dev:armhf.
Preparing to unpack .../41-libvisp-vision-dev_3.6.0-2_armhf.deb ...
Unpacking libvisp-vision-dev:armhf (3.6.0-2) ...
Selecting previously unselected package libvisp-mbt3.6:armhf.
Preparing to unpack .../42-libvisp-mbt3.6_3.6.0-2_armhf.deb ...
Unpacking libvisp-mbt3.6:armhf (3.6.0-2) ...
Selecting previously unselected package libvisp-mbt-dev:armhf.
Preparing to unpack .../43-libvisp-mbt-dev_3.6.0-2_armhf.deb ...
Unpacking libvisp-mbt-dev:armhf (3.6.0-2) ...
Setting up libvisp-me3.6:armhf (3.6.0-2) ...
Setting up libxi6:armhf (2:1.8-1+b1) ...
Setting up libvisp-io3.6:armhf (3.6.0-2) ...
Setting up libcoin80c:armhf (4.0.2+ds-1) ...
Setting up libpthread-stubs0-dev:armhf (0.4-1) ...
Setting up libvisp-me-dev:armhf (3.6.0-2) ...
Setting up libvisp-io-dev:armhf (3.6.0-2) ...
Setting up xtrans-dev (1.4.0-1) ...
Setting up libxt6:armhf (1:1.2.1-1.1) ...
Setting up libvisp-gui3.6:armhf (3.6.0-2) ...
Setting up xorg-sgml-doctools (1:1.11-1.1) ...
Setting up libglu1-mesa:armhf (9.0.2-1.1) ...
Setting up libopengl-dev:armhf (1.7.0-1) ...
Setting up libvisp-blob3.6:armhf (3.6.0-2) ...
Setting up x11proto-dev (2023.2-1) ...
Setting up libxmu6:armhf (2:1.1.3-3) ...
Setting up libvisp-ar3.6:armhf (3.6.0-2) ...
Setting up libxau-dev:armhf (1:1.0.9-1) ...
Setting up libice-dev:armhf (2:1.0.10-1) ...
Setting up libsm-dev:armhf (2:1.2.3-1) ...
Setting up libvisp-visual-features3.6:armhf (3.6.0-2) ...
Setting up libxdmcp-dev:armhf (1:1.1.2-3) ...
Setting up libvisp-blob-dev:armhf (3.6.0-2) ...
Setting up libxcb1-dev:armhf (1.15-1) ...
Setting up libvisp-vision3.6:armhf (3.6.0-2) ...
Setting up libx11-dev:armhf (2:1.8.7-1) ...
Setting up libvisp-visual-features-dev:armhf (3.6.0-2) ...
Setting up libxfixes-dev:armhf (1:6.0.0-2) ...
Setting up libxt-dev:armhf (1:1.2.1-1.1) ...
Setting up libxpm-dev:armhf (1:3.5.17-1) ...
Setting up libxext-dev:armhf (2:1.3.4-1+b1) ...
Setting up libvisp-gui-dev:armhf (3.6.0-2) ...
Setting up libglx-dev:armhf (1.7.0-1) ...
Setting up libxi-dev:armhf (2:1.8-1+b1) ...
Setting up libvisp-vision-dev:armhf (3.6.0-2) ...
Setting up libvisp-mbt3.6:armhf (3.6.0-2) ...
Setting up libgl-dev:armhf (1.7.0-1) ...
Setting up libxmu-headers (2:1.1.3-3) ...
Setting up libxmu-dev:armhf (2:1.1.3-3) ...
Setting up libglu1-mesa-dev:armhf (9.0.2-1.1) ...
Setting up libglew-dev:armhf (2.2.0-4+b1) ...
Setting up libcoin-dev (4.0.2+ds-1) ...
Setting up libvisp-ar-dev:armhf (3.6.0-2) ...
Setting up libvisp-mbt-dev:armhf (3.6.0-2) ...
Processing triggers for libc-bin (2.37-13) ...
Reading package lists...
Building dependency tree...
Reading state information...
0 upgraded, 0 newly installed, 0 to remove and 16 not upgraded.
