Temporary header file '/tmp/OZWbbMtmx6/dump1.h' with the following content will be compiled to create GCC translation unit dump:

  // add defines
  #define __STDC_VERSION__ 201710L
#define _TIME_BITS 64
#define _FILE_OFFSET_BITS 64
#define _GXX_NULLPTR_T
#define CLUTTER_ENABLE_COMPOSITOR_API 1
#define _REGEX_NELTS(n)
#define _Atomic
#define PACKED
#ifdef __cplusplus
// C17 compat layer
#define _Alignof(type) alignof(type)
#endif
#define getaddrinfo_a(a,b,c,d) 
#define DEBUG_TYPE "test"

  // add includes
  #include "/usr/include/llvm-14/llvm/CodeGen/AccelTable.h"
  #include "/usr/include/llvm-14/llvm/CodeGen/Analysis.h"
  #include "/usr/include/llvm-14/llvm/CodeGen/AntiDepBreaker.h"
  #include "/usr/include/llvm-14/llvm/CodeGen/AsmPrinter.h"
  #include "/usr/include/llvm-14/llvm/CodeGen/AsmPrinterHandler.h"
  #include "/usr/include/llvm-14/llvm/CodeGen/AtomicExpandUtils.h"
  #include "/usr/include/llvm-14/llvm/CodeGen/BasicBlockSectionUtils.h"
  #include "/usr/include/llvm-14/llvm/CodeGen/BasicTTIImpl.h"
  #include "/usr/include/llvm-14/llvm/CodeGen/CSEConfigBase.h"
  #include "/usr/include/llvm-14/llvm/CodeGen/CalcSpillWeights.h"
  #include "/usr/include/llvm-14/llvm/CodeGen/CallingConvLower.h"
  #include "/usr/include/llvm-14/llvm/CodeGen/CodeGenCommonISel.h"
  #include "/usr/include/llvm-14/llvm/CodeGen/CodeGenPassBuilder.h"
  #include "/usr/include/llvm-14/llvm/CodeGen/CommandFlags.h"
  #include "/usr/include/llvm-14/llvm/CodeGen/CostTable.h"
  #include "/usr/include/llvm-14/llvm/CodeGen/DAGCombine.h"
  #include "/usr/include/llvm-14/llvm/CodeGen/DFAPacketizer.h"
  #include "/usr/include/llvm-14/llvm/CodeGen/DIE.h"
  #include "/usr/include/llvm-14/llvm/CodeGen/DbgEntityHistoryCalculator.h"
  #include "/usr/include/llvm-14/llvm/CodeGen/DebugHandlerBase.h"
  #include "/usr/include/llvm-14/llvm/CodeGen/DwarfStringPoolEntry.h"
  #include "/usr/include/llvm-14/llvm/CodeGen/EdgeBundles.h"
  #include "/usr/include/llvm-14/llvm/CodeGen/ExecutionDomainFix.h"
  #include "/usr/include/llvm-14/llvm/CodeGen/ExpandReductions.h"
  #include "/usr/include/llvm-14/llvm/CodeGen/ExpandVectorPredication.h"
  #include "/usr/include/llvm-14/llvm/CodeGen/FastISel.h"
  #include "/usr/include/llvm-14/llvm/CodeGen/FaultMaps.h"
  #include "/usr/include/llvm-14/llvm/CodeGen/FunctionLoweringInfo.h"
  #include "/usr/include/llvm-14/llvm/CodeGen/GCMetadata.h"
  #include "/usr/include/llvm-14/llvm/CodeGen/GCMetadataPrinter.h"
  #include "/usr/include/llvm-14/llvm/CodeGen/ISDOpcodes.h"
  #include "/usr/include/llvm-14/llvm/CodeGen/IndirectThunks.h"
  #include "/usr/include/llvm-14/llvm/CodeGen/IntrinsicLowering.h"
  #include "/usr/include/llvm-14/llvm/CodeGen/LatencyPriorityQueue.h"
  #include "/usr/include/llvm-14/llvm/CodeGen/LazyMachineBlockFrequencyInfo.h"
  #include "/usr/include/llvm-14/llvm/CodeGen/LexicalScopes.h"
  #include "/usr/include/llvm-14/llvm/CodeGen/LinkAllAsmWriterComponents.h"
  #include "/usr/include/llvm-14/llvm/CodeGen/LinkAllCodegenComponents.h"
  #include "/usr/include/llvm-14/llvm/CodeGen/LiveInterval.h"
  #include "/usr/include/llvm-14/llvm/CodeGen/LiveIntervalCalc.h"
  #include "/usr/include/llvm-14/llvm/CodeGen/LiveIntervalUnion.h"
  #include "/usr/include/llvm-14/llvm/CodeGen/LiveIntervals.h"
  #include "/usr/include/llvm-14/llvm/CodeGen/LivePhysRegs.h"
  #include "/usr/include/llvm-14/llvm/CodeGen/LiveRangeCalc.h"
  #include "/usr/include/llvm-14/llvm/CodeGen/LiveRangeEdit.h"
  #include "/usr/include/llvm-14/llvm/CodeGen/LiveRegMatrix.h"
  #include "/usr/include/llvm-14/llvm/CodeGen/LiveRegUnits.h"
  #include "/usr/include/llvm-14/llvm/CodeGen/LiveStacks.h"
  #include "/usr/include/llvm-14/llvm/CodeGen/LiveVariables.h"
  #include "/usr/include/llvm-14/llvm/CodeGen/LoopTraversal.h"
  #include "/usr/include/llvm-14/llvm/CodeGen/LowLevelType.h"
  #include "/usr/include/llvm-14/llvm/CodeGen/MBFIWrapper.h"
  #include "/usr/include/llvm-14/llvm/CodeGen/MIRFSDiscriminator.h"
  #include "/usr/include/llvm-14/llvm/CodeGen/MIRFormatter.h"
  #include "/usr/include/llvm-14/llvm/CodeGen/MIRPrinter.h"
  #include "/usr/include/llvm-14/llvm/CodeGen/MIRSampleProfile.h"
  #include "/usr/include/llvm-14/llvm/CodeGen/MIRYamlMapping.h"
  #include "/usr/include/llvm-14/llvm/CodeGen/MachORelocation.h"
  #include "/usr/include/llvm-14/llvm/CodeGen/MachineBasicBlock.h"
  #include "/usr/include/llvm-14/llvm/CodeGen/MachineBlockFrequencyInfo.h"
  #include "/usr/include/llvm-14/llvm/CodeGen/MachineBranchProbabilityInfo.h"
  #include "/usr/include/llvm-14/llvm/CodeGen/MachineCombinerPattern.h"
  #include "/usr/include/llvm-14/llvm/CodeGen/MachineConstantPool.h"
  #include "/usr/include/llvm-14/llvm/CodeGen/MachineCycleAnalysis.h"
  #include "/usr/include/llvm-14/llvm/CodeGen/MachineDominanceFrontier.h"
  #include "/usr/include/llvm-14/llvm/CodeGen/MachineDominators.h"
  #include "/usr/include/llvm-14/llvm/CodeGen/MachineFrameInfo.h"
  #include "/usr/include/llvm-14/llvm/CodeGen/MachineFunction.h"
  #include "/usr/include/llvm-14/llvm/CodeGen/MachineFunctionPass.h"
  #include "/usr/include/llvm-14/llvm/CodeGen/MachineInstr.h"
  #include "/usr/include/llvm-14/llvm/CodeGen/MachineInstrBuilder.h"
  #include "/usr/include/llvm-14/llvm/CodeGen/MachineInstrBundle.h"
  #include "/usr/include/llvm-14/llvm/CodeGen/MachineInstrBundleIterator.h"
  #include "/usr/include/llvm-14/llvm/CodeGen/MachineJumpTableInfo.h"
  #include "/usr/include/llvm-14/llvm/CodeGen/MachineLoopInfo.h"
  #include "/usr/include/llvm-14/llvm/CodeGen/MachineLoopUtils.h"
  #include "/usr/include/llvm-14/llvm/CodeGen/MachineMemOperand.h"
  #include "/usr/include/llvm-14/llvm/CodeGen/MachineModuleInfo.h"
  #include "/usr/include/llvm-14/llvm/CodeGen/MachineModuleInfoImpls.h"
  #include "/usr/include/llvm-14/llvm/CodeGen/MachineModuleSlotTracker.h"
  #include "/usr/include/llvm-14/llvm/CodeGen/MachineOperand.h"
  #include "/usr/include/llvm-14/llvm/CodeGen/MachineOptimizationRemarkEmitter.h"
  #include "/usr/include/llvm-14/llvm/CodeGen/MachineOutliner.h"
  #include "/usr/include/llvm-14/llvm/CodeGen/MachinePassManager.h"
  #include "/usr/include/llvm-14/llvm/CodeGen/MachinePassRegistry.h"
  #include "/usr/include/llvm-14/llvm/CodeGen/MachinePipeliner.h"
  #include "/usr/include/llvm-14/llvm/CodeGen/MachinePostDominators.h"
  #include "/usr/include/llvm-14/llvm/CodeGen/MachineRegionInfo.h"
  #include "/usr/include/llvm-14/llvm/CodeGen/MachineRegisterInfo.h"
  #include "/usr/include/llvm-14/llvm/CodeGen/MachineSSAContext.h"
  #include "/usr/include/llvm-14/llvm/CodeGen/MachineSSAUpdater.h"
  #include "/usr/include/llvm-14/llvm/CodeGen/MachineScheduler.h"
  #include "/usr/include/llvm-14/llvm/CodeGen/MachineSizeOpts.h"
  #include "/usr/include/llvm-14/llvm/CodeGen/MachineStableHash.h"
  #include "/usr/include/llvm-14/llvm/CodeGen/MachineTraceMetrics.h"
  #include "/usr/include/llvm-14/llvm/CodeGen/MacroFusion.h"
  #include "/usr/include/llvm-14/llvm/CodeGen/ModuloSchedule.h"
  #include "/usr/include/llvm-14/llvm/CodeGen/MultiHazardRecognizer.h"
  #include "/usr/include/llvm-14/llvm/CodeGen/NonRelocatableStringpool.h"
  #include "/usr/include/llvm-14/llvm/CodeGen/PBQPRAConstraint.h"
  #include "/usr/include/llvm-14/llvm/CodeGen/ParallelCG.h"
  #include "/usr/include/llvm-14/llvm/CodeGen/Passes.h"
  #include "/usr/include/llvm-14/llvm/CodeGen/PreISelIntrinsicLowering.h"
  #include "/usr/include/llvm-14/llvm/CodeGen/PseudoSourceValue.h"
  #include "/usr/include/llvm-14/llvm/CodeGen/RDFGraph.h"
  #include "/usr/include/llvm-14/llvm/CodeGen/RDFLiveness.h"
  #include "/usr/include/llvm-14/llvm/CodeGen/RDFRegisters.h"
  #include "/usr/include/llvm-14/llvm/CodeGen/ReachingDefAnalysis.h"
  #include "/usr/include/llvm-14/llvm/CodeGen/RegAllocCommon.h"
  #include "/usr/include/llvm-14/llvm/CodeGen/RegAllocPBQP.h"
  #include "/usr/include/llvm-14/llvm/CodeGen/RegAllocRegistry.h"
  #include "/usr/include/llvm-14/llvm/CodeGen/Register.h"
  #include "/usr/include/llvm-14/llvm/CodeGen/RegisterClassInfo.h"
  #include "/usr/include/llvm-14/llvm/CodeGen/RegisterPressure.h"
  #include "/usr/include/llvm-14/llvm/CodeGen/RegisterScavenging.h"
  #include "/usr/include/llvm-14/llvm/CodeGen/RegisterUsageInfo.h"
  #include "/usr/include/llvm-14/llvm/CodeGen/ReplaceWithVeclib.h"
  #include "/usr/include/llvm-14/llvm/CodeGen/ResourcePriorityQueue.h"
  #include "/usr/include/llvm-14/llvm/CodeGen/RuntimeLibcalls.h"
  #include "/usr/include/llvm-14/llvm/CodeGen/ScheduleDAG.h"
  #include "/usr/include/llvm-14/llvm/CodeGen/ScheduleDAGInstrs.h"
  #include "/usr/include/llvm-14/llvm/CodeGen/ScheduleDAGMutation.h"
  #include "/usr/include/llvm-14/llvm/CodeGen/ScheduleDFS.h"
  #include "/usr/include/llvm-14/llvm/CodeGen/ScheduleHazardRecognizer.h"
  #include "/usr/include/llvm-14/llvm/CodeGen/SchedulerRegistry.h"
  #include "/usr/include/llvm-14/llvm/CodeGen/ScoreboardHazardRecognizer.h"
  #include "/usr/include/llvm-14/llvm/CodeGen/SelectionDAG.h"
  #include "/usr/include/llvm-14/llvm/CodeGen/SelectionDAGAddressAnalysis.h"
  #include "/usr/include/llvm-14/llvm/CodeGen/SelectionDAGISel.h"
  #include "/usr/include/llvm-14/llvm/CodeGen/SelectionDAGNodes.h"
  #include "/usr/include/llvm-14/llvm/CodeGen/SelectionDAGTargetInfo.h"
  #include "/usr/include/llvm-14/llvm/CodeGen/SlotIndexes.h"
  #include "/usr/include/llvm-14/llvm/CodeGen/Spiller.h"
  #include "/usr/include/llvm-14/llvm/CodeGen/StableHashing.h"
  #include "/usr/include/llvm-14/llvm/CodeGen/StackMaps.h"
  #include "/usr/include/llvm-14/llvm/CodeGen/StackProtector.h"
  #include "/usr/include/llvm-14/llvm/CodeGen/SwiftErrorValueTracking.h"
  #include "/usr/include/llvm-14/llvm/CodeGen/SwitchLoweringUtils.h"
  #include "/usr/include/llvm-14/llvm/CodeGen/TailDuplicator.h"
  #include "/usr/include/llvm-14/llvm/CodeGen/TargetCallingConv.h"
  #include "/usr/include/llvm-14/llvm/CodeGen/TargetFrameLowering.h"
  #include "/usr/include/llvm-14/llvm/CodeGen/TargetInstrInfo.h"
  #include "/usr/include/llvm-14/llvm/CodeGen/TargetLowering.h"
  #include "/usr/include/llvm-14/llvm/CodeGen/TargetLoweringObjectFileImpl.h"
  #include "/usr/include/llvm-14/llvm/CodeGen/TargetOpcodes.h"
  #include "/usr/include/llvm-14/llvm/CodeGen/TargetPassConfig.h"
  #include "/usr/include/llvm-14/llvm/CodeGen/TargetRegisterInfo.h"
  #include "/usr/include/llvm-14/llvm/CodeGen/TargetSchedule.h"
  #include "/usr/include/llvm-14/llvm/CodeGen/TargetSubtargetInfo.h"
  #include "/usr/include/llvm-14/llvm/CodeGen/TileShapeInfo.h"
  #include "/usr/include/llvm-14/llvm/CodeGen/UnreachableBlockElim.h"
  #include "/usr/include/llvm-14/llvm/CodeGen/VLIWMachineScheduler.h"
  #include "/usr/include/llvm-14/llvm/CodeGen/ValueTypes.h"
  #include "/usr/include/llvm-14/llvm/CodeGen/VirtRegMap.h"
  #include "/usr/include/llvm-14/llvm/CodeGen/WasmEHFuncInfo.h"
  #include "/usr/include/llvm-14/llvm/CodeGen/WinEHFuncInfo.h"
  #include "/usr/include/llvm-14/llvm/CodeGen/GlobalISel/CSEInfo.h"
  #include "/usr/include/llvm-14/llvm/CodeGen/GlobalISel/CSEMIRBuilder.h"
  #include "/usr/include/llvm-14/llvm/CodeGen/GlobalISel/CallLowering.h"
  #include "/usr/include/llvm-14/llvm/CodeGen/GlobalISel/Combiner.h"
  #include "/usr/include/llvm-14/llvm/CodeGen/GlobalISel/CombinerHelper.h"
  #include "/usr/include/llvm-14/llvm/CodeGen/GlobalISel/CombinerInfo.h"
  #include "/usr/include/llvm-14/llvm/CodeGen/GlobalISel/GISelChangeObserver.h"
  #include "/usr/include/llvm-14/llvm/CodeGen/GlobalISel/GISelKnownBits.h"
  #include "/usr/include/llvm-14/llvm/CodeGen/GlobalISel/GISelWorkList.h"
  #include "/usr/include/llvm-14/llvm/CodeGen/GlobalISel/GenericMachineInstrs.h"
  #include "/usr/include/llvm-14/llvm/CodeGen/GlobalISel/IRTranslator.h"
  #include "/usr/include/llvm-14/llvm/CodeGen/GlobalISel/InlineAsmLowering.h"
  #include "/usr/include/llvm-14/llvm/CodeGen/GlobalISel/InstructionSelect.h"
  #include "/usr/include/llvm-14/llvm/CodeGen/GlobalISel/InstructionSelector.h"
  #include "/usr/include/llvm-14/llvm/CodeGen/GlobalISel/InstructionSelectorImpl.h"
  #include "/usr/include/llvm-14/llvm/CodeGen/GlobalISel/LegacyLegalizerInfo.h"
  #include "/usr/include/llvm-14/llvm/CodeGen/GlobalISel/LegalizationArtifactCombiner.h"
  #include "/usr/include/llvm-14/llvm/CodeGen/GlobalISel/Legalizer.h"
  #include "/usr/include/llvm-14/llvm/CodeGen/GlobalISel/LegalizerHelper.h"
  #include "/usr/include/llvm-14/llvm/CodeGen/GlobalISel/LegalizerInfo.h"
  #include "/usr/include/llvm-14/llvm/CodeGen/GlobalISel/LoadStoreOpt.h"
  #include "/usr/include/llvm-14/llvm/CodeGen/GlobalISel/Localizer.h"
  #include "/usr/include/llvm-14/llvm/CodeGen/GlobalISel/LostDebugLocObserver.h"
  #include "/usr/include/llvm-14/llvm/CodeGen/GlobalISel/MIPatternMatch.h"
  #include "/usr/include/llvm-14/llvm/CodeGen/GlobalISel/MachineIRBuilder.h"
  #include "/usr/include/llvm-14/llvm/CodeGen/GlobalISel/RegBankSelect.h"
  #include "/usr/include/llvm-14/llvm/CodeGen/GlobalISel/RegisterBank.h"
  #include "/usr/include/llvm-14/llvm/CodeGen/GlobalISel/RegisterBankInfo.h"
  #include "/usr/include/llvm-14/llvm/CodeGen/GlobalISel/Utils.h"
  #include "/usr/include/llvm-14/llvm/CodeGen/MIRParser/MIParser.h"
  #include "/usr/include/llvm-14/llvm/CodeGen/MIRParser/MIRParser.h"
  #include "/usr/include/llvm-14/llvm/CodeGen/PBQP/CostAllocator.h"
  #include "/usr/include/llvm-14/llvm/CodeGen/PBQP/Graph.h"
  #include "/usr/include/llvm-14/llvm/CodeGen/PBQP/Math.h"
  #include "/usr/include/llvm-14/llvm/CodeGen/PBQP/ReductionRules.h"
  #include "/usr/include/llvm-14/llvm/CodeGen/PBQP/Solution.h"

  // add namespaces
  namespace llvm{typedef int tmp_add_type_1;}
  llvm::tmp_add_type_1 tmp_add_func_1(){return 0;};
  namespace llvm{namespace AMDGPU{typedef int tmp_add_type_2;}}
  llvm::AMDGPU::tmp_add_type_2 tmp_add_func_2(){return 0;};
  namespace llvm{namespace APIntOps{typedef int tmp_add_type_3;}}
  llvm::APIntOps::tmp_add_type_3 tmp_add_func_3(){return 0;};
  namespace llvm{namespace ARM{typedef int tmp_add_type_4;}}
  llvm::ARM::tmp_add_type_4 tmp_add_func_4(){return 0;};
  namespace llvm{namespace ARMBuildAttrs{typedef int tmp_add_type_5;}}
  llvm::ARMBuildAttrs::tmp_add_type_5 tmp_add_func_5(){return 0;};
  namespace llvm{namespace AttributeFuncs{typedef int tmp_add_type_6;}}
  llvm::AttributeFuncs::tmp_add_type_6 tmp_add_func_6(){return 0;};
  namespace llvm{namespace binaryformat{typedef int tmp_add_type_7;}}
  llvm::binaryformat::tmp_add_type_7 tmp_add_func_7(){return 0;};
  namespace llvm{namespace BitmaskEnumDetail{typedef int tmp_add_type_8;}}
  llvm::BitmaskEnumDetail::tmp_add_type_8 tmp_add_func_8(){return 0;};
  namespace llvm{namespace CallingConv{typedef int tmp_add_type_9;}}
  llvm::CallingConv::tmp_add_type_9 tmp_add_func_9(){return 0;};
  namespace llvm{namespace cfg{typedef int tmp_add_type_10;}}
  llvm::cfg::tmp_add_type_10 tmp_add_func_10(){return 0;};
  namespace llvm{namespace cflaa{typedef int tmp_add_type_11;}}
  llvm::cflaa::tmp_add_type_11 tmp_add_func_11(){return 0;};
  namespace llvm{namespace cl{typedef int tmp_add_type_12;}}
  llvm::cl::tmp_add_type_12 tmp_add_func_12(){return 0;};
  namespace llvm{namespace cl{namespace detail{typedef int tmp_add_type_13;}}}
  llvm::cl::detail::tmp_add_type_13 tmp_add_func_13(){return 0;};
  namespace llvm{namespace codegen{typedef int tmp_add_type_14;}}
  llvm::codegen::tmp_add_type_14 tmp_add_func_14(){return 0;};
  namespace llvm{namespace CodeGenOpt{typedef int tmp_add_type_15;}}
  llvm::CodeGenOpt::tmp_add_type_15 tmp_add_func_15(){return 0;};
  namespace llvm{namespace CodeModel{typedef int tmp_add_type_16;}}
  llvm::CodeModel::tmp_add_type_16 tmp_add_func_16(){return 0;};
  namespace llvm{namespace codeview{typedef int tmp_add_type_17;}}
  llvm::codeview::tmp_add_type_17 tmp_add_func_17(){return 0;};
  namespace llvm{namespace consthoist{typedef int tmp_add_type_18;}}
  llvm::consthoist::tmp_add_type_18 tmp_add_func_18(){return 0;};
  namespace llvm{namespace detail{typedef int tmp_add_type_19;}}
  llvm::detail::tmp_add_type_19 tmp_add_func_19(){return 0;};
  namespace llvm{namespace DomTreeBuilder{typedef int tmp_add_type_20;}}
  llvm::DomTreeBuilder::tmp_add_type_20 tmp_add_func_20(){return 0;};
  namespace llvm{namespace dwarf{typedef int tmp_add_type_21;}}
  llvm::dwarf::tmp_add_type_21 tmp_add_func_21(){return 0;};
  namespace llvm{namespace ELF{typedef int tmp_add_type_22;}}
  llvm::ELF::tmp_add_type_22 tmp_add_func_22(){return 0;};
  namespace llvm{namespace ELFAttrs{typedef int tmp_add_type_23;}}
  llvm::ELFAttrs::tmp_add_type_23 tmp_add_func_23(){return 0;};
  namespace llvm{namespace FloatABI{typedef int tmp_add_type_24;}}
  llvm::FloatABI::tmp_add_type_24 tmp_add_func_24(){return 0;};
  namespace llvm{namespace fp{typedef int tmp_add_type_25;}}
  llvm::fp::tmp_add_type_25 tmp_add_func_25(){return 0;};
  namespace llvm{namespace FPOpFusion{typedef int tmp_add_type_26;}}
  llvm::FPOpFusion::tmp_add_type_26 tmp_add_func_26(){return 0;};
  namespace llvm{namespace GCOV{typedef int tmp_add_type_27;}}
  llvm::GCOV::tmp_add_type_27 tmp_add_func_27(){return 0;};
  namespace llvm{namespace GISelAddressing{typedef int tmp_add_type_28;}}
  llvm::GISelAddressing::tmp_add_type_28 tmp_add_func_28(){return 0;};
  namespace llvm{namespace hashing{typedef int tmp_add_type_29;}}
  llvm::hashing::tmp_add_type_29 tmp_add_func_29(){return 0;};
  namespace llvm{namespace hashing{namespace detail{typedef int tmp_add_type_30;}}}
  llvm::hashing::detail::tmp_add_type_30 tmp_add_func_30(){return 0;};
  namespace llvm{namespace IndexedInstrProf{typedef int tmp_add_type_31;}}
  llvm::IndexedInstrProf::tmp_add_type_31 tmp_add_func_31(){return 0;};
  namespace llvm{namespace internal{typedef int tmp_add_type_32;}}
  llvm::internal::tmp_add_type_32 tmp_add_func_32(){return 0;};
  namespace llvm{namespace IntervalMapImpl{typedef int tmp_add_type_33;}}
  llvm::IntervalMapImpl::tmp_add_type_33 tmp_add_func_33(){return 0;};
  namespace llvm{namespace Intrinsic{typedef int tmp_add_type_34;}}
  llvm::Intrinsic::tmp_add_type_34 tmp_add_func_34(){return 0;};
  namespace llvm{namespace ISD{typedef int tmp_add_type_35;}}
  llvm::ISD::tmp_add_type_35 tmp_add_func_35(){return 0;};
  namespace llvm{namespace ISD{namespace GlobalISel{typedef int tmp_add_type_36;}}}
  llvm::ISD::GlobalISel::tmp_add_type_36 tmp_add_func_36(){return 0;};
  namespace llvm{namespace JumpTable{typedef int tmp_add_type_37;}}
  llvm::JumpTable::tmp_add_type_37 tmp_add_func_37(){return 0;};
  namespace llvm{namespace LCOMM{typedef int tmp_add_type_38;}}
  llvm::LCOMM::tmp_add_type_38 tmp_add_func_38(){return 0;};
  namespace llvm{namespace legacy{typedef int tmp_add_type_39;}}
  llvm::legacy::tmp_add_type_39 tmp_add_func_39(){return 0;};
  namespace llvm{namespace LegacyLegalizeActions{typedef int tmp_add_type_40;}}
  llvm::LegacyLegalizeActions::tmp_add_type_40 tmp_add_func_40(){return 0;};
  namespace llvm{namespace LegalityPredicates{typedef int tmp_add_type_41;}}
  llvm::LegalityPredicates::tmp_add_type_41 tmp_add_func_41(){return 0;};
  namespace llvm{namespace LegalizeActions{typedef int tmp_add_type_42;}}
  llvm::LegalizeActions::tmp_add_type_42 tmp_add_func_42(){return 0;};
  namespace llvm{namespace LegalizeMutations{typedef int tmp_add_type_43;}}
  llvm::LegalizeMutations::tmp_add_type_43 tmp_add_func_43(){return 0;};
  namespace llvm{namespace mc{typedef int tmp_add_type_44;}}
  llvm::mc::tmp_add_type_44 tmp_add_func_44(){return 0;};
  namespace llvm{namespace mcdwarf{typedef int tmp_add_type_45;}}
  llvm::mcdwarf::tmp_add_type_45 tmp_add_func_45(){return 0;};
  namespace llvm{namespace MCID{typedef int tmp_add_type_46;}}
  llvm::MCID::tmp_add_type_46 tmp_add_func_46(){return 0;};
  namespace llvm{namespace MCOI{typedef int tmp_add_type_47;}}
  llvm::MCOI::tmp_add_type_47 tmp_add_func_47(){return 0;};
  namespace llvm{namespace mdconst{typedef int tmp_add_type_48;}}
  llvm::mdconst::tmp_add_type_48 tmp_add_func_48(){return 0;};
  namespace llvm{namespace mdconst{namespace detail{typedef int tmp_add_type_49;}}}
  llvm::mdconst::detail::tmp_add_type_49 tmp_add_func_49(){return 0;};
  namespace llvm{namespace MIPatternMatch{typedef int tmp_add_type_50;}}
  llvm::MIPatternMatch::tmp_add_type_50 tmp_add_func_50(){return 0;};
  namespace llvm{namespace numbers{typedef int tmp_add_type_51;}}
  llvm::numbers::tmp_add_type_51 tmp_add_func_51(){return 0;};
  namespace llvm{namespace object{typedef int tmp_add_type_52;}}
  llvm::object::tmp_add_type_52 tmp_add_func_52(){return 0;};
  namespace llvm{namespace ore{typedef int tmp_add_type_53;}}
  llvm::ore::tmp_add_type_53 tmp_add_func_53(){return 0;};
  namespace llvm{namespace outliner{typedef int tmp_add_type_54;}}
  llvm::outliner::tmp_add_type_54 tmp_add_func_54(){return 0;};
  namespace llvm{namespace PatternMatch{typedef int tmp_add_type_55;}}
  llvm::PatternMatch::tmp_add_type_55 tmp_add_func_55(){return 0;};
  namespace llvm{namespace PBQP{typedef int tmp_add_type_56;}}
  llvm::PBQP::tmp_add_type_56 tmp_add_func_56(){return 0;};
  namespace llvm{namespace PBQP{namespace RegAlloc{typedef int tmp_add_type_57;}}}
  llvm::PBQP::RegAlloc::tmp_add_type_57 tmp_add_func_57(){return 0;};
  namespace llvm{namespace PICLevel{typedef int tmp_add_type_58;}}
  llvm::PICLevel::tmp_add_type_58 tmp_add_func_58(){return 0;};
  namespace llvm{namespace PIELevel{typedef int tmp_add_type_59;}}
  llvm::PIELevel::tmp_add_type_59 tmp_add_func_59(){return 0;};
  namespace llvm{namespace RawInstrProf{typedef int tmp_add_type_60;}}
  llvm::RawInstrProf::tmp_add_type_60 tmp_add_func_60(){return 0;};
  namespace llvm{namespace rdf{typedef int tmp_add_type_61;}}
  llvm::rdf::tmp_add_type_61 tmp_add_func_61(){return 0;};
  namespace llvm{namespace rdf{namespace detail{typedef int tmp_add_type_62;}}}
  llvm::rdf::detail::tmp_add_type_62 tmp_add_func_62(){return 0;};
  namespace llvm{namespace RegState{typedef int tmp_add_type_63;}}
  llvm::RegState::tmp_add_type_63 tmp_add_func_63(){return 0;};
  namespace llvm{namespace Reloc{typedef int tmp_add_type_64;}}
  llvm::Reloc::tmp_add_type_64 tmp_add_func_64(){return 0;};
  namespace llvm{namespace remarks{typedef int tmp_add_type_65;}}
  llvm::remarks::tmp_add_type_65 tmp_add_func_65(){return 0;};
  namespace llvm{namespace RISCV{typedef int tmp_add_type_66;}}
  llvm::RISCV::tmp_add_type_66 tmp_add_func_66(){return 0;};
  namespace llvm{namespace RTLIB{typedef int tmp_add_type_67;}}
  llvm::RTLIB::tmp_add_type_67 tmp_add_func_67(){return 0;};
  namespace llvm{namespace sampleprof{typedef int tmp_add_type_68;}}
  llvm::sampleprof::tmp_add_type_68 tmp_add_func_68(){return 0;};
  namespace llvm{namespace Sched{typedef int tmp_add_type_69;}}
  llvm::Sched::tmp_add_type_69 tmp_add_func_69(){return 0;};
  namespace llvm{namespace support{typedef int tmp_add_type_70;}}
  llvm::support::tmp_add_type_70 tmp_add_func_70(){return 0;};
  namespace llvm{namespace support{namespace detail{typedef int tmp_add_type_71;}}}
  llvm::support::detail::tmp_add_type_71 tmp_add_func_71(){return 0;};
  namespace llvm{namespace support{namespace endian{typedef int tmp_add_type_72;}}}
  llvm::support::endian::tmp_add_type_72 tmp_add_func_72(){return 0;};
  namespace llvm{namespace SwitchCG{typedef int tmp_add_type_73;}}
  llvm::SwitchCG::tmp_add_type_73 tmp_add_func_73(){return 0;};
  namespace llvm{namespace SyncScope{typedef int tmp_add_type_74;}}
  llvm::SyncScope::tmp_add_type_74 tmp_add_func_74(){return 0;};
  namespace llvm{namespace sys{typedef int tmp_add_type_75;}}
  llvm::sys::tmp_add_type_75 tmp_add_func_75(){return 0;};
  namespace llvm{namespace sys{namespace detail{typedef int tmp_add_type_76;}}}
  llvm::sys::detail::tmp_add_type_76 tmp_add_func_76(){return 0;};
  namespace llvm{namespace sys{namespace detail{namespace x86{typedef int tmp_add_type_77;}}}}
  llvm::sys::detail::x86::tmp_add_type_77 tmp_add_func_77(){return 0;};
  namespace llvm{namespace sys{namespace fs{typedef int tmp_add_type_78;}}}
  llvm::sys::fs::tmp_add_type_78 tmp_add_func_78(){return 0;};
  namespace llvm{namespace TargetOpcode{typedef int tmp_add_type_79;}}
  llvm::TargetOpcode::tmp_add_type_79 tmp_add_func_79(){return 0;};
  namespace llvm{namespace TargetStackID{typedef int tmp_add_type_80;}}
  llvm::TargetStackID::tmp_add_type_80 tmp_add_func_80(){return 0;};
  namespace llvm{namespace ThreadModel{typedef int tmp_add_type_81;}}
  llvm::ThreadModel::tmp_add_type_81 tmp_add_func_81(){return 0;};
  namespace llvm{namespace TLSModel{typedef int tmp_add_type_82;}}
  llvm::TLSModel::tmp_add_type_82 tmp_add_func_82(){return 0;};
  namespace llvm{namespace VFABI{typedef int tmp_add_type_83;}}
  llvm::VFABI::tmp_add_type_83 tmp_add_func_83(){return 0;};
  namespace llvm{namespace vfs{typedef int tmp_add_type_84;}}
  llvm::vfs::tmp_add_type_84 tmp_add_func_84(){return 0;};
  namespace llvm{namespace WebAssembly{typedef int tmp_add_type_85;}}
  llvm::WebAssembly::tmp_add_type_85 tmp_add_func_85(){return 0;};
  namespace llvm{namespace WinEH{typedef int tmp_add_type_86;}}
  llvm::WinEH::tmp_add_type_86 tmp_add_func_86(){return 0;};
  namespace llvm{namespace XCOFF{typedef int tmp_add_type_87;}}
  llvm::XCOFF::tmp_add_type_87 tmp_add_func_87(){return 0;};
  namespace llvm{namespace yaml{typedef int tmp_add_type_88;}}
  llvm::yaml::tmp_add_type_88 tmp_add_func_88(){return 0;};
  namespace llvm{namespace yaml{namespace detail{typedef int tmp_add_type_89;}}}
  llvm::yaml::detail::tmp_add_type_89 tmp_add_func_89(){return 0;};
  namespace llvm{namespace __anon5044c5c815511{typedef int tmp_add_type_90;}}
  llvm::__anon5044c5c815511::tmp_add_type_90 tmp_add_func_90(){return 0;};
  namespace llvm{namespace adl_detail{typedef int tmp_add_type_91;}}
  llvm::adl_detail::tmp_add_type_91 tmp_add_func_91(){return 0;};
  namespace llvm{namespace bitfields_details{typedef int tmp_add_type_92;}}
  llvm::bitfields_details::tmp_add_type_92 tmp_add_func_92(){return 0;};
  namespace llvm{namespace hashbuilder_detail{typedef int tmp_add_type_93;}}
  llvm::hashbuilder_detail::tmp_add_type_93 tmp_add_func_93(){return 0;};
  namespace llvm{namespace ilist_detail{typedef int tmp_add_type_94;}}
  llvm::ilist_detail::tmp_add_type_94 tmp_add_func_94(){return 0;};
  namespace llvm{namespace optional_detail{typedef int tmp_add_type_95;}}
  llvm::optional_detail::tmp_add_type_95 tmp_add_func_95(){return 0;};
  namespace llvm{namespace pointer_union_detail{typedef int tmp_add_type_96;}}
  llvm::pointer_union_detail::tmp_add_type_96 tmp_add_func_96(){return 0;};
  namespace llvm{namespace trailing_objects_internal{typedef int tmp_add_type_97;}}
  llvm::trailing_objects_internal::tmp_add_type_97 tmp_add_func_97(){return 0;};

  // add classes
  InstrProfValueData* tmp_add_class_0;
  _G_fpos64_t* tmp_add_class_1;
  _G_fpos_t* tmp_add_class_2;
  _IO_cookie_io_functions_t* tmp_add_class_3;

The GCC parameters:
  gcc -fdump-lang-raw -fkeep-inline-functions -c -x c++ -fpermissive -w "/tmp/OZWbbMtmx6/dump1.h"  -I/usr/src/googletest -I/usr/include/llvm-c-14 -I/usr/include/llvm-14

