[2024-01-31T19:17:37+00:00] apt-get install libbpf-dev abi-compliance-checker
Reading package lists...
Building dependency tree...
Reading state information...
abi-compliance-checker is already the newest version (2.3-2).
The following packages were automatically installed and are no longer required:
  libbox2d-dev libbox2d2
Use 'apt autoremove' to remove them.
The following additional packages will be installed:
  libelf-dev libzstd-dev
The following NEW packages will be installed:
  libbpf-dev libelf-dev libzstd-dev
0 upgraded, 3 newly installed, 0 to remove and 45 not upgraded.
Need to get 618 kB of archives.
After this operation, 1990 kB of additional disk space will be used.
Get:1 http://deb.debian.org/debian unstable/main armhf libzstd-dev armhf 1.5.5+dfsg2-2 [322 kB]
Get:2 http://deb.debian.org/debian unstable/main armhf libelf-dev armhf 0.190-1+b1 [71.0 kB]
Get:3 http://deb.debian.org/debian unstable/main armhf libbpf-dev armhf 1:1.3.0-2 [225 kB]
debconf: delaying package configuration, since apt-utils is not installed
Fetched 618 kB in 0s (8962 kB/s)
Selecting previously unselected package libzstd-dev:armhf.
(Reading database ... (Reading database ... 5%(Reading database ... 10%(Reading database ... 15%(Reading database ... 20%(Reading database ... 25%(Reading database ... 30%(Reading database ... 35%(Reading database ... 40%(Reading database ... 45%(Reading database ... 50%(Reading database ... 55%(Reading database ... 60%(Reading database ... 65%(Reading database ... 70%(Reading database ... 75%(Reading database ... 80%(Reading database ... 85%(Reading database ... 90%(Reading database ... 95%(Reading database ... 100%(Reading database ... 19873 files and directories currently installed.)
Preparing to unpack .../libzstd-dev_1.5.5+dfsg2-2_armhf.deb ...
Unpacking libzstd-dev:armhf (1.5.5+dfsg2-2) ...
Selecting previously unselected package libelf-dev:armhf.
Preparing to unpack .../libelf-dev_0.190-1+b1_armhf.deb ...
Unpacking libelf-dev:armhf (0.190-1+b1) ...
Selecting previously unselected package libbpf-dev:armhf.
Preparing to unpack .../libbpf-dev_1%3a1.3.0-2_armhf.deb ...
Unpacking libbpf-dev:armhf (1:1.3.0-2) ...
Setting up libzstd-dev:armhf (1.5.5+dfsg2-2) ...
Setting up libelf-dev:armhf (0.190-1+b1) ...
Setting up libbpf-dev:armhf (1:1.3.0-2) ...
Reading package lists...
Building dependency tree...
Reading state information...
The following packages will be REMOVED:
  libbox2d-dev* libbox2d2*
0 upgraded, 0 newly installed, 2 to remove and 45 not upgraded.
After this operation, 442 kB disk space will be freed.
(Reading database ... (Reading database ... 5%(Reading database ... 10%(Reading database ... 15%(Reading database ... 20%(Reading database ... 25%(Reading database ... 30%(Reading database ... 35%(Reading database ... 40%(Reading database ... 45%(Reading database ... 50%(Reading database ... 55%(Reading database ... 60%(Reading database ... 65%(Reading database ... 70%(Reading database ... 75%(Reading database ... 80%(Reading database ... 85%(Reading database ... 90%(Reading database ... 95%(Reading database ... 100%(Reading database ... 19941 files and directories currently installed.)
Removing libbox2d-dev:armhf (2.4.1-3+b2) ...
Removing libbox2d2:armhf (2.4.1-3+b2) ...
Processing triggers for libc-bin (2.37-13) ...
