[2024-01-06T17:58:52+00:00] apt-get install libcpupower-dev abi-compliance-checker
Reading package lists...
Building dependency tree...
Reading state information...
abi-compliance-checker is already the newest version (2.3-2).
The following packages were automatically installed and are no longer required:
  libcpuinfo-dev libcpuinfo0
Use 'apt autoremove' to remove them.
The following additional packages will be installed:
  libcpupower1 linux-libc-dev
The following NEW packages will be installed:
  libcpupower-dev libcpupower1
The following packages will be upgraded:
  linux-libc-dev
1 upgraded, 2 newly installed, 0 to remove and 14 not upgraded.
Need to get 3713 kB of archives.
After this operation, 4289 kB of additional disk space will be used.
Get:1 http://deb.debian.org/debian unstable/main armhf libcpupower1 armhf 6.6.9-1 [748 kB]
Get:2 http://deb.debian.org/debian unstable/main armhf libcpupower-dev armhf 6.6.9-1 [742 kB]
Get:3 http://deb.debian.org/debian unstable/main armhf linux-libc-dev all 6.6.9-1 [2222 kB]
debconf: delaying package configuration, since apt-utils is not installed
Fetched 3713 kB in 1s (2931 kB/s)
Selecting previously unselected package libcpupower1.
(Reading database ... (Reading database ... 5%(Reading database ... 10%(Reading database ... 15%(Reading database ... 20%(Reading database ... 25%(Reading database ... 30%(Reading database ... 35%(Reading database ... 40%(Reading database ... 45%(Reading database ... 50%(Reading database ... 55%(Reading database ... 60%(Reading database ... 65%(Reading database ... 70%(Reading database ... 75%(Reading database ... 80%(Reading database ... 85%(Reading database ... 90%(Reading database ... 95%(Reading database ... 100%(Reading database ... 18565 files and directories currently installed.)
Preparing to unpack .../libcpupower1_6.6.9-1_armhf.deb ...
Unpacking libcpupower1 (6.6.9-1) ...
Selecting previously unselected package libcpupower-dev.
Preparing to unpack .../libcpupower-dev_6.6.9-1_armhf.deb ...
Unpacking libcpupower-dev (6.6.9-1) ...
Preparing to unpack .../linux-libc-dev_6.6.9-1_all.deb ...
Unpacking linux-libc-dev (6.6.9-1) over (6.5.13-1) ...
Setting up linux-libc-dev (6.6.9-1) ...
Setting up libcpupower1 (6.6.9-1) ...
Setting up libcpupower-dev (6.6.9-1) ...
Processing triggers for libc-bin (2.37-13) ...
Reading package lists...
Building dependency tree...
Reading state information...
The following packages will be REMOVED:
  libcpuinfo-dev* libcpuinfo0*
0 upgraded, 0 newly installed, 2 to remove and 14 not upgraded.
After this operation, 152 kB disk space will be freed.
(Reading database ... (Reading database ... 5%(Reading database ... 10%(Reading database ... 15%(Reading database ... 20%(Reading database ... 25%(Reading database ... 30%(Reading database ... 35%(Reading database ... 40%(Reading database ... 45%(Reading database ... 50%(Reading database ... 55%(Reading database ... 60%(Reading database ... 65%(Reading database ... 70%(Reading database ... 75%(Reading database ... 80%(Reading database ... 85%(Reading database ... 90%(Reading database ... 95%(Reading database ... 100%(Reading database ... 20223 files and directories currently installed.)
Removing libcpuinfo-dev (0.0~git20230113.6481e8b-2) ...
Removing libcpuinfo0:armhf (0.0~git20230113.6481e8b-2) ...
Processing triggers for libc-bin (2.37-13) ...
