[2024-01-08T13:46:42+00:00] apt-get install libwnn6-dev abi-compliance-checker
Reading package lists...
Building dependency tree...
Reading state information...
abi-compliance-checker is already the newest version (2.3-2).
The following package was automatically installed and is no longer required:
  libwnn0
Use 'apt autoremove' to remove it.
The following packages will be REMOVED:
  libwnn-dev
The following NEW packages will be installed:
  libwnn6-1 libwnn6-dev
0 upgraded, 2 newly installed, 1 to remove and 16 not upgraded.
Need to get 184 kB of archives.
After this operation, 268 kB disk space will be freed.
Get:1 http://deb.debian.org/debian unstable/main armhf libwnn6-1 armhf 1.0.0-19 [82.2 kB]
Get:2 http://deb.debian.org/debian unstable/main armhf libwnn6-dev armhf 1.0.0-19 [102 kB]
debconf: delaying package configuration, since apt-utils is not installed
Fetched 184 kB in 0s (964 kB/s)
(Reading database ... (Reading database ... 5%(Reading database ... 10%(Reading database ... 15%(Reading database ... 20%(Reading database ... 25%(Reading database ... 30%(Reading database ... 35%(Reading database ... 40%(Reading database ... 45%(Reading database ... 50%(Reading database ... 55%(Reading database ... 60%(Reading database ... 65%(Reading database ... 70%(Reading database ... 75%(Reading database ... 80%(Reading database ... 85%(Reading database ... 90%(Reading database ... 95%(Reading database ... 100%(Reading database ... 17235 files and directories currently installed.)
Removing libwnn-dev:armhf (1.1.1~a021+cvs20130302-7+b2) ...
Selecting previously unselected package libwnn6-1.
(Reading database ... (Reading database ... 5%(Reading database ... 10%(Reading database ... 15%(Reading database ... 20%(Reading database ... 25%(Reading database ... 30%(Reading database ... 35%(Reading database ... 40%(Reading database ... 45%(Reading database ... 50%(Reading database ... 55%(Reading database ... 60%(Reading database ... 65%(Reading database ... 70%(Reading database ... 75%(Reading database ... 80%(Reading database ... 85%(Reading database ... 90%(Reading database ... 95%(Reading database ... 100%(Reading database ... 17056 files and directories currently installed.)
Preparing to unpack .../libwnn6-1_1.0.0-19_armhf.deb ...
Unpacking libwnn6-1 (1.0.0-19) ...
Selecting previously unselected package libwnn6-dev.
Preparing to unpack .../libwnn6-dev_1.0.0-19_armhf.deb ...
Unpacking libwnn6-dev (1.0.0-19) ...
Setting up libwnn6-1 (1.0.0-19) ...
Setting up libwnn6-dev (1.0.0-19) ...
Processing triggers for libc-bin (2.37-13) ...
Reading package lists...
Building dependency tree...
Reading state information...
The following packages will be REMOVED:
  libwnn0*
0 upgraded, 0 newly installed, 1 to remove and 16 not upgraded.
After this operation, 300 kB disk space will be freed.
(Reading database ... (Reading database ... 5%(Reading database ... 10%(Reading database ... 15%(Reading database ... 20%(Reading database ... 25%(Reading database ... 30%(Reading database ... 35%(Reading database ... 40%(Reading database ... 45%(Reading database ... 50%(Reading database ... 55%(Reading database ... 60%(Reading database ... 65%(Reading database ... 70%(Reading database ... 75%(Reading database ... 80%(Reading database ... 85%(Reading database ... 90%(Reading database ... 95%(Reading database ... 100%(Reading database ... 17075 files and directories currently installed.)
Removing libwnn0:armhf (1.1.1~a021+cvs20130302-7+b2) ...
Processing triggers for libc-bin (2.37-13) ...
