Using GCC 13 (arm-linux-gnueabihf, target: arm)
WARNING: May not work properly with GCC 4.8.[0-2], 6.* and higher due to bug #78040 in GCC. Please try other GCC versions with the help of --gcc-path=PATH option or create ABI dumps by ABI Dumper tool instead to avoid using GCC. Test selected GCC version first by -test option.
Checking header(s) base ...
Temporary header file '/tmp/H_dE6j93ZO/dump1.h' with the following content will be compiled to create GCC translation unit dump:

  // add defines
  #define __STDC_VERSION__ 201710L
#define _GXX_NULLPTR_T
#define CLUTTER_ENABLE_COMPOSITOR_API 1
#define _REGEX_NELTS(n)
#define _Atomic
#define PACKED
#ifdef __cplusplus
// C17 compat layer
#define _Alignof(type) alignof(type)
#endif
#define getaddrinfo_a(a,b,c,d)

  // add includes
  #include "/usr/share/polymake/lib/core/skel/bindings.h"

The GCC parameters:
  gcc -fdump-lang-raw -fkeep-inline-functions -c -x c++ -fpermissive -w "/tmp/H_dE6j93ZO/dump1.h"

In file included from /tmp/H_dE6j93ZO/dump1.h:16:
/usr/share/polymake/lib/core/skel/bindings.h:22:15: fatal error: @{[ $vars->{include_file} ]}: No such file or directory
   22 | #include_next "@{[ $vars->{include_file} ]}"
      |               ^~~~~~~~~~~~~~~~~~~~~~~~~~~~~~
compilation terminated.
ERROR: some errors occurred when compiling headers
ERROR: see log for details:
  /home/adrien/armhf-time_t/out/logs/polymake-common/base/abi-compliance-checker.log


ERROR: can't compile header(s)
