Using GCC 13 (arm-linux-gnueabihf, target: arm)
WARNING: May not work properly with GCC 4.8.[0-2], 6.* and higher due to bug #78040 in GCC. Please try other GCC versions with the help of --gcc-path=PATH option or create ABI dumps by ABI Dumper tool instead to avoid using GCC. Test selected GCC version first by -test option.
Checking header(s) base ...
Temporary header file '/tmp/JK9SFWe0LV/dump1.h' with the following content will be compiled to create GCC translation unit dump:

  // add defines
  #define __STDC_VERSION__ 201710L
#define _GXX_NULLPTR_T
#define CLUTTER_ENABLE_COMPOSITOR_API 1
#define _REGEX_NELTS(n)
#define _Atomic
#define PACKED
#ifdef __cplusplus
// C17 compat layer
#define _Alignof(type) alignof(type)
#endif
#define getaddrinfo_a(a,b,c,d)

  // add includes
  #include "/usr/include/opendmarc/dmarc.h"

  // add classes
  _G_fpos64_t* tmp_add_class_0;
  _G_fpos_t* tmp_add_class_1;
  _IO_cookie_io_functions_t* tmp_add_class_2;
  _ns_flagdata* tmp_add_class_3;
  cmsghdr* tmp_add_class_4;
  group_filter* tmp_add_class_5;
  group_req* tmp_add_class_6;
  group_source_req* tmp_add_class_7;
  in6_addr* tmp_add_class_8;
  in6_pktinfo* tmp_add_class_9;
  in_addr* tmp_add_class_10;
  in_pktinfo* tmp_add_class_11;
  iovec* tmp_add_class_12;
  ip6_mtuinfo* tmp_add_class_13;
  ip_mreq* tmp_add_class_14;
  ip_mreq_source* tmp_add_class_15;
  ip_mreqn* tmp_add_class_16;
  ip_msfilter* tmp_add_class_17;
  ip_opts* tmp_add_class_18;
  ipv6_mreq* tmp_add_class_19;
  linger* tmp_add_class_20;
  mmsghdr* tmp_add_class_21;
  msghdr* tmp_add_class_22;
  ns_tcp_tsig_state* tmp_add_class_23;
  ns_tsig_key* tmp_add_class_24;
  osockaddr* tmp_add_class_25;
  res_sym* tmp_add_class_26;
  sockaddr* tmp_add_class_27;
  sockaddr_in* tmp_add_class_28;
  sockaddr_in6* tmp_add_class_29;
  sockaddr_storage* tmp_add_class_30;
  ucontext_t* tmp_add_class_31;
  ucred* tmp_add_class_32;

The GCC parameters:
  gcc -fdump-lang-raw -fkeep-inline-functions -c -x c++ -fpermissive -w "/tmp/JK9SFWe0LV/dump1.h"

/tmp/JK9SFWe0LV/dump1.h:22:3: error: '_ns_flagdata' does not name a type
   22 |   _ns_flagdata* tmp_add_class_3;
      |   ^~~~~~~~~~~~
ERROR: some errors occurred when compiling headers
ERROR: see log for details:
  /home/adrien/armhf-time_t/out/logs/libopendmarc-dev/base/abi-compliance-checker.log


Creating library ABI dump ...
Dump path: out/logs/libopendmarc-dev/libopendmarc-dev_base.dump
