[2024-01-08T14:28:01+00:00] apt-get install libxml2-dev abi-compliance-checker
Reading package lists...
Building dependency tree...
Reading state information...
abi-compliance-checker is already the newest version (2.3-2).
The following packages were automatically installed and are no longer required:
  libbrotli1 libcurl3-gnutls libnghttp2-14 libpsl5 librtmp1 libssh2-1
  libssl-dev libxerces-c-dev libxerces-c3.2 libxml-security-c-dev
  libxml-security-c20
Use 'apt autoremove' to remove them.
Suggested packages:
  pkg-config
The following NEW packages will be installed:
  libxml2-dev
0 upgraded, 1 newly installed, 0 to remove and 14 not upgraded.
Need to get 717 kB of archives.
After this operation, 2180 kB of additional disk space will be used.
Get:1 http://deb.debian.org/debian unstable/main armhf libxml2-dev armhf 2.9.14+dfsg-1.3+b2 [717 kB]
debconf: delaying package configuration, since apt-utils is not installed
Fetched 717 kB in 0s (19.4 MB/s)
Selecting previously unselected package libxml2-dev:armhf.
(Reading database ... (Reading database ... 5%(Reading database ... 10%(Reading database ... 15%(Reading database ... 20%(Reading database ... 25%(Reading database ... 30%(Reading database ... 35%(Reading database ... 40%(Reading database ... 45%(Reading database ... 50%(Reading database ... 55%(Reading database ... 60%(Reading database ... 65%(Reading database ... 70%(Reading database ... 75%(Reading database ... 80%(Reading database ... 85%(Reading database ... 90%(Reading database ... 95%(Reading database ... 100%(Reading database ... 18264 files and directories currently installed.)
Preparing to unpack .../libxml2-dev_2.9.14+dfsg-1.3+b2_armhf.deb ...
Unpacking libxml2-dev:armhf (2.9.14+dfsg-1.3+b2) ...
Setting up libxml2-dev:armhf (2.9.14+dfsg-1.3+b2) ...
Reading package lists...
Building dependency tree...
Reading state information...
The following packages will be REMOVED:
  libbrotli1* libcurl3-gnutls* libnghttp2-14* libpsl5* librtmp1* libssh2-1*
  libssl-dev* libxerces-c-dev* libxerces-c3.2* libxml-security-c-dev*
  libxml-security-c20*
0 upgraded, 0 newly installed, 11 to remove and 14 not upgraded.
After this operation, 28.9 MB disk space will be freed.
(Reading database ... (Reading database ... 5%(Reading database ... 10%(Reading database ... 15%(Reading database ... 20%(Reading database ... 25%(Reading database ... 30%(Reading database ... 35%(Reading database ... 40%(Reading database ... 45%(Reading database ... 50%(Reading database ... 55%(Reading database ... 60%(Reading database ... 65%(Reading database ... 70%(Reading database ... 75%(Reading database ... 80%(Reading database ... 85%(Reading database ... 90%(Reading database ... 95%(Reading database ... 100%(Reading database ... 18327 files and directories currently installed.)
Removing libxml-security-c-dev:armhf (2.0.4-2) ...
Removing libxerces-c-dev:armhf (3.2.4+debian-1.1) ...
Removing libxml-security-c20:armhf (2.0.4-2) ...
Removing libxerces-c3.2:armhf (3.2.4+debian-1.1) ...
Removing libcurl3-gnutls:armhf (8.5.0-2) ...
Removing libbrotli1:armhf (1.1.0-2+b3) ...
Removing libnghttp2-14:armhf (1.58.0-1) ...
Removing libpsl5:armhf (0.21.2-1+b1) ...
Removing librtmp1:armhf (2.4+20151223.gitfa8646d.1-2+b2) ...
Removing libssh2-1:armhf (1.11.0-4) ...
Removing libssl-dev:armhf (3.1.4-2) ...
Processing triggers for libc-bin (2.37-13) ...
