[2024-02-21T06:24:32+00:00] apt-get install libzltext-dev abi-compliance-checker
Reading package lists...
Building dependency tree...
Reading state information...
abi-compliance-checker is already the newest version (2.3-2).
The following packages were automatically installed and are no longer required:
  libzfp-dev libzfp1
Use 'apt autoremove' to remove them.
The following additional packages will be installed:
  libfribidi0 libunibreak5 libzlcore-data libzlcore0.13 libzltext-data
  libzltext0.13
The following NEW packages will be installed:
  libfribidi0 libunibreak5 libzlcore-data libzlcore0.13 libzltext-data
  libzltext-dev libzltext0.13
0 upgraded, 7 newly installed, 0 to remove and 29 not upgraded.
Need to get 1139 kB of archives.
After this operation, 3491 kB of additional disk space will be used.
Get:1 http://deb.debian.org/debian unstable/main armhf libfribidi0 armhf 1.0.13-3+b1 [69.4 kB]
Get:2 http://deb.debian.org/debian unstable/main armhf libunibreak5 armhf 5.1-2 [19.6 kB]
Get:3 http://deb.debian.org/debian unstable/main armhf libzlcore-data all 0.99.4+dfsg-5 [315 kB]
Get:4 http://deb.debian.org/debian unstable/main armhf libzlcore0.13 armhf 0.99.4+dfsg-5+b1 [205 kB]
Get:5 http://deb.debian.org/debian unstable/main armhf libzltext-data all 0.99.4+dfsg-5 [420 kB]
Get:6 http://deb.debian.org/debian unstable/main armhf libzltext0.13 armhf 0.99.4+dfsg-5+b1 [85.8 kB]
Get:7 http://deb.debian.org/debian unstable/main armhf libzltext-dev armhf 0.99.4+dfsg-5+b1 [24.1 kB]
debconf: delaying package configuration, since apt-utils is not installed
Fetched 1139 kB in 1s (1808 kB/s)
Selecting previously unselected package libfribidi0:armhf.
(Reading database ... (Reading database ... 5%(Reading database ... 10%(Reading database ... 15%(Reading database ... 20%(Reading database ... 25%(Reading database ... 30%(Reading database ... 35%(Reading database ... 40%(Reading database ... 45%(Reading database ... 50%(Reading database ... 55%(Reading database ... 60%(Reading database ... 65%(Reading database ... 70%(Reading database ... 75%(Reading database ... 80%(Reading database ... 85%(Reading database ... 90%(Reading database ... 95%(Reading database ... 100%(Reading database ... 18349 files and directories currently installed.)
Preparing to unpack .../0-libfribidi0_1.0.13-3+b1_armhf.deb ...
Unpacking libfribidi0:armhf (1.0.13-3+b1) ...
Selecting previously unselected package libunibreak5:armhf.
Preparing to unpack .../1-libunibreak5_5.1-2_armhf.deb ...
Unpacking libunibreak5:armhf (5.1-2) ...
Selecting previously unselected package libzlcore-data.
Preparing to unpack .../2-libzlcore-data_0.99.4+dfsg-5_all.deb ...
Unpacking libzlcore-data (0.99.4+dfsg-5) ...
Selecting previously unselected package libzlcore0.13.
Preparing to unpack .../3-libzlcore0.13_0.99.4+dfsg-5+b1_armhf.deb ...
Unpacking libzlcore0.13 (0.99.4+dfsg-5+b1) ...
Selecting previously unselected package libzltext-data.
Preparing to unpack .../4-libzltext-data_0.99.4+dfsg-5_all.deb ...
Unpacking libzltext-data (0.99.4+dfsg-5) ...
Selecting previously unselected package libzltext0.13.
Preparing to unpack .../5-libzltext0.13_0.99.4+dfsg-5+b1_armhf.deb ...
Unpacking libzltext0.13 (0.99.4+dfsg-5+b1) ...
Selecting previously unselected package libzltext-dev.
Preparing to unpack .../6-libzltext-dev_0.99.4+dfsg-5+b1_armhf.deb ...
Unpacking libzltext-dev (0.99.4+dfsg-5+b1) ...
Setting up libzltext-data (0.99.4+dfsg-5) ...
Setting up libzlcore-data (0.99.4+dfsg-5) ...
Setting up libfribidi0:armhf (1.0.13-3+b1) ...
Setting up libunibreak5:armhf (5.1-2) ...
Setting up libzlcore0.13 (0.99.4+dfsg-5+b1) ...
Setting up libzltext0.13 (0.99.4+dfsg-5+b1) ...
Setting up libzltext-dev (0.99.4+dfsg-5+b1) ...
Processing triggers for libc-bin (2.37-15) ...
Reading package lists...
Building dependency tree...
Reading state information...
The following packages will be REMOVED:
  libzfp-dev* libzfp1*
0 upgraded, 0 newly installed, 2 to remove and 29 not upgraded.
After this operation, 752 kB disk space will be freed.
(Reading database ... (Reading database ... 5%(Reading database ... 10%(Reading database ... 15%(Reading database ... 20%(Reading database ... 25%(Reading database ... 30%(Reading database ... 35%(Reading database ... 40%(Reading database ... 45%(Reading database ... 50%(Reading database ... 55%(Reading database ... 60%(Reading database ... 65%(Reading database ... 70%(Reading database ... 75%(Reading database ... 80%(Reading database ... 85%(Reading database ... 90%(Reading database ... 95%(Reading database ... 100%(Reading database ... 18469 files and directories currently installed.)
Removing libzfp-dev (1.0.1-3) ...
Removing libzfp1:armhf (1.0.1-3) ...
Processing triggers for libc-bin (2.37-15) ...
