[2024-01-08T10:14:44+00:00] apt-get install libsword-dev libicu-dev abi-compliance-checker
Reading package lists...
Building dependency tree...
Reading state information...
abi-compliance-checker is already the newest version (2.3-2).
The following packages were automatically installed and are no longer required:
  libswe-dev libswe2.0
Use 'apt autoremove' to remove them.
The following additional packages will be installed:
  icu-devtools libbrotli1 libclucene-core1v5 libcurl3-gnutls libnghttp2-14
  libpsl5 librtmp1 libssh2-1 libsword-common libsword1.9.0
Suggested packages:
  icu-doc
Recommended packages:
  ca-certificates publicsuffix libsword-utils sword-frontend
The following NEW packages will be installed:
  icu-devtools libbrotli1 libclucene-core1v5 libcurl3-gnutls libicu-dev
  libnghttp2-14 libpsl5 librtmp1 libssh2-1 libsword-common libsword-dev
  libsword1.9.0
0 upgraded, 12 newly installed, 0 to remove and 18 not upgraded.
Need to get 13.1 MB of archives.
After this operation, 55.5 MB of additional disk space will be used.
Get:1 http://deb.debian.org/debian unstable/main armhf icu-devtools armhf 72.1-4 [184 kB]
Get:2 http://deb.debian.org/debian unstable/main armhf libbrotli1 armhf 1.1.0-2+b3 [284 kB]
Get:3 http://deb.debian.org/debian unstable/main armhf libclucene-core1v5 armhf 2.3.3.4+dfsg-1.1+b1 [465 kB]
Get:4 http://deb.debian.org/debian unstable/main armhf libnghttp2-14 armhf 1.58.0-1 [61.9 kB]
Get:5 http://deb.debian.org/debian unstable/main armhf libpsl5 armhf 0.21.2-1+b1 [57.8 kB]
Get:6 http://deb.debian.org/debian unstable/main armhf librtmp1 armhf 2.4+20151223.gitfa8646d.1-2+b2 [55.2 kB]
Get:7 http://deb.debian.org/debian unstable/main armhf libssh2-1 armhf 1.11.0-4 [197 kB]
Get:8 http://deb.debian.org/debian unstable/main armhf libcurl3-gnutls armhf 8.5.0-2 [378 kB]
Get:9 http://deb.debian.org/debian unstable/main armhf libicu-dev armhf 72.1-4 [10.1 MB]
Get:10 http://deb.debian.org/debian unstable/main armhf libsword-common all 1.9.0+dfsg-5 [162 kB]
Get:11 http://deb.debian.org/debian unstable/main armhf libsword1.9.0 armhf 1.9.0+dfsg-5 [481 kB]
Get:12 http://deb.debian.org/debian unstable/main armhf libsword-dev armhf 1.9.0+dfsg-5 [683 kB]
debconf: delaying package configuration, since apt-utils is not installed
Fetched 13.1 MB in 1s (25.9 MB/s)
Selecting previously unselected package icu-devtools.
(Reading database ... (Reading database ... 5%(Reading database ... 10%(Reading database ... 15%(Reading database ... 20%(Reading database ... 25%(Reading database ... 30%(Reading database ... 35%(Reading database ... 40%(Reading database ... 45%(Reading database ... 50%(Reading database ... 55%(Reading database ... 60%(Reading database ... 65%(Reading database ... 70%(Reading database ... 75%(Reading database ... 80%(Reading database ... 85%(Reading database ... 90%(Reading database ... 95%(Reading database ... 100%(Reading database ... 17042 files and directories currently installed.)
Preparing to unpack .../00-icu-devtools_72.1-4_armhf.deb ...
Unpacking icu-devtools (72.1-4) ...
Selecting previously unselected package libbrotli1:armhf.
Preparing to unpack .../01-libbrotli1_1.1.0-2+b3_armhf.deb ...
Unpacking libbrotli1:armhf (1.1.0-2+b3) ...
Selecting previously unselected package libclucene-core1v5:armhf.
Preparing to unpack .../02-libclucene-core1v5_2.3.3.4+dfsg-1.1+b1_armhf.deb ...
Unpacking libclucene-core1v5:armhf (2.3.3.4+dfsg-1.1+b1) ...
Selecting previously unselected package libnghttp2-14:armhf.
Preparing to unpack .../03-libnghttp2-14_1.58.0-1_armhf.deb ...
Unpacking libnghttp2-14:armhf (1.58.0-1) ...
Selecting previously unselected package libpsl5:armhf.
Preparing to unpack .../04-libpsl5_0.21.2-1+b1_armhf.deb ...
Unpacking libpsl5:armhf (0.21.2-1+b1) ...
Selecting previously unselected package librtmp1:armhf.
Preparing to unpack .../05-librtmp1_2.4+20151223.gitfa8646d.1-2+b2_armhf.deb ...
Unpacking librtmp1:armhf (2.4+20151223.gitfa8646d.1-2+b2) ...
Selecting previously unselected package libssh2-1:armhf.
Preparing to unpack .../06-libssh2-1_1.11.0-4_armhf.deb ...
Unpacking libssh2-1:armhf (1.11.0-4) ...
Selecting previously unselected package libcurl3-gnutls:armhf.
Preparing to unpack .../07-libcurl3-gnutls_8.5.0-2_armhf.deb ...
Unpacking libcurl3-gnutls:armhf (8.5.0-2) ...
Selecting previously unselected package libicu-dev:armhf.
Preparing to unpack .../08-libicu-dev_72.1-4_armhf.deb ...
Unpacking libicu-dev:armhf (72.1-4) ...
Selecting previously unselected package libsword-common.
Preparing to unpack .../09-libsword-common_1.9.0+dfsg-5_all.deb ...
Unpacking libsword-common (1.9.0+dfsg-5) ...
Selecting previously unselected package libsword1.9.0:armhf.
Preparing to unpack .../10-libsword1.9.0_1.9.0+dfsg-5_armhf.deb ...
Unpacking libsword1.9.0:armhf (1.9.0+dfsg-5) ...
Selecting previously unselected package libsword-dev:armhf.
Preparing to unpack .../11-libsword-dev_1.9.0+dfsg-5_armhf.deb ...
Unpacking libsword-dev:armhf (1.9.0+dfsg-5) ...
Setting up libpsl5:armhf (0.21.2-1+b1) ...
Setting up libbrotli1:armhf (1.1.0-2+b3) ...
Setting up libnghttp2-14:armhf (1.58.0-1) ...
Setting up librtmp1:armhf (2.4+20151223.gitfa8646d.1-2+b2) ...
Setting up icu-devtools (72.1-4) ...
Setting up libclucene-core1v5:armhf (2.3.3.4+dfsg-1.1+b1) ...
Setting up libsword-common (1.9.0+dfsg-5) ...
Setting up libssh2-1:armhf (1.11.0-4) ...
Setting up libicu-dev:armhf (72.1-4) ...
Setting up libcurl3-gnutls:armhf (8.5.0-2) ...
Setting up libsword1.9.0:armhf (1.9.0+dfsg-5) ...
Setting up libsword-dev:armhf (1.9.0+dfsg-5) ...
Processing triggers for libc-bin (2.37-13) ...
Reading package lists...
Building dependency tree...
Reading state information...
The following packages will be REMOVED:
  libswe-dev* libswe2.0*
0 upgraded, 0 newly installed, 2 to remove and 18 not upgraded.
After this operation, 1169 kB disk space will be freed.
(Reading database ... (Reading database ... 5%(Reading database ... 10%(Reading database ... 15%(Reading database ... 20%(Reading database ... 25%(Reading database ... 30%(Reading database ... 35%(Reading database ... 40%(Reading database ... 45%(Reading database ... 50%(Reading database ... 55%(Reading database ... 60%(Reading database ... 65%(Reading database ... 70%(Reading database ... 75%(Reading database ... 80%(Reading database ... 85%(Reading database ... 90%(Reading database ... 95%(Reading database ... 100%(Reading database ... 17651 files and directories currently installed.)
Removing libswe-dev:armhf (2.10.03-3) ...
Removing libswe2.0:armhf (2.10.03-3) ...
Processing triggers for libc-bin (2.37-13) ...
