[2024-01-08T10:08:44+00:00] apt-get install libstorj-dev abi-compliance-checker
Reading package lists...
Building dependency tree...
Reading state information...
abi-compliance-checker is already the newest version (2.3-2).
The following packages were automatically installed and are no longer required:
  coinor-libclp-dev coinor-libclp1 coinor-libcoinutils-dev
  coinor-libcoinutils3v5 coinor-libosi-dev coinor-libosi1v5 ibverbs-providers
  icu-devtools libblas-dev libblas3 libboost-atomic1.83-dev
  libboost-atomic1.83.0 libboost-chrono-dev libboost-chrono1.83-dev
  libboost-chrono1.83.0 libboost-date-time1.83-dev libboost-date-time1.83.0
  libboost-filesystem1.83-dev libboost-filesystem1.83.0 libboost-log-dev
  libboost-log1.83-dev libboost-log1.83.0 libboost-mpi-dev
  libboost-mpi1.83-dev libboost-mpi1.83.0 libboost-random-dev
  libboost-random1.83-dev libboost-random1.83.0 libboost-regex1.83-dev
  libboost-regex1.83.0 libboost-serialization-dev
  libboost-serialization1.83-dev libboost-serialization1.83.0
  libboost-system-dev libboost-system1.83-dev libboost-system1.83.0
  libboost-test-dev libboost-test1.83-dev libboost-test1.83.0
  libboost-thread-dev libboost-thread1.83-dev libboost-thread1.83.0
  libboost-timer-dev libboost-timer1.83-dev libboost-timer1.83.0
  libboost1.83-dev libbz2-dev libeigen3-dev libevent-core-2.1-7 libevent-dev
  libevent-extra-2.1-7 libevent-openssl-2.1-7 libevent-pthreads-2.1-7
  libfabric1 libgeners-dev libgeners1 libhwloc-dev libhwloc-plugins libhwloc15
  libibverbs-dev libibverbs1 libicu-dev libjs-jquery libjs-jquery-ui
  liblapack-dev liblapack3 libltdl-dev libltdl7 libmunge2 libnl-3-200
  libnl-3-dev libnl-route-3-200 libnl-route-3-dev libnuma-dev libnuma1
  libopenmpi-dev libopenmpi3 libpciaccess0 libpmix-dev libpmix2 librdmacm1
  libstopt-dev libstopt5 libxext6 libxnvctrl0 mpi-default-dev
  ocl-icd-libopencl1 openmpi-bin openmpi-common openssh-client
Use 'apt autoremove' to remove them.
The following additional packages will be installed:
  libbrotli1 libcurl3-gnutls libcurl4-gnutls-dev libgmp-dev libgmpxx4ldbl
  libgnutls-openssl27 libgnutls28-dev libidn2-dev libjson-c-dev
  libmicrohttpd-dev libmicrohttpd12 libnghttp2-14 libp11-kit-dev libpsl5
  librtmp1 libssh2-1 libstorj0 libtasn1-6-dev libuv1 libuv1-dev nettle-dev
Suggested packages:
  libcurl4-doc libidn-dev libkrb5-dev libldap2-dev librtmp-dev libssh2-1-dev
  gmp-doc libgmp10-doc libmpfr-dev gnutls-doc p11-kit-doc
Recommended packages:
  ca-certificates publicsuffix libtasn1-doc
The following NEW packages will be installed:
  libbrotli1 libcurl3-gnutls libcurl4-gnutls-dev libgmp-dev libgmpxx4ldbl
  libgnutls-openssl27 libgnutls28-dev libidn2-dev libjson-c-dev
  libmicrohttpd-dev libmicrohttpd12 libnghttp2-14 libp11-kit-dev libpsl5
  librtmp1 libssh2-1 libstorj-dev libstorj0 libtasn1-6-dev libuv1 libuv1-dev
  nettle-dev
0 upgraded, 22 newly installed, 0 to remove and 20 not upgraded.
Need to get 6723 kB of archives.
After this operation, 15.1 MB of additional disk space will be used.
Get:1 http://deb.debian.org/debian unstable/main armhf libbrotli1 armhf 1.1.0-2+b3 [284 kB]
Get:2 http://deb.debian.org/debian unstable/main armhf libnghttp2-14 armhf 1.58.0-1 [61.9 kB]
Get:3 http://deb.debian.org/debian unstable/main armhf libpsl5 armhf 0.21.2-1+b1 [57.8 kB]
Get:4 http://deb.debian.org/debian unstable/main armhf librtmp1 armhf 2.4+20151223.gitfa8646d.1-2+b2 [55.2 kB]
Get:5 http://deb.debian.org/debian unstable/main armhf libssh2-1 armhf 1.11.0-4 [197 kB]
Get:6 http://deb.debian.org/debian unstable/main armhf libcurl3-gnutls armhf 8.5.0-2 [378 kB]
Get:7 http://deb.debian.org/debian unstable/main armhf libcurl4-gnutls-dev armhf 8.5.0-2 [490 kB]
Get:8 http://deb.debian.org/debian unstable/main armhf libgmpxx4ldbl armhf 2:6.3.0+dfsg-2 [328 kB]
Get:9 http://deb.debian.org/debian unstable/main armhf libgmp-dev armhf 2:6.3.0+dfsg-2 [589 kB]
Get:10 http://deb.debian.org/debian unstable/main armhf libgnutls-openssl27 armhf 3.8.2-1 [422 kB]
Get:11 http://deb.debian.org/debian unstable/main armhf libidn2-dev armhf 2.3.4-1+b2 [116 kB]
Get:12 http://deb.debian.org/debian unstable/main armhf libp11-kit-dev armhf 0.25.3-4 [202 kB]
Get:13 http://deb.debian.org/debian unstable/main armhf libtasn1-6-dev armhf 4.19.0-3+b2 [93.0 kB]
Get:14 http://deb.debian.org/debian unstable/main armhf nettle-dev armhf 3.9.1-2 [1288 kB]
Get:15 http://deb.debian.org/debian unstable/main armhf libgnutls28-dev armhf 3.8.2-1 [1296 kB]
Get:16 http://deb.debian.org/debian unstable/main armhf libjson-c-dev armhf 0.17-1 [68.0 kB]
Get:17 http://deb.debian.org/debian unstable/main armhf libmicrohttpd12 armhf 0.9.77-3 [111 kB]
Get:18 http://deb.debian.org/debian unstable/main armhf libmicrohttpd-dev armhf 0.9.77-3 [284 kB]
Get:19 http://deb.debian.org/debian unstable/main armhf libuv1 armhf 1.46.0-3 [130 kB]
Get:20 http://deb.debian.org/debian unstable/main armhf libstorj0 armhf 1.0.3-1.2+b1 [49.9 kB]
Get:21 http://deb.debian.org/debian unstable/main armhf libuv1-dev armhf 1.46.0-3 [165 kB]
Get:22 http://deb.debian.org/debian unstable/main armhf libstorj-dev armhf 1.0.3-1.2+b1 [58.2 kB]
debconf: delaying package configuration, since apt-utils is not installed
Fetched 6723 kB in 1s (11.3 MB/s)
Selecting previously unselected package libbrotli1:armhf.
(Reading database ... (Reading database ... 5%(Reading database ... 10%(Reading database ... 15%(Reading database ... 20%(Reading database ... 25%(Reading database ... 30%(Reading database ... 35%(Reading database ... 40%(Reading database ... 45%(Reading database ... 50%(Reading database ... 55%(Reading database ... 60%(Reading database ... 65%(Reading database ... 70%(Reading database ... 75%(Reading database ... 80%(Reading database ... 85%(Reading database ... 90%(Reading database ... 95%(Reading database ... 100%(Reading database ... 39094 files and directories currently installed.)
Preparing to unpack .../00-libbrotli1_1.1.0-2+b3_armhf.deb ...
Unpacking libbrotli1:armhf (1.1.0-2+b3) ...
Selecting previously unselected package libnghttp2-14:armhf.
Preparing to unpack .../01-libnghttp2-14_1.58.0-1_armhf.deb ...
Unpacking libnghttp2-14:armhf (1.58.0-1) ...
Selecting previously unselected package libpsl5:armhf.
Preparing to unpack .../02-libpsl5_0.21.2-1+b1_armhf.deb ...
Unpacking libpsl5:armhf (0.21.2-1+b1) ...
Selecting previously unselected package librtmp1:armhf.
Preparing to unpack .../03-librtmp1_2.4+20151223.gitfa8646d.1-2+b2_armhf.deb ...
Unpacking librtmp1:armhf (2.4+20151223.gitfa8646d.1-2+b2) ...
Selecting previously unselected package libssh2-1:armhf.
Preparing to unpack .../04-libssh2-1_1.11.0-4_armhf.deb ...
Unpacking libssh2-1:armhf (1.11.0-4) ...
Selecting previously unselected package libcurl3-gnutls:armhf.
Preparing to unpack .../05-libcurl3-gnutls_8.5.0-2_armhf.deb ...
Unpacking libcurl3-gnutls:armhf (8.5.0-2) ...
Selecting previously unselected package libcurl4-gnutls-dev:armhf.
Preparing to unpack .../06-libcurl4-gnutls-dev_8.5.0-2_armhf.deb ...
Unpacking libcurl4-gnutls-dev:armhf (8.5.0-2) ...
Selecting previously unselected package libgmpxx4ldbl:armhf.
Preparing to unpack .../07-libgmpxx4ldbl_2%3a6.3.0+dfsg-2_armhf.deb ...
Unpacking libgmpxx4ldbl:armhf (2:6.3.0+dfsg-2) ...
Selecting previously unselected package libgmp-dev:armhf.
Preparing to unpack .../08-libgmp-dev_2%3a6.3.0+dfsg-2_armhf.deb ...
Unpacking libgmp-dev:armhf (2:6.3.0+dfsg-2) ...
Selecting previously unselected package libgnutls-openssl27:armhf.
Preparing to unpack .../09-libgnutls-openssl27_3.8.2-1_armhf.deb ...
Unpacking libgnutls-openssl27:armhf (3.8.2-1) ...
Selecting previously unselected package libidn2-dev:armhf.
Preparing to unpack .../10-libidn2-dev_2.3.4-1+b2_armhf.deb ...
Unpacking libidn2-dev:armhf (2.3.4-1+b2) ...
Selecting previously unselected package libp11-kit-dev:armhf.
Preparing to unpack .../11-libp11-kit-dev_0.25.3-4_armhf.deb ...
Unpacking libp11-kit-dev:armhf (0.25.3-4) ...
Selecting previously unselected package libtasn1-6-dev:armhf.
Preparing to unpack .../12-libtasn1-6-dev_4.19.0-3+b2_armhf.deb ...
Unpacking libtasn1-6-dev:armhf (4.19.0-3+b2) ...
Selecting previously unselected package nettle-dev:armhf.
Preparing to unpack .../13-nettle-dev_3.9.1-2_armhf.deb ...
Unpacking nettle-dev:armhf (3.9.1-2) ...
Selecting previously unselected package libgnutls28-dev:armhf.
Preparing to unpack .../14-libgnutls28-dev_3.8.2-1_armhf.deb ...
Unpacking libgnutls28-dev:armhf (3.8.2-1) ...
Selecting previously unselected package libjson-c-dev:armhf.
Preparing to unpack .../15-libjson-c-dev_0.17-1_armhf.deb ...
Unpacking libjson-c-dev:armhf (0.17-1) ...
Selecting previously unselected package libmicrohttpd12:armhf.
Preparing to unpack .../16-libmicrohttpd12_0.9.77-3_armhf.deb ...
Unpacking libmicrohttpd12:armhf (0.9.77-3) ...
Selecting previously unselected package libmicrohttpd-dev:armhf.
Preparing to unpack .../17-libmicrohttpd-dev_0.9.77-3_armhf.deb ...
Unpacking libmicrohttpd-dev:armhf (0.9.77-3) ...
Selecting previously unselected package libuv1:armhf.
Preparing to unpack .../18-libuv1_1.46.0-3_armhf.deb ...
Unpacking libuv1:armhf (1.46.0-3) ...
Selecting previously unselected package libstorj0:armhf.
Preparing to unpack .../19-libstorj0_1.0.3-1.2+b1_armhf.deb ...
Unpacking libstorj0:armhf (1.0.3-1.2+b1) ...
Selecting previously unselected package libuv1-dev:armhf.
Preparing to unpack .../20-libuv1-dev_1.46.0-3_armhf.deb ...
Unpacking libuv1-dev:armhf (1.46.0-3) ...
Selecting previously unselected package libstorj-dev:armhf.
Preparing to unpack .../21-libstorj-dev_1.0.3-1.2+b1_armhf.deb ...
Unpacking libstorj-dev:armhf (1.0.3-1.2+b1) ...
Setting up libpsl5:armhf (0.21.2-1+b1) ...
Setting up libgnutls-openssl27:armhf (3.8.2-1) ...
Setting up libjson-c-dev:armhf (0.17-1) ...
Setting up libbrotli1:armhf (1.1.0-2+b3) ...
Setting up libnghttp2-14:armhf (1.58.0-1) ...
Setting up libmicrohttpd12:armhf (0.9.77-3) ...
Setting up libgmpxx4ldbl:armhf (2:6.3.0+dfsg-2) ...
Setting up libuv1:armhf (1.46.0-3) ...
Setting up librtmp1:armhf (2.4+20151223.gitfa8646d.1-2+b2) ...
Setting up libidn2-dev:armhf (2.3.4-1+b2) ...
Setting up libssh2-1:armhf (1.11.0-4) ...
Setting up libtasn1-6-dev:armhf (4.19.0-3+b2) ...
Setting up libp11-kit-dev:armhf (0.25.3-4) ...
Setting up libuv1-dev:armhf (1.46.0-3) ...
Setting up libgmp-dev:armhf (2:6.3.0+dfsg-2) ...
Setting up nettle-dev:armhf (3.9.1-2) ...
Setting up libcurl3-gnutls:armhf (8.5.0-2) ...
Setting up libcurl4-gnutls-dev:armhf (8.5.0-2) ...
Setting up libgnutls28-dev:armhf (3.8.2-1) ...
Setting up libstorj0:armhf (1.0.3-1.2+b1) ...
Setting up libmicrohttpd-dev:armhf (0.9.77-3) ...
Setting up libstorj-dev:armhf (1.0.3-1.2+b1) ...
Processing triggers for libc-bin (2.37-13) ...
Reading package lists...
Building dependency tree...
Reading state information...
The following packages will be REMOVED:
  coinor-libclp-dev* coinor-libclp1* coinor-libcoinutils-dev*
  coinor-libcoinutils3v5* coinor-libosi-dev* coinor-libosi1v5*
  ibverbs-providers* icu-devtools* libblas-dev* libblas3*
  libboost-atomic1.83-dev* libboost-atomic1.83.0* libboost-chrono-dev*
  libboost-chrono1.83-dev* libboost-chrono1.83.0* libboost-date-time1.83-dev*
  libboost-date-time1.83.0* libboost-filesystem1.83-dev*
  libboost-filesystem1.83.0* libboost-log-dev* libboost-log1.83-dev*
  libboost-log1.83.0* libboost-mpi-dev* libboost-mpi1.83-dev*
  libboost-mpi1.83.0* libboost-random-dev* libboost-random1.83-dev*
  libboost-random1.83.0* libboost-regex1.83-dev* libboost-regex1.83.0*
  libboost-serialization-dev* libboost-serialization1.83-dev*
  libboost-serialization1.83.0* libboost-system-dev* libboost-system1.83-dev*
  libboost-system1.83.0* libboost-test-dev* libboost-test1.83-dev*
  libboost-test1.83.0* libboost-thread-dev* libboost-thread1.83-dev*
  libboost-thread1.83.0* libboost-timer-dev* libboost-timer1.83-dev*
  libboost-timer1.83.0* libboost1.83-dev* libbz2-dev* libeigen3-dev*
  libevent-core-2.1-7* libevent-dev* libevent-extra-2.1-7*
  libevent-openssl-2.1-7* libevent-pthreads-2.1-7* libfabric1* libgeners-dev*
  libgeners1* libhwloc-dev* libhwloc-plugins* libhwloc15* libibverbs-dev*
  libibverbs1* libicu-dev* libjs-jquery* libjs-jquery-ui* liblapack-dev*
  liblapack3* libltdl-dev* libltdl7* libmunge2* libnl-3-200* libnl-3-dev*
  libnl-route-3-200* libnl-route-3-dev* libnuma-dev* libnuma1* libopenmpi-dev*
  libopenmpi3* libpciaccess0* libpmix-dev* libpmix2* librdmacm1* libstopt-dev*
  libstopt5* libxext6* libxnvctrl0* mpi-default-dev* ocl-icd-libopencl1*
  openmpi-bin* openmpi-common* openssh-client*
0 upgraded, 0 newly installed, 90 to remove and 20 not upgraded.
After this operation, 394 MB disk space will be freed.
(Reading database ... (Reading database ... 5%(Reading database ... 10%(Reading database ... 15%(Reading database ... 20%(Reading database ... 25%(Reading database ... 30%(Reading database ... 35%(Reading database ... 40%(Reading database ... 45%(Reading database ... 50%(Reading database ... 55%(Reading database ... 60%(Reading database ... 65%(Reading database ... 70%(Reading database ... 75%(Reading database ... 80%(Reading database ... 85%(Reading database ... 90%(Reading database ... 95%(Reading database ... 100%(Reading database ... 39535 files and directories currently installed.)
Removing libstopt-dev (5.8+dfsg-1+b1) ...
Removing coinor-libclp-dev:armhf (1.17.6-3+b1) ...
Removing coinor-libclp1:armhf (1.17.6-3+b1) ...
Removing coinor-libcoinutils-dev:armhf (2.11.4+repack1-4) ...
Removing coinor-libosi-dev:armhf (0.108.9+ds-1) ...
Removing coinor-libosi1v5:armhf (0.108.9+ds-1) ...
Removing coinor-libcoinutils3v5:armhf (2.11.4+repack1-4) ...
Removing libboost-mpi-dev (1.83.0.2) ...
Removing libboost-mpi1.83-dev (1.83.0-2+b2) ...
Removing mpi-default-dev (1.15) ...
Removing libopenmpi-dev:armhf (4.1.6-5) ...
Removing libibverbs-dev:armhf (48.0-1) ...
Removing ibverbs-providers:armhf (48.0-1) ...
Removing libboost-log-dev (1.83.0.2) ...
Removing libboost-log1.83-dev (1.83.0-2+b2) ...
Removing libboost-regex1.83-dev:armhf (1.83.0-2+b2) ...
Removing libicu-dev:armhf (72.1-4) ...
Removing icu-devtools (72.1-4) ...
Removing liblapack-dev:armhf (3.11.0-2) ...
Removing libblas-dev:armhf (3.11.0-2) ...
Removing liblapack3:armhf (3.11.0-2) ...
Removing libblas3:armhf (3.11.0-2) ...
Removing libboost-filesystem1.83-dev:armhf (1.83.0-2+b2) ...
Removing libboost-thread-dev:armhf (1.83.0.2) ...
Removing libboost-thread1.83-dev:armhf (1.83.0-2+b2) ...
Removing libboost-atomic1.83-dev:armhf (1.83.0-2+b2) ...
Removing libboost-atomic1.83.0:armhf (1.83.0-2+b2) ...
Removing libboost-chrono-dev:armhf (1.83.0.2) ...
Removing libboost-timer-dev:armhf (1.83.0.2) ...
Removing libboost-timer1.83-dev:armhf (1.83.0-2+b2) ...
Removing libboost-chrono1.83-dev:armhf (1.83.0-2+b2) ...
Removing libboost-chrono1.83.0:armhf (1.83.0-2+b2) ...
Removing libboost-date-time1.83-dev:armhf (1.83.0-2+b2) ...
Removing libboost-date-time1.83.0:armhf (1.83.0-2+b2) ...
Removing libboost-log1.83.0 (1.83.0-2+b2) ...
Removing libboost-filesystem1.83.0:armhf (1.83.0-2+b2) ...
Removing libstopt5 (5.8+dfsg-1+b1) ...
Removing libboost-mpi1.83.0 (1.83.0-2+b2) ...
Removing libboost-random-dev:armhf (1.83.0.2) ...
Removing libboost-random1.83-dev:armhf (1.83.0-2+b2) ...
Removing libboost-random1.83.0:armhf (1.83.0-2+b2) ...
Removing libboost-regex1.83.0:armhf (1.83.0-2+b2) ...
Removing libboost-serialization-dev:armhf (1.83.0.2) ...
Removing libboost-serialization1.83-dev:armhf (1.83.0-2+b2) ...
Removing libboost-serialization1.83.0:armhf (1.83.0-2+b2) ...
Removing libboost-system-dev:armhf (1.83.0.2) ...
Removing libboost-system1.83-dev:armhf (1.83.0-2+b2) ...
Removing libboost-system1.83.0:armhf (1.83.0-2+b2) ...
Removing libboost-test-dev:armhf (1.83.0.2) ...
Removing libboost-test1.83-dev:armhf (1.83.0-2+b2) ...
Removing libboost-test1.83.0:armhf (1.83.0-2+b2) ...
Removing libboost-thread1.83.0:armhf (1.83.0-2+b2) ...
Removing libboost-timer1.83.0:armhf (1.83.0-2+b2) ...
Removing libboost1.83-dev:armhf (1.83.0-2+b2) ...
Removing libgeners-dev (0.0~svn60+ds-2+b1) ...
Removing libbz2-dev:armhf (1.0.8-5+b2) ...
Removing libeigen3-dev (3.4.0-4) ...
Removing libpmix-dev:armhf (5.0.1-4) ...
Removing libevent-dev (2.1.12-stable-8) ...
Removing openmpi-bin (4.1.6-5) ...
Removing libopenmpi3:armhf (4.1.6-5) ...
Removing libpmix2:armhf (5.0.1-4) ...
Removing libevent-extra-2.1-7:armhf (2.1.12-stable-8) ...
Removing libevent-openssl-2.1-7:armhf (2.1.12-stable-8) ...
Removing libevent-pthreads-2.1-7:armhf (2.1.12-stable-8) ...
Removing libfabric1:armhf (1.17.0-3) ...
Removing libgeners1 (0.0~svn60+ds-2+b1) ...
Removing libhwloc-dev:armhf (2.10.0-1) ...
Removing libhwloc-plugins:armhf (2.10.0-1) ...
Removing libhwloc15:armhf (2.10.0-1) ...
Removing librdmacm1:armhf (48.0-1) ...
Removing libibverbs1:armhf (48.0-1) ...
Removing libjs-jquery-ui (1.13.2+dfsg-1) ...
Removing libjs-jquery (3.6.1+dfsg+~3.5.14-1) ...
Removing libltdl-dev:armhf (2.4.7-7) ...
Removing libltdl7:armhf (2.4.7-7) ...
Removing libmunge2:armhf (0.5.15-3) ...
Removing libnl-route-3-dev:armhf (3.7.0-0.2+b1) ...
Removing libnl-route-3-200:armhf (3.7.0-0.2+b1) ...
Removing libnl-3-dev:armhf (3.7.0-0.2+b1) ...
Removing libnl-3-200:armhf (3.7.0-0.2+b1) ...
Removing libnuma-dev:armhf (2.0.16-1) ...
Removing libnuma1:armhf (2.0.16-1) ...
Removing libpciaccess0:armhf (0.17-3) ...
Removing libxnvctrl0:armhf (525.125.06-1) ...
Removing libxext6:armhf (2:1.3.4-1+b1) ...
Removing ocl-icd-libopencl1:armhf (2.3.2-1) ...
Removing openmpi-common (4.1.6-5) ...
Removing openssh-client (1:9.6p1-2) ...
Removing libevent-core-2.1-7:armhf (2.1.12-stable-8) ...
Processing triggers for libc-bin (2.37-13) ...
(Reading database ... (Reading database ... 5%(Reading database ... 10%(Reading database ... 15%(Reading database ... 20%(Reading database ... 25%(Reading database ... 30%(Reading database ... 35%(Reading database ... 40%(Reading database ... 45%(Reading database ... 50%(Reading database ... 55%(Reading database ... 60%(Reading database ... 65%(Reading database ... 70%(Reading database ... 75%(Reading database ... 80%(Reading database ... 85%(Reading database ... 90%(Reading database ... 95%(Reading database ... 100%(Reading database ... 17542 files and directories currently installed.)
Purging configuration files for ibverbs-providers:armhf (48.0-1) ...
Purging configuration files for openssh-client (1:9.6p1-2) ...
warn: The group `ssh' does not exist.
Purging configuration files for libnl-3-200:armhf (3.7.0-0.2+b1) ...
Purging configuration files for libopenmpi-dev:armhf (4.1.6-5) ...
Purging configuration files for libjs-jquery (3.6.1+dfsg+~3.5.14-1) ...
Purging configuration files for openmpi-bin (4.1.6-5) ...
