[2024-01-08T20:08:18+00:00] apt-get install qt6-base-dev khronos-api libgles-dev qt6-base-dev abi-compliance-checker
Reading package lists...
Building dependency tree...
Reading state information...
qt6-base-dev is already the newest version (6.4.2+dfsg-20).
qt6-base-dev set to manually installed.
abi-compliance-checker is already the newest version (2.3-2).
The following packages were automatically installed and are no longer required:
  libqt6core5compat6 qt6-5compat-dev
Use 'apt autoremove' to remove them.
The following additional packages will be installed:
  libegl-dev libgles1 libgles2
The following NEW packages will be installed:
  khronos-api libegl-dev libgles-dev libgles1 libgles2
0 upgraded, 5 newly installed, 0 to remove and 11 not upgraded.
Need to get 508 kB of archives.
After this operation, 6024 kB of additional disk space will be used.
Get:1 http://deb.debian.org/debian unstable/main armhf khronos-api all 4.6+git20220505-1 [409 kB]
Get:2 http://deb.debian.org/debian unstable/main armhf libegl-dev armhf 1.7.0-1 [19.2 kB]
Get:3 http://deb.debian.org/debian unstable/main armhf libgles1 armhf 1.7.0-1 [12.0 kB]
Get:4 http://deb.debian.org/debian unstable/main armhf libgles2 armhf 1.7.0-1 [17.4 kB]
Get:5 http://deb.debian.org/debian unstable/main armhf libgles-dev armhf 1.7.0-1 [50.5 kB]
debconf: delaying package configuration, since apt-utils is not installed
Fetched 508 kB in 0s (1085 kB/s)
Selecting previously unselected package khronos-api.
(Reading database ... (Reading database ... 5%(Reading database ... 10%(Reading database ... 15%(Reading database ... 20%(Reading database ... 25%(Reading database ... 30%(Reading database ... 35%(Reading database ... 40%(Reading database ... 45%(Reading database ... 50%(Reading database ... 55%(Reading database ... 60%(Reading database ... 65%(Reading database ... 70%(Reading database ... 75%(Reading database ... 80%(Reading database ... 85%(Reading database ... 90%(Reading database ... 95%(Reading database ... 100%(Reading database ... 25225 files and directories currently installed.)
Preparing to unpack .../khronos-api_4.6+git20220505-1_all.deb ...
Unpacking khronos-api (4.6+git20220505-1) ...
Selecting previously unselected package libegl-dev:armhf.
Preparing to unpack .../libegl-dev_1.7.0-1_armhf.deb ...
Unpacking libegl-dev:armhf (1.7.0-1) ...
Selecting previously unselected package libgles1:armhf.
Preparing to unpack .../libgles1_1.7.0-1_armhf.deb ...
Unpacking libgles1:armhf (1.7.0-1) ...
Selecting previously unselected package libgles2:armhf.
Preparing to unpack .../libgles2_1.7.0-1_armhf.deb ...
Unpacking libgles2:armhf (1.7.0-1) ...
Selecting previously unselected package libgles-dev:armhf.
Preparing to unpack .../libgles-dev_1.7.0-1_armhf.deb ...
Unpacking libgles-dev:armhf (1.7.0-1) ...
Setting up libegl-dev:armhf (1.7.0-1) ...
Setting up libgles2:armhf (1.7.0-1) ...
Setting up libgles1:armhf (1.7.0-1) ...
Setting up khronos-api (4.6+git20220505-1) ...
Setting up libgles-dev:armhf (1.7.0-1) ...
Processing triggers for libc-bin (2.37-13) ...
Reading package lists...
Building dependency tree...
Reading state information...
The following packages will be REMOVED:
  libqt6core5compat6* qt6-5compat-dev*
0 upgraded, 0 newly installed, 2 to remove and 11 not upgraded.
After this operation, 463 kB disk space will be freed.
(Reading database ... (Reading database ... 5%(Reading database ... 10%(Reading database ... 15%(Reading database ... 20%(Reading database ... 25%(Reading database ... 30%(Reading database ... 35%(Reading database ... 40%(Reading database ... 45%(Reading database ... 50%(Reading database ... 55%(Reading database ... 60%(Reading database ... 65%(Reading database ... 70%(Reading database ... 75%(Reading database ... 80%(Reading database ... 85%(Reading database ... 90%(Reading database ... 95%(Reading database ... 100%(Reading database ... 25300 files and directories currently installed.)
Removing qt6-5compat-dev:armhf (6.4.2-4) ...
Removing libqt6core5compat6:armhf (6.4.2-4) ...
Processing triggers for libc-bin (2.37-13) ...
