[2024-01-31T18:50:01+00:00] apt-get install libastro-dev abi-compliance-checker
Reading package lists...
Building dependency tree...
Reading state information...
abi-compliance-checker is already the newest version (2.3-2).
The following packages were automatically installed and are no longer required:
  libastcenc-dev libastcenc5d
Use 'apt autoremove' to remove them.
The following NEW packages will be installed:
  libastro-dev libastro1
0 upgraded, 2 newly installed, 0 to remove and 48 not upgraded.
Need to get 140 kB of archives.
After this operation, 603 kB of additional disk space will be used.
Get:1 http://deb.debian.org/debian unstable/main armhf libastro1 armhf 4:22.12.3-2+b1 [107 kB]
Get:2 http://deb.debian.org/debian unstable/main armhf libastro-dev armhf 4:22.12.3-2+b1 [33.5 kB]
debconf: delaying package configuration, since apt-utils is not installed
Fetched 140 kB in 0s (2610 kB/s)
Selecting previously unselected package libastro1:armhf.
(Reading database ... (Reading database ... 5%(Reading database ... 10%(Reading database ... 15%(Reading database ... 20%(Reading database ... 25%(Reading database ... 30%(Reading database ... 35%(Reading database ... 40%(Reading database ... 45%(Reading database ... 50%(Reading database ... 55%(Reading database ... 60%(Reading database ... 65%(Reading database ... 70%(Reading database ... 75%(Reading database ... 80%(Reading database ... 85%(Reading database ... 90%(Reading database ... 95%(Reading database ... 100%(Reading database ... 19782 files and directories currently installed.)
Preparing to unpack .../libastro1_4%3a22.12.3-2+b1_armhf.deb ...
Unpacking libastro1:armhf (4:22.12.3-2+b1) ...
Selecting previously unselected package libastro-dev:armhf.
Preparing to unpack .../libastro-dev_4%3a22.12.3-2+b1_armhf.deb ...
Unpacking libastro-dev:armhf (4:22.12.3-2+b1) ...
Setting up libastro1:armhf (4:22.12.3-2+b1) ...
Setting up libastro-dev:armhf (4:22.12.3-2+b1) ...
Processing triggers for libc-bin (2.37-13) ...
Reading package lists...
Building dependency tree...
Reading state information...
The following packages will be REMOVED:
  libastcenc-dev* libastcenc5d*
0 upgraded, 0 newly installed, 2 to remove and 48 not upgraded.
After this operation, 509 kB disk space will be freed.
(Reading database ... (Reading database ... 5%(Reading database ... 10%(Reading database ... 15%(Reading database ... 20%(Reading database ... 25%(Reading database ... 30%(Reading database ... 35%(Reading database ... 40%(Reading database ... 45%(Reading database ... 50%(Reading database ... 55%(Reading database ... 60%(Reading database ... 65%(Reading database ... 70%(Reading database ... 75%(Reading database ... 80%(Reading database ... 85%(Reading database ... 90%(Reading database ... 95%(Reading database ... 100%(Reading database ... 19809 files and directories currently installed.)
Removing libastcenc-dev:armhf (4.7.0+ds-2) ...
Removing libastcenc5d:armhf (4.7.0+ds-2) ...
Processing triggers for libc-bin (2.37-13) ...
