[2024-01-06T18:00:25+00:00] apt-get install libcryptominisat5-dev abi-compliance-checker
Reading package lists...
Building dependency tree...
Reading state information...
abi-compliance-checker is already the newest version (2.3-2).
The following packages were automatically installed and are no longer required:
  libcrypto++-dev libcrypto++8
Use 'apt autoremove' to remove them.
The following NEW packages will be installed:
  libcryptominisat5-5.11 libcryptominisat5-dev
0 upgraded, 2 newly installed, 0 to remove and 12 not upgraded.
Need to get 487 kB of archives.
After this operation, 1030 kB of additional disk space will be used.
Get:1 http://deb.debian.org/debian unstable/main armhf libcryptominisat5-5.11 armhf 5.11.15+dfsg1-1+b1 [468 kB]
Get:2 http://deb.debian.org/debian unstable/main armhf libcryptominisat5-dev armhf 5.11.15+dfsg1-1+b1 [18.8 kB]
debconf: delaying package configuration, since apt-utils is not installed
Fetched 487 kB in 1s (844 kB/s)
Selecting previously unselected package libcryptominisat5-5.11:armhf.
(Reading database ... (Reading database ... 5%(Reading database ... 10%(Reading database ... 15%(Reading database ... 20%(Reading database ... 25%(Reading database ... 30%(Reading database ... 35%(Reading database ... 40%(Reading database ... 45%(Reading database ... 50%(Reading database ... 55%(Reading database ... 60%(Reading database ... 65%(Reading database ... 70%(Reading database ... 75%(Reading database ... 80%(Reading database ... 85%(Reading database ... 90%(Reading database ... 95%(Reading database ... 100%(Reading database ... 20404 files and directories currently installed.)
Preparing to unpack .../libcryptominisat5-5.11_5.11.15+dfsg1-1+b1_armhf.deb ...
Unpacking libcryptominisat5-5.11:armhf (5.11.15+dfsg1-1+b1) ...
Selecting previously unselected package libcryptominisat5-dev:armhf.
Preparing to unpack .../libcryptominisat5-dev_5.11.15+dfsg1-1+b1_armhf.deb ...
Unpacking libcryptominisat5-dev:armhf (5.11.15+dfsg1-1+b1) ...
Setting up libcryptominisat5-5.11:armhf (5.11.15+dfsg1-1+b1) ...
Setting up libcryptominisat5-dev:armhf (5.11.15+dfsg1-1+b1) ...
Processing triggers for libc-bin (2.37-13) ...
Reading package lists...
Building dependency tree...
Reading state information...
The following packages will be REMOVED:
  libcrypto++-dev* libcrypto++8*
0 upgraded, 0 newly installed, 2 to remove and 12 not upgraded.
After this operation, 19.2 MB disk space will be freed.
(Reading database ... (Reading database ... 5%(Reading database ... 10%(Reading database ... 15%(Reading database ... 20%(Reading database ... 25%(Reading database ... 30%(Reading database ... 35%(Reading database ... 40%(Reading database ... 45%(Reading database ... 50%(Reading database ... 55%(Reading database ... 60%(Reading database ... 65%(Reading database ... 70%(Reading database ... 75%(Reading database ... 80%(Reading database ... 85%(Reading database ... 90%(Reading database ... 95%(Reading database ... 100%(Reading database ... 20427 files and directories currently installed.)
Removing libcrypto++-dev:armhf (8.9.0-1) ...
Removing libcrypto++8:armhf (8.9.0-1) ...
Processing triggers for libc-bin (2.37-13) ...
