Temporary header file '/tmp/CCsEVDuWal/dump1.h' with the following content will be compiled to create GCC translation unit dump:

  // add defines
  #define __STDC_VERSION__ 201710L
#define _TIME_BITS 64
#define _FILE_OFFSET_BITS 64
#define _GXX_NULLPTR_T
#define CLUTTER_ENABLE_COMPOSITOR_API 1
#define _REGEX_NELTS(n)
#define _Atomic
#define PACKED
#ifdef __cplusplus
// C17 compat layer
#define _Alignof(type) alignof(type)
#endif
#define getaddrinfo_a(a,b,c,d)

  // add includes
  #include "/usr/include/phonenumbers/asyoutypeformatter.h"
  #include "/usr/include/phonenumbers/base/basictypes.h"
  #include "/usr/include/phonenumbers/base/logging.h"
  #include "/usr/include/phonenumbers/base/memory/scoped_ptr.h"
  #include "/usr/include/phonenumbers/base/memory/singleton.h"
  #include "/usr/include/phonenumbers/base/synchronization/lock.h"
  #include "/usr/include/phonenumbers/base/template_util.h"
  #include "/usr/include/phonenumbers/base/thread_checker.h"
  #include "/usr/include/phonenumbers/callback.h"
  #include "/usr/include/phonenumbers/geocoding/phonenumber_offline_geocoder.h"
  #include "/usr/include/phonenumbers/logger.h"
  #include "/usr/include/phonenumbers/matcher_api.h"
  #include "/usr/include/phonenumbers/phonemetadata.pb.h"
  #include "/usr/include/phonenumbers/phonenumber.pb.h"
  #include "/usr/include/phonenumbers/phonenumbermatch.h"
  #include "/usr/include/phonenumbers/phonenumbermatcher.h"
  #include "/usr/include/phonenumbers/phonenumberutil.h"
  #include "/usr/include/phonenumbers/regexp_adapter.h"
  #include "/usr/include/phonenumbers/regexp_cache.h"
  #include "/usr/include/phonenumbers/region_code.h"
  #include "/usr/include/phonenumbers/shortnumberinfo.h"
  #include "/usr/include/phonenumbers/unicodestring.h"
  #include "/usr/include/phonenumbers/utf/unicodetext.h"

  // add namespaces
  namespace absl{typedef int tmp_add_type_1;}
  absl::tmp_add_type_1 tmp_add_func_1(){return 0;};
  namespace absl{namespace debian3{typedef int tmp_add_type_2;}}
  absl::debian3::tmp_add_type_2 tmp_add_func_2(){return 0;};
  namespace absl{namespace debian3{namespace internal{typedef int tmp_add_type_3;}}}
  absl::debian3::internal::tmp_add_type_3 tmp_add_func_3(){return 0;};
  namespace google{typedef int tmp_add_type_4;}
  google::tmp_add_type_4 tmp_add_func_4(){return 0;};
  namespace google{namespace protobuf{typedef int tmp_add_type_5;}}
  google::protobuf::tmp_add_type_5 tmp_add_func_5(){return 0;};
  namespace google{namespace protobuf{namespace internal{typedef int tmp_add_type_6;}}}
  google::protobuf::internal::tmp_add_type_6 tmp_add_func_6(){return 0;};
  namespace google{namespace protobuf{namespace io{typedef int tmp_add_type_7;}}}
  google::protobuf::io::tmp_add_type_7 tmp_add_func_7(){return 0;};
  namespace google{namespace protobuf{namespace strings{typedef int tmp_add_type_8;}}}
  google::protobuf::strings::tmp_add_type_8 tmp_add_func_8(){return 0;};
  namespace google{namespace protobuf{namespace TestUtil{typedef int tmp_add_type_9;}}}
  google::protobuf::TestUtil::tmp_add_type_9 tmp_add_func_9(){return 0;};
  namespace google{namespace protobuf{namespace util{typedef int tmp_add_type_10;}}}
  google::protobuf::util::tmp_add_type_10 tmp_add_func_10(){return 0;};
  namespace i18n{typedef int tmp_add_type_11;}
  i18n::tmp_add_type_11 tmp_add_func_11(){return 0;};
  namespace i18n{namespace phonenumbers{typedef int tmp_add_type_12;}}
  i18n::phonenumbers::tmp_add_type_12 tmp_add_func_12(){return 0;};
  namespace i18n{namespace phonenumbers{namespace internal{typedef int tmp_add_type_13;}}}
  i18n::phonenumbers::internal::tmp_add_type_13 tmp_add_func_13(){return 0;};
  namespace absl{namespace debian3{namespace algorithm_internal{typedef int tmp_add_type_14;}}}
  absl::debian3::algorithm_internal::tmp_add_type_14 tmp_add_func_14(){return 0;};
  namespace absl{namespace debian3{namespace base_internal{typedef int tmp_add_type_15;}}}
  absl::debian3::base_internal::tmp_add_type_15 tmp_add_func_15(){return 0;};
  namespace absl{namespace debian3{namespace big_endian{typedef int tmp_add_type_16;}}}
  absl::debian3::big_endian::tmp_add_type_16 tmp_add_func_16(){return 0;};
  namespace absl{namespace debian3{namespace container_algorithm_internal{typedef int tmp_add_type_17;}}}
  absl::debian3::container_algorithm_internal::tmp_add_type_17 tmp_add_func_17(){return 0;};
  namespace absl{namespace debian3{namespace container_internal{typedef int tmp_add_type_18;}}}
  absl::debian3::container_internal::tmp_add_type_18 tmp_add_func_18(){return 0;};
  namespace absl{namespace debian3{namespace container_internal{namespace hashtable_debug_internal{typedef int tmp_add_type_19;}}}}
  absl::debian3::container_internal::hashtable_debug_internal::tmp_add_type_19 tmp_add_func_19(){return 0;};
  namespace absl{namespace debian3{namespace container_internal{namespace internal_compressed_tuple{typedef int tmp_add_type_20;}}}}
  absl::debian3::container_internal::internal_compressed_tuple::tmp_add_type_20 tmp_add_func_20(){return 0;};
  namespace absl{namespace debian3{namespace container_internal{namespace internal_layout{typedef int tmp_add_type_21;}}}}
  absl::debian3::container_internal::internal_layout::tmp_add_type_21 tmp_add_func_21(){return 0;};
  namespace absl{namespace debian3{namespace container_internal{namespace internal_layout{namespace adl_barrier{typedef int tmp_add_type_22;}}}}}
  absl::debian3::container_internal::internal_layout::adl_barrier::tmp_add_type_22 tmp_add_func_22(){return 0;};
  namespace absl{namespace debian3{namespace container_internal{namespace memory_internal{typedef int tmp_add_type_23;}}}}
  absl::debian3::container_internal::memory_internal::tmp_add_type_23 tmp_add_func_23(){return 0;};
  namespace absl{namespace debian3{namespace cord_internal{typedef int tmp_add_type_24;}}}
  absl::debian3::cord_internal::tmp_add_type_24 tmp_add_func_24(){return 0;};
  namespace absl{namespace debian3{namespace functional_internal{typedef int tmp_add_type_25;}}}
  absl::debian3::functional_internal::tmp_add_type_25 tmp_add_func_25(){return 0;};
  namespace absl{namespace debian3{namespace hash_internal{typedef int tmp_add_type_26;}}}
  absl::debian3::hash_internal::tmp_add_type_26 tmp_add_func_26(){return 0;};
  namespace absl{namespace debian3{namespace inlined_vector_internal{typedef int tmp_add_type_27;}}}
  absl::debian3::inlined_vector_internal::tmp_add_type_27 tmp_add_func_27(){return 0;};
  namespace absl{namespace debian3{namespace int128_internal{typedef int tmp_add_type_28;}}}
  absl::debian3::int128_internal::tmp_add_type_28 tmp_add_func_28(){return 0;};
  namespace absl{namespace debian3{namespace little_endian{typedef int tmp_add_type_29;}}}
  absl::debian3::little_endian::tmp_add_type_29 tmp_add_func_29(){return 0;};
  namespace absl{namespace debian3{namespace macros_internal{typedef int tmp_add_type_30;}}}
  absl::debian3::macros_internal::tmp_add_type_30 tmp_add_func_30(){return 0;};
  namespace absl{namespace debian3{namespace memory_internal{typedef int tmp_add_type_31;}}}
  absl::debian3::memory_internal::tmp_add_type_31 tmp_add_func_31(){return 0;};
  namespace absl{namespace debian3{namespace numbers_internal{typedef int tmp_add_type_32;}}}
  absl::debian3::numbers_internal::tmp_add_type_32 tmp_add_func_32(){return 0;};
  namespace absl{namespace debian3{namespace numeric_internal{typedef int tmp_add_type_33;}}}
  absl::debian3::numeric_internal::tmp_add_type_33 tmp_add_func_33(){return 0;};
  namespace absl{namespace debian3{namespace optional_internal{typedef int tmp_add_type_34;}}}
  absl::debian3::optional_internal::tmp_add_type_34 tmp_add_func_34(){return 0;};
  namespace absl{namespace debian3{namespace profiling_internal{typedef int tmp_add_type_35;}}}
  absl::debian3::profiling_internal::tmp_add_type_35 tmp_add_func_35(){return 0;};
  namespace absl{namespace debian3{namespace raw_logging_internal{typedef int tmp_add_type_36;}}}
  absl::debian3::raw_logging_internal::tmp_add_type_36 tmp_add_func_36(){return 0;};
  namespace absl{namespace debian3{namespace span_internal{typedef int tmp_add_type_37;}}}
  absl::debian3::span_internal::tmp_add_type_37 tmp_add_func_37(){return 0;};
  namespace absl{namespace debian3{namespace strings_internal{typedef int tmp_add_type_38;}}}
  absl::debian3::strings_internal::tmp_add_type_38 tmp_add_func_38(){return 0;};
  namespace absl{namespace debian3{namespace swap_internal{typedef int tmp_add_type_39;}}}
  absl::debian3::swap_internal::tmp_add_type_39 tmp_add_func_39(){return 0;};
  namespace absl{namespace debian3{namespace synchronization_internal{typedef int tmp_add_type_40;}}}
  absl::debian3::synchronization_internal::tmp_add_type_40 tmp_add_func_40(){return 0;};
  namespace absl{namespace debian3{namespace time_internal{typedef int tmp_add_type_41;}}}
  absl::debian3::time_internal::tmp_add_type_41 tmp_add_func_41(){return 0;};
  namespace absl{namespace debian3{namespace time_internal{namespace cctz{typedef int tmp_add_type_42;}}}}
  absl::debian3::time_internal::cctz::tmp_add_type_42 tmp_add_func_42(){return 0;};
  namespace absl{namespace debian3{namespace time_internal{namespace cctz{namespace detail{typedef int tmp_add_type_43;}}}}}
  absl::debian3::time_internal::cctz::detail::tmp_add_type_43 tmp_add_func_43(){return 0;};
  namespace absl{namespace debian3{namespace time_internal{namespace cctz{namespace detail{namespace impl{typedef int tmp_add_type_44;}}}}}}
  absl::debian3::time_internal::cctz::detail::impl::tmp_add_type_44 tmp_add_func_44(){return 0;};
  namespace absl{namespace debian3{namespace type_traits_internal{typedef int tmp_add_type_45;}}}
  absl::debian3::type_traits_internal::tmp_add_type_45 tmp_add_func_45(){return 0;};
  namespace absl{namespace debian3{namespace utility_internal{typedef int tmp_add_type_46;}}}
  absl::debian3::utility_internal::tmp_add_type_46 tmp_add_func_46(){return 0;};
  namespace absl{namespace debian3{namespace variant_internal{typedef int tmp_add_type_47;}}}
  absl::debian3::variant_internal::tmp_add_type_47 tmp_add_func_47(){return 0;};
  namespace google{namespace protobuf{namespace arena_metrics{typedef int tmp_add_type_48;}}}
  google::protobuf::arena_metrics::tmp_add_type_48 tmp_add_func_48(){return 0;};
  namespace google{namespace protobuf{namespace internal{namespace big_endian{typedef int tmp_add_type_49;}}}}
  google::protobuf::internal::big_endian::tmp_add_type_49 tmp_add_func_49(){return 0;};
  namespace google{namespace protobuf{namespace internal{namespace little_endian{typedef int tmp_add_type_50;}}}}
  google::protobuf::internal::little_endian::tmp_add_type_50 tmp_add_func_50(){return 0;};
  namespace google{namespace protobuf{namespace stringpiece_internal{typedef int tmp_add_type_51;}}}
  google::protobuf::stringpiece_internal::tmp_add_type_51 tmp_add_func_51(){return 0;};
  namespace google{namespace protobuf{namespace util{namespace status_internal{typedef int tmp_add_type_52;}}}}
  google::protobuf::util::status_internal::tmp_add_type_52 tmp_add_func_52(){return 0;};
  namespace icu_72{typedef int tmp_add_type_53;}
  icu_72::tmp_add_type_53 tmp_add_func_53(){return 0;};
  namespace thread_safety_analysis{typedef int tmp_add_type_54;}
  thread_safety_analysis::tmp_add_type_54 tmp_add_func_54(){return 0;};

  // add classes
  TableStruct_phonemetadata_2eproto* tmp_add_class_0;
  TableStruct_phonenumber_2eproto* tmp_add_class_1;
  _G_fpos64_t* tmp_add_class_2;
  _G_fpos_t* tmp_add_class_3;
  _IO_cookie_io_functions_t* tmp_add_class_4;
  itimerval* tmp_add_class_5;

The GCC parameters:
  gcc -fdump-lang-raw -fkeep-inline-functions -c -x c++ -fpermissive -w "/tmp/CCsEVDuWal/dump1.h"

