[2024-01-08T06:33:05+00:00] apt-get install libs3dw-dev abi-compliance-checker
Reading package lists...
Building dependency tree...
Reading state information...
abi-compliance-checker is already the newest version (2.3-2).
Recommended packages:
  pkg-config s3d-doc
The following NEW packages will be installed:
  libs3dw-dev libs3dw2
0 upgraded, 2 newly installed, 0 to remove and 24 not upgraded.
Need to get 44.0 kB of archives.
After this operation, 123 kB of additional disk space will be used.
Get:1 http://deb.debian.org/debian unstable/main armhf libs3dw2 armhf 0.2.2.1-6+b1 [24.7 kB]
Get:2 http://deb.debian.org/debian unstable/main armhf libs3dw-dev armhf 0.2.2.1-6+b1 [19.2 kB]
debconf: delaying package configuration, since apt-utils is not installed
Fetched 44.0 kB in 0s (183 kB/s)
Selecting previously unselected package libs3dw2:armhf.
(Reading database ... (Reading database ... 5%(Reading database ... 10%(Reading database ... 15%(Reading database ... 20%(Reading database ... 25%(Reading database ... 30%(Reading database ... 35%(Reading database ... 40%(Reading database ... 45%(Reading database ... 50%(Reading database ... 55%(Reading database ... 60%(Reading database ... 65%(Reading database ... 70%(Reading database ... 75%(Reading database ... 80%(Reading database ... 85%(Reading database ... 90%(Reading database ... 95%(Reading database ... 100%(Reading database ... 17284 files and directories currently installed.)
Preparing to unpack .../libs3dw2_0.2.2.1-6+b1_armhf.deb ...
Unpacking libs3dw2:armhf (0.2.2.1-6+b1) ...
Selecting previously unselected package libs3dw-dev:armhf.
Preparing to unpack .../libs3dw-dev_0.2.2.1-6+b1_armhf.deb ...
Unpacking libs3dw-dev:armhf (0.2.2.1-6+b1) ...
Setting up libs3dw2:armhf (0.2.2.1-6+b1) ...
Setting up libs3dw-dev:armhf (0.2.2.1-6+b1) ...
Processing triggers for libc-bin (2.37-13) ...
Reading package lists...
Building dependency tree...
Reading state information...
0 upgraded, 0 newly installed, 0 to remove and 24 not upgraded.
