[2024-01-07T22:15:12+00:00] apt-get install libmsnumpress-dev abi-compliance-checker
Reading package lists...
Building dependency tree...
Reading state information...
abi-compliance-checker is already the newest version (2.3-2).
The following packages were automatically installed and are no longer required:
  libbfio-dev libbfio1 libmsiecf-dev libmsiecf1
Use 'apt autoremove' to remove them.
The following additional packages will be installed:
  libjs-jquery libmsnumpress1
Recommended packages:
  javascript-common
The following NEW packages will be installed:
  libjs-jquery libmsnumpress-dev libmsnumpress1
0 upgraded, 3 newly installed, 0 to remove and 39 not upgraded.
Need to get 1544 kB of archives.
After this operation, 3103 kB of additional disk space will be used.
Get:1 http://deb.debian.org/debian unstable/main armhf libjs-jquery all 3.6.1+dfsg+~3.5.14-1 [326 kB]
Get:2 http://deb.debian.org/debian unstable/main armhf libmsnumpress1 armhf 1.0.0-7 [8820 B]
Get:3 http://deb.debian.org/debian unstable/main armhf libmsnumpress-dev armhf 1.0.0-7 [1209 kB]
debconf: delaying package configuration, since apt-utils is not installed
Fetched 1544 kB in 0s (5949 kB/s)
Selecting previously unselected package libjs-jquery.
(Reading database ... (Reading database ... 5%(Reading database ... 10%(Reading database ... 15%(Reading database ... 20%(Reading database ... 25%(Reading database ... 30%(Reading database ... 35%(Reading database ... 40%(Reading database ... 45%(Reading database ... 50%(Reading database ... 55%(Reading database ... 60%(Reading database ... 65%(Reading database ... 70%(Reading database ... 75%(Reading database ... 80%(Reading database ... 85%(Reading database ... 90%(Reading database ... 95%(Reading database ... 100%(Reading database ... 14765 files and directories currently installed.)
Preparing to unpack .../libjs-jquery_3.6.1+dfsg+~3.5.14-1_all.deb ...
Unpacking libjs-jquery (3.6.1+dfsg+~3.5.14-1) ...
Selecting previously unselected package libmsnumpress1.
Preparing to unpack .../libmsnumpress1_1.0.0-7_armhf.deb ...
Unpacking libmsnumpress1 (1.0.0-7) ...
Selecting previously unselected package libmsnumpress-dev.
Preparing to unpack .../libmsnumpress-dev_1.0.0-7_armhf.deb ...
Unpacking libmsnumpress-dev (1.0.0-7) ...
Setting up libmsnumpress1 (1.0.0-7) ...
Setting up libjs-jquery (3.6.1+dfsg+~3.5.14-1) ...
Setting up libmsnumpress-dev (1.0.0-7) ...
Processing triggers for libc-bin (2.37-13) ...
Reading package lists...
Building dependency tree...
Reading state information...
The following packages will be REMOVED:
  libbfio-dev* libbfio1* libmsiecf-dev* libmsiecf1*
0 upgraded, 0 newly installed, 4 to remove and 39 not upgraded.
After this operation, 4078 kB disk space will be freed.
(Reading database ... (Reading database ... 5%(Reading database ... 10%(Reading database ... 15%(Reading database ... 20%(Reading database ... 25%(Reading database ... 30%(Reading database ... 35%(Reading database ... 40%(Reading database ... 45%(Reading database ... 50%(Reading database ... 55%(Reading database ... 60%(Reading database ... 65%(Reading database ... 70%(Reading database ... 75%(Reading database ... 80%(Reading database ... 85%(Reading database ... 90%(Reading database ... 95%(Reading database ... 100%(Reading database ... 14963 files and directories currently installed.)
Removing libbfio-dev (20170123-6) ...
Removing libmsiecf-dev:armhf (20181227-2+b2) ...
Removing libmsiecf1:armhf (20181227-2+b2) ...
Removing libbfio1:armhf (20170123-6) ...
Processing triggers for libc-bin (2.37-13) ...
