Using GCC 13 (arm-linux-gnueabihf, target: arm)
WARNING: May not work properly with GCC 4.8.[0-2], 6.* and higher due to bug #78040 in GCC. Please try other GCC versions with the help of --gcc-path=PATH option or create ABI dumps by ABI Dumper tool instead to avoid using GCC. Test selected GCC version first by -test option.
Checking header(s) base ...
Temporary header file '/tmp/FWdb2IZi3o/dump1.h' with the following content will be compiled to create GCC translation unit dump:

  // add defines
  #define __STDC_VERSION__ 201710L
#define _GXX_NULLPTR_T
#define CLUTTER_ENABLE_COMPOSITOR_API 1
#define _REGEX_NELTS(n)
#define _Atomic
#define PACKED
#ifdef __cplusplus
// C17 compat layer
#define _Alignof(type) alignof(type)
#endif
#define getaddrinfo_a(a,b,c,d)

  // add includes
  #include "/usr/include/dsdp/dsdp5.h"
  #include "/usr/include/dsdp/dsdpbasictypes.h"
  #include "/usr/include/dsdp/dsdpdatamat.h"
  #include "/usr/include/dsdp/dsdpdatamat_impl.h"
  #include "/usr/include/dsdp/dsdpdsmat.h"
  #include "/usr/include/dsdp/dsdpdsmat_impl.h"
  #include "/usr/include/dsdp/dsdpdualmat.h"
  #include "/usr/include/dsdp/dsdpdualmat_impl.h"
  #include "/usr/include/dsdp/dsdplanczos.h"
  #include "/usr/include/dsdp/dsdplapack.h"
  #include "/usr/include/dsdp/dsdpmem.h"
  #include "/usr/include/dsdp/dsdpsdp.h"
  #include "/usr/include/dsdp/dsdpsys.h"
  #include "/usr/include/dsdp/dsdpxmat.h"
  #include "/usr/include/dsdp/dsdpxmat_impl.h"
  #include "/usr/include/dsdp/sdpconevec.h"

The GCC parameters:
  gcc -fdump-lang-raw -fkeep-inline-functions -c -x c++ -fpermissive -w "/tmp/FWdb2IZi3o/dump1.h"

In file included from /tmp/FWdb2IZi3o/dump1.h:27:
/usr/include/dsdp/dsdpsdp.h:8:10: fatal error: dsdpschurmat.h: No such file or directory
    8 | #include "dsdpschurmat.h"
      |          ^~~~~~~~~~~~~~~~
compilation terminated.
ERROR: some errors occurred when compiling headers
ERROR: see log for details:
  /home/adrien/armhf-time_t/out/logs/libdsdp-dev/base/abi-compliance-checker.log


ERROR: can't compile header(s)
