Temporary header file '/tmp/bketzJ4qnV/dump1.h' with the following content will be compiled to create GCC translation unit dump:

  // add defines
  #define __STDC_VERSION__ 201710L
#define _GXX_NULLPTR_T
#define CLUTTER_ENABLE_COMPOSITOR_API 1
#define _REGEX_NELTS(n)
#define _Atomic
#define PACKED
#ifdef __cplusplus
// C17 compat layer
#define _Alignof(type) alignof(type)
#endif
#define getaddrinfo_a(a,b,c,d)

  // add includes
  #include "/usr/include/libhmsbeagle-1/libhmsbeagle/beagle.h"
  #include "/usr/include/libhmsbeagle-1/libhmsbeagle/platform.h"

The GCC parameters:
  gcc -fdump-lang-raw -fkeep-inline-functions -c -x c++ -fpermissive -w "/tmp/bketzJ4qnV/dump1.h"  -I/usr/include/libhmsbeagle-1

