[2024-01-08T13:12:26+00:00] apt-get install libvo-aacenc-dev abi-compliance-checker
Reading package lists...
Building dependency tree...
Reading state information...
abi-compliance-checker is already the newest version (2.3-2).
The following packages were automatically installed and are no longer required:
  libvnlog-dev libvnlog0
Use 'apt autoremove' to remove them.
The following NEW packages will be installed:
  libvo-aacenc-dev libvo-aacenc0
0 upgraded, 2 newly installed, 0 to remove and 16 not upgraded.
Need to get 128 kB of archives.
After this operation, 271 kB of additional disk space will be used.
Get:1 http://deb.debian.org/debian unstable/main armhf libvo-aacenc0 armhf 0.1.3-2 [61.1 kB]
Get:2 http://deb.debian.org/debian unstable/main armhf libvo-aacenc-dev armhf 0.1.3-2 [67.0 kB]
debconf: delaying package configuration, since apt-utils is not installed
Fetched 128 kB in 0s (1465 kB/s)
Selecting previously unselected package libvo-aacenc0:armhf.
(Reading database ... (Reading database ... 5%(Reading database ... 10%(Reading database ... 15%(Reading database ... 20%(Reading database ... 25%(Reading database ... 30%(Reading database ... 35%(Reading database ... 40%(Reading database ... 45%(Reading database ... 50%(Reading database ... 55%(Reading database ... 60%(Reading database ... 65%(Reading database ... 70%(Reading database ... 75%(Reading database ... 80%(Reading database ... 85%(Reading database ... 90%(Reading database ... 95%(Reading database ... 100%(Reading database ... 17064 files and directories currently installed.)
Preparing to unpack .../libvo-aacenc0_0.1.3-2_armhf.deb ...
Unpacking libvo-aacenc0:armhf (0.1.3-2) ...
Selecting previously unselected package libvo-aacenc-dev:armhf.
Preparing to unpack .../libvo-aacenc-dev_0.1.3-2_armhf.deb ...
Unpacking libvo-aacenc-dev:armhf (0.1.3-2) ...
Setting up libvo-aacenc0:armhf (0.1.3-2) ...
Setting up libvo-aacenc-dev:armhf (0.1.3-2) ...
Processing triggers for libc-bin (2.37-13) ...
Reading package lists...
Building dependency tree...
Reading state information...
The following packages will be REMOVED:
  libvnlog-dev* libvnlog0*
0 upgraded, 0 newly installed, 2 to remove and 16 not upgraded.
After this operation, 85.0 kB disk space will be freed.
(Reading database ... (Reading database ... 5%(Reading database ... 10%(Reading database ... 15%(Reading database ... 20%(Reading database ... 25%(Reading database ... 30%(Reading database ... 35%(Reading database ... 40%(Reading database ... 45%(Reading database ... 50%(Reading database ... 55%(Reading database ... 60%(Reading database ... 65%(Reading database ... 70%(Reading database ... 75%(Reading database ... 80%(Reading database ... 85%(Reading database ... 90%(Reading database ... 95%(Reading database ... 100%(Reading database ... 17086 files and directories currently installed.)
Removing libvnlog-dev:armhf (1.36-3) ...
Removing libvnlog0:armhf (1.36-3) ...
Processing triggers for libc-bin (2.37-13) ...
