[2024-01-07T13:30:08+00:00] apt-get install libkf5crash-dev abi-compliance-checker
Reading package lists...
Building dependency tree...
Reading state information...
abi-compliance-checker is already the newest version (2.3-2).
The following additional packages will be installed:
  libkf5crash5 libkf5windowsystem-data libkf5windowsystem-dev
  libkf5windowsystem5 libqt5x11extras5 libxcb-res0
Recommended packages:
  libkf5crash-doc libkf5windowsystem-doc kwayland-integration qtwayland5
The following NEW packages will be installed:
  libkf5crash-dev libkf5crash5 libkf5windowsystem-data libkf5windowsystem-dev
  libkf5windowsystem5 libqt5x11extras5 libxcb-res0
0 upgraded, 7 newly installed, 0 to remove and 30 not upgraded.
Need to get 324 kB of archives.
After this operation, 1345 kB of additional disk space will be used.
Get:1 http://deb.debian.org/debian unstable/main armhf libqt5x11extras5 armhf 5.15.10-2 [9396 B]
Get:2 http://deb.debian.org/debian unstable/main armhf libkf5crash5 armhf 5.107.0-1 [16.6 kB]
Get:3 http://deb.debian.org/debian unstable/main armhf libkf5windowsystem-data all 5.107.0-1 [12.2 kB]
Get:4 http://deb.debian.org/debian unstable/main armhf libxcb-res0 armhf 1.15-1 [106 kB]
Get:5 http://deb.debian.org/debian unstable/main armhf libkf5windowsystem5 armhf 5.107.0-1 [119 kB]
Get:6 http://deb.debian.org/debian unstable/main armhf libkf5windowsystem-dev armhf 5.107.0-1 [50.1 kB]
Get:7 http://deb.debian.org/debian unstable/main armhf libkf5crash-dev armhf 5.107.0-1 [9824 B]
debconf: delaying package configuration, since apt-utils is not installed
Fetched 324 kB in 0s (689 kB/s)
Selecting previously unselected package libqt5x11extras5:armhf.
(Reading database ... (Reading database ... 5%(Reading database ... 10%(Reading database ... 15%(Reading database ... 20%(Reading database ... 25%(Reading database ... 30%(Reading database ... 35%(Reading database ... 40%(Reading database ... 45%(Reading database ... 50%(Reading database ... 55%(Reading database ... 60%(Reading database ... 65%(Reading database ... 70%(Reading database ... 75%(Reading database ... 80%(Reading database ... 85%(Reading database ... 90%(Reading database ... 95%(Reading database ... 100%(Reading database ... 21401 files and directories currently installed.)
Preparing to unpack .../0-libqt5x11extras5_5.15.10-2_armhf.deb ...
Unpacking libqt5x11extras5:armhf (5.15.10-2) ...
Selecting previously unselected package libkf5crash5:armhf.
Preparing to unpack .../1-libkf5crash5_5.107.0-1_armhf.deb ...
Unpacking libkf5crash5:armhf (5.107.0-1) ...
Selecting previously unselected package libkf5windowsystem-data.
Preparing to unpack .../2-libkf5windowsystem-data_5.107.0-1_all.deb ...
Unpacking libkf5windowsystem-data (5.107.0-1) ...
Selecting previously unselected package libxcb-res0:armhf.
Preparing to unpack .../3-libxcb-res0_1.15-1_armhf.deb ...
Unpacking libxcb-res0:armhf (1.15-1) ...
Selecting previously unselected package libkf5windowsystem5:armhf.
Preparing to unpack .../4-libkf5windowsystem5_5.107.0-1_armhf.deb ...
Unpacking libkf5windowsystem5:armhf (5.107.0-1) ...
Selecting previously unselected package libkf5windowsystem-dev.
Preparing to unpack .../5-libkf5windowsystem-dev_5.107.0-1_armhf.deb ...
Unpacking libkf5windowsystem-dev (5.107.0-1) ...
Selecting previously unselected package libkf5crash-dev.
Preparing to unpack .../6-libkf5crash-dev_5.107.0-1_armhf.deb ...
Unpacking libkf5crash-dev (5.107.0-1) ...
Setting up libxcb-res0:armhf (1.15-1) ...
Setting up libqt5x11extras5:armhf (5.15.10-2) ...
Setting up libkf5windowsystem-data (5.107.0-1) ...
Setting up libkf5crash5:armhf (5.107.0-1) ...
Setting up libkf5windowsystem5:armhf (5.107.0-1) ...
Setting up libkf5windowsystem-dev (5.107.0-1) ...
Setting up libkf5crash-dev (5.107.0-1) ...
Processing triggers for libc-bin (2.37-13) ...
Reading package lists...
Building dependency tree...
Reading state information...
0 upgraded, 0 newly installed, 0 to remove and 30 not upgraded.
