[2024-01-09T21:44:58+00:00] apt-get install qtbase5-private-dev libicu-dev libdouble-conversion-dev default-jdk-headless libharfbuzz-dev libdrm-dev libatspi2.0-dev libssl-dev libcups2-dev libxcb-randr0-dev libxcb-xfixes0-dev libxcb-xinerama0-dev libxcb-image0-dev libxcb-keysyms1-dev libxcb-xkb-dev libxkbcommon-x11-dev libxcb-sync-dev libqt5opengl5-dev abi-compliance-checker
Reading package lists...
Building dependency tree...
Reading state information...
qtbase5-private-dev is already the newest version (5.15.10+dfsg-5).
qtbase5-private-dev set to manually installed.
libicu-dev is already the newest version (72.1-4).
libicu-dev set to manually installed.
libdouble-conversion-dev is already the newest version (3.3.0-1+b1).
libdouble-conversion-dev set to manually installed.
default-jdk-headless is already the newest version (2:1.17-75).
default-jdk-headless set to manually installed.
libharfbuzz-dev is already the newest version (8.0.1-1+b2).
libharfbuzz-dev set to manually installed.
libdrm-dev is already the newest version (2.4.117-1).
libdrm-dev set to manually installed.
libatspi2.0-dev is already the newest version (2.50.0-1+b1).
libatspi2.0-dev set to manually installed.
libssl-dev is already the newest version (3.1.4-2).
libssl-dev set to manually installed.
libcups2-dev is already the newest version (2.4.7-1+b1).
libcups2-dev set to manually installed.
libxcb-randr0-dev is already the newest version (1.15-1).
libxcb-randr0-dev set to manually installed.
libxcb-xfixes0-dev is already the newest version (1.15-1).
libxcb-xfixes0-dev set to manually installed.
libxcb-xinerama0-dev is already the newest version (1.15-1).
libxcb-xinerama0-dev set to manually installed.
libxcb-image0-dev is already the newest version (0.4.0-2).
libxcb-image0-dev set to manually installed.
libxcb-keysyms1-dev is already the newest version (0.4.0-1+b2).
libxcb-keysyms1-dev set to manually installed.
libxcb-xkb-dev is already the newest version (1.15-1).
libxcb-xkb-dev set to manually installed.
libxkbcommon-x11-dev is already the newest version (1.6.0-1).
libxkbcommon-x11-dev set to manually installed.
libxcb-sync-dev is already the newest version (1.15-1).
libxcb-sync-dev set to manually installed.
libqt5opengl5-dev is already the newest version (5.15.10+dfsg-5).
libqt5opengl5-dev set to manually installed.
abi-compliance-checker is already the newest version (2.3-2).
0 upgraded, 0 newly installed, 0 to remove and 73 not upgraded.
Reading package lists...
Building dependency tree...
Reading state information...
0 upgraded, 0 newly installed, 0 to remove and 73 not upgraded.
