Temporary header file '/tmp/aeOejFURCQ/dump1.h' with the following content will be compiled to create GCC translation unit dump:

  // add defines
  #define __STDC_VERSION__ 201710L
#define _GXX_NULLPTR_T
#define CLUTTER_ENABLE_COMPOSITOR_API 1
#define _REGEX_NELTS(n)
#define _Atomic
#define PACKED
#ifdef __cplusplus
// C17 compat layer
#define _Alignof(type) alignof(type)
#endif
#define getaddrinfo_a(a,b,c,d)

  // add includes
  #include "/usr/include/globus/globus_gram_client.h"

  // add classes
  _G_fpos64_t* tmp_add_class_0;
  _G_fpos_t* tmp_add_class_1;
  _IO_cookie_io_functions_t* tmp_add_class_2;
  addrinfo* tmp_add_class_3;
  cmsghdr* tmp_add_class_4;
  f_owner_ex* tmp_add_class_5;
  file_handle* tmp_add_class_6;
  flock64* tmp_add_class_7;
  gaicb* tmp_add_class_8;
  globus_args_option_descriptor_s* tmp_add_class_9;
  globus_args_option_instance_s* tmp_add_class_10;
  globus_barrier_s* tmp_add_class_11;
  globus_gram_client_job_info_s* tmp_add_class_12;
  globus_gss_assist_ex_st* tmp_add_class_13;
  globus_list* tmp_add_class_14;
  globus_logging_module_s* tmp_add_class_15;
  globus_module_descriptor_s* tmp_add_class_16;
  globus_object_s* tmp_add_class_17;
  globus_object_type_s* tmp_add_class_18;
  globus_options_entry_s* tmp_add_class_19;
  globus_priority_q_s* tmp_add_class_20;
  globus_state_extension_handle_s* tmp_add_class_21;
  globus_validate_int_parms_s* tmp_add_class_22;
  globus_xio_driver_list_ent_s* tmp_add_class_23;
  group_filter* tmp_add_class_24;
  group_req* tmp_add_class_25;
  group_source_req* tmp_add_class_26;
  gss_OID_desc_struct* tmp_add_class_27;
  gss_OID_set_desc_struct* tmp_add_class_28;
  gss_buffer_desc_struct* tmp_add_class_29;
  gss_buffer_set_desc_struct* tmp_add_class_30;
  gss_channel_bindings_struct* tmp_add_class_31;
  hostent* tmp_add_class_32;
  in6_addr* tmp_add_class_33;
  in6_pktinfo* tmp_add_class_34;
  in_addr* tmp_add_class_35;
  in_pktinfo* tmp_add_class_36;
  iovec* tmp_add_class_37;
  ip6_mtuinfo* tmp_add_class_38;
  ip_mreq* tmp_add_class_39;
  ip_mreq_source* tmp_add_class_40;
  ip_mreqn* tmp_add_class_41;
  ip_msfilter* tmp_add_class_42;
  ip_opts* tmp_add_class_43;
  ipv6_mreq* tmp_add_class_44;
  itimerval* tmp_add_class_45;
  linger* tmp_add_class_46;
  mmsghdr* tmp_add_class_47;
  msghdr* tmp_add_class_48;
  netent* tmp_add_class_49;
  osockaddr* tmp_add_class_50;
  passwd* tmp_add_class_51;
  protoent* tmp_add_class_52;
  rpcent* tmp_add_class_53;
  servent* tmp_add_class_54;
  sockaddr* tmp_add_class_55;
  sockaddr_in* tmp_add_class_56;
  sockaddr_in6* tmp_add_class_57;
  sockaddr_storage* tmp_add_class_58;
  statx_timestamp* tmp_add_class_59;
  ucontext_t* tmp_add_class_60;
  ucred* tmp_add_class_61;

The GCC parameters:
  gcc -fdump-lang-raw -fkeep-inline-functions -c -x c++ -fpermissive -w "/tmp/aeOejFURCQ/dump1.h"

