[2024-01-08T02:27:29+00:00] apt-get install libpcl1-dev abi-compliance-checker
Reading package lists...
Building dependency tree...
Reading state information...
abi-compliance-checker is already the newest version (2.3-2).
The following packages were automatically installed and are no longer required:
  adwaita-icon-theme ament-cmake ament-cmake-core ament-cmake-python
  at-spi2-common ca-certificates ca-certificates-java cmake cmake-data
  default-jdk default-jdk-headless default-jre default-jre-headless
  default-libmysqlclient-dev docutils-common fontconfig fontconfig-config
  fonts-dejavu-core fonts-dejavu-mono gdal-data gdal-plugins
  gtk-update-icon-cache hdf5-helpers hicolor-icon-theme ibverbs-providers
  icu-devtools iso-codes java-common libactionlib-dev libactionlib-msgs-dev
  libactionlib1d libaec-dev libaec0 libament-index-cpp-dev
  libament-index-cpp0d libaom-dev libaom3 libapr1 libapr1-dev libaprutil1
  libaprutil1-dbd-sqlite3 libaprutil1-dev libarchive13 libarmadillo-dev
  libarmadillo12 libarpack2 libarpack2-dev libasound2 libasound2-data
  libassuan-dev libatk1.0-0 libavahi-client3 libavahi-common-data
  libavahi-common3 libavcodec-dev libavcodec60 libavformat-dev libavformat60
  libavutil-dev libavutil58 libb64-0d libb64-dev libblas-dev libblas3
  libblosc-dev libblosc1 libbluray2 libbond-dev libbondcpp-dev libbondcpp1d
  libboost-all-dev libboost-atomic-dev libboost-atomic1.83-dev
  libboost-atomic1.83.0 libboost-chrono-dev libboost-chrono1.83-dev
  libboost-chrono1.83.0 libboost-container-dev libboost-container1.83-dev
  libboost-container1.83.0 libboost-context-dev libboost-context1.83-dev
  libboost-context1.83.0 libboost-coroutine-dev libboost-coroutine1.83-dev
  libboost-coroutine1.83.0 libboost-date-time-dev libboost-date-time1.83-dev
  libboost-date-time1.83.0 libboost-dev libboost-exception-dev
  libboost-exception1.83-dev libboost-fiber-dev libboost-fiber1.83-dev
  libboost-fiber1.83.0 libboost-filesystem-dev libboost-filesystem1.83-dev
  libboost-filesystem1.83.0 libboost-graph-dev libboost-graph-parallel-dev
  libboost-graph-parallel1.83-dev libboost-graph-parallel1.83.0
  libboost-graph1.83-dev libboost-graph1.83.0 libboost-iostreams-dev
  libboost-iostreams1.83-dev libboost-iostreams1.83.0 libboost-json-dev
  libboost-json1.83-dev libboost-json1.83.0 libboost-locale-dev
  libboost-locale1.83-dev libboost-locale1.83.0 libboost-log-dev
  libboost-log1.83-dev libboost-log1.83.0 libboost-math-dev
  libboost-math1.83-dev libboost-math1.83.0 libboost-mpi-dev
  libboost-mpi-python-dev libboost-mpi-python1.83-dev
  libboost-mpi-python1.83.0 libboost-mpi1.83-dev libboost-mpi1.83.0
  libboost-nowide-dev libboost-nowide1.83-dev libboost-nowide1.83.0
  libboost-numpy-dev libboost-numpy1.83-dev libboost-numpy1.83.0
  libboost-program-options-dev libboost-program-options1.83-dev
  libboost-program-options1.83.0 libboost-python-dev libboost-python1.83-dev
  libboost-python1.83.0 libboost-random-dev libboost-random1.83-dev
  libboost-random1.83.0 libboost-regex-dev libboost-regex1.83-dev
  libboost-regex1.83.0 libboost-serialization-dev
  libboost-serialization1.83-dev libboost-serialization1.83.0
  libboost-stacktrace-dev libboost-stacktrace1.83-dev
  libboost-stacktrace1.83.0 libboost-system-dev libboost-system1.83-dev
  libboost-system1.83.0 libboost-test-dev libboost-test1.83-dev
  libboost-test1.83.0 libboost-thread-dev libboost-thread1.83-dev
  libboost-thread1.83.0 libboost-timer-dev libboost-timer1.83-dev
  libboost-timer1.83.0 libboost-tools-dev libboost-type-erasure-dev
  libboost-type-erasure1.83-dev libboost-type-erasure1.83.0 libboost-url-dev
  libboost-url1.83-dev libboost-url1.83.0 libboost-wave-dev
  libboost-wave1.83-dev libboost-wave1.83.0 libboost1.83-dev
  libboost1.83-tools-dev libbrotli-dev libbrotli1 libbz2-dev libcairo-gobject2
  libcairo2 libcfitsio-dev libcfitsio10 libchromaprint1 libcjson1 libclang1-15
  libclass-loader-dev libclass-loader3d libcodec2-1.2 libconsole-bridge-dev
  libconsole-bridge1.0 libcpp-common0d libcups2 libcurl3-gnutls libcurl4
  libcurl4-openssl-dev libdatrie1 libdav1d-dev libdav1d7 libde265-0
  libde265-dev libdeflate-dev libdeflate0 libdouble-conversion-dev
  libdouble-conversion3 libdrm-amdgpu1 libdrm-common libdrm-nouveau2
  libdrm-radeon1 libdrm2 libdw1 libdynamic-reconfigure-config-init-mutex-dev
  libdynamic-reconfigure-config-init-mutex0d libedit2 libegl-dev libegl-mesa0
  libegl1 libeigen3-dev libevdev2 libevent-2.1-7 libevent-core-2.1-7
  libevent-dev libevent-extra-2.1-7 libevent-openssl-2.1-7
  libevent-pthreads-2.1-7 libexpat1-dev libfabric1 libflann-dev libflann1.9
  libfontconfig-dev libfontconfig1 libfontconfig1-dev libfreetype-dev
  libfreetype6 libfreexl-dev libfreexl1 libfribidi0 libfyba-dev libfyba0
  libgbm1 libgdal-dev libgdal34 libgdk-pixbuf-2.0-0 libgdk-pixbuf2.0-common
  libgeometry-msgs-dev libgeos-c1v5 libgeos-dev libgeos3.12.1 libgeotiff-dev
  libgeotiff5 libgif-dev libgif7 libgl-dev libgl1 libgl1-mesa-dev
  libgl1-mesa-dri libgl2ps-dev libgl2ps1.4 libglapi-mesa libgles-dev libgles1
  libgles2 libglew-dev libglew2.2 libglib2.0-0 libglu1-mesa libglu1-mesa-dev
  libglvnd-core-dev libglvnd-dev libglvnd0 libglx-dev libglx-mesa0 libglx0
  libgme0 libgpg-error-dev libgpgme-dev libgpgme11 libgraphite2-3 libgsm1
  libgstreamer-plugins-base1.0-0 libgstreamer1.0-0 libgtk2.0-0
  libgtk2.0-common libgudev-1.0-0 libharfbuzz0b libhdf4-0-alt libhdf4-alt-dev
  libhdf5-103-1 libhdf5-cpp-103-1 libhdf5-dev libhdf5-fortran-102
  libhdf5-hl-100 libhdf5-hl-cpp-100 libhdf5-hl-fortran-100 libhdf5-mpi-dev
  libhdf5-openmpi-103-1 libhdf5-openmpi-cpp-103-1 libhdf5-openmpi-dev
  libhdf5-openmpi-fortran-102 libhdf5-openmpi-hl-100
  libhdf5-openmpi-hl-cpp-100 libhdf5-openmpi-hl-fortran-100 libheif-dev
  libheif-plugin-dav1d libheif-plugin-libde265 libheif1 libhwloc-dev
  libhwloc-plugins libhwloc15 libhwy1 libhyphen0 libibverbs-dev libibverbs1
  libice-dev libice6 libicu-dev libinput-bin libinput10 libjbig-dev libjbig0
  libjpeg-dev libjpeg62-turbo libjpeg62-turbo-dev libjs-jquery libjs-jquery-ui
  libjs-sphinxdoc libjs-underscore libjson-c-dev libjsoncpp-dev libjsoncpp25
  libjxl0.7 libkml-dev libkmlbase1 libkmlconvenience1 libkmldom1 libkmlengine1
  libkmlregionator1 libkmlxsd1 liblapack-dev liblapack3 liblcms2-2 libldap-dev
  libldap2-dev liblerc-dev liblerc4 libllvm15 libllvm17 liblog4cxx-dev
  liblog4cxx15 libltdl-dev libltdl7 liblz4-dev liblzma-dev libmariadb-dev
  libmariadb-dev-compat libmariadb3 libmbedcrypto7 libmd4c0
  libmessage-filters-dev libmessage-filters1d libminizip-dev libminizip1
  libmp3lame0 libmpg123-0 libmtdev1 libmunge2 libnetcdf-dev libnetcdf19
  libnghttp2-14 libnl-3-200 libnl-3-dev libnl-route-3-200 libnl-route-3-dev
  libnodelet-dev libnodelet-topic-tools-dev libnodeletlib-dev libnodeletlib1d
  libnorm1 libnspr4 libnss3 libnuma-dev libnuma1 libodbc2 libodbccr2
  libodbcinst2 libogdi-dev libogdi4.1 libogg-dev libogg0 libopengl-dev
  libopengl0 libopenjp2-7 libopenjp2-7-dev libopenmpi-dev libopenmpi3
  libopenmpt0 libopenni-dev libopenni0 libopenni2-0 libopenni2-dev libopus0
  liborc-0.4-0 liborocos-kdl-dev liborocos-kdl1.5 libpango-1.0-0
  libpangocairo-1.0-0 libpangoft2-1.0-0 libpcap0.8 libpciaccess0
  libpcl-apps1.13 libpcl-common1.13 libpcl-conversions-dev libpcl-dev
  libpcl-features1.13 libpcl-filters1.13 libpcl-io1.13 libpcl-kdtree1.13
  libpcl-keypoints1.13 libpcl-ml1.13 libpcl-msgs-dev libpcl-octree1.13
  libpcl-outofcore1.13 libpcl-people1.13 libpcl-recognition1.13
  libpcl-registration1.13 libpcl-ros-dev libpcl-ros-features0d
  libpcl-ros-filter1d libpcl-ros-filters0d libpcl-ros-io0d
  libpcl-ros-segmentation0d libpcl-ros-surface0d libpcl-ros-tf1d
  libpcl-sample-consensus1.13 libpcl-search1.13 libpcl-segmentation1.13
  libpcl-stereo1.13 libpcl-surface1.13 libpcl-tracking1.13
  libpcl-visualization1.13 libpcre2-16-0 libpcre2-32-0 libpcre2-dev
  libpcre2-posix3 libpcsclite1 libpgm-5.3-0 libpixman-1-0 libpkgconf3
  libpmix-dev libpmix2 libpng-dev libpng16-16 libpoppler-dev
  libpoppler-private-dev libpoppler126 libpq-dev libpq5 libproj-dev libproj25
  libpsl5 libpthread-stubs0-dev libpython3-dev libpython3.11 libpython3.11-dev
  libqhull-dev libqhull-r8.0 libqhull8.0 libqhullcpp8.0 libqt5concurrent5
  libqt5core5a libqt5dbus5 libqt5designer5 libqt5designercomponents5
  libqt5gui5 libqt5help5 libqt5network5 libqt5opengl5 libqt5opengl5-dev
  libqt5positioning5 libqt5printsupport5 libqt5qml5 libqt5qmlmodels5
  libqt5qmlworkerscript5 libqt5quick5 libqt5quickparticles5 libqt5quickshapes5
  libqt5quicktest5 libqt5quickwidgets5 libqt5sensors5 libqt5sql5
  libqt5sql5-sqlite libqt5test5 libqt5webchannel5 libqt5webkit5
  libqt5webkit5-dev libqt5widgets5 libqt5xml5 librabbitmq4 librav1e0
  librcpputils-dev librcpputils1d librcutils-dev librcutils1d librdmacm1
  librhash0 librist4 libros-rosgraph-msgs-dev librosbag-dev
  librosbag-storage-dev librosbag-storage4d librosbag4d librosconsole-dev
  librosconsole3d libroscpp-core-dev libroscpp-dev libroscpp-msg-dev
  libroscpp-serialization0d libroscpp4d libroslib-dev libroslib0d libroslz4-1d
  libroslz4-dev librospack-dev librospack0d librostime1d librsvg2-2 librtmp1
  librttopo-dev librttopo1 libsctp-dev libsctp1 libsensor-msgs-dev
  libsensors-config libsensors5 libsharpyuv-dev libsharpyuv0 libshine3
  libsm-dev libsm6 libsmc-dev libsnappy1v5 libsodium23 libsoxr0
  libspatialite-dev libspatialite8 libspeex1 libsqlite3-dev libsrt1.5-gnutls
  libssh-gcrypt-4 libssh2-1 libssl-dev libstd-msgs-dev libstd-srvs-dev
  libsuperlu-dev libsuperlu6 libsvtav1enc1d1 libswresample-dev libswresample4
  libswscale-dev libswscale7 libsz2 libtbb-dev libtbb12 libtbbbind-2-5
  libtbbmalloc2 libtcl8.6 libtf-dev libtf1d libtf2-2d libtf2-dev
  libtf2-eigen-dev libtf2-geometry-msgs-dev libtf2-msgs-dev libtf2-ros-dev
  libtf2-ros1d libthai-data libthai0 libtheora-dev libtheora0 libtiff-dev
  libtiff6 libtiffxx6 libtinyxml2-10 libtinyxml2-9 libtinyxml2-dev
  libtinyxml2.6.2v5 libtk8.6 libtopic-tools-dev libtopic-tools2d libtwolame0
  libudfread0 libunwind8 liburiparser-dev liburiparser1 libusb-1.0-0
  libusb-1.0-0-dev libutfcpp-dev libuv1 libva-drm2 libva-x11-2 libva2
  libvdpau1 libvorbis0a libvorbisenc2 libvorbisfile3 libvpx8 libvtk9-dev
  libvtk9-java libvtk9-qt-dev libvtk9.1 libvtk9.1-qt libvulkan-dev libvulkan1
  libwacom-common libwacom9 libwayland-client0 libwayland-server0 libwebp-dev
  libwebp7 libwebpdecoder3 libwebpdemux2 libwebpmux3 libwoff1 libx11-6
  libx11-data libx11-dev libx11-xcb1 libx264-164 libx265-199 libx265-dev
  libxau-dev libxau6 libxcb-dri2-0 libxcb-dri3-0 libxcb-glx0 libxcb-icccm4
  libxcb-image0 libxcb-keysyms1 libxcb-present0 libxcb-randr0
  libxcb-render-util0 libxcb-render0 libxcb-shape0 libxcb-shm0 libxcb-sync1
  libxcb-util1 libxcb-xfixes0 libxcb-xinerama0 libxcb-xinput0 libxcb-xkb1
  libxcb1 libxcb1-dev libxcomposite1 libxcursor1 libxdamage1 libxdmcp-dev
  libxdmcp6 libxerces-c-dev libxerces-c3.2 libxext-dev libxext6 libxfixes3
  libxft-dev libxft2 libxi6 libxinerama1 libxkbcommon-x11-0 libxkbcommon0
  libxml2-dev libxmlrpcpp-dev libxmlrpcpp3d libxnvctrl0 libxrandr2
  libxrender-dev libxrender1 libxshmfence1 libxslt1.1 libxss-dev libxss1
  libxt-dev libxt6 libxtst6 libxvidcore4 libxxf86vm1 libz3-4 libzmq5
  libzstd-dev libzvbi-common libzvbi0 lsb-release mariadb-common
  mpi-default-bin mpi-default-dev mysql-common ocl-icd-libopencl1
  openjdk-17-jdk openjdk-17-jdk-headless openjdk-17-jre
  openjdk-17-jre-headless openmpi-bin openmpi-common openssh-client openssl
  pkg-config pkgconf pkgconf-bin pluginlib-dev proj-data
  python3-ament-cmake-test python3-ament-package python3-catkin-pkg
  python3-dateutil python3-dev python3-distro python3-distutils
  python3-docutils python3-empy python3-gencpp python3-genlisp python3-genmsg
  python3-genpy python3-lib2to3 python3-mpi4py python3-pkg-resources
  python3-pyparsing python3-roman python3-rospkg python3-rosunit
  python3-setuptools python3-six python3-vtk9 python3-yaml python3.11-dev
  qdoc-qt5 qhelpgenerator-qt5 qt5-assistant qt5-qmake qt5-qmake-bin
  qt5-qmltooling-plugins qtattributionsscanner-qt5 qtbase5-dev
  qtbase5-dev-tools qtchooser qtdeclarative5-dev qtdeclarative5-dev-tools
  qttools5-dev qttools5-dev-tools qttools5-private-dev ros-cmake-modules
  ros-environment ros-message-generation ros-message-runtime sgml-base
  shared-mime-info tcl tcl-dev tcl8.6 tcl8.6-dev tk tk-dev tk8.6 tk8.6-dev
  unixodbc-common unixodbc-dev uuid-dev vtk9 x11-common x11proto-dev xkb-data
  xml-core xorg-sgml-doctools xtrans-dev zlib1g-dev
Use 'apt autoremove' to remove them.
The following NEW packages will be installed:
  libpcl1 libpcl1-dev
0 upgraded, 2 newly installed, 0 to remove and 30 not upgraded.
Need to get 18.7 kB of archives.
After this operation, 63.5 kB of additional disk space will be used.
Get:1 http://deb.debian.org/debian unstable/main armhf libpcl1 armhf 1.12-2 [5600 B]
Get:2 http://deb.debian.org/debian unstable/main armhf libpcl1-dev armhf 1.12-2 [13.1 kB]
debconf: delaying package configuration, since apt-utils is not installed
Fetched 18.7 kB in 0s (172 kB/s)
Selecting previously unselected package libpcl1:armhf.
(Reading database ... (Reading database ... 5%(Reading database ... 10%(Reading database ... 15%(Reading database ... 20%(Reading database ... 25%(Reading database ... 30%(Reading database ... 35%(Reading database ... 40%(Reading database ... 45%(Reading database ... 50%(Reading database ... 55%(Reading database ... 60%(Reading database ... 65%(Reading database ... 70%(Reading database ... 75%(Reading database ... 80%(Reading database ... 85%(Reading database ... 90%(Reading database ... 95%(Reading database ... 100%(Reading database ... 70121 files and directories currently installed.)
Preparing to unpack .../libpcl1_1.12-2_armhf.deb ...
Unpacking libpcl1:armhf (1.12-2) ...
Selecting previously unselected package libpcl1-dev:armhf.
Preparing to unpack .../libpcl1-dev_1.12-2_armhf.deb ...
Unpacking libpcl1-dev:armhf (1.12-2) ...
Setting up libpcl1:armhf (1.12-2) ...
Setting up libpcl1-dev:armhf (1.12-2) ...
Processing triggers for libc-bin (2.37-13) ...
Reading package lists...
Building dependency tree...
Reading state information...
The following packages will be REMOVED:
  adwaita-icon-theme* ament-cmake* ament-cmake-core* ament-cmake-python*
  at-spi2-common* ca-certificates* ca-certificates-java* cmake* cmake-data*
  default-jdk* default-jdk-headless* default-jre* default-jre-headless*
  default-libmysqlclient-dev* docutils-common* fontconfig* fontconfig-config*
  fonts-dejavu-core* fonts-dejavu-mono* gdal-data* gdal-plugins*
  gtk-update-icon-cache* hdf5-helpers* hicolor-icon-theme* ibverbs-providers*
  icu-devtools* iso-codes* java-common* libactionlib-dev*
  libactionlib-msgs-dev* libactionlib1d* libaec-dev* libaec0*
  libament-index-cpp-dev* libament-index-cpp0d* libaom-dev* libaom3* libapr1*
  libapr1-dev* libaprutil1* libaprutil1-dbd-sqlite3* libaprutil1-dev*
  libarchive13* libarmadillo-dev* libarmadillo12* libarpack2* libarpack2-dev*
  libasound2* libasound2-data* libassuan-dev* libatk1.0-0* libavahi-client3*
  libavahi-common-data* libavahi-common3* libavcodec-dev* libavcodec60*
  libavformat-dev* libavformat60* libavutil-dev* libavutil58* libb64-0d*
  libb64-dev* libblas-dev* libblas3* libblosc-dev* libblosc1* libbluray2*
  libbond-dev* libbondcpp-dev* libbondcpp1d* libboost-all-dev*
  libboost-atomic-dev* libboost-atomic1.83-dev* libboost-atomic1.83.0*
  libboost-chrono-dev* libboost-chrono1.83-dev* libboost-chrono1.83.0*
  libboost-container-dev* libboost-container1.83-dev*
  libboost-container1.83.0* libboost-context-dev* libboost-context1.83-dev*
  libboost-context1.83.0* libboost-coroutine-dev* libboost-coroutine1.83-dev*
  libboost-coroutine1.83.0* libboost-date-time-dev*
  libboost-date-time1.83-dev* libboost-date-time1.83.0* libboost-dev*
  libboost-exception-dev* libboost-exception1.83-dev* libboost-fiber-dev*
  libboost-fiber1.83-dev* libboost-fiber1.83.0* libboost-filesystem-dev*
  libboost-filesystem1.83-dev* libboost-filesystem1.83.0* libboost-graph-dev*
  libboost-graph-parallel-dev* libboost-graph-parallel1.83-dev*
  libboost-graph-parallel1.83.0* libboost-graph1.83-dev* libboost-graph1.83.0*
  libboost-iostreams-dev* libboost-iostreams1.83-dev*
  libboost-iostreams1.83.0* libboost-json-dev* libboost-json1.83-dev*
  libboost-json1.83.0* libboost-locale-dev* libboost-locale1.83-dev*
  libboost-locale1.83.0* libboost-log-dev* libboost-log1.83-dev*
  libboost-log1.83.0* libboost-math-dev* libboost-math1.83-dev*
  libboost-math1.83.0* libboost-mpi-dev* libboost-mpi-python-dev*
  libboost-mpi-python1.83-dev* libboost-mpi-python1.83.0*
  libboost-mpi1.83-dev* libboost-mpi1.83.0* libboost-nowide-dev*
  libboost-nowide1.83-dev* libboost-nowide1.83.0* libboost-numpy-dev*
  libboost-numpy1.83-dev* libboost-numpy1.83.0* libboost-program-options-dev*
  libboost-program-options1.83-dev* libboost-program-options1.83.0*
  libboost-python-dev* libboost-python1.83-dev* libboost-python1.83.0*
  libboost-random-dev* libboost-random1.83-dev* libboost-random1.83.0*
  libboost-regex-dev* libboost-regex1.83-dev* libboost-regex1.83.0*
  libboost-serialization-dev* libboost-serialization1.83-dev*
  libboost-serialization1.83.0* libboost-stacktrace-dev*
  libboost-stacktrace1.83-dev* libboost-stacktrace1.83.0* libboost-system-dev*
  libboost-system1.83-dev* libboost-system1.83.0* libboost-test-dev*
  libboost-test1.83-dev* libboost-test1.83.0* libboost-thread-dev*
  libboost-thread1.83-dev* libboost-thread1.83.0* libboost-timer-dev*
  libboost-timer1.83-dev* libboost-timer1.83.0* libboost-tools-dev*
  libboost-type-erasure-dev* libboost-type-erasure1.83-dev*
  libboost-type-erasure1.83.0* libboost-url-dev* libboost-url1.83-dev*
  libboost-url1.83.0* libboost-wave-dev* libboost-wave1.83-dev*
  libboost-wave1.83.0* libboost1.83-dev* libboost1.83-tools-dev*
  libbrotli-dev* libbrotli1* libbz2-dev* libcairo-gobject2* libcairo2*
  libcfitsio-dev* libcfitsio10* libchromaprint1* libcjson1* libclang1-15*
  libclass-loader-dev* libclass-loader3d* libcodec2-1.2*
  libconsole-bridge-dev* libconsole-bridge1.0* libcpp-common0d* libcups2*
  libcurl3-gnutls* libcurl4* libcurl4-openssl-dev* libdatrie1* libdav1d-dev*
  libdav1d7* libde265-0* libde265-dev* libdeflate-dev* libdeflate0*
  libdouble-conversion-dev* libdouble-conversion3* libdrm-amdgpu1*
  libdrm-common* libdrm-nouveau2* libdrm-radeon1* libdrm2* libdw1*
  libdynamic-reconfigure-config-init-mutex-dev*
  libdynamic-reconfigure-config-init-mutex0d* libedit2* libegl-dev*
  libegl-mesa0* libegl1* libeigen3-dev* libevdev2* libevent-2.1-7*
  libevent-core-2.1-7* libevent-dev* libevent-extra-2.1-7*
  libevent-openssl-2.1-7* libevent-pthreads-2.1-7* libexpat1-dev* libfabric1*
  libflann-dev* libflann1.9* libfontconfig-dev* libfontconfig1*
  libfontconfig1-dev* libfreetype-dev* libfreetype6* libfreexl-dev*
  libfreexl1* libfribidi0* libfyba-dev* libfyba0* libgbm1* libgdal-dev*
  libgdal34* libgdk-pixbuf-2.0-0* libgdk-pixbuf2.0-common*
  libgeometry-msgs-dev* libgeos-c1v5* libgeos-dev* libgeos3.12.1*
  libgeotiff-dev* libgeotiff5* libgif-dev* libgif7* libgl-dev* libgl1*
  libgl1-mesa-dev* libgl1-mesa-dri* libgl2ps-dev* libgl2ps1.4* libglapi-mesa*
  libgles-dev* libgles1* libgles2* libglew-dev* libglew2.2* libglib2.0-0*
  libglu1-mesa* libglu1-mesa-dev* libglvnd-core-dev* libglvnd-dev* libglvnd0*
  libglx-dev* libglx-mesa0* libglx0* libgme0* libgpg-error-dev* libgpgme-dev*
  libgpgme11* libgraphite2-3* libgsm1* libgstreamer-plugins-base1.0-0*
  libgstreamer1.0-0* libgtk2.0-0* libgtk2.0-common* libgudev-1.0-0*
  libharfbuzz0b* libhdf4-0-alt* libhdf4-alt-dev* libhdf5-103-1*
  libhdf5-cpp-103-1* libhdf5-dev* libhdf5-fortran-102* libhdf5-hl-100*
  libhdf5-hl-cpp-100* libhdf5-hl-fortran-100* libhdf5-mpi-dev*
  libhdf5-openmpi-103-1* libhdf5-openmpi-cpp-103-1* libhdf5-openmpi-dev*
  libhdf5-openmpi-fortran-102* libhdf5-openmpi-hl-100*
  libhdf5-openmpi-hl-cpp-100* libhdf5-openmpi-hl-fortran-100* libheif-dev*
  libheif-plugin-dav1d* libheif-plugin-libde265* libheif1* libhwloc-dev*
  libhwloc-plugins* libhwloc15* libhwy1* libhyphen0* libibverbs-dev*
  libibverbs1* libice-dev* libice6* libicu-dev* libinput-bin* libinput10*
  libjbig-dev* libjbig0* libjpeg-dev* libjpeg62-turbo* libjpeg62-turbo-dev*
  libjs-jquery* libjs-jquery-ui* libjs-sphinxdoc* libjs-underscore*
  libjson-c-dev* libjsoncpp-dev* libjsoncpp25* libjxl0.7* libkml-dev*
  libkmlbase1* libkmlconvenience1* libkmldom1* libkmlengine1*
  libkmlregionator1* libkmlxsd1* liblapack-dev* liblapack3* liblcms2-2*
  libldap-dev* libldap2-dev* liblerc-dev* liblerc4* libllvm15* libllvm17*
  liblog4cxx-dev* liblog4cxx15* libltdl-dev* libltdl7* liblz4-dev*
  liblzma-dev* libmariadb-dev* libmariadb-dev-compat* libmariadb3*
  libmbedcrypto7* libmd4c0* libmessage-filters-dev* libmessage-filters1d*
  libminizip-dev* libminizip1* libmp3lame0* libmpg123-0* libmtdev1* libmunge2*
  libnetcdf-dev* libnetcdf19* libnghttp2-14* libnl-3-200* libnl-3-dev*
  libnl-route-3-200* libnl-route-3-dev* libnodelet-dev*
  libnodelet-topic-tools-dev* libnodeletlib-dev* libnodeletlib1d* libnorm1*
  libnspr4* libnss3* libnuma-dev* libnuma1* libodbc2* libodbccr2*
  libodbcinst2* libogdi-dev* libogdi4.1* libogg-dev* libogg0* libopengl-dev*
  libopengl0* libopenjp2-7* libopenjp2-7-dev* libopenmpi-dev* libopenmpi3*
  libopenmpt0* libopenni-dev* libopenni0* libopenni2-0* libopenni2-dev*
  libopus0* liborc-0.4-0* liborocos-kdl-dev* liborocos-kdl1.5* libpango-1.0-0*
  libpangocairo-1.0-0* libpangoft2-1.0-0* libpcap0.8* libpciaccess0*
  libpcl-apps1.13* libpcl-common1.13* libpcl-conversions-dev* libpcl-dev*
  libpcl-features1.13* libpcl-filters1.13* libpcl-io1.13* libpcl-kdtree1.13*
  libpcl-keypoints1.13* libpcl-ml1.13* libpcl-msgs-dev* libpcl-octree1.13*
  libpcl-outofcore1.13* libpcl-people1.13* libpcl-recognition1.13*
  libpcl-registration1.13* libpcl-ros-dev* libpcl-ros-features0d*
  libpcl-ros-filter1d* libpcl-ros-filters0d* libpcl-ros-io0d*
  libpcl-ros-segmentation0d* libpcl-ros-surface0d* libpcl-ros-tf1d*
  libpcl-sample-consensus1.13* libpcl-search1.13* libpcl-segmentation1.13*
  libpcl-stereo1.13* libpcl-surface1.13* libpcl-tracking1.13*
  libpcl-visualization1.13* libpcre2-16-0* libpcre2-32-0* libpcre2-dev*
  libpcre2-posix3* libpcsclite1* libpgm-5.3-0* libpixman-1-0* libpkgconf3*
  libpmix-dev* libpmix2* libpng-dev* libpng16-16* libpoppler-dev*
  libpoppler-private-dev* libpoppler126* libpq-dev* libpq5* libproj-dev*
  libproj25* libpsl5* libpthread-stubs0-dev* libpython3-dev* libpython3.11*
  libpython3.11-dev* libqhull-dev* libqhull-r8.0* libqhull8.0* libqhullcpp8.0*
  libqt5concurrent5* libqt5core5a* libqt5dbus5* libqt5designer5*
  libqt5designercomponents5* libqt5gui5* libqt5help5* libqt5network5*
  libqt5opengl5* libqt5opengl5-dev* libqt5positioning5* libqt5printsupport5*
  libqt5qml5* libqt5qmlmodels5* libqt5qmlworkerscript5* libqt5quick5*
  libqt5quickparticles5* libqt5quickshapes5* libqt5quicktest5*
  libqt5quickwidgets5* libqt5sensors5* libqt5sql5* libqt5sql5-sqlite*
  libqt5test5* libqt5webchannel5* libqt5webkit5* libqt5webkit5-dev*
  libqt5widgets5* libqt5xml5* librabbitmq4* librav1e0* librcpputils-dev*
  librcpputils1d* librcutils-dev* librcutils1d* librdmacm1* librhash0*
  librist4* libros-rosgraph-msgs-dev* librosbag-dev* librosbag-storage-dev*
  librosbag-storage4d* librosbag4d* librosconsole-dev* librosconsole3d*
  libroscpp-core-dev* libroscpp-dev* libroscpp-msg-dev*
  libroscpp-serialization0d* libroscpp4d* libroslib-dev* libroslib0d*
  libroslz4-1d* libroslz4-dev* librospack-dev* librospack0d* librostime1d*
  librsvg2-2* librtmp1* librttopo-dev* librttopo1* libsctp-dev* libsctp1*
  libsensor-msgs-dev* libsensors-config* libsensors5* libsharpyuv-dev*
  libsharpyuv0* libshine3* libsm-dev* libsm6* libsmc-dev* libsnappy1v5*
  libsodium23* libsoxr0* libspatialite-dev* libspatialite8* libspeex1*
  libsqlite3-dev* libsrt1.5-gnutls* libssh-gcrypt-4* libssh2-1* libssl-dev*
  libstd-msgs-dev* libstd-srvs-dev* libsuperlu-dev* libsuperlu6*
  libsvtav1enc1d1* libswresample-dev* libswresample4* libswscale-dev*
  libswscale7* libsz2* libtbb-dev* libtbb12* libtbbbind-2-5* libtbbmalloc2*
  libtcl8.6* libtf-dev* libtf1d* libtf2-2d* libtf2-dev* libtf2-eigen-dev*
  libtf2-geometry-msgs-dev* libtf2-msgs-dev* libtf2-ros-dev* libtf2-ros1d*
  libthai-data* libthai0* libtheora-dev* libtheora0* libtiff-dev* libtiff6*
  libtiffxx6* libtinyxml2-10* libtinyxml2-9* libtinyxml2-dev*
  libtinyxml2.6.2v5* libtk8.6* libtopic-tools-dev* libtopic-tools2d*
  libtwolame0* libudfread0* libunwind8* liburiparser-dev* liburiparser1*
  libusb-1.0-0* libusb-1.0-0-dev* libutfcpp-dev* libuv1* libva-drm2*
  libva-x11-2* libva2* libvdpau1* libvorbis0a* libvorbisenc2* libvorbisfile3*
  libvpx8* libvtk9-dev* libvtk9-java* libvtk9-qt-dev* libvtk9.1* libvtk9.1-qt*
  libvulkan-dev* libvulkan1* libwacom-common* libwacom9* libwayland-client0*
  libwayland-server0* libwebp-dev* libwebp7* libwebpdecoder3* libwebpdemux2*
  libwebpmux3* libwoff1* libx11-6* libx11-data* libx11-dev* libx11-xcb1*
  libx264-164* libx265-199* libx265-dev* libxau-dev* libxau6* libxcb-dri2-0*
  libxcb-dri3-0* libxcb-glx0* libxcb-icccm4* libxcb-image0* libxcb-keysyms1*
  libxcb-present0* libxcb-randr0* libxcb-render-util0* libxcb-render0*
  libxcb-shape0* libxcb-shm0* libxcb-sync1* libxcb-util1* libxcb-xfixes0*
  libxcb-xinerama0* libxcb-xinput0* libxcb-xkb1* libxcb1* libxcb1-dev*
  libxcomposite1* libxcursor1* libxdamage1* libxdmcp-dev* libxdmcp6*
  libxerces-c-dev* libxerces-c3.2* libxext-dev* libxext6* libxfixes3*
  libxft-dev* libxft2* libxi6* libxinerama1* libxkbcommon-x11-0*
  libxkbcommon0* libxml2-dev* libxmlrpcpp-dev* libxmlrpcpp3d* libxnvctrl0*
  libxrandr2* libxrender-dev* libxrender1* libxshmfence1* libxslt1.1*
  libxss-dev* libxss1* libxt-dev* libxt6* libxtst6* libxvidcore4* libxxf86vm1*
  libz3-4* libzmq5* libzstd-dev* libzvbi-common* libzvbi0* lsb-release*
  mariadb-common* mpi-default-bin* mpi-default-dev* mysql-common*
  ocl-icd-libopencl1* openjdk-17-jdk* openjdk-17-jdk-headless* openjdk-17-jre*
  openjdk-17-jre-headless* openmpi-bin* openmpi-common* openssh-client*
  openssl* pkg-config* pkgconf* pkgconf-bin* pluginlib-dev* proj-data*
  python3-ament-cmake-test* python3-ament-package* python3-catkin-pkg*
  python3-dateutil* python3-dev* python3-distro* python3-distutils*
  python3-docutils* python3-empy* python3-gencpp* python3-genlisp*
  python3-genmsg* python3-genpy* python3-lib2to3* python3-mpi4py*
  python3-pkg-resources* python3-pyparsing* python3-roman* python3-rospkg*
  python3-rosunit* python3-setuptools* python3-six* python3-vtk9*
  python3-yaml* python3.11-dev* qdoc-qt5* qhelpgenerator-qt5* qt5-assistant*
  qt5-qmake* qt5-qmake-bin* qt5-qmltooling-plugins* qtattributionsscanner-qt5*
  qtbase5-dev* qtbase5-dev-tools* qtchooser* qtdeclarative5-dev*
  qtdeclarative5-dev-tools* qttools5-dev* qttools5-dev-tools*
  qttools5-private-dev* ros-cmake-modules* ros-environment*
  ros-message-generation* ros-message-runtime* sgml-base* shared-mime-info*
  tcl* tcl-dev* tcl8.6* tcl8.6-dev* tk* tk-dev* tk8.6* tk8.6-dev*
  unixodbc-common* unixodbc-dev* uuid-dev* vtk9* x11-common* x11proto-dev*
  xkb-data* xml-core* xorg-sgml-doctools* xtrans-dev* zlib1g-dev*
0 upgraded, 0 newly installed, 770 to remove and 30 not upgraded.
After this operation, 1959 MB disk space will be freed.
(Reading database ... (Reading database ... 5%(Reading database ... 10%(Reading database ... 15%(Reading database ... 20%(Reading database ... 25%(Reading database ... 30%(Reading database ... 35%(Reading database ... 40%(Reading database ... 45%(Reading database ... 50%(Reading database ... 55%(Reading database ... 60%(Reading database ... 65%(Reading database ... 70%(Reading database ... 75%(Reading database ... 80%(Reading database ... 85%(Reading database ... 90%(Reading database ... 95%(Reading database ... 100%(Reading database ... 70138 files and directories currently installed.)
Removing libpcl-ros-dev:armhf (1.7.5-1+b1) ...
Removing libpcl-conversions-dev:armhf (1.7.5-1+b1) ...
Removing libpcl-dev (1.13.0+dfsg-4) ...
Removing libvtk9-qt-dev:armhf (9.1.0+really9.1.0+dfsg2-7) ...
Removing libvtk9-dev (9.1.0+really9.1.0+dfsg2-7) ...
Removing default-jdk (2:1.17-75) ...
Removing openjdk-17-jdk:armhf (17.0.10~6ea-1) ...
Removing default-jre (2:1.17-75) ...
Removing openjdk-17-jre:armhf (17.0.10~6ea-1) ...
Removing libgtk2.0-0:armhf (2.24.33-2) ...
Removing adwaita-icon-theme (45.0-2) ...
Removing librosbag-dev:armhf (1.16.0+ds-3+b2) ...
Removing librosbag-storage-dev:armhf (1.16.0+ds-3+b2) ...
Removing libnodeletlib-dev:armhf (1.10.2-1+b8) ...
Removing libatk1.0-0:armhf (2.50.0-1+b1) ...
Removing at-spi2-common (2.50.0-1) ...
Removing default-jdk-headless (2:1.17-75) ...
Removing openjdk-17-jdk-headless:armhf (17.0.10~6ea-1) ...
Removing default-jre-headless (2:1.17-75) ...
Removing openjdk-17-jre-headless:armhf (17.0.10~6ea-1) ...
Removing ca-certificates-java (20230710) ...
Removing ca-certificates (20230311) ...
Removing dangling symlinks from /etc/ssl/certs... done.
Removing libgdal-dev (3.8.2+dfsg-1) ...
Removing default-libmysqlclient-dev:armhf (1.1.0) ...
Removing libtf-dev:armhf (1.13.2-10+b1) ...
Removing libtf2-ros-dev:armhf (0.7.7-1+b2) ...
Removing libactionlib-dev:armhf (1.14.0-6+b1) ...
Removing python3-rosunit (1.15.8-5) ...
Removing python3-rospkg (1.5.0-1) ...
Removing libqt5opengl5-dev:armhf (5.15.10+dfsg-5) ...
Removing libqt5webkit5-dev:armhf (5.212.0~alpha4-33) ...
Removing python3-vtk9 (9.1.0+really9.1.0+dfsg2-7) ...
Removing libavformat-dev:armhf (7:6.1.1-1) ...
Removing libavformat60:armhf (7:6.1.1-1) ...
Removing tk-dev:armhf (8.6.13) ...
Removing tk8.6-dev:armhf (8.6.13-2) ...
Removing libxft-dev:armhf (2.3.6-1) ...
Removing vtk9 (9.1.0+really9.1.0+dfsg2-7) ...
Removing libpoppler-private-dev:armhf (22.12.0-2+b1) ...
Removing libpoppler-dev:armhf (22.12.0-2+b1) ...
Removing libgdal34 (3.8.2+dfsg-1) ...
Removing gdal-data (3.8.2+dfsg-1) ...
Removing gdal-plugins (3.8.2+dfsg-1) ...
Removing gtk-update-icon-cache (3.24.39-1) ...
Removing libhdf4-alt-dev (4.2.16-3) ...
Removing libnetcdf-dev (1:4.9.2-3) ...
Removing libarmadillo-dev (1:12.6.7+dfsg-1) ...
Removing libhdf5-dev (1.10.10+repack-3) ...
Removing hdf5-helpers (1.10.10+repack-3) ...
Removing hicolor-icon-theme (0.17-2) ...
Removing libflann-dev:armhf (1.9.2+dfsg-2) ...
Removing libhdf5-mpi-dev (1.10.10+repack-3) ...
Removing libboost-all-dev (1.83.0.2) ...
Removing libboost-mpi-python-dev (1.83.0.2) ...
Removing libboost-mpi-python1.83-dev (1.83.0-2+b2) ...
Removing libhdf5-openmpi-dev (1.10.10+repack-3) ...
update-alternatives: warning: forcing reinstallation of alternative /usr/bin/mpicc.openmpi because link group mpi is broken
update-alternatives: warning: alternative /usr/lib/arm-linux-gnueabihf/pkgconfig/hdf5-mpi.pc (part of link group hdf5.pc) doesn't exist; removing from list of alternatives
update-alternatives: warning: /etc/alternatives/hdf5.pc is dangling; it will be updated with best choice
Removing libxerces-c-dev:armhf (3.2.4+debian-1.1) ...
Removing libspatialite-dev:armhf (5.1.0-1) ...
Removing libxml2-dev:armhf (2.9.14+dfsg-1.3+b2) ...
Removing qttools5-private-dev:armhf (5.15.10-5) ...
Removing qttools5-dev:armhf (5.15.10-5) ...
Removing qttools5-dev-tools (5.15.10-5) ...
Removing qt5-assistant (5.15.10-5) ...
Removing libqt5webkit5:armhf (5.212.0~alpha4-33) ...
Removing libgstreamer-plugins-base1.0-0:armhf (1.22.8-1) ...
Removing iso-codes (4.15.0-1) ...
Removing java-common (0.75) ...
Removing libtf2-eigen-dev:armhf (0.7.7-1+b2) ...
Removing libpcl-ros-segmentation0d:armhf (1.7.5-1+b1) ...
Removing libpcl-ros-io0d:armhf (1.7.5-1+b1) ...
Removing libpcl-ros-surface0d:armhf (1.7.5-1+b1) ...
Removing libaec-dev:armhf (1.1.2-1) ...
Removing libhdf5-openmpi-cpp-103-1:armhf (1.10.10+repack-3) ...
Removing libhdf5-openmpi-hl-fortran-100:armhf (1.10.10+repack-3) ...
Removing librosbag4d:armhf (1.16.0+ds-3+b2) ...
Removing librosbag-storage4d:armhf (1.16.0+ds-3+b2) ...
Removing libpcl-ros-filters0d:armhf (1.7.5-1+b1) ...
Removing libheif-dev:armhf (1.17.6-1) ...
Removing libaom-dev:armhf (3.7.1-1+b1) ...
Removing libtopic-tools-dev:armhf (1.16.0+ds-3+b2) ...
Removing libmessage-filters-dev:armhf (1.16.0+ds-3+b2) ...
Removing libtopic-tools2d:armhf (1.16.0+ds-3+b2) ...
Removing libarmadillo12 (1:12.6.7+dfsg-1) ...
Removing libarpack2-dev:armhf (3.9.1-1+b1) ...
Removing libarpack2:armhf (3.9.1-1+b1) ...
Removing libasound2:armhf (1.2.10-3) ...
Removing libasound2-data (1.2.10-3) ...
Removing libgpgme-dev (1.18.0-4+b1) ...
Removing libassuan-dev (2.5.6-1) ...
Removing libavcodec-dev:armhf (7:6.1.1-1) ...
Removing libswscale-dev:armhf (7:6.1.1-1) ...
Removing libswresample-dev:armhf (7:6.1.1-1) ...
Removing libavutil-dev:armhf (7:6.1.1-1) ...
Removing libswscale7:armhf (7:6.1.1-1) ...
Removing libpcl-ros-filter1d:armhf (1.7.5-1+b1) ...
Removing libsuperlu-dev:armhf (6.0.1+dfsg1-1) ...
Removing liblapack-dev:armhf (3.11.0-2) ...
Removing libblas-dev:armhf (3.11.0-2) ...
Removing libsuperlu6:armhf (6.0.1+dfsg1-1) ...
Removing liblapack3:armhf (3.11.0-2) ...
Removing libblas3:armhf (3.11.0-2) ...
Removing libblosc-dev:armhf (1.21.5+ds-1+b1) ...
Removing libblosc1:armhf (1.21.5+ds-1+b1) ...
Removing libbluray2:armhf (1:1.3.4-1) ...
Removing libnodelet-dev:armhf (1.10.2-1+b8) ...
Removing libbondcpp-dev:armhf (1.8.6-10+b1) ...
Removing libbond-dev:armhf (1.8.6-10+b1) ...
Removing libboost-atomic-dev:armhf (1.83.0.2) ...
Removing libboost-fiber-dev:armhf (1.83.0.2) ...
Removing libboost-fiber1.83-dev:armhf (1.83.0-2+b2) ...
Removing libboost-wave-dev:armhf (1.83.0.2) ...
Removing libboost-wave1.83-dev:armhf (1.83.0-2+b2) ...
Removing libboost-coroutine-dev:armhf (1.83.0.2) ...
Removing libboost-coroutine1.83-dev:armhf (1.83.0-2+b2) ...
Removing libpcl-people1.13:armhf (1.13.0+dfsg-4) ...
Removing libpcl-outofcore1.13:armhf (1.13.0+dfsg-4) ...
Removing libpcl-recognition1.13:armhf (1.13.0+dfsg-4) ...
Removing libboost-chrono-dev:armhf (1.83.0.2) ...
Removing libboost-timer-dev:armhf (1.83.0.2) ...
Removing libboost-timer1.83-dev:armhf (1.83.0-2+b2) ...
Removing libboost-container-dev:armhf (1.83.0.2) ...
Removing libboost-json-dev:armhf (1.83.0.2) ...
Removing libboost-json1.83-dev:armhf (1.83.0-2+b2) ...
Removing libboost-container1.83-dev:armhf (1.83.0-2+b2) ...
Removing libboost-container1.83.0:armhf (1.83.0-2+b2) ...
Removing libboost-context-dev:armhf (1.83.0.2) ...
Removing libboost-fiber1.83.0:armhf (1.83.0-2+b2) ...
Removing libboost-coroutine1.83.0:armhf (1.83.0-2+b2) ...
Removing libboost-date-time-dev:armhf (1.83.0.2) ...
Removing libboost-log-dev (1.83.0.2) ...
Removing libboost-log1.83-dev (1.83.0-2+b2) ...
Removing libnodelet-topic-tools-dev:armhf (1.10.2-1+b8) ...
Removing libdynamic-reconfigure-config-init-mutex-dev:armhf (1.7.3-1) ...
Removing libstd-srvs-dev:armhf (1.11.3-3) ...
Removing libkml-dev:armhf (1.3.0-10) ...
Removing libboost-exception-dev:armhf (1.83.0.2) ...
Removing libboost-exception1.83-dev:armhf (1.83.0-2+b2) ...
Removing libpcl-apps1.13:armhf (1.13.0+dfsg-4) ...
Removing libboost-graph-dev:armhf (1.83.0.2) ...
Removing libboost-graph-parallel-dev (1.83.0.2) ...
Removing libboost-graph-parallel1.83-dev (1.83.0-2+b2) ...
Removing libboost-graph-parallel1.83.0 (1.83.0-2+b2) ...
Removing libboost-graph1.83-dev:armhf (1.83.0-2+b2) ...
Removing libboost-graph1.83.0:armhf (1.83.0-2+b2) ...
Removing libboost-iostreams-dev:armhf (1.83.0.2) ...
Removing libboost-iostreams1.83-dev:armhf (1.83.0-2+b2) ...
Removing libboost-json1.83.0:armhf (1.83.0-2+b2) ...
Removing libboost-locale-dev:armhf (1.83.0.2) ...
Removing libboost-locale1.83-dev:armhf (1.83.0-2+b2) ...
Removing libboost-locale1.83.0:armhf (1.83.0-2+b2) ...
Removing libboost-log1.83.0 (1.83.0-2+b2) ...
Removing libboost-math-dev:armhf (1.83.0.2) ...
Removing libboost-math1.83-dev:armhf (1.83.0-2+b2) ...
Removing libboost-math1.83.0:armhf (1.83.0-2+b2) ...
Removing libboost-mpi-dev (1.83.0.2) ...
Removing libboost-mpi-python1.83.0 (1.83.0-2+b2) ...
Removing libboost-nowide-dev (1.83.0.2) ...
Removing libboost-nowide1.83-dev (1.83.0-2+b2) ...
Removing libboost-nowide1.83.0 (1.83.0-2+b2) ...
Removing libboost-numpy-dev (1.83.0.2) ...
Removing libboost-numpy1.83-dev (1.83.0-2+b2) ...
Removing libboost-numpy1.83.0 (1.83.0-2+b2) ...
Removing libboost-python-dev (1.83.0.2) ...
Removing libboost-python1.83-dev (1.83.0-2+b2) ...
Removing libboost-python1.83.0 (1.83.0-2+b2) ...
Removing libboost-random-dev:armhf (1.83.0.2) ...
Removing libboost-random1.83-dev:armhf (1.83.0-2+b2) ...
Removing libboost-random1.83.0:armhf (1.83.0-2+b2) ...
Removing libboost-serialization-dev:armhf (1.83.0.2) ...
Removing libboost-stacktrace-dev:armhf (1.83.0.2) ...
Removing libboost-stacktrace1.83-dev:armhf (1.83.0-2+b2) ...
Removing libboost-stacktrace1.83.0:armhf (1.83.0-2+b2) ...
Removing libboost-url-dev:armhf (1.83.0.2) ...
Removing libboost-url1.83-dev:armhf (1.83.0-2+b2) ...
Removing libboost-type-erasure-dev:armhf (1.83.0.2) ...
Removing libboost-type-erasure1.83-dev:armhf (1.83.0-2+b2) ...
Removing libboost-test-dev:armhf (1.83.0.2) ...
Removing libboost-test1.83-dev:armhf (1.83.0-2+b2) ...
Removing libboost-test1.83.0:armhf (1.83.0-2+b2) ...
Removing libboost-wave1.83.0:armhf (1.83.0-2+b2) ...
Removing libboost-type-erasure1.83.0:armhf (1.83.0-2+b2) ...
Removing libboost-timer1.83.0:armhf (1.83.0-2+b2) ...
Removing libboost-tools-dev (1.83.0.2) ...
Removing libboost-url1.83.0:armhf (1.83.0-2+b2) ...
Removing libboost1.83-tools-dev (1.83.0-2+b2) ...
Removing libfontconfig1-dev:armhf (2.14.2-6+b1) ...
Removing libfontconfig-dev:armhf (2.14.2-6+b1) ...
Removing libfreetype-dev:armhf (2.13.2+dfsg-1+b1) ...
Removing libbrotli-dev:armhf (1.1.0-2+b3) ...
Removing libwoff1:armhf (1.0.2-2) ...
Removing libbz2-dev:armhf (1.0.8-5+b2) ...
Removing libtheora-dev:armhf (1.1.1+dfsg.1-16.1+b1) ...
Removing libcfitsio-dev:armhf (4.3.0-2+b1) ...
Removing libcfitsio10:armhf (4.3.0-2+b1) ...
Removing libchromaprint1:armhf (1.5.1-4) ...
Removing librist4:armhf (0.2.10+dfsg-1) ...
Removing libcjson1:armhf (1.7.17-1) ...
Removing qdoc-qt5 (5.15.10-5) ...
Removing libclang1-15 (1:15.0.7-10) ...
Removing libpcl-ros-features0d:armhf (1.7.5-1+b1) ...
Removing libxerces-c3.2:armhf (3.2.4+debian-1.1) ...
Removing libspatialite8:armhf (5.1.0-1) ...
Removing libgeotiff-dev:armhf (1.7.1-5) ...
Removing libproj-dev:armhf (9.3.1-1) ...
Removing libcurl4-openssl-dev:armhf (8.5.0-2) ...
Removing libdav1d-dev:armhf (1.3.0-2+b1) ...
Removing libde265-dev:armhf (1.0.15-1) ...
Removing libtiff-dev:armhf (4.5.1+git230720-3) ...
Removing libdeflate-dev:armhf (1.18-1) ...
Removing libtiffxx6:armhf (4.5.1+git230720-3) ...
Removing libgeotiff5:armhf (1.7.1-5) ...
Removing libdouble-conversion-dev:armhf (3.3.0-1+b1) ...
Removing libqt5webchannel5:armhf (5.15.10-2) ...
Removing qtattributionsscanner-qt5 (5.15.10-5) ...
Removing libqt5designercomponents5:armhf (5.15.10-5) ...
Removing libqt5designer5:armhf (5.15.10-5) ...
Removing libglew-dev:armhf (2.2.0-4+b1) ...
Removing libgl1-mesa-dev:armhf (23.3.2-2) ...
Removing libglvnd-dev:armhf (1.7.0-1) ...
Removing libgstreamer1.0-0:armhf (1.22.8-1) ...
Removing libdw1:armhf (0.190-1+b1) ...
Removing libdynamic-reconfigure-config-init-mutex0d:armhf (1.7.3-1) ...
Removing python3-mpi4py (3.1.5-3) ...
Removing mpi-default-bin (1.15) ...
Removing libhdf5-openmpi-fortran-102:armhf (1.10.10+repack-3) ...
Removing python3-dev (3.11.6-1) ...
Removing libpython3-dev:armhf (3.11.6-1) ...
Removing python3.11-dev (3.11.7-2) ...
Removing libpython3.11-dev:armhf (3.11.7-2) ...
Removing libfreexl-dev:armhf (2.0.0-1+b1) ...
Removing libpcl-tracking1.13:armhf (1.13.0+dfsg-4) ...
Removing libfreexl1:armhf (2.0.0-1+b1) ...
Removing libfyba-dev:armhf (4.1.1-8) ...
Removing libfyba0:armhf (4.1.1-8) ...
Removing libpcl-msgs-dev (0.3.0-3) ...
Removing libsensor-msgs-dev:armhf (1.13.1-2) ...
Removing libgeos-dev (3.12.1-1) ...
Removing librttopo-dev:armhf (1.1.0-3) ...
Removing librttopo1:armhf (1.1.0-3) ...
Removing libgeos-c1v5:armhf (3.12.1-1) ...
Removing libgeos3.12.1:armhf (3.12.1-1) ...
Removing libgif-dev:armhf (5.2.1-2.5) ...
Removing libgif7:armhf (5.2.1-2.5) ...
Removing libgl2ps-dev (1.4.2+dfsg1-2) ...
Removing libglu1-mesa-dev:armhf (9.0.2-1.1) ...
Removing libglvnd-core-dev:armhf (1.7.0-1) ...
Removing libopengl-dev:armhf (1.7.0-1) ...
Removing libgme0:armhf (0.6.3-7) ...
Removing libgpg-error-dev (1.47-3) ...
Removing libgpgme11:armhf (1.18.0-4+b1) ...
Removing libgtk2.0-common (2.24.33-2) ...
Removing libhdf4-0-alt (4.2.16-3) ...
Removing libhdf5-cpp-103-1:armhf (1.10.10+repack-3) ...
Removing libhdf5-hl-fortran-100:armhf (1.10.10+repack-3) ...
Removing libhdf5-fortran-102:armhf (1.10.10+repack-3) ...
Removing libhdf5-hl-cpp-100:armhf (1.10.10+repack-3) ...
Removing libhdf5-openmpi-hl-cpp-100:armhf (1.10.10+repack-3) ...
Removing libvtk9-java (9.1.0+really9.1.0+dfsg2-7) ...
Removing libpcl-surface1.13:armhf (1.13.0+dfsg-4) ...
Removing libhyphen0:armhf (2.8.8-7) ...
Removing libxt-dev:armhf (1:1.2.1-1.1) ...
Removing libsm-dev:armhf (2:1.2.3-1) ...
Removing libice-dev:armhf (2:1.0.10-1) ...
Removing libxt6:armhf (1:1.2.1-1.1) ...
Removing libjbig-dev:armhf (2.1-6.1) ...
Removing libjpeg-dev:armhf (1:2.1.5-2+b2) ...
Removing libjpeg62-turbo-dev:armhf (1:2.1.5-2+b2) ...
Removing libopenni2-dev:armhf (2.2.0.33+dfsg-18) ...
Removing libjs-sphinxdoc (7.2.6-3) ...
Removing libjs-underscore (1.13.4~dfsg+~1.11.4-3) ...
Removing libjson-c-dev:armhf (0.17-1) ...
Removing libjsoncpp-dev:armhf (1.9.5-6+b2) ...
Removing libkmlregionator1:armhf (1.3.0-10) ...
Removing libkmlconvenience1:armhf (1.3.0-10) ...
Removing libkmlxsd1:armhf (1.3.0-10) ...
Removing libkmlengine1:armhf (1.3.0-10) ...
Removing libkmldom1:armhf (1.3.0-10) ...
Removing libldap2-dev (2.5.13+dfsg-5) ...
Removing liblerc-dev:armhf (4.0.0+ds-4) ...
Removing libllvm15:armhf (1:15.0.7-10) ...
Removing unixodbc-dev:armhf (2.3.12-1) ...
Removing libodbcinst2:armhf (2.3.12-1) ...
Removing libodbccr2:armhf (2.3.12-1) ...
Removing libodbc2:armhf (2.3.12-1) ...
Removing libroslz4-dev:armhf (1.16.0+ds-3+b2) ...
Removing liblz4-dev:armhf (1.9.4-1+b2) ...
Removing liblzma-dev:armhf (5.4.5-0.3) ...
Removing libmariadb-dev-compat (1:10.11.6-2) ...
Removing libmariadb-dev (1:10.11.6-2) ...
Removing libmariadb3:armhf (1:10.11.6-2) ...
Removing libmbedcrypto7:armhf (2.28.6-1) ...
Removing libmessage-filters1d:armhf (1.16.0+ds-3+b2) ...
Removing libminizip-dev:armhf (1:1.3.dfsg-3) ...
Removing libopenmpt0:armhf (0.7.3-1) ...
Removing libmpg123-0:armhf (1.32.3-1) ...
Removing libzmq5:armhf (4.3.5-1) ...
Removing libnorm1:armhf (1.5.9+dfsg-3) ...
Removing libogdi-dev (4.1.0+ds-6) ...
Removing libogdi4.1 (4.1.0+ds-6) ...
Removing libogg-dev:armhf (1.3.5-3) ...
Removing libvorbisfile3:armhf (1.3.7-1) ...
Removing libopenjp2-7-dev:armhf (2.5.0-2+b2) ...
Removing libopenni-dev:armhf (1.5.4.0+dfsg-7) ...
Removing liborc-0.4-0:armhf (1:0.4.34-3) ...
Removing libpcl-stereo1.13:armhf (1.13.0+dfsg-4) ...
Removing libpcl-segmentation1.13:armhf (1.13.0+dfsg-4) ...
Removing libpcl-registration1.13:armhf (1.13.0+dfsg-4) ...
Removing libpcl-keypoints1.13:armhf (1.13.0+dfsg-4) ...
Removing libpcl-ml1.13:armhf (1.13.0+dfsg-4) ...
Removing libpcre2-dev:armhf (10.42-4) ...
Removing libpcre2-32-0:armhf (10.42-4) ...
Removing libpcre2-posix3:armhf (10.42-4) ...
Removing libpcsclite1:armhf (2.0.1-1) ...
Removing libpgm-5.3-0:armhf (5.3.128~dfsg-2) ...
Removing pkg-config:armhf (1.8.1-1+b2) ...
Removing libpng-dev:armhf (1.6.40-3) ...
Removing libpq-dev (16.1-1) ...
Removing libpq5:armhf (16.1-1) ...
Removing libxrender-dev:armhf (1:0.9.10-1.1) ...
Removing libxss-dev:armhf (1:1.2.3-1) ...
Removing libqhull-dev:armhf (2020.2-6) ...
Removing libqhullcpp8.0:armhf (2020.2-6) ...
Removing libqhull-r8.0:armhf (2020.2-6) ...
Removing libqhull8.0:armhf (2020.2-6) ...
Removing libqt5sensors5:armhf (5.15.10-2) ...
Removing qhelpgenerator-qt5 (5.15.10-5) ...
Removing libqt5help5:armhf (5.15.10-5) ...
Removing qtdeclarative5-dev:armhf (5.15.10+dfsg-2) ...
Removing qtdeclarative5-dev-tools (5.15.10+dfsg-2) ...
Removing qt5-qmltooling-plugins:armhf (5.15.10+dfsg-2) ...
Removing libqt5positioning5:armhf (5.15.10+dfsg-3) ...
Removing libqt5quickwidgets5:armhf (5.15.10+dfsg-2) ...
Removing libqt5quicktest5:armhf (5.15.10+dfsg-2) ...
Removing libqt5quickshapes5:armhf (5.15.10+dfsg-2) ...
Removing libqt5quickparticles5:armhf (5.15.10+dfsg-2) ...
Removing libqt5quick5:armhf (5.15.10+dfsg-2) ...
Removing libqt5qmlmodels5:armhf (5.15.10+dfsg-2) ...
Removing libqt5qmlworkerscript5:armhf (5.15.10+dfsg-2) ...
Removing libqt5sql5-sqlite:armhf (5.15.10+dfsg-5) ...
Removing librabbitmq4:armhf (0.11.0-1+b1) ...
Removing libroslz4-1d:armhf (1.16.0+ds-3+b2) ...
Removing libwebp-dev:armhf (1.3.2-0.3) ...
Removing libsharpyuv-dev:armhf (1.3.2-0.3) ...
Removing libwebpdemux2:armhf (1.3.2-0.3) ...
Removing libsmc-dev (1.8.6-10) ...
Removing libsodium23:armhf (1.0.18-1) ...
Removing libsqlite3-dev:armhf (3.44.2-1) ...
Removing libsrt1.5-gnutls:armhf (1.5.3-1) ...
Removing libssh-gcrypt-4:armhf (0.10.6-2) ...
Removing libssl-dev:armhf (3.1.4-2) ...
Removing libtbb-dev:armhf (2021.11.0-2) ...
Removing tcl-dev:armhf (8.6.13) ...
Removing tcl8.6-dev:armhf (8.6.13+dfsg-2) ...
Removing tk (8.6.13) ...
Removing tk8.6 (8.6.13-2) ...
Removing libudfread0:armhf (1.1.2-1) ...
Removing libunwind8:armhf (1.6.2-3) ...
Removing liburiparser-dev (0.9.7+dfsg-2) ...
Removing libusb-1.0-0-dev:armhf (2:1.0.26-1) ...
Removing libutfcpp-dev (3.2.5+really3.2.4-1) ...
Removing libwebpdecoder3:armhf (1.3.2-0.3) ...
Removing libxtst6:armhf (2:1.2.3-1.1) ...
Removing libx265-dev:armhf (3.5-2+b1) ...
Removing libxcomposite1:armhf (1:0.4.5-1) ...
Removing libxcursor1:armhf (1:1.2.1-1) ...
Removing libxdamage1:armhf (1:1.1.6-1) ...
Removing libxi6:armhf (2:1.8-1+b1) ...
Removing libxinerama1:armhf (2:1.1.4-3) ...
Removing libxrandr2:armhf (2:1.5.2-2+b1) ...
Removing libxslt1.1:armhf (1.1.35-1) ...
Removing libzstd-dev:armhf (1.5.5+dfsg2-2) ...
Removing python3-distro (1.9.0-1) ...
Removing lsb-release (12.0-2) ...
Removing mariadb-common (1:10.11.6-2) ...
update-alternatives: using /etc/mysql/my.cnf.fallback to provide /etc/mysql/my.cnf (my.cnf) in auto mode
Removing mysql-common (5.8+1.1.0) ...
Removing openssl (3.1.4-2) ...
Removing ros-cmake-modules (0.5.0-2) ...
Removing tcl (8.6.13) ...
Removing tcl8.6 (8.6.13+dfsg-2) ...
Removing unixodbc-common (2.3.12-1) ...
Removing pluginlib-dev:armhf (5.3.0-1) ...
Removing ament-cmake (2.3.2-1) ...
Removing python3-ament-cmake-test (2.3.2-1) ...
Removing ament-cmake-python (2.3.2-1) ...
Removing ament-cmake-core (2.3.2-1) ...
Removing cmake (3.28.1-1) ...
Removing cmake-data (3.28.1-1) ...
Removing python3-catkin-pkg (1.0.0-2) ...
Removing python3-docutils (0.20.1+dfsg-3) ...
Removing docutils-common (0.20.1+dfsg-3) ...
Removing qtbase5-dev:armhf (5.15.10+dfsg-5) ...
Removing libavcodec60:armhf (7:6.1.1-1) ...
Removing librsvg2-2:armhf (2.54.7+dfsg-2) ...
Removing libpangocairo-1.0-0:armhf (1.51.0+ds-3) ...
Removing libpangoft2-1.0-0:armhf (1.51.0+ds-3) ...
Removing libpango-1.0-0:armhf (1.51.0+ds-3) ...
Removing libpoppler126:armhf (22.12.0-2+b1) ...
Removing libboost-mpi1.83-dev (1.83.0-2+b2) ...
Removing mpi-default-dev (1.15) ...
Removing libopenmpi-dev:armhf (4.1.6-5) ...
Removing libibverbs-dev:armhf (48.0-1) ...
Removing ibverbs-providers:armhf (48.0-1) ...
Removing libpcl-ros-tf1d:armhf (1.7.5-1+b1) ...
Removing libtf1d:armhf (1.13.2-10+b1) ...
Removing libtf2-ros1d:armhf (0.7.7-1+b2) ...
Removing libactionlib1d:armhf (1.14.0-6+b1) ...
Removing libhdf5-openmpi-hl-100:armhf (1.10.10+repack-3) ...
Removing libhdf5-openmpi-103-1:armhf (1.10.10+repack-3) ...
Removing libament-index-cpp-dev:armhf (1.7.0-1) ...
Removing libnodeletlib1d:armhf (1.10.2-1+b8) ...
Removing libament-index-cpp0d:armhf (1.7.0-1) ...
Removing libaom3:armhf (3.7.1-1+b1) ...
Removing libroscpp-dev:armhf (1.16.0+ds-3+b2) ...
Removing librosconsole-dev:armhf (1.14.3-11+b1) ...
Removing liblog4cxx-dev:armhf (1.1.0-1) ...
Removing libaprutil1-dev (1.6.3-1+b1) ...
Removing libapr1-dev (1.7.2-3+b2) ...
Removing libarchive13:armhf (3.7.2-1) ...
Removing libqt5printsupport5:armhf (5.15.10+dfsg-5) ...
Removing libcups2:armhf (2.4.7-1+b1) ...
Removing libavahi-client3:armhf (0.8-13+b1) ...
Removing libavahi-common3:armhf (0.8-13+b1) ...
Removing libavahi-common-data:armhf (0.8-13+b1) ...
Removing libswresample4:armhf (7:6.1.1-1) ...
Removing libavutil58:armhf (7:6.1.1-1) ...
Removing libxmlrpcpp-dev:armhf (1.16.0+ds-3+b2) ...
Removing libb64-dev:armhf (1.2-5+b1) ...
Removing libbondcpp1d:armhf (1.8.6-10+b1) ...
Removing libboost-context1.83-dev:armhf (1.83.0-2+b2) ...
Removing libpcl-visualization1.13:armhf (1.13.0+dfsg-4) ...
Removing libboost-context1.83.0:armhf (1.83.0-2+b2) ...
Removing libroslib-dev:armhf (1.15.8-5) ...
Removing librospack-dev:armhf (2.6.2-8+b2) ...
Removing libboost-filesystem-dev:armhf (1.83.0.2) ...
Removing libroslib0d:armhf (1.15.8-5) ...
Removing librospack0d:armhf (2.6.2-8+b2) ...
Removing libpcl-io1.13:armhf (1.13.0+dfsg-4) ...
Removing libboost-iostreams1.83.0:armhf (1.83.0-2+b2) ...
Removing libboost-mpi1.83.0 (1.83.0-2+b2) ...
Removing libboost-program-options-dev:armhf (1.83.0.2) ...
Removing libboost-program-options1.83-dev:armhf (1.83.0-2+b2) ...
Removing libboost-program-options1.83.0:armhf (1.83.0-2+b2) ...
Removing libboost-regex-dev:armhf (1.83.0.2) ...
Removing libboost-regex1.83-dev:armhf (1.83.0-2+b2) ...
Removing libboost-regex1.83.0:armhf (1.83.0-2+b2) ...
Removing libboost-system-dev:armhf (1.83.0.2) ...
Removing libboost-thread-dev:armhf (1.83.0.2) ...
Removing libjxl0.7:armhf (0.7.0-10.2+b1) ...
Removing libcairo-gobject2:armhf (1.18.0-1+b1) ...
Removing libclass-loader-dev:armhf (2.7.0-1) ...
Removing libclass-loader3d:armhf (2.7.0-1) ...
Removing libcodec2-1.2:armhf (1.2.0-2+b1) ...
Removing libthai0:armhf (0.1.29-2) ...
Removing libdatrie1:armhf (0.2.13-3) ...
Removing libgles-dev:armhf (1.7.0-1) ...
Removing libegl-dev:armhf (1.7.0-1) ...
Removing openmpi-bin (4.1.6-5) ...
Removing openssh-client (1:9.6p1-2) ...
Removing libpmix-dev:armhf (5.0.1-4) ...
Removing libevent-dev (2.1.12-stable-8) ...
Removing libevent-2.1-7:armhf (2.1.12-stable-8) ...
Removing libevent-extra-2.1-7:armhf (2.1.12-stable-8) ...
Removing libevent-openssl-2.1-7:armhf (2.1.12-stable-8) ...
Removing libexpat1-dev:armhf (2.5.0-2+b2) ...
Removing libfribidi0:armhf (1.0.13-3+b1) ...
Removing libgdk-pixbuf-2.0-0:armhf (2.42.10+dfsg-3) ...
Removing libgdk-pixbuf2.0-common (2.42.10+dfsg-3) ...
Removing libgles1:armhf (1.7.0-1) ...
Removing libglu1-mesa:armhf (9.0.2-1.1) ...
Removing libgsm1:armhf (1.0.22-1) ...
Removing libhwloc-dev:armhf (2.10.0-1) ...
Removing libhwy1:armhf (1.0.7-8) ...
Removing libopenni2-0:armhf (2.2.0.33+dfsg-18) ...
Removing libjs-jquery-ui (1.13.2+dfsg-1) ...
Removing libjs-jquery (3.6.1+dfsg+~3.5.14-1) ...
Removing libkmlbase1:armhf (1.3.0-10) ...
Removing liblcms2-2:armhf (2.14-2) ...
Removing libldap-dev:armhf (2.5.13+dfsg-5+b2) ...
Removing libltdl-dev:armhf (2.4.7-7) ...
Removing libltdl7:armhf (2.4.7-7) ...
Removing libminizip1:armhf (1:1.3.dfsg-3) ...
Removing libmp3lame0:armhf (3.100-6+b2) ...
Removing libnl-route-3-dev:armhf (3.7.0-0.2+b1) ...
Removing libnl-3-dev:armhf (3.7.0-0.2+b1) ...
Removing libnss3:armhf (2:3.96.1-1) ...
Removing libnspr4:armhf (2:4.35-1.1) ...
Removing libnuma-dev:armhf (2.0.16-1) ...
Removing libnuma1:armhf (2.0.16-1) ...
Removing libvorbisenc2:armhf (1.3.7-1) ...
Removing libvorbis0a:armhf (1.3.7-1) ...
Removing libopenjp2-7:armhf (2.5.0-2+b2) ...
Removing libopenni0 (1.5.4.0+dfsg-7) ...
Removing libopus0:armhf (1.4-1) ...
Removing libpcap0.8:armhf (1.10.4-4) ...
Removing libpcl-features1.13:armhf (1.13.0+dfsg-4) ...
Removing libpcl-filters1.13:armhf (1.13.0+dfsg-4) ...
Removing libpcl-search1.13:armhf (1.13.0+dfsg-4) ...
Removing libpcl-kdtree1.13:armhf (1.13.0+dfsg-4) ...
Removing libpcl-octree1.13:armhf (1.13.0+dfsg-4) ...
Removing libpcl-sample-consensus1.13:armhf (1.13.0+dfsg-4) ...
Removing libzvbi0:armhf (0.2.42-1) ...
Removing libpython3.11:armhf (3.11.7-2) ...
Removing libqt5concurrent5:armhf (5.15.10+dfsg-5) ...
Removing qtbase5-dev-tools (5.15.10+dfsg-5) ...
Removing libqt5opengl5:armhf (5.15.10+dfsg-5) ...
Removing libqt5qml5:armhf (5.15.10+dfsg-2) ...
Removing libqt5sql5:armhf (5.15.10+dfsg-5) ...
Removing libqt5test5:armhf (5.15.10+dfsg-5) ...
Removing libqt5xml5:armhf (5.15.10+dfsg-5) ...
Removing librav1e0:armhf (0.6.6-4) ...
Removing librcpputils-dev:armhf (2.9.0-1) ...
Removing librcpputils1d:armhf (2.9.0-1) ...
Removing librcutils-dev:armhf (6.5.0-1) ...
Removing librcutils1d:armhf (6.5.0-1) ...
Removing librhash0:armhf (1.4.3-3) ...
Removing libros-rosgraph-msgs-dev:armhf (1.11.3-3) ...
Removing libroscpp-msg-dev:armhf (1.16.0+ds-3+b2) ...
Removing libsctp-dev:armhf (1.0.19+dfsg-2) ...
Removing libsctp1:armhf (1.0.19+dfsg-2) ...
Removing libwebpmux3:armhf (1.3.2-0.3) ...
Removing libshine3:armhf (3.1.1-2) ...
Removing libsnappy1v5:armhf (1.1.10-1) ...
Removing libsoxr0:armhf (0.1.3-4) ...
Removing libspeex1:armhf (1.2.1-2) ...
Removing libsvtav1enc1d1:armhf (1.7.0+dfsg-2) ...
Removing libthai-data (0.1.29-2) ...
Removing libtinyxml2-dev:armhf (10.0.0+dfsg-2+b1) ...
Removing libtinyxml2-10:armhf (10.0.0+dfsg-2+b1) ...
Removing libtinyxml2-9:armhf (9.0.0+dfsg-3.1) ...
Removing libtinyxml2.6.2v5:armhf (2.6.2-6.1) ...
Removing libtwolame0:armhf (0.4.0-2) ...
Removing liburiparser1:armhf (0.9.7+dfsg-2) ...
Removing libusb-1.0-0:armhf (2:1.0.26-1) ...
Removing libuv1:armhf (1.46.0-3) ...
Removing libva-drm2:armhf (2.20.0-2) ...
Removing libva-x11-2:armhf (2.20.0-2) ...
Removing libva2:armhf (2.20.0-2) ...
Removing libvdpau1:armhf (1.5-2) ...
Removing libvpx8:armhf (1.13.1-2) ...
Removing libvulkan-dev:armhf (1.3.268.0-1) ...
Removing libx264-164:armhf (2:0.164.3095+gitbaee400-3+b2) ...
Removing libx265-199:armhf (3.5-2+b1) ...
Removing libxext-dev:armhf (2:1.3.4-1+b1) ...
Removing libxvidcore4:armhf (2:1.3.7-1) ...
Removing libzvbi-common (0.2.42-1) ...
Removing openmpi-common (4.1.6-5) ...
Removing python3-ament-package (0.16.2-1) ...
Removing python3-dateutil (2.8.2-3) ...
Removing python3-setuptools (68.1.2-2) ...
Removing python3-distutils (3.11.5-1) ...
Removing python3-lib2to3 (3.11.5-1) ...
Removing python3-pkg-resources (68.1.2-2) ...
Removing python3-pyparsing (3.1.1-1) ...
Removing python3-roman (3.3-3) ...
Removing python3-six (1.16.0-4) ...
Removing qt5-qmake:armhf (5.15.10+dfsg-5) ...
Removing qt5-qmake-bin (5.15.10+dfsg-5) ...
Removing qtchooser (66-2) ...
Removing ros-environment (1.3.2-2) ...
Removing xml-core (0.19) ...
Removing sgml-base (1.31) ...
Removing uuid-dev:armhf (2.39.3-6) ...
Removing zlib1g-dev:armhf (1:1.3.dfsg-3) ...
Removing libvtk9.1-qt:armhf (9.1.0+really9.1.0+dfsg2-7) ...
Removing libvtk9.1:armhf (9.1.0+really9.1.0+dfsg2-7) ...
Removing libtk8.6:armhf (8.6.13-2) ...
Removing libxft2:armhf (2.3.6-1) ...
Removing libicu-dev:armhf (72.1-4) ...
Removing icu-devtools (72.1-4) ...
Removing libnetcdf19:armhf (1:4.9.2-3) ...
Removing libroscpp4d:armhf (1.16.0+ds-3+b2) ...
Removing libxmlrpcpp3d:armhf (1.16.0+ds-3+b2) ...
Removing libb64-0d:armhf (1.2-5+b1) ...
Removing libboost-filesystem1.83-dev:armhf (1.83.0-2+b2) ...
Removing libboost-thread1.83-dev:armhf (1.83.0-2+b2) ...
Removing libboost-atomic1.83-dev:armhf (1.83.0-2+b2) ...
Removing libboost-atomic1.83.0:armhf (1.83.0-2+b2) ...
Removing libboost-chrono1.83-dev:armhf (1.83.0-2+b2) ...
Removing libboost-chrono1.83.0:armhf (1.83.0-2+b2) ...
Removing libboost-date-time1.83-dev:armhf (1.83.0-2+b2) ...
Removing libboost-date-time1.83.0:armhf (1.83.0-2+b2) ...
Removing libboost-filesystem1.83.0:armhf (1.83.0-2+b2) ...
Removing libboost-serialization1.83-dev:armhf (1.83.0-2+b2) ...
Removing libboost-serialization1.83.0:armhf (1.83.0-2+b2) ...
Removing libboost-system1.83-dev:armhf (1.83.0-2+b2) ...
Removing libboost-system1.83.0:armhf (1.83.0-2+b2) ...
Removing libboost-thread1.83.0:armhf (1.83.0-2+b2) ...
Removing libtheora0:armhf (1.1.1+dfsg.1-16.1+b1) ...
Removing libcairo2:armhf (1.18.0-1+b1) ...
Removing libproj25:armhf (9.3.1-1) ...
Removing libcurl3-gnutls:armhf (8.5.0-2) ...
Removing libtiff6:armhf (4.5.1+git230720-3) ...
Removing libdeflate0:armhf (1.18-1) ...
Removing libgl-dev:armhf (1.7.0-1) ...
Removing libglew2.2:armhf (2.2.0-4+b1) ...
Removing libglx-dev:armhf (1.7.0-1) ...
Removing libopenmpi3:armhf (4.1.6-5) ...
Removing libpmix2:armhf (5.0.1-4) ...
Removing libevent-pthreads-2.1-7:armhf (2.1.12-stable-8) ...
Removing libevent-core-2.1-7:armhf (2.1.12-stable-8) ...
Removing libfabric1:armhf (1.17.0-3) ...
Removing libflann1.9:armhf (1.9.2+dfsg-2) ...
Removing libgl2ps1.4 (1.4.2+dfsg1-2) ...
Removing libopengl0:armhf (1.7.0-1) ...
Removing libhdf5-hl-100:armhf (1.10.10+repack-3) ...
Removing libhwloc-plugins:armhf (2.10.0-1) ...
Removing libtbb12:armhf (2021.11.0-2) ...
Removing libtbbbind-2-5:armhf (2021.11.0-2) ...
Removing libhwloc15:armhf (2.10.0-1) ...
Removing librdmacm1:armhf (48.0-1) ...
Removing libibverbs1:armhf (48.0-1) ...
Removing libjbig0:armhf (2.1-6.1) ...
Removing libjsoncpp25:armhf (1.9.5-6+b2) ...
Removing liblerc4:armhf (4.0.0+ds-4) ...
Removing libmunge2:armhf (0.5.15-3) ...
Removing libnl-route-3-200:armhf (3.7.0-0.2+b1) ...
Removing libnl-3-200:armhf (3.7.0-0.2+b1) ...
Removing libogg0:armhf (1.3.5-3) ...
Removing libpciaccess0:armhf (0.17-3) ...
Removing libpcl-common1.13:armhf (1.13.0+dfsg-4) ...
Removing libpixman-1-0:armhf (0.42.2-1) ...
Removing libx11-dev:armhf (2:1.8.7-1) ...
Removing libxcb1-dev:armhf (1.15-1) ...
Removing libpthread-stubs0-dev:armhf (0.4-1) ...
Removing libqt5widgets5:armhf (5.15.10+dfsg-5) ...
Removing libwebp7:armhf (1.3.2-0.3) ...
Removing libtbbmalloc2:armhf (2021.11.0-2) ...
Removing libtcl8.6:armhf (8.6.13+dfsg-2) ...
Removing libxau-dev:armhf (1:1.0.9-1) ...
Removing libxdmcp-dev:armhf (1:1.1.2-3) ...
Removing libxss1:armhf (1:1.2.3-1) ...
Removing libxnvctrl0:armhf (525.125.06-1) ...
Removing ocl-icd-libopencl1:armhf (2.3.2-1) ...
Removing proj-data (9.3.1-1) ...
Removing x11proto-dev (2023.2-1) ...
Removing xorg-sgml-doctools (1:1.11-1.1) ...
Removing xtrans-dev (1.4.0-1) ...
Removing libqt5gui5:armhf (5.15.10+dfsg-5) ...
Removing fontconfig (2.14.2-6+b1) ...
Removing libfontconfig1:armhf (2.14.2-6+b1) ...
Removing fontconfig-config (2.14.2-6+b1) ...
Removing fonts-dejavu-core (2.37-8) ...
Removing fonts-dejavu-mono (2.37-8) ...
Removing libhdf5-103-1:armhf (1.10.10+repack-3) ...
Removing libsz2:armhf (1.1.2-1) ...
Removing libaec0:armhf (1.1.2-1) ...
Removing librosconsole3d:armhf (1.14.3-11+b1) ...
Removing liblog4cxx15:armhf (1.1.0-1) ...
Removing libaprutil1-dbd-sqlite3:armhf (1.6.3-1+b1) ...
Removing libaprutil1:armhf (1.6.3-1+b1) ...
Removing libcurl4:armhf (8.5.0-2) ...
Removing libgl1:armhf (1.7.0-1) ...
Removing libglx0:armhf (1.7.0-1) ...
Removing libglx-mesa0:armhf (23.3.2-2) ...
Removing libgl1-mesa-dri:armhf (23.3.2-2) ...
Removing libdrm-amdgpu1:armhf (2.4.117-1) ...
Removing libegl1:armhf (1.7.0-1) ...
Removing libegl-mesa0:armhf (23.3.2-2) ...
Removing libgbm1:armhf (23.3.2-2) ...
Removing libdrm-nouveau2:armhf (2.4.117-1) ...
Removing libdrm-radeon1:armhf (2.4.117-1) ...
Removing libllvm17:armhf (1:17.0.6-3) ...
Removing libedit2:armhf (3.1-20230828-1) ...
Removing libinput10:armhf (1.23.0-2.1) ...
Removing libinput-bin (1.23.0-2.1) ...
Removing libevdev2:armhf (1.13.1+dfsg-1) ...
Removing libharfbuzz0b:armhf (8.0.1-1+b2) ...
Removing libfreetype6:armhf (2.13.2+dfsg-1+b1) ...
Removing libglapi-mesa:armhf (23.3.2-2) ...
Removing libgles2:armhf (1.7.0-1) ...
Removing libwacom9:armhf (2.8.0-1) ...
Removing libglvnd0:armhf (1.7.0-1) ...
Removing libgraphite2-3:armhf (1.3.14-2) ...
Removing libgudev-1.0-0:armhf (238-3) ...
Removing libsm6:armhf (2:1.2.3-1) ...
Removing libice6:armhf (2:1.0.10-1) ...
Removing libjpeg62-turbo:armhf (1:2.1.5-2+b2) ...
Removing libmd4c0:armhf (0.4.8-1) ...
Removing libmtdev1:armhf (1.1.6-1) ...
Removing libnghttp2-14:armhf (1.58.0-1) ...
Removing libpng16-16:armhf (1.6.40-3) ...
Removing libpsl5:armhf (0.21.2-1+b1) ...
Removing libqt5network5:armhf (5.15.10+dfsg-5) ...
Removing librtmp1:armhf (2.4+20151223.gitfa8646d.1-2+b2) ...
Removing libsensors5:armhf (1:3.6.0-8) ...
Removing libsensors-config (1:3.6.0-8) ...
Removing libssh2-1:armhf (1.11.0-4) ...
Removing libvulkan1:armhf (1.3.268.0-1) ...
Removing libwacom-common (2.8.0-1) ...
dpkg: warning: while removing libwacom-common, directory '/lib/udev/hwdb.d' not empty so not removed
Removing libwayland-client0:armhf (1.22.0-2.1) ...
Removing libwayland-server0:armhf (1.22.0-2.1) ...
Removing libxxf86vm1:armhf (1:1.1.4-1+b2) ...
Removing libx11-xcb1:armhf (2:1.8.7-1) ...
Removing libxcb-icccm4:armhf (0.4.1-1.1) ...
Removing libxcb-render-util0:armhf (0.3.9-1+b1) ...
Removing libxcb-dri2-0:armhf (1.15-1) ...
Removing libxcb-dri3-0:armhf (1.15-1) ...
Removing libxcb-glx0:armhf (1.15-1) ...
Removing libxcb-image0:armhf (0.4.0-2) ...
Removing libxcb-keysyms1:armhf (0.4.0-1+b2) ...
Removing libxcb-present0:armhf (1.15-1) ...
Removing libxcb-randr0:armhf (1.15-1) ...
Removing libxcb-render0:armhf (1.15-1) ...
Removing libxcb-shape0:armhf (1.15-1) ...
Removing libxcb-shm0:armhf (1.15-1) ...
Removing libxcb-sync1:armhf (1.15-1) ...
Removing libxcb-util1:armhf (0.4.0-1+b1) ...
Removing libxcb-xfixes0:armhf (1.15-1) ...
Removing libxcb-xinerama0:armhf (1.15-1) ...
Removing libxcb-xinput0:armhf (1.15-1) ...
Removing libxkbcommon-x11-0:armhf (1.6.0-1) ...
Removing libxcb-xkb1:armhf (1.15-1) ...
Removing libxext6:armhf (2:1.3.4-1+b1) ...
Removing libxfixes3:armhf (1:6.0.0-2) ...
Removing libxkbcommon0:armhf (1.6.0-1) ...
Removing libxrender1:armhf (1:0.9.10-1.1) ...
Removing libxshmfence1:armhf (1.3-1) ...
Removing libz3-4:armhf (4.8.12-3.1+b2) ...
Removing x11-common (1:7.7+23) ...
invoke-rc.d: could not determine current runlevel
Removing xkb-data (2.38-2) ...
Removing libapr1:armhf (1.7.2-3+b2) ...
Removing libbrotli1:armhf (1.1.0-2+b3) ...
Removing libdrm2:armhf (2.4.117-1) ...
Removing libdrm-common (2.4.117-1) ...
Removing libqt5dbus5:armhf (5.15.10+dfsg-5) ...
Removing libx11-6:armhf (2:1.8.7-1) ...
Removing libx11-data (2:1.8.7-1) ...
Removing libxcb1:armhf (1.15-1) ...
Removing libxau6:armhf (1:1.0.9-1) ...
Removing libxdmcp6:armhf (1:1.1.2-3) ...
Removing libqt5core5a:armhf (5.15.10+dfsg-5) ...
Removing libdouble-conversion3:armhf (3.3.0-1+b1) ...
Removing shared-mime-info (2.4-1) ...
Removing libglib2.0-0:armhf (2.78.3-1) ...
Removing libpcre2-16-0:armhf (10.42-4) ...
Removing libtf2-dev:armhf (0.7.7-1+b2) ...
Removing libtf2-geometry-msgs-dev:armhf (0.7.7-1+b2) ...
Removing libtf2-msgs-dev:armhf (0.7.7-1+b2) ...
Removing libactionlib-msgs-dev:armhf (1.13.1-2) ...
Removing libtf2-2d:armhf (0.7.7-1+b2) ...
Removing libheif-plugin-dav1d:armhf (1.17.6-1) ...
Removing libheif1:armhf (1.17.6-1) ...
Removing libheif-plugin-libde265:armhf (1.17.6-1) ...
Removing libdav1d7:armhf (1.3.0-2+b1) ...
Removing libde265-0:armhf (1.0.15-1) ...
Removing liborocos-kdl-dev:armhf (1.5.1-3+b1) ...
Removing libeigen3-dev (3.4.0-4) ...
Removing libgeometry-msgs-dev:armhf (1.13.1-2) ...
Removing liborocos-kdl1.5:armhf (1.5.1-3+b1) ...
Removing pkgconf:armhf (1.8.1-1+b2) ...
Removing pkgconf-bin (1.8.1-1+b2) ...
Removing libpkgconf3:armhf (1.8.1-1+b2) ...
Removing libsharpyuv0:armhf (1.3.2-0.3) ...
Removing libstd-msgs-dev:armhf (0.5.13-3) ...
Removing ros-message-generation (0.4.1-5) ...
Removing python3-gencpp (0.7.0-1) ...
Removing python3-genlisp (0.4.18-2) ...
Removing python3-genpy (0.6.16-2) ...
Removing python3-yaml (6.0.1-1+b1) ...
Removing ros-message-runtime:armhf (0.4.13-5) ...
Removing libroscpp-core-dev:armhf (0.7.3-1) ...
Removing libboost-dev:armhf (1.83.0.2) ...
Removing libboost1.83-dev:armhf (1.83.0-2+b2) ...
Removing libconsole-bridge-dev:armhf (1.0.1+dfsg2-3+b1) ...
Removing libcpp-common0d:armhf (0.7.3-1) ...
Removing libconsole-bridge1.0:armhf (1.0.1+dfsg2-3+b1) ...
Removing libroscpp-serialization0d:armhf (0.7.3-1) ...
Removing librostime1d:armhf (0.7.3-1) ...
Removing python3-genmsg (0.6.0-1) ...
Removing python3-empy (3.3.4-2) ...
Processing triggers for udev (255.2-4) ...
Processing triggers for libc-bin (2.37-13) ...
(Reading database ... (Reading database ... 5%(Reading database ... 10%(Reading database ... 15%(Reading database ... 20%(Reading database ... 25%(Reading database ... 30%(Reading database ... 35%(Reading database ... 40%(Reading database ... 45%(Reading database ... 50%(Reading database ... 55%(Reading database ... 60%(Reading database ... 65%(Reading database ... 70%(Reading database ... 75%(Reading database ... 80%(Reading database ... 85%(Reading database ... 90%(Reading database ... 95%(Reading database ... 100%(Reading database ... 16469 files and directories currently installed.)
Purging configuration files for mysql-common (5.8+1.1.0) ...
Purging configuration files for fontconfig (2.14.2-6+b1) ...
Purging configuration files for libopenni2-0:armhf (2.2.0.33+dfsg-18) ...
Purging configuration files for java-common (0.75) ...
Purging configuration files for ibverbs-providers:armhf (48.0-1) ...
Purging configuration files for libglib2.0-0:armhf (2.78.3-1) ...
Purging configuration files for fontconfig-config (2.14.2-6+b1) ...
Purging configuration files for openssh-client (1:9.6p1-2) ...
warn: The group `ssh' does not exist.
Purging configuration files for libgtk2.0-0:armhf (2.24.33-2) ...
Purging configuration files for libgl1-mesa-dri:armhf (23.3.2-2) ...
Purging configuration files for x11-common (1:7.7+23) ...
Purging configuration files for libsensors-config (1:3.6.0-8) ...
Purging configuration files for libopenni0 (1.5.4.0+dfsg-7) ...
Purging configuration files for pkgconf:armhf (1.8.1-1+b2) ...
Purging configuration files for mariadb-common (1:10.11.6-2) ...
Purging configuration files for ca-certificates (20230311) ...
Removing dangling symlinks from /etc/ssl/certs... done.
Purging configuration files for libutfcpp-dev (3.2.5+really3.2.4-1) ...
Purging configuration files for adwaita-icon-theme (45.0-2) ...
Purging configuration files for shared-mime-info (2.4-1) ...
Purging configuration files for fonts-dejavu-mono (2.37-8) ...
Purging configuration files for pkg-config:armhf (1.8.1-1+b2) ...
Purging configuration files for fonts-dejavu-core (2.37-8) ...
Purging configuration files for unixodbc-common (2.3.12-1) ...
Purging configuration files for python3-genlisp (0.4.18-2) ...
Purging configuration files for openjdk-17-jre-headless:armhf (17.0.10~6ea-1) ...
Purging configuration files for python3-gencpp (0.7.0-1) ...
Purging configuration files for libvdpau1:armhf (1.5-2) ...
Purging configuration files for xml-core (0.19) ...
dpkg: warning: while removing xml-core, directory '/etc/xml' not empty so not removed
Purging configuration files for docutils-common (0.20.1+dfsg-3) ...
dpkg: warning: while removing docutils-common, directory '/etc/sgml' not empty so not removed
Purging configuration files for libnl-3-200:armhf (3.7.0-0.2+b1) ...
Purging configuration files for python3-genpy (0.6.16-2) ...
Purging configuration files for libgdk-pixbuf-2.0-0:armhf (2.42.10+dfsg-3) ...
Purging configuration files for sgml-base (1.31) ...
Purging configuration files for libgtk2.0-common (2.24.33-2) ...
Purging configuration files for cmake-data (3.28.1-1) ...
Purging configuration files for libopenmpi-dev:armhf (4.1.6-5) ...
Purging configuration files for libjs-jquery (3.6.1+dfsg+~3.5.14-1) ...
Purging configuration files for ca-certificates-java (20230710) ...
Purging configuration files for openssl (3.1.4-2) ...
Purging configuration files for openmpi-bin (4.1.6-5) ...
Purging configuration files for ros-environment (1.3.2-2) ...
