Temporary header file '/tmp/VQw1s0N64h/dump1.h' with the following content will be compiled to create GCC translation unit dump:

  // add defines
  #define __STDC_VERSION__ 201710L
#define _FILE_OFFSET_BITS 64
#define _GXX_NULLPTR_T
#define CLUTTER_ENABLE_COMPOSITOR_API 1
#define _REGEX_NELTS(n)
#define _Atomic
#define PACKED
#ifdef __cplusplus
// C17 compat layer
#define _Alignof(type) alignof(type)
#endif
#define getaddrinfo_a(a,b,c,d)

  // add includes
  #include "/usr/include/oniggnu.h"
  #include "/usr/include/onigposix.h"
  #include "/usr/include/oniguruma.h"

  // add classes
  OnigCaptureTreeNodeStruct* tmp_add_class_0;
  OnigEncodingTypeST* tmp_add_class_1;
  re_registers* tmp_add_class_2;

The GCC parameters:
  gcc -fdump-lang-raw -fkeep-inline-functions -c -x c++ -fpermissive -w "/tmp/VQw1s0N64h/dump1.h"

