[2024-01-08T08:00:05+00:00] apt-get install libsieve2-dev abi-compliance-checker
Reading package lists...
Building dependency tree...
Reading state information...
abi-compliance-checker is already the newest version (2.3-2).
The following packages were automatically installed and are no longer required:
  libsidplay2 libsidplay2-dev libsidutils-dev libsidutils0
Use 'apt autoremove' to remove them.
The following NEW packages will be installed:
  libsieve2-1 libsieve2-dev
0 upgraded, 2 newly installed, 0 to remove and 20 not upgraded.
Need to get 138 kB of archives.
After this operation, 368 kB of additional disk space will be used.
Get:1 http://deb.debian.org/debian unstable/main armhf libsieve2-1 armhf 2.2.6-5 [64.0 kB]
Get:2 http://deb.debian.org/debian unstable/main armhf libsieve2-dev armhf 2.2.6-5 [73.6 kB]
debconf: delaying package configuration, since apt-utils is not installed
Fetched 138 kB in 0s (349 kB/s)
Selecting previously unselected package libsieve2-1:armhf.
(Reading database ... (Reading database ... 5%(Reading database ... 10%(Reading database ... 15%(Reading database ... 20%(Reading database ... 25%(Reading database ... 30%(Reading database ... 35%(Reading database ... 40%(Reading database ... 45%(Reading database ... 50%(Reading database ... 55%(Reading database ... 60%(Reading database ... 65%(Reading database ... 70%(Reading database ... 75%(Reading database ... 80%(Reading database ... 85%(Reading database ... 90%(Reading database ... 95%(Reading database ... 100%(Reading database ... 17064 files and directories currently installed.)
Preparing to unpack .../libsieve2-1_2.2.6-5_armhf.deb ...
Unpacking libsieve2-1:armhf (2.2.6-5) ...
Selecting previously unselected package libsieve2-dev.
Preparing to unpack .../libsieve2-dev_2.2.6-5_armhf.deb ...
Unpacking libsieve2-dev (2.2.6-5) ...
Setting up libsieve2-1:armhf (2.2.6-5) ...
Setting up libsieve2-dev (2.2.6-5) ...
Processing triggers for libc-bin (2.37-13) ...
Reading package lists...
Building dependency tree...
Reading state information...
The following packages will be REMOVED:
  libsidplay2* libsidplay2-dev* libsidutils-dev* libsidutils0*
0 upgraded, 0 newly installed, 4 to remove and 20 not upgraded.
After this operation, 858 kB disk space will be freed.
(Reading database ... (Reading database ... 5%(Reading database ... 10%(Reading database ... 15%(Reading database ... 20%(Reading database ... 25%(Reading database ... 30%(Reading database ... 35%(Reading database ... 40%(Reading database ... 45%(Reading database ... 50%(Reading database ... 55%(Reading database ... 60%(Reading database ... 65%(Reading database ... 70%(Reading database ... 75%(Reading database ... 80%(Reading database ... 85%(Reading database ... 90%(Reading database ... 95%(Reading database ... 100%(Reading database ... 17080 files and directories currently installed.)
Removing libsidplay2-dev (2.1.1-15+b1) ...
Removing libsidutils-dev (2.1.1-15+b1) ...
Removing libsidutils0 (2.1.1-15+b1) ...
Removing libsidplay2 (2.1.1-15+b1) ...
Processing triggers for libc-bin (2.37-13) ...
