[2024-01-07T22:15:26+00:00] apt-get install libmspub-dev abi-compliance-checker
Reading package lists...
Building dependency tree...
Reading state information...
abi-compliance-checker is already the newest version (2.3-2).
The following packages were automatically installed and are no longer required:
  libmspack-dev libmspack0
Use 'apt autoremove' to remove them.
The following additional packages will be installed:
  icu-devtools libicu-dev libmspub-0.1-1 librevenge-0.0-0 librevenge-dev
  zlib1g-dev
Suggested packages:
  icu-doc
The following NEW packages will be installed:
  icu-devtools libicu-dev libmspub-0.1-1 libmspub-dev librevenge-0.0-0
  librevenge-dev zlib1g-dev
0 upgraded, 7 newly installed, 0 to remove and 39 not upgraded.
Need to get 11.7 MB of archives.
After this operation, 48.5 MB of additional disk space will be used.
Get:1 http://deb.debian.org/debian unstable/main armhf icu-devtools armhf 72.1-4 [184 kB]
Get:2 http://deb.debian.org/debian unstable/main armhf libicu-dev armhf 72.1-4 [10.1 MB]
Get:3 http://deb.debian.org/debian unstable/main armhf librevenge-0.0-0 armhf 0.0.5-3 [257 kB]
Get:4 http://deb.debian.org/debian unstable/main armhf libmspub-0.1-1 armhf 0.1.4-3+b3 [152 kB]
Get:5 http://deb.debian.org/debian unstable/main armhf librevenge-dev armhf 0.0.5-3 [115 kB]
Get:6 http://deb.debian.org/debian unstable/main armhf zlib1g-dev armhf 1:1.3.dfsg-3 [904 kB]
Get:7 http://deb.debian.org/debian unstable/main armhf libmspub-dev armhf 0.1.4-3+b3 [43.4 kB]
debconf: delaying package configuration, since apt-utils is not installed
Fetched 11.7 MB in 0s (38.2 MB/s)
Selecting previously unselected package icu-devtools.
(Reading database ... (Reading database ... 5%(Reading database ... 10%(Reading database ... 15%(Reading database ... 20%(Reading database ... 25%(Reading database ... 30%(Reading database ... 35%(Reading database ... 40%(Reading database ... 45%(Reading database ... 50%(Reading database ... 55%(Reading database ... 60%(Reading database ... 65%(Reading database ... 70%(Reading database ... 75%(Reading database ... 80%(Reading database ... 85%(Reading database ... 90%(Reading database ... 95%(Reading database ... 100%(Reading database ... 14733 files and directories currently installed.)
Preparing to unpack .../0-icu-devtools_72.1-4_armhf.deb ...
Unpacking icu-devtools (72.1-4) ...
Selecting previously unselected package libicu-dev:armhf.
Preparing to unpack .../1-libicu-dev_72.1-4_armhf.deb ...
Unpacking libicu-dev:armhf (72.1-4) ...
Selecting previously unselected package librevenge-0.0-0:armhf.
Preparing to unpack .../2-librevenge-0.0-0_0.0.5-3_armhf.deb ...
Unpacking librevenge-0.0-0:armhf (0.0.5-3) ...
Selecting previously unselected package libmspub-0.1-1:armhf.
Preparing to unpack .../3-libmspub-0.1-1_0.1.4-3+b3_armhf.deb ...
Unpacking libmspub-0.1-1:armhf (0.1.4-3+b3) ...
Selecting previously unselected package librevenge-dev:armhf.
Preparing to unpack .../4-librevenge-dev_0.0.5-3_armhf.deb ...
Unpacking librevenge-dev:armhf (0.0.5-3) ...
Selecting previously unselected package zlib1g-dev:armhf.
Preparing to unpack .../5-zlib1g-dev_1%3a1.3.dfsg-3_armhf.deb ...
Unpacking zlib1g-dev:armhf (1:1.3.dfsg-3) ...
Selecting previously unselected package libmspub-dev:armhf.
Preparing to unpack .../6-libmspub-dev_0.1.4-3+b3_armhf.deb ...
Unpacking libmspub-dev:armhf (0.1.4-3+b3) ...
Setting up librevenge-0.0-0:armhf (0.0.5-3) ...
Setting up librevenge-dev:armhf (0.0.5-3) ...
Setting up icu-devtools (72.1-4) ...
Setting up zlib1g-dev:armhf (1:1.3.dfsg-3) ...
Setting up libicu-dev:armhf (72.1-4) ...
Setting up libmspub-0.1-1:armhf (0.1.4-3+b3) ...
Setting up libmspub-dev:armhf (0.1.4-3+b3) ...
Processing triggers for libc-bin (2.37-13) ...
Reading package lists...
Building dependency tree...
Reading state information...
The following packages will be REMOVED:
  libmspack-dev* libmspack0*
0 upgraded, 0 newly installed, 2 to remove and 39 not upgraded.
After this operation, 265 kB disk space will be freed.
(Reading database ... (Reading database ... 5%(Reading database ... 10%(Reading database ... 15%(Reading database ... 20%(Reading database ... 25%(Reading database ... 30%(Reading database ... 35%(Reading database ... 40%(Reading database ... 45%(Reading database ... 50%(Reading database ... 55%(Reading database ... 60%(Reading database ... 65%(Reading database ... 70%(Reading database ... 75%(Reading database ... 80%(Reading database ... 85%(Reading database ... 90%(Reading database ... 95%(Reading database ... 100%(Reading database ... 15099 files and directories currently installed.)
Removing libmspack-dev:armhf (0.11-1) ...
Removing libmspack0:armhf (0.11-1) ...
Processing triggers for libc-bin (2.37-13) ...
