Temporary header file '/tmp/_8UerlCpi2/dump1.h' with the following content will be compiled to create GCC translation unit dump:

  // add defines
  #define __STDC_VERSION__ 201710L
#define _TIME_BITS 64
#define _FILE_OFFSET_BITS 64
#define _GXX_NULLPTR_T
#define CLUTTER_ENABLE_COMPOSITOR_API 1
#define _REGEX_NELTS(n)
#define _Atomic
#define PACKED
#ifdef __cplusplus
// C17 compat layer
#define _Alignof(type) alignof(type)
#endif
#define getaddrinfo_a(a,b,c,d)

  // add includes
  #include "/usr/include/arm-linux-gnueabihf/qt6/QtWebChannel/qqmlwebchannel.h"
  #include "/usr/include/arm-linux-gnueabihf/qt6/QtWebChannel/qtwebchannelexports.h"
  #include "/usr/include/arm-linux-gnueabihf/qt6/QtWebChannel/qtwebchannelversion.h"
  #include "/usr/include/arm-linux-gnueabihf/qt6/QtWebChannel/qwebchannel.h"
  #include "/usr/include/arm-linux-gnueabihf/qt6/QtWebChannel/qwebchannelabstracttransport.h"
  #include "/usr/include/arm-linux-gnueabihf/qt6/QtWebChannel/qwebchannelglobal.h"

  // add namespaces
  namespace QAlgorithmsPrivate{typedef int tmp_add_type_1;}
  QAlgorithmsPrivate::tmp_add_type_1 tmp_add_func_1(){return 0;};
  namespace QContainerInfo{typedef int tmp_add_type_2;}
  QContainerInfo::tmp_add_type_2 tmp_add_func_2(){return 0;};
  namespace QHashPrivate{typedef int tmp_add_type_3;}
  QHashPrivate::tmp_add_type_3 tmp_add_func_3(){return 0;};
  namespace QHashPrivate{namespace GrowthPolicy{typedef int tmp_add_type_4;}}
  QHashPrivate::GrowthPolicy::tmp_add_type_4 tmp_add_func_4(){return 0;};
  namespace QJsonPrivate{typedef int tmp_add_type_5;}
  QJsonPrivate::tmp_add_type_5 tmp_add_func_5(){return 0;};
  namespace QmlIR{typedef int tmp_add_type_6;}
  QmlIR::tmp_add_type_6 tmp_add_func_6(){return 0;};
  namespace QQmlPrivate{typedef int tmp_add_type_7;}
  QQmlPrivate::tmp_add_type_7 tmp_add_func_7(){return 0;};
  namespace Qt{typedef int tmp_add_type_8;}
  Qt::tmp_add_type_8 tmp_add_func_8(){return 0;};
  namespace Qt{namespace Literals{typedef int tmp_add_type_9;}}
  Qt::Literals::tmp_add_type_9 tmp_add_func_9(){return 0;};
  namespace Qt{namespace Literals{namespace StringLiterals{typedef int tmp_add_type_10;}}}
  Qt::Literals::StringLiterals::tmp_add_type_10 tmp_add_func_10(){return 0;};
  namespace QtGlobalStatic{typedef int tmp_add_type_11;}
  QtGlobalStatic::tmp_add_type_11 tmp_add_func_11(){return 0;};
  namespace QtLiterals{typedef int tmp_add_type_12;}
  QtLiterals::tmp_add_type_12 tmp_add_func_12(){return 0;};
  namespace QtMetaContainerPrivate{typedef int tmp_add_type_13;}
  QtMetaContainerPrivate::tmp_add_type_13 tmp_add_func_13(){return 0;};
  namespace QtMetaTypePrivate{typedef int tmp_add_type_14;}
  QtMetaTypePrivate::tmp_add_type_14 tmp_add_func_14(){return 0;};
  namespace QtPrivate{typedef int tmp_add_type_15;}
  QtPrivate::tmp_add_type_15 tmp_add_func_15(){return 0;};
  namespace QtPrivate{namespace detail{typedef int tmp_add_type_16;}}
  QtPrivate::detail::tmp_add_type_16 tmp_add_func_16(){return 0;};
  namespace QtPrivate{namespace SwapExceptionTester{typedef int tmp_add_type_17;}}
  QtPrivate::SwapExceptionTester::tmp_add_type_17 tmp_add_func_17(){return 0;};
  namespace QtPrivate{namespace Tok{typedef int tmp_add_type_18;}}
  QtPrivate::Tok::tmp_add_type_18 tmp_add_func_18(){return 0;};
  namespace QtSharedPointer{typedef int tmp_add_type_19;}
  QtSharedPointer::tmp_add_type_19 tmp_add_func_19(){return 0;};
  namespace QTypeTraits{typedef int tmp_add_type_20;}
  QTypeTraits::tmp_add_type_20 tmp_add_func_20(){return 0;};
  namespace QTypeTraits{namespace detail{typedef int tmp_add_type_21;}}
  QTypeTraits::detail::tmp_add_type_21 tmp_add_func_21(){return 0;};
  namespace QV4{typedef int tmp_add_type_22;}
  QV4::tmp_add_type_22 tmp_add_func_22(){return 0;};
  namespace QV4{namespace CompiledData{typedef int tmp_add_type_23;}}
  QV4::CompiledData::tmp_add_type_23 tmp_add_func_23(){return 0;};
  namespace q_has_char8_t{typedef int tmp_add_type_24;}
  q_has_char8_t::tmp_add_type_24 tmp_add_func_24(){return 0;};
  namespace q_no_char8_t{typedef int tmp_add_type_25;}
  q_no_char8_t::tmp_add_type_25 tmp_add_func_25(){return 0;};

  // add classes
  QAdoptSharedDataTag* tmp_add_class_0;
  QAnyStringView* tmp_add_class_1;
  QArrayData* tmp_add_class_2;
  QAtomicInt* tmp_add_class_3;
  QBindingStatus* tmp_add_class_4;
  QBindingStorage* tmp_add_class_5;
  QByteArray* tmp_add_class_6;
  QByteArrayView* tmp_add_class_7;
  QCalendar* tmp_add_class_8;
  QCborError* tmp_add_class_9;
  QCborParserError* tmp_add_class_10;
  QCborValue* tmp_add_class_11;
  QCborValueConstRef* tmp_add_class_12;
  QCborValueRef* tmp_add_class_13;
  QChar* tmp_add_class_14;
  QContiguousCacheData* tmp_add_class_15;
  QDataStream* tmp_add_class_16;
  QDate* tmp_add_class_17;
  QDateTime* tmp_add_class_18;
  QDebug* tmp_add_class_19;
  QDebugStateSaver* tmp_add_class_20;
  QFlag* tmp_add_class_21;
  QGenericArgument* tmp_add_class_22;
  QGenericReturnArgument* tmp_add_class_23;
  QHashDummyValue* tmp_add_class_24;
  QHashSeed* tmp_add_class_25;
  QIODeviceBase* tmp_add_class_26;
  QIncompatibleFlag* tmp_add_class_27;
  QInternal* tmp_add_class_28;
  QJSValue* tmp_add_class_29;
  QJsonValue* tmp_add_class_30;
  QJsonValueConstRef* tmp_add_class_31;
  QJsonValueRef* tmp_add_class_32;
  QKeyCombination* tmp_add_class_33;
  QLatin1Char* tmp_add_class_34;
  QLatin1String* tmp_add_class_35;
  QLocale* tmp_add_class_36;
  QMessageLogContext* tmp_add_class_37;
  QMessageLogger* tmp_add_class_38;
  QMetaAssociation* tmp_add_class_39;
  QMetaClassInfo* tmp_add_class_40;
  QMetaContainer* tmp_add_class_41;
  QMetaEnum* tmp_add_class_42;
  QMetaMethod* tmp_add_class_43;
  QMetaObject* tmp_add_class_44;
  QMetaProperty* tmp_add_class_45;
  QMetaSequence* tmp_add_class_46;
  QMetaType* tmp_add_class_47;
  QMethodRawArguments* tmp_add_class_48;
  QNoDebug* tmp_add_class_49;
  QObject* tmp_add_class_50;
  QObjectData* tmp_add_class_51;
  QPartialOrdering* tmp_add_class_52;
  QQmlListReference* tmp_add_class_53;
  QQmlParserStatus* tmp_add_class_54;
  QQmlPropertyValueSource* tmp_add_class_55;
  QQmlWebChannel* tmp_add_class_56;
  QRegularExpression* tmp_add_class_57;
  QRegularExpressionMatch* tmp_add_class_58;
  QRegularExpressionMatchIterator* tmp_add_class_59;
  QScopedPointerPodDeleter* tmp_add_class_60;
  QSharedData* tmp_add_class_61;
  QSignalBlocker* tmp_add_class_62;
  QString* tmp_add_class_63;
  QStringConverter* tmp_add_class_64;
  QStringConverterBase* tmp_add_class_65;
  QStringMatcher* tmp_add_class_66;
  QStringTokenizerBaseBase* tmp_add_class_67;
  QStringView* tmp_add_class_68;
  QSysInfo* tmp_add_class_69;
  QTextStream* tmp_add_class_70;
  QTextStreamManipulator* tmp_add_class_71;
  QTime* tmp_add_class_72;
  QTypeRevision* tmp_add_class_73;
  QUrl* tmp_add_class_74;
  QUuid* tmp_add_class_75;
  QVLABaseBase* tmp_add_class_76;
  QVariant* tmp_add_class_77;
  QVariantConstPointer* tmp_add_class_78;
  QVersionNumber* tmp_add_class_79;
  QWebChannel* tmp_add_class_80;
  QWebChannelAbstractTransport* tmp_add_class_81;
  _G_fpos64_t* tmp_add_class_82;
  _G_fpos_t* tmp_add_class_83;
  _IO_cookie_io_functions_t* tmp_add_class_84;

The GCC parameters:
  gcc -fdump-lang-raw -fkeep-inline-functions -c -x c++ -fpermissive -w "/tmp/_8UerlCpi2/dump1.h"  -I/usr/include/arm-linux-gnueabihf/qt6

