[2024-01-31T18:31:00+00:00] apt-get install libaldmb1-dev abi-compliance-checker
Reading package lists...
Building dependency tree...
Reading state information...
abi-compliance-checker is already the newest version (2.3-2).
The following packages were automatically installed and are no longer required:
  libairspyhf-dev libairspyhf1 libusb-1.0-0
Use 'apt autoremove' to remove them.
The following additional packages will be installed:
  libaldmb1 liballegro4-dev liballegro4.4 libasound2 libasound2-data libdumb1
  libdumb1-dev libjpgalleg4.4 libpthread-stubs0-dev libx11-6 libx11-data
  libx11-dev libxau-dev libxau6 libxcb1 libxcb1-dev libxcursor-dev libxcursor1
  libxdmcp-dev libxdmcp6 libxext-dev libxext6 libxfixes-dev libxfixes3
  libxpm-dev libxpm4 libxrender-dev libxrender1 libxxf86dga1 libxxf86vm-dev
  libxxf86vm1 x11proto-dev xorg-sgml-doctools xtrans-dev
Suggested packages:
  libasound2-plugins alsa-utils libx11-doc libxcb-doc libxext-doc
Recommended packages:
  alsa-ucm-conf alsa-topology-conf
The following NEW packages will be installed:
  libaldmb1 libaldmb1-dev liballegro4-dev liballegro4.4 libasound2
  libasound2-data libdumb1 libdumb1-dev libjpgalleg4.4 libpthread-stubs0-dev
  libx11-6 libx11-data libx11-dev libxau-dev libxau6 libxcb1 libxcb1-dev
  libxcursor-dev libxcursor1 libxdmcp-dev libxdmcp6 libxext-dev libxext6
  libxfixes-dev libxfixes3 libxpm-dev libxpm4 libxrender-dev libxrender1
  libxxf86dga1 libxxf86vm-dev libxxf86vm1 x11proto-dev xorg-sgml-doctools
  xtrans-dev
0 upgraded, 35 newly installed, 0 to remove and 50 not upgraded.
Need to get 5062 kB of archives.
After this operation, 13.4 MB of additional disk space will be used.
Get:1 http://deb.debian.org/debian unstable/main armhf libasound2-data all 1.2.10-3 [20.7 kB]
Get:2 http://deb.debian.org/debian unstable/main armhf libasound2 armhf 1.2.10-3 [316 kB]
Get:3 http://deb.debian.org/debian unstable/main armhf libxau6 armhf 1:1.0.9-1 [19.0 kB]
Get:4 http://deb.debian.org/debian unstable/main armhf libxdmcp6 armhf 1:1.1.2-3 [24.9 kB]
Get:5 http://deb.debian.org/debian unstable/main armhf libxcb1 armhf 1.15-1 [140 kB]
Get:6 http://deb.debian.org/debian unstable/main armhf libx11-data all 2:1.8.7-1 [328 kB]
Get:7 http://deb.debian.org/debian unstable/main armhf libx11-6 armhf 2:1.8.7-1 [735 kB]
Get:8 http://deb.debian.org/debian unstable/main armhf libxfixes3 armhf 1:6.0.0-2 [21.1 kB]
Get:9 http://deb.debian.org/debian unstable/main armhf libxrender1 armhf 1:0.9.10-1.1 [30.1 kB]
Get:10 http://deb.debian.org/debian unstable/main armhf libxcursor1 armhf 1:1.2.1-1 [37.9 kB]
Get:11 http://deb.debian.org/debian unstable/main armhf libxext6 armhf 2:1.3.4-1+b1 [47.8 kB]
Get:12 http://deb.debian.org/debian unstable/main armhf libxpm4 armhf 1:3.5.17-1 [49.5 kB]
Get:13 http://deb.debian.org/debian unstable/main armhf libxxf86dga1 armhf 2:1.1.5-1 [20.8 kB]
Get:14 http://deb.debian.org/debian unstable/main armhf libxxf86vm1 armhf 1:1.1.4-1+b2 [20.2 kB]
Get:15 http://deb.debian.org/debian unstable/main armhf liballegro4.4 armhf 2:4.4.3.1-4+b1 [375 kB]
Get:16 http://deb.debian.org/debian unstable/main armhf libdumb1 armhf 1:0.9.3-6+b3 [180 kB]
Get:17 http://deb.debian.org/debian unstable/main armhf libaldmb1 armhf 1:0.9.3-6+b3 [97.8 kB]
Get:18 http://deb.debian.org/debian unstable/main armhf libdumb1-dev armhf 1:0.9.3-6+b3 [93.0 kB]
Get:19 http://deb.debian.org/debian unstable/main armhf libjpgalleg4.4 armhf 2:4.4.3.1-4+b1 [93.5 kB]
Get:20 http://deb.debian.org/debian unstable/main armhf xorg-sgml-doctools all 1:1.11-1.1 [22.1 kB]
Get:21 http://deb.debian.org/debian unstable/main armhf x11proto-dev all 2023.2-1 [598 kB]
Get:22 http://deb.debian.org/debian unstable/main armhf libxau-dev armhf 1:1.0.9-1 [22.4 kB]
Get:23 http://deb.debian.org/debian unstable/main armhf libxdmcp-dev armhf 1:1.1.2-3 [40.7 kB]
Get:24 http://deb.debian.org/debian unstable/main armhf xtrans-dev all 1.4.0-1 [98.7 kB]
Get:25 http://deb.debian.org/debian unstable/main armhf libpthread-stubs0-dev armhf 0.4-1 [5344 B]
Get:26 http://deb.debian.org/debian unstable/main armhf libxcb1-dev armhf 1.15-1 [179 kB]
Get:27 http://deb.debian.org/debian unstable/main armhf libx11-dev armhf 2:1.8.7-1 [816 kB]
Get:28 http://deb.debian.org/debian unstable/main armhf libxext-dev armhf 2:1.3.4-1+b1 [103 kB]
Get:29 http://deb.debian.org/debian unstable/main armhf libxpm-dev armhf 1:3.5.17-1 [124 kB]
Get:30 http://deb.debian.org/debian unstable/main armhf libxxf86vm-dev armhf 1:1.1.4-1+b2 [25.1 kB]
Get:31 http://deb.debian.org/debian unstable/main armhf libxrender-dev armhf 1:0.9.10-1.1 [38.1 kB]
Get:32 http://deb.debian.org/debian unstable/main armhf libxfixes-dev armhf 1:6.0.0-2 [23.3 kB]
Get:33 http://deb.debian.org/debian unstable/main armhf libxcursor-dev armhf 1:1.2.1-1 [49.3 kB]
Get:34 http://deb.debian.org/debian unstable/main armhf liballegro4-dev armhf 2:4.4.3.1-4+b1 [263 kB]
Get:35 http://deb.debian.org/debian unstable/main armhf libaldmb1-dev armhf 1:0.9.3-6+b3 [4458 B]
debconf: delaying package configuration, since apt-utils is not installed
Fetched 5062 kB in 1s (7453 kB/s)
Selecting previously unselected package libasound2-data.
(Reading database ... (Reading database ... 5%(Reading database ... 10%(Reading database ... 15%(Reading database ... 20%(Reading database ... 25%(Reading database ... 30%(Reading database ... 35%(Reading database ... 40%(Reading database ... 45%(Reading database ... 50%(Reading database ... 55%(Reading database ... 60%(Reading database ... 65%(Reading database ... 70%(Reading database ... 75%(Reading database ... 80%(Reading database ... 85%(Reading database ... 90%(Reading database ... 95%(Reading database ... 100%(Reading database ... 19781 files and directories currently installed.)
Preparing to unpack .../00-libasound2-data_1.2.10-3_all.deb ...
Unpacking libasound2-data (1.2.10-3) ...
Selecting previously unselected package libasound2:armhf.
Preparing to unpack .../01-libasound2_1.2.10-3_armhf.deb ...
Unpacking libasound2:armhf (1.2.10-3) ...
Selecting previously unselected package libxau6:armhf.
Preparing to unpack .../02-libxau6_1%3a1.0.9-1_armhf.deb ...
Unpacking libxau6:armhf (1:1.0.9-1) ...
Selecting previously unselected package libxdmcp6:armhf.
Preparing to unpack .../03-libxdmcp6_1%3a1.1.2-3_armhf.deb ...
Unpacking libxdmcp6:armhf (1:1.1.2-3) ...
Selecting previously unselected package libxcb1:armhf.
Preparing to unpack .../04-libxcb1_1.15-1_armhf.deb ...
Unpacking libxcb1:armhf (1.15-1) ...
Selecting previously unselected package libx11-data.
Preparing to unpack .../05-libx11-data_2%3a1.8.7-1_all.deb ...
Unpacking libx11-data (2:1.8.7-1) ...
Selecting previously unselected package libx11-6:armhf.
Preparing to unpack .../06-libx11-6_2%3a1.8.7-1_armhf.deb ...
Unpacking libx11-6:armhf (2:1.8.7-1) ...
Selecting previously unselected package libxfixes3:armhf.
Preparing to unpack .../07-libxfixes3_1%3a6.0.0-2_armhf.deb ...
Unpacking libxfixes3:armhf (1:6.0.0-2) ...
Selecting previously unselected package libxrender1:armhf.
Preparing to unpack .../08-libxrender1_1%3a0.9.10-1.1_armhf.deb ...
Unpacking libxrender1:armhf (1:0.9.10-1.1) ...
Selecting previously unselected package libxcursor1:armhf.
Preparing to unpack .../09-libxcursor1_1%3a1.2.1-1_armhf.deb ...
Unpacking libxcursor1:armhf (1:1.2.1-1) ...
Selecting previously unselected package libxext6:armhf.
Preparing to unpack .../10-libxext6_2%3a1.3.4-1+b1_armhf.deb ...
Unpacking libxext6:armhf (2:1.3.4-1+b1) ...
Selecting previously unselected package libxpm4:armhf.
Preparing to unpack .../11-libxpm4_1%3a3.5.17-1_armhf.deb ...
Unpacking libxpm4:armhf (1:3.5.17-1) ...
Selecting previously unselected package libxxf86dga1:armhf.
Preparing to unpack .../12-libxxf86dga1_2%3a1.1.5-1_armhf.deb ...
Unpacking libxxf86dga1:armhf (2:1.1.5-1) ...
Selecting previously unselected package libxxf86vm1:armhf.
Preparing to unpack .../13-libxxf86vm1_1%3a1.1.4-1+b2_armhf.deb ...
Unpacking libxxf86vm1:armhf (1:1.1.4-1+b2) ...
Selecting previously unselected package liballegro4.4:armhf.
Preparing to unpack .../14-liballegro4.4_2%3a4.4.3.1-4+b1_armhf.deb ...
Unpacking liballegro4.4:armhf (2:4.4.3.1-4+b1) ...
Selecting previously unselected package libdumb1:armhf.
Preparing to unpack .../15-libdumb1_1%3a0.9.3-6+b3_armhf.deb ...
Unpacking libdumb1:armhf (1:0.9.3-6+b3) ...
Selecting previously unselected package libaldmb1:armhf.
Preparing to unpack .../16-libaldmb1_1%3a0.9.3-6+b3_armhf.deb ...
Unpacking libaldmb1:armhf (1:0.9.3-6+b3) ...
Selecting previously unselected package libdumb1-dev:armhf.
Preparing to unpack .../17-libdumb1-dev_1%3a0.9.3-6+b3_armhf.deb ...
Unpacking libdumb1-dev:armhf (1:0.9.3-6+b3) ...
Selecting previously unselected package libjpgalleg4.4:armhf.
Preparing to unpack .../18-libjpgalleg4.4_2%3a4.4.3.1-4+b1_armhf.deb ...
Unpacking libjpgalleg4.4:armhf (2:4.4.3.1-4+b1) ...
Selecting previously unselected package xorg-sgml-doctools.
Preparing to unpack .../19-xorg-sgml-doctools_1%3a1.11-1.1_all.deb ...
Unpacking xorg-sgml-doctools (1:1.11-1.1) ...
Selecting previously unselected package x11proto-dev.
Preparing to unpack .../20-x11proto-dev_2023.2-1_all.deb ...
Unpacking x11proto-dev (2023.2-1) ...
Selecting previously unselected package libxau-dev:armhf.
Preparing to unpack .../21-libxau-dev_1%3a1.0.9-1_armhf.deb ...
Unpacking libxau-dev:armhf (1:1.0.9-1) ...
Selecting previously unselected package libxdmcp-dev:armhf.
Preparing to unpack .../22-libxdmcp-dev_1%3a1.1.2-3_armhf.deb ...
Unpacking libxdmcp-dev:armhf (1:1.1.2-3) ...
Selecting previously unselected package xtrans-dev.
Preparing to unpack .../23-xtrans-dev_1.4.0-1_all.deb ...
Unpacking xtrans-dev (1.4.0-1) ...
Selecting previously unselected package libpthread-stubs0-dev:armhf.
Preparing to unpack .../24-libpthread-stubs0-dev_0.4-1_armhf.deb ...
Unpacking libpthread-stubs0-dev:armhf (0.4-1) ...
Selecting previously unselected package libxcb1-dev:armhf.
Preparing to unpack .../25-libxcb1-dev_1.15-1_armhf.deb ...
Unpacking libxcb1-dev:armhf (1.15-1) ...
Selecting previously unselected package libx11-dev:armhf.
Preparing to unpack .../26-libx11-dev_2%3a1.8.7-1_armhf.deb ...
Unpacking libx11-dev:armhf (2:1.8.7-1) ...
Selecting previously unselected package libxext-dev:armhf.
Preparing to unpack .../27-libxext-dev_2%3a1.3.4-1+b1_armhf.deb ...
Unpacking libxext-dev:armhf (2:1.3.4-1+b1) ...
Selecting previously unselected package libxpm-dev:armhf.
Preparing to unpack .../28-libxpm-dev_1%3a3.5.17-1_armhf.deb ...
Unpacking libxpm-dev:armhf (1:3.5.17-1) ...
Selecting previously unselected package libxxf86vm-dev:armhf.
Preparing to unpack .../29-libxxf86vm-dev_1%3a1.1.4-1+b2_armhf.deb ...
Unpacking libxxf86vm-dev:armhf (1:1.1.4-1+b2) ...
Selecting previously unselected package libxrender-dev:armhf.
Preparing to unpack .../30-libxrender-dev_1%3a0.9.10-1.1_armhf.deb ...
Unpacking libxrender-dev:armhf (1:0.9.10-1.1) ...
Selecting previously unselected package libxfixes-dev:armhf.
Preparing to unpack .../31-libxfixes-dev_1%3a6.0.0-2_armhf.deb ...
Unpacking libxfixes-dev:armhf (1:6.0.0-2) ...
Selecting previously unselected package libxcursor-dev:armhf.
Preparing to unpack .../32-libxcursor-dev_1%3a1.2.1-1_armhf.deb ...
Unpacking libxcursor-dev:armhf (1:1.2.1-1) ...
Selecting previously unselected package liballegro4-dev.
Preparing to unpack .../33-liballegro4-dev_2%3a4.4.3.1-4+b1_armhf.deb ...
Unpacking liballegro4-dev (2:4.4.3.1-4+b1) ...
Selecting previously unselected package libaldmb1-dev:armhf.
Preparing to unpack .../34-libaldmb1-dev_1%3a0.9.3-6+b3_armhf.deb ...
Unpacking libaldmb1-dev:armhf (1:0.9.3-6+b3) ...
Setting up libxau6:armhf (1:1.0.9-1) ...
Setting up libxdmcp6:armhf (1:1.1.2-3) ...
Setting up libxcb1:armhf (1.15-1) ...
Setting up libpthread-stubs0-dev:armhf (0.4-1) ...
Setting up libasound2-data (1.2.10-3) ...
Setting up xtrans-dev (1.4.0-1) ...
Setting up libx11-data (2:1.8.7-1) ...
Setting up libasound2:armhf (1.2.10-3) ...
Setting up libx11-6:armhf (2:1.8.7-1) ...
Setting up xorg-sgml-doctools (1:1.11-1.1) ...
Setting up libdumb1:armhf (1:0.9.3-6+b3) ...
Setting up libxpm4:armhf (1:3.5.17-1) ...
Setting up libxrender1:armhf (1:0.9.10-1.1) ...
Setting up libxext6:armhf (2:1.3.4-1+b1) ...
Setting up libxxf86vm1:armhf (1:1.1.4-1+b2) ...
Setting up libxfixes3:armhf (1:6.0.0-2) ...
Setting up libdumb1-dev:armhf (1:0.9.3-6+b3) ...
Setting up libxcursor1:armhf (1:1.2.1-1) ...
Setting up libxxf86dga1:armhf (2:1.1.5-1) ...
Setting up liballegro4.4:armhf (2:4.4.3.1-4+b1) ...
Setting up libjpgalleg4.4:armhf (2:4.4.3.1-4+b1) ...
Setting up libaldmb1:armhf (1:0.9.3-6+b3) ...
Processing triggers for sgml-base (1.31) ...
Setting up x11proto-dev (2023.2-1) ...
Setting up libxau-dev:armhf (1:1.0.9-1) ...
Processing triggers for libc-bin (2.37-13) ...
Setting up libxdmcp-dev:armhf (1:1.1.2-3) ...
Setting up libxcb1-dev:armhf (1.15-1) ...
Setting up libx11-dev:armhf (2:1.8.7-1) ...
Setting up libxfixes-dev:armhf (1:6.0.0-2) ...
Setting up libxpm-dev:armhf (1:3.5.17-1) ...
Setting up libxext-dev:armhf (2:1.3.4-1+b1) ...
Setting up libxrender-dev:armhf (1:0.9.10-1.1) ...
Setting up libxcursor-dev:armhf (1:1.2.1-1) ...
Setting up libxxf86vm-dev:armhf (1:1.1.4-1+b2) ...
Setting up liballegro4-dev (2:4.4.3.1-4+b1) ...
Setting up libaldmb1-dev:armhf (1:0.9.3-6+b3) ...
Reading package lists...
Building dependency tree...
Reading state information...
The following packages will be REMOVED:
  libairspyhf-dev* libairspyhf1* libusb-1.0-0*
0 upgraded, 0 newly installed, 3 to remove and 50 not upgraded.
After this operation, 215 kB disk space will be freed.
(Reading database ... (Reading database ... 5%(Reading database ... 10%(Reading database ... 15%(Reading database ... 20%(Reading database ... 25%(Reading database ... 30%(Reading database ... 35%(Reading database ... 40%(Reading database ... 45%(Reading database ... 50%(Reading database ... 55%(Reading database ... 60%(Reading database ... 65%(Reading database ... 70%(Reading database ... 75%(Reading database ... 80%(Reading database ... 85%(Reading database ... 90%(Reading database ... 95%(Reading database ... 100%(Reading database ... 20960 files and directories currently installed.)
Removing libairspyhf-dev:armhf (1.6.8-4+b1) ...
Removing libairspyhf1:armhf (1.6.8-4+b1) ...
No diversion 'diversion of /lib/udev/rules.d/60-libairspyhf1.rules to /lib/udev/rules.d/60-libairspyhf1.rules.usr-is-merged by usr-is-merged', none removed.
Removing libusb-1.0-0:armhf (2:1.0.26-1) ...
Processing triggers for libc-bin (2.37-13) ...
(Reading database ... (Reading database ... 5%(Reading database ... 10%(Reading database ... 15%(Reading database ... 20%(Reading database ... 25%(Reading database ... 30%(Reading database ... 35%(Reading database ... 40%(Reading database ... 45%(Reading database ... 50%(Reading database ... 55%(Reading database ... 60%(Reading database ... 65%(Reading database ... 70%(Reading database ... 75%(Reading database ... 80%(Reading database ... 85%(Reading database ... 90%(Reading database ... 95%(Reading database ... 100%(Reading database ... 20932 files and directories currently installed.)
Purging configuration files for libairspyhf1:armhf (1.6.8-4+b1) ...
