Temporary header file '/tmp/5XQWPvISTj/dump1.h' with the following content will be compiled to create GCC translation unit dump:

  // add defines
  #define __STDC_VERSION__ 201710L
#define _FILE_OFFSET_BITS 64
#define _GXX_NULLPTR_T
#define CLUTTER_ENABLE_COMPOSITOR_API 1
#define _REGEX_NELTS(n)
#define _Atomic
#define PACKED
#ifdef __cplusplus
// C17 compat layer
#define _Alignof(type) alignof(type)
#endif
#define getaddrinfo_a(a,b,c,d)

  // add includes
  #include "/usr/include/evolution-data-server/libebook-contacts/e-book-contacts-enumtypes.h"
  #include "/usr/include/evolution-data-server/libebook-contacts/libebook-contacts.h"

  // add namespaces
  namespace icu_72{typedef int tmp_add_type_1;}
  icu_72::tmp_add_type_1 tmp_add_func_1(){return 0;};

  // add classes
  _CamelAddress* tmp_add_class_0;
  _CamelAddressClass* tmp_add_class_1;
  _CamelBlock* tmp_add_class_2;
  _CamelBlockFile* tmp_add_class_3;
  _CamelBlockFileClass* tmp_add_class_4;
  _CamelBlockRoot* tmp_add_class_5;
  _CamelCertDB* tmp_add_class_6;
  _CamelCertDBClass* tmp_add_class_7;
  _CamelCharset* tmp_add_class_8;
  _CamelCipherCertInfo* tmp_add_class_9;
  _CamelCipherCertInfoProperty* tmp_add_class_10;
  _CamelCipherContext* tmp_add_class_11;
  _CamelCipherContextClass* tmp_add_class_12;
  _CamelCipherValidity* tmp_add_class_13;
  _CamelContentDisposition* tmp_add_class_14;
  _CamelDB* tmp_add_class_15;
  _CamelDBClass* tmp_add_class_16;
  _CamelDataCache* tmp_add_class_17;
  _CamelDataCacheClass* tmp_add_class_18;
  _CamelDataWrapper* tmp_add_class_19;
  _CamelDataWrapperClass* tmp_add_class_20;
  _CamelFIRecord* tmp_add_class_21;
  _CamelFilterDriver* tmp_add_class_22;
  _CamelFilterDriverClass* tmp_add_class_23;
  _CamelFilterInputStream* tmp_add_class_24;
  _CamelFilterInputStreamClass* tmp_add_class_25;
  _CamelFilterOutputStream* tmp_add_class_26;
  _CamelFilterOutputStreamClass* tmp_add_class_27;
  _CamelFolder* tmp_add_class_28;
  _CamelFolderChangeInfo* tmp_add_class_29;
  _CamelFolderClass* tmp_add_class_30;
  _CamelFolderInfo* tmp_add_class_31;
  _CamelFolderQuotaInfo* tmp_add_class_32;
  _CamelFolderSearch* tmp_add_class_33;
  _CamelFolderSearchClass* tmp_add_class_34;
  _CamelFolderSummary* tmp_add_class_35;
  _CamelFolderSummaryClass* tmp_add_class_36;
  _CamelFolderThread* tmp_add_class_37;
  _CamelFolderThreadNode* tmp_add_class_38;
  _CamelGpgContext* tmp_add_class_39;
  _CamelGpgContextClass* tmp_add_class_40;
  _CamelHTMLParser* tmp_add_class_41;
  _CamelHTMLParserClass* tmp_add_class_42;
  _CamelIndex* tmp_add_class_43;
  _CamelIndexClass* tmp_add_class_44;
  _CamelIndexCursor* tmp_add_class_45;
  _CamelIndexCursorClass* tmp_add_class_46;
  _CamelIndexName* tmp_add_class_47;
  _CamelIndexNameClass* tmp_add_class_48;
  _CamelInternetAddress* tmp_add_class_49;
  _CamelInternetAddressClass* tmp_add_class_50;
  _CamelJunkFilterInterface* tmp_add_class_51;
  _CamelKeyBlock* tmp_add_class_52;
  _CamelKeyFile* tmp_add_class_53;
  _CamelKeyFileClass* tmp_add_class_54;
  _CamelKeyKey* tmp_add_class_55;
  _CamelKeyRootBlock* tmp_add_class_56;
  _CamelKeyTable* tmp_add_class_57;
  _CamelKeyTableClass* tmp_add_class_58;
  _CamelLocalSettings* tmp_add_class_59;
  _CamelLocalSettingsClass* tmp_add_class_60;
  _CamelLockHelperMsg* tmp_add_class_61;
  _CamelMIRecord* tmp_add_class_62;
  _CamelMedium* tmp_add_class_63;
  _CamelMediumClass* tmp_add_class_64;
  _CamelMessageContentInfo* tmp_add_class_65;
  _CamelMessageInfo* tmp_add_class_66;
  _CamelMessageInfoBase* tmp_add_class_67;
  _CamelMessageInfoBaseClass* tmp_add_class_68;
  _CamelMessageInfoClass* tmp_add_class_69;
  _CamelMimeFilter* tmp_add_class_70;
  _CamelMimeFilterBasic* tmp_add_class_71;
  _CamelMimeFilterBasicClass* tmp_add_class_72;
  _CamelMimeFilterBestenc* tmp_add_class_73;
  _CamelMimeFilterBestencClass* tmp_add_class_74;
  _CamelMimeFilterCRLF* tmp_add_class_75;
  _CamelMimeFilterCRLFClass* tmp_add_class_76;
  _CamelMimeFilterCanon* tmp_add_class_77;
  _CamelMimeFilterCanonClass* tmp_add_class_78;
  _CamelMimeFilterCharset* tmp_add_class_79;
  _CamelMimeFilterCharsetClass* tmp_add_class_80;
  _CamelMimeFilterClass* tmp_add_class_81;
  _CamelMimeFilterEnriched* tmp_add_class_82;
  _CamelMimeFilterEnrichedClass* tmp_add_class_83;
  _CamelMimeFilterFrom* tmp_add_class_84;
  _CamelMimeFilterFromClass* tmp_add_class_85;
  _CamelMimeFilterGZip* tmp_add_class_86;
  _CamelMimeFilterGZipClass* tmp_add_class_87;
  _CamelMimeFilterHTML* tmp_add_class_88;
  _CamelMimeFilterHTMLClass* tmp_add_class_89;
  _CamelMimeFilterIndex* tmp_add_class_90;
  _CamelMimeFilterIndexClass* tmp_add_class_91;
  _CamelMimeFilterLinewrap* tmp_add_class_92;
  _CamelMimeFilterLinewrapClass* tmp_add_class_93;
  _CamelMimeFilterPgp* tmp_add_class_94;
  _CamelMimeFilterPgpClass* tmp_add_class_95;
  _CamelMimeFilterProgress* tmp_add_class_96;
  _CamelMimeFilterProgressClass* tmp_add_class_97;
  _CamelMimeFilterToHTML* tmp_add_class_98;
  _CamelMimeFilterToHTMLClass* tmp_add_class_99;
  _CamelMimeFilterWindows* tmp_add_class_100;
  _CamelMimeFilterWindowsClass* tmp_add_class_101;
  _CamelMimeFilterYenc* tmp_add_class_102;
  _CamelMimeFilterYencClass* tmp_add_class_103;
  _CamelMimeMessage* tmp_add_class_104;
  _CamelMimeMessageClass* tmp_add_class_105;
  _CamelMimeParser* tmp_add_class_106;
  _CamelMimeParserClass* tmp_add_class_107;
  _CamelMimePart* tmp_add_class_108;
  _CamelMimePartClass* tmp_add_class_109;
  _CamelMsg* tmp_add_class_110;
  _CamelMultipart* tmp_add_class_111;
  _CamelMultipartClass* tmp_add_class_112;
  _CamelMultipartEncrypted* tmp_add_class_113;
  _CamelMultipartEncryptedClass* tmp_add_class_114;
  _CamelMultipartSigned* tmp_add_class_115;
  _CamelMultipartSignedClass* tmp_add_class_116;
  _CamelNNTPAddress* tmp_add_class_117;
  _CamelNNTPAddressClass* tmp_add_class_118;
  _CamelNetworkServiceInterface* tmp_add_class_119;
  _CamelNetworkSettingsInterface* tmp_add_class_120;
  _CamelNullOutputStream* tmp_add_class_121;
  _CamelNullOutputStreamClass* tmp_add_class_122;
  _CamelObject* tmp_add_class_123;
  _CamelObjectClass* tmp_add_class_124;
  _CamelOfflineFolder* tmp_add_class_125;
  _CamelOfflineFolderClass* tmp_add_class_126;
  _CamelOfflineSettings* tmp_add_class_127;
  _CamelOfflineSettingsClass* tmp_add_class_128;
  _CamelOfflineStore* tmp_add_class_129;
  _CamelOfflineStoreClass* tmp_add_class_130;
  _CamelOperation* tmp_add_class_131;
  _CamelOperationClass* tmp_add_class_132;
  _CamelPartitionKey* tmp_add_class_133;
  _CamelPartitionKeyBlock* tmp_add_class_134;
  _CamelPartitionMap* tmp_add_class_135;
  _CamelPartitionMapBlock* tmp_add_class_136;
  _CamelPartitionTable* tmp_add_class_137;
  _CamelPartitionTableClass* tmp_add_class_138;
  _CamelProviderModule* tmp_add_class_139;
  _CamelSExp* tmp_add_class_140;
  _CamelSExpClass* tmp_add_class_141;
  _CamelSExpResult* tmp_add_class_142;
  _CamelSExpSymbol* tmp_add_class_143;
  _CamelSExpTerm* tmp_add_class_144;
  _CamelSMIMEContext* tmp_add_class_145;
  _CamelSMIMEContextClass* tmp_add_class_146;
  _CamelSasl* tmp_add_class_147;
  _CamelSaslAnonymous* tmp_add_class_148;
  _CamelSaslAnonymousClass* tmp_add_class_149;
  _CamelSaslClass* tmp_add_class_150;
  _CamelSaslCramMd5* tmp_add_class_151;
  _CamelSaslCramMd5Class* tmp_add_class_152;
  _CamelSaslDigestMd5* tmp_add_class_153;
  _CamelSaslDigestMd5Class* tmp_add_class_154;
  _CamelSaslGssapi* tmp_add_class_155;
  _CamelSaslGssapiClass* tmp_add_class_156;
  _CamelSaslLogin* tmp_add_class_157;
  _CamelSaslLoginClass* tmp_add_class_158;
  _CamelSaslNTLM* tmp_add_class_159;
  _CamelSaslNTLMClass* tmp_add_class_160;
  _CamelSaslPOPB4SMTP* tmp_add_class_161;
  _CamelSaslPOPB4SMTPClass* tmp_add_class_162;
  _CamelSaslPlain* tmp_add_class_163;
  _CamelSaslPlainClass* tmp_add_class_164;
  _CamelSaslXOAuth2* tmp_add_class_165;
  _CamelSaslXOAuth2Class* tmp_add_class_166;
  _CamelSaslXOAuth2Google* tmp_add_class_167;
  _CamelSaslXOAuth2GoogleClass* tmp_add_class_168;
  _CamelSaslXOAuth2Outlook* tmp_add_class_169;
  _CamelSaslXOAuth2OutlookClass* tmp_add_class_170;
  _CamelSaslXOAuth2Yahoo* tmp_add_class_171;
  _CamelSaslXOAuth2YahooClass* tmp_add_class_172;
  _CamelService* tmp_add_class_173;
  _CamelServiceClass* tmp_add_class_174;
  _CamelSession* tmp_add_class_175;
  _CamelSessionClass* tmp_add_class_176;
  _CamelSettings* tmp_add_class_177;
  _CamelSettingsClass* tmp_add_class_178;
  _CamelStore* tmp_add_class_179;
  _CamelStoreClass* tmp_add_class_180;
  _CamelStoreInfo* tmp_add_class_181;
  _CamelStoreSettings* tmp_add_class_182;
  _CamelStoreSettingsClass* tmp_add_class_183;
  _CamelStoreSummary* tmp_add_class_184;
  _CamelStoreSummaryClass* tmp_add_class_185;
  _CamelStream* tmp_add_class_186;
  _CamelStreamBuffer* tmp_add_class_187;
  _CamelStreamBufferClass* tmp_add_class_188;
  _CamelStreamClass* tmp_add_class_189;
  _CamelStreamFilter* tmp_add_class_190;
  _CamelStreamFilterClass* tmp_add_class_191;
  _CamelStreamFs* tmp_add_class_192;
  _CamelStreamFsClass* tmp_add_class_193;
  _CamelStreamMem* tmp_add_class_194;
  _CamelStreamMemClass* tmp_add_class_195;
  _CamelStreamNull* tmp_add_class_196;
  _CamelStreamNullClass* tmp_add_class_197;
  _CamelStreamProcess* tmp_add_class_198;
  _CamelStreamProcessClass* tmp_add_class_199;
  _CamelSubscribableInterface* tmp_add_class_200;
  _CamelSummaryMessageID* tmp_add_class_201;
  _CamelTextIndex* tmp_add_class_202;
  _CamelTextIndexClass* tmp_add_class_203;
  _CamelTextIndexCursor* tmp_add_class_204;
  _CamelTextIndexCursorClass* tmp_add_class_205;
  _CamelTextIndexKeyCursor* tmp_add_class_206;
  _CamelTextIndexKeyCursorClass* tmp_add_class_207;
  _CamelTextIndexName* tmp_add_class_208;
  _CamelTextIndexNameClass* tmp_add_class_209;
  _CamelTransport* tmp_add_class_210;
  _CamelTransportClass* tmp_add_class_211;
  _CamelURL* tmp_add_class_212;
  _CamelVTrashFolder* tmp_add_class_213;
  _CamelVTrashFolderClass* tmp_add_class_214;
  _CamelVeeDataCache* tmp_add_class_215;
  _CamelVeeDataCacheClass* tmp_add_class_216;
  _CamelVeeFolder* tmp_add_class_217;
  _CamelVeeFolderClass* tmp_add_class_218;
  _CamelVeeMessageInfo* tmp_add_class_219;
  _CamelVeeMessageInfoClass* tmp_add_class_220;
  _CamelVeeMessageInfoData* tmp_add_class_221;
  _CamelVeeMessageInfoDataClass* tmp_add_class_222;
  _CamelVeeStore* tmp_add_class_223;
  _CamelVeeStoreClass* tmp_add_class_224;
  _CamelVeeSubfolderData* tmp_add_class_225;
  _CamelVeeSubfolderDataClass* tmp_add_class_226;
  _CamelVeeSummary* tmp_add_class_227;
  _CamelVeeSummaryClass* tmp_add_class_228;
  _EBookClientViewSortFields* tmp_add_class_229;
  _EBookIndices* tmp_add_class_230;
  _EBookIndicesUpdater* tmp_add_class_231;
  _EBookIndicesUpdaterClass* tmp_add_class_232;
  _ECancellableLocksBase* tmp_add_class_233;
  _ECancellableMutex* tmp_add_class_234;
  _ECancellableRecMutex* tmp_add_class_235;
  _EClient* tmp_add_class_236;
  _EClientClass* tmp_add_class_237;
  _EClientErrorsList* tmp_add_class_238;
  _EContact* tmp_add_class_239;
  _EContactClass* tmp_add_class_240;
  _ECredentials* tmp_add_class_241;
  _EExtensibleInterface* tmp_add_class_242;
  _EExtension* tmp_add_class_243;
  _EExtensionClass* tmp_add_class_244;
  _EFreeFormExpSymbol* tmp_add_class_245;
  _EGDataSession* tmp_add_class_246;
  _EGDataSessionClass* tmp_add_class_247;
  _EIterator* tmp_add_class_248;
  _EIteratorClass* tmp_add_class_249;
  _EList* tmp_add_class_250;
  _EListClass* tmp_add_class_251;
  _EListIterator* tmp_add_class_252;
  _EListIteratorClass* tmp_add_class_253;
  _EModule* tmp_add_class_254;
  _EModuleClass* tmp_add_class_255;
  _ENetworkMonitor* tmp_add_class_256;
  _ENetworkMonitorClass* tmp_add_class_257;
  _EOAuth2ServiceBase* tmp_add_class_258;
  _EOAuth2ServiceBaseClass* tmp_add_class_259;
  _EOAuth2ServiceGoogle* tmp_add_class_260;
  _EOAuth2ServiceGoogleClass* tmp_add_class_261;
  _EOAuth2ServiceInterface* tmp_add_class_262;
  _EOAuth2ServiceOutlook* tmp_add_class_263;
  _EOAuth2ServiceOutlookClass* tmp_add_class_264;
  _EOAuth2ServiceYahoo* tmp_add_class_265;
  _EOAuth2ServiceYahooClass* tmp_add_class_266;
  _EOAuth2Services* tmp_add_class_267;
  _EOAuth2ServicesClass* tmp_add_class_268;
  _ESExp* tmp_add_class_269;
  _ESExpClass* tmp_add_class_270;
  _ESExpResult* tmp_add_class_271;
  _ESExpSymbol* tmp_add_class_272;
  _ESExpTerm* tmp_add_class_273;
  _ESoupAuthBearer* tmp_add_class_274;
  _ESoupAuthBearerClass* tmp_add_class_275;
  _ESoupSession* tmp_add_class_276;
  _ESoupSessionClass* tmp_add_class_277;
  _ESource* tmp_add_class_278;
  _ESourceAddressBook* tmp_add_class_279;
  _ESourceAddressBookClass* tmp_add_class_280;
  _ESourceAlarms* tmp_add_class_281;
  _ESourceAlarmsClass* tmp_add_class_282;
  _ESourceAuthentication* tmp_add_class_283;
  _ESourceAuthenticationClass* tmp_add_class_284;
  _ESourceAutocomplete* tmp_add_class_285;
  _ESourceAutocompleteClass* tmp_add_class_286;
  _ESourceAutoconfig* tmp_add_class_287;
  _ESourceAutoconfigClass* tmp_add_class_288;
  _ESourceBackend* tmp_add_class_289;
  _ESourceBackendClass* tmp_add_class_290;
  _ESourceBackendSummarySetup* tmp_add_class_291;
  _ESourceBackendSummarySetupClass* tmp_add_class_292;
  _ESourceCalendar* tmp_add_class_293;
  _ESourceCalendarClass* tmp_add_class_294;
  _ESourceCamel* tmp_add_class_295;
  _ESourceCamelClass* tmp_add_class_296;
  _ESourceClass* tmp_add_class_297;
  _ESourceCollection* tmp_add_class_298;
  _ESourceCollectionClass* tmp_add_class_299;
  _ESourceContacts* tmp_add_class_300;
  _ESourceContactsClass* tmp_add_class_301;
  _ESourceCredentialsProvider* tmp_add_class_302;
  _ESourceCredentialsProviderClass* tmp_add_class_303;
  _ESourceCredentialsProviderImpl* tmp_add_class_304;
  _ESourceCredentialsProviderImplClass* tmp_add_class_305;
  _ESourceCredentialsProviderImplOAuth2* tmp_add_class_306;
  _ESourceCredentialsProviderImplOAuth2Class* tmp_add_class_307;
  _ESourceCredentialsProviderImplPassword* tmp_add_class_308;
  _ESourceCredentialsProviderImplPasswordClass* tmp_add_class_309;
  _ESourceExtension* tmp_add_class_310;
  _ESourceExtensionClass* tmp_add_class_311;
  _ESourceGoa* tmp_add_class_312;
  _ESourceGoaClass* tmp_add_class_313;
  _ESourceLDAP* tmp_add_class_314;
  _ESourceLDAPClass* tmp_add_class_315;
  _ESourceLocal* tmp_add_class_316;
  _ESourceLocalClass* tmp_add_class_317;
  _ESourceMDN* tmp_add_class_318;
  _ESourceMDNClass* tmp_add_class_319;
  _ESourceMailAccount* tmp_add_class_320;
  _ESourceMailAccountClass* tmp_add_class_321;
  _ESourceMailComposition* tmp_add_class_322;
  _ESourceMailCompositionClass* tmp_add_class_323;
  _ESourceMailIdentity* tmp_add_class_324;
  _ESourceMailIdentityClass* tmp_add_class_325;
  _ESourceMailSignature* tmp_add_class_326;
  _ESourceMailSignatureClass* tmp_add_class_327;
  _ESourceMailSubmission* tmp_add_class_328;
  _ESourceMailSubmissionClass* tmp_add_class_329;
  _ESourceMailTransport* tmp_add_class_330;
  _ESourceMailTransportClass* tmp_add_class_331;
  _ESourceMemoList* tmp_add_class_332;
  _ESourceMemoListClass* tmp_add_class_333;
  _ESourceOffline* tmp_add_class_334;
  _ESourceOfflineClass* tmp_add_class_335;
  _ESourceOpenPGP* tmp_add_class_336;
  _ESourceOpenPGPClass* tmp_add_class_337;
  _ESourceProxy* tmp_add_class_338;
  _ESourceProxyClass* tmp_add_class_339;
  _ESourceRefresh* tmp_add_class_340;
  _ESourceRefreshClass* tmp_add_class_341;
  _ESourceRegistry* tmp_add_class_342;
  _ESourceRegistryClass* tmp_add_class_343;
  _ESourceRegistryWatcher* tmp_add_class_344;
  _ESourceRegistryWatcherClass* tmp_add_class_345;
  _ESourceResource* tmp_add_class_346;
  _ESourceResourceClass* tmp_add_class_347;
  _ESourceRevisionGuards* tmp_add_class_348;
  _ESourceRevisionGuardsClass* tmp_add_class_349;
  _ESourceSMIME* tmp_add_class_350;
  _ESourceSMIMEClass* tmp_add_class_351;
  _ESourceSecurity* tmp_add_class_352;
  _ESourceSecurityClass* tmp_add_class_353;
  _ESourceSelectable* tmp_add_class_354;
  _ESourceSelectableClass* tmp_add_class_355;
  _ESourceTaskList* tmp_add_class_356;
  _ESourceTaskListClass* tmp_add_class_357;
  _ESourceUoa* tmp_add_class_358;
  _ESourceUoaClass* tmp_add_class_359;
  _ESourceWeather* tmp_add_class_360;
  _ESourceWeatherClass* tmp_add_class_361;
  _ESourceWebDAVNotes* tmp_add_class_362;
  _ESourceWebDAVNotesClass* tmp_add_class_363;
  _ESourceWebdav* tmp_add_class_364;
  _ESourceWebdavClass* tmp_add_class_365;
  _EUri* tmp_add_class_366;
  _EVCard* tmp_add_class_367;
  _EVCardClass* tmp_add_class_368;
  _EWebDAVAccessControlEntry* tmp_add_class_369;
  _EWebDAVDiscoveredSource* tmp_add_class_370;
  _EWebDAVPrivilege* tmp_add_class_371;
  _EWebDAVPropertyChange* tmp_add_class_372;
  _EWebDAVResource* tmp_add_class_373;
  _EWebDAVSession* tmp_add_class_374;
  _EWebDAVSessionClass* tmp_add_class_375;
  _EXmlDocument* tmp_add_class_376;
  _EXmlDocumentClass* tmp_add_class_377;
  _GActionEntry* tmp_add_class_378;
  _GActionGroupInterface* tmp_add_class_379;
  _GActionInterface* tmp_add_class_380;
  _GActionMapInterface* tmp_add_class_381;
  _GAppInfoIface* tmp_add_class_382;
  _GAppLaunchContext* tmp_add_class_383;
  _GAppLaunchContextClass* tmp_add_class_384;
  _GApplication* tmp_add_class_385;
  _GApplicationClass* tmp_add_class_386;
  _GApplicationCommandLine* tmp_add_class_387;
  _GApplicationCommandLineClass* tmp_add_class_388;
  _GArray* tmp_add_class_389;
  _GAsyncInitableIface* tmp_add_class_390;
  _GAsyncResultIface* tmp_add_class_391;
  _GBufferedInputStream* tmp_add_class_392;
  _GBufferedInputStreamClass* tmp_add_class_393;
  _GBufferedOutputStream* tmp_add_class_394;
  _GBufferedOutputStreamClass* tmp_add_class_395;
  _GByteArray* tmp_add_class_396;
  _GCClosure* tmp_add_class_397;
  _GCancellable* tmp_add_class_398;
  _GCancellableClass* tmp_add_class_399;
  _GCharsetConverterClass* tmp_add_class_400;
  _GClosure* tmp_add_class_401;
  _GClosureNotifyData* tmp_add_class_402;
  _GCompletion* tmp_add_class_403;
  _GCond* tmp_add_class_404;
  _GConverterIface* tmp_add_class_405;
  _GConverterInputStream* tmp_add_class_406;
  _GConverterInputStreamClass* tmp_add_class_407;
  _GConverterOutputStream* tmp_add_class_408;
  _GConverterOutputStreamClass* tmp_add_class_409;
  _GDBusAnnotationInfo* tmp_add_class_410;
  _GDBusArgInfo* tmp_add_class_411;
  _GDBusErrorEntry* tmp_add_class_412;
  _GDBusInterfaceIface* tmp_add_class_413;
  _GDBusInterfaceInfo* tmp_add_class_414;
  _GDBusInterfaceSkeleton* tmp_add_class_415;
  _GDBusInterfaceSkeletonClass* tmp_add_class_416;
  _GDBusInterfaceVTable* tmp_add_class_417;
  _GDBusMethodInfo* tmp_add_class_418;
  _GDBusNodeInfo* tmp_add_class_419;
  _GDBusObjectIface* tmp_add_class_420;
  _GDBusObjectManagerClient* tmp_add_class_421;
  _GDBusObjectManagerClientClass* tmp_add_class_422;
  _GDBusObjectManagerIface* tmp_add_class_423;
  _GDBusObjectManagerServer* tmp_add_class_424;
  _GDBusObjectManagerServerClass* tmp_add_class_425;
  _GDBusObjectProxy* tmp_add_class_426;
  _GDBusObjectProxyClass* tmp_add_class_427;
  _GDBusObjectSkeleton* tmp_add_class_428;
  _GDBusObjectSkeletonClass* tmp_add_class_429;
  _GDBusPropertyInfo* tmp_add_class_430;
  _GDBusProxy* tmp_add_class_431;
  _GDBusProxyClass* tmp_add_class_432;
  _GDBusSignalInfo* tmp_add_class_433;
  _GDBusSubtreeVTable* tmp_add_class_434;
  _GDataInputStream* tmp_add_class_435;
  _GDataInputStreamClass* tmp_add_class_436;
  _GDataOutputStream* tmp_add_class_437;
  _GDataOutputStreamClass* tmp_add_class_438;
  _GDatagramBasedInterface* tmp_add_class_439;
  _GDate* tmp_add_class_440;
  _GDebugControllerDBus* tmp_add_class_441;
  _GDebugControllerDBusClass* tmp_add_class_442;
  _GDebugControllerInterface* tmp_add_class_443;
  _GDebugKey* tmp_add_class_444;
  _GDoubleIEEE754* tmp_add_class_445;
  _GDriveIface* tmp_add_class_446;
  _GDtlsClientConnectionInterface* tmp_add_class_447;
  _GDtlsConnectionInterface* tmp_add_class_448;
  _GDtlsServerConnectionInterface* tmp_add_class_449;
  _GEmblemedIcon* tmp_add_class_450;
  _GEmblemedIconClass* tmp_add_class_451;
  _GEnumClass* tmp_add_class_452;
  _GEnumValue* tmp_add_class_453;
  _GError* tmp_add_class_454;
  _GFileAttributeInfo* tmp_add_class_455;
  _GFileAttributeInfoList* tmp_add_class_456;
  _GFileEnumerator* tmp_add_class_457;
  _GFileEnumeratorClass* tmp_add_class_458;
  _GFileIOStream* tmp_add_class_459;
  _GFileIOStreamClass* tmp_add_class_460;
  _GFileIface* tmp_add_class_461;
  _GFileInputStream* tmp_add_class_462;
  _GFileInputStreamClass* tmp_add_class_463;
  _GFileMonitor* tmp_add_class_464;
  _GFileMonitorClass* tmp_add_class_465;
  _GFileOutputStream* tmp_add_class_466;
  _GFileOutputStreamClass* tmp_add_class_467;
  _GFilenameCompleterClass* tmp_add_class_468;
  _GFilterInputStream* tmp_add_class_469;
  _GFilterInputStreamClass* tmp_add_class_470;
  _GFilterOutputStream* tmp_add_class_471;
  _GFilterOutputStreamClass* tmp_add_class_472;
  _GFlagsClass* tmp_add_class_473;
  _GFlagsValue* tmp_add_class_474;
  _GFloatIEEE754* tmp_add_class_475;
  _GHashTableIter* tmp_add_class_476;
  _GHook* tmp_add_class_477;
  _GHookList* tmp_add_class_478;
  _GIOChannel* tmp_add_class_479;
  _GIOFuncs* tmp_add_class_480;
  _GIOStream* tmp_add_class_481;
  _GIOStreamClass* tmp_add_class_482;
  _GIconIface* tmp_add_class_483;
  _GInetAddress* tmp_add_class_484;
  _GInetAddressClass* tmp_add_class_485;
  _GInetAddressMask* tmp_add_class_486;
  _GInetAddressMaskClass* tmp_add_class_487;
  _GInetSocketAddress* tmp_add_class_488;
  _GInetSocketAddressClass* tmp_add_class_489;
  _GInitableIface* tmp_add_class_490;
  _GInputMessage* tmp_add_class_491;
  _GInputStream* tmp_add_class_492;
  _GInputStreamClass* tmp_add_class_493;
  _GInputVector* tmp_add_class_494;
  _GInterfaceInfo* tmp_add_class_495;
  _GList* tmp_add_class_496;
  _GListModelInterface* tmp_add_class_497;
  _GLoadableIconIface* tmp_add_class_498;
  _GLogField* tmp_add_class_499;
  _GMarkupParser* tmp_add_class_500;
  _GMemVTable* tmp_add_class_501;
  _GMemoryInputStream* tmp_add_class_502;
  _GMemoryInputStreamClass* tmp_add_class_503;
  _GMemoryMonitorInterface* tmp_add_class_504;
  _GMemoryOutputStream* tmp_add_class_505;
  _GMemoryOutputStreamClass* tmp_add_class_506;
  _GMenuAttributeIter* tmp_add_class_507;
  _GMenuAttributeIterClass* tmp_add_class_508;
  _GMenuLinkIter* tmp_add_class_509;
  _GMenuLinkIterClass* tmp_add_class_510;
  _GMenuModel* tmp_add_class_511;
  _GMenuModelClass* tmp_add_class_512;
  _GMountIface* tmp_add_class_513;
  _GMountOperation* tmp_add_class_514;
  _GMountOperationClass* tmp_add_class_515;
  _GMutex* tmp_add_class_516;
  _GNativeSocketAddress* tmp_add_class_517;
  _GNativeSocketAddressClass* tmp_add_class_518;
  _GNativeVolumeMonitor* tmp_add_class_519;
  _GNativeVolumeMonitorClass* tmp_add_class_520;
  _GNetworkAddress* tmp_add_class_521;
  _GNetworkAddressClass* tmp_add_class_522;
  _GNetworkMonitorInterface* tmp_add_class_523;
  _GNetworkService* tmp_add_class_524;
  _GNetworkServiceClass* tmp_add_class_525;
  _GNode* tmp_add_class_526;
  _GObject* tmp_add_class_527;
  _GObjectClass* tmp_add_class_528;
  _GObjectConstructParam* tmp_add_class_529;
  _GOnce* tmp_add_class_530;
  _GOptionEntry* tmp_add_class_531;
  _GOutputMessage* tmp_add_class_532;
  _GOutputStream* tmp_add_class_533;
  _GOutputStreamClass* tmp_add_class_534;
  _GOutputVector* tmp_add_class_535;
  _GParamSpec* tmp_add_class_536;
  _GParamSpecBoolean* tmp_add_class_537;
  _GParamSpecBoxed* tmp_add_class_538;
  _GParamSpecChar* tmp_add_class_539;
  _GParamSpecClass* tmp_add_class_540;
  _GParamSpecDouble* tmp_add_class_541;
  _GParamSpecEnum* tmp_add_class_542;
  _GParamSpecFlags* tmp_add_class_543;
  _GParamSpecFloat* tmp_add_class_544;
  _GParamSpecGType* tmp_add_class_545;
  _GParamSpecInt* tmp_add_class_546;
  _GParamSpecInt64* tmp_add_class_547;
  _GParamSpecLong* tmp_add_class_548;
  _GParamSpecObject* tmp_add_class_549;
  _GParamSpecOverride* tmp_add_class_550;
  _GParamSpecParam* tmp_add_class_551;
  _GParamSpecPointer* tmp_add_class_552;
  _GParamSpecString* tmp_add_class_553;
  _GParamSpecTypeInfo* tmp_add_class_554;
  _GParamSpecUChar* tmp_add_class_555;
  _GParamSpecUInt* tmp_add_class_556;
  _GParamSpecUInt64* tmp_add_class_557;
  _GParamSpecULong* tmp_add_class_558;
  _GParamSpecUnichar* tmp_add_class_559;
  _GParamSpecValueArray* tmp_add_class_560;
  _GParamSpecVariant* tmp_add_class_561;
  _GParameter* tmp_add_class_562;
  _GPathBuf* tmp_add_class_563;
  _GPermission* tmp_add_class_564;
  _GPermissionClass* tmp_add_class_565;
  _GPollFD* tmp_add_class_566;
  _GPollableInputStreamInterface* tmp_add_class_567;
  _GPollableOutputStreamInterface* tmp_add_class_568;
  _GPowerProfileMonitorInterface* tmp_add_class_569;
  _GPrivate* tmp_add_class_570;
  _GProxyAddress* tmp_add_class_571;
  _GProxyAddressClass* tmp_add_class_572;
  _GProxyAddressEnumerator* tmp_add_class_573;
  _GProxyAddressEnumeratorClass* tmp_add_class_574;
  _GProxyInterface* tmp_add_class_575;
  _GProxyResolverInterface* tmp_add_class_576;
  _GPtrArray* tmp_add_class_577;
  _GQueue* tmp_add_class_578;
  _GRWLock* tmp_add_class_579;
  _GRecMutex* tmp_add_class_580;
  _GRemoteActionGroupInterface* tmp_add_class_581;
  _GResolver* tmp_add_class_582;
  _GResolverClass* tmp_add_class_583;
  _GSList* tmp_add_class_584;
  _GScanner* tmp_add_class_585;
  _GScannerConfig* tmp_add_class_586;
  _GSeekableIface* tmp_add_class_587;
  _GSettings* tmp_add_class_588;
  _GSettingsClass* tmp_add_class_589;
  _GSignalInvocationHint* tmp_add_class_590;
  _GSignalQuery* tmp_add_class_591;
  _GSimpleActionGroup* tmp_add_class_592;
  _GSimpleActionGroupClass* tmp_add_class_593;
  _GSimpleProxyResolver* tmp_add_class_594;
  _GSimpleProxyResolverClass* tmp_add_class_595;
  _GSocket* tmp_add_class_596;
  _GSocketAddress* tmp_add_class_597;
  _GSocketAddressClass* tmp_add_class_598;
  _GSocketAddressEnumerator* tmp_add_class_599;
  _GSocketAddressEnumeratorClass* tmp_add_class_600;
  _GSocketClass* tmp_add_class_601;
  _GSocketClient* tmp_add_class_602;
  _GSocketClientClass* tmp_add_class_603;
  _GSocketConnectableIface* tmp_add_class_604;
  _GSocketConnection* tmp_add_class_605;
  _GSocketConnectionClass* tmp_add_class_606;
  _GSocketControlMessage* tmp_add_class_607;
  _GSocketControlMessageClass* tmp_add_class_608;
  _GSocketListener* tmp_add_class_609;
  _GSocketListenerClass* tmp_add_class_610;
  _GSocketService* tmp_add_class_611;
  _GSocketServiceClass* tmp_add_class_612;
  _GSource* tmp_add_class_613;
  _GSourceCallbackFuncs* tmp_add_class_614;
  _GSourceFuncs* tmp_add_class_615;
  _GStaticPrivate* tmp_add_class_616;
  _GStaticRWLock* tmp_add_class_617;
  _GStaticRecMutex* tmp_add_class_618;
  _GStaticResource* tmp_add_class_619;
  _GString* tmp_add_class_620;
  _GTcpConnection* tmp_add_class_621;
  _GTcpConnectionClass* tmp_add_class_622;
  _GTcpWrapperConnection* tmp_add_class_623;
  _GTcpWrapperConnectionClass* tmp_add_class_624;
  _GThread* tmp_add_class_625;
  _GThreadFunctions* tmp_add_class_626;
  _GThreadPool* tmp_add_class_627;
  _GThreadedSocketService* tmp_add_class_628;
  _GThreadedSocketServiceClass* tmp_add_class_629;
  _GTimeVal* tmp_add_class_630;
  _GTlsBackendInterface* tmp_add_class_631;
  _GTlsCertificate* tmp_add_class_632;
  _GTlsCertificateClass* tmp_add_class_633;
  _GTlsClientConnectionInterface* tmp_add_class_634;
  _GTlsConnection* tmp_add_class_635;
  _GTlsConnectionClass* tmp_add_class_636;
  _GTlsDatabase* tmp_add_class_637;
  _GTlsDatabaseClass* tmp_add_class_638;
  _GTlsFileDatabaseInterface* tmp_add_class_639;
  _GTlsInteraction* tmp_add_class_640;
  _GTlsInteractionClass* tmp_add_class_641;
  _GTlsPassword* tmp_add_class_642;
  _GTlsPasswordClass* tmp_add_class_643;
  _GTlsServerConnectionInterface* tmp_add_class_644;
  _GTokenValue* tmp_add_class_645;
  _GTrashStack* tmp_add_class_646;
  _GTuples* tmp_add_class_647;
  _GTypeClass* tmp_add_class_648;
  _GTypeFundamentalInfo* tmp_add_class_649;
  _GTypeInfo* tmp_add_class_650;
  _GTypeInstance* tmp_add_class_651;
  _GTypeInterface* tmp_add_class_652;
  _GTypeModule* tmp_add_class_653;
  _GTypeModuleClass* tmp_add_class_654;
  _GTypePluginClass* tmp_add_class_655;
  _GTypeQuery* tmp_add_class_656;
  _GTypeValueTable* tmp_add_class_657;
  _GUnixConnection* tmp_add_class_658;
  _GUnixConnectionClass* tmp_add_class_659;
  _GUnixCredentialsMessage* tmp_add_class_660;
  _GUnixCredentialsMessageClass* tmp_add_class_661;
  _GUnixFDList* tmp_add_class_662;
  _GUnixFDListClass* tmp_add_class_663;
  _GUnixSocketAddress* tmp_add_class_664;
  _GUnixSocketAddressClass* tmp_add_class_665;
  _GUriParamsIter* tmp_add_class_666;
  _GValue* tmp_add_class_667;
  _GValueArray* tmp_add_class_668;
  _GVariantBuilder* tmp_add_class_669;
  _GVariantDict* tmp_add_class_670;
  _GVariantIter* tmp_add_class_671;
  _GVfs* tmp_add_class_672;
  _GVfsClass* tmp_add_class_673;
  _GVolumeIface* tmp_add_class_674;
  _GVolumeMonitor* tmp_add_class_675;
  _GVolumeMonitorClass* tmp_add_class_676;
  _GZlibCompressorClass* tmp_add_class_677;
  _GZlibDecompressorClass* tmp_add_class_678;
  _G_fpos64_t* tmp_add_class_679;
  _G_fpos_t* tmp_add_class_680;
  _IO_cookie_io_functions_t* tmp_add_class_681;
  _JsonBuilder* tmp_add_class_682;
  _JsonBuilderClass* tmp_add_class_683;
  _JsonGenerator* tmp_add_class_684;
  _JsonGeneratorClass* tmp_add_class_685;
  _JsonParser* tmp_add_class_686;
  _JsonParserClass* tmp_add_class_687;
  _JsonReader* tmp_add_class_688;
  _JsonReaderClass* tmp_add_class_689;
  _JsonSerializableIface* tmp_add_class_690;
  _SoupAuth* tmp_add_class_691;
  _SoupAuthClass* tmp_add_class_692;
  _SoupAuthDomain* tmp_add_class_693;
  _SoupAuthDomainClass* tmp_add_class_694;
  _SoupCache* tmp_add_class_695;
  _SoupCacheClass* tmp_add_class_696;
  _SoupCookieJar* tmp_add_class_697;
  _SoupCookieJarClass* tmp_add_class_698;
  _SoupHSTSEnforcer* tmp_add_class_699;
  _SoupHSTSEnforcerClass* tmp_add_class_700;
  _SoupServer* tmp_add_class_701;
  _SoupServerClass* tmp_add_class_702;
  _SoupSession* tmp_add_class_703;
  _SoupSessionClass* tmp_add_class_704;
  _SoupWebsocketExtension* tmp_add_class_705;
  _SoupWebsocketExtensionClass* tmp_add_class_706;
  _camel_header_address* tmp_add_class_707;
  _camel_header_param* tmp_add_class_708;
  _uconv_t* tmp_add_class_709;
  _xlinkHandler* tmp_add_class_710;
  _xmlAttr* tmp_add_class_711;
  _xmlAttribute* tmp_add_class_712;
  _xmlBuffer* tmp_add_class_713;
  _xmlCharEncodingHandler* tmp_add_class_714;
  _xmlDOMWrapCtxt* tmp_add_class_715;
  _xmlDoc* tmp_add_class_716;
  _xmlDtd* tmp_add_class_717;
  _xmlElement* tmp_add_class_718;
  _xmlElementContent* tmp_add_class_719;
  _xmlEntity* tmp_add_class_720;
  _xmlEnumeration* tmp_add_class_721;
  _xmlError* tmp_add_class_722;
  _xmlGlobalState* tmp_add_class_723;
  _xmlID* tmp_add_class_724;
  _xmlNode* tmp_add_class_725;
  _xmlNodeSet* tmp_add_class_726;
  _xmlNotation* tmp_add_class_727;
  _xmlNs* tmp_add_class_728;
  _xmlOutputBuffer* tmp_add_class_729;
  _xmlParserCtxt* tmp_add_class_730;
  _xmlParserInput* tmp_add_class_731;
  _xmlParserInputBuffer* tmp_add_class_732;
  _xmlParserNodeInfo* tmp_add_class_733;
  _xmlParserNodeInfoSeq* tmp_add_class_734;
  _xmlRef* tmp_add_class_735;
  _xmlSAXHandler* tmp_add_class_736;
  _xmlSAXHandlerV1* tmp_add_class_737;
  _xmlSAXLocator* tmp_add_class_738;
  _xmlValidCtxt* tmp_add_class_739;
  _xmlXPathAxis* tmp_add_class_740;
  _xmlXPathContext* tmp_add_class_741;
  _xmlXPathFunct* tmp_add_class_742;
  _xmlXPathObject* tmp_add_class_743;
  _xmlXPathParserContext* tmp_add_class_744;
  _xmlXPathType* tmp_add_class_745;
  _xmlXPathVariable* tmp_add_class_746;
  addrinfo* tmp_add_class_747;
  cmsghdr* tmp_add_class_748;
  f_owner_ex* tmp_add_class_749;
  file_handle* tmp_add_class_750;
  flock64* tmp_add_class_751;
  gaicb* tmp_add_class_752;
  group_filter* tmp_add_class_753;
  group_req* tmp_add_class_754;
  group_source_req* tmp_add_class_755;
  hostent* tmp_add_class_756;
  in6_addr* tmp_add_class_757;
  in6_pktinfo* tmp_add_class_758;
  in_addr* tmp_add_class_759;
  in_pktinfo* tmp_add_class_760;
  iovec* tmp_add_class_761;
  ip6_mtuinfo* tmp_add_class_762;
  ip_mreq* tmp_add_class_763;
  ip_mreq_source* tmp_add_class_764;
  ip_mreqn* tmp_add_class_765;
  ip_msfilter* tmp_add_class_766;
  ip_opts* tmp_add_class_767;
  ipv6_mreq* tmp_add_class_768;
  linger* tmp_add_class_769;
  mmsghdr* tmp_add_class_770;
  msghdr* tmp_add_class_771;
  netent* tmp_add_class_772;
  osockaddr* tmp_add_class_773;
  protoent* tmp_add_class_774;
  rpcent* tmp_add_class_775;
  servent* tmp_add_class_776;
  sockaddr* tmp_add_class_777;
  sockaddr_in* tmp_add_class_778;
  sockaddr_in6* tmp_add_class_779;
  sockaddr_storage* tmp_add_class_780;
  statx_timestamp* tmp_add_class_781;
  ucontext_t* tmp_add_class_782;
  ucred* tmp_add_class_783;

The GCC parameters:
  gcc -fdump-lang-raw -fkeep-inline-functions -c -x c++ -fpermissive -w "/tmp/5XQWPvISTj/dump1.h"  -I/usr/include/libxml2 -I/usr/include/libsoup-3.0 -I/usr/include/json-glib-1.0 -I/usr/include/glib-2.0 -I/usr/include/evolution-data-server -I/lib/arm-linux-gnueabihf/glib-2.0/include

