Using GCC 13 (arm-linux-gnueabihf, target: arm)
WARNING: May not work properly with GCC 4.8.[0-2], 6.* and higher due to bug #78040 in GCC. Please try other GCC versions with the help of --gcc-path=PATH option or create ABI dumps by ABI Dumper tool instead to avoid using GCC. Test selected GCC version first by -test option.
Checking header(s) lfs ...
Temporary header file '/tmp/tipuVDJC3_/dump1.h' with the following content will be compiled to create GCC translation unit dump:

  // add defines
  #define __STDC_VERSION__ 201710L
#define _FILE_OFFSET_BITS 64
#define _GXX_NULLPTR_T
#define CLUTTER_ENABLE_COMPOSITOR_API 1
#define _REGEX_NELTS(n)
#define _Atomic
#define PACKED
#ifdef __cplusplus
// C17 compat layer
#define _Alignof(type) alignof(type)
#endif
#define getaddrinfo_a(a,b,c,d)

  // add includes
  #include "/usr/include/singular/factory/cf_gmp.h"
  #include "/usr/include/singular/factory/factory.h"
  #include "/usr/include/singular/factory/globaldefs.h"
  #include "/usr/include/singular/factory/si_log2.h"
  #include "/usr/include/singular/factory/templates/ftmpl_afactor.h"
  #include "/usr/include/singular/factory/templates/ftmpl_array.h"
  #include "/usr/include/singular/factory/templates/ftmpl_factor.h"
  #include "/usr/include/singular/factory/templates/ftmpl_list.h"
  #include "/usr/include/singular/factory/templates/ftmpl_matrix.h"
  #include "/usr/include/singular/omalloc/omAllocDecl.h"
  #include "/usr/include/singular/omalloc/omAllocFunc.h"
  #include "/usr/include/singular/omalloc/omAllocPrivate.h"
  #include "/usr/include/singular/omalloc/omAllocSystem.h"
  #include "/usr/include/singular/omalloc/omBin.h"
  #include "/usr/include/singular/omalloc/omBinPage.h"
  #include "/usr/include/singular/omalloc/omDebug.h"
  #include "/usr/include/singular/omalloc/omDerivedConfig.h"
  #include "/usr/include/singular/omalloc/omError.h"
  #include "/usr/include/singular/omalloc/omGetBackTrace.h"
  #include "/usr/include/singular/omalloc/omInline.h"
  #include "/usr/include/singular/omalloc/omInlineDecl.h"
  #include "/usr/include/singular/omalloc/omList.h"
  #include "/usr/include/singular/omalloc/omMemOps.h"
  #include "/usr/include/singular/omalloc/omOpts.h"
  #include "/usr/include/singular/omalloc/omRet2Info.h"
  #include "/usr/include/singular/omalloc/omStats.h"
  #include "/usr/include/singular/omalloc/omStructs.h"
  #include "/usr/include/singular/omalloc/omTables.h"
  #include "/usr/include/singular/omalloc/omalloc.h"
  #include "/usr/include/singular/omalloc/omallocClass.h"
  #include "/usr/include/singular/resources/feFopen.h"
  #include "/usr/include/singular/resources/feResource.h"
  #include "/usr/include/singular/resources/fegetopt.h"
  #include "/usr/include/singular/resources/omFindExec.h"
  #include "/usr/include/singular/singular/Singular/attrib.h"
  #include "/usr/include/singular/singular/Singular/blackbox.h"
  #include "/usr/include/singular/singular/Singular/cntrlc.h"
  #include "/usr/include/singular/singular/Singular/countedref.h"
  #include "/usr/include/singular/singular/Singular/eigenval_ip.h"
  #include "/usr/include/singular/singular/Singular/feOpt.h"
  #include "/usr/include/singular/singular/Singular/feOptTab.h"
  #include "/usr/include/singular/singular/Singular/fehelp.h"
  #include "/usr/include/singular/singular/Singular/fevoices.h"
  #include "/usr/include/singular/singular/Singular/fglm.h"
  #include "/usr/include/singular/singular/Singular/gms.h"
  #include "/usr/include/singular/singular/Singular/grammar.h"
  #include "/usr/include/singular/singular/Singular/idrec.h"
  #include "/usr/include/singular/singular/Singular/ipconv.h"
  #include "/usr/include/singular/singular/Singular/ipid.h"
  #include "/usr/include/singular/singular/Singular/ipprint.h"
  #include "/usr/include/singular/singular/Singular/ipshell.h"
  #include "/usr/include/singular/singular/Singular/libparse.h"
  #include "/usr/include/singular/singular/Singular/libsingular.h"
  #include "/usr/include/singular/singular/Singular/linearAlgebra_ip.h"
  #include "/usr/include/singular/singular/Singular/links/dbm_sl.h"
  #include "/usr/include/singular/singular/Singular/links/ndbm.h"
  #include "/usr/include/singular/singular/Singular/links/pipeLink.h"
  #include "/usr/include/singular/singular/Singular/links/silink.h"
  #include "/usr/include/singular/singular/Singular/links/simpleipc.h"
  #include "/usr/include/singular/singular/Singular/links/sing_dbm.h"
  #include "/usr/include/singular/singular/Singular/links/slInit.h"
  #include "/usr/include/singular/singular/Singular/links/ssiLink.h"
  #include "/usr/include/singular/singular/Singular/lists.h"
  #include "/usr/include/singular/singular/Singular/locals.h"
  #include "/usr/include/singular/singular/Singular/maps_ip.h"
  #include "/usr/include/singular/singular/Singular/misc_ip.h"
  #include "/usr/include/singular/singular/Singular/mmalloc.h"
  #include "/usr/include/singular/singular/Singular/mod_lib.h"
  #include "/usr/include/singular/singular/Singular/newstruct.h"
  #include "/usr/include/singular/singular/Singular/number2.h"
  #include "/usr/include/singular/singular/Singular/pcv.h"
  #include "/usr/include/singular/singular/Singular/pyobject_setup.h"
  #include "/usr/include/singular/singular/Singular/sdb.h"
  #include "/usr/include/singular/singular/Singular/stype.h"
  #include "/usr/include/singular/singular/Singular/subexpr.h"
  #include "/usr/include/singular/singular/Singular/svd/bdsvd.h"
  #include "/usr/include/singular/singular/Singular/svd/bidiagonal.h"
  #include "/usr/include/singular/singular/Singular/svd/blas.h"
  #include "/usr/include/singular/singular/Singular/svd/libs/amp.h"
  #include "/usr/include/singular/singular/Singular/svd/libs/ap.h"
  #include "/usr/include/singular/singular/Singular/svd/libs/stdafx.h"
  #include "/usr/include/singular/singular/Singular/svd/lq.h"
  #include "/usr/include/singular/singular/Singular/svd/qr.h"
  #include "/usr/include/singular/singular/Singular/svd/reflections.h"
  #include "/usr/include/singular/singular/Singular/svd/rotations.h"
  #include "/usr/include/singular/singular/Singular/svd/svd.h"
  #include "/usr/include/singular/singular/Singular/svd_si.h"
  #include "/usr/include/singular/singular/Singular/table.h"
  #include "/usr/include/singular/singular/Singular/tok.h"
  #include "/usr/include/singular/singular/Singular/walk.h"
  #include "/usr/include/singular/singular/coeffs/Enumerator.h"
  #include "/usr/include/singular/singular/coeffs/bigintmat.h"
  #include "/usr/include/singular/singular/coeffs/coeffs.h"
  #include "/usr/include/singular/singular/coeffs/ffields.h"
  #include "/usr/include/singular/singular/coeffs/flintcf_Q.h"
  #include "/usr/include/singular/singular/coeffs/flintcf_Qrat.h"
  #include "/usr/include/singular/singular/coeffs/flintcf_Zn.h"
  #include "/usr/include/singular/singular/coeffs/gnumpc.h"
  #include "/usr/include/singular/singular/coeffs/gnumpfl.h"
  #include "/usr/include/singular/singular/coeffs/longrat.h"
  #include "/usr/include/singular/singular/coeffs/modulop.h"
  #include "/usr/include/singular/singular/coeffs/modulop_inl.h"
  #include "/usr/include/singular/singular/coeffs/mpr_complex.h"
  #include "/usr/include/singular/singular/coeffs/mpr_global.h"
  #include "/usr/include/singular/singular/coeffs/ntupel.h"
  #include "/usr/include/singular/singular/coeffs/numbers.h"
  #include "/usr/include/singular/singular/coeffs/rintegers.h"
  #include "/usr/include/singular/singular/coeffs/rmodulo2m.h"
  #include "/usr/include/singular/singular/coeffs/rmodulon.h"
  #include "/usr/include/singular/singular/coeffs/shortfl.h"
  #include "/usr/include/singular/singular/coeffs/si_gmp.h"
  #include "/usr/include/singular/singular/kernel/GBEngine/f5data.h"
  #include "/usr/include/singular/singular/kernel/GBEngine/f5gb.h"
  #include "/usr/include/singular/singular/kernel/GBEngine/f5lists.h"
  #include "/usr/include/singular/singular/kernel/GBEngine/janet.h"
  #include "/usr/include/singular/singular/kernel/GBEngine/kChinese.h"
  #include "/usr/include/singular/singular/kernel/GBEngine/kInline.h"
  #include "/usr/include/singular/singular/kernel/GBEngine/khstd.h"
  #include "/usr/include/singular/singular/kernel/GBEngine/kstd1.h"
  #include "/usr/include/singular/singular/kernel/GBEngine/kstdfac.h"
  #include "/usr/include/singular/singular/kernel/GBEngine/kutil.h"
  #include "/usr/include/singular/singular/kernel/GBEngine/kverify.h"
  #include "/usr/include/singular/singular/kernel/GBEngine/nc.h"
  #include "/usr/include/singular/singular/kernel/GBEngine/ratgring.h"
  #include "/usr/include/singular/singular/kernel/GBEngine/ringgb.h"
  #include "/usr/include/singular/singular/kernel/GBEngine/shiftgb.h"
  #include "/usr/include/singular/singular/kernel/GBEngine/syz.h"
  #include "/usr/include/singular/singular/kernel/GBEngine/tgb.h"
  #include "/usr/include/singular/singular/kernel/GBEngine/tgb_internal.h"
  #include "/usr/include/singular/singular/kernel/GBEngine/tgbgauss.h"
  #include "/usr/include/singular/singular/kernel/GBEngine/units.h"
  #include "/usr/include/singular/singular/kernel/combinatorics/hilb.h"
  #include "/usr/include/singular/singular/kernel/combinatorics/hutil.h"
  #include "/usr/include/singular/singular/kernel/combinatorics/stairc.h"
  #include "/usr/include/singular/singular/kernel/digitech.h"
  #include "/usr/include/singular/singular/kernel/fast_mult.h"
  #include "/usr/include/singular/singular/kernel/fglm/fglm.h"
  #include "/usr/include/singular/singular/kernel/fglm/fglmgauss.h"
  #include "/usr/include/singular/singular/kernel/fglm/fglmvec.h"
  #include "/usr/include/singular/singular/kernel/groebner_walk/walkMain.h"
  #include "/usr/include/singular/singular/kernel/groebner_walk/walkProc.h"
  #include "/usr/include/singular/singular/kernel/groebner_walk/walkSupport.h"
  #include "/usr/include/singular/singular/kernel/ideals.h"
  #include "/usr/include/singular/singular/kernel/linear_algebra/Cache.h"
  #include "/usr/include/singular/singular/kernel/linear_algebra/CacheImplementation.h"
  #include "/usr/include/singular/singular/kernel/linear_algebra/Minor.h"
  #include "/usr/include/singular/singular/kernel/linear_algebra/MinorInterface.h"
  #include "/usr/include/singular/singular/kernel/linear_algebra/MinorProcessor.h"
  #include "/usr/include/singular/singular/kernel/linear_algebra/eigenval.h"
  #include "/usr/include/singular/singular/kernel/linear_algebra/interpolation.h"
  #include "/usr/include/singular/singular/kernel/linear_algebra/linearAlgebra.h"
  #include "/usr/include/singular/singular/kernel/linear_algebra/minpoly.h"
  #include "/usr/include/singular/singular/kernel/maps/fast_maps.h"
  #include "/usr/include/singular/singular/kernel/maps/find_perm.h"
  #include "/usr/include/singular/singular/kernel/maps/gen_maps.h"
  #include "/usr/include/singular/singular/kernel/mod2.h"
  #include "/usr/include/singular/singular/kernel/numeric/mpr_base.h"
  #include "/usr/include/singular/singular/kernel/numeric/mpr_inout.h"
  #include "/usr/include/singular/singular/kernel/numeric/mpr_numeric.h"
  #include "/usr/include/singular/singular/kernel/oswrapper/feread.h"
  #include "/usr/include/singular/singular/kernel/oswrapper/rlimit.h"
  #include "/usr/include/singular/singular/kernel/oswrapper/timer.h"
  #include "/usr/include/singular/singular/kernel/oswrapper/vspace.h"
  #include "/usr/include/singular/singular/kernel/polys.h"
  #include "/usr/include/singular/singular/kernel/preimage.h"
  #include "/usr/include/singular/singular/kernel/spectrum/GMPrat.h"
  #include "/usr/include/singular/singular/kernel/spectrum/kmatrix.h"
  #include "/usr/include/singular/singular/kernel/spectrum/multicnt.h"
  #include "/usr/include/singular/singular/kernel/spectrum/npolygon.h"
  #include "/usr/include/singular/singular/kernel/spectrum/semic.h"
  #include "/usr/include/singular/singular/kernel/spectrum/spectrum.h"
  #include "/usr/include/singular/singular/kernel/spectrum/splist.h"
  #include "/usr/include/singular/singular/kernel/structs.h"
  #include "/usr/include/singular/singular/misc/auxiliary.h"
  #include "/usr/include/singular/singular/misc/distrib.h"
  #include "/usr/include/singular/singular/misc/int64vec.h"
  #include "/usr/include/singular/singular/misc/intvec.h"
  #include "/usr/include/singular/singular/misc/mylimits.h"
  #include "/usr/include/singular/singular/misc/options.h"
  #include "/usr/include/singular/singular/misc/prime.h"
  #include "/usr/include/singular/singular/misc/sirandom.h"
  #include "/usr/include/singular/singular/polys/PolyEnumerator.h"
  #include "/usr/include/singular/singular/polys/clapconv.h"
  #include "/usr/include/singular/singular/polys/clapsing.h"
  #include "/usr/include/singular/singular/polys/ext_fields/algext.h"
  #include "/usr/include/singular/singular/polys/ext_fields/transext.h"
  #include "/usr/include/singular/singular/polys/flint_mpoly.h"
  #include "/usr/include/singular/singular/polys/flintconv.h"
  #include "/usr/include/singular/singular/polys/kbuckets.h"
  #include "/usr/include/singular/singular/polys/matpol.h"
  #include "/usr/include/singular/singular/polys/mod_raw.h"
  #include "/usr/include/singular/singular/polys/monomials/maps.h"
  #include "/usr/include/singular/singular/polys/monomials/monomials.h"
  #include "/usr/include/singular/singular/polys/monomials/p_polys.h"
  #include "/usr/include/singular/singular/polys/monomials/ring.h"
  #include "/usr/include/singular/singular/polys/nc/gb_hack.h"
  #include "/usr/include/singular/singular/polys/nc/nc.h"
  #include "/usr/include/singular/singular/polys/nc/ncSACache.h"
  #include "/usr/include/singular/singular/polys/nc/ncSAFormula.h"
  #include "/usr/include/singular/singular/polys/nc/ncSAMult.h"
  #include "/usr/include/singular/singular/polys/nc/sca.h"
  #include "/usr/include/singular/singular/polys/nc/summator.h"
  #include "/usr/include/singular/singular/polys/operations/pShallowCopyDelete.h"
  #include "/usr/include/singular/singular/polys/pCoeff.h"
  #include "/usr/include/singular/singular/polys/prCopy.h"
  #include "/usr/include/singular/singular/polys/sbuckets.h"
  #include "/usr/include/singular/singular/polys/shiftop.h"
  #include "/usr/include/singular/singular/polys/simpleideals.h"
  #include "/usr/include/singular/singular/polys/sparsmat.h"
  #include "/usr/include/singular/singular/polys/templates/p_MemAdd.h"
  #include "/usr/include/singular/singular/polys/templates/p_MemCmp.h"
  #include "/usr/include/singular/singular/polys/templates/p_Procs.h"
  #include "/usr/include/singular/singular/polys/weight.h"
  #include "/usr/include/singular/singular/reporter/reporter.h"
  #include "/usr/include/singular/singular/reporter/s_buff.h"
  #include "/usr/include/singular/singular/reporter/si_signals.h"

  // add namespaces
  namespace amp{typedef int tmp_add_type_1;}
  amp::tmp_add_type_1 tmp_add_func_1(){return 0;};
  namespace ap{typedef int tmp_add_type_2;}
  ap::tmp_add_type_2 tmp_add_func_2(){return 0;};
  namespace bdsvd{typedef int tmp_add_type_3;}
  bdsvd::tmp_add_type_3 tmp_add_func_3(){return 0;};
  namespace bidiagonal{typedef int tmp_add_type_4;}
  bidiagonal::tmp_add_type_4 tmp_add_func_4(){return 0;};
  namespace blas{typedef int tmp_add_type_5;}
  blas::tmp_add_type_5 tmp_add_func_5(){return 0;};
  namespace lq{typedef int tmp_add_type_6;}
  lq::tmp_add_type_6 tmp_add_func_6(){return 0;};
  namespace qr{typedef int tmp_add_type_7;}
  qr::tmp_add_type_7 tmp_add_func_7(){return 0;};
  namespace reflections{typedef int tmp_add_type_8;}
  reflections::tmp_add_type_8 tmp_add_func_8(){return 0;};
  namespace rotations{typedef int tmp_add_type_9;}
  rotations::tmp_add_type_9 tmp_add_func_9(){return 0;};
  namespace svd{typedef int tmp_add_type_10;}
  svd::tmp_add_type_10 tmp_add_func_10(){return 0;};
  namespace vspace{typedef int tmp_add_type_11;}
  vspace::tmp_add_type_11 tmp_add_func_11(){return 0;};
  namespace vspace{namespace internals{typedef int tmp_add_type_12;}}
  vspace::internals::tmp_add_type_12 tmp_add_func_12(){return 0;};

The GCC parameters:
  gcc -fdump-lang-raw -fkeep-inline-functions -c -x c++ -fpermissive -w "/tmp/tipuVDJC3_/dump1.h"  -I/usr/include/singular/singular/Singular/svd/libs -I/usr/include/singular -I/usr/include/singular/singular -I/usr/include/arm-linux-gnueabihf/singular -I/usr/include/arm-linux-gnueabihf/singular/singular

In file included from /tmp/tipuVDJC3_/dump1.h:216:
/usr/include/singular/singular/polys/nc/ncSAMult.h:14:10: fatal error: polys/operations/p_Mult_q.h: No such file or directory
   14 | #include "polys/operations/p_Mult_q.h"
      |          ^~~~~~~~~~~~~~~~~~~~~~~~~~~~~
compilation terminated.
ERROR: some errors occurred when compiling headers
ERROR: see log for details:
  /home/adrien/armhf-time_t/out/logs/libsingular4-dev-common/lfs/abi-compliance-checker.log


ERROR: can't compile header(s)
