[2024-01-31T19:06:21+00:00] apt-get install libbenchmark-dev abi-compliance-checker
Reading package lists...
Building dependency tree...
Reading state information...
abi-compliance-checker is already the newest version (2.3-2).
The following packages were automatically installed and are no longer required:
  libbemenu-dev libbemenu0
Use 'apt autoremove' to remove them.
Suggested packages:
  libbenchmark-tools
The following NEW packages will be installed:
  libbenchmark-dev libbenchmark1.8.3
0 upgraded, 2 newly installed, 0 to remove and 45 not upgraded.
Need to get 200 kB of archives.
After this operation, 432 kB of additional disk space will be used.
Get:1 http://deb.debian.org/debian unstable/main armhf libbenchmark1.8.3 armhf 1.8.3-3 [106 kB]
Get:2 http://deb.debian.org/debian unstable/main armhf libbenchmark-dev armhf 1.8.3-3 [93.7 kB]
debconf: delaying package configuration, since apt-utils is not installed
Fetched 200 kB in 0s (3674 kB/s)
Selecting previously unselected package libbenchmark1.8.3:armhf.
(Reading database ... (Reading database ... 5%(Reading database ... 10%(Reading database ... 15%(Reading database ... 20%(Reading database ... 25%(Reading database ... 30%(Reading database ... 35%(Reading database ... 40%(Reading database ... 45%(Reading database ... 50%(Reading database ... 55%(Reading database ... 60%(Reading database ... 65%(Reading database ... 70%(Reading database ... 75%(Reading database ... 80%(Reading database ... 85%(Reading database ... 90%(Reading database ... 95%(Reading database ... 100%(Reading database ... 19797 files and directories currently installed.)
Preparing to unpack .../libbenchmark1.8.3_1.8.3-3_armhf.deb ...
Unpacking libbenchmark1.8.3:armhf (1.8.3-3) ...
Selecting previously unselected package libbenchmark-dev:armhf.
Preparing to unpack .../libbenchmark-dev_1.8.3-3_armhf.deb ...
Unpacking libbenchmark-dev:armhf (1.8.3-3) ...
Setting up libbenchmark1.8.3:armhf (1.8.3-3) ...
Setting up libbenchmark-dev:armhf (1.8.3-3) ...
Processing triggers for libc-bin (2.37-13) ...
Reading package lists...
Building dependency tree...
Reading state information...
The following packages will be REMOVED:
  libbemenu-dev* libbemenu0*
0 upgraded, 0 newly installed, 2 to remove and 45 not upgraded.
After this operation, 106 kB disk space will be freed.
(Reading database ... (Reading database ... 5%(Reading database ... 10%(Reading database ... 15%(Reading database ... 20%(Reading database ... 25%(Reading database ... 30%(Reading database ... 35%(Reading database ... 40%(Reading database ... 45%(Reading database ... 50%(Reading database ... 55%(Reading database ... 60%(Reading database ... 65%(Reading database ... 70%(Reading database ... 75%(Reading database ... 80%(Reading database ... 85%(Reading database ... 90%(Reading database ... 95%(Reading database ... 100%(Reading database ... 19835 files and directories currently installed.)
Removing libbemenu-dev:armhf (0.6.15+dfsg-1+b2) ...
Removing libbemenu0:armhf (0.6.15+dfsg-1+b2) ...
Processing triggers for libc-bin (2.37-13) ...
