[2024-01-08T11:28:18+00:00] apt-get install libucommon-dev abi-compliance-checker
Reading package lists...
Building dependency tree...
Reading state information...
abi-compliance-checker is already the newest version (2.3-2).
The following packages were automatically installed and are no longer required:
  libucl-dev libucl1
Use 'apt autoremove' to remove them.
The following additional packages will be installed:
  libgmp-dev libgmpxx4ldbl libgnutls-openssl27 libgnutls28-dev libidn2-dev
  libp11-kit-dev libtasn1-6-dev libucommon8 nettle-dev
Suggested packages:
  gmp-doc libgmp10-doc libmpfr-dev gnutls-doc p11-kit-doc ucommon-doc
  ucommon-utils
Recommended packages:
  libtasn1-doc pkg-config
The following NEW packages will be installed:
  libgmp-dev libgmpxx4ldbl libgnutls-openssl27 libgnutls28-dev libidn2-dev
  libp11-kit-dev libtasn1-6-dev libucommon-dev libucommon8 nettle-dev
0 upgraded, 10 newly installed, 0 to remove and 18 not upgraded.
Need to get 4996 kB of archives.
After this operation, 12.6 MB of additional disk space will be used.
Get:1 http://deb.debian.org/debian unstable/main armhf libgmpxx4ldbl armhf 2:6.3.0+dfsg-2 [328 kB]
Get:2 http://deb.debian.org/debian unstable/main armhf libgmp-dev armhf 2:6.3.0+dfsg-2 [589 kB]
Get:3 http://deb.debian.org/debian unstable/main armhf libgnutls-openssl27 armhf 3.8.2-1 [422 kB]
Get:4 http://deb.debian.org/debian unstable/main armhf libidn2-dev armhf 2.3.4-1+b2 [116 kB]
Get:5 http://deb.debian.org/debian unstable/main armhf libp11-kit-dev armhf 0.25.3-4 [202 kB]
Get:6 http://deb.debian.org/debian unstable/main armhf libtasn1-6-dev armhf 4.19.0-3+b2 [93.0 kB]
Get:7 http://deb.debian.org/debian unstable/main armhf nettle-dev armhf 3.9.1-2 [1288 kB]
Get:8 http://deb.debian.org/debian unstable/main armhf libgnutls28-dev armhf 3.8.2-1 [1296 kB]
Get:9 http://deb.debian.org/debian unstable/main armhf libucommon8 armhf 7.0.1-0.1 [249 kB]
Get:10 http://deb.debian.org/debian unstable/main armhf libucommon-dev armhf 7.0.1-0.1 [414 kB]
debconf: delaying package configuration, since apt-utils is not installed
Fetched 4996 kB in 0s (24.0 MB/s)
Selecting previously unselected package libgmpxx4ldbl:armhf.
(Reading database ... (Reading database ... 5%(Reading database ... 10%(Reading database ... 15%(Reading database ... 20%(Reading database ... 25%(Reading database ... 30%(Reading database ... 35%(Reading database ... 40%(Reading database ... 45%(Reading database ... 50%(Reading database ... 55%(Reading database ... 60%(Reading database ... 65%(Reading database ... 70%(Reading database ... 75%(Reading database ... 80%(Reading database ... 85%(Reading database ... 90%(Reading database ... 95%(Reading database ... 100%(Reading database ... 17071 files and directories currently installed.)
Preparing to unpack .../0-libgmpxx4ldbl_2%3a6.3.0+dfsg-2_armhf.deb ...
Unpacking libgmpxx4ldbl:armhf (2:6.3.0+dfsg-2) ...
Selecting previously unselected package libgmp-dev:armhf.
Preparing to unpack .../1-libgmp-dev_2%3a6.3.0+dfsg-2_armhf.deb ...
Unpacking libgmp-dev:armhf (2:6.3.0+dfsg-2) ...
Selecting previously unselected package libgnutls-openssl27:armhf.
Preparing to unpack .../2-libgnutls-openssl27_3.8.2-1_armhf.deb ...
Unpacking libgnutls-openssl27:armhf (3.8.2-1) ...
Selecting previously unselected package libidn2-dev:armhf.
Preparing to unpack .../3-libidn2-dev_2.3.4-1+b2_armhf.deb ...
Unpacking libidn2-dev:armhf (2.3.4-1+b2) ...
Selecting previously unselected package libp11-kit-dev:armhf.
Preparing to unpack .../4-libp11-kit-dev_0.25.3-4_armhf.deb ...
Unpacking libp11-kit-dev:armhf (0.25.3-4) ...
Selecting previously unselected package libtasn1-6-dev:armhf.
Preparing to unpack .../5-libtasn1-6-dev_4.19.0-3+b2_armhf.deb ...
Unpacking libtasn1-6-dev:armhf (4.19.0-3+b2) ...
Selecting previously unselected package nettle-dev:armhf.
Preparing to unpack .../6-nettle-dev_3.9.1-2_armhf.deb ...
Unpacking nettle-dev:armhf (3.9.1-2) ...
Selecting previously unselected package libgnutls28-dev:armhf.
Preparing to unpack .../7-libgnutls28-dev_3.8.2-1_armhf.deb ...
Unpacking libgnutls28-dev:armhf (3.8.2-1) ...
Selecting previously unselected package libucommon8:armhf.
Preparing to unpack .../8-libucommon8_7.0.1-0.1_armhf.deb ...
Unpacking libucommon8:armhf (7.0.1-0.1) ...
Selecting previously unselected package libucommon-dev.
Preparing to unpack .../9-libucommon-dev_7.0.1-0.1_armhf.deb ...
Unpacking libucommon-dev (7.0.1-0.1) ...
Setting up libucommon8:armhf (7.0.1-0.1) ...
Setting up libgnutls-openssl27:armhf (3.8.2-1) ...
Setting up libgmpxx4ldbl:armhf (2:6.3.0+dfsg-2) ...
Setting up libidn2-dev:armhf (2.3.4-1+b2) ...
Setting up libtasn1-6-dev:armhf (4.19.0-3+b2) ...
Setting up libp11-kit-dev:armhf (0.25.3-4) ...
Setting up libgmp-dev:armhf (2:6.3.0+dfsg-2) ...
Setting up nettle-dev:armhf (3.9.1-2) ...
Setting up libgnutls28-dev:armhf (3.8.2-1) ...
Setting up libucommon-dev (7.0.1-0.1) ...
Processing triggers for install-info (7.1-2) ...
Processing triggers for libc-bin (2.37-13) ...
Reading package lists...
Building dependency tree...
Reading state information...
The following packages will be REMOVED:
  libucl-dev* libucl1*
0 upgraded, 0 newly installed, 2 to remove and 18 not upgraded.
After this operation, 221 kB disk space will be freed.
(Reading database ... (Reading database ... 5%(Reading database ... 10%(Reading database ... 15%(Reading database ... 20%(Reading database ... 25%(Reading database ... 30%(Reading database ... 35%(Reading database ... 40%(Reading database ... 45%(Reading database ... 50%(Reading database ... 55%(Reading database ... 60%(Reading database ... 65%(Reading database ... 70%(Reading database ... 75%(Reading database ... 80%(Reading database ... 85%(Reading database ... 90%(Reading database ... 95%(Reading database ... 100%(Reading database ... 17438 files and directories currently installed.)
Removing libucl-dev:armhf (1.03+repack-6) ...
Removing libucl1:armhf (1.03+repack-6) ...
Processing triggers for libc-bin (2.37-13) ...
