[2024-01-06T20:02:31+00:00] apt-get install libedata-cal2.0-dev abi-compliance-checker
Reading package lists...
Building dependency tree...
Reading state information...
abi-compliance-checker is already the newest version (2.3-2).
The following packages were automatically installed and are no longer required:
  gir1.2-ebookcontacts-1.2 gir1.2-edatabook-1.2 libabsl20220623
  libebook-contacts-1.2-4 libebook-contacts1.2-dev libedata-book-1.2-27
  libedata-book1.2-dev libphonenumber8 libprotobuf32
Use 'apt autoremove' to remove them.
The following additional packages will be installed:
  gir1.2-ecal-2.0 gir1.2-edatacal-2.0 gir1.2-ical-3.0 libdb-dev libdb5.3-dev
  libecal-2.0-2 libecal2.0-dev libedata-cal-2.0-2 libical-dev libical3
Suggested packages:
  db5.3-doc
The following NEW packages will be installed:
  gir1.2-ecal-2.0 gir1.2-edatacal-2.0 gir1.2-ical-3.0 libdb-dev libdb5.3-dev
  libecal-2.0-2 libecal2.0-dev libedata-cal-2.0-2 libedata-cal2.0-dev
  libical-dev libical3
0 upgraded, 11 newly installed, 0 to remove and 12 not upgraded.
Need to get 1846 kB of archives.
After this operation, 10.6 MB of additional disk space will be used.
Get:1 http://deb.debian.org/debian unstable/main armhf libical3 armhf 3.0.17-1 [239 kB]
Get:2 http://deb.debian.org/debian unstable/main armhf gir1.2-ical-3.0 armhf 3.0.17-1 [47.1 kB]
Get:3 http://deb.debian.org/debian unstable/main armhf libecal-2.0-2 armhf 3.50.2-1 [140 kB]
Get:4 http://deb.debian.org/debian unstable/main armhf gir1.2-ecal-2.0 armhf 3.50.2-1 [24.7 kB]
Get:5 http://deb.debian.org/debian unstable/main armhf libedata-cal-2.0-2 armhf 3.50.2-1 [115 kB]
Get:6 http://deb.debian.org/debian unstable/main armhf gir1.2-edatacal-2.0 armhf 3.50.2-1 [17.7 kB]
Get:7 http://deb.debian.org/debian unstable/main armhf libdb5.3-dev armhf 5.3.28+dfsg2-4 [696 kB]
Get:8 http://deb.debian.org/debian unstable/main armhf libdb-dev armhf 5.3.3 [1976 B]
Get:9 http://deb.debian.org/debian unstable/main armhf libical-dev armhf 3.0.17-1 [422 kB]
Get:10 http://deb.debian.org/debian unstable/main armhf libecal2.0-dev armhf 3.50.2-1 [87.5 kB]
Get:11 http://deb.debian.org/debian unstable/main armhf libedata-cal2.0-dev armhf 3.50.2-1 [55.2 kB]
debconf: delaying package configuration, since apt-utils is not installed
Fetched 1846 kB in 11s (163 kB/s)
Selecting previously unselected package libical3:armhf.
(Reading database ... (Reading database ... 5%(Reading database ... 10%(Reading database ... 15%(Reading database ... 20%(Reading database ... 25%(Reading database ... 30%(Reading database ... 35%(Reading database ... 40%(Reading database ... 45%(Reading database ... 50%(Reading database ... 55%(Reading database ... 60%(Reading database ... 65%(Reading database ... 70%(Reading database ... 75%(Reading database ... 80%(Reading database ... 85%(Reading database ... 90%(Reading database ... 95%(Reading database ... 100%(Reading database ... 24022 files and directories currently installed.)
Preparing to unpack .../00-libical3_3.0.17-1_armhf.deb ...
Unpacking libical3:armhf (3.0.17-1) ...
Selecting previously unselected package gir1.2-ical-3.0:armhf.
Preparing to unpack .../01-gir1.2-ical-3.0_3.0.17-1_armhf.deb ...
Unpacking gir1.2-ical-3.0:armhf (3.0.17-1) ...
Selecting previously unselected package libecal-2.0-2:armhf.
Preparing to unpack .../02-libecal-2.0-2_3.50.2-1_armhf.deb ...
Unpacking libecal-2.0-2:armhf (3.50.2-1) ...
Selecting previously unselected package gir1.2-ecal-2.0:armhf.
Preparing to unpack .../03-gir1.2-ecal-2.0_3.50.2-1_armhf.deb ...
Unpacking gir1.2-ecal-2.0:armhf (3.50.2-1) ...
Selecting previously unselected package libedata-cal-2.0-2:armhf.
Preparing to unpack .../04-libedata-cal-2.0-2_3.50.2-1_armhf.deb ...
Unpacking libedata-cal-2.0-2:armhf (3.50.2-1) ...
Selecting previously unselected package gir1.2-edatacal-2.0:armhf.
Preparing to unpack .../05-gir1.2-edatacal-2.0_3.50.2-1_armhf.deb ...
Unpacking gir1.2-edatacal-2.0:armhf (3.50.2-1) ...
Selecting previously unselected package libdb5.3-dev.
Preparing to unpack .../06-libdb5.3-dev_5.3.28+dfsg2-4_armhf.deb ...
Unpacking libdb5.3-dev (5.3.28+dfsg2-4) ...
Selecting previously unselected package libdb-dev:armhf.
Preparing to unpack .../07-libdb-dev_5.3.3_armhf.deb ...
Unpacking libdb-dev:armhf (5.3.3) ...
Selecting previously unselected package libical-dev:armhf.
Preparing to unpack .../08-libical-dev_3.0.17-1_armhf.deb ...
Unpacking libical-dev:armhf (3.0.17-1) ...
Selecting previously unselected package libecal2.0-dev:armhf.
Preparing to unpack .../09-libecal2.0-dev_3.50.2-1_armhf.deb ...
Unpacking libecal2.0-dev:armhf (3.50.2-1) ...
Selecting previously unselected package libedata-cal2.0-dev:armhf.
Preparing to unpack .../10-libedata-cal2.0-dev_3.50.2-1_armhf.deb ...
Unpacking libedata-cal2.0-dev:armhf (3.50.2-1) ...
Setting up libdb5.3-dev (5.3.28+dfsg2-4) ...
Setting up libical3:armhf (3.0.17-1) ...
Setting up libecal-2.0-2:armhf (3.50.2-1) ...
Setting up gir1.2-ical-3.0:armhf (3.0.17-1) ...
Setting up libdb-dev:armhf (5.3.3) ...
Setting up libedata-cal-2.0-2:armhf (3.50.2-1) ...
Setting up gir1.2-ecal-2.0:armhf (3.50.2-1) ...
Setting up gir1.2-edatacal-2.0:armhf (3.50.2-1) ...
Setting up libical-dev:armhf (3.0.17-1) ...
Setting up libecal2.0-dev:armhf (3.50.2-1) ...
Setting up libedata-cal2.0-dev:armhf (3.50.2-1) ...
Processing triggers for libc-bin (2.37-13) ...
Reading package lists...
Building dependency tree...
Reading state information...
The following packages will be REMOVED:
  gir1.2-ebookcontacts-1.2* gir1.2-edatabook-1.2* libabsl20220623*
  libebook-contacts-1.2-4* libebook-contacts1.2-dev* libedata-book-1.2-27*
  libedata-book1.2-dev* libphonenumber8* libprotobuf32*
0 upgraded, 0 newly installed, 9 to remove and 12 not upgraded.
After this operation, 6930 kB disk space will be freed.
(Reading database ... (Reading database ... 5%(Reading database ... 10%(Reading database ... 15%(Reading database ... 20%(Reading database ... 25%(Reading database ... 30%(Reading database ... 35%(Reading database ... 40%(Reading database ... 45%(Reading database ... 50%(Reading database ... 55%(Reading database ... 60%(Reading database ... 65%(Reading database ... 70%(Reading database ... 75%(Reading database ... 80%(Reading database ... 85%(Reading database ... 90%(Reading database ... 95%(Reading database ... 100%(Reading database ... 24261 files and directories currently installed.)
Removing libedata-book1.2-dev:armhf (3.50.2-1) ...
Removing libebook-contacts1.2-dev:armhf (3.50.2-1) ...
Removing gir1.2-edatabook-1.2:armhf (3.50.2-1) ...
Removing gir1.2-ebookcontacts-1.2:armhf (3.50.2-1) ...
Removing libedata-book-1.2-27:armhf (3.50.2-1) ...
Removing libebook-contacts-1.2-4:armhf (3.50.2-1) ...
Removing libphonenumber8:armhf (8.12.57+ds-4) ...
Removing libabsl20220623:armhf (20220623.1-3) ...
Removing libprotobuf32:armhf (3.21.12-8+b1) ...
Processing triggers for libc-bin (2.37-13) ...
