Using GCC 13 (arm-linux-gnueabihf, target: arm)
WARNING: May not work properly with GCC 4.8.[0-2], 6.* and higher due to bug #78040 in GCC. Please try other GCC versions with the help of --gcc-path=PATH option or create ABI dumps by ABI Dumper tool instead to avoid using GCC. Test selected GCC version first by -test option.
Checking header(s) base ...
Temporary header file '/tmp/A_kS0UFQHv/dump1.h' with the following content will be compiled to create GCC translation unit dump:

  // add defines
  #define __STDC_VERSION__ 201710L
#define _GXX_NULLPTR_T
#define CLUTTER_ENABLE_COMPOSITOR_API 1
#define _REGEX_NELTS(n)
#define _Atomic
#define PACKED
#ifdef __cplusplus
// C17 compat layer
#define _Alignof(type) alignof(type)
#endif
#define getaddrinfo_a(a,b,c,d)

  // add includes
  #include "/usr/lib/gcc/arm-linux-gnueabihf/12/include/libgccjit++.h"
  #include "/usr/lib/gcc/arm-linux-gnueabihf/12/include/libgccjit.h"

  // add namespaces
  namespace gccjit{typedef int tmp_add_type_1;}
  gccjit::tmp_add_type_1 tmp_add_func_1(){return 0;};
  namespace gccjit{namespace version{typedef int tmp_add_type_2;}}
  gccjit::version::tmp_add_type_2 tmp_add_func_2(){return 0;};

  // add classes
  _G_fpos64_t* tmp_add_class_0;
  _G_fpos_t* tmp_add_class_1;
  _IO_cookie_io_functions_t* tmp_add_class_2;

The GCC parameters:
  gcc -fdump-lang-raw -fkeep-inline-functions -c -x c++ -fpermissive -w "/tmp/A_kS0UFQHv/dump1.h"

Creating library ABI dump ...
Dump path: out/logs/libgccjit-12-dev/libgccjit-12-dev_base.dump
