Using GCC 13 (arm-linux-gnueabihf, target: arm)
WARNING: May not work properly with GCC 4.8.[0-2], 6.* and higher due to bug #78040 in GCC. Please try other GCC versions with the help of --gcc-path=PATH option or create ABI dumps by ABI Dumper tool instead to avoid using GCC. Test selected GCC version first by -test option.
Checking header(s) base ...
Temporary header file '/tmp/EeC38ane_Q/dump1.h' with the following content will be compiled to create GCC translation unit dump:

  // add defines
  #define __STDC_VERSION__ 201710L
#define _GXX_NULLPTR_T
#define CLUTTER_ENABLE_COMPOSITOR_API 1
#define _REGEX_NELTS(n)
#define _Atomic
#define PACKED
#ifdef __cplusplus
// C17 compat layer
#define _Alignof(type) alignof(type)
#endif
#define getaddrinfo_a(a,b,c,d) 
  #define restrict

  // add includes
  #include "/usr/include/libjodycode.h"

  // add classes
  _G_fpos64_t* tmp_add_class_0;
  _G_fpos_t* tmp_add_class_1;
  _IO_cookie_io_functions_t* tmp_add_class_2;
  jc_proc_cacheinfo* tmp_add_class_3;
  jc_size_suffix* tmp_add_class_4;
  statx_timestamp* tmp_add_class_5;

The GCC parameters:
  gcc -fdump-lang-raw -fkeep-inline-functions -c -x c++ -fpermissive -w "/tmp/EeC38ane_Q/dump1.h"

/tmp/EeC38ane_Q/dump1.h:24:3: error: 'jc_size_suffix' does not name a type
   24 |   jc_size_suffix* tmp_add_class_4;
      |   ^~~~~~~~~~~~~~
/tmp/EeC38ane_Q/dump1.h:25:36: error: expected '}' at end of input
   25 |   statx_timestamp* tmp_add_class_5;
      |                                    ^
In file included from /tmp/EeC38ane_Q/dump1.h:17:
/usr/include/libjodycode.h:11:12: note: to match this '{'
   11 | extern "C" {
      |            ^
ERROR: some errors occurred when compiling headers
ERROR: see log for details:
  /home/adrien/armhf-time_t/out/logs/libjodycode-dev/base/abi-compliance-checker.log


Creating library ABI dump ...
Dump path: out/logs/libjodycode-dev/libjodycode-dev_base.dump
