[2024-01-07T08:25:46+00:00] apt-get install libfuzzylite-dev abi-compliance-checker
Reading package lists...
Building dependency tree...
Reading state information...
abi-compliance-checker is already the newest version (2.3-2).
The following packages were automatically installed and are no longer required:
  libfuzzy-dev libfuzzy2
Use 'apt autoremove' to remove them.
The following NEW packages will be installed:
  libfuzzylite-dev libfuzzylite6.0
0 upgraded, 2 newly installed, 0 to remove and 41 not upgraded.
Need to get 818 kB of archives.
After this operation, 4212 kB of additional disk space will be used.
Get:1 http://deb.debian.org/debian unstable/main armhf libfuzzylite6.0 armhf 6.0+dfsg-7 [335 kB]
Get:2 http://deb.debian.org/debian unstable/main armhf libfuzzylite-dev armhf 6.0+dfsg-7 [483 kB]
debconf: delaying package configuration, since apt-utils is not installed
Fetched 818 kB in 0s (3568 kB/s)
Selecting previously unselected package libfuzzylite6.0:armhf.
(Reading database ... (Reading database ... 5%(Reading database ... 10%(Reading database ... 15%(Reading database ... 20%(Reading database ... 25%(Reading database ... 30%(Reading database ... 35%(Reading database ... 40%(Reading database ... 45%(Reading database ... 50%(Reading database ... 55%(Reading database ... 60%(Reading database ... 65%(Reading database ... 70%(Reading database ... 75%(Reading database ... 80%(Reading database ... 85%(Reading database ... 90%(Reading database ... 95%(Reading database ... 100%(Reading database ... 12916 files and directories currently installed.)
Preparing to unpack .../libfuzzylite6.0_6.0+dfsg-7_armhf.deb ...
Unpacking libfuzzylite6.0:armhf (6.0+dfsg-7) ...
Selecting previously unselected package libfuzzylite-dev:armhf.
Preparing to unpack .../libfuzzylite-dev_6.0+dfsg-7_armhf.deb ...
Unpacking libfuzzylite-dev:armhf (6.0+dfsg-7) ...
Setting up libfuzzylite6.0:armhf (6.0+dfsg-7) ...
Setting up libfuzzylite-dev:armhf (6.0+dfsg-7) ...
Processing triggers for libc-bin (2.37-13) ...
Reading package lists...
Building dependency tree...
Reading state information...
The following packages will be REMOVED:
  libfuzzy-dev* libfuzzy2*
0 upgraded, 0 newly installed, 2 to remove and 41 not upgraded.
After this operation, 150 kB disk space will be freed.
(Reading database ... (Reading database ... 5%(Reading database ... 10%(Reading database ... 15%(Reading database ... 20%(Reading database ... 25%(Reading database ... 30%(Reading database ... 35%(Reading database ... 40%(Reading database ... 45%(Reading database ... 50%(Reading database ... 55%(Reading database ... 60%(Reading database ... 65%(Reading database ... 70%(Reading database ... 75%(Reading database ... 80%(Reading database ... 85%(Reading database ... 90%(Reading database ... 95%(Reading database ... 100%(Reading database ... 13052 files and directories currently installed.)
Removing libfuzzy-dev:armhf (2.14.1+git20180629.57fcfff-3) ...
Removing libfuzzy2:armhf (2.14.1+git20180629.57fcfff-3) ...
Processing triggers for libc-bin (2.37-13) ...
