Using GCC 13 (arm-linux-gnueabihf, target: arm)
WARNING: May not work properly with GCC 4.8.[0-2], 6.* and higher due to bug #78040 in GCC. Please try other GCC versions with the help of --gcc-path=PATH option or create ABI dumps by ABI Dumper tool instead to avoid using GCC. Test selected GCC version first by -test option.
Checking header(s) lfs ...
Temporary header file '/tmp/6ChIGacEIo/dump1.h' with the following content will be compiled to create GCC translation unit dump:

  // add defines
  #define __STDC_VERSION__ 201710L
#define _FILE_OFFSET_BITS 64
#define _GXX_NULLPTR_T
#define CLUTTER_ENABLE_COMPOSITOR_API 1
#define _REGEX_NELTS(n)
#define _Atomic
#define PACKED
#ifdef __cplusplus
// C17 compat layer
#define _Alignof(type) alignof(type)
#endif
#define getaddrinfo_a(a,b,c,d)

  // add includes
  #include "/usr/include/ghemical/atom.h"
  #include "/usr/include/ghemical/bond.h"
  #include "/usr/include/ghemical/chn_info.h"
  #include "/usr/include/ghemical/conjgrad.h"
  #include "/usr/include/ghemical/constraint.h"
  #include "/usr/include/ghemical/eng1_mm.h"
  #include "/usr/include/ghemical/eng1_mm_default.h"
  #include "/usr/include/ghemical/eng1_mm_prmfit.h"
  #include "/usr/include/ghemical/eng1_mm_tripos52.h"
  #include "/usr/include/ghemical/eng1_qm.h"
  #include "/usr/include/ghemical/eng1_qm_mopac.h"
  #include "/usr/include/ghemical/eng1_qm_mpqc.h"
  #include "/usr/include/ghemical/eng1_sf.h"
  #include "/usr/include/ghemical/eng1_sf_cg.h"
  #include "/usr/include/ghemical/eng1_sf_ua.h"
  #include "/usr/include/ghemical/eng2_qm_mm.h"
  #include "/usr/include/ghemical/engine.h"
  #include "/usr/include/ghemical/geomopt.h"
  #include "/usr/include/ghemical/intcrd.h"
  #include "/usr/include/ghemical/libghemical-features.h"
  #include "/usr/include/ghemical/libghemicaldefine.h"
  #include "/usr/include/ghemical/local_i18n.h"
  #include "/usr/include/ghemical/mfinder.h"
  #include "/usr/include/ghemical/model.h"
  #include "/usr/include/ghemical/moldyn.h"
  #include "/usr/include/ghemical/notice.h"
  #include "/usr/include/ghemical/pop_ana.h"
  #include "/usr/include/ghemical/resonance.h"
  #include "/usr/include/ghemical/sasaeval.h"
  #include "/usr/include/ghemical/search.h"
  #include "/usr/include/ghemical/seqbuild.h"
  #include "/usr/include/ghemical/tab_mm_default.h"
  #include "/usr/include/ghemical/tab_mm_prmfit.h"
  #include "/usr/include/ghemical/tab_mm_tripos52.h"
  #include "/usr/include/ghemical/typedef.h"
  #include "/usr/include/ghemical/typerule.h"
  #include "/usr/include/ghemical/utility.h"
  #include "/usr/include/ghemical/v3d.h"

  // add namespaces
  namespace sc{typedef int tmp_add_type_1;}
  sc::tmp_add_type_1 tmp_add_func_1(){return 0;};

The GCC parameters:
  gcc -fdump-lang-raw -fkeep-inline-functions -c -x c++ -fpermissive -w "/tmp/6ChIGacEIo/dump1.h"  -I/usr/lib/arm-linux-gnueabihf/openmpi/include -I/usr/include/sc

In file included from /tmp/6ChIGacEIo/dump1.h:38:
/usr/include/ghemical/local_i18n.h:38:10: fatal error: libghemicalconfig.h: No such file or directory
   38 | #include "libghemicalconfig.h"
      |          ^~~~~~~~~~~~~~~~~~~~~
compilation terminated.
ERROR: some errors occurred when compiling headers
ERROR: see log for details:
  /home/adrien/armhf-time_t/out/logs/libghemical-dev/lfs/abi-compliance-checker.log


ERROR: can't compile header(s)
