[2024-01-31T16:51:21+00:00] apt-get install android-libsepol-dev libsepol-dev abi-compliance-checker
Reading package lists...
Building dependency tree...
Reading state information...
abi-compliance-checker is already the newest version (2.3-2).
The following packages were automatically installed and are no longer required:
  android-liblog android-liblog-dev
Use 'apt autoremove' to remove them.
The following NEW packages will be installed:
  android-libsepol android-libsepol-dev libsepol-dev
0 upgraded, 3 newly installed, 0 to remove and 100 not upgraded.
Need to get 469 kB of archives.
After this operation, 1468 kB of additional disk space will be used.
Get:1 http://deb.debian.org/debian unstable/main armhf android-libsepol armhf 10.0.0+r36-2 [137 kB]
Get:2 http://deb.debian.org/debian unstable/main armhf android-libsepol-dev armhf 10.0.0+r36-2 [11.9 kB]
Get:3 http://deb.debian.org/debian unstable/main armhf libsepol-dev armhf 3.5-2 [319 kB]
debconf: delaying package configuration, since apt-utils is not installed
Fetched 469 kB in 0s (6656 kB/s)
Selecting previously unselected package android-libsepol.
(Reading database ... (Reading database ... 5%(Reading database ... 10%(Reading database ... 15%(Reading database ... 20%(Reading database ... 25%(Reading database ... 30%(Reading database ... 35%(Reading database ... 40%(Reading database ... 45%(Reading database ... 50%(Reading database ... 55%(Reading database ... 60%(Reading database ... 65%(Reading database ... 70%(Reading database ... 75%(Reading database ... 80%(Reading database ... 85%(Reading database ... 90%(Reading database ... 95%(Reading database ... 100%(Reading database ... 11959 files and directories currently installed.)
Preparing to unpack .../android-libsepol_10.0.0+r36-2_armhf.deb ...
Unpacking android-libsepol (10.0.0+r36-2) ...
Selecting previously unselected package android-libsepol-dev.
Preparing to unpack .../android-libsepol-dev_10.0.0+r36-2_armhf.deb ...
Unpacking android-libsepol-dev (10.0.0+r36-2) ...
Selecting previously unselected package libsepol-dev:armhf.
Preparing to unpack .../libsepol-dev_3.5-2_armhf.deb ...
Unpacking libsepol-dev:armhf (3.5-2) ...
Setting up libsepol-dev:armhf (3.5-2) ...
Setting up android-libsepol (10.0.0+r36-2) ...
Setting up android-libsepol-dev (10.0.0+r36-2) ...
Processing triggers for libc-bin (2.37-13) ...
Reading package lists...
Building dependency tree...
Reading state information...
The following packages will be REMOVED:
  android-liblog* android-liblog-dev*
0 upgraded, 0 newly installed, 2 to remove and 100 not upgraded.
After this operation, 247 kB disk space will be freed.
(Reading database ... (Reading database ... 5%(Reading database ... 10%(Reading database ... 15%(Reading database ... 20%(Reading database ... 25%(Reading database ... 30%(Reading database ... 35%(Reading database ... 40%(Reading database ... 45%(Reading database ... 50%(Reading database ... 55%(Reading database ... 60%(Reading database ... 65%(Reading database ... 70%(Reading database ... 75%(Reading database ... 80%(Reading database ... 85%(Reading database ... 90%(Reading database ... 95%(Reading database ... 100%(Reading database ... 12050 files and directories currently installed.)
Removing android-liblog-dev:armhf (1:34.0.4-1) ...
Removing android-liblog:armhf (1:34.0.4-1) ...
Processing triggers for libc-bin (2.37-13) ...
