[2024-01-08T11:41:23+00:00] apt-get install libunac1-dev abi-compliance-checker
Reading package lists...
Building dependency tree...
Reading state information...
abi-compliance-checker is already the newest version (2.3-2).
The following packages were automatically installed and are no longer required:
  gir1.2-glib-2.0 gir1.2-umockdev-1.0 libblkid-dev libffi-dev
  libgirepository-1.0-1 libglib2.0-0 libglib2.0-bin libglib2.0-data
  libglib2.0-dev libglib2.0-dev-bin libmount-dev libpcap0.8 libpcre2-16-0
  libpcre2-32-0 libpcre2-dev libpcre2-posix3 libpkgconf3 libselinux1-dev
  libsepol-dev libumockdev-dev libumockdev0 pkg-config pkgconf pkgconf-bin
  python3-distutils python3-lib2to3 uuid-dev zlib1g-dev
Use 'apt autoremove' to remove them.
The following NEW packages will be installed:
  libunac1 libunac1-dev
0 upgraded, 2 newly installed, 0 to remove and 16 not upgraded.
Need to get 47.1 kB of archives.
After this operation, 169 kB of additional disk space will be used.
Get:1 http://deb.debian.org/debian unstable/main armhf libunac1 armhf 1.8.0-10 [21.7 kB]
Get:2 http://deb.debian.org/debian unstable/main armhf libunac1-dev armhf 1.8.0-10 [25.4 kB]
debconf: delaying package configuration, since apt-utils is not installed
Fetched 47.1 kB in 0s (125 kB/s)
Selecting previously unselected package libunac1:armhf.
(Reading database ... (Reading database ... 5%(Reading database ... 10%(Reading database ... 15%(Reading database ... 20%(Reading database ... 25%(Reading database ... 30%(Reading database ... 35%(Reading database ... 40%(Reading database ... 45%(Reading database ... 50%(Reading database ... 55%(Reading database ... 60%(Reading database ... 65%(Reading database ... 70%(Reading database ... 75%(Reading database ... 80%(Reading database ... 85%(Reading database ... 90%(Reading database ... 95%(Reading database ... 100%(Reading database ... 18442 files and directories currently installed.)
Preparing to unpack .../libunac1_1.8.0-10_armhf.deb ...
Unpacking libunac1:armhf (1.8.0-10) ...
Selecting previously unselected package libunac1-dev:armhf.
Preparing to unpack .../libunac1-dev_1.8.0-10_armhf.deb ...
Unpacking libunac1-dev:armhf (1.8.0-10) ...
Setting up libunac1:armhf (1.8.0-10) ...
Setting up libunac1-dev:armhf (1.8.0-10) ...
Processing triggers for libc-bin (2.37-13) ...
Reading package lists...
Building dependency tree...
Reading state information...
The following packages will be REMOVED:
  gir1.2-glib-2.0* gir1.2-umockdev-1.0* libblkid-dev* libffi-dev*
  libgirepository-1.0-1* libglib2.0-0* libglib2.0-bin* libglib2.0-data*
  libglib2.0-dev* libglib2.0-dev-bin* libmount-dev* libpcap0.8* libpcre2-16-0*
  libpcre2-32-0* libpcre2-dev* libpcre2-posix3* libpkgconf3* libselinux1-dev*
  libsepol-dev* libumockdev-dev* libumockdev0* pkg-config* pkgconf*
  pkgconf-bin* python3-distutils* python3-lib2to3* uuid-dev* zlib1g-dev*
0 upgraded, 0 newly installed, 28 to remove and 16 not upgraded.
After this operation, 31.5 MB disk space will be freed.
(Reading database ... (Reading database ... 5%(Reading database ... 10%(Reading database ... 15%(Reading database ... 20%(Reading database ... 25%(Reading database ... 30%(Reading database ... 35%(Reading database ... 40%(Reading database ... 45%(Reading database ... 50%(Reading database ... 55%(Reading database ... 60%(Reading database ... 65%(Reading database ... 70%(Reading database ... 75%(Reading database ... 80%(Reading database ... 85%(Reading database ... 90%(Reading database ... 95%(Reading database ... 100%(Reading database ... 18460 files and directories currently installed.)
Removing libumockdev-dev (0.17.18-1) ...
Removing gir1.2-umockdev-1.0:armhf (0.17.18-1) ...
Removing gir1.2-glib-2.0:armhf (1.78.1-6) ...
Removing libglib2.0-dev:armhf (2.78.3-1) ...
Removing libmount-dev:armhf (2.39.3-6) ...
Removing libblkid-dev:armhf (2.39.3-6) ...
Removing libffi-dev:armhf (3.4.4-2) ...
Removing libgirepository-1.0-1:armhf (1.78.1-6) ...
Removing libumockdev0:armhf (0.17.18-1) ...
Removing libglib2.0-bin (2.78.3-1) ...
Removing libglib2.0-data (2.78.3-1) ...
Removing libglib2.0-dev-bin (2.78.3-1) ...
Removing libpcap0.8:armhf (1.10.4-4) ...
Removing libselinux1-dev:armhf (3.5-1+b2) ...
Removing libpcre2-dev:armhf (10.42-4) ...
Removing libpcre2-16-0:armhf (10.42-4) ...
Removing libpcre2-32-0:armhf (10.42-4) ...
Removing libpcre2-posix3:armhf (10.42-4) ...
Removing pkg-config:armhf (1.8.1-1+b2) ...
Removing pkgconf:armhf (1.8.1-1+b2) ...
Removing pkgconf-bin (1.8.1-1+b2) ...
Removing libpkgconf3:armhf (1.8.1-1+b2) ...
Removing libsepol-dev:armhf (3.5-2) ...
Removing python3-distutils (3.11.5-1) ...
Removing python3-lib2to3 (3.11.5-1) ...
Removing uuid-dev:armhf (2.39.3-6) ...
Removing zlib1g-dev:armhf (1:1.3.dfsg-3) ...
Removing libglib2.0-0:armhf (2.78.3-1) ...
Processing triggers for install-info (7.1-2) ...
Processing triggers for libc-bin (2.37-13) ...
(Reading database ... (Reading database ... 5%(Reading database ... 10%(Reading database ... 15%(Reading database ... 20%(Reading database ... 25%(Reading database ... 30%(Reading database ... 35%(Reading database ... 40%(Reading database ... 45%(Reading database ... 50%(Reading database ... 55%(Reading database ... 60%(Reading database ... 65%(Reading database ... 70%(Reading database ... 75%(Reading database ... 80%(Reading database ... 85%(Reading database ... 90%(Reading database ... 95%(Reading database ... 100%(Reading database ... 17065 files and directories currently installed.)
Purging configuration files for libglib2.0-0:armhf (2.78.3-1) ...
Purging configuration files for pkgconf:armhf (1.8.1-1+b2) ...
Purging configuration files for pkg-config:armhf (1.8.1-1+b2) ...
