[2024-02-01T08:30:04+00:00] apt-get install libphonon4qt6-dev qt6-base-dev abi-compliance-checker
Reading package lists...
Building dependency tree...
Reading state information...
libphonon4qt6-dev is already the newest version (4:4.12.0-3).
libphonon4qt6-dev set to manually installed.
abi-compliance-checker is already the newest version (2.3-2).
The following additional packages will be installed:
  libavahi-client3 libavahi-common-data libavahi-common3 libcups2 libgl-dev
  libgl1 libglx-dev libopengl-dev libproxy1v5 libpthread-stubs0-dev
  libqt6concurrent6 libqt6network6 libqt6printsupport6 libqt6sql6 libqt6test6
  libvulkan-dev libx11-dev libxau-dev libxcb1-dev libxdmcp-dev qmake6
  qmake6-bin qt6-base-dev-tools qt6-qpa-plugins x11proto-dev
  xorg-sgml-doctools xtrans-dev
Suggested packages:
  cups-common libx11-doc libxcb-doc cmake
Recommended packages:
  libqt6sql6-sqlite | libqt6sql6-mysql | libqt6sql6-odbc | libqt6sql6-psql
  | libqt6sql6-ibase
The following NEW packages will be installed:
  libavahi-client3 libavahi-common-data libavahi-common3 libcups2 libgl-dev
  libgl1 libglx-dev libopengl-dev libproxy1v5 libpthread-stubs0-dev
  libqt6concurrent6 libqt6network6 libqt6printsupport6 libqt6sql6 libqt6test6
  libvulkan-dev libx11-dev libxau-dev libxcb1-dev libxdmcp-dev qmake6
  qmake6-bin qt6-base-dev qt6-base-dev-tools qt6-qpa-plugins x11proto-dev
  xorg-sgml-doctools xtrans-dev
0 upgraded, 28 newly installed, 0 to remove and 73 not upgraded.
Need to get 7897 kB of archives.
After this operation, 60.7 MB of additional disk space will be used.
Get:1 http://deb.debian.org/debian unstable/main armhf libavahi-common-data armhf 0.8-13+b1 [111 kB]
Get:2 http://deb.debian.org/debian unstable/main armhf libavahi-common3 armhf 0.8-13+b1 [40.1 kB]
Get:3 http://deb.debian.org/debian unstable/main armhf libavahi-client3 armhf 0.8-13+b1 [43.4 kB]
Get:4 http://deb.debian.org/debian unstable/main armhf libcups2 armhf 2.4.7-1+b1 [212 kB]
Get:5 http://deb.debian.org/debian unstable/main armhf libgl1 armhf 1.7.0-1 [90.8 kB]
Get:6 http://deb.debian.org/debian unstable/main armhf xorg-sgml-doctools all 1:1.11-1.1 [22.1 kB]
Get:7 http://deb.debian.org/debian unstable/main armhf x11proto-dev all 2023.2-1 [598 kB]
Get:8 http://deb.debian.org/debian unstable/main armhf libxau-dev armhf 1:1.0.9-1 [22.4 kB]
Get:9 http://deb.debian.org/debian unstable/main armhf libxdmcp-dev armhf 1:1.1.2-3 [40.7 kB]
Get:10 http://deb.debian.org/debian unstable/main armhf xtrans-dev all 1.4.0-1 [98.7 kB]
Get:11 http://deb.debian.org/debian unstable/main armhf libpthread-stubs0-dev armhf 0.4-1 [5344 B]
Get:12 http://deb.debian.org/debian unstable/main armhf libxcb1-dev armhf 1.15-1 [179 kB]
Get:13 http://deb.debian.org/debian unstable/main armhf libx11-dev armhf 2:1.8.7-1 [816 kB]
Get:14 http://deb.debian.org/debian unstable/main armhf libglx-dev armhf 1.7.0-1 [15.5 kB]
Get:15 http://deb.debian.org/debian unstable/main armhf libgl-dev armhf 1.7.0-1 [100 kB]
Get:16 http://deb.debian.org/debian unstable/main armhf libopengl-dev armhf 1.7.0-1 [5104 B]
Get:17 http://deb.debian.org/debian unstable/main armhf libproxy1v5 armhf 0.4.18-2 [51.7 kB]
Get:18 http://deb.debian.org/debian unstable/main armhf libqt6concurrent6 armhf 6.4.2+dfsg-21 [37.2 kB]
Get:19 http://deb.debian.org/debian unstable/main armhf libqt6network6 armhf 6.4.2+dfsg-21 [617 kB]
Get:20 http://deb.debian.org/debian unstable/main armhf libqt6printsupport6 armhf 6.4.2+dfsg-21 [194 kB]
Get:21 http://deb.debian.org/debian unstable/main armhf libqt6sql6 armhf 6.4.2+dfsg-21 [122 kB]
Get:22 http://deb.debian.org/debian unstable/main armhf libqt6test6 armhf 6.4.2+dfsg-21 [149 kB]
Get:23 http://deb.debian.org/debian unstable/main armhf libvulkan-dev armhf 1.3.275.0-1 [1310 kB]
Get:24 http://deb.debian.org/debian unstable/main armhf qmake6-bin armhf 6.4.2+dfsg-21 [533 kB]
Get:25 http://deb.debian.org/debian unstable/main armhf qmake6 armhf 6.4.2+dfsg-21 [180 kB]
Get:26 http://deb.debian.org/debian unstable/main armhf qt6-base-dev-tools armhf 6.4.2+dfsg-21 [789 kB]
Get:27 http://deb.debian.org/debian unstable/main armhf qt6-qpa-plugins armhf 6.4.2+dfsg-21 [80.0 kB]
Get:28 http://deb.debian.org/debian unstable/main armhf qt6-base-dev armhf 6.4.2+dfsg-21 [1433 kB]
debconf: delaying package configuration, since apt-utils is not installed
Fetched 7897 kB in 1s (10.6 MB/s)
Selecting previously unselected package libavahi-common-data:armhf.
(Reading database ... (Reading database ... 5%(Reading database ... 10%(Reading database ... 15%(Reading database ... 20%(Reading database ... 25%(Reading database ... 30%(Reading database ... 35%(Reading database ... 40%(Reading database ... 45%(Reading database ... 50%(Reading database ... 55%(Reading database ... 60%(Reading database ... 65%(Reading database ... 70%(Reading database ... 75%(Reading database ... 80%(Reading database ... 85%(Reading database ... 90%(Reading database ... 95%(Reading database ... 100%(Reading database ... 15551 files and directories currently installed.)
Preparing to unpack .../00-libavahi-common-data_0.8-13+b1_armhf.deb ...
Unpacking libavahi-common-data:armhf (0.8-13+b1) ...
Selecting previously unselected package libavahi-common3:armhf.
Preparing to unpack .../01-libavahi-common3_0.8-13+b1_armhf.deb ...
Unpacking libavahi-common3:armhf (0.8-13+b1) ...
Selecting previously unselected package libavahi-client3:armhf.
Preparing to unpack .../02-libavahi-client3_0.8-13+b1_armhf.deb ...
Unpacking libavahi-client3:armhf (0.8-13+b1) ...
Selecting previously unselected package libcups2:armhf.
Preparing to unpack .../03-libcups2_2.4.7-1+b1_armhf.deb ...
Unpacking libcups2:armhf (2.4.7-1+b1) ...
Selecting previously unselected package libgl1:armhf.
Preparing to unpack .../04-libgl1_1.7.0-1_armhf.deb ...
Unpacking libgl1:armhf (1.7.0-1) ...
Selecting previously unselected package xorg-sgml-doctools.
Preparing to unpack .../05-xorg-sgml-doctools_1%3a1.11-1.1_all.deb ...
Unpacking xorg-sgml-doctools (1:1.11-1.1) ...
Selecting previously unselected package x11proto-dev.
Preparing to unpack .../06-x11proto-dev_2023.2-1_all.deb ...
Unpacking x11proto-dev (2023.2-1) ...
Selecting previously unselected package libxau-dev:armhf.
Preparing to unpack .../07-libxau-dev_1%3a1.0.9-1_armhf.deb ...
Unpacking libxau-dev:armhf (1:1.0.9-1) ...
Selecting previously unselected package libxdmcp-dev:armhf.
Preparing to unpack .../08-libxdmcp-dev_1%3a1.1.2-3_armhf.deb ...
Unpacking libxdmcp-dev:armhf (1:1.1.2-3) ...
Selecting previously unselected package xtrans-dev.
Preparing to unpack .../09-xtrans-dev_1.4.0-1_all.deb ...
Unpacking xtrans-dev (1.4.0-1) ...
Selecting previously unselected package libpthread-stubs0-dev:armhf.
Preparing to unpack .../10-libpthread-stubs0-dev_0.4-1_armhf.deb ...
Unpacking libpthread-stubs0-dev:armhf (0.4-1) ...
Selecting previously unselected package libxcb1-dev:armhf.
Preparing to unpack .../11-libxcb1-dev_1.15-1_armhf.deb ...
Unpacking libxcb1-dev:armhf (1.15-1) ...
Selecting previously unselected package libx11-dev:armhf.
Preparing to unpack .../12-libx11-dev_2%3a1.8.7-1_armhf.deb ...
Unpacking libx11-dev:armhf (2:1.8.7-1) ...
Selecting previously unselected package libglx-dev:armhf.
Preparing to unpack .../13-libglx-dev_1.7.0-1_armhf.deb ...
Unpacking libglx-dev:armhf (1.7.0-1) ...
Selecting previously unselected package libgl-dev:armhf.
Preparing to unpack .../14-libgl-dev_1.7.0-1_armhf.deb ...
Unpacking libgl-dev:armhf (1.7.0-1) ...
Selecting previously unselected package libopengl-dev:armhf.
Preparing to unpack .../15-libopengl-dev_1.7.0-1_armhf.deb ...
Unpacking libopengl-dev:armhf (1.7.0-1) ...
Selecting previously unselected package libproxy1v5:armhf.
Preparing to unpack .../16-libproxy1v5_0.4.18-2_armhf.deb ...
Unpacking libproxy1v5:armhf (0.4.18-2) ...
Selecting previously unselected package libqt6concurrent6:armhf.
Preparing to unpack .../17-libqt6concurrent6_6.4.2+dfsg-21_armhf.deb ...
Unpacking libqt6concurrent6:armhf (6.4.2+dfsg-21) ...
Selecting previously unselected package libqt6network6:armhf.
Preparing to unpack .../18-libqt6network6_6.4.2+dfsg-21_armhf.deb ...
Unpacking libqt6network6:armhf (6.4.2+dfsg-21) ...
Selecting previously unselected package libqt6printsupport6:armhf.
Preparing to unpack .../19-libqt6printsupport6_6.4.2+dfsg-21_armhf.deb ...
Unpacking libqt6printsupport6:armhf (6.4.2+dfsg-21) ...
Selecting previously unselected package libqt6sql6:armhf.
Preparing to unpack .../20-libqt6sql6_6.4.2+dfsg-21_armhf.deb ...
Unpacking libqt6sql6:armhf (6.4.2+dfsg-21) ...
Selecting previously unselected package libqt6test6:armhf.
Preparing to unpack .../21-libqt6test6_6.4.2+dfsg-21_armhf.deb ...
Unpacking libqt6test6:armhf (6.4.2+dfsg-21) ...
Selecting previously unselected package libvulkan-dev:armhf.
Preparing to unpack .../22-libvulkan-dev_1.3.275.0-1_armhf.deb ...
Unpacking libvulkan-dev:armhf (1.3.275.0-1) ...
Selecting previously unselected package qmake6-bin.
Preparing to unpack .../23-qmake6-bin_6.4.2+dfsg-21_armhf.deb ...
Unpacking qmake6-bin (6.4.2+dfsg-21) ...
Selecting previously unselected package qmake6:armhf.
Preparing to unpack .../24-qmake6_6.4.2+dfsg-21_armhf.deb ...
Unpacking qmake6:armhf (6.4.2+dfsg-21) ...
Selecting previously unselected package qt6-base-dev-tools.
Preparing to unpack .../25-qt6-base-dev-tools_6.4.2+dfsg-21_armhf.deb ...
Unpacking qt6-base-dev-tools (6.4.2+dfsg-21) ...
Selecting previously unselected package qt6-qpa-plugins:armhf.
Preparing to unpack .../26-qt6-qpa-plugins_6.4.2+dfsg-21_armhf.deb ...
Unpacking qt6-qpa-plugins:armhf (6.4.2+dfsg-21) ...
Selecting previously unselected package qt6-base-dev:armhf.
Preparing to unpack .../27-qt6-base-dev_6.4.2+dfsg-21_armhf.deb ...
Unpacking qt6-base-dev:armhf (6.4.2+dfsg-21) ...
Setting up libqt6concurrent6:armhf (6.4.2+dfsg-21) ...
Setting up libproxy1v5:armhf (0.4.18-2) ...
Setting up libvulkan-dev:armhf (1.3.275.0-1) ...
Setting up libqt6test6:armhf (6.4.2+dfsg-21) ...
Setting up qt6-base-dev-tools (6.4.2+dfsg-21) ...
Setting up libpthread-stubs0-dev:armhf (0.4-1) ...
Setting up xtrans-dev (1.4.0-1) ...
Setting up libgl1:armhf (1.7.0-1) ...
Setting up libqt6sql6:armhf (6.4.2+dfsg-21) ...
Setting up libavahi-common-data:armhf (0.8-13+b1) ...
Setting up qmake6-bin (6.4.2+dfsg-21) ...
Setting up libqt6network6:armhf (6.4.2+dfsg-21) ...
Setting up xorg-sgml-doctools (1:1.11-1.1) ...
Setting up libopengl-dev:armhf (1.7.0-1) ...
Setting up x11proto-dev (2023.2-1) ...
Setting up libxau-dev:armhf (1:1.0.9-1) ...
Setting up qt6-qpa-plugins:armhf (6.4.2+dfsg-21) ...
Setting up libavahi-common3:armhf (0.8-13+b1) ...
Setting up qmake6:armhf (6.4.2+dfsg-21) ...
Setting up libxdmcp-dev:armhf (1:1.1.2-3) ...
Setting up libavahi-client3:armhf (0.8-13+b1) ...
Setting up libxcb1-dev:armhf (1.15-1) ...
Setting up libx11-dev:armhf (2:1.8.7-1) ...
Setting up libcups2:armhf (2.4.7-1+b1) ...
Setting up libglx-dev:armhf (1.7.0-1) ...
Setting up libgl-dev:armhf (1.7.0-1) ...
Setting up libqt6printsupport6:armhf (6.4.2+dfsg-21) ...
Setting up qt6-base-dev:armhf (6.4.2+dfsg-21) ...
Processing triggers for libc-bin (2.37-13) ...
Reading package lists...
Building dependency tree...
Reading state information...
0 upgraded, 0 newly installed, 0 to remove and 73 not upgraded.
