[2024-02-21T02:30:07+00:00] apt-get install libqd-dev abi-compliance-checker
Reading package lists...
Building dependency tree...
Reading state information...
abi-compliance-checker is already the newest version (2.3-2).
The following packages were automatically installed and are no longer required:
  libqcow-dev libqcow1
Use 'apt autoremove' to remove them.
The following NEW packages will be installed:
  libqd-dev libqd0v5
0 upgraded, 2 newly installed, 0 to remove and 33 not upgraded.
Need to get 449 kB of archives.
After this operation, 1149 kB of additional disk space will be used.
Get:1 http://deb.debian.org/debian unstable/main armhf libqd0v5 armhf 2.3.23+dfsg.1-1 [160 kB]
Get:2 http://deb.debian.org/debian unstable/main armhf libqd-dev armhf 2.3.23+dfsg.1-1 [288 kB]
debconf: delaying package configuration, since apt-utils is not installed
Fetched 449 kB in 0s (3168 kB/s)
Selecting previously unselected package libqd0v5:armhf.
(Reading database ... (Reading database ... 5%(Reading database ... 10%(Reading database ... 15%(Reading database ... 20%(Reading database ... 25%(Reading database ... 30%(Reading database ... 35%(Reading database ... 40%(Reading database ... 45%(Reading database ... 50%(Reading database ... 55%(Reading database ... 60%(Reading database ... 65%(Reading database ... 70%(Reading database ... 75%(Reading database ... 80%(Reading database ... 85%(Reading database ... 90%(Reading database ... 95%(Reading database ... 100%(Reading database ... 18090 files and directories currently installed.)
Preparing to unpack .../libqd0v5_2.3.23+dfsg.1-1_armhf.deb ...
Unpacking libqd0v5:armhf (2.3.23+dfsg.1-1) ...
Selecting previously unselected package libqd-dev.
Preparing to unpack .../libqd-dev_2.3.23+dfsg.1-1_armhf.deb ...
Unpacking libqd-dev (2.3.23+dfsg.1-1) ...
Setting up libqd0v5:armhf (2.3.23+dfsg.1-1) ...
Setting up libqd-dev (2.3.23+dfsg.1-1) ...
Processing triggers for libc-bin (2.37-15) ...
Reading package lists...
Building dependency tree...
Reading state information...
The following packages will be REMOVED:
  libqcow-dev* libqcow1*
0 upgraded, 0 newly installed, 2 to remove and 33 not upgraded.
After this operation, 2378 kB disk space will be freed.
(Reading database ... (Reading database ... 5%(Reading database ... 10%(Reading database ... 15%(Reading database ... 20%(Reading database ... 25%(Reading database ... 30%(Reading database ... 35%(Reading database ... 40%(Reading database ... 45%(Reading database ... 50%(Reading database ... 55%(Reading database ... 60%(Reading database ... 65%(Reading database ... 70%(Reading database ... 75%(Reading database ... 80%(Reading database ... 85%(Reading database ... 90%(Reading database ... 95%(Reading database ... 100%(Reading database ... 18173 files and directories currently installed.)
Removing libqcow-dev:armhf (20201213-1+b2) ...
Removing libqcow1:armhf (20201213-1+b2) ...
Processing triggers for libc-bin (2.37-15) ...
