[2024-01-08T01:09:34+00:00] apt-get install libopenigtlink-dev abi-compliance-checker
Reading package lists...
Building dependency tree...
Reading state information...
abi-compliance-checker is already the newest version (2.3-2).
The following packages were automatically installed and are no longer required:
  libblkid-dev libbrotli1 libcurl4 libffi-dev libglib2.0-0 libglib2.0-bin
  libglib2.0-data libglib2.0-dev libglib2.0-dev-bin libmount-dev libncurses6
  libnghttp2-14 libopenhpi-dev libopenhpi3 libopenipmi0 libpci3 libpcre2-16-0
  libpcre2-32-0 libpcre2-dev libpcre2-posix3 libpkgconf3 libpopt0 libpsl5
  librabbitmq4 librtmp1 libselinux1-dev libsensors-config libsensors5
  libsepol-dev libsnmp-base libsnmp40 libssh2-1 libwrap0 openhpi
  openhpi-clients openhpi-plugin-ilo2-ribcl openhpi-plugin-ipmi
  openhpi-plugin-ipmidirect openhpi-plugin-oa-soap openhpi-plugin-ov-rest
  openhpi-plugin-snmp-bc openhpid openipmi pci.ids pkg-config pkgconf
  pkgconf-bin python3-distutils python3-lib2to3 uuid-dev zlib1g-dev
Use 'apt autoremove' to remove them.
The following NEW packages will be installed:
  libopenigtlink-dev libopenigtlink1.11
0 upgraded, 2 newly installed, 0 to remove and 33 not upgraded.
Need to get 154 kB of archives.
After this operation, 675 kB of additional disk space will be used.
Get:1 http://deb.debian.org/debian unstable/main armhf libopenigtlink1.11 armhf 1.11.0-4 [96.5 kB]
Get:2 http://deb.debian.org/debian unstable/main armhf libopenigtlink-dev armhf 1.11.0-4 [57.3 kB]
debconf: delaying package configuration, since apt-utils is not installed
Fetched 154 kB in 0s (1411 kB/s)
Selecting previously unselected package libopenigtlink1.11.
(Reading database ... (Reading database ... 5%(Reading database ... 10%(Reading database ... 15%(Reading database ... 20%(Reading database ... 25%(Reading database ... 30%(Reading database ... 35%(Reading database ... 40%(Reading database ... 45%(Reading database ... 50%(Reading database ... 55%(Reading database ... 60%(Reading database ... 65%(Reading database ... 70%(Reading database ... 75%(Reading database ... 80%(Reading database ... 85%(Reading database ... 90%(Reading database ... 95%(Reading database ... 100%(Reading database ... 17367 files and directories currently installed.)
Preparing to unpack .../libopenigtlink1.11_1.11.0-4_armhf.deb ...
Unpacking libopenigtlink1.11 (1.11.0-4) ...
Selecting previously unselected package libopenigtlink-dev.
Preparing to unpack .../libopenigtlink-dev_1.11.0-4_armhf.deb ...
Unpacking libopenigtlink-dev (1.11.0-4) ...
Setting up libopenigtlink1.11 (1.11.0-4) ...
Setting up libopenigtlink-dev (1.11.0-4) ...
Processing triggers for libc-bin (2.37-13) ...
Reading package lists...
Building dependency tree...
Reading state information...
The following packages will be REMOVED:
  libblkid-dev* libbrotli1* libcurl4* libffi-dev* libglib2.0-0*
  libglib2.0-bin* libglib2.0-data* libglib2.0-dev* libglib2.0-dev-bin*
  libmount-dev* libncurses6* libnghttp2-14* libopenhpi-dev* libopenhpi3*
  libopenipmi0* libpci3* libpcre2-16-0* libpcre2-32-0* libpcre2-dev*
  libpcre2-posix3* libpkgconf3* libpopt0* libpsl5* librabbitmq4* librtmp1*
  libselinux1-dev* libsensors-config* libsensors5* libsepol-dev* libsnmp-base*
  libsnmp40* libssh2-1* libwrap0* openhpi* openhpi-clients*
  openhpi-plugin-ilo2-ribcl* openhpi-plugin-ipmi* openhpi-plugin-ipmidirect*
  openhpi-plugin-oa-soap* openhpi-plugin-ov-rest* openhpi-plugin-snmp-bc*
  openhpid* openipmi* pci.ids* pkg-config* pkgconf* pkgconf-bin*
  python3-distutils* python3-lib2to3* uuid-dev* zlib1g-dev*
0 upgraded, 0 newly installed, 51 to remove and 33 not upgraded.
After this operation, 55.4 MB disk space will be freed.
(Reading database ... (Reading database ... 5%(Reading database ... 10%(Reading database ... 15%(Reading database ... 20%(Reading database ... 25%(Reading database ... 30%(Reading database ... 35%(Reading database ... 40%(Reading database ... 45%(Reading database ... 50%(Reading database ... 55%(Reading database ... 60%(Reading database ... 65%(Reading database ... 70%(Reading database ... 75%(Reading database ... 80%(Reading database ... 85%(Reading database ... 90%(Reading database ... 95%(Reading database ... 100%(Reading database ... 17453 files and directories currently installed.)
Removing libglib2.0-dev:armhf (2.78.3-1) ...
Removing libmount-dev:armhf (2.39.3-6) ...
Removing libblkid-dev:armhf (2.39.3-6) ...
Removing libopenhpi-dev (3.8.0-2.1+b1) ...
Removing openhpi (3.8.0-2.1) ...
Removing openhpi-plugin-ov-rest (3.8.0-2.1+b1) ...
Removing libcurl4:armhf (8.5.0-2) ...
Removing libbrotli1:armhf (1.1.0-2+b3) ...
Removing libffi-dev:armhf (3.4.4-2) ...
Removing openhpid (3.8.0-2.1+b1) ...
invoke-rc.d: could not determine current runlevel
Stopping openhpid: success.
Removing openhpi-plugin-snmp-bc (3.8.0-2.1+b1) ...
Removing libglib2.0-bin (2.78.3-1) ...
Removing libglib2.0-data (2.78.3-1) ...
Removing libglib2.0-dev-bin (2.78.3-1) ...
Removing openhpi-plugin-ipmi (3.8.0-2.1+b1) ...
Removing openipmi (2.0.33-1) ...
Removing libopenipmi0 (2.0.33-1) ...
Removing libncurses6:armhf (6.4+20231209-1) ...
Removing libnghttp2-14:armhf (1.58.0-1) ...
Removing openhpi-plugin-oa-soap (3.8.0-2.1+b1) ...
Removing libsnmp40:armhf (5.9.4+dfsg-1) ...
Removing libpci3:armhf (1:3.10.0-2) ...
Removing libselinux1-dev:armhf (3.5-1+b2) ...
Removing libpcre2-dev:armhf (10.42-4) ...
Removing libpcre2-16-0:armhf (10.42-4) ...
Removing libpcre2-32-0:armhf (10.42-4) ...
Removing libpcre2-posix3:armhf (10.42-4) ...
Removing pkg-config:armhf (1.8.1-1+b2) ...
Removing pkgconf:armhf (1.8.1-1+b2) ...
Removing pkgconf-bin (1.8.1-1+b2) ...
Removing libpkgconf3:armhf (1.8.1-1+b2) ...
Removing libpopt0:armhf (1.19+dfsg-1) ...
Removing libpsl5:armhf (0.21.2-1+b1) ...
Removing librabbitmq4:armhf (0.11.0-1+b1) ...
Removing librtmp1:armhf (2.4+20151223.gitfa8646d.1-2+b2) ...
Removing libsensors5:armhf (1:3.6.0-8) ...
Removing libsensors-config (1:3.6.0-8) ...
Removing libsepol-dev:armhf (3.5-2) ...
Removing libsnmp-base (5.9.4+dfsg-1) ...
Removing libssh2-1:armhf (1.11.0-4) ...
Removing libwrap0:armhf (7.6.q-32) ...
Removing openhpi-clients (3.8.0-2.1+b1) ...
Removing openhpi-plugin-ilo2-ribcl (3.8.0-2.1+b1) ...
Removing openhpi-plugin-ipmidirect (3.8.0-2.1+b1) ...
Removing pci.ids (0.0~2023.11.11-1) ...
Removing python3-distutils (3.11.5-1) ...
Removing python3-lib2to3 (3.11.5-1) ...
Removing uuid-dev:armhf (2.39.3-6) ...
Removing zlib1g-dev:armhf (1:1.3.dfsg-3) ...
Removing libopenhpi3 (3.8.0-2.1+b1) ...
Removing libglib2.0-0:armhf (2.78.3-1) ...
Processing triggers for libc-bin (2.37-13) ...
(Reading database ... (Reading database ... 5%(Reading database ... 10%(Reading database ... 15%(Reading database ... 20%(Reading database ... 25%(Reading database ... 30%(Reading database ... 35%(Reading database ... 40%(Reading database ... 45%(Reading database ... 50%(Reading database ... 55%(Reading database ... 60%(Reading database ... 65%(Reading database ... 70%(Reading database ... 75%(Reading database ... 80%(Reading database ... 85%(Reading database ... 90%(Reading database ... 95%(Reading database ... 100%(Reading database ... 15560 files and directories currently installed.)
Purging configuration files for libglib2.0-0:armhf (2.78.3-1) ...
Purging configuration files for libsnmp-base (5.9.4+dfsg-1) ...
Purging configuration files for libsensors-config (1:3.6.0-8) ...
Purging configuration files for pkgconf:armhf (1.8.1-1+b2) ...
Purging configuration files for libwrap0:armhf (7.6.q-32) ...
Purging configuration files for pkg-config:armhf (1.8.1-1+b2) ...
Purging configuration files for openhpid (3.8.0-2.1+b1) ...
Purging configuration files for openipmi (2.0.33-1) ...
Purging configuration files for libopenhpi3 (3.8.0-2.1+b1) ...
