[2024-01-08T11:10:15+00:00] apt-get install libtonezone-dev dahdi-source abi-compliance-checker
Reading package lists...
Building dependency tree...
Reading state information...
abi-compliance-checker is already the newest version (2.3-2).
The following packages were automatically installed and are no longer required:
  libtommath-dev libtommath1
Use 'apt autoremove' to remove them.
The following additional packages will be installed:
  bsdextrautils debhelper dh-autoreconf dh-strip-nondeterminism dwz groff-base
  intltool-debian libarchive-zip-perl libdebhelper-perl
  libfile-stripnondeterminism-perl libpipeline1 libsub-override-perl
  libtext-charwidth-perl libtext-wrapi18n-perl libtonezone2.0 libuchardet0
  man-db module-assistant po-debconf
Suggested packages:
  dh-make groff apparmor less www-browser dialog | whiptail libmail-box-perl
Recommended packages:
  dahdi-linux libarchive-cpio-perl liblocale-gettext-perl
  libmail-sendmail-perl
The following NEW packages will be installed:
  bsdextrautils dahdi-source debhelper dh-autoreconf dh-strip-nondeterminism
  dwz groff-base intltool-debian libarchive-zip-perl libdebhelper-perl
  libfile-stripnondeterminism-perl libpipeline1 libsub-override-perl
  libtext-charwidth-perl libtext-wrapi18n-perl libtonezone-dev libtonezone2.0
  libuchardet0 man-db module-assistant po-debconf
0 upgraded, 21 newly installed, 0 to remove and 18 not upgraded.
Need to get 5182 kB of archives.
After this operation, 11.6 MB of additional disk space will be used.
Get:1 http://deb.debian.org/debian unstable/main armhf libuchardet0 armhf 0.0.8-1 [65.4 kB]
Get:2 http://deb.debian.org/debian unstable/main armhf groff-base armhf 1.23.0-3 [1088 kB]
Get:3 http://deb.debian.org/debian unstable/main armhf bsdextrautils armhf 2.39.3-6 [81.2 kB]
Get:4 http://deb.debian.org/debian unstable/main armhf libpipeline1 armhf 1.5.7-1+b2 [33.4 kB]
Get:5 http://deb.debian.org/debian unstable/main armhf man-db armhf 2.12.0-1 [1367 kB]
Get:6 http://deb.debian.org/debian unstable/main armhf libdebhelper-perl all 13.11.9 [82.3 kB]
Get:7 http://deb.debian.org/debian unstable/main armhf dh-autoreconf all 20 [17.1 kB]
Get:8 http://deb.debian.org/debian unstable/main armhf libarchive-zip-perl all 1.68-1 [104 kB]
Get:9 http://deb.debian.org/debian unstable/main armhf libsub-override-perl all 0.10-1 [10.6 kB]
Get:10 http://deb.debian.org/debian unstable/main armhf libfile-stripnondeterminism-perl all 1.13.1-1 [19.4 kB]
Get:11 http://deb.debian.org/debian unstable/main armhf dh-strip-nondeterminism all 1.13.1-1 [8620 B]
Get:12 http://deb.debian.org/debian unstable/main armhf dwz armhf 0.15-1 [101 kB]
Get:13 http://deb.debian.org/debian unstable/main armhf intltool-debian all 0.35.0+20060710.6 [22.9 kB]
Get:14 http://deb.debian.org/debian unstable/main armhf po-debconf all 1.0.21+nmu1 [248 kB]
Get:15 http://deb.debian.org/debian unstable/main armhf debhelper all 13.11.9 [956 kB]
Get:16 http://deb.debian.org/debian unstable/main armhf libtext-charwidth-perl armhf 0.04-11+b1 [9436 B]
Get:17 http://deb.debian.org/debian unstable/main armhf libtext-wrapi18n-perl all 0.06-10 [8808 B]
Get:18 http://deb.debian.org/debian unstable/main armhf module-assistant all 0.11.11 [102 kB]
Get:19 http://deb.debian.org/debian unstable/main armhf dahdi-source all 1:3.1.0+git20230717~dfsg-5 [834 kB]
Get:20 http://deb.debian.org/debian unstable/main armhf libtonezone2.0 armhf 1:3.1.0-2+b1 [11.8 kB]
Get:21 http://deb.debian.org/debian unstable/main armhf libtonezone-dev armhf 1:3.1.0-2+b1 [12.5 kB]
debconf: delaying package configuration, since apt-utils is not installed
Fetched 5182 kB in 1s (7737 kB/s)
Selecting previously unselected package libuchardet0:armhf.
(Reading database ... (Reading database ... 5%(Reading database ... 10%(Reading database ... 15%(Reading database ... 20%(Reading database ... 25%(Reading database ... 30%(Reading database ... 35%(Reading database ... 40%(Reading database ... 45%(Reading database ... 50%(Reading database ... 55%(Reading database ... 60%(Reading database ... 65%(Reading database ... 70%(Reading database ... 75%(Reading database ... 80%(Reading database ... 85%(Reading database ... 90%(Reading database ... 95%(Reading database ... 100%(Reading database ... 17053 files and directories currently installed.)
Preparing to unpack .../00-libuchardet0_0.0.8-1_armhf.deb ...
Unpacking libuchardet0:armhf (0.0.8-1) ...
Selecting previously unselected package groff-base.
Preparing to unpack .../01-groff-base_1.23.0-3_armhf.deb ...
Unpacking groff-base (1.23.0-3) ...
Selecting previously unselected package bsdextrautils.
Preparing to unpack .../02-bsdextrautils_2.39.3-6_armhf.deb ...
Unpacking bsdextrautils (2.39.3-6) ...
Selecting previously unselected package libpipeline1:armhf.
Preparing to unpack .../03-libpipeline1_1.5.7-1+b2_armhf.deb ...
Unpacking libpipeline1:armhf (1.5.7-1+b2) ...
Selecting previously unselected package man-db.
Preparing to unpack .../04-man-db_2.12.0-1_armhf.deb ...
Unpacking man-db (2.12.0-1) ...
Selecting previously unselected package libdebhelper-perl.
Preparing to unpack .../05-libdebhelper-perl_13.11.9_all.deb ...
Unpacking libdebhelper-perl (13.11.9) ...
Selecting previously unselected package dh-autoreconf.
Preparing to unpack .../06-dh-autoreconf_20_all.deb ...
Unpacking dh-autoreconf (20) ...
Selecting previously unselected package libarchive-zip-perl.
Preparing to unpack .../07-libarchive-zip-perl_1.68-1_all.deb ...
Unpacking libarchive-zip-perl (1.68-1) ...
Selecting previously unselected package libsub-override-perl.
Preparing to unpack .../08-libsub-override-perl_0.10-1_all.deb ...
Unpacking libsub-override-perl (0.10-1) ...
Selecting previously unselected package libfile-stripnondeterminism-perl.
Preparing to unpack .../09-libfile-stripnondeterminism-perl_1.13.1-1_all.deb ...
Unpacking libfile-stripnondeterminism-perl (1.13.1-1) ...
Selecting previously unselected package dh-strip-nondeterminism.
Preparing to unpack .../10-dh-strip-nondeterminism_1.13.1-1_all.deb ...
Unpacking dh-strip-nondeterminism (1.13.1-1) ...
Selecting previously unselected package dwz.
Preparing to unpack .../11-dwz_0.15-1_armhf.deb ...
Unpacking dwz (0.15-1) ...
Selecting previously unselected package intltool-debian.
Preparing to unpack .../12-intltool-debian_0.35.0+20060710.6_all.deb ...
Unpacking intltool-debian (0.35.0+20060710.6) ...
Selecting previously unselected package po-debconf.
Preparing to unpack .../13-po-debconf_1.0.21+nmu1_all.deb ...
Unpacking po-debconf (1.0.21+nmu1) ...
Selecting previously unselected package debhelper.
Preparing to unpack .../14-debhelper_13.11.9_all.deb ...
Unpacking debhelper (13.11.9) ...
Selecting previously unselected package libtext-charwidth-perl:armhf.
Preparing to unpack .../15-libtext-charwidth-perl_0.04-11+b1_armhf.deb ...
Unpacking libtext-charwidth-perl:armhf (0.04-11+b1) ...
Selecting previously unselected package libtext-wrapi18n-perl.
Preparing to unpack .../16-libtext-wrapi18n-perl_0.06-10_all.deb ...
Unpacking libtext-wrapi18n-perl (0.06-10) ...
Selecting previously unselected package module-assistant.
Preparing to unpack .../17-module-assistant_0.11.11_all.deb ...
Unpacking module-assistant (0.11.11) ...
Selecting previously unselected package dahdi-source.
Preparing to unpack .../18-dahdi-source_1%3a3.1.0+git20230717~dfsg-5_all.deb ...
Unpacking dahdi-source (1:3.1.0+git20230717~dfsg-5) ...
Selecting previously unselected package libtonezone2.0:armhf.
Preparing to unpack .../19-libtonezone2.0_1%3a3.1.0-2+b1_armhf.deb ...
Unpacking libtonezone2.0:armhf (1:3.1.0-2+b1) ...
Selecting previously unselected package libtonezone-dev:armhf.
Preparing to unpack .../20-libtonezone-dev_1%3a3.1.0-2+b1_armhf.deb ...
Unpacking libtonezone-dev:armhf (1:3.1.0-2+b1) ...
Setting up libpipeline1:armhf (1.5.7-1+b2) ...
Setting up libtext-charwidth-perl:armhf (0.04-11+b1) ...
Setting up bsdextrautils (2.39.3-6) ...
Setting up libarchive-zip-perl (1.68-1) ...
Setting up libdebhelper-perl (13.11.9) ...
Setting up libtext-wrapi18n-perl (0.06-10) ...
Setting up intltool-debian (0.35.0+20060710.6) ...
Setting up dh-autoreconf (20) ...
Setting up module-assistant (0.11.11) ...
Setting up dwz (0.15-1) ...
Setting up libuchardet0:armhf (0.0.8-1) ...
Setting up libsub-override-perl (0.10-1) ...
Setting up libtonezone2.0:armhf (1:3.1.0-2+b1) ...
Setting up libfile-stripnondeterminism-perl (1.13.1-1) ...
Setting up po-debconf (1.0.21+nmu1) ...
Setting up dh-strip-nondeterminism (1.13.1-1) ...
Setting up groff-base (1.23.0-3) ...
Setting up libtonezone-dev:armhf (1:3.1.0-2+b1) ...
Setting up man-db (2.12.0-1) ...
Building database of manual pages ...
Created symlink /etc/systemd/system/timers.target.wants/man-db.timer → /usr/lib/systemd/system/man-db.timer.
Setting up debhelper (13.11.9) ...
Setting up dahdi-source (1:3.1.0+git20230717~dfsg-5) ...
Processing triggers for libc-bin (2.37-13) ...
Reading package lists...
Building dependency tree...
Reading state information...
The following packages will be REMOVED:
  libtommath-dev* libtommath1*
0 upgraded, 0 newly installed, 2 to remove and 18 not upgraded.
After this operation, 370 kB disk space will be freed.
(Reading database ... (Reading database ... 5%(Reading database ... 10%(Reading database ... 15%(Reading database ... 20%(Reading database ... 25%(Reading database ... 30%(Reading database ... 35%(Reading database ... 40%(Reading database ... 45%(Reading database ... 50%(Reading database ... 55%(Reading database ... 60%(Reading database ... 65%(Reading database ... 70%(Reading database ... 75%(Reading database ... 80%(Reading database ... 85%(Reading database ... 90%(Reading database ... 95%(Reading database ... 100%(Reading database ... 18398 files and directories currently installed.)
Removing libtommath-dev:armhf (1.2.1-2) ...
Removing libtommath1:armhf (1.2.1-2) ...
Processing triggers for libc-bin (2.37-13) ...
