[2024-01-08T14:58:04+00:00] apt-get install libzmq3-dev abi-compliance-checker
Reading package lists...
Building dependency tree...
Reading state information...
abi-compliance-checker is already the newest version (2.3-2).
The following packages were automatically installed and are no longer required:
  libpng16-16 librevenge-0.0-0 librevenge-dev libzmf-0.0-0 libzmf-dev
Use 'apt autoremove' to remove them.
The following additional packages will be installed:
  comerr-dev icu-devtools krb5-multidev libbsd-dev libgssrpc4 libicu-dev
  libkadm5clnt-mit12 libkadm5srv-mit12 libkdb5-10 libkrb5-dev libmd-dev
  libnorm-dev libnorm1 libpgm-5.3-0 libpgm-dev libsodium-dev libsodium23
  libxml2-dev libzmq5
Suggested packages:
  doc-base krb5-doc krb5-user icu-doc libnorm-doc pkg-config
Recommended packages:
  cppzmq-dev
The following NEW packages will be installed:
  comerr-dev icu-devtools krb5-multidev libbsd-dev libgssrpc4 libicu-dev
  libkadm5clnt-mit12 libkadm5srv-mit12 libkdb5-10 libkrb5-dev libmd-dev
  libnorm-dev libnorm1 libpgm-5.3-0 libpgm-dev libsodium-dev libsodium23
  libxml2-dev libzmq3-dev libzmq5
0 upgraded, 20 newly installed, 0 to remove and 13 not upgraded.
Need to get 13.5 MB of archives.
After this operation, 56.3 MB of additional disk space will be used.
Get:1 http://deb.debian.org/debian unstable/main armhf comerr-dev armhf 2.1-1.47.0-2+b1 [51.2 kB]
Get:2 http://deb.debian.org/debian unstable/main armhf icu-devtools armhf 72.1-4 [184 kB]
Get:3 http://deb.debian.org/debian unstable/main armhf libgssrpc4 armhf 1.20.1-5 [50.8 kB]
Get:4 http://deb.debian.org/debian unstable/main armhf libkadm5clnt-mit12 armhf 1.20.1-5 [36.2 kB]
Get:5 http://deb.debian.org/debian unstable/main armhf libkdb5-10 armhf 1.20.1-5 [35.9 kB]
Get:6 http://deb.debian.org/debian unstable/main armhf libkadm5srv-mit12 armhf 1.20.1-5 [46.1 kB]
Get:7 http://deb.debian.org/debian unstable/main armhf krb5-multidev armhf 1.20.1-5 [125 kB]
Get:8 http://deb.debian.org/debian unstable/main armhf libmd-dev armhf 1.1.0-2 [51.6 kB]
Get:9 http://deb.debian.org/debian unstable/main armhf libbsd-dev armhf 0.11.7-4 [236 kB]
Get:10 http://deb.debian.org/debian unstable/main armhf libicu-dev armhf 72.1-4 [10.1 MB]
Get:11 http://deb.debian.org/debian unstable/main armhf libkrb5-dev armhf 1.20.1-5 [15.0 kB]
Get:12 http://deb.debian.org/debian unstable/main armhf libnorm1 armhf 1.5.9+dfsg-3 [185 kB]
Get:13 http://deb.debian.org/debian unstable/main armhf libxml2-dev armhf 2.9.14+dfsg-1.3+b2 [717 kB]
Get:14 http://deb.debian.org/debian unstable/main armhf libnorm-dev armhf 1.5.9+dfsg-3 [345 kB]
Get:15 http://deb.debian.org/debian unstable/main armhf libpgm-5.3-0 armhf 5.3.128~dfsg-2 [156 kB]
Get:16 http://deb.debian.org/debian unstable/main armhf libpgm-dev armhf 5.3.128~dfsg-2 [189 kB]
Get:17 http://deb.debian.org/debian unstable/main armhf libsodium23 armhf 1.0.18-1 [147 kB]
Get:18 http://deb.debian.org/debian unstable/main armhf libsodium-dev armhf 1.0.18-1 [165 kB]
Get:19 http://deb.debian.org/debian unstable/main armhf libzmq5 armhf 4.3.5-1 [237 kB]
Get:20 http://deb.debian.org/debian unstable/main armhf libzmq3-dev armhf 4.3.5-1 [474 kB]
debconf: delaying package configuration, since apt-utils is not installed
Fetched 13.5 MB in 0s (38.2 MB/s)
Selecting previously unselected package comerr-dev:armhf.
(Reading database ... (Reading database ... 5%(Reading database ... 10%(Reading database ... 15%(Reading database ... 20%(Reading database ... 25%(Reading database ... 30%(Reading database ... 35%(Reading database ... 40%(Reading database ... 45%(Reading database ... 50%(Reading database ... 55%(Reading database ... 60%(Reading database ... 65%(Reading database ... 70%(Reading database ... 75%(Reading database ... 80%(Reading database ... 85%(Reading database ... 90%(Reading database ... 95%(Reading database ... 100%(Reading database ... 17136 files and directories currently installed.)
Preparing to unpack .../00-comerr-dev_2.1-1.47.0-2+b1_armhf.deb ...
Unpacking comerr-dev:armhf (2.1-1.47.0-2+b1) ...
Selecting previously unselected package icu-devtools.
Preparing to unpack .../01-icu-devtools_72.1-4_armhf.deb ...
Unpacking icu-devtools (72.1-4) ...
Selecting previously unselected package libgssrpc4:armhf.
Preparing to unpack .../02-libgssrpc4_1.20.1-5_armhf.deb ...
Unpacking libgssrpc4:armhf (1.20.1-5) ...
Selecting previously unselected package libkadm5clnt-mit12:armhf.
Preparing to unpack .../03-libkadm5clnt-mit12_1.20.1-5_armhf.deb ...
Unpacking libkadm5clnt-mit12:armhf (1.20.1-5) ...
Selecting previously unselected package libkdb5-10:armhf.
Preparing to unpack .../04-libkdb5-10_1.20.1-5_armhf.deb ...
Unpacking libkdb5-10:armhf (1.20.1-5) ...
Selecting previously unselected package libkadm5srv-mit12:armhf.
Preparing to unpack .../05-libkadm5srv-mit12_1.20.1-5_armhf.deb ...
Unpacking libkadm5srv-mit12:armhf (1.20.1-5) ...
Selecting previously unselected package krb5-multidev:armhf.
Preparing to unpack .../06-krb5-multidev_1.20.1-5_armhf.deb ...
Unpacking krb5-multidev:armhf (1.20.1-5) ...
Selecting previously unselected package libmd-dev:armhf.
Preparing to unpack .../07-libmd-dev_1.1.0-2_armhf.deb ...
Unpacking libmd-dev:armhf (1.1.0-2) ...
Selecting previously unselected package libbsd-dev:armhf.
Preparing to unpack .../08-libbsd-dev_0.11.7-4_armhf.deb ...
Unpacking libbsd-dev:armhf (0.11.7-4) ...
Selecting previously unselected package libicu-dev:armhf.
Preparing to unpack .../09-libicu-dev_72.1-4_armhf.deb ...
Unpacking libicu-dev:armhf (72.1-4) ...
Selecting previously unselected package libkrb5-dev:armhf.
Preparing to unpack .../10-libkrb5-dev_1.20.1-5_armhf.deb ...
Unpacking libkrb5-dev:armhf (1.20.1-5) ...
Selecting previously unselected package libnorm1:armhf.
Preparing to unpack .../11-libnorm1_1.5.9+dfsg-3_armhf.deb ...
Unpacking libnorm1:armhf (1.5.9+dfsg-3) ...
Selecting previously unselected package libxml2-dev:armhf.
Preparing to unpack .../12-libxml2-dev_2.9.14+dfsg-1.3+b2_armhf.deb ...
Unpacking libxml2-dev:armhf (2.9.14+dfsg-1.3+b2) ...
Selecting previously unselected package libnorm-dev:armhf.
Preparing to unpack .../13-libnorm-dev_1.5.9+dfsg-3_armhf.deb ...
Unpacking libnorm-dev:armhf (1.5.9+dfsg-3) ...
Selecting previously unselected package libpgm-5.3-0:armhf.
Preparing to unpack .../14-libpgm-5.3-0_5.3.128~dfsg-2_armhf.deb ...
Unpacking libpgm-5.3-0:armhf (5.3.128~dfsg-2) ...
Selecting previously unselected package libpgm-dev:armhf.
Preparing to unpack .../15-libpgm-dev_5.3.128~dfsg-2_armhf.deb ...
Unpacking libpgm-dev:armhf (5.3.128~dfsg-2) ...
Selecting previously unselected package libsodium23:armhf.
Preparing to unpack .../16-libsodium23_1.0.18-1_armhf.deb ...
Unpacking libsodium23:armhf (1.0.18-1) ...
Selecting previously unselected package libsodium-dev:armhf.
Preparing to unpack .../17-libsodium-dev_1.0.18-1_armhf.deb ...
Unpacking libsodium-dev:armhf (1.0.18-1) ...
Selecting previously unselected package libzmq5:armhf.
Preparing to unpack .../18-libzmq5_4.3.5-1_armhf.deb ...
Unpacking libzmq5:armhf (4.3.5-1) ...
Selecting previously unselected package libzmq3-dev:armhf.
Preparing to unpack .../19-libzmq3-dev_4.3.5-1_armhf.deb ...
Unpacking libzmq3-dev:armhf (4.3.5-1) ...
Setting up libsodium23:armhf (1.0.18-1) ...
Setting up libpgm-5.3-0:armhf (5.3.128~dfsg-2) ...
Setting up libnorm1:armhf (1.5.9+dfsg-3) ...
Setting up libgssrpc4:armhf (1.20.1-5) ...
Setting up libpgm-dev:armhf (5.3.128~dfsg-2) ...
Setting up comerr-dev:armhf (2.1-1.47.0-2+b1) ...
Setting up icu-devtools (72.1-4) ...
Setting up libsodium-dev:armhf (1.0.18-1) ...
Setting up libmd-dev:armhf (1.1.0-2) ...
Setting up libicu-dev:armhf (72.1-4) ...
Setting up libbsd-dev:armhf (0.11.7-4) ...
Setting up libkadm5clnt-mit12:armhf (1.20.1-5) ...
Setting up libkdb5-10:armhf (1.20.1-5) ...
Setting up libzmq5:armhf (4.3.5-1) ...
Setting up libxml2-dev:armhf (2.9.14+dfsg-1.3+b2) ...
Setting up libkadm5srv-mit12:armhf (1.20.1-5) ...
Setting up krb5-multidev:armhf (1.20.1-5) ...
Setting up libnorm-dev:armhf (1.5.9+dfsg-3) ...
Setting up libkrb5-dev:armhf (1.20.1-5) ...
Setting up libzmq3-dev:armhf (4.3.5-1) ...
Processing triggers for libc-bin (2.37-13) ...
Processing triggers for install-info (7.1-2) ...
Reading package lists...
Building dependency tree...
Reading state information...
The following packages will be REMOVED:
  libpng16-16* librevenge-0.0-0* librevenge-dev* libzmf-0.0-0* libzmf-dev*
0 upgraded, 0 newly installed, 5 to remove and 13 not upgraded.
After this operation, 1983 kB disk space will be freed.
(Reading database ... (Reading database ... 5%(Reading database ... 10%(Reading database ... 15%(Reading database ... 20%(Reading database ... 25%(Reading database ... 30%(Reading database ... 35%(Reading database ... 40%(Reading database ... 45%(Reading database ... 50%(Reading database ... 55%(Reading database ... 60%(Reading database ... 65%(Reading database ... 70%(Reading database ... 75%(Reading database ... 80%(Reading database ... 85%(Reading database ... 90%(Reading database ... 95%(Reading database ... 100%(Reading database ... 18235 files and directories currently installed.)
Removing libzmf-dev:armhf (0.0.2-1+b5) ...
Removing libzmf-0.0-0:armhf (0.0.2-1+b5) ...
Removing libpng16-16:armhf (1.6.40-3) ...
Removing librevenge-dev:armhf (0.0.5-3) ...
Removing librevenge-0.0-0:armhf (0.0.5-3) ...
Processing triggers for libc-bin (2.37-13) ...
