[2024-01-09T21:21:41+00:00] apt-get install qt6-quicktimeline-dev qt6-base-dev qt6-declarative-dev qt6-base-private-dev qt6-declarative-private-dev qt6-base-dev abi-compliance-checker
Reading package lists...
Building dependency tree...
Reading state information...
qt6-base-dev is already the newest version (6.4.2+dfsg-20).
qt6-base-dev set to manually installed.
abi-compliance-checker is already the newest version (2.3-2).
The following packages were automatically installed and are no longer required:
  libqt6quick3d6 libqt6quick3dphysics6 libqt6quick3dphysicshelpers6
  libqt6quick3druntimerender6 libqt6quick3dutils6 libqt6shadertools6
  qt6-quick3dphysics-dev
Use 'apt autoremove' to remove them.
The following additional packages will be installed:
  gir1.2-glib-2.0 gir1.2-gudev-1.0 libblkid-dev libbrotli-dev libbz2-dev
  libevdev-dev libexpat1-dev libffi-dev libfontconfig-dev libfreetype-dev
  libgirepository-1.0-1 libglib2.0-bin libglib2.0-data libglib2.0-dev
  libglib2.0-dev-bin libgudev-1.0-dev libinput-dev libmount-dev libmtdev-dev
  libpcre2-32-0 libpcre2-dev libpcre2-posix3 libpkgconf3 libpng-dev
  libqt6jsonrpc6 libqt6labsanimation6 libqt6labsfolderlistmodel6
  libqt6labsqmlmodels6 libqt6labssettings6 libqt6labssharedimage6
  libqt6labswavefrontmesh6 libqt6languageserver6 libqt6qmlcompiler6
  libqt6qmlcore6 libqt6qmllocalstorage6 libqt6qmlworkerscript6
  libqt6qmlxmllistmodel6 libqt6quickcontrols2-6 libqt6quickcontrols2impl6
  libqt6quickdialogs2-6 libqt6quickdialogs2quickimpl6
  libqt6quickdialogs2utils6 libqt6quicklayouts6 libqt6quickparticles6
  libqt6quickshapes6 libqt6quicktemplates2-6 libqt6quicktest6
  libqt6quicktimeline6 libqt6quickwidgets6 libselinux1-dev libsepol-dev
  libudev-dev libwacom-dev libxkbcommon-dev pkg-config pkgconf pkgconf-bin
  python3-distutils python3-lib2to3 qml6-module-qtquick-timeline
  qt6-declarative-dev-tools qt6-qmllint-plugins uuid-dev zlib1g-dev
Suggested packages:
  libevdev-doc freetype2-doc libgirepository1.0-dev libglib2.0-doc
  libgdk-pixbuf2.0-bin libxml2-utils
Recommended packages:
  bzip2-doc libpng-tools
The following NEW packages will be installed:
  gir1.2-glib-2.0 gir1.2-gudev-1.0 libblkid-dev libbrotli-dev libbz2-dev
  libevdev-dev libexpat1-dev libffi-dev libfontconfig-dev libfreetype-dev
  libgirepository-1.0-1 libglib2.0-bin libglib2.0-data libglib2.0-dev
  libglib2.0-dev-bin libgudev-1.0-dev libinput-dev libmount-dev libmtdev-dev
  libpcre2-32-0 libpcre2-dev libpcre2-posix3 libpkgconf3 libpng-dev
  libqt6jsonrpc6 libqt6labsanimation6 libqt6labsfolderlistmodel6
  libqt6labsqmlmodels6 libqt6labssettings6 libqt6labssharedimage6
  libqt6labswavefrontmesh6 libqt6languageserver6 libqt6qmlcompiler6
  libqt6qmlcore6 libqt6qmllocalstorage6 libqt6qmlworkerscript6
  libqt6qmlxmllistmodel6 libqt6quickcontrols2-6 libqt6quickcontrols2impl6
  libqt6quickdialogs2-6 libqt6quickdialogs2quickimpl6
  libqt6quickdialogs2utils6 libqt6quicklayouts6 libqt6quickparticles6
  libqt6quickshapes6 libqt6quicktemplates2-6 libqt6quicktest6
  libqt6quicktimeline6 libqt6quickwidgets6 libselinux1-dev libsepol-dev
  libudev-dev libwacom-dev libxkbcommon-dev pkg-config pkgconf pkgconf-bin
  python3-distutils python3-lib2to3 qml6-module-qtquick-timeline
  qt6-base-private-dev qt6-declarative-dev qt6-declarative-dev-tools
  qt6-declarative-private-dev qt6-qmllint-plugins qt6-quicktimeline-dev
  uuid-dev zlib1g-dev
0 upgraded, 68 newly installed, 0 to remove and 75 not upgraded.
Need to get 14.6 MB of archives.
After this operation, 75.4 MB of additional disk space will be used.
Get:1 http://deb.debian.org/debian unstable/main armhf libgirepository-1.0-1 armhf 1.78.1-6 [94.8 kB]
Get:2 http://deb.debian.org/debian unstable/main armhf gir1.2-glib-2.0 armhf 1.78.1-6 [165 kB]
Get:3 http://deb.debian.org/debian unstable/main armhf gir1.2-gudev-1.0 armhf 238-3 [5040 B]
Get:4 http://deb.debian.org/debian unstable/main armhf uuid-dev armhf 2.39.3-6 [39.6 kB]
Get:5 http://deb.debian.org/debian unstable/main armhf libblkid-dev armhf 2.39.3-6 [186 kB]
Get:6 http://deb.debian.org/debian unstable/main armhf libbrotli-dev armhf 1.1.0-2+b3 [292 kB]
Get:7 http://deb.debian.org/debian unstable/main armhf libbz2-dev armhf 1.0.8-5+b2 [28.2 kB]
Get:8 http://deb.debian.org/debian unstable/main armhf libevdev-dev armhf 1.13.1+dfsg-1 [47.1 kB]
Get:9 http://deb.debian.org/debian unstable/main armhf libexpat1-dev armhf 2.5.0-2+b2 [134 kB]
Get:10 http://deb.debian.org/debian unstable/main armhf libffi-dev armhf 3.4.4-2 [55.7 kB]
Get:11 http://deb.debian.org/debian unstable/main armhf zlib1g-dev armhf 1:1.3.dfsg-3 [904 kB]
Get:12 http://deb.debian.org/debian unstable/main armhf libpng-dev armhf 1.6.40-3 [343 kB]
Get:13 http://deb.debian.org/debian unstable/main armhf libfreetype-dev armhf 2.13.2+dfsg-1+b1 [546 kB]
Get:14 http://deb.debian.org/debian unstable/main armhf libpkgconf3 armhf 1.8.1-1+b2 [31.9 kB]
Get:15 http://deb.debian.org/debian unstable/main armhf pkgconf-bin armhf 1.8.1-1+b2 [28.9 kB]
Get:16 http://deb.debian.org/debian unstable/main armhf pkgconf armhf 1.8.1-1+b2 [26.2 kB]
Get:17 http://deb.debian.org/debian unstable/main armhf pkg-config armhf 1.8.1-1+b2 [14.0 kB]
Get:18 http://deb.debian.org/debian unstable/main armhf libfontconfig-dev armhf 2.14.2-6+b1 [394 kB]
Get:19 http://deb.debian.org/debian unstable/main armhf libglib2.0-data all 2.78.3-1 [1223 kB]
Get:20 http://deb.debian.org/debian unstable/main armhf libglib2.0-bin armhf 2.78.3-1 [108 kB]
Get:21 http://deb.debian.org/debian unstable/main armhf python3-lib2to3 all 3.11.5-1 [77.5 kB]
Get:22 http://deb.debian.org/debian unstable/main armhf python3-distutils all 3.11.5-1 [131 kB]
Get:23 http://deb.debian.org/debian unstable/main armhf libglib2.0-dev-bin armhf 2.78.3-1 [154 kB]
Get:24 http://deb.debian.org/debian unstable/main armhf libsepol-dev armhf 3.5-2 [319 kB]
Get:25 http://deb.debian.org/debian unstable/main armhf libpcre2-32-0 armhf 10.42-4 [202 kB]
Get:26 http://deb.debian.org/debian unstable/main armhf libpcre2-posix3 armhf 10.42-4 [55.0 kB]
Get:27 http://deb.debian.org/debian unstable/main armhf libpcre2-dev armhf 10.42-4 [668 kB]
Get:28 http://deb.debian.org/debian unstable/main armhf libselinux1-dev armhf 3.5-1+b2 [151 kB]
Get:29 http://deb.debian.org/debian unstable/main armhf libmount-dev armhf 2.39.3-6 [23.6 kB]
Get:30 http://deb.debian.org/debian unstable/main armhf libglib2.0-dev armhf 2.78.3-1 [1526 kB]
Get:31 http://deb.debian.org/debian unstable/main armhf libudev-dev armhf 255.2-4 [59.2 kB]
Get:32 http://deb.debian.org/debian unstable/main armhf libgudev-1.0-dev armhf 238-3 [29.0 kB]
Get:33 http://deb.debian.org/debian unstable/main armhf libmtdev-dev armhf 1.1.6-1 [15.6 kB]
Get:34 http://deb.debian.org/debian unstable/main armhf libwacom-dev armhf 2.8.0-1 [9240 B]
Get:35 http://deb.debian.org/debian unstable/main armhf libinput-dev armhf 1.23.0-2.1 [34.0 kB]
Get:36 http://deb.debian.org/debian unstable/main armhf libqt6jsonrpc6 armhf 6.4.2-2 [42.5 kB]
Get:37 http://deb.debian.org/debian unstable/main armhf libqt6labsanimation6 armhf 6.4.2+dfsg-4 [23.0 kB]
Get:38 http://deb.debian.org/debian unstable/main armhf libqt6labsfolderlistmodel6 armhf 6.4.2+dfsg-4 [33.4 kB]
Get:39 http://deb.debian.org/debian unstable/main armhf libqt6labsqmlmodels6 armhf 6.4.2+dfsg-4 [62.4 kB]
Get:40 http://deb.debian.org/debian unstable/main armhf libqt6labssettings6 armhf 6.4.2+dfsg-4 [25.8 kB]
Get:41 http://deb.debian.org/debian unstable/main armhf libqt6labssharedimage6 armhf 6.4.2+dfsg-4 [23.6 kB]
Get:42 http://deb.debian.org/debian unstable/main armhf libqt6labswavefrontmesh6 armhf 6.4.2+dfsg-4 [24.8 kB]
Get:43 http://deb.debian.org/debian unstable/main armhf libqt6languageserver6 armhf 6.4.2-2 [252 kB]
Get:44 http://deb.debian.org/debian unstable/main armhf libqt6qmlcompiler6 armhf 6.4.2+dfsg-4 [418 kB]
Get:45 http://deb.debian.org/debian unstable/main armhf libqt6qmlcore6 armhf 6.4.2+dfsg-4 [24.2 kB]
Get:46 http://deb.debian.org/debian unstable/main armhf libqt6qmllocalstorage6 armhf 6.4.2+dfsg-4 [26.1 kB]
Get:47 http://deb.debian.org/debian unstable/main armhf libqt6qmlworkerscript6 armhf 6.4.2+dfsg-4 [31.3 kB]
Get:48 http://deb.debian.org/debian unstable/main armhf libqt6qmlxmllistmodel6 armhf 6.4.2+dfsg-4 [42.2 kB]
Get:49 http://deb.debian.org/debian unstable/main armhf libqt6quicktemplates2-6 armhf 6.4.2+dfsg-4 [452 kB]
Get:50 http://deb.debian.org/debian unstable/main armhf libqt6quickcontrols2-6 armhf 6.4.2+dfsg-4 [27.3 kB]
Get:51 http://deb.debian.org/debian unstable/main armhf libqt6quickcontrols2impl6 armhf 6.4.2+dfsg-4 [84.2 kB]
Get:52 http://deb.debian.org/debian unstable/main armhf libqt6quickdialogs2utils6 armhf 6.4.2+dfsg-4 [20.2 kB]
Get:53 http://deb.debian.org/debian unstable/main armhf libqt6quickdialogs2quickimpl6 armhf 6.4.2+dfsg-4 [310 kB]
Get:54 http://deb.debian.org/debian unstable/main armhf libqt6quickdialogs2-6 armhf 6.4.2+dfsg-4 [49.5 kB]
Get:55 http://deb.debian.org/debian unstable/main armhf libqt6quicklayouts6 armhf 6.4.2+dfsg-4 [54.8 kB]
Get:56 http://deb.debian.org/debian unstable/main armhf libqt6quickparticles6 armhf 6.4.2+dfsg-4 [191 kB]
Get:57 http://deb.debian.org/debian unstable/main armhf libqt6quickshapes6 armhf 6.4.2+dfsg-4 [75.4 kB]
Get:58 http://deb.debian.org/debian unstable/main armhf libqt6quicktest6 armhf 6.4.2+dfsg-4 [102 kB]
Get:59 http://deb.debian.org/debian unstable/main armhf libqt6quicktimeline6 armhf 6.4.2-2 [26.3 kB]
Get:60 http://deb.debian.org/debian unstable/main armhf libqt6quickwidgets6 armhf 6.4.2+dfsg-4 [39.3 kB]
Get:61 http://deb.debian.org/debian unstable/main armhf libxkbcommon-dev armhf 1.6.0-1 [52.6 kB]
Get:62 http://deb.debian.org/debian unstable/main armhf qml6-module-qtquick-timeline armhf 6.4.2-2 [7984 B]
Get:63 http://deb.debian.org/debian unstable/main armhf qt6-base-private-dev armhf 6.4.2+dfsg-20 [799 kB]
Get:64 http://deb.debian.org/debian unstable/main armhf qt6-declarative-dev-tools armhf 6.4.2+dfsg-4 [1292 kB]
Get:65 http://deb.debian.org/debian unstable/main armhf qt6-qmllint-plugins armhf 6.4.2+dfsg-4 [40.4 kB]
Get:66 http://deb.debian.org/debian unstable/main armhf qt6-declarative-dev armhf 6.4.2+dfsg-4 [1295 kB]
Get:67 http://deb.debian.org/debian unstable/main armhf qt6-declarative-private-dev armhf 6.4.2+dfsg-4 [561 kB]
Get:68 http://deb.debian.org/debian unstable/main armhf qt6-quicktimeline-dev armhf 6.4.2-2 [17.1 kB]
debconf: delaying package configuration, since apt-utils is not installed
Fetched 14.6 MB in 1s (12.1 MB/s)
Selecting previously unselected package libgirepository-1.0-1:armhf.
(Reading database ... (Reading database ... 5%(Reading database ... 10%(Reading database ... 15%(Reading database ... 20%(Reading database ... 25%(Reading database ... 30%(Reading database ... 35%(Reading database ... 40%(Reading database ... 45%(Reading database ... 50%(Reading database ... 55%(Reading database ... 60%(Reading database ... 65%(Reading database ... 70%(Reading database ... 75%(Reading database ... 80%(Reading database ... 85%(Reading database ... 90%(Reading database ... 95%(Reading database ... 100%(Reading database ... 18785 files and directories currently installed.)
Preparing to unpack .../00-libgirepository-1.0-1_1.78.1-6_armhf.deb ...
Unpacking libgirepository-1.0-1:armhf (1.78.1-6) ...
Selecting previously unselected package gir1.2-glib-2.0:armhf.
Preparing to unpack .../01-gir1.2-glib-2.0_1.78.1-6_armhf.deb ...
Unpacking gir1.2-glib-2.0:armhf (1.78.1-6) ...
Selecting previously unselected package gir1.2-gudev-1.0:armhf.
Preparing to unpack .../02-gir1.2-gudev-1.0_238-3_armhf.deb ...
Unpacking gir1.2-gudev-1.0:armhf (238-3) ...
Selecting previously unselected package uuid-dev:armhf.
Preparing to unpack .../03-uuid-dev_2.39.3-6_armhf.deb ...
Unpacking uuid-dev:armhf (2.39.3-6) ...
Selecting previously unselected package libblkid-dev:armhf.
Preparing to unpack .../04-libblkid-dev_2.39.3-6_armhf.deb ...
Unpacking libblkid-dev:armhf (2.39.3-6) ...
Selecting previously unselected package libbrotli-dev:armhf.
Preparing to unpack .../05-libbrotli-dev_1.1.0-2+b3_armhf.deb ...
Unpacking libbrotli-dev:armhf (1.1.0-2+b3) ...
Selecting previously unselected package libbz2-dev:armhf.
Preparing to unpack .../06-libbz2-dev_1.0.8-5+b2_armhf.deb ...
Unpacking libbz2-dev:armhf (1.0.8-5+b2) ...
Selecting previously unselected package libevdev-dev:armhf.
Preparing to unpack .../07-libevdev-dev_1.13.1+dfsg-1_armhf.deb ...
Unpacking libevdev-dev:armhf (1.13.1+dfsg-1) ...
Selecting previously unselected package libexpat1-dev:armhf.
Preparing to unpack .../08-libexpat1-dev_2.5.0-2+b2_armhf.deb ...
Unpacking libexpat1-dev:armhf (2.5.0-2+b2) ...
Selecting previously unselected package libffi-dev:armhf.
Preparing to unpack .../09-libffi-dev_3.4.4-2_armhf.deb ...
Unpacking libffi-dev:armhf (3.4.4-2) ...
Selecting previously unselected package zlib1g-dev:armhf.
Preparing to unpack .../10-zlib1g-dev_1%3a1.3.dfsg-3_armhf.deb ...
Unpacking zlib1g-dev:armhf (1:1.3.dfsg-3) ...
Selecting previously unselected package libpng-dev:armhf.
Preparing to unpack .../11-libpng-dev_1.6.40-3_armhf.deb ...
Unpacking libpng-dev:armhf (1.6.40-3) ...
Selecting previously unselected package libfreetype-dev:armhf.
Preparing to unpack .../12-libfreetype-dev_2.13.2+dfsg-1+b1_armhf.deb ...
Unpacking libfreetype-dev:armhf (2.13.2+dfsg-1+b1) ...
Selecting previously unselected package libpkgconf3:armhf.
Preparing to unpack .../13-libpkgconf3_1.8.1-1+b2_armhf.deb ...
Unpacking libpkgconf3:armhf (1.8.1-1+b2) ...
Selecting previously unselected package pkgconf-bin.
Preparing to unpack .../14-pkgconf-bin_1.8.1-1+b2_armhf.deb ...
Unpacking pkgconf-bin (1.8.1-1+b2) ...
Selecting previously unselected package pkgconf:armhf.
Preparing to unpack .../15-pkgconf_1.8.1-1+b2_armhf.deb ...
Unpacking pkgconf:armhf (1.8.1-1+b2) ...
Selecting previously unselected package pkg-config:armhf.
Preparing to unpack .../16-pkg-config_1.8.1-1+b2_armhf.deb ...
Unpacking pkg-config:armhf (1.8.1-1+b2) ...
Selecting previously unselected package libfontconfig-dev:armhf.
Preparing to unpack .../17-libfontconfig-dev_2.14.2-6+b1_armhf.deb ...
Unpacking libfontconfig-dev:armhf (2.14.2-6+b1) ...
Selecting previously unselected package libglib2.0-data.
Preparing to unpack .../18-libglib2.0-data_2.78.3-1_all.deb ...
Unpacking libglib2.0-data (2.78.3-1) ...
Selecting previously unselected package libglib2.0-bin.
Preparing to unpack .../19-libglib2.0-bin_2.78.3-1_armhf.deb ...
Unpacking libglib2.0-bin (2.78.3-1) ...
Selecting previously unselected package python3-lib2to3.
Preparing to unpack .../20-python3-lib2to3_3.11.5-1_all.deb ...
Unpacking python3-lib2to3 (3.11.5-1) ...
Selecting previously unselected package python3-distutils.
Preparing to unpack .../21-python3-distutils_3.11.5-1_all.deb ...
Unpacking python3-distutils (3.11.5-1) ...
Selecting previously unselected package libglib2.0-dev-bin.
Preparing to unpack .../22-libglib2.0-dev-bin_2.78.3-1_armhf.deb ...
Unpacking libglib2.0-dev-bin (2.78.3-1) ...
Selecting previously unselected package libsepol-dev:armhf.
Preparing to unpack .../23-libsepol-dev_3.5-2_armhf.deb ...
Unpacking libsepol-dev:armhf (3.5-2) ...
Selecting previously unselected package libpcre2-32-0:armhf.
Preparing to unpack .../24-libpcre2-32-0_10.42-4_armhf.deb ...
Unpacking libpcre2-32-0:armhf (10.42-4) ...
Selecting previously unselected package libpcre2-posix3:armhf.
Preparing to unpack .../25-libpcre2-posix3_10.42-4_armhf.deb ...
Unpacking libpcre2-posix3:armhf (10.42-4) ...
Selecting previously unselected package libpcre2-dev:armhf.
Preparing to unpack .../26-libpcre2-dev_10.42-4_armhf.deb ...
Unpacking libpcre2-dev:armhf (10.42-4) ...
Selecting previously unselected package libselinux1-dev:armhf.
Preparing to unpack .../27-libselinux1-dev_3.5-1+b2_armhf.deb ...
Unpacking libselinux1-dev:armhf (3.5-1+b2) ...
Selecting previously unselected package libmount-dev:armhf.
Preparing to unpack .../28-libmount-dev_2.39.3-6_armhf.deb ...
Unpacking libmount-dev:armhf (2.39.3-6) ...
Selecting previously unselected package libglib2.0-dev:armhf.
Preparing to unpack .../29-libglib2.0-dev_2.78.3-1_armhf.deb ...
Unpacking libglib2.0-dev:armhf (2.78.3-1) ...
Selecting previously unselected package libudev-dev:armhf.
Preparing to unpack .../30-libudev-dev_255.2-4_armhf.deb ...
Unpacking libudev-dev:armhf (255.2-4) ...
Selecting previously unselected package libgudev-1.0-dev:armhf.
Preparing to unpack .../31-libgudev-1.0-dev_238-3_armhf.deb ...
Unpacking libgudev-1.0-dev:armhf (238-3) ...
Selecting previously unselected package libmtdev-dev:armhf.
Preparing to unpack .../32-libmtdev-dev_1.1.6-1_armhf.deb ...
Unpacking libmtdev-dev:armhf (1.1.6-1) ...
Selecting previously unselected package libwacom-dev:armhf.
Preparing to unpack .../33-libwacom-dev_2.8.0-1_armhf.deb ...
Unpacking libwacom-dev:armhf (2.8.0-1) ...
Selecting previously unselected package libinput-dev:armhf.
Preparing to unpack .../34-libinput-dev_1.23.0-2.1_armhf.deb ...
Unpacking libinput-dev:armhf (1.23.0-2.1) ...
Selecting previously unselected package libqt6jsonrpc6:armhf.
Preparing to unpack .../35-libqt6jsonrpc6_6.4.2-2_armhf.deb ...
Unpacking libqt6jsonrpc6:armhf (6.4.2-2) ...
Selecting previously unselected package libqt6labsanimation6:armhf.
Preparing to unpack .../36-libqt6labsanimation6_6.4.2+dfsg-4_armhf.deb ...
Unpacking libqt6labsanimation6:armhf (6.4.2+dfsg-4) ...
Selecting previously unselected package libqt6labsfolderlistmodel6:armhf.
Preparing to unpack .../37-libqt6labsfolderlistmodel6_6.4.2+dfsg-4_armhf.deb ...
Unpacking libqt6labsfolderlistmodel6:armhf (6.4.2+dfsg-4) ...
Selecting previously unselected package libqt6labsqmlmodels6:armhf.
Preparing to unpack .../38-libqt6labsqmlmodels6_6.4.2+dfsg-4_armhf.deb ...
Unpacking libqt6labsqmlmodels6:armhf (6.4.2+dfsg-4) ...
Selecting previously unselected package libqt6labssettings6:armhf.
Preparing to unpack .../39-libqt6labssettings6_6.4.2+dfsg-4_armhf.deb ...
Unpacking libqt6labssettings6:armhf (6.4.2+dfsg-4) ...
Selecting previously unselected package libqt6labssharedimage6:armhf.
Preparing to unpack .../40-libqt6labssharedimage6_6.4.2+dfsg-4_armhf.deb ...
Unpacking libqt6labssharedimage6:armhf (6.4.2+dfsg-4) ...
Selecting previously unselected package libqt6labswavefrontmesh6:armhf.
Preparing to unpack .../41-libqt6labswavefrontmesh6_6.4.2+dfsg-4_armhf.deb ...
Unpacking libqt6labswavefrontmesh6:armhf (6.4.2+dfsg-4) ...
Selecting previously unselected package libqt6languageserver6:armhf.
Preparing to unpack .../42-libqt6languageserver6_6.4.2-2_armhf.deb ...
Unpacking libqt6languageserver6:armhf (6.4.2-2) ...
Selecting previously unselected package libqt6qmlcompiler6:armhf.
Preparing to unpack .../43-libqt6qmlcompiler6_6.4.2+dfsg-4_armhf.deb ...
Unpacking libqt6qmlcompiler6:armhf (6.4.2+dfsg-4) ...
Selecting previously unselected package libqt6qmlcore6:armhf.
Preparing to unpack .../44-libqt6qmlcore6_6.4.2+dfsg-4_armhf.deb ...
Unpacking libqt6qmlcore6:armhf (6.4.2+dfsg-4) ...
Selecting previously unselected package libqt6qmllocalstorage6:armhf.
Preparing to unpack .../45-libqt6qmllocalstorage6_6.4.2+dfsg-4_armhf.deb ...
Unpacking libqt6qmllocalstorage6:armhf (6.4.2+dfsg-4) ...
Selecting previously unselected package libqt6qmlworkerscript6:armhf.
Preparing to unpack .../46-libqt6qmlworkerscript6_6.4.2+dfsg-4_armhf.deb ...
Unpacking libqt6qmlworkerscript6:armhf (6.4.2+dfsg-4) ...
Selecting previously unselected package libqt6qmlxmllistmodel6:armhf.
Preparing to unpack .../47-libqt6qmlxmllistmodel6_6.4.2+dfsg-4_armhf.deb ...
Unpacking libqt6qmlxmllistmodel6:armhf (6.4.2+dfsg-4) ...
Selecting previously unselected package libqt6quicktemplates2-6:armhf.
Preparing to unpack .../48-libqt6quicktemplates2-6_6.4.2+dfsg-4_armhf.deb ...
Unpacking libqt6quicktemplates2-6:armhf (6.4.2+dfsg-4) ...
Selecting previously unselected package libqt6quickcontrols2-6:armhf.
Preparing to unpack .../49-libqt6quickcontrols2-6_6.4.2+dfsg-4_armhf.deb ...
Unpacking libqt6quickcontrols2-6:armhf (6.4.2+dfsg-4) ...
Selecting previously unselected package libqt6quickcontrols2impl6:armhf.
Preparing to unpack .../50-libqt6quickcontrols2impl6_6.4.2+dfsg-4_armhf.deb ...
Unpacking libqt6quickcontrols2impl6:armhf (6.4.2+dfsg-4) ...
Selecting previously unselected package libqt6quickdialogs2utils6:armhf.
Preparing to unpack .../51-libqt6quickdialogs2utils6_6.4.2+dfsg-4_armhf.deb ...
Unpacking libqt6quickdialogs2utils6:armhf (6.4.2+dfsg-4) ...
Selecting previously unselected package libqt6quickdialogs2quickimpl6:armhf.
Preparing to unpack .../52-libqt6quickdialogs2quickimpl6_6.4.2+dfsg-4_armhf.deb ...
Unpacking libqt6quickdialogs2quickimpl6:armhf (6.4.2+dfsg-4) ...
Selecting previously unselected package libqt6quickdialogs2-6:armhf.
Preparing to unpack .../53-libqt6quickdialogs2-6_6.4.2+dfsg-4_armhf.deb ...
Unpacking libqt6quickdialogs2-6:armhf (6.4.2+dfsg-4) ...
Selecting previously unselected package libqt6quicklayouts6:armhf.
Preparing to unpack .../54-libqt6quicklayouts6_6.4.2+dfsg-4_armhf.deb ...
Unpacking libqt6quicklayouts6:armhf (6.4.2+dfsg-4) ...
Selecting previously unselected package libqt6quickparticles6:armhf.
Preparing to unpack .../55-libqt6quickparticles6_6.4.2+dfsg-4_armhf.deb ...
Unpacking libqt6quickparticles6:armhf (6.4.2+dfsg-4) ...
Selecting previously unselected package libqt6quickshapes6:armhf.
Preparing to unpack .../56-libqt6quickshapes6_6.4.2+dfsg-4_armhf.deb ...
Unpacking libqt6quickshapes6:armhf (6.4.2+dfsg-4) ...
Selecting previously unselected package libqt6quicktest6:armhf.
Preparing to unpack .../57-libqt6quicktest6_6.4.2+dfsg-4_armhf.deb ...
Unpacking libqt6quicktest6:armhf (6.4.2+dfsg-4) ...
Selecting previously unselected package libqt6quicktimeline6:armhf.
Preparing to unpack .../58-libqt6quicktimeline6_6.4.2-2_armhf.deb ...
Unpacking libqt6quicktimeline6:armhf (6.4.2-2) ...
Selecting previously unselected package libqt6quickwidgets6:armhf.
Preparing to unpack .../59-libqt6quickwidgets6_6.4.2+dfsg-4_armhf.deb ...
Unpacking libqt6quickwidgets6:armhf (6.4.2+dfsg-4) ...
Selecting previously unselected package libxkbcommon-dev:armhf.
Preparing to unpack .../60-libxkbcommon-dev_1.6.0-1_armhf.deb ...
Unpacking libxkbcommon-dev:armhf (1.6.0-1) ...
Selecting previously unselected package qml6-module-qtquick-timeline:armhf.
Preparing to unpack .../61-qml6-module-qtquick-timeline_6.4.2-2_armhf.deb ...
Unpacking qml6-module-qtquick-timeline:armhf (6.4.2-2) ...
Selecting previously unselected package qt6-base-private-dev:armhf.
Preparing to unpack .../62-qt6-base-private-dev_6.4.2+dfsg-20_armhf.deb ...
Unpacking qt6-base-private-dev:armhf (6.4.2+dfsg-20) ...
Selecting previously unselected package qt6-declarative-dev-tools.
Preparing to unpack .../63-qt6-declarative-dev-tools_6.4.2+dfsg-4_armhf.deb ...
Unpacking qt6-declarative-dev-tools (6.4.2+dfsg-4) ...
Selecting previously unselected package qt6-qmllint-plugins:armhf.
Preparing to unpack .../64-qt6-qmllint-plugins_6.4.2+dfsg-4_armhf.deb ...
Unpacking qt6-qmllint-plugins:armhf (6.4.2+dfsg-4) ...
Selecting previously unselected package qt6-declarative-dev:armhf.
Preparing to unpack .../65-qt6-declarative-dev_6.4.2+dfsg-4_armhf.deb ...
Unpacking qt6-declarative-dev:armhf (6.4.2+dfsg-4) ...
Selecting previously unselected package qt6-declarative-private-dev:armhf.
Preparing to unpack .../66-qt6-declarative-private-dev_6.4.2+dfsg-4_armhf.deb ...
Unpacking qt6-declarative-private-dev:armhf (6.4.2+dfsg-4) ...
Selecting previously unselected package qt6-quicktimeline-dev:armhf.
Preparing to unpack .../67-qt6-quicktimeline-dev_6.4.2-2_armhf.deb ...
Unpacking qt6-quicktimeline-dev:armhf (6.4.2-2) ...
Setting up libqt6quicktimeline6:armhf (6.4.2-2) ...
Setting up libqt6labsfolderlistmodel6:armhf (6.4.2+dfsg-4) ...
Setting up libevdev-dev:armhf (1.13.1+dfsg-1) ...
Setting up libmtdev-dev:armhf (1.1.6-1) ...
Setting up libqt6quicklayouts6:armhf (6.4.2+dfsg-4) ...
Setting up libxkbcommon-dev:armhf (1.6.0-1) ...
Setting up libqt6quickdialogs2utils6:armhf (6.4.2+dfsg-4) ...
Setting up libqt6quicktemplates2-6:armhf (6.4.2+dfsg-4) ...
Setting up libffi-dev:armhf (3.4.4-2) ...
Setting up libqt6quickwidgets6:armhf (6.4.2+dfsg-4) ...
Setting up libqt6quickparticles6:armhf (6.4.2+dfsg-4) ...
Setting up libqt6quickcontrols2impl6:armhf (6.4.2+dfsg-4) ...
Setting up libqt6qmlworkerscript6:armhf (6.4.2+dfsg-4) ...
Setting up libqt6labswavefrontmesh6:armhf (6.4.2+dfsg-4) ...
Setting up libpcre2-32-0:armhf (10.42-4) ...
Setting up libglib2.0-data (2.78.3-1) ...
Setting up libpkgconf3:armhf (1.8.1-1+b2) ...
Setting up libqt6labsanimation6:armhf (6.4.2+dfsg-4) ...
Setting up libexpat1-dev:armhf (2.5.0-2+b2) ...
Setting up libqt6quicktest6:armhf (6.4.2+dfsg-4) ...
Setting up uuid-dev:armhf (2.39.3-6) ...
Setting up libqt6qmlxmllistmodel6:armhf (6.4.2+dfsg-4) ...
Setting up libqt6labssharedimage6:armhf (6.4.2+dfsg-4) ...
Setting up libudev-dev:armhf (255.2-4) ...
Setting up libqt6labsqmlmodels6:armhf (6.4.2+dfsg-4) ...
Setting up libsepol-dev:armhf (3.5-2) ...
Setting up pkgconf-bin (1.8.1-1+b2) ...
Setting up zlib1g-dev:armhf (1:1.3.dfsg-3) ...
Setting up libpcre2-posix3:armhf (10.42-4) ...
Setting up libqt6quickshapes6:armhf (6.4.2+dfsg-4) ...
Setting up qml6-module-qtquick-timeline:armhf (6.4.2-2) ...
Setting up libqt6labssettings6:armhf (6.4.2+dfsg-4) ...
Setting up libgirepository-1.0-1:armhf (1.78.1-6) ...
Setting up libqt6jsonrpc6:armhf (6.4.2-2) ...
Setting up libqt6qmlcompiler6:armhf (6.4.2+dfsg-4) ...
Setting up libqt6qmlcore6:armhf (6.4.2+dfsg-4) ...
Setting up python3-lib2to3 (3.11.5-1) ...
Setting up libqt6quickdialogs2quickimpl6:armhf (6.4.2+dfsg-4) ...
Setting up libbrotli-dev:armhf (1.1.0-2+b3) ...
Setting up libqt6qmllocalstorage6:armhf (6.4.2+dfsg-4) ...
Setting up libbz2-dev:armhf (1.0.8-5+b2) ...
Setting up python3-distutils (3.11.5-1) ...
Setting up libglib2.0-dev-bin (2.78.3-1) ...
Setting up libblkid-dev:armhf (2.39.3-6) ...
Setting up libqt6quickcontrols2-6:armhf (6.4.2+dfsg-4) ...
Setting up libpcre2-dev:armhf (10.42-4) ...
Setting up libselinux1-dev:armhf (3.5-1+b2) ...
Setting up libpng-dev:armhf (1.6.40-3) ...
Setting up libglib2.0-bin (2.78.3-1) ...
Setting up libqt6quickdialogs2-6:armhf (6.4.2+dfsg-4) ...
Setting up pkgconf:armhf (1.8.1-1+b2) ...
Setting up libfreetype-dev:armhf (2.13.2+dfsg-1+b1) ...
Setting up qt6-quicktimeline-dev:armhf (6.4.2-2) ...
Setting up libqt6languageserver6:armhf (6.4.2-2) ...
Setting up pkg-config:armhf (1.8.1-1+b2) ...
Setting up gir1.2-glib-2.0:armhf (1.78.1-6) ...
Setting up qt6-qmllint-plugins:armhf (6.4.2+dfsg-4) ...
Setting up libmount-dev:armhf (2.39.3-6) ...
Setting up libfontconfig-dev:armhf (2.14.2-6+b1) ...
Setting up qt6-declarative-dev-tools (6.4.2+dfsg-4) ...
Setting up libglib2.0-dev:armhf (2.78.3-1) ...
Setting up gir1.2-gudev-1.0:armhf (238-3) ...
Setting up qt6-declarative-dev:armhf (6.4.2+dfsg-4) ...
Processing triggers for libglib2.0-0:armhf (2.78.3-1) ...
No schema files found: doing nothing.
Processing triggers for libc-bin (2.37-13) ...
Setting up libgudev-1.0-dev:armhf (238-3) ...
Setting up libwacom-dev:armhf (2.8.0-1) ...
Setting up libinput-dev:armhf (1.23.0-2.1) ...
Setting up qt6-base-private-dev:armhf (6.4.2+dfsg-20) ...
Setting up qt6-declarative-private-dev:armhf (6.4.2+dfsg-4) ...
Reading package lists...
Building dependency tree...
Reading state information...
The following packages will be REMOVED:
  libqt6quick3d6* libqt6quick3dphysics6* libqt6quick3dphysicshelpers6*
  libqt6quick3druntimerender6* libqt6quick3dutils6* libqt6shadertools6*
  qt6-quick3dphysics-dev*
0 upgraded, 0 newly installed, 7 to remove and 75 not upgraded.
After this operation, 17.5 MB disk space will be freed.
(Reading database ... (Reading database ... 5%(Reading database ... 10%(Reading database ... 15%(Reading database ... 20%(Reading database ... 25%(Reading database ... 30%(Reading database ... 35%(Reading database ... 40%(Reading database ... 45%(Reading database ... 50%(Reading database ... 55%(Reading database ... 60%(Reading database ... 65%(Reading database ... 70%(Reading database ... 75%(Reading database ... 80%(Reading database ... 85%(Reading database ... 90%(Reading database ... 95%(Reading database ... 100%(Reading database ... 23392 files and directories currently installed.)
Removing qt6-quick3dphysics-dev:armhf (6.4.2-6) ...
Removing libqt6quick3dphysicshelpers6:armhf (6.4.2-6) ...
Removing libqt6quick3dphysics6:armhf (6.4.2-6) ...
Removing libqt6quick3d6:armhf (6.4.2-3) ...
Removing libqt6quick3druntimerender6:armhf (6.4.2-3) ...
Removing libqt6quick3dutils6:armhf (6.4.2-3) ...
Removing libqt6shadertools6:armhf (6.4.2-3) ...
Processing triggers for libc-bin (2.37-13) ...
