Temporary header file '/tmp/mWsh8cxGQq/dump1.h' with the following content will be compiled to create GCC translation unit dump:

  // add defines
  #define __STDC_VERSION__ 201710L
#define _FILE_OFFSET_BITS 64
#define _GXX_NULLPTR_T
#define CLUTTER_ENABLE_COMPOSITOR_API 1
#define _REGEX_NELTS(n)
#define _Atomic
#define PACKED
#ifdef __cplusplus
// C17 compat layer
#define _Alignof(type) alignof(type)
#endif
#define getaddrinfo_a(a,b,c,d)

  // add includes
  #include "/usr/include/X11/Xcursor/Xcursor.h"

  // add classes
  _G_fpos64_t* tmp_add_class_0;
  _G_fpos_t* tmp_add_class_1;
  _IO_cookie_io_functions_t* tmp_add_class_2;
  _XEvent* tmp_add_class_3;
  _XExtData* tmp_add_class_4;
  _XIMHotKeyTrigger* tmp_add_class_5;
  _XIMHotKeyTriggers* tmp_add_class_6;
  _XIMPreeditCaretCallbackStruct* tmp_add_class_7;
  _XIMPreeditDrawCallbackStruct* tmp_add_class_8;
  _XIMPreeditStateNotifyCallbackStruct* tmp_add_class_9;
  _XIMStatusDrawCallbackStruct* tmp_add_class_10;
  _XIMStringConversionCallbackStruct* tmp_add_class_11;
  _XIMStringConversionText* tmp_add_class_12;
  _XIMText* tmp_add_class_13;
  _XImage* tmp_add_class_14;
  _XcursorAnimate* tmp_add_class_15;
  _XcursorChunkHeader* tmp_add_class_16;
  _XcursorComment* tmp_add_class_17;
  _XcursorComments* tmp_add_class_18;
  _XcursorCursors* tmp_add_class_19;
  _XcursorFile* tmp_add_class_20;
  _XcursorFileHeader* tmp_add_class_21;
  _XcursorFileToc* tmp_add_class_22;
  _XcursorImage* tmp_add_class_23;
  _XcursorImages* tmp_add_class_24;

The GCC parameters:
  gcc -fdump-lang-raw -fkeep-inline-functions -c -x c++ -fpermissive -w "/tmp/mWsh8cxGQq/dump1.h"

