[2024-01-08T11:48:34+00:00] apt-get install libusb3380-dev abi-compliance-checker
Reading package lists...
Building dependency tree...
Reading state information...
abi-compliance-checker is already the newest version (2.3-2).
The following packages were automatically installed and are no longer required:
  libusb-0.1-4 libusb-dev
Use 'apt autoremove' to remove them.
The following additional packages will be installed:
  libusb-1.0-0 libusb-1.0-0-dev libusb3380-0
Recommended packages:
  libusb-1.0-doc
The following NEW packages will be installed:
  libusb-1.0-0 libusb-1.0-0-dev libusb3380-0 libusb3380-dev
0 upgraded, 4 newly installed, 0 to remove and 16 not upgraded.
Need to get 156 kB of archives.
After this operation, 429 kB of additional disk space will be used.
Get:1 http://deb.debian.org/debian unstable/main armhf libusb-1.0-0 armhf 2:1.0.26-1 [56.3 kB]
Get:2 http://deb.debian.org/debian unstable/main armhf libusb-1.0-0-dev armhf 2:1.0.26-1 [78.5 kB]
Get:3 http://deb.debian.org/debian unstable/main armhf libusb3380-0 armhf 0.0.1+git20190125.c83d1e9-2 [15.1 kB]
Get:4 http://deb.debian.org/debian unstable/main armhf libusb3380-dev armhf 0.0.1+git20190125.c83d1e9-2 [5760 B]
debconf: delaying package configuration, since apt-utils is not installed
Fetched 156 kB in 0s (856 kB/s)
Selecting previously unselected package libusb-1.0-0:armhf.
(Reading database ... (Reading database ... 5%(Reading database ... 10%(Reading database ... 15%(Reading database ... 20%(Reading database ... 25%(Reading database ... 30%(Reading database ... 35%(Reading database ... 40%(Reading database ... 45%(Reading database ... 50%(Reading database ... 55%(Reading database ... 60%(Reading database ... 65%(Reading database ... 70%(Reading database ... 75%(Reading database ... 80%(Reading database ... 85%(Reading database ... 90%(Reading database ... 95%(Reading database ... 100%(Reading database ... 17112 files and directories currently installed.)
Preparing to unpack .../libusb-1.0-0_2%3a1.0.26-1_armhf.deb ...
Unpacking libusb-1.0-0:armhf (2:1.0.26-1) ...
Selecting previously unselected package libusb-1.0-0-dev:armhf.
Preparing to unpack .../libusb-1.0-0-dev_2%3a1.0.26-1_armhf.deb ...
Unpacking libusb-1.0-0-dev:armhf (2:1.0.26-1) ...
Selecting previously unselected package libusb3380-0:armhf.
Preparing to unpack .../libusb3380-0_0.0.1+git20190125.c83d1e9-2_armhf.deb ...
Unpacking libusb3380-0:armhf (0.0.1+git20190125.c83d1e9-2) ...
Selecting previously unselected package libusb3380-dev:armhf.
Preparing to unpack .../libusb3380-dev_0.0.1+git20190125.c83d1e9-2_armhf.deb ...
Unpacking libusb3380-dev:armhf (0.0.1+git20190125.c83d1e9-2) ...
Setting up libusb-1.0-0:armhf (2:1.0.26-1) ...
Setting up libusb-1.0-0-dev:armhf (2:1.0.26-1) ...
Setting up libusb3380-0:armhf (0.0.1+git20190125.c83d1e9-2) ...
Setting up libusb3380-dev:armhf (0.0.1+git20190125.c83d1e9-2) ...
Processing triggers for libc-bin (2.37-13) ...
Reading package lists...
Building dependency tree...
Reading state information...
The following packages will be REMOVED:
  libusb-0.1-4* libusb-dev*
0 upgraded, 0 newly installed, 2 to remove and 16 not upgraded.
After this operation, 254 kB disk space will be freed.
(Reading database ... (Reading database ... 5%(Reading database ... 10%(Reading database ... 15%(Reading database ... 20%(Reading database ... 25%(Reading database ... 30%(Reading database ... 35%(Reading database ... 40%(Reading database ... 45%(Reading database ... 50%(Reading database ... 55%(Reading database ... 60%(Reading database ... 65%(Reading database ... 70%(Reading database ... 75%(Reading database ... 80%(Reading database ... 85%(Reading database ... 90%(Reading database ... 95%(Reading database ... 100%(Reading database ... 17140 files and directories currently installed.)
Removing libusb-dev (2:0.1.12-35) ...
Removing libusb-0.1-4:armhf (2:0.1.12-35) ...
Processing triggers for libc-bin (2.37-13) ...
