Using GCC 13 (arm-linux-gnueabihf, target: arm)
WARNING: May not work properly with GCC 4.8.[0-2], 6.* and higher due to bug #78040 in GCC. Please try other GCC versions with the help of --gcc-path=PATH option or create ABI dumps by ABI Dumper tool instead to avoid using GCC. Test selected GCC version first by -test option.
Checking header(s) base ...
Temporary header file '/tmp/G8ykDY2NKE/dump1.h' with the following content will be compiled to create GCC translation unit dump:

  // add defines
  #define __STDC_VERSION__ 201710L
#define _GXX_NULLPTR_T
#define CLUTTER_ENABLE_COMPOSITOR_API 1
#define _REGEX_NELTS(n)
#define _Atomic
#define PACKED
#ifdef __cplusplus
// C17 compat layer
#define _Alignof(type) alignof(type)
#endif
#define getaddrinfo_a(a,b,c,d)

  // add includes
  #include "/usr/include/broker/address.hh"
  #include "/usr/include/broker/alm/stream_transport.hh"
  #include "/usr/include/broker/api_flags.hh"
  #include "/usr/include/broker/atoms.hh"
  #include "/usr/include/broker/backend.hh"
  #include "/usr/include/broker/backend_options.hh"
  #include "/usr/include/broker/bad_variant_access.hh"
  #include "/usr/include/broker/bro.hh"
  #include "/usr/include/broker/broker.hh"
  #include "/usr/include/broker/config.hh"
  #include "/usr/include/broker/configuration.hh"
  #include "/usr/include/broker/convert.hh"
  #include "/usr/include/broker/core_actor.hh"
  #include "/usr/include/broker/data.hh"
  #include "/usr/include/broker/defaults.hh"
  #include "/usr/include/broker/detail/abstract_backend.hh"
  #include "/usr/include/broker/detail/appliers.hh"
  #include "/usr/include/broker/detail/assert.hh"
  #include "/usr/include/broker/detail/blob.hh"
  #include "/usr/include/broker/detail/clone_actor.hh"
  #include "/usr/include/broker/detail/core_recorder.hh"
  #include "/usr/include/broker/detail/core_scatterer.hh"
  #include "/usr/include/broker/detail/data_generator.hh"
  #include "/usr/include/broker/detail/die.hh"
  #include "/usr/include/broker/detail/filesystem.hh"
  #include "/usr/include/broker/detail/flare.hh"
  #include "/usr/include/broker/detail/flare_actor.hh"
  #include "/usr/include/broker/detail/generator_file_reader.hh"
  #include "/usr/include/broker/detail/generator_file_writer.hh"
  #include "/usr/include/broker/detail/has_network_info.hh"
  #include "/usr/include/broker/detail/hash.hh"
  #include "/usr/include/broker/detail/lift.hh"
  #include "/usr/include/broker/detail/make_backend.hh"
  #include "/usr/include/broker/detail/master_actor.hh"
  #include "/usr/include/broker/detail/master_resolver.hh"
  #include "/usr/include/broker/detail/memory_backend.hh"
  #include "/usr/include/broker/detail/meta_command_writer.hh"
  #include "/usr/include/broker/detail/meta_data_writer.hh"
  #include "/usr/include/broker/detail/network_cache.hh"
  #include "/usr/include/broker/detail/operators.hh"
  #include "/usr/include/broker/detail/prefix_matcher.hh"
  #include "/usr/include/broker/detail/radix_tree.hh"
  #include "/usr/include/broker/detail/retry_state.hh"
  #include "/usr/include/broker/detail/rocksdb_backend.hh"
  #include "/usr/include/broker/detail/scoped_flare_actor.hh"
  #include "/usr/include/broker/detail/shared_publisher_queue.hh"
  #include "/usr/include/broker/detail/shared_queue.hh"
  #include "/usr/include/broker/detail/shared_subscriber_queue.hh"
  #include "/usr/include/broker/detail/sqlite_backend.hh"
  #include "/usr/include/broker/detail/store_actor.hh"
  #include "/usr/include/broker/detail/subscription.hh"
  #include "/usr/include/broker/detail/type_traits.hh"
  #include "/usr/include/broker/endpoint.hh"
  #include "/usr/include/broker/endpoint_info.hh"
  #include "/usr/include/broker/enum_value.hh"
  #include "/usr/include/broker/error.hh"
  #include "/usr/include/broker/expected.hh"
  #include "/usr/include/broker/filter_type.hh"
  #include "/usr/include/broker/frontend.hh"
  #include "/usr/include/broker/fwd.hh"
  #include "/usr/include/broker/internal_command.hh"
  #include "/usr/include/broker/logger.hh"
  #include "/usr/include/broker/mailbox.hh"
  #include "/usr/include/broker/message.hh"
  #include "/usr/include/broker/mixin/connector.hh"
  #include "/usr/include/broker/mixin/data_store_manager.hh"
  #include "/usr/include/broker/mixin/notifier.hh"
  #include "/usr/include/broker/mixin/recorder.hh"
  #include "/usr/include/broker/network_info.hh"
  #include "/usr/include/broker/none.hh"
  #include "/usr/include/broker/optional.hh"
  #include "/usr/include/broker/peer_filter.hh"
  #include "/usr/include/broker/peer_flags.hh"
  #include "/usr/include/broker/peer_info.hh"
  #include "/usr/include/broker/peer_status.hh"
  #include "/usr/include/broker/port.hh"
  #include "/usr/include/broker/publisher.hh"
  #include "/usr/include/broker/publisher_id.hh"
  #include "/usr/include/broker/snapshot.hh"
  #include "/usr/include/broker/status.hh"
  #include "/usr/include/broker/status_subscriber.hh"
  #include "/usr/include/broker/store.hh"
  #include "/usr/include/broker/store_event.hh"
  #include "/usr/include/broker/subnet.hh"
  #include "/usr/include/broker/subscriber.hh"
  #include "/usr/include/broker/subscriber_base.hh"
  #include "/usr/include/broker/time.hh"
  #include "/usr/include/broker/timeout.hh"
  #include "/usr/include/broker/topic.hh"
  #include "/usr/include/broker/version.hh"
  #include "/usr/include/broker/zeek.hh"

  // add namespaces
  namespace boost{typedef int tmp_add_type_1;}
  boost::tmp_add_type_1 tmp_add_func_1(){return 0;};
  namespace boost{namespace serialization{typedef int tmp_add_type_2;}}
  boost::serialization::tmp_add_type_2 tmp_add_func_2(){return 0;};
  namespace broker{typedef int tmp_add_type_3;}
  broker::tmp_add_type_3 tmp_add_func_3(){return 0;};
  namespace broker{namespace alm{typedef int tmp_add_type_4;}}
  broker::alm::tmp_add_type_4 tmp_add_func_4(){return 0;};
  namespace broker{namespace atom{typedef int tmp_add_type_5;}}
  broker::atom::tmp_add_type_5 tmp_add_func_5(){return 0;};
  namespace broker{namespace bro{typedef int tmp_add_type_6;}}
  broker::bro::tmp_add_type_6 tmp_add_func_6(){return 0;};
  namespace broker{namespace defaults{typedef int tmp_add_type_7;}}
  broker::defaults::tmp_add_type_7 tmp_add_func_7(){return 0;};
  namespace broker{namespace detail{typedef int tmp_add_type_8;}}
  broker::detail::tmp_add_type_8 tmp_add_func_8(){return 0;};
  namespace broker{namespace mixin{typedef int tmp_add_type_9;}}
  broker::mixin::tmp_add_type_9 tmp_add_func_9(){return 0;};
  namespace broker{namespace timeout{typedef int tmp_add_type_10;}}
  broker::timeout::tmp_add_type_10 tmp_add_func_10(){return 0;};
  namespace broker{namespace topics{typedef int tmp_add_type_11;}}
  broker::topics::tmp_add_type_11 tmp_add_func_11(){return 0;};
  namespace broker{namespace version{typedef int tmp_add_type_12;}}
  broker::version::tmp_add_type_12 tmp_add_func_12(){return 0;};
  namespace broker{namespace zeek{typedef int tmp_add_type_13;}}
  broker::zeek::tmp_add_type_13 tmp_add_func_13(){return 0;};
  namespace caf{typedef int tmp_add_type_14;}
  caf::tmp_add_type_14 tmp_add_func_14(){return 0;};
  namespace caf{namespace decorator{typedef int tmp_add_type_15;}}
  caf::decorator::tmp_add_type_15 tmp_add_func_15(){return 0;};
  namespace caf{namespace detail{typedef int tmp_add_type_16;}}
  caf::detail::tmp_add_type_16 tmp_add_func_16(){return 0;};
  namespace caf{namespace intrusive{typedef int tmp_add_type_17;}}
  caf::intrusive::tmp_add_type_17 tmp_add_func_17(){return 0;};
  namespace caf{namespace io{typedef int tmp_add_type_18;}}
  caf::io::tmp_add_type_18 tmp_add_func_18(){return 0;};
  namespace caf{namespace io{namespace basp{typedef int tmp_add_type_19;}}}
  caf::io::basp::tmp_add_type_19 tmp_add_func_19(){return 0;};
  namespace caf{namespace io{namespace network{typedef int tmp_add_type_20;}}}
  caf::io::network::tmp_add_type_20 tmp_add_func_20(){return 0;};
  namespace caf{namespace meta{typedef int tmp_add_type_21;}}
  caf::meta::tmp_add_type_21 tmp_add_func_21(){return 0;};
  namespace caf{namespace mixin{typedef int tmp_add_type_22;}}
  caf::mixin::tmp_add_type_22 tmp_add_func_22(){return 0;};
  namespace caf{namespace net{typedef int tmp_add_type_23;}}
  caf::net::tmp_add_type_23 tmp_add_func_23(){return 0;};
  namespace caf{namespace opencl{typedef int tmp_add_type_24;}}
  caf::opencl::tmp_add_type_24 tmp_add_func_24(){return 0;};
  namespace caf{namespace openssl{typedef int tmp_add_type_25;}}
  caf::openssl::tmp_add_type_25 tmp_add_func_25(){return 0;};
  namespace caf{namespace policy{typedef int tmp_add_type_26;}}
  caf::policy::tmp_add_type_26 tmp_add_func_26(){return 0;};
  namespace caf{namespace scheduler{typedef int tmp_add_type_27;}}
  caf::scheduler::tmp_add_type_27 tmp_add_func_27(){return 0;};
  namespace caf{namespace tag{typedef int tmp_add_type_28;}}
  caf::tag::tmp_add_type_28 tmp_add_func_28(){return 0;};
  namespace caf{namespace __anon9fd2e9d88211{typedef int tmp_add_type_29;}}
  caf::__anon9fd2e9d88211::tmp_add_type_29 tmp_add_func_29(){return 0;};
  namespace caf{namespace detail{namespace __anon9fd2e9d84911{typedef int tmp_add_type_30;}}}
  caf::detail::__anon9fd2e9d84911::tmp_add_type_30 tmp_add_func_30(){return 0;};
  namespace caf{namespace id_block{typedef int tmp_add_type_31;}}
  caf::id_block::tmp_add_type_31 tmp_add_func_31(){return 0;};

  // add classes
  _G_fpos64_t* tmp_add_class_0;
  _G_fpos_t* tmp_add_class_1;
  _IO_cookie_io_functions_t* tmp_add_class_2;

The GCC parameters:
  gcc -fdump-lang-raw -fkeep-inline-functions -c -x c++ -fpermissive -w "/tmp/G8ykDY2NKE/dump1.h"

In file included from /tmp/G8ykDY2NKE/dump1.h:17:
/usr/include/broker/alm/stream_transport.hh: In member function 'caf::event_based_actor* broker::alm::stream_transport<Derived, PeerId>::self()':
/usr/include/broker/alm/stream_transport.hh:147:12: error: invalid 'static_cast' from type 'caf::scheduled_actor*' to type 'caf::event_based_actor*'
  147 |     return static_cast<caf::event_based_actor*>(this->self_);
      |            ^~~~~~~~~~~~~~~~~~~~~~~~~~~~~~~~~~~~~~~~~~~~~~~~~
In file included from /usr/include/caf/atom.hpp:27,
                 from /usr/include/caf/error.hpp:25,
                 from /usr/include/broker/address.hh:8,
                 from /tmp/G8ykDY2NKE/dump1.h:16:
/usr/include/caf/fwd.hpp:108:7: note: class type 'caf::event_based_actor' is incomplete
  108 | class event_based_actor;
      |       ^~~~~~~~~~~~~~~~~
/usr/include/caf/fwd.hpp:133:7: note: class type 'caf::scheduled_actor' is incomplete
  133 | class scheduled_actor;
      |       ^~~~~~~~~~~~~~~
In file included from /tmp/G8ykDY2NKE/dump1.h:23:
/usr/include/broker/bro.hh: At global scope:
/usr/include/broker/bro.hh:3:76: note: '#pragma message: Warning: bro.hh header is deprecated, use zeek.hh instead'
    3 | #pragma message("Warning: bro.hh header is deprecated, use zeek.hh instead")
      |                                                                            ^
In file included from /tmp/G8ykDY2NKE/dump1.h:66:
/usr/include/broker/detail/subscription.hh:33:25: error: 'invalid_actor' is not a member of 'caf'; did you mean 'invalid_actor_t'?
   33 |   caf::actor who = caf::invalid_actor;
      |                         ^~~~~~~~~~~~~
      |                         invalid_actor_t
ERROR: some errors occurred when compiling headers
ERROR: see log for details:
  /home/adrien/armhf-time_t/out/logs/libbroker-dev/base/abi-compliance-checker.log


Creating library ABI dump ...
Dump path: out/logs/libbroker-dev/libbroker-dev_base.dump
