[2024-01-08T09:44:07+00:00] apt-get install libsquish-dev abi-compliance-checker
Reading package lists...
Building dependency tree...
Reading state information...
abi-compliance-checker is already the newest version (2.3-2).
The following packages were automatically installed and are no longer required:
  libsquirrel-dev libsquirrel3-0
Use 'apt autoremove' to remove them.
The following NEW packages will be installed:
  libsquish-dev libsquish0
0 upgraded, 2 newly installed, 0 to remove and 20 not upgraded.
Need to get 139 kB of archives.
After this operation, 539 kB of additional disk space will be used.
Get:1 http://deb.debian.org/debian unstable/main armhf libsquish0 armhf 1.15-3 [18.0 kB]
Get:2 http://deb.debian.org/debian unstable/main armhf libsquish-dev armhf 1.15-3 [121 kB]
debconf: delaying package configuration, since apt-utils is not installed
Fetched 139 kB in 0s (746 kB/s)
Selecting previously unselected package libsquish0:armhf.
(Reading database ... (Reading database ... 5%(Reading database ... 10%(Reading database ... 15%(Reading database ... 20%(Reading database ... 25%(Reading database ... 30%(Reading database ... 35%(Reading database ... 40%(Reading database ... 45%(Reading database ... 50%(Reading database ... 55%(Reading database ... 60%(Reading database ... 65%(Reading database ... 70%(Reading database ... 75%(Reading database ... 80%(Reading database ... 85%(Reading database ... 90%(Reading database ... 95%(Reading database ... 100%(Reading database ... 17042 files and directories currently installed.)
Preparing to unpack .../libsquish0_1.15-3_armhf.deb ...
Unpacking libsquish0:armhf (1.15-3) ...
Selecting previously unselected package libsquish-dev:armhf.
Preparing to unpack .../libsquish-dev_1.15-3_armhf.deb ...
Unpacking libsquish-dev:armhf (1.15-3) ...
Setting up libsquish0:armhf (1.15-3) ...
Setting up libsquish-dev:armhf (1.15-3) ...
Processing triggers for libc-bin (2.37-13) ...
Reading package lists...
Building dependency tree...
Reading state information...
The following packages will be REMOVED:
  libsquirrel-dev* libsquirrel3-0*
0 upgraded, 0 newly installed, 2 to remove and 20 not upgraded.
After this operation, 508 kB disk space will be freed.
(Reading database ... (Reading database ... 5%(Reading database ... 10%(Reading database ... 15%(Reading database ... 20%(Reading database ... 25%(Reading database ... 30%(Reading database ... 35%(Reading database ... 40%(Reading database ... 45%(Reading database ... 50%(Reading database ... 55%(Reading database ... 60%(Reading database ... 65%(Reading database ... 70%(Reading database ... 75%(Reading database ... 80%(Reading database ... 85%(Reading database ... 90%(Reading database ... 95%(Reading database ... 100%(Reading database ... 17096 files and directories currently installed.)
Removing libsquirrel-dev (3.1-8) ...
Removing libsquirrel3-0:armhf (3.1-8) ...
Processing triggers for libc-bin (2.37-13) ...
