Temporary header file '/tmp/7XI_ZgrDYq/dump1.h' with the following content will be compiled to create GCC translation unit dump:

  // add defines
  #define __STDC_VERSION__ 201710L
#define _TIME_BITS 64
#define _FILE_OFFSET_BITS 64
#define _GXX_NULLPTR_T
#define CLUTTER_ENABLE_COMPOSITOR_API 1
#define _REGEX_NELTS(n)
#define _Atomic
#define PACKED
#ifdef __cplusplus
// C17 compat layer
#define _Alignof(type) alignof(type)
#endif
#define getaddrinfo_a(a,b,c,d)

  // add includes
  #include "/usr/include/arm-linux-gnueabihf/libswresample/swresample.h"
  #include "/usr/include/arm-linux-gnueabihf/libswresample/version.h"
  #include "/usr/include/arm-linux-gnueabihf/libswresample/version_major.h"

  // add classes
  AVBufferRef* tmp_add_class_0;
  AVChannelCustom* tmp_add_class_1;
  AVChannelLayout* tmp_add_class_2;
  AVClass* tmp_add_class_3;
  AVDictionaryEntry* tmp_add_class_4;
  AVFrame* tmp_add_class_5;
  AVFrameSideData* tmp_add_class_6;
  AVRational* tmp_add_class_7;
  AVRegionOfInterest* tmp_add_class_8;
  _G_fpos64_t* tmp_add_class_9;
  _G_fpos_t* tmp_add_class_10;
  _IO_cookie_io_functions_t* tmp_add_class_11;
  av_intfloat32* tmp_add_class_12;
  av_intfloat64* tmp_add_class_13;

The GCC parameters:
  gcc -fdump-lang-raw -fkeep-inline-functions -c -x c++ -fpermissive -w "/tmp/7XI_ZgrDYq/dump1.h"

