Temporary header file '/tmp/xgQtHz72Su/dump1.h' with the following content will be compiled to create GCC translation unit dump:

  // add defines
  #define __STDC_VERSION__ 201710L
#define _FILE_OFFSET_BITS 64
#define _GXX_NULLPTR_T
#define CLUTTER_ENABLE_COMPOSITOR_API 1
#define _REGEX_NELTS(n)
#define _Atomic
#define PACKED
#ifdef __cplusplus
// C17 compat layer
#define _Alignof(type) alignof(type)
#endif
#define getaddrinfo_a(a,b,c,d)

  // add includes
  #include "/usr/include/xylib/bruker_raw.h"
  #include "/usr/include/xylib/bruker_spc.h"
  #include "/usr/include/xylib/cache.h"
  #include "/usr/include/xylib/canberra_cnf.h"
  #include "/usr/include/xylib/canberra_mca.h"
  #include "/usr/include/xylib/chiplot.h"
  #include "/usr/include/xylib/cpi.h"
  #include "/usr/include/xylib/csv.h"
  #include "/usr/include/xylib/dbws.h"
  #include "/usr/include/xylib/pdcif.h"
  #include "/usr/include/xylib/philips_raw.h"
  #include "/usr/include/xylib/philips_udf.h"
  #include "/usr/include/xylib/riet7.h"
  #include "/usr/include/xylib/rigaku_dat.h"
  #include "/usr/include/xylib/specsxy.h"
  #include "/usr/include/xylib/spectra.h"
  #include "/usr/include/xylib/text.h"
  #include "/usr/include/xylib/uxd.h"
  #include "/usr/include/xylib/vamas.h"
  #include "/usr/include/xylib/winspec_spe.h"
  #include "/usr/include/xylib/xfit_xdd.h"
  #include "/usr/include/xylib/xrdml.h"
  #include "/usr/include/xylib/xsyg.h"
  #include "/usr/include/xylib/xylib.h"

  // add namespaces
  namespace boost{typedef int tmp_add_type_1;}
  boost::tmp_add_type_1 tmp_add_func_1(){return 0;};
  namespace boost{namespace detail{typedef int tmp_add_type_2;}}
  boost::detail::tmp_add_type_2 tmp_add_func_2(){return 0;};
  namespace boost{namespace movelib{typedef int tmp_add_type_3;}}
  boost::movelib::tmp_add_type_3 tmp_add_func_3(){return 0;};
  namespace xylib{typedef int tmp_add_type_4;}
  xylib::tmp_add_type_4 tmp_add_func_4(){return 0;};
  namespace boost{namespace exception_detail{typedef int tmp_add_type_5;}}
  boost::exception_detail::tmp_add_type_5 tmp_add_func_5(){return 0;};

  // add classes
  _G_fpos64_t* tmp_add_class_0;
  _G_fpos_t* tmp_add_class_1;
  _IO_cookie_io_functions_t* tmp_add_class_2;
  xylibFormat* tmp_add_class_3;

The GCC parameters:
  gcc -fdump-lang-raw -fkeep-inline-functions -c -x c++ -fpermissive -w "/tmp/xgQtHz72Su/dump1.h"

In file included from /tmp/xgQtHz72Su/dump1.h:17:
/usr/include/xylib/bruker_raw.h:25:52: error: expected ';' at end of member declaration
   25 |         OBLIGATORY_DATASET_MEMBERS(BrukerRawDataSet)
      |                                                    ^
      |                                                     ;
In file included from /tmp/xgQtHz72Su/dump1.h:18:
/usr/include/xylib/bruker_spc.h:16:52: error: expected ';' at end of member declaration
   16 |         OBLIGATORY_DATASET_MEMBERS(BrukerSpcDataSet)
      |                                                    ^
      |                                                     ;
In file included from /tmp/xgQtHz72Su/dump1.h:20:
/usr/include/xylib/canberra_cnf.h:24:54: error: expected ';' at end of member declaration
   24 |         OBLIGATORY_DATASET_MEMBERS(CanberraCnfDataSet)
      |                                                      ^
      |                                                       ;
In file included from /tmp/xgQtHz72Su/dump1.h:21:
/usr/include/xylib/canberra_mca.h:25:54: error: expected ';' at end of member declaration
   25 |         OBLIGATORY_DATASET_MEMBERS(CanberraMcaDataSet)
      |                                                      ^
      |                                                       ;
In file included from /tmp/xgQtHz72Su/dump1.h:22:
/usr/include/xylib/chiplot.h:15:50: error: expected ';' at end of member declaration
   15 |         OBLIGATORY_DATASET_MEMBERS(ChiPlotDataSet)
      |                                                  ^
      |                                                   ;
In file included from /tmp/xgQtHz72Su/dump1.h:23:
/usr/include/xylib/cpi.h:15:46: error: expected ';' at end of member declaration
   15 |         OBLIGATORY_DATASET_MEMBERS(CpiDataSet)
      |                                              ^
      |                                               ;
In file included from /tmp/xgQtHz72Su/dump1.h:24:
/usr/include/xylib/csv.h:34:46: error: expected ';' at end of member declaration
   34 |         OBLIGATORY_DATASET_MEMBERS(CsvDataSet)
      |                                              ^
      |                                               ;
In file included from /tmp/xgQtHz72Su/dump1.h:25:
/usr/include/xylib/dbws.h:28:47: error: expected ';' at end of member declaration
   28 |         OBLIGATORY_DATASET_MEMBERS(DbwsDataSet)
      |                                               ^
      |                                                ;
In file included from /tmp/xgQtHz72Su/dump1.h:26:
/usr/include/xylib/pdcif.h:26:48: error: expected ';' at end of member declaration
   26 |         OBLIGATORY_DATASET_MEMBERS(PdCifDataSet)
      |                                                ^
      |                                                 ;
In file included from /tmp/xgQtHz72Su/dump1.h:27:
/usr/include/xylib/philips_raw.h:17:53: error: expected ';' at end of member declaration
   17 |         OBLIGATORY_DATASET_MEMBERS(PhilipsRawDataSet)
      |                                                     ^
      |                                                      ;
In file included from /tmp/xgQtHz72Su/dump1.h:28:
/usr/include/xylib/philips_udf.h:14:46: error: expected ';' at end of member declaration
   14 |         OBLIGATORY_DATASET_MEMBERS(UdfDataSet)
      |                                              ^
      |                                               ;
In file included from /tmp/xgQtHz72Su/dump1.h:29:
/usr/include/xylib/riet7.h:21:48: error: expected ';' at end of member declaration
   21 |         OBLIGATORY_DATASET_MEMBERS(Riet7DataSet)
      |                                                ^
      |                                                 ;
In file included from /tmp/xgQtHz72Su/dump1.h:30:
/usr/include/xylib/rigaku_dat.h:15:49: error: expected ';' at end of member declaration
   15 |         OBLIGATORY_DATASET_MEMBERS(RigakuDataSet)
      |                                                 ^
      |                                                  ;
In file included from /tmp/xgQtHz72Su/dump1.h:31:
/usr/include/xylib/specsxy.h:14:50: error: expected ';' at end of member declaration
   14 |         OBLIGATORY_DATASET_MEMBERS(SpecsxyDataSet)
      |                                                  ^
      |                                                   ;
In file included from /tmp/xgQtHz72Su/dump1.h:32:
/usr/include/xylib/spectra.h:35:50: error: expected ';' at end of member declaration
   35 |         OBLIGATORY_DATASET_MEMBERS(SpectraDataSet)
      |                                                  ^
      |                                                   ;
In file included from /tmp/xgQtHz72Su/dump1.h:33:
/usr/include/xylib/text.h:28:47: error: expected ';' at end of member declaration
   28 |         OBLIGATORY_DATASET_MEMBERS(TextDataSet)
      |                                               ^
      |                                                ;
In file included from /tmp/xgQtHz72Su/dump1.h:34:
/usr/include/xylib/uxd.h:15:46: error: expected ';' at end of member declaration
   15 |         OBLIGATORY_DATASET_MEMBERS(UxdDataSet)
      |                                              ^
      |                                               ;
In file included from /tmp/xgQtHz72Su/dump1.h:35:
/usr/include/xylib/vamas.h:20:48: error: expected ';' at end of member declaration
   20 |         OBLIGATORY_DATASET_MEMBERS(VamasDataSet)
      |                                                ^
      |                                                 ;
In file included from /tmp/xgQtHz72Su/dump1.h:36:
/usr/include/xylib/winspec_spe.h:23:53: error: expected ';' at end of member declaration
   23 |         OBLIGATORY_DATASET_MEMBERS(WinspecSpeDataSet)
      |                                                     ^
      |                                                      ;
In file included from /tmp/xgQtHz72Su/dump1.h:37:
/usr/include/xylib/xfit_xdd.h:14:50: error: expected ';' at end of member declaration
   14 |         OBLIGATORY_DATASET_MEMBERS(XfitXddDataSet)
      |                                                  ^
      |                                                   ;
In file included from /tmp/xgQtHz72Su/dump1.h:38:
/usr/include/xylib/xrdml.h:15:48: error: expected ';' at end of member declaration
   15 |         OBLIGATORY_DATASET_MEMBERS(XrdmlDataSet)
      |                                                ^
      |                                                 ;
In file included from /tmp/xgQtHz72Su/dump1.h:39:
/usr/include/xylib/xsyg.h:12:47: error: expected ';' at end of member declaration
   12 |         OBLIGATORY_DATASET_MEMBERS(XsygDataSet)
      |                                               ^
      |                                                ;

