Temporary header file '/tmp/fQZTgDdjGa/dump1.h' with the following content will be compiled to create GCC translation unit dump:

  // add defines
  #define __STDC_VERSION__ 201710L
#define _TIME_BITS 64
#define _FILE_OFFSET_BITS 64
#define _GXX_NULLPTR_T
#define CLUTTER_ENABLE_COMPOSITOR_API 1
#define _REGEX_NELTS(n)
#define _Atomic
#define PACKED
#ifdef __cplusplus
// C17 compat layer
#define _Alignof(type) alignof(type)
#endif
#define getaddrinfo_a(a,b,c,d)

  // add includes
  #include "/usr/include/gtkmm-4.0/gdkmm/applaunchcontext.h"
  #include "/usr/include/gtkmm-4.0/gdkmm/cairocontext.h"
  #include "/usr/include/gtkmm-4.0/gdkmm/cairoutils.h"
  #include "/usr/include/gtkmm-4.0/gdkmm/clipboard.h"
  #include "/usr/include/gtkmm-4.0/gdkmm/contentformats.h"
  #include "/usr/include/gtkmm-4.0/gdkmm/contentformatsbuilder.h"
  #include "/usr/include/gtkmm-4.0/gdkmm/contentprovider.h"
  #include "/usr/include/gtkmm-4.0/gdkmm/cursor.h"
  #include "/usr/include/gtkmm-4.0/gdkmm/device.h"
  #include "/usr/include/gtkmm-4.0/gdkmm/devicepad.h"
  #include "/usr/include/gtkmm-4.0/gdkmm/devicetool.h"
  #include "/usr/include/gtkmm-4.0/gdkmm/devicewithpad.h"
  #include "/usr/include/gtkmm-4.0/gdkmm/display.h"
  #include "/usr/include/gtkmm-4.0/gdkmm/displaymanager.h"
  #include "/usr/include/gtkmm-4.0/gdkmm/drag.h"
  #include "/usr/include/gtkmm-4.0/gdkmm/dragsurface.h"
  #include "/usr/include/gtkmm-4.0/gdkmm/dragsurfaceimpl.h"
  #include "/usr/include/gtkmm-4.0/gdkmm/drawcontext.h"
  #include "/usr/include/gtkmm-4.0/gdkmm/drop.h"
  #include "/usr/include/gtkmm-4.0/gdkmm/enums.h"
  #include "/usr/include/gtkmm-4.0/gdkmm/event.h"
  #include "/usr/include/gtkmm-4.0/gdkmm/frameclock.h"
  #include "/usr/include/gtkmm-4.0/gdkmm/frametimings.h"
  #include "/usr/include/gtkmm-4.0/gdkmm/general.h"
  #include "/usr/include/gtkmm-4.0/gdkmm/glcontext.h"
  #include "/usr/include/gtkmm-4.0/gdkmm/gltexture.h"
  #include "/usr/include/gtkmm-4.0/gdkmm/memorytexture.h"
  #include "/usr/include/gtkmm-4.0/gdkmm/monitor.h"
  #include "/usr/include/gtkmm-4.0/gdkmm/paintable.h"
  #include "/usr/include/gtkmm-4.0/gdkmm/pixbuf.h"
  #include "/usr/include/gtkmm-4.0/gdkmm/pixbufanimation.h"
  #include "/usr/include/gtkmm-4.0/gdkmm/pixbufanimationiter.h"
  #include "/usr/include/gtkmm-4.0/gdkmm/pixbufformat.h"
  #include "/usr/include/gtkmm-4.0/gdkmm/pixbufloader.h"
  #include "/usr/include/gtkmm-4.0/gdkmm/popup.h"
  #include "/usr/include/gtkmm-4.0/gdkmm/popuplayout.h"
  #include "/usr/include/gtkmm-4.0/gdkmm/popupsurfaceimpl.h"
  #include "/usr/include/gtkmm-4.0/gdkmm/rectangle.h"
  #include "/usr/include/gtkmm-4.0/gdkmm/rgba.h"
  #include "/usr/include/gtkmm-4.0/gdkmm/seat.h"
  #include "/usr/include/gtkmm-4.0/gdkmm/snapshot.h"
  #include "/usr/include/gtkmm-4.0/gdkmm/surface.h"
  #include "/usr/include/gtkmm-4.0/gdkmm/texture.h"
  #include "/usr/include/gtkmm-4.0/gdkmm/texturedownloader.h"
  #include "/usr/include/gtkmm-4.0/gdkmm/timecoord.h"
  #include "/usr/include/gtkmm-4.0/gdkmm/toplevel.h"
  #include "/usr/include/gtkmm-4.0/gdkmm/toplevellayout.h"
  #include "/usr/include/gtkmm-4.0/gdkmm/toplevelsize.h"
  #include "/usr/include/gtkmm-4.0/gdkmm/toplevelsurfaceimpl.h"
  #include "/usr/include/gtkmm-4.0/gdkmm/value_cairo.h"
  #include "/usr/include/gtkmm-4.0/gdkmm/wrap_init.h"
  #include "/usr/include/gtkmm-4.0/gdkmm.h"
  #include "/usr/include/gtkmm-4.0/gtkmm/aboutdialog.h"
  #include "/usr/include/gtkmm-4.0/gtkmm/accelerator.h"
  #include "/usr/include/gtkmm-4.0/gtkmm/accelkey.h"
  #include "/usr/include/gtkmm-4.0/gtkmm/accessible.h"
  #include "/usr/include/gtkmm-4.0/gtkmm/actionable.h"
  #include "/usr/include/gtkmm-4.0/gtkmm/actionbar.h"
  #include "/usr/include/gtkmm-4.0/gtkmm/adjustment.h"
  #include "/usr/include/gtkmm-4.0/gtkmm/alertdialog.h"
  #include "/usr/include/gtkmm-4.0/gtkmm/appchooser.h"
  #include "/usr/include/gtkmm-4.0/gtkmm/appchooserbutton.h"
  #include "/usr/include/gtkmm-4.0/gtkmm/appchooserdialog.h"
  #include "/usr/include/gtkmm-4.0/gtkmm/appchooserwidget.h"
  #include "/usr/include/gtkmm-4.0/gtkmm/application.h"
  #include "/usr/include/gtkmm-4.0/gtkmm/applicationwindow.h"
  #include "/usr/include/gtkmm-4.0/gtkmm/aspectframe.h"
  #include "/usr/include/gtkmm-4.0/gtkmm/assistant.h"
  #include "/usr/include/gtkmm-4.0/gtkmm/assistantpage.h"
  #include "/usr/include/gtkmm-4.0/gtkmm/atcontext.h"
  #include "/usr/include/gtkmm-4.0/gtkmm/binlayout.h"
  #include "/usr/include/gtkmm-4.0/gtkmm/bitset.h"
  #include "/usr/include/gtkmm-4.0/gtkmm/bitsetconstiter.h"
  #include "/usr/include/gtkmm-4.0/gtkmm/boolfilter.h"
  #include "/usr/include/gtkmm-4.0/gtkmm/border.h"
  #include "/usr/include/gtkmm-4.0/gtkmm/box.h"
  #include "/usr/include/gtkmm-4.0/gtkmm/boxlayout.h"
  #include "/usr/include/gtkmm-4.0/gtkmm/buildable.h"
  #include "/usr/include/gtkmm-4.0/gtkmm/builder.h"
  #include "/usr/include/gtkmm-4.0/gtkmm/buildercscope.h"
  #include "/usr/include/gtkmm-4.0/gtkmm/builderscope.h"
  #include "/usr/include/gtkmm-4.0/gtkmm/button.h"
  #include "/usr/include/gtkmm-4.0/gtkmm/calendar.h"
  #include "/usr/include/gtkmm-4.0/gtkmm/cellarea.h"
  #include "/usr/include/gtkmm-4.0/gtkmm/cellareabox.h"
  #include "/usr/include/gtkmm-4.0/gtkmm/cellareacontext.h"
  #include "/usr/include/gtkmm-4.0/gtkmm/celleditable.h"
  #include "/usr/include/gtkmm-4.0/gtkmm/celllayout.h"
  #include "/usr/include/gtkmm-4.0/gtkmm/cellrenderer.h"
  #include "/usr/include/gtkmm-4.0/gtkmm/cellrenderer_generation.h"
  #include "/usr/include/gtkmm-4.0/gtkmm/cellrendereraccel.h"
  #include "/usr/include/gtkmm-4.0/gtkmm/cellrenderercombo.h"
  #include "/usr/include/gtkmm-4.0/gtkmm/cellrendererpixbuf.h"
  #include "/usr/include/gtkmm-4.0/gtkmm/cellrendererprogress.h"
  #include "/usr/include/gtkmm-4.0/gtkmm/cellrendererspin.h"
  #include "/usr/include/gtkmm-4.0/gtkmm/cellrendererspinner.h"
  #include "/usr/include/gtkmm-4.0/gtkmm/cellrenderertext.h"
  #include "/usr/include/gtkmm-4.0/gtkmm/cellrenderertoggle.h"
  #include "/usr/include/gtkmm-4.0/gtkmm/cellview.h"
  #include "/usr/include/gtkmm-4.0/gtkmm/centerbox.h"
  #include "/usr/include/gtkmm-4.0/gtkmm/centerlayout.h"
  #include "/usr/include/gtkmm-4.0/gtkmm/checkbutton.h"
  #include "/usr/include/gtkmm-4.0/gtkmm/colorbutton.h"
  #include "/usr/include/gtkmm-4.0/gtkmm/colorchooser.h"
  #include "/usr/include/gtkmm-4.0/gtkmm/colorchooserdialog.h"
  #include "/usr/include/gtkmm-4.0/gtkmm/colordialog.h"
  #include "/usr/include/gtkmm-4.0/gtkmm/colordialogbutton.h"
  #include "/usr/include/gtkmm-4.0/gtkmm/columnview.h"
  #include "/usr/include/gtkmm-4.0/gtkmm/columnviewcolumn.h"
  #include "/usr/include/gtkmm-4.0/gtkmm/columnviewsorter.h"
  #include "/usr/include/gtkmm-4.0/gtkmm/combobox.h"
  #include "/usr/include/gtkmm-4.0/gtkmm/comboboxtext.h"
  #include "/usr/include/gtkmm-4.0/gtkmm/constraint.h"
  #include "/usr/include/gtkmm-4.0/gtkmm/constraintguide.h"
  #include "/usr/include/gtkmm-4.0/gtkmm/constraintlayout.h"
  #include "/usr/include/gtkmm-4.0/gtkmm/constrainttarget.h"
  #include "/usr/include/gtkmm-4.0/gtkmm/csslocation.h"
  #include "/usr/include/gtkmm-4.0/gtkmm/cssprovider.h"
  #include "/usr/include/gtkmm-4.0/gtkmm/csssection.h"
  #include "/usr/include/gtkmm-4.0/gtkmm/dialog.h"
  #include "/usr/include/gtkmm-4.0/gtkmm/directorylist.h"
  #include "/usr/include/gtkmm-4.0/gtkmm/dragicon.h"
  #include "/usr/include/gtkmm-4.0/gtkmm/dragsource.h"
  #include "/usr/include/gtkmm-4.0/gtkmm/drawingarea.h"
  #include "/usr/include/gtkmm-4.0/gtkmm/dropcontrollermotion.h"
  #include "/usr/include/gtkmm-4.0/gtkmm/dropdown.h"
  #include "/usr/include/gtkmm-4.0/gtkmm/droptarget.h"
  #include "/usr/include/gtkmm-4.0/gtkmm/droptargetasync.h"
  #include "/usr/include/gtkmm-4.0/gtkmm/editable.h"
  #include "/usr/include/gtkmm-4.0/gtkmm/editablelabel.h"
  #include "/usr/include/gtkmm-4.0/gtkmm/emojichooser.h"
  #include "/usr/include/gtkmm-4.0/gtkmm/entry.h"
  #include "/usr/include/gtkmm-4.0/gtkmm/entrybuffer.h"
  #include "/usr/include/gtkmm-4.0/gtkmm/entrycompletion.h"
  #include "/usr/include/gtkmm-4.0/gtkmm/enums.h"
  #include "/usr/include/gtkmm-4.0/gtkmm/error.h"
  #include "/usr/include/gtkmm-4.0/gtkmm/eventcontroller.h"
  #include "/usr/include/gtkmm-4.0/gtkmm/eventcontrollerfocus.h"
  #include "/usr/include/gtkmm-4.0/gtkmm/eventcontrollerkey.h"
  #include "/usr/include/gtkmm-4.0/gtkmm/eventcontrollerlegacy.h"
  #include "/usr/include/gtkmm-4.0/gtkmm/eventcontrollermotion.h"
  #include "/usr/include/gtkmm-4.0/gtkmm/eventcontrollerscroll.h"
  #include "/usr/include/gtkmm-4.0/gtkmm/expander.h"
  #include "/usr/include/gtkmm-4.0/gtkmm/expression.h"
  #include "/usr/include/gtkmm-4.0/gtkmm/expressionwatch.h"
  #include "/usr/include/gtkmm-4.0/gtkmm/filechooser.h"
  #include "/usr/include/gtkmm-4.0/gtkmm/filechooserdialog.h"
  #include "/usr/include/gtkmm-4.0/gtkmm/filechoosernative.h"
  #include "/usr/include/gtkmm-4.0/gtkmm/filechooserwidget.h"
  #include "/usr/include/gtkmm-4.0/gtkmm/filedialog.h"
  #include "/usr/include/gtkmm-4.0/gtkmm/filefilter.h"
  #include "/usr/include/gtkmm-4.0/gtkmm/filelauncher.h"
  #include "/usr/include/gtkmm-4.0/gtkmm/filter.h"
  #include "/usr/include/gtkmm-4.0/gtkmm/filterlistmodel.h"
  #include "/usr/include/gtkmm-4.0/gtkmm/fixed.h"
  #include "/usr/include/gtkmm-4.0/gtkmm/flattenlistmodel.h"
  #include "/usr/include/gtkmm-4.0/gtkmm/flowbox.h"
  #include "/usr/include/gtkmm-4.0/gtkmm/flowboxchild.h"
  #include "/usr/include/gtkmm-4.0/gtkmm/fontbutton.h"
  #include "/usr/include/gtkmm-4.0/gtkmm/fontchooser.h"
  #include "/usr/include/gtkmm-4.0/gtkmm/fontchooserdialog.h"
  #include "/usr/include/gtkmm-4.0/gtkmm/fontchooserwidget.h"
  #include "/usr/include/gtkmm-4.0/gtkmm/fontdialog.h"
  #include "/usr/include/gtkmm-4.0/gtkmm/fontdialogbutton.h"
  #include "/usr/include/gtkmm-4.0/gtkmm/frame.h"
  #include "/usr/include/gtkmm-4.0/gtkmm/gesture.h"
  #include "/usr/include/gtkmm-4.0/gtkmm/gestureclick.h"
  #include "/usr/include/gtkmm-4.0/gtkmm/gesturedrag.h"
  #include "/usr/include/gtkmm-4.0/gtkmm/gesturelongpress.h"
  #include "/usr/include/gtkmm-4.0/gtkmm/gesturepan.h"
  #include "/usr/include/gtkmm-4.0/gtkmm/gesturerotate.h"
  #include "/usr/include/gtkmm-4.0/gtkmm/gesturesingle.h"
  #include "/usr/include/gtkmm-4.0/gtkmm/gesturestylus.h"
  #include "/usr/include/gtkmm-4.0/gtkmm/gestureswipe.h"
  #include "/usr/include/gtkmm-4.0/gtkmm/gesturezoom.h"
  #include "/usr/include/gtkmm-4.0/gtkmm/glarea.h"
  #include "/usr/include/gtkmm-4.0/gtkmm/grid.h"
  #include "/usr/include/gtkmm-4.0/gtkmm/gridlayout.h"
  #include "/usr/include/gtkmm-4.0/gtkmm/gridlayoutchild.h"
  #include "/usr/include/gtkmm-4.0/gtkmm/gridview.h"
  #include "/usr/include/gtkmm-4.0/gtkmm/headerbar.h"
  #include "/usr/include/gtkmm-4.0/gtkmm/iconpaintable.h"
  #include "/usr/include/gtkmm-4.0/gtkmm/icontheme.h"
  #include "/usr/include/gtkmm-4.0/gtkmm/iconview.h"
  #include "/usr/include/gtkmm-4.0/gtkmm/image.h"
  #include "/usr/include/gtkmm-4.0/gtkmm/infobar.h"
  #include "/usr/include/gtkmm-4.0/gtkmm/init.h"
  #include "/usr/include/gtkmm-4.0/gtkmm/inscription.h"
  #include "/usr/include/gtkmm-4.0/gtkmm/label.h"
  #include "/usr/include/gtkmm-4.0/gtkmm/layoutchild.h"
  #include "/usr/include/gtkmm-4.0/gtkmm/layoutmanager.h"
  #include "/usr/include/gtkmm-4.0/gtkmm/levelbar.h"
  #include "/usr/include/gtkmm-4.0/gtkmm/linkbutton.h"
  #include "/usr/include/gtkmm-4.0/gtkmm/listbase.h"
  #include "/usr/include/gtkmm-4.0/gtkmm/listbox.h"
  #include "/usr/include/gtkmm-4.0/gtkmm/listboxrow.h"
  #include "/usr/include/gtkmm-4.0/gtkmm/listitem.h"
  #include "/usr/include/gtkmm-4.0/gtkmm/listitemfactory.h"
  #include "/usr/include/gtkmm-4.0/gtkmm/liststore.h"
  #include "/usr/include/gtkmm-4.0/gtkmm/listview.h"
  #include "/usr/include/gtkmm-4.0/gtkmm/listviewtext.h"
  #include "/usr/include/gtkmm-4.0/gtkmm/lockbutton.h"
  #include "/usr/include/gtkmm-4.0/gtkmm/mediacontrols.h"
  #include "/usr/include/gtkmm-4.0/gtkmm/mediafile.h"
  #include "/usr/include/gtkmm-4.0/gtkmm/mediastream.h"
  #include "/usr/include/gtkmm-4.0/gtkmm/menubutton.h"
  #include "/usr/include/gtkmm-4.0/gtkmm/messagedialog.h"
  #include "/usr/include/gtkmm-4.0/gtkmm/multifilter.h"
  #include "/usr/include/gtkmm-4.0/gtkmm/multiselection.h"
  #include "/usr/include/gtkmm-4.0/gtkmm/multisorter.h"
  #include "/usr/include/gtkmm-4.0/gtkmm/native.h"
  #include "/usr/include/gtkmm-4.0/gtkmm/nativedialog.h"
  #include "/usr/include/gtkmm-4.0/gtkmm/noselection.h"
  #include "/usr/include/gtkmm-4.0/gtkmm/notebook.h"
  #include "/usr/include/gtkmm-4.0/gtkmm/notebookpage.h"
  #include "/usr/include/gtkmm-4.0/gtkmm/numericsorter.h"
  #include "/usr/include/gtkmm-4.0/gtkmm/object.h"
  #include "/usr/include/gtkmm-4.0/gtkmm/orientable.h"
  #include "/usr/include/gtkmm-4.0/gtkmm/overlay.h"
  #include "/usr/include/gtkmm-4.0/gtkmm/padactionentry.h"
  #include "/usr/include/gtkmm-4.0/gtkmm/padcontroller.h"
  #include "/usr/include/gtkmm-4.0/gtkmm/pagesetup.h"
  #include "/usr/include/gtkmm-4.0/gtkmm/pagesetupunixdialog.h"
  #include "/usr/include/gtkmm-4.0/gtkmm/paned.h"
  #include "/usr/include/gtkmm-4.0/gtkmm/papersize.h"
  #include "/usr/include/gtkmm-4.0/gtkmm/passwordentry.h"
  #include "/usr/include/gtkmm-4.0/gtkmm/picture.h"
  #include "/usr/include/gtkmm-4.0/gtkmm/popover.h"
  #include "/usr/include/gtkmm-4.0/gtkmm/popovermenu.h"
  #include "/usr/include/gtkmm-4.0/gtkmm/popovermenubar.h"
  #include "/usr/include/gtkmm-4.0/gtkmm/printcontext.h"
  #include "/usr/include/gtkmm-4.0/gtkmm/printer.h"
  #include "/usr/include/gtkmm-4.0/gtkmm/printjob.h"
  #include "/usr/include/gtkmm-4.0/gtkmm/printoperation.h"
  #include "/usr/include/gtkmm-4.0/gtkmm/printoperationpreview.h"
  #include "/usr/include/gtkmm-4.0/gtkmm/printsettings.h"
  #include "/usr/include/gtkmm-4.0/gtkmm/printunixdialog.h"
  #include "/usr/include/gtkmm-4.0/gtkmm/progressbar.h"
  #include "/usr/include/gtkmm-4.0/gtkmm/range.h"
  #include "/usr/include/gtkmm-4.0/gtkmm/recentinfo.h"
  #include "/usr/include/gtkmm-4.0/gtkmm/recentmanager.h"
  #include "/usr/include/gtkmm-4.0/gtkmm/requisition.h"
  #include "/usr/include/gtkmm-4.0/gtkmm/revealer.h"
  #include "/usr/include/gtkmm-4.0/gtkmm/root.h"
  #include "/usr/include/gtkmm-4.0/gtkmm/scale.h"
  #include "/usr/include/gtkmm-4.0/gtkmm/scalebutton.h"
  #include "/usr/include/gtkmm-4.0/gtkmm/scrollable.h"
  #include "/usr/include/gtkmm-4.0/gtkmm/scrollbar.h"
  #include "/usr/include/gtkmm-4.0/gtkmm/scrolledwindow.h"
  #include "/usr/include/gtkmm-4.0/gtkmm/searchbar.h"
  #include "/usr/include/gtkmm-4.0/gtkmm/searchentry.h"
  #include "/usr/include/gtkmm-4.0/gtkmm/selectionfiltermodel.h"
  #include "/usr/include/gtkmm-4.0/gtkmm/selectionlistmodelimpl.h"
  #include "/usr/include/gtkmm-4.0/gtkmm/selectionmodel.h"
  #include "/usr/include/gtkmm-4.0/gtkmm/separator.h"
  #include "/usr/include/gtkmm-4.0/gtkmm/settings.h"
  #include "/usr/include/gtkmm-4.0/gtkmm/shortcut.h"
  #include "/usr/include/gtkmm-4.0/gtkmm/shortcutaction.h"
  #include "/usr/include/gtkmm-4.0/gtkmm/shortcutcontroller.h"
  #include "/usr/include/gtkmm-4.0/gtkmm/shortcutlabel.h"
  #include "/usr/include/gtkmm-4.0/gtkmm/shortcutmanager.h"
  #include "/usr/include/gtkmm-4.0/gtkmm/shortcutsgroup.h"
  #include "/usr/include/gtkmm-4.0/gtkmm/shortcutssection.h"
  #include "/usr/include/gtkmm-4.0/gtkmm/shortcutsshortcut.h"
  #include "/usr/include/gtkmm-4.0/gtkmm/shortcutswindow.h"
  #include "/usr/include/gtkmm-4.0/gtkmm/shortcuttrigger.h"
  #include "/usr/include/gtkmm-4.0/gtkmm/signallistitemfactory.h"
  #include "/usr/include/gtkmm-4.0/gtkmm/singleselection.h"
  #include "/usr/include/gtkmm-4.0/gtkmm/sizegroup.h"
  #include "/usr/include/gtkmm-4.0/gtkmm/slicelistmodel.h"
  #include "/usr/include/gtkmm-4.0/gtkmm/snapshot.h"
  #include "/usr/include/gtkmm-4.0/gtkmm/sorter.h"
  #include "/usr/include/gtkmm-4.0/gtkmm/sortlistmodel.h"
  #include "/usr/include/gtkmm-4.0/gtkmm/spinbutton.h"
  #include "/usr/include/gtkmm-4.0/gtkmm/spinner.h"
  #include "/usr/include/gtkmm-4.0/gtkmm/stack.h"
  #include "/usr/include/gtkmm-4.0/gtkmm/stackpage.h"
  #include "/usr/include/gtkmm-4.0/gtkmm/stacksidebar.h"
  #include "/usr/include/gtkmm-4.0/gtkmm/stackswitcher.h"
  #include "/usr/include/gtkmm-4.0/gtkmm/statusbar.h"
  #include "/usr/include/gtkmm-4.0/gtkmm/stringfilter.h"
  #include "/usr/include/gtkmm-4.0/gtkmm/stringlist.h"
  #include "/usr/include/gtkmm-4.0/gtkmm/stringobject.h"
  #include "/usr/include/gtkmm-4.0/gtkmm/stringsorter.h"
  #include "/usr/include/gtkmm-4.0/gtkmm/stylecontext.h"
  #include "/usr/include/gtkmm-4.0/gtkmm/styleprovider.h"
  #include "/usr/include/gtkmm-4.0/gtkmm/switch.h"
  #include "/usr/include/gtkmm-4.0/gtkmm/text.h"
  #include "/usr/include/gtkmm-4.0/gtkmm/textbuffer.h"
  #include "/usr/include/gtkmm-4.0/gtkmm/textchildanchor.h"
  #include "/usr/include/gtkmm-4.0/gtkmm/textiter.h"
  #include "/usr/include/gtkmm-4.0/gtkmm/textmark.h"
  #include "/usr/include/gtkmm-4.0/gtkmm/texttag.h"
  #include "/usr/include/gtkmm-4.0/gtkmm/texttagtable.h"
  #include "/usr/include/gtkmm-4.0/gtkmm/textview.h"
  #include "/usr/include/gtkmm-4.0/gtkmm/togglebutton.h"
  #include "/usr/include/gtkmm-4.0/gtkmm/tooltip.h"
  #include "/usr/include/gtkmm-4.0/gtkmm/treedragdest.h"
  #include "/usr/include/gtkmm-4.0/gtkmm/treedragsource.h"
  #include "/usr/include/gtkmm-4.0/gtkmm/treeexpander.h"
  #include "/usr/include/gtkmm-4.0/gtkmm/treeiter.h"
  #include "/usr/include/gtkmm-4.0/gtkmm/treelistmodel.h"
  #include "/usr/include/gtkmm-4.0/gtkmm/treelistrow.h"
  #include "/usr/include/gtkmm-4.0/gtkmm/treemodel.h"
  #include "/usr/include/gtkmm-4.0/gtkmm/treemodelcolumn.h"
  #include "/usr/include/gtkmm-4.0/gtkmm/treemodelfilter.h"
  #include "/usr/include/gtkmm-4.0/gtkmm/treemodelsort.h"
  #include "/usr/include/gtkmm-4.0/gtkmm/treepath.h"
  #include "/usr/include/gtkmm-4.0/gtkmm/treerowreference.h"
  #include "/usr/include/gtkmm-4.0/gtkmm/treeselection.h"
  #include "/usr/include/gtkmm-4.0/gtkmm/treesortable.h"
  #include "/usr/include/gtkmm-4.0/gtkmm/treestore.h"
  #include "/usr/include/gtkmm-4.0/gtkmm/treeview.h"
  #include "/usr/include/gtkmm-4.0/gtkmm/treeview_private.h"
  #include "/usr/include/gtkmm-4.0/gtkmm/treeviewcolumn.h"
  #include "/usr/include/gtkmm-4.0/gtkmm/urilauncher.h"
  #include "/usr/include/gtkmm-4.0/gtkmm/version.h"
  #include "/usr/include/gtkmm-4.0/gtkmm/video.h"
  #include "/usr/include/gtkmm-4.0/gtkmm/viewport.h"
  #include "/usr/include/gtkmm-4.0/gtkmm/volumebutton.h"
  #include "/usr/include/gtkmm-4.0/gtkmm/widget.h"
  #include "/usr/include/gtkmm-4.0/gtkmm/widgetpaintable.h"
  #include "/usr/include/gtkmm-4.0/gtkmm/window.h"
  #include "/usr/include/gtkmm-4.0/gtkmm/windowcontrols.h"
  #include "/usr/include/gtkmm-4.0/gtkmm/windowgroup.h"
  #include "/usr/include/gtkmm-4.0/gtkmm/windowhandle.h"
  #include "/usr/include/gtkmm-4.0/gtkmm/wrap_init.h"
  #include "/usr/include/gtkmm-4.0/gtkmm.h"
  #include "/usr/lib/arm-linux-gnueabihf/gtkmm-4.0/include/gdkmmconfig.h"
  #include "/usr/lib/arm-linux-gnueabihf/gtkmm-4.0/include/gtkmmconfig.h"

  // add namespaces
  namespace Cairo{typedef int tmp_add_type_1;}
  Cairo::tmp_add_type_1 tmp_add_func_1(){return 0;};
  namespace Gdk{typedef int tmp_add_type_2;}
  Gdk::tmp_add_type_2 tmp_add_func_2(){return 0;};
  namespace Gdk{namespace Cairo{typedef int tmp_add_type_3;}}
  Gdk::Cairo::tmp_add_type_3 tmp_add_func_3(){return 0;};
  namespace Gio{typedef int tmp_add_type_4;}
  Gio::tmp_add_type_4 tmp_add_func_4(){return 0;};
  namespace Gio{namespace DBus{typedef int tmp_add_type_5;}}
  Gio::DBus::tmp_add_type_5 tmp_add_func_5(){return 0;};
  namespace Gio{namespace DBus{namespace Address{typedef int tmp_add_type_6;}}}
  Gio::DBus::Address::tmp_add_type_6 tmp_add_func_6(){return 0;};
  namespace Gio{namespace DBus{namespace ErrorUtils{typedef int tmp_add_type_7;}}}
  Gio::DBus::ErrorUtils::tmp_add_type_7 tmp_add_func_7(){return 0;};
  namespace Glib{typedef int tmp_add_type_8;}
  Glib::tmp_add_type_8 tmp_add_func_8(){return 0;};
  namespace Glib{namespace Ascii{typedef int tmp_add_type_9;}}
  Glib::Ascii::tmp_add_type_9 tmp_add_func_9(){return 0;};
  namespace Glib{namespace Base64{typedef int tmp_add_type_10;}}
  Glib::Base64::tmp_add_type_10 tmp_add_func_10(){return 0;};
  namespace Glib{namespace detail{typedef int tmp_add_type_11;}}
  Glib::detail::tmp_add_type_11 tmp_add_func_11(){return 0;};
  namespace Glib{namespace Markup{typedef int tmp_add_type_12;}}
  Glib::Markup::tmp_add_type_12 tmp_add_func_12(){return 0;};
  namespace Glib{namespace Traits{typedef int tmp_add_type_13;}}
  Glib::Traits::tmp_add_type_13 tmp_add_func_13(){return 0;};
  namespace Glib{namespace Unicode{typedef int tmp_add_type_14;}}
  Glib::Unicode::tmp_add_type_14 tmp_add_func_14(){return 0;};
  namespace Gtk{typedef int tmp_add_type_15;}
  Gtk::tmp_add_type_15 tmp_add_func_15(){return 0;};
  namespace Gtk{namespace Accelerator{typedef int tmp_add_type_16;}}
  Gtk::Accelerator::tmp_add_type_16 tmp_add_func_16(){return 0;};
  namespace Pango{typedef int tmp_add_type_17;}
  Pango::tmp_add_type_17 tmp_add_func_17(){return 0;};
  namespace sigc{typedef int tmp_add_type_18;}
  sigc::tmp_add_type_18 tmp_add_func_18(){return 0;};
  namespace sigc{namespace internal{typedef int tmp_add_type_19;}}
  sigc::internal::tmp_add_type_19 tmp_add_func_19(){return 0;};
  namespace sigc{namespace internal{namespace detail{typedef int tmp_add_type_20;}}}
  sigc::internal::detail::tmp_add_type_20 tmp_add_func_20(){return 0;};
  namespace Glib{namespace Container_Helpers{typedef int tmp_add_type_21;}}
  Glib::Container_Helpers::tmp_add_type_21 tmp_add_func_21(){return 0;};
  namespace Gtk{namespace CellRenderer_Generation{typedef int tmp_add_type_22;}}
  Gtk::CellRenderer_Generation::tmp_add_type_22 tmp_add_func_22(){return 0;};
  namespace Gtk{namespace Expression_Private{typedef int tmp_add_type_23;}}
  Gtk::Expression_Private::tmp_add_type_23 tmp_add_func_23(){return 0;};
  namespace Gtk{namespace TreeView_Private{typedef int tmp_add_type_24;}}
  Gtk::TreeView_Private::tmp_add_type_24 tmp_add_func_24(){return 0;};

  // add classes
  FT_BBox_* tmp_add_class_0;
  FT_Bitmap_* tmp_add_class_1;
  FT_Bitmap_Size_* tmp_add_class_2;
  FT_CharMapRec_* tmp_add_class_3;
  FT_Data_* tmp_add_class_4;
  FT_FaceRec_* tmp_add_class_5;
  FT_Generic_* tmp_add_class_6;
  FT_GlyphSlotRec_* tmp_add_class_7;
  FT_Glyph_Metrics_* tmp_add_class_8;
  FT_ListNodeRec_* tmp_add_class_9;
  FT_ListRec_* tmp_add_class_10;
  FT_Matrix_* tmp_add_class_11;
  FT_MemoryRec_* tmp_add_class_12;
  FT_Open_Args_* tmp_add_class_13;
  FT_Outline_* tmp_add_class_14;
  FT_Outline_Funcs_* tmp_add_class_15;
  FT_Parameter_* tmp_add_class_16;
  FT_Raster_Funcs_* tmp_add_class_17;
  FT_Raster_Params_* tmp_add_class_18;
  FT_SizeRec_* tmp_add_class_19;
  FT_Size_Metrics_* tmp_add_class_20;
  FT_Size_RequestRec_* tmp_add_class_21;
  FT_Span_* tmp_add_class_22;
  FT_StreamDesc_* tmp_add_class_23;
  FT_StreamRec_* tmp_add_class_24;
  FT_UnitVector_* tmp_add_class_25;
  FT_Vector_* tmp_add_class_26;
  _FcConfigFileInfoIter* tmp_add_class_27;
  _FcConstant* tmp_add_class_28;
  _FcFontSet* tmp_add_class_29;
  _FcMatrix* tmp_add_class_30;
  _FcObjectSet* tmp_add_class_31;
  _FcObjectType* tmp_add_class_32;
  _FcPatternIter* tmp_add_class_33;
  _FcValue* tmp_add_class_34;
  _GActionEntry* tmp_add_class_35;
  _GActionGroupInterface* tmp_add_class_36;
  _GActionInterface* tmp_add_class_37;
  _GActionMapInterface* tmp_add_class_38;
  _GAppInfoIface* tmp_add_class_39;
  _GAppLaunchContext* tmp_add_class_40;
  _GAppLaunchContextClass* tmp_add_class_41;
  _GApplication* tmp_add_class_42;
  _GApplicationClass* tmp_add_class_43;
  _GApplicationCommandLine* tmp_add_class_44;
  _GApplicationCommandLineClass* tmp_add_class_45;
  _GArray* tmp_add_class_46;
  _GAsyncInitableIface* tmp_add_class_47;
  _GAsyncResultIface* tmp_add_class_48;
  _GBufferedInputStream* tmp_add_class_49;
  _GBufferedInputStreamClass* tmp_add_class_50;
  _GBufferedOutputStream* tmp_add_class_51;
  _GBufferedOutputStreamClass* tmp_add_class_52;
  _GByteArray* tmp_add_class_53;
  _GCClosure* tmp_add_class_54;
  _GCancellable* tmp_add_class_55;
  _GCancellableClass* tmp_add_class_56;
  _GCharsetConverterClass* tmp_add_class_57;
  _GClosure* tmp_add_class_58;
  _GClosureNotifyData* tmp_add_class_59;
  _GCompletion* tmp_add_class_60;
  _GCond* tmp_add_class_61;
  _GConverterIface* tmp_add_class_62;
  _GConverterInputStream* tmp_add_class_63;
  _GConverterInputStreamClass* tmp_add_class_64;
  _GConverterOutputStream* tmp_add_class_65;
  _GConverterOutputStreamClass* tmp_add_class_66;
  _GDBusAnnotationInfo* tmp_add_class_67;
  _GDBusArgInfo* tmp_add_class_68;
  _GDBusErrorEntry* tmp_add_class_69;
  _GDBusInterfaceIface* tmp_add_class_70;
  _GDBusInterfaceInfo* tmp_add_class_71;
  _GDBusInterfaceSkeleton* tmp_add_class_72;
  _GDBusInterfaceSkeletonClass* tmp_add_class_73;
  _GDBusInterfaceVTable* tmp_add_class_74;
  _GDBusMethodInfo* tmp_add_class_75;
  _GDBusNodeInfo* tmp_add_class_76;
  _GDBusObjectIface* tmp_add_class_77;
  _GDBusObjectManagerClient* tmp_add_class_78;
  _GDBusObjectManagerClientClass* tmp_add_class_79;
  _GDBusObjectManagerIface* tmp_add_class_80;
  _GDBusObjectManagerServer* tmp_add_class_81;
  _GDBusObjectManagerServerClass* tmp_add_class_82;
  _GDBusObjectProxy* tmp_add_class_83;
  _GDBusObjectProxyClass* tmp_add_class_84;
  _GDBusObjectSkeleton* tmp_add_class_85;
  _GDBusObjectSkeletonClass* tmp_add_class_86;
  _GDBusPropertyInfo* tmp_add_class_87;
  _GDBusProxy* tmp_add_class_88;
  _GDBusProxyClass* tmp_add_class_89;
  _GDBusSignalInfo* tmp_add_class_90;
  _GDBusSubtreeVTable* tmp_add_class_91;
  _GDataInputStream* tmp_add_class_92;
  _GDataInputStreamClass* tmp_add_class_93;
  _GDataOutputStream* tmp_add_class_94;
  _GDataOutputStreamClass* tmp_add_class_95;
  _GDatagramBasedInterface* tmp_add_class_96;
  _GDate* tmp_add_class_97;
  _GDebugControllerDBus* tmp_add_class_98;
  _GDebugControllerDBusClass* tmp_add_class_99;
  _GDebugControllerInterface* tmp_add_class_100;
  _GDebugKey* tmp_add_class_101;
  _GDoubleIEEE754* tmp_add_class_102;
  _GDriveIface* tmp_add_class_103;
  _GDtlsClientConnectionInterface* tmp_add_class_104;
  _GDtlsConnectionInterface* tmp_add_class_105;
  _GDtlsServerConnectionInterface* tmp_add_class_106;
  _GEmblemedIcon* tmp_add_class_107;
  _GEmblemedIconClass* tmp_add_class_108;
  _GEnumClass* tmp_add_class_109;
  _GEnumValue* tmp_add_class_110;
  _GError* tmp_add_class_111;
  _GFileAttributeInfo* tmp_add_class_112;
  _GFileAttributeInfoList* tmp_add_class_113;
  _GFileEnumerator* tmp_add_class_114;
  _GFileEnumeratorClass* tmp_add_class_115;
  _GFileIOStream* tmp_add_class_116;
  _GFileIOStreamClass* tmp_add_class_117;
  _GFileIface* tmp_add_class_118;
  _GFileInputStream* tmp_add_class_119;
  _GFileInputStreamClass* tmp_add_class_120;
  _GFileMonitor* tmp_add_class_121;
  _GFileMonitorClass* tmp_add_class_122;
  _GFileOutputStream* tmp_add_class_123;
  _GFileOutputStreamClass* tmp_add_class_124;
  _GFilenameCompleterClass* tmp_add_class_125;
  _GFilterInputStream* tmp_add_class_126;
  _GFilterInputStreamClass* tmp_add_class_127;
  _GFilterOutputStream* tmp_add_class_128;
  _GFilterOutputStreamClass* tmp_add_class_129;
  _GFlagsClass* tmp_add_class_130;
  _GFlagsValue* tmp_add_class_131;
  _GFloatIEEE754* tmp_add_class_132;
  _GHashTableIter* tmp_add_class_133;
  _GHook* tmp_add_class_134;
  _GHookList* tmp_add_class_135;
  _GIOChannel* tmp_add_class_136;
  _GIOFuncs* tmp_add_class_137;
  _GIOStream* tmp_add_class_138;
  _GIOStreamClass* tmp_add_class_139;
  _GIconIface* tmp_add_class_140;
  _GInetAddress* tmp_add_class_141;
  _GInetAddressClass* tmp_add_class_142;
  _GInetAddressMask* tmp_add_class_143;
  _GInetAddressMaskClass* tmp_add_class_144;
  _GInetSocketAddress* tmp_add_class_145;
  _GInetSocketAddressClass* tmp_add_class_146;
  _GInitableIface* tmp_add_class_147;
  _GInputMessage* tmp_add_class_148;
  _GInputStream* tmp_add_class_149;
  _GInputStreamClass* tmp_add_class_150;
  _GInputVector* tmp_add_class_151;
  _GInterfaceInfo* tmp_add_class_152;
  _GList* tmp_add_class_153;
  _GListModelInterface* tmp_add_class_154;
  _GLoadableIconIface* tmp_add_class_155;
  _GLogField* tmp_add_class_156;
  _GMarkupParser* tmp_add_class_157;
  _GMemVTable* tmp_add_class_158;
  _GMemoryInputStream* tmp_add_class_159;
  _GMemoryInputStreamClass* tmp_add_class_160;
  _GMemoryMonitorInterface* tmp_add_class_161;
  _GMemoryOutputStream* tmp_add_class_162;
  _GMemoryOutputStreamClass* tmp_add_class_163;
  _GMenuAttributeIter* tmp_add_class_164;
  _GMenuAttributeIterClass* tmp_add_class_165;
  _GMenuLinkIter* tmp_add_class_166;
  _GMenuLinkIterClass* tmp_add_class_167;
  _GMenuModel* tmp_add_class_168;
  _GMenuModelClass* tmp_add_class_169;
  _GMountIface* tmp_add_class_170;
  _GMountOperation* tmp_add_class_171;
  _GMountOperationClass* tmp_add_class_172;
  _GMutex* tmp_add_class_173;
  _GNativeSocketAddress* tmp_add_class_174;
  _GNativeSocketAddressClass* tmp_add_class_175;
  _GNativeVolumeMonitor* tmp_add_class_176;
  _GNativeVolumeMonitorClass* tmp_add_class_177;
  _GNetworkAddress* tmp_add_class_178;
  _GNetworkAddressClass* tmp_add_class_179;
  _GNetworkMonitorInterface* tmp_add_class_180;
  _GNetworkService* tmp_add_class_181;
  _GNetworkServiceClass* tmp_add_class_182;
  _GNode* tmp_add_class_183;
  _GObject* tmp_add_class_184;
  _GObjectClass* tmp_add_class_185;
  _GObjectConstructParam* tmp_add_class_186;
  _GOnce* tmp_add_class_187;
  _GOptionEntry* tmp_add_class_188;
  _GOutputMessage* tmp_add_class_189;
  _GOutputStream* tmp_add_class_190;
  _GOutputStreamClass* tmp_add_class_191;
  _GOutputVector* tmp_add_class_192;
  _GParamSpec* tmp_add_class_193;
  _GParamSpecBoolean* tmp_add_class_194;
  _GParamSpecBoxed* tmp_add_class_195;
  _GParamSpecChar* tmp_add_class_196;
  _GParamSpecClass* tmp_add_class_197;
  _GParamSpecDouble* tmp_add_class_198;
  _GParamSpecEnum* tmp_add_class_199;
  _GParamSpecFlags* tmp_add_class_200;
  _GParamSpecFloat* tmp_add_class_201;
  _GParamSpecGType* tmp_add_class_202;
  _GParamSpecInt* tmp_add_class_203;
  _GParamSpecInt64* tmp_add_class_204;
  _GParamSpecLong* tmp_add_class_205;
  _GParamSpecObject* tmp_add_class_206;
  _GParamSpecOverride* tmp_add_class_207;
  _GParamSpecParam* tmp_add_class_208;
  _GParamSpecPointer* tmp_add_class_209;
  _GParamSpecString* tmp_add_class_210;
  _GParamSpecTypeInfo* tmp_add_class_211;
  _GParamSpecUChar* tmp_add_class_212;
  _GParamSpecUInt* tmp_add_class_213;
  _GParamSpecUInt64* tmp_add_class_214;
  _GParamSpecULong* tmp_add_class_215;
  _GParamSpecUnichar* tmp_add_class_216;
  _GParamSpecValueArray* tmp_add_class_217;
  _GParamSpecVariant* tmp_add_class_218;
  _GParameter* tmp_add_class_219;
  _GPathBuf* tmp_add_class_220;
  _GPermission* tmp_add_class_221;
  _GPermissionClass* tmp_add_class_222;
  _GPollFD* tmp_add_class_223;
  _GPollableInputStreamInterface* tmp_add_class_224;
  _GPollableOutputStreamInterface* tmp_add_class_225;
  _GPowerProfileMonitorInterface* tmp_add_class_226;
  _GPrivate* tmp_add_class_227;
  _GProxyAddress* tmp_add_class_228;
  _GProxyAddressClass* tmp_add_class_229;
  _GProxyAddressEnumerator* tmp_add_class_230;
  _GProxyAddressEnumeratorClass* tmp_add_class_231;
  _GProxyInterface* tmp_add_class_232;
  _GProxyResolverInterface* tmp_add_class_233;
  _GPtrArray* tmp_add_class_234;
  _GQueue* tmp_add_class_235;
  _GRWLock* tmp_add_class_236;
  _GRecMutex* tmp_add_class_237;
  _GRemoteActionGroupInterface* tmp_add_class_238;
  _GResolver* tmp_add_class_239;
  _GResolverClass* tmp_add_class_240;
  _GSList* tmp_add_class_241;
  _GScanner* tmp_add_class_242;
  _GScannerConfig* tmp_add_class_243;
  _GSeekableIface* tmp_add_class_244;
  _GSettings* tmp_add_class_245;
  _GSettingsClass* tmp_add_class_246;
  _GSignalInvocationHint* tmp_add_class_247;
  _GSignalQuery* tmp_add_class_248;
  _GSimpleActionGroup* tmp_add_class_249;
  _GSimpleActionGroupClass* tmp_add_class_250;
  _GSimpleProxyResolver* tmp_add_class_251;
  _GSimpleProxyResolverClass* tmp_add_class_252;
  _GSocket* tmp_add_class_253;
  _GSocketAddress* tmp_add_class_254;
  _GSocketAddressClass* tmp_add_class_255;
  _GSocketAddressEnumerator* tmp_add_class_256;
  _GSocketAddressEnumeratorClass* tmp_add_class_257;
  _GSocketClass* tmp_add_class_258;
  _GSocketClient* tmp_add_class_259;
  _GSocketClientClass* tmp_add_class_260;
  _GSocketConnectableIface* tmp_add_class_261;
  _GSocketConnection* tmp_add_class_262;
  _GSocketConnectionClass* tmp_add_class_263;
  _GSocketControlMessage* tmp_add_class_264;
  _GSocketControlMessageClass* tmp_add_class_265;
  _GSocketListener* tmp_add_class_266;
  _GSocketListenerClass* tmp_add_class_267;
  _GSocketService* tmp_add_class_268;
  _GSocketServiceClass* tmp_add_class_269;
  _GSource* tmp_add_class_270;
  _GSourceCallbackFuncs* tmp_add_class_271;
  _GSourceFuncs* tmp_add_class_272;
  _GStaticPrivate* tmp_add_class_273;
  _GStaticRWLock* tmp_add_class_274;
  _GStaticRecMutex* tmp_add_class_275;
  _GStaticResource* tmp_add_class_276;
  _GString* tmp_add_class_277;
  _GTcpConnection* tmp_add_class_278;
  _GTcpConnectionClass* tmp_add_class_279;
  _GTcpWrapperConnection* tmp_add_class_280;
  _GTcpWrapperConnectionClass* tmp_add_class_281;
  _GThread* tmp_add_class_282;
  _GThreadFunctions* tmp_add_class_283;
  _GThreadPool* tmp_add_class_284;
  _GThreadedSocketService* tmp_add_class_285;
  _GThreadedSocketServiceClass* tmp_add_class_286;
  _GTimeVal* tmp_add_class_287;
  _GTlsBackendInterface* tmp_add_class_288;
  _GTlsCertificate* tmp_add_class_289;
  _GTlsCertificateClass* tmp_add_class_290;
  _GTlsClientConnectionInterface* tmp_add_class_291;
  _GTlsConnection* tmp_add_class_292;
  _GTlsConnectionClass* tmp_add_class_293;
  _GTlsDatabase* tmp_add_class_294;
  _GTlsDatabaseClass* tmp_add_class_295;
  _GTlsFileDatabaseInterface* tmp_add_class_296;
  _GTlsInteraction* tmp_add_class_297;
  _GTlsInteractionClass* tmp_add_class_298;
  _GTlsPassword* tmp_add_class_299;
  _GTlsPasswordClass* tmp_add_class_300;
  _GTlsServerConnectionInterface* tmp_add_class_301;
  _GTokenValue* tmp_add_class_302;
  _GTrashStack* tmp_add_class_303;
  _GTuples* tmp_add_class_304;
  _GTypeClass* tmp_add_class_305;
  _GTypeFundamentalInfo* tmp_add_class_306;
  _GTypeInfo* tmp_add_class_307;
  _GTypeInstance* tmp_add_class_308;
  _GTypeInterface* tmp_add_class_309;
  _GTypeModule* tmp_add_class_310;
  _GTypeModuleClass* tmp_add_class_311;
  _GTypePluginClass* tmp_add_class_312;
  _GTypeQuery* tmp_add_class_313;
  _GTypeValueTable* tmp_add_class_314;
  _GUnixConnection* tmp_add_class_315;
  _GUnixConnectionClass* tmp_add_class_316;
  _GUnixCredentialsMessage* tmp_add_class_317;
  _GUnixCredentialsMessageClass* tmp_add_class_318;
  _GUnixFDList* tmp_add_class_319;
  _GUnixFDListClass* tmp_add_class_320;
  _GUnixSocketAddress* tmp_add_class_321;
  _GUnixSocketAddressClass* tmp_add_class_322;
  _GUriParamsIter* tmp_add_class_323;
  _GValue* tmp_add_class_324;
  _GValueArray* tmp_add_class_325;
  _GVariantBuilder* tmp_add_class_326;
  _GVariantDict* tmp_add_class_327;
  _GVariantIter* tmp_add_class_328;
  _GVfs* tmp_add_class_329;
  _GVfsClass* tmp_add_class_330;
  _GVolumeIface* tmp_add_class_331;
  _GVolumeMonitor* tmp_add_class_332;
  _GVolumeMonitorClass* tmp_add_class_333;
  _GZlibCompressorClass* tmp_add_class_334;
  _GZlibDecompressorClass* tmp_add_class_335;
  _G_fpos64_t* tmp_add_class_336;
  _G_fpos_t* tmp_add_class_337;
  _GdkContentProvider* tmp_add_class_338;
  _GdkContentProviderClass* tmp_add_class_339;
  _GdkKeymapKey* tmp_add_class_340;
  _GdkPaintableInterface* tmp_add_class_341;
  _GdkPixbufLoader* tmp_add_class_342;
  _GdkPixbufLoaderClass* tmp_add_class_343;
  _GdkRGBA* tmp_add_class_344;
  _GdkSeat* tmp_add_class_345;
  _GdkTimeCoord* tmp_add_class_346;
  _GskColorStop* tmp_add_class_347;
  _GskParseLocation* tmp_add_class_348;
  _GskRoundedRect* tmp_add_class_349;
  _GskShadow* tmp_add_class_350;
  _GtkAccessibleInterface* tmp_add_class_351;
  _GtkAccessibleRangeInterface* tmp_add_class_352;
  _GtkActionableInterface* tmp_add_class_353;
  _GtkAdjustment* tmp_add_class_354;
  _GtkAdjustmentClass* tmp_add_class_355;
  _GtkApplication* tmp_add_class_356;
  _GtkApplicationClass* tmp_add_class_357;
  _GtkApplicationWindow* tmp_add_class_358;
  _GtkApplicationWindowClass* tmp_add_class_359;
  _GtkBitsetIter* tmp_add_class_360;
  _GtkBorder* tmp_add_class_361;
  _GtkBox* tmp_add_class_362;
  _GtkBoxClass* tmp_add_class_363;
  _GtkBuildableIface* tmp_add_class_364;
  _GtkBuildableParser* tmp_add_class_365;
  _GtkBuilderCScope* tmp_add_class_366;
  _GtkBuilderCScopeClass* tmp_add_class_367;
  _GtkBuilderScopeInterface* tmp_add_class_368;
  _GtkButton* tmp_add_class_369;
  _GtkButtonClass* tmp_add_class_370;
  _GtkCellArea* tmp_add_class_371;
  _GtkCellAreaClass* tmp_add_class_372;
  _GtkCellAreaContext* tmp_add_class_373;
  _GtkCellAreaContextClass* tmp_add_class_374;
  _GtkCellEditableIface* tmp_add_class_375;
  _GtkCellLayoutIface* tmp_add_class_376;
  _GtkCellRenderer* tmp_add_class_377;
  _GtkCellRendererClass* tmp_add_class_378;
  _GtkCellRendererText* tmp_add_class_379;
  _GtkCellRendererTextClass* tmp_add_class_380;
  _GtkCheckButton* tmp_add_class_381;
  _GtkCheckButtonClass* tmp_add_class_382;
  _GtkColorChooserInterface* tmp_add_class_383;
  _GtkComboBox* tmp_add_class_384;
  _GtkComboBoxClass* tmp_add_class_385;
  _GtkCssLocation* tmp_add_class_386;
  _GtkCssProvider* tmp_add_class_387;
  _GtkDialog* tmp_add_class_388;
  _GtkDialogClass* tmp_add_class_389;
  _GtkDrawingArea* tmp_add_class_390;
  _GtkDrawingAreaClass* tmp_add_class_391;
  _GtkEditableInterface* tmp_add_class_392;
  _GtkEntry* tmp_add_class_393;
  _GtkEntryBuffer* tmp_add_class_394;
  _GtkEntryBufferClass* tmp_add_class_395;
  _GtkEntryClass* tmp_add_class_396;
  _GtkFilter* tmp_add_class_397;
  _GtkFilterClass* tmp_add_class_398;
  _GtkFixed* tmp_add_class_399;
  _GtkFixedClass* tmp_add_class_400;
  _GtkFlowBoxChild* tmp_add_class_401;
  _GtkFlowBoxChildClass* tmp_add_class_402;
  _GtkFontChooserIface* tmp_add_class_403;
  _GtkFrame* tmp_add_class_404;
  _GtkFrameClass* tmp_add_class_405;
  _GtkGLArea* tmp_add_class_406;
  _GtkGLAreaClass* tmp_add_class_407;
  _GtkGrid* tmp_add_class_408;
  _GtkGridClass* tmp_add_class_409;
  _GtkIMContext* tmp_add_class_410;
  _GtkIMContextClass* tmp_add_class_411;
  _GtkIMContextSimple* tmp_add_class_412;
  _GtkIMContextSimpleClass* tmp_add_class_413;
  _GtkIMMulticontext* tmp_add_class_414;
  _GtkIMMulticontextClass* tmp_add_class_415;
  _GtkLayoutChild* tmp_add_class_416;
  _GtkLayoutChildClass* tmp_add_class_417;
  _GtkLayoutManager* tmp_add_class_418;
  _GtkLayoutManagerClass* tmp_add_class_419;
  _GtkListBoxRow* tmp_add_class_420;
  _GtkListBoxRowClass* tmp_add_class_421;
  _GtkListStore* tmp_add_class_422;
  _GtkListStoreClass* tmp_add_class_423;
  _GtkMediaFile* tmp_add_class_424;
  _GtkMediaFileClass* tmp_add_class_425;
  _GtkMediaStream* tmp_add_class_426;
  _GtkMediaStreamClass* tmp_add_class_427;
  _GtkMessageDialog* tmp_add_class_428;
  _GtkMountOperation* tmp_add_class_429;
  _GtkMountOperationClass* tmp_add_class_430;
  _GtkNativeDialog* tmp_add_class_431;
  _GtkNativeDialogClass* tmp_add_class_432;
  _GtkOrientableIface* tmp_add_class_433;
  _GtkPadActionEntry* tmp_add_class_434;
  _GtkPageRange* tmp_add_class_435;
  _GtkPopover* tmp_add_class_436;
  _GtkPopoverClass* tmp_add_class_437;
  _GtkPrintOperation* tmp_add_class_438;
  _GtkPrintOperationClass* tmp_add_class_439;
  _GtkPrintOperationPreviewIface* tmp_add_class_440;
  _GtkRange* tmp_add_class_441;
  _GtkRangeClass* tmp_add_class_442;
  _GtkRecentData* tmp_add_class_443;
  _GtkRecentManager* tmp_add_class_444;
  _GtkRecentManagerClass* tmp_add_class_445;
  _GtkRequestedSize* tmp_add_class_446;
  _GtkRequisition* tmp_add_class_447;
  _GtkScale* tmp_add_class_448;
  _GtkScaleButton* tmp_add_class_449;
  _GtkScaleButtonClass* tmp_add_class_450;
  _GtkScaleClass* tmp_add_class_451;
  _GtkScrollableInterface* tmp_add_class_452;
  _GtkSectionModelInterface* tmp_add_class_453;
  _GtkSelectionModelInterface* tmp_add_class_454;
  _GtkShortcutManagerInterface* tmp_add_class_455;
  _GtkSizeGroup* tmp_add_class_456;
  _GtkSorter* tmp_add_class_457;
  _GtkSorterClass* tmp_add_class_458;
  _GtkStyleContext* tmp_add_class_459;
  _GtkStyleContextClass* tmp_add_class_460;
  _GtkSymbolicPaintableInterface* tmp_add_class_461;
  _GtkText* tmp_add_class_462;
  _GtkTextBuffer* tmp_add_class_463;
  _GtkTextBufferClass* tmp_add_class_464;
  _GtkTextChildAnchor* tmp_add_class_465;
  _GtkTextChildAnchorClass* tmp_add_class_466;
  _GtkTextIter* tmp_add_class_467;
  _GtkTextMark* tmp_add_class_468;
  _GtkTextMarkClass* tmp_add_class_469;
  _GtkTextTag* tmp_add_class_470;
  _GtkTextTagClass* tmp_add_class_471;
  _GtkTextView* tmp_add_class_472;
  _GtkTextViewClass* tmp_add_class_473;
  _GtkToggleButton* tmp_add_class_474;
  _GtkToggleButtonClass* tmp_add_class_475;
  _GtkTreeDragDestIface* tmp_add_class_476;
  _GtkTreeDragSourceIface* tmp_add_class_477;
  _GtkTreeIter* tmp_add_class_478;
  _GtkTreeModelFilter* tmp_add_class_479;
  _GtkTreeModelFilterClass* tmp_add_class_480;
  _GtkTreeModelIface* tmp_add_class_481;
  _GtkTreeModelSort* tmp_add_class_482;
  _GtkTreeModelSortClass* tmp_add_class_483;
  _GtkTreeSortableIface* tmp_add_class_484;
  _GtkTreeStore* tmp_add_class_485;
  _GtkTreeStoreClass* tmp_add_class_486;
  _GtkTreeView* tmp_add_class_487;
  _GtkTreeViewClass* tmp_add_class_488;
  _GtkVolumeButton* tmp_add_class_489;
  _GtkWidget* tmp_add_class_490;
  _GtkWidgetClass* tmp_add_class_491;
  _GtkWindow* tmp_add_class_492;
  _GtkWindowClass* tmp_add_class_493;
  _GtkWindowGroup* tmp_add_class_494;
  _GtkWindowGroupClass* tmp_add_class_495;
  _IO_cookie_io_functions_t* tmp_add_class_496;
  _PangoAnalysis* tmp_add_class_497;
  _PangoAttrClass* tmp_add_class_498;
  _PangoAttrColor* tmp_add_class_499;
  _PangoAttrFloat* tmp_add_class_500;
  _PangoAttrFontDesc* tmp_add_class_501;
  _PangoAttrFontFeatures* tmp_add_class_502;
  _PangoAttrInt* tmp_add_class_503;
  _PangoAttrLanguage* tmp_add_class_504;
  _PangoAttrShape* tmp_add_class_505;
  _PangoAttrSize* tmp_add_class_506;
  _PangoAttrString* tmp_add_class_507;
  _PangoAttribute* tmp_add_class_508;
  _PangoColor* tmp_add_class_509;
  _PangoEngine* tmp_add_class_510;
  _PangoEngineClass* tmp_add_class_511;
  _PangoEngineInfo* tmp_add_class_512;
  _PangoEngineLang* tmp_add_class_513;
  _PangoEngineLangClass* tmp_add_class_514;
  _PangoEngineScriptInfo* tmp_add_class_515;
  _PangoEngineShape* tmp_add_class_516;
  _PangoEngineShapeClass* tmp_add_class_517;
  _PangoFont* tmp_add_class_518;
  _PangoFontClass* tmp_add_class_519;
  _PangoFontFace* tmp_add_class_520;
  _PangoFontFaceClass* tmp_add_class_521;
  _PangoFontFamily* tmp_add_class_522;
  _PangoFontFamilyClass* tmp_add_class_523;
  _PangoFontMap* tmp_add_class_524;
  _PangoFontMapClass* tmp_add_class_525;
  _PangoFontMetrics* tmp_add_class_526;
  _PangoFontset* tmp_add_class_527;
  _PangoFontsetClass* tmp_add_class_528;
  _PangoGlyphGeometry* tmp_add_class_529;
  _PangoGlyphInfo* tmp_add_class_530;
  _PangoGlyphItem* tmp_add_class_531;
  _PangoGlyphItemIter* tmp_add_class_532;
  _PangoGlyphString* tmp_add_class_533;
  _PangoGlyphVisAttr* tmp_add_class_534;
  _PangoItem* tmp_add_class_535;
  _PangoLayoutLine* tmp_add_class_536;
  _PangoLogAttr* tmp_add_class_537;
  _PangoMatrix* tmp_add_class_538;
  _PangoRectangle* tmp_add_class_539;
  _PangoRenderer* tmp_add_class_540;
  _PangoRendererClass* tmp_add_class_541;
  _cairo_matrix* tmp_add_class_542;
  _cairo_path_data_t* tmp_add_class_543;
  _cairo_rectangle* tmp_add_class_544;
  _cairo_rectangle_int* tmp_add_class_545;
  _cairo_rectangle_list* tmp_add_class_546;
  _cairo_user_data_key* tmp_add_class_547;
  _graphene_box_t* tmp_add_class_548;
  _graphene_euler_t* tmp_add_class_549;
  _graphene_frustum_t* tmp_add_class_550;
  _graphene_matrix_t* tmp_add_class_551;
  _graphene_plane_t* tmp_add_class_552;
  _graphene_point3d_t* tmp_add_class_553;
  _graphene_point_t* tmp_add_class_554;
  _graphene_quad_t* tmp_add_class_555;
  _graphene_quaternion_t* tmp_add_class_556;
  _graphene_ray_t* tmp_add_class_557;
  _graphene_rect_t* tmp_add_class_558;
  _graphene_size_t* tmp_add_class_559;
  _graphene_sphere_t* tmp_add_class_560;
  _graphene_triangle_t* tmp_add_class_561;
  _graphene_vec2_t* tmp_add_class_562;
  _graphene_vec3_t* tmp_add_class_563;
  _graphene_vec4_t* tmp_add_class_564;
  _hb_var_int_t* tmp_add_class_565;
  _hb_var_num_t* tmp_add_class_566;
  cairo_path* tmp_add_class_567;
  hb_color_line_t* tmp_add_class_568;
  hb_draw_state_t* tmp_add_class_569;
  hb_feature_t* tmp_add_class_570;
  hb_font_extents_t* tmp_add_class_571;
  hb_glyph_extents_t* tmp_add_class_572;
  hb_glyph_info_t* tmp_add_class_573;
  hb_glyph_position_t* tmp_add_class_574;
  hb_segment_properties_t* tmp_add_class_575;
  hb_user_data_key_t* tmp_add_class_576;
  hb_variation_t* tmp_add_class_577;
  statx_timestamp* tmp_add_class_578;
  ucontext_t* tmp_add_class_579;

The GCC parameters:
  gcc -fdump-lang-raw -fkeep-inline-functions -c -x c++ -fpermissive -w "/tmp/fQZTgDdjGa/dump1.h"  -I/usr/include/gtkmm-4.0 -I/usr/lib/arm-linux-gnueabihf/gtkmm-4.0/include -I/usr/include/sigc\+\+-3.0 -I/usr/include/pangomm-2.48 -I/usr/include/pango-1.0 -I/usr/include/harfbuzz -I/usr/include/gtk-4.0 -I/usr/include/graphene-1.0 -I/usr/include/glibmm-2.68 -I/usr/include/glib-2.0 -I/usr/include/giomm-2.68 -I/usr/include/gdk-pixbuf-2.0 -I/usr/include/freetype2 -I/usr/include/cairomm-1.16 -I/usr/include/cairo -I/lib/arm-linux-gnueabihf/sigc\+\+-3.0/include -I/lib/arm-linux-gnueabihf/pangomm-2.48/include -I/lib/arm-linux-gnueabihf/graphene-1.0/include -I/lib/arm-linux-gnueabihf/glibmm-2.68/include -I/lib/arm-linux-gnueabihf/glib-2.0/include -I/lib/arm-linux-gnueabihf/giomm-2.68/include -I/lib/arm-linux-gnueabihf/cairomm-1.16/include

