[2024-01-07T21:59:04+00:00] apt-get install libmrpt-slam-dev libmrpt-apps-dev libmrpt-containers-dev libmrpt-graphslam-dev libmrpt-gui-dev libmrpt-hwdrivers-dev libmrpt-img-dev libmrpt-io-dev libmrpt-maps-dev libmrpt-math-dev libmrpt-nanogui-dev libmrpt-opengl-dev libmrpt-poses-dev libmrpt-ros1bridge-dev libmrpt-serialization-dev libmrpt-slam-dev abi-compliance-checker
Reading package lists...
Building dependency tree...
Reading state information...
libmrpt-slam-dev is already the newest version (1:2.11.3+ds-1+b1).
libmrpt-slam-dev set to manually installed.
libmrpt-apps-dev is already the newest version (1:2.11.3+ds-1+b1).
libmrpt-apps-dev set to manually installed.
libmrpt-containers-dev is already the newest version (1:2.11.3+ds-1+b1).
libmrpt-containers-dev set to manually installed.
libmrpt-graphslam-dev is already the newest version (1:2.11.3+ds-1+b1).
libmrpt-graphslam-dev set to manually installed.
libmrpt-gui-dev is already the newest version (1:2.11.3+ds-1+b1).
libmrpt-gui-dev set to manually installed.
libmrpt-hwdrivers-dev is already the newest version (1:2.11.3+ds-1+b1).
libmrpt-hwdrivers-dev set to manually installed.
libmrpt-img-dev is already the newest version (1:2.11.3+ds-1+b1).
libmrpt-img-dev set to manually installed.
libmrpt-io-dev is already the newest version (1:2.11.3+ds-1+b1).
libmrpt-io-dev set to manually installed.
libmrpt-maps-dev is already the newest version (1:2.11.3+ds-1+b1).
libmrpt-maps-dev set to manually installed.
libmrpt-math-dev is already the newest version (1:2.11.3+ds-1+b1).
libmrpt-math-dev set to manually installed.
libmrpt-nanogui-dev is already the newest version (1:2.11.3+ds-1+b1).
libmrpt-nanogui-dev set to manually installed.
libmrpt-opengl-dev is already the newest version (1:2.11.3+ds-1+b1).
libmrpt-opengl-dev set to manually installed.
libmrpt-poses-dev is already the newest version (1:2.11.3+ds-1+b1).
libmrpt-poses-dev set to manually installed.
libmrpt-ros1bridge-dev is already the newest version (1:2.11.3+ds-1+b1).
libmrpt-ros1bridge-dev set to manually installed.
libmrpt-serialization-dev is already the newest version (1:2.11.3+ds-1+b1).
libmrpt-serialization-dev set to manually installed.
abi-compliance-checker is already the newest version (2.3-2).
0 upgraded, 0 newly installed, 0 to remove and 39 not upgraded.
Reading package lists...
Building dependency tree...
Reading state information...
0 upgraded, 0 newly installed, 0 to remove and 39 not upgraded.
