Temporary header file '/tmp/vUyaPah8hm/dump1.h' with the following content will be compiled to create GCC translation unit dump:

  // add defines
  #define __STDC_VERSION__ 201710L
#define _TIME_BITS 64
#define _FILE_OFFSET_BITS 64
#define _GXX_NULLPTR_T
#define CLUTTER_ENABLE_COMPOSITOR_API 1
#define _REGEX_NELTS(n)
#define _Atomic
#define PACKED
#ifdef __cplusplus
// C17 compat layer
#define _Alignof(type) alignof(type)
#endif
#define getaddrinfo_a(a,b,c,d)

  // add includes
  #include "/usr/include/wayfire/bindings-repository.hpp"
  #include "/usr/include/wayfire/bindings.hpp"
  #include "/usr/include/wayfire/compositor-view.hpp"
  #include "/usr/include/wayfire/config-backend.hpp"
  #include "/usr/include/wayfire/config.h"
  #include "/usr/include/wayfire/core.hpp"
  #include "/usr/include/wayfire/dassert.hpp"
  #include "/usr/include/wayfire/debug.hpp"
  #include "/usr/include/wayfire/geometry.hpp"
  #include "/usr/include/wayfire/idle.hpp"
  #include "/usr/include/wayfire/img.hpp"
  #include "/usr/include/wayfire/input-device.hpp"
  #include "/usr/include/wayfire/matcher.hpp"
  #include "/usr/include/wayfire/nonstd/observer_ptr.h"
  #include "/usr/include/wayfire/nonstd/reverse.hpp"
  #include "/usr/include/wayfire/nonstd/safe-list.hpp"
  #include "/usr/include/wayfire/nonstd/tracking-allocator.hpp"
  #include "/usr/include/wayfire/nonstd/wlroots-full.hpp"
  #include "/usr/include/wayfire/nonstd/wlroots.hpp"
  #include "/usr/include/wayfire/object.hpp"
  #include "/usr/include/wayfire/opengl.hpp"
  #include "/usr/include/wayfire/option-wrapper.hpp"
  #include "/usr/include/wayfire/output-layout.hpp"
  #include "/usr/include/wayfire/output.hpp"
  #include "/usr/include/wayfire/per-output-plugin.hpp"
  #include "/usr/include/wayfire/plugin.hpp"
  #include "/usr/include/wayfire/plugins/blur/blur.hpp"
  #include "/usr/include/wayfire/plugins/common/cairo-util.hpp"
  #include "/usr/include/wayfire/plugins/common/geometry-animation.hpp"
  #include "/usr/include/wayfire/plugins/common/input-grab.hpp"
  #include "/usr/include/wayfire/plugins/common/key-repeat.hpp"
  #include "/usr/include/wayfire/plugins/common/move-drag-interface.hpp"
  #include "/usr/include/wayfire/plugins/common/preview-indication.hpp"
  #include "/usr/include/wayfire/plugins/common/shared-core-data.hpp"
  #include "/usr/include/wayfire/plugins/common/simple-texture.hpp"
  #include "/usr/include/wayfire/plugins/common/util.hpp"
  #include "/usr/include/wayfire/plugins/common/workspace-wall.hpp"
  #include "/usr/include/wayfire/plugins/crossfade.hpp"
  #include "/usr/include/wayfire/plugins/grid.hpp"
  #include "/usr/include/wayfire/plugins/ipc/ipc-activator.hpp"
  #include "/usr/include/wayfire/plugins/ipc/ipc-helpers.hpp"
  #include "/usr/include/wayfire/plugins/ipc/ipc-method-repository.hpp"
  #include "/usr/include/wayfire/plugins/ipc/ipc.hpp"
  #include "/usr/include/wayfire/plugins/scale-signal.hpp"
  #include "/usr/include/wayfire/plugins/vswitch.hpp"
  #include "/usr/include/wayfire/plugins/wm-actions-signals.hpp"
  #include "/usr/include/wayfire/plugins/wobbly/wobbly-signal.hpp"
  #include "/usr/include/wayfire/region.hpp"
  #include "/usr/include/wayfire/render-manager.hpp"
  #include "/usr/include/wayfire/scene-input.hpp"
  #include "/usr/include/wayfire/scene-operations.hpp"
  #include "/usr/include/wayfire/scene-render.hpp"
  #include "/usr/include/wayfire/scene.hpp"
  #include "/usr/include/wayfire/seat.hpp"
  #include "/usr/include/wayfire/signal-definitions.hpp"
  #include "/usr/include/wayfire/signal-provider.hpp"
  #include "/usr/include/wayfire/toplevel-view.hpp"
  #include "/usr/include/wayfire/toplevel.hpp"
  #include "/usr/include/wayfire/txn/transaction-manager.hpp"
  #include "/usr/include/wayfire/txn/transaction-object.hpp"
  #include "/usr/include/wayfire/txn/transaction.hpp"
  #include "/usr/include/wayfire/unstable/translation-node.hpp"
  #include "/usr/include/wayfire/unstable/wlr-surface-node.hpp"
  #include "/usr/include/wayfire/unstable/wlr-view-events.hpp"
  #include "/usr/include/wayfire/unstable/wlr-view-keyboard-interaction.hpp"
  #include "/usr/include/wayfire/unstable/xdg-toplevel-base.hpp"
  #include "/usr/include/wayfire/unstable/xwl-toplevel-base.hpp"
  #include "/usr/include/wayfire/util.hpp"
  #include "/usr/include/wayfire/view-access-interface.hpp"
  #include "/usr/include/wayfire/view-helpers.hpp"
  #include "/usr/include/wayfire/view-transform.hpp"
  #include "/usr/include/wayfire/view.hpp"
  #include "/usr/include/wayfire/window-manager.hpp"
  #include "/usr/include/wayfire/workarea.hpp"
  #include "/usr/include/wayfire/workspace-set.hpp"
  #include "/usr/include/wayfire/workspace-stream.hpp"

  // add namespaces
  namespace glm{typedef int tmp_add_type_1;}
  glm::tmp_add_type_1 tmp_add_func_1(){return 0;};
  namespace glm{namespace detail{typedef int tmp_add_type_2;}}
  glm::detail::tmp_add_type_2 tmp_add_func_2(){return 0;};
  namespace nlohmann{typedef int tmp_add_type_3;}
  nlohmann::tmp_add_type_3 tmp_add_func_3(){return 0;};
  namespace nonstd{typedef int tmp_add_type_4;}
  nonstd::tmp_add_type_4 tmp_add_func_4(){return 0;};
  namespace nonstd{namespace detail{typedef int tmp_add_type_5;}}
  nonstd::detail::tmp_add_type_5 tmp_add_func_5(){return 0;};
  namespace OpenGL{typedef int tmp_add_type_6;}
  OpenGL::tmp_add_type_6 tmp_add_func_6(){return 0;};
  namespace wf{typedef int tmp_add_type_7;}
  wf::tmp_add_type_7 tmp_add_func_7(){return 0;};
  namespace wf{namespace animation{typedef int tmp_add_type_8;}}
  wf::animation::tmp_add_type_8 tmp_add_func_8(){return 0;};
  namespace wf{namespace animation{namespace smoothing{typedef int tmp_add_type_9;}}}
  wf::animation::smoothing::tmp_add_type_9 tmp_add_func_9(){return 0;};
  namespace wf{namespace config{typedef int tmp_add_type_10;}}
  wf::config::tmp_add_type_10 tmp_add_func_10(){return 0;};
  namespace wf{namespace config{namespace detail{typedef int tmp_add_type_11;}}}
  wf::config::detail::tmp_add_type_11 tmp_add_func_11(){return 0;};
  namespace wf{namespace grid{typedef int tmp_add_type_12;}}
  wf::grid::tmp_add_type_12 tmp_add_func_12(){return 0;};
  namespace wf{namespace ipc{typedef int tmp_add_type_13;}}
  wf::ipc::tmp_add_type_13 tmp_add_func_13(){return 0;};
  namespace wf{namespace log{typedef int tmp_add_type_14;}}
  wf::log::tmp_add_type_14 tmp_add_func_14(){return 0;};
  namespace wf{namespace log{namespace detail{typedef int tmp_add_type_15;}}}
  wf::log::detail::tmp_add_type_15 tmp_add_func_15(){return 0;};
  namespace wf{namespace scene{typedef int tmp_add_type_16;}}
  wf::scene::tmp_add_type_16 tmp_add_func_16(){return 0;};
  namespace wf{namespace signal{typedef int tmp_add_type_17;}}
  wf::signal::tmp_add_type_17 tmp_add_func_17(){return 0;};
  namespace wf{namespace touch{typedef int tmp_add_type_18;}}
  wf::touch::tmp_add_type_18 tmp_add_func_18(){return 0;};
  namespace wf{namespace txn{typedef int tmp_add_type_19;}}
  wf::txn::tmp_add_type_19 tmp_add_func_19(){return 0;};
  namespace wf{namespace vswitch{typedef int tmp_add_type_20;}}
  wf::vswitch::tmp_add_type_20 tmp_add_func_20(){return 0;};
  namespace image_io{typedef int tmp_add_type_21;}
  image_io::tmp_add_type_21 tmp_add_func_21(){return 0;};
  namespace nlohmann{namespace json_abi_v3_11_3{typedef int tmp_add_type_22;}}
  nlohmann::json_abi_v3_11_3::tmp_add_type_22 tmp_add_func_22(){return 0;};
  namespace nlohmann{namespace json_abi_v3_11_3{namespace detail{typedef int tmp_add_type_23;}}}
  nlohmann::json_abi_v3_11_3::detail::tmp_add_type_23 tmp_add_func_23(){return 0;};
  namespace nlohmann{namespace json_abi_v3_11_3{namespace detail2{typedef int tmp_add_type_24;}}}
  nlohmann::json_abi_v3_11_3::detail2::tmp_add_type_24 tmp_add_func_24(){return 0;};
  namespace nlohmann{namespace json_abi_v3_11_3{namespace detail{namespace container_input_adapter_factory_impl{typedef int tmp_add_type_25;}}}}
  nlohmann::json_abi_v3_11_3::detail::container_input_adapter_factory_impl::tmp_add_type_25 tmp_add_func_25(){return 0;};
  namespace nlohmann{namespace json_abi_v3_11_3{namespace detail{namespace dtoa_impl{typedef int tmp_add_type_26;}}}}
  nlohmann::json_abi_v3_11_3::detail::dtoa_impl::tmp_add_type_26 tmp_add_func_26(){return 0;};
  namespace nlohmann{namespace json_abi_v3_11_3{namespace detail{namespace impl{typedef int tmp_add_type_27;}}}}
  nlohmann::json_abi_v3_11_3::detail::impl::tmp_add_type_27 tmp_add_func_27(){return 0;};
  namespace nlohmann{namespace json_abi_v3_11_3{namespace literals{typedef int tmp_add_type_28;}}}
  nlohmann::json_abi_v3_11_3::literals::tmp_add_type_28 tmp_add_func_28(){return 0;};
  namespace nlohmann{namespace json_abi_v3_11_3{namespace literals{namespace json_literals{typedef int tmp_add_type_29;}}}}
  nlohmann::json_abi_v3_11_3::literals::json_literals::tmp_add_type_29 tmp_add_func_29(){return 0;};
  namespace wf{namespace move_drag{typedef int tmp_add_type_30;}}
  wf::move_drag::tmp_add_type_30 tmp_add_func_30(){return 0;};
  namespace wf{namespace option_type{typedef int tmp_add_type_31;}}
  wf::option_type::tmp_add_type_31 tmp_add_func_31(){return 0;};
  namespace wf{namespace output_config{typedef int tmp_add_type_32;}}
  wf::output_config::tmp_add_type_32 tmp_add_func_32(){return 0;};
  namespace wf{namespace scene{namespace update_flag{typedef int tmp_add_type_33;}}}
  wf::scene::update_flag::tmp_add_type_33 tmp_add_func_33(){return 0;};
  namespace wf{namespace shared_data{typedef int tmp_add_type_34;}}
  wf::shared_data::tmp_add_type_34 tmp_add_func_34(){return 0;};
  namespace wf{namespace shared_data{namespace detail{typedef int tmp_add_type_35;}}}
  wf::shared_data::detail::tmp_add_type_35 tmp_add_func_35(){return 0;};
  namespace wf{namespace view_implementation{typedef int tmp_add_type_36;}}
  wf::view_implementation::tmp_add_type_36 tmp_add_func_36(){return 0;};

  // add classes
  EGLClientPixmapHI* tmp_add_class_0;
  _GArray* tmp_add_class_1;
  _GByteArray* tmp_add_class_2;
  _GCClosure* tmp_add_class_3;
  _GClosure* tmp_add_class_4;
  _GClosureNotifyData* tmp_add_class_5;
  _GCompletion* tmp_add_class_6;
  _GCond* tmp_add_class_7;
  _GDate* tmp_add_class_8;
  _GDebugKey* tmp_add_class_9;
  _GDoubleIEEE754* tmp_add_class_10;
  _GEnumClass* tmp_add_class_11;
  _GEnumValue* tmp_add_class_12;
  _GError* tmp_add_class_13;
  _GFlagsClass* tmp_add_class_14;
  _GFlagsValue* tmp_add_class_15;
  _GFloatIEEE754* tmp_add_class_16;
  _GHashTableIter* tmp_add_class_17;
  _GHook* tmp_add_class_18;
  _GHookList* tmp_add_class_19;
  _GIOChannel* tmp_add_class_20;
  _GIOFuncs* tmp_add_class_21;
  _GInterfaceInfo* tmp_add_class_22;
  _GList* tmp_add_class_23;
  _GLogField* tmp_add_class_24;
  _GMarkupParser* tmp_add_class_25;
  _GMemVTable* tmp_add_class_26;
  _GMutex* tmp_add_class_27;
  _GNode* tmp_add_class_28;
  _GObject* tmp_add_class_29;
  _GObjectClass* tmp_add_class_30;
  _GObjectConstructParam* tmp_add_class_31;
  _GOnce* tmp_add_class_32;
  _GOptionEntry* tmp_add_class_33;
  _GParamSpec* tmp_add_class_34;
  _GParamSpecBoolean* tmp_add_class_35;
  _GParamSpecBoxed* tmp_add_class_36;
  _GParamSpecChar* tmp_add_class_37;
  _GParamSpecClass* tmp_add_class_38;
  _GParamSpecDouble* tmp_add_class_39;
  _GParamSpecEnum* tmp_add_class_40;
  _GParamSpecFlags* tmp_add_class_41;
  _GParamSpecFloat* tmp_add_class_42;
  _GParamSpecGType* tmp_add_class_43;
  _GParamSpecInt* tmp_add_class_44;
  _GParamSpecInt64* tmp_add_class_45;
  _GParamSpecLong* tmp_add_class_46;
  _GParamSpecObject* tmp_add_class_47;
  _GParamSpecOverride* tmp_add_class_48;
  _GParamSpecParam* tmp_add_class_49;
  _GParamSpecPointer* tmp_add_class_50;
  _GParamSpecString* tmp_add_class_51;
  _GParamSpecTypeInfo* tmp_add_class_52;
  _GParamSpecUChar* tmp_add_class_53;
  _GParamSpecUInt* tmp_add_class_54;
  _GParamSpecUInt64* tmp_add_class_55;
  _GParamSpecULong* tmp_add_class_56;
  _GParamSpecUnichar* tmp_add_class_57;
  _GParamSpecValueArray* tmp_add_class_58;
  _GParamSpecVariant* tmp_add_class_59;
  _GParameter* tmp_add_class_60;
  _GPathBuf* tmp_add_class_61;
  _GPollFD* tmp_add_class_62;
  _GPrivate* tmp_add_class_63;
  _GPtrArray* tmp_add_class_64;
  _GQueue* tmp_add_class_65;
  _GRWLock* tmp_add_class_66;
  _GRecMutex* tmp_add_class_67;
  _GSList* tmp_add_class_68;
  _GScanner* tmp_add_class_69;
  _GScannerConfig* tmp_add_class_70;
  _GSignalInvocationHint* tmp_add_class_71;
  _GSignalQuery* tmp_add_class_72;
  _GSource* tmp_add_class_73;
  _GSourceCallbackFuncs* tmp_add_class_74;
  _GSourceFuncs* tmp_add_class_75;
  _GStaticPrivate* tmp_add_class_76;
  _GStaticRWLock* tmp_add_class_77;
  _GStaticRecMutex* tmp_add_class_78;
  _GString* tmp_add_class_79;
  _GThread* tmp_add_class_80;
  _GThreadFunctions* tmp_add_class_81;
  _GThreadPool* tmp_add_class_82;
  _GTimeVal* tmp_add_class_83;
  _GTokenValue* tmp_add_class_84;
  _GTrashStack* tmp_add_class_85;
  _GTuples* tmp_add_class_86;
  _GTypeClass* tmp_add_class_87;
  _GTypeFundamentalInfo* tmp_add_class_88;
  _GTypeInfo* tmp_add_class_89;
  _GTypeInstance* tmp_add_class_90;
  _GTypeInterface* tmp_add_class_91;
  _GTypeModule* tmp_add_class_92;
  _GTypeModuleClass* tmp_add_class_93;
  _GTypePluginClass* tmp_add_class_94;
  _GTypeQuery* tmp_add_class_95;
  _GTypeValueTable* tmp_add_class_96;
  _GUriParamsIter* tmp_add_class_97;
  _GValue* tmp_add_class_98;
  _GValueArray* tmp_add_class_99;
  _GVariantBuilder* tmp_add_class_100;
  _GVariantDict* tmp_add_class_101;
  _GVariantIter* tmp_add_class_102;
  _G_fpos64_t* tmp_add_class_103;
  _G_fpos_t* tmp_add_class_104;
  _IO_cookie_io_functions_t* tmp_add_class_105;
  _PangoAnalysis* tmp_add_class_106;
  _PangoAttrClass* tmp_add_class_107;
  _PangoAttrColor* tmp_add_class_108;
  _PangoAttrFloat* tmp_add_class_109;
  _PangoAttrFontDesc* tmp_add_class_110;
  _PangoAttrFontFeatures* tmp_add_class_111;
  _PangoAttrInt* tmp_add_class_112;
  _PangoAttrLanguage* tmp_add_class_113;
  _PangoAttrShape* tmp_add_class_114;
  _PangoAttrSize* tmp_add_class_115;
  _PangoAttrString* tmp_add_class_116;
  _PangoAttribute* tmp_add_class_117;
  _PangoColor* tmp_add_class_118;
  _PangoEngine* tmp_add_class_119;
  _PangoEngineClass* tmp_add_class_120;
  _PangoEngineInfo* tmp_add_class_121;
  _PangoEngineLang* tmp_add_class_122;
  _PangoEngineLangClass* tmp_add_class_123;
  _PangoEngineScriptInfo* tmp_add_class_124;
  _PangoEngineShape* tmp_add_class_125;
  _PangoEngineShapeClass* tmp_add_class_126;
  _PangoFont* tmp_add_class_127;
  _PangoFontClass* tmp_add_class_128;
  _PangoFontFace* tmp_add_class_129;
  _PangoFontFaceClass* tmp_add_class_130;
  _PangoFontFamily* tmp_add_class_131;
  _PangoFontFamilyClass* tmp_add_class_132;
  _PangoFontMap* tmp_add_class_133;
  _PangoFontMapClass* tmp_add_class_134;
  _PangoFontMetrics* tmp_add_class_135;
  _PangoFontset* tmp_add_class_136;
  _PangoFontsetClass* tmp_add_class_137;
  _PangoGlyphGeometry* tmp_add_class_138;
  _PangoGlyphInfo* tmp_add_class_139;
  _PangoGlyphItem* tmp_add_class_140;
  _PangoGlyphItemIter* tmp_add_class_141;
  _PangoGlyphString* tmp_add_class_142;
  _PangoGlyphVisAttr* tmp_add_class_143;
  _PangoItem* tmp_add_class_144;
  _PangoLayoutLine* tmp_add_class_145;
  _PangoLogAttr* tmp_add_class_146;
  _PangoMatrix* tmp_add_class_147;
  _PangoRectangle* tmp_add_class_148;
  _PangoRenderer* tmp_add_class_149;
  _PangoRendererClass* tmp_add_class_150;
  _cairo_matrix* tmp_add_class_151;
  _cairo_path_data_t* tmp_add_class_152;
  _cairo_rectangle* tmp_add_class_153;
  _cairo_rectangle_int* tmp_add_class_154;
  _cairo_rectangle_list* tmp_add_class_155;
  _cairo_user_data_key* tmp_add_class_156;
  _hb_var_int_t* tmp_add_class_157;
  _hb_var_num_t* tmp_add_class_158;
  cairo_path* tmp_add_class_159;
  gl_geometry* tmp_add_class_160;
  hb_color_line_t* tmp_add_class_161;
  hb_draw_state_t* tmp_add_class_162;
  hb_feature_t* tmp_add_class_163;
  hb_font_extents_t* tmp_add_class_164;
  hb_glyph_extents_t* tmp_add_class_165;
  hb_glyph_info_t* tmp_add_class_166;
  hb_glyph_position_t* tmp_add_class_167;
  hb_segment_properties_t* tmp_add_class_168;
  hb_user_data_key_t* tmp_add_class_169;
  hb_variation_t* tmp_add_class_170;
  iovec* tmp_add_class_171;
  libinput_interface* tmp_add_class_172;
  pixman_box16* tmp_add_class_173;
  pixman_box32* tmp_add_class_174;
  pixman_color* tmp_add_class_175;
  pixman_edge* tmp_add_class_176;
  pixman_f_transform* tmp_add_class_177;
  pixman_f_vector* tmp_add_class_178;
  pixman_gradient_stop* tmp_add_class_179;
  pixman_indexed* tmp_add_class_180;
  pixman_line_fixed* tmp_add_class_181;
  pixman_point_fixed* tmp_add_class_182;
  pixman_rectangle16* tmp_add_class_183;
  pixman_rectangle32* tmp_add_class_184;
  pixman_region16* tmp_add_class_185;
  pixman_region16_data* tmp_add_class_186;
  pixman_region32* tmp_add_class_187;
  pixman_region32_data* tmp_add_class_188;
  pixman_span_fix* tmp_add_class_189;
  pixman_transform* tmp_add_class_190;
  pixman_trap* tmp_add_class_191;
  pixman_trapezoid* tmp_add_class_192;
  pixman_triangle* tmp_add_class_193;
  pixman_vector* tmp_add_class_194;
  scale_end_signal* tmp_add_class_195;
  scale_filter_signal* tmp_add_class_196;
  scale_transformer_added_signal* tmp_add_class_197;
  scale_transformer_removed_signal* tmp_add_class_198;
  scale_update_signal* tmp_add_class_199;
  sockaddr_un* tmp_add_class_200;
  ucontext_t* tmp_add_class_201;
  wf_blur_base* tmp_add_class_202;
  wl_argument* tmp_add_class_203;
  wl_array* tmp_add_class_204;
  wl_buffer_interface* tmp_add_class_205;
  wl_buffer_listener* tmp_add_class_206;
  wl_callback_listener* tmp_add_class_207;
  wl_compositor_interface* tmp_add_class_208;
  wl_data_device_interface* tmp_add_class_209;
  wl_data_device_listener* tmp_add_class_210;
  wl_data_device_manager_interface* tmp_add_class_211;
  wl_data_offer_interface* tmp_add_class_212;
  wl_data_offer_listener* tmp_add_class_213;
  wl_data_source_interface* tmp_add_class_214;
  wl_data_source_listener* tmp_add_class_215;
  wl_display_interface* tmp_add_class_216;
  wl_display_listener* tmp_add_class_217;
  wl_interface* tmp_add_class_218;
  wl_keyboard_interface* tmp_add_class_219;
  wl_keyboard_listener* tmp_add_class_220;
  wl_list* tmp_add_class_221;
  wl_listener* tmp_add_class_222;
  wl_message* tmp_add_class_223;
  wl_object* tmp_add_class_224;
  wl_output_interface* tmp_add_class_225;
  wl_output_listener* tmp_add_class_226;
  wl_pointer_interface* tmp_add_class_227;
  wl_pointer_listener* tmp_add_class_228;
  wl_protocol_logger_message* tmp_add_class_229;
  wl_region_interface* tmp_add_class_230;
  wl_registry_interface* tmp_add_class_231;
  wl_registry_listener* tmp_add_class_232;
  wl_resource* tmp_add_class_233;
  wl_seat_interface* tmp_add_class_234;
  wl_seat_listener* tmp_add_class_235;
  wl_shell_interface* tmp_add_class_236;
  wl_shell_surface_interface* tmp_add_class_237;
  wl_shell_surface_listener* tmp_add_class_238;
  wl_shm_interface* tmp_add_class_239;
  wl_shm_listener* tmp_add_class_240;
  wl_shm_pool_interface* tmp_add_class_241;
  wl_signal* tmp_add_class_242;
  wl_subcompositor_interface* tmp_add_class_243;
  wl_subsurface_interface* tmp_add_class_244;
  wl_surface_interface* tmp_add_class_245;
  wl_surface_listener* tmp_add_class_246;
  wl_touch_interface* tmp_add_class_247;
  wl_touch_listener* tmp_add_class_248;
  wlr_addon* tmp_add_class_249;
  wlr_addon_interface* tmp_add_class_250;
  wlr_addon_set* tmp_add_class_251;
  wlr_allocator* tmp_add_class_252;
  wlr_allocator_interface* tmp_add_class_253;
  wlr_backend* tmp_add_class_254;
  wlr_box* tmp_add_class_255;
  wlr_buffer* tmp_add_class_256;
  wlr_buffer_pass_options* tmp_add_class_257;
  wlr_client_buffer* tmp_add_class_258;
  wlr_compositor* tmp_add_class_259;
  wlr_cursor* tmp_add_class_260;
  wlr_damage_ring* tmp_add_class_261;
  wlr_data_control_device_v1* tmp_add_class_262;
  wlr_data_control_manager_v1* tmp_add_class_263;
  wlr_data_device_manager* tmp_add_class_264;
  wlr_data_offer* tmp_add_class_265;
  wlr_data_source* tmp_add_class_266;
  wlr_data_source_impl* tmp_add_class_267;
  wlr_device* tmp_add_class_268;
  wlr_device_change_event* tmp_add_class_269;
  wlr_device_hotplug_event* tmp_add_class_270;
  wlr_dmabuf_attributes* tmp_add_class_271;
  wlr_drag* tmp_add_class_272;
  wlr_drag_drop_event* tmp_add_class_273;
  wlr_drag_icon* tmp_add_class_274;
  wlr_drag_motion_event* tmp_add_class_275;
  wlr_drm_format* tmp_add_class_276;
  wlr_drm_format_set* tmp_add_class_277;
  wlr_drm_lease* tmp_add_class_278;
  wlr_drm_lease_connector_v1* tmp_add_class_279;
  wlr_drm_lease_device_v1* tmp_add_class_280;
  wlr_drm_lease_request_v1* tmp_add_class_281;
  wlr_drm_lease_v1* tmp_add_class_282;
  wlr_drm_lease_v1_manager* tmp_add_class_283;
  wlr_export_dmabuf_frame_v1* tmp_add_class_284;
  wlr_export_dmabuf_manager_v1* tmp_add_class_285;
  wlr_fbox* tmp_add_class_286;
  wlr_foreign_toplevel_handle_v1* tmp_add_class_287;
  wlr_foreign_toplevel_handle_v1_activated_event* tmp_add_class_288;
  wlr_foreign_toplevel_handle_v1_fullscreen_event* tmp_add_class_289;
  wlr_foreign_toplevel_handle_v1_maximized_event* tmp_add_class_290;
  wlr_foreign_toplevel_handle_v1_minimized_event* tmp_add_class_291;
  wlr_foreign_toplevel_handle_v1_output* tmp_add_class_292;
  wlr_foreign_toplevel_handle_v1_set_rectangle_event* tmp_add_class_293;
  wlr_foreign_toplevel_manager_v1* tmp_add_class_294;
  wlr_fractional_scale_manager_v1* tmp_add_class_295;
  wlr_gamma_control_manager_v1* tmp_add_class_296;
  wlr_gamma_control_manager_v1_set_gamma_event* tmp_add_class_297;
  wlr_gamma_control_v1* tmp_add_class_298;
  wlr_gles2_texture_attribs* tmp_add_class_299;
  wlr_idle_inhibit_manager_v1* tmp_add_class_300;
  wlr_idle_inhibitor_v1* tmp_add_class_301;
  wlr_input_device* tmp_add_class_302;
  wlr_input_inhibit_manager* tmp_add_class_303;
  wlr_input_method_keyboard_grab_v2* tmp_add_class_304;
  wlr_input_method_manager_v2* tmp_add_class_305;
  wlr_input_method_v2* tmp_add_class_306;
  wlr_input_method_v2_delete_surrounding_text* tmp_add_class_307;
  wlr_input_method_v2_preedit_string* tmp_add_class_308;
  wlr_input_method_v2_state* tmp_add_class_309;
  wlr_input_popup_surface_v2* tmp_add_class_310;
  wlr_keyboard* tmp_add_class_311;
  wlr_keyboard_grab_interface* tmp_add_class_312;
  wlr_keyboard_impl* tmp_add_class_313;
  wlr_keyboard_key_event* tmp_add_class_314;
  wlr_keyboard_modifiers* tmp_add_class_315;
  wlr_keyboard_shortcuts_inhibit_manager_v1* tmp_add_class_316;
  wlr_keyboard_shortcuts_inhibitor_v1* tmp_add_class_317;
  wlr_output* tmp_add_class_318;
  wlr_output_configuration_head_v1* tmp_add_class_319;
  wlr_output_configuration_v1* tmp_add_class_320;
  wlr_output_cursor* tmp_add_class_321;
  wlr_output_event_bind* tmp_add_class_322;
  wlr_output_event_commit* tmp_add_class_323;
  wlr_output_event_damage* tmp_add_class_324;
  wlr_output_event_precommit* tmp_add_class_325;
  wlr_output_event_present* tmp_add_class_326;
  wlr_output_event_request_state* tmp_add_class_327;
  wlr_output_head_v1* tmp_add_class_328;
  wlr_output_head_v1_state* tmp_add_class_329;
  wlr_output_impl* tmp_add_class_330;
  wlr_output_layout* tmp_add_class_331;
  wlr_output_layout_output* tmp_add_class_332;
  wlr_output_manager_v1* tmp_add_class_333;
  wlr_output_mode* tmp_add_class_334;
  wlr_output_state* tmp_add_class_335;
  wlr_pointer* tmp_add_class_336;
  wlr_pointer_axis_event* tmp_add_class_337;
  wlr_pointer_button_event* tmp_add_class_338;
  wlr_pointer_gestures_v1* tmp_add_class_339;
  wlr_pointer_grab_interface* tmp_add_class_340;
  wlr_pointer_hold_begin_event* tmp_add_class_341;
  wlr_pointer_hold_end_event* tmp_add_class_342;
  wlr_pointer_impl* tmp_add_class_343;
  wlr_pointer_motion_absolute_event* tmp_add_class_344;
  wlr_pointer_motion_event* tmp_add_class_345;
  wlr_pointer_pinch_begin_event* tmp_add_class_346;
  wlr_pointer_pinch_end_event* tmp_add_class_347;
  wlr_pointer_pinch_update_event* tmp_add_class_348;
  wlr_pointer_swipe_begin_event* tmp_add_class_349;
  wlr_pointer_swipe_end_event* tmp_add_class_350;
  wlr_pointer_swipe_update_event* tmp_add_class_351;
  wlr_presentation* tmp_add_class_352;
  wlr_presentation_event* tmp_add_class_353;
  wlr_presentation_feedback* tmp_add_class_354;
  wlr_primary_selection_source* tmp_add_class_355;
  wlr_primary_selection_source_impl* tmp_add_class_356;
  wlr_primary_selection_v1_device* tmp_add_class_357;
  wlr_primary_selection_v1_device_manager* tmp_add_class_358;
  wlr_relative_pointer_manager_v1* tmp_add_class_359;
  wlr_relative_pointer_v1* tmp_add_class_360;
  wlr_render_color* tmp_add_class_361;
  wlr_render_rect_options* tmp_add_class_362;
  wlr_render_texture_options* tmp_add_class_363;
  wlr_renderer* tmp_add_class_364;
  wlr_screencopy_frame_v1* tmp_add_class_365;
  wlr_screencopy_manager_v1* tmp_add_class_366;
  wlr_screencopy_v1_client* tmp_add_class_367;
  wlr_seat* tmp_add_class_368;
  wlr_seat_client* tmp_add_class_369;
  wlr_seat_keyboard_focus_change_event* tmp_add_class_370;
  wlr_seat_keyboard_grab* tmp_add_class_371;
  wlr_seat_keyboard_state* tmp_add_class_372;
  wlr_seat_pointer_focus_change_event* tmp_add_class_373;
  wlr_seat_pointer_grab* tmp_add_class_374;
  wlr_seat_pointer_request_set_cursor_event* tmp_add_class_375;
  wlr_seat_pointer_state* tmp_add_class_376;
  wlr_seat_request_set_primary_selection_event* tmp_add_class_377;
  wlr_seat_request_set_selection_event* tmp_add_class_378;
  wlr_seat_request_start_drag_event* tmp_add_class_379;
  wlr_seat_touch_grab* tmp_add_class_380;
  wlr_seat_touch_state* tmp_add_class_381;
  wlr_serial_range* tmp_add_class_382;
  wlr_serial_ringset* tmp_add_class_383;
  wlr_server_decoration* tmp_add_class_384;
  wlr_server_decoration_manager* tmp_add_class_385;
  wlr_session* tmp_add_class_386;
  wlr_session_add_event* tmp_add_class_387;
  wlr_shm_attributes* tmp_add_class_388;
  wlr_subcompositor* tmp_add_class_389;
  wlr_subsurface* tmp_add_class_390;
  wlr_subsurface_parent_state* tmp_add_class_391;
  wlr_surface* tmp_add_class_392;
  wlr_surface_output* tmp_add_class_393;
  wlr_surface_role* tmp_add_class_394;
  wlr_surface_state* tmp_add_class_395;
  wlr_swapchain* tmp_add_class_396;
  wlr_swapchain_slot* tmp_add_class_397;
  wlr_switch* tmp_add_class_398;
  wlr_switch_toggle_event* tmp_add_class_399;
  wlr_tablet* tmp_add_class_400;
  wlr_tablet_pad* tmp_add_class_401;
  wlr_tablet_pad_button_event* tmp_add_class_402;
  wlr_tablet_pad_group* tmp_add_class_403;
  wlr_tablet_pad_ring_event* tmp_add_class_404;
  wlr_tablet_pad_strip_event* tmp_add_class_405;
  wlr_tablet_tool* tmp_add_class_406;
  wlr_tablet_tool_axis_event* tmp_add_class_407;
  wlr_tablet_tool_button_event* tmp_add_class_408;
  wlr_tablet_tool_proximity_event* tmp_add_class_409;
  wlr_tablet_tool_tip_event* tmp_add_class_410;
  wlr_text_input_manager_v3* tmp_add_class_411;
  wlr_text_input_v3* tmp_add_class_412;
  wlr_text_input_v3_state* tmp_add_class_413;
  wlr_texture* tmp_add_class_414;
  wlr_touch* tmp_add_class_415;
  wlr_touch_cancel_event* tmp_add_class_416;
  wlr_touch_down_event* tmp_add_class_417;
  wlr_touch_grab_interface* tmp_add_class_418;
  wlr_touch_motion_event* tmp_add_class_419;
  wlr_touch_point* tmp_add_class_420;
  wlr_touch_up_event* tmp_add_class_421;
  wlr_viewporter* tmp_add_class_422;
  wlr_virtual_keyboard_manager_v1* tmp_add_class_423;
  wlr_virtual_keyboard_v1* tmp_add_class_424;
  wlr_virtual_pointer_manager_v1* tmp_add_class_425;
  wlr_virtual_pointer_v1* tmp_add_class_426;
  wlr_virtual_pointer_v1_new_pointer_event* tmp_add_class_427;
  wlr_xcursor* tmp_add_class_428;
  wlr_xcursor_image* tmp_add_class_429;
  wlr_xcursor_manager* tmp_add_class_430;
  wlr_xcursor_manager_theme* tmp_add_class_431;
  wlr_xcursor_theme* tmp_add_class_432;
  wlr_xdg_activation_token_v1* tmp_add_class_433;
  wlr_xdg_activation_v1* tmp_add_class_434;
  wlr_xdg_activation_v1_request_activate_event* tmp_add_class_435;
  wlr_xdg_exported_v1* tmp_add_class_436;
  wlr_xdg_exported_v2* tmp_add_class_437;
  wlr_xdg_foreign_exported* tmp_add_class_438;
  wlr_xdg_foreign_registry* tmp_add_class_439;
  wlr_xdg_foreign_v1* tmp_add_class_440;
  wlr_xdg_foreign_v2* tmp_add_class_441;
  wlr_xdg_imported_child_v1* tmp_add_class_442;
  wlr_xdg_imported_child_v2* tmp_add_class_443;
  wlr_xdg_imported_v1* tmp_add_class_444;
  wlr_xdg_imported_v2* tmp_add_class_445;
  wlr_xdg_output_manager_v1* tmp_add_class_446;
  wlr_xdg_output_v1* tmp_add_class_447;
  wlr_xwayland* tmp_add_class_448;
  wlr_xwayland_minimize_event* tmp_add_class_449;
  wlr_xwayland_remove_startup_info_event* tmp_add_class_450;
  wlr_xwayland_resize_event* tmp_add_class_451;
  wlr_xwayland_server* tmp_add_class_452;
  wlr_xwayland_server_options* tmp_add_class_453;
  wlr_xwayland_server_ready_event* tmp_add_class_454;
  wlr_xwayland_surface* tmp_add_class_455;
  wlr_xwayland_surface_configure_event* tmp_add_class_456;
  wobbly_signal* tmp_add_class_457;
  xcb_alloc_color_cells_cookie_t* tmp_add_class_458;
  xcb_alloc_color_cells_reply_t* tmp_add_class_459;
  xcb_alloc_color_cells_request_t* tmp_add_class_460;
  xcb_alloc_color_cookie_t* tmp_add_class_461;
  xcb_alloc_color_planes_cookie_t* tmp_add_class_462;
  xcb_alloc_color_planes_reply_t* tmp_add_class_463;
  xcb_alloc_color_planes_request_t* tmp_add_class_464;
  xcb_alloc_color_reply_t* tmp_add_class_465;
  xcb_alloc_color_request_t* tmp_add_class_466;
  xcb_alloc_named_color_cookie_t* tmp_add_class_467;
  xcb_alloc_named_color_reply_t* tmp_add_class_468;
  xcb_alloc_named_color_request_t* tmp_add_class_469;
  xcb_allow_events_request_t* tmp_add_class_470;
  xcb_arc_iterator_t* tmp_add_class_471;
  xcb_arc_t* tmp_add_class_472;
  xcb_atom_iterator_t* tmp_add_class_473;
  xcb_auth_info_t* tmp_add_class_474;
  xcb_bell_request_t* tmp_add_class_475;
  xcb_bool32_iterator_t* tmp_add_class_476;
  xcb_button_iterator_t* tmp_add_class_477;
  xcb_button_press_event_t* tmp_add_class_478;
  xcb_change_active_pointer_grab_request_t* tmp_add_class_479;
  xcb_change_gc_request_t* tmp_add_class_480;
  xcb_change_gc_value_list_t* tmp_add_class_481;
  xcb_change_hosts_request_t* tmp_add_class_482;
  xcb_change_keyboard_control_request_t* tmp_add_class_483;
  xcb_change_keyboard_control_value_list_t* tmp_add_class_484;
  xcb_change_keyboard_mapping_request_t* tmp_add_class_485;
  xcb_change_pointer_control_request_t* tmp_add_class_486;
  xcb_change_property_request_t* tmp_add_class_487;
  xcb_change_save_set_request_t* tmp_add_class_488;
  xcb_change_window_attributes_request_t* tmp_add_class_489;
  xcb_change_window_attributes_value_list_t* tmp_add_class_490;
  xcb_char2b_iterator_t* tmp_add_class_491;
  xcb_char2b_t* tmp_add_class_492;
  xcb_charinfo_iterator_t* tmp_add_class_493;
  xcb_charinfo_t* tmp_add_class_494;
  xcb_circulate_notify_event_t* tmp_add_class_495;
  xcb_circulate_window_request_t* tmp_add_class_496;
  xcb_clear_area_request_t* tmp_add_class_497;
  xcb_client_message_data_iterator_t* tmp_add_class_498;
  xcb_client_message_data_t* tmp_add_class_499;
  xcb_client_message_event_t* tmp_add_class_500;
  xcb_close_font_request_t* tmp_add_class_501;
  xcb_coloritem_iterator_t* tmp_add_class_502;
  xcb_coloritem_t* tmp_add_class_503;
  xcb_colormap_iterator_t* tmp_add_class_504;
  xcb_colormap_notify_event_t* tmp_add_class_505;
  xcb_configure_notify_event_t* tmp_add_class_506;
  xcb_configure_request_event_t* tmp_add_class_507;
  xcb_configure_window_request_t* tmp_add_class_508;
  xcb_configure_window_value_list_t* tmp_add_class_509;
  xcb_convert_selection_request_t* tmp_add_class_510;
  xcb_copy_area_request_t* tmp_add_class_511;
  xcb_copy_colormap_and_free_request_t* tmp_add_class_512;
  xcb_copy_gc_request_t* tmp_add_class_513;
  xcb_copy_plane_request_t* tmp_add_class_514;
  xcb_create_colormap_request_t* tmp_add_class_515;
  xcb_create_cursor_request_t* tmp_add_class_516;
  xcb_create_gc_request_t* tmp_add_class_517;
  xcb_create_gc_value_list_t* tmp_add_class_518;
  xcb_create_glyph_cursor_request_t* tmp_add_class_519;
  xcb_create_notify_event_t* tmp_add_class_520;
  xcb_create_pixmap_request_t* tmp_add_class_521;
  xcb_create_window_request_t* tmp_add_class_522;
  xcb_create_window_value_list_t* tmp_add_class_523;
  xcb_cursor_iterator_t* tmp_add_class_524;
  xcb_delete_property_request_t* tmp_add_class_525;
  xcb_depth_iterator_t* tmp_add_class_526;
  xcb_depth_t* tmp_add_class_527;
  xcb_destroy_notify_event_t* tmp_add_class_528;
  xcb_destroy_subwindows_request_t* tmp_add_class_529;
  xcb_destroy_window_request_t* tmp_add_class_530;
  xcb_drawable_iterator_t* tmp_add_class_531;
  xcb_enter_notify_event_t* tmp_add_class_532;
  xcb_expose_event_t* tmp_add_class_533;
  xcb_fill_poly_request_t* tmp_add_class_534;
  xcb_focus_in_event_t* tmp_add_class_535;
  xcb_font_iterator_t* tmp_add_class_536;
  xcb_fontable_iterator_t* tmp_add_class_537;
  xcb_fontprop_iterator_t* tmp_add_class_538;
  xcb_fontprop_t* tmp_add_class_539;
  xcb_force_screen_saver_request_t* tmp_add_class_540;
  xcb_format_iterator_t* tmp_add_class_541;
  xcb_format_t* tmp_add_class_542;
  xcb_free_colormap_request_t* tmp_add_class_543;
  xcb_free_colors_request_t* tmp_add_class_544;
  xcb_free_cursor_request_t* tmp_add_class_545;
  xcb_free_gc_request_t* tmp_add_class_546;
  xcb_free_pixmap_request_t* tmp_add_class_547;
  xcb_gcontext_iterator_t* tmp_add_class_548;
  xcb_ge_generic_event_t* tmp_add_class_549;
  xcb_get_atom_name_cookie_t* tmp_add_class_550;
  xcb_get_atom_name_reply_t* tmp_add_class_551;
  xcb_get_atom_name_request_t* tmp_add_class_552;
  xcb_get_font_path_cookie_t* tmp_add_class_553;
  xcb_get_font_path_reply_t* tmp_add_class_554;
  xcb_get_font_path_request_t* tmp_add_class_555;
  xcb_get_geometry_cookie_t* tmp_add_class_556;
  xcb_get_geometry_reply_t* tmp_add_class_557;
  xcb_get_geometry_request_t* tmp_add_class_558;
  xcb_get_image_cookie_t* tmp_add_class_559;
  xcb_get_image_reply_t* tmp_add_class_560;
  xcb_get_image_request_t* tmp_add_class_561;
  xcb_get_input_focus_cookie_t* tmp_add_class_562;
  xcb_get_input_focus_reply_t* tmp_add_class_563;
  xcb_get_input_focus_request_t* tmp_add_class_564;
  xcb_get_keyboard_control_cookie_t* tmp_add_class_565;
  xcb_get_keyboard_control_reply_t* tmp_add_class_566;
  xcb_get_keyboard_control_request_t* tmp_add_class_567;
  xcb_get_keyboard_mapping_cookie_t* tmp_add_class_568;
  xcb_get_keyboard_mapping_reply_t* tmp_add_class_569;
  xcb_get_keyboard_mapping_request_t* tmp_add_class_570;
  xcb_get_modifier_mapping_cookie_t* tmp_add_class_571;
  xcb_get_modifier_mapping_reply_t* tmp_add_class_572;
  xcb_get_modifier_mapping_request_t* tmp_add_class_573;
  xcb_get_motion_events_cookie_t* tmp_add_class_574;
  xcb_get_motion_events_reply_t* tmp_add_class_575;
  xcb_get_motion_events_request_t* tmp_add_class_576;
  xcb_get_pointer_control_cookie_t* tmp_add_class_577;
  xcb_get_pointer_control_reply_t* tmp_add_class_578;
  xcb_get_pointer_control_request_t* tmp_add_class_579;
  xcb_get_pointer_mapping_cookie_t* tmp_add_class_580;
  xcb_get_pointer_mapping_reply_t* tmp_add_class_581;
  xcb_get_pointer_mapping_request_t* tmp_add_class_582;
  xcb_get_property_cookie_t* tmp_add_class_583;
  xcb_get_property_reply_t* tmp_add_class_584;
  xcb_get_property_request_t* tmp_add_class_585;
  xcb_get_screen_saver_cookie_t* tmp_add_class_586;
  xcb_get_screen_saver_reply_t* tmp_add_class_587;
  xcb_get_screen_saver_request_t* tmp_add_class_588;
  xcb_get_selection_owner_cookie_t* tmp_add_class_589;
  xcb_get_selection_owner_reply_t* tmp_add_class_590;
  xcb_get_selection_owner_request_t* tmp_add_class_591;
  xcb_get_window_attributes_cookie_t* tmp_add_class_592;
  xcb_get_window_attributes_reply_t* tmp_add_class_593;
  xcb_get_window_attributes_request_t* tmp_add_class_594;
  xcb_grab_button_request_t* tmp_add_class_595;
  xcb_grab_key_request_t* tmp_add_class_596;
  xcb_grab_keyboard_cookie_t* tmp_add_class_597;
  xcb_grab_keyboard_reply_t* tmp_add_class_598;
  xcb_grab_keyboard_request_t* tmp_add_class_599;
  xcb_grab_pointer_cookie_t* tmp_add_class_600;
  xcb_grab_pointer_reply_t* tmp_add_class_601;
  xcb_grab_pointer_request_t* tmp_add_class_602;
  xcb_grab_server_request_t* tmp_add_class_603;
  xcb_graphics_exposure_event_t* tmp_add_class_604;
  xcb_gravity_notify_event_t* tmp_add_class_605;
  xcb_host_iterator_t* tmp_add_class_606;
  xcb_host_t* tmp_add_class_607;
  xcb_image_text_16_request_t* tmp_add_class_608;
  xcb_image_text_8_request_t* tmp_add_class_609;
  xcb_install_colormap_request_t* tmp_add_class_610;
  xcb_intern_atom_cookie_t* tmp_add_class_611;
  xcb_intern_atom_reply_t* tmp_add_class_612;
  xcb_intern_atom_request_t* tmp_add_class_613;
  xcb_key_press_event_t* tmp_add_class_614;
  xcb_keycode32_iterator_t* tmp_add_class_615;
  xcb_keycode_iterator_t* tmp_add_class_616;
  xcb_keymap_notify_event_t* tmp_add_class_617;
  xcb_keysym_iterator_t* tmp_add_class_618;
  xcb_kill_client_request_t* tmp_add_class_619;
  xcb_list_extensions_cookie_t* tmp_add_class_620;
  xcb_list_extensions_reply_t* tmp_add_class_621;
  xcb_list_extensions_request_t* tmp_add_class_622;
  xcb_list_fonts_cookie_t* tmp_add_class_623;
  xcb_list_fonts_reply_t* tmp_add_class_624;
  xcb_list_fonts_request_t* tmp_add_class_625;
  xcb_list_fonts_with_info_cookie_t* tmp_add_class_626;
  xcb_list_fonts_with_info_reply_t* tmp_add_class_627;
  xcb_list_fonts_with_info_request_t* tmp_add_class_628;
  xcb_list_hosts_cookie_t* tmp_add_class_629;
  xcb_list_hosts_reply_t* tmp_add_class_630;
  xcb_list_hosts_request_t* tmp_add_class_631;
  xcb_list_installed_colormaps_cookie_t* tmp_add_class_632;
  xcb_list_installed_colormaps_reply_t* tmp_add_class_633;
  xcb_list_installed_colormaps_request_t* tmp_add_class_634;
  xcb_list_properties_cookie_t* tmp_add_class_635;
  xcb_list_properties_reply_t* tmp_add_class_636;
  xcb_list_properties_request_t* tmp_add_class_637;
  xcb_lookup_color_cookie_t* tmp_add_class_638;
  xcb_lookup_color_reply_t* tmp_add_class_639;
  xcb_lookup_color_request_t* tmp_add_class_640;
  xcb_map_notify_event_t* tmp_add_class_641;
  xcb_map_request_event_t* tmp_add_class_642;
  xcb_map_subwindows_request_t* tmp_add_class_643;
  xcb_map_window_request_t* tmp_add_class_644;
  xcb_mapping_notify_event_t* tmp_add_class_645;
  xcb_motion_notify_event_t* tmp_add_class_646;
  xcb_no_exposure_event_t* tmp_add_class_647;
  xcb_no_operation_request_t* tmp_add_class_648;
  xcb_open_font_request_t* tmp_add_class_649;
  xcb_pixmap_iterator_t* tmp_add_class_650;
  xcb_point_iterator_t* tmp_add_class_651;
  xcb_point_t* tmp_add_class_652;
  xcb_poly_arc_request_t* tmp_add_class_653;
  xcb_poly_fill_arc_request_t* tmp_add_class_654;
  xcb_poly_fill_rectangle_request_t* tmp_add_class_655;
  xcb_poly_line_request_t* tmp_add_class_656;
  xcb_poly_point_request_t* tmp_add_class_657;
  xcb_poly_rectangle_request_t* tmp_add_class_658;
  xcb_poly_segment_request_t* tmp_add_class_659;
  xcb_poly_text_16_request_t* tmp_add_class_660;
  xcb_poly_text_8_request_t* tmp_add_class_661;
  xcb_property_notify_event_t* tmp_add_class_662;
  xcb_put_image_request_t* tmp_add_class_663;
  xcb_query_best_size_cookie_t* tmp_add_class_664;
  xcb_query_best_size_reply_t* tmp_add_class_665;
  xcb_query_best_size_request_t* tmp_add_class_666;
  xcb_query_colors_cookie_t* tmp_add_class_667;
  xcb_query_colors_reply_t* tmp_add_class_668;
  xcb_query_colors_request_t* tmp_add_class_669;
  xcb_query_extension_cookie_t* tmp_add_class_670;
  xcb_query_extension_reply_t* tmp_add_class_671;
  xcb_query_extension_request_t* tmp_add_class_672;
  xcb_query_font_cookie_t* tmp_add_class_673;
  xcb_query_font_reply_t* tmp_add_class_674;
  xcb_query_font_request_t* tmp_add_class_675;
  xcb_query_keymap_cookie_t* tmp_add_class_676;
  xcb_query_keymap_reply_t* tmp_add_class_677;
  xcb_query_keymap_request_t* tmp_add_class_678;
  xcb_query_pointer_cookie_t* tmp_add_class_679;
  xcb_query_pointer_reply_t* tmp_add_class_680;
  xcb_query_pointer_request_t* tmp_add_class_681;
  xcb_query_text_extents_cookie_t* tmp_add_class_682;
  xcb_query_text_extents_reply_t* tmp_add_class_683;
  xcb_query_text_extents_request_t* tmp_add_class_684;
  xcb_query_tree_cookie_t* tmp_add_class_685;
  xcb_query_tree_reply_t* tmp_add_class_686;
  xcb_query_tree_request_t* tmp_add_class_687;
  xcb_recolor_cursor_request_t* tmp_add_class_688;
  xcb_rectangle_iterator_t* tmp_add_class_689;
  xcb_rectangle_t* tmp_add_class_690;
  xcb_reparent_notify_event_t* tmp_add_class_691;
  xcb_reparent_window_request_t* tmp_add_class_692;
  xcb_request_error_t* tmp_add_class_693;
  xcb_resize_request_event_t* tmp_add_class_694;
  xcb_rgb_iterator_t* tmp_add_class_695;
  xcb_rgb_t* tmp_add_class_696;
  xcb_rotate_properties_request_t* tmp_add_class_697;
  xcb_screen_iterator_t* tmp_add_class_698;
  xcb_screen_t* tmp_add_class_699;
  xcb_segment_iterator_t* tmp_add_class_700;
  xcb_segment_t* tmp_add_class_701;
  xcb_selection_clear_event_t* tmp_add_class_702;
  xcb_selection_notify_event_t* tmp_add_class_703;
  xcb_selection_request_event_t* tmp_add_class_704;
  xcb_send_event_request_t* tmp_add_class_705;
  xcb_set_access_control_request_t* tmp_add_class_706;
  xcb_set_clip_rectangles_request_t* tmp_add_class_707;
  xcb_set_close_down_mode_request_t* tmp_add_class_708;
  xcb_set_dashes_request_t* tmp_add_class_709;
  xcb_set_font_path_request_t* tmp_add_class_710;
  xcb_set_input_focus_request_t* tmp_add_class_711;
  xcb_set_modifier_mapping_cookie_t* tmp_add_class_712;
  xcb_set_modifier_mapping_reply_t* tmp_add_class_713;
  xcb_set_modifier_mapping_request_t* tmp_add_class_714;
  xcb_set_pointer_mapping_cookie_t* tmp_add_class_715;
  xcb_set_pointer_mapping_reply_t* tmp_add_class_716;
  xcb_set_pointer_mapping_request_t* tmp_add_class_717;
  xcb_set_screen_saver_request_t* tmp_add_class_718;
  xcb_set_selection_owner_request_t* tmp_add_class_719;
  xcb_setup_authenticate_iterator_t* tmp_add_class_720;
  xcb_setup_authenticate_t* tmp_add_class_721;
  xcb_setup_failed_iterator_t* tmp_add_class_722;
  xcb_setup_failed_t* tmp_add_class_723;
  xcb_setup_iterator_t* tmp_add_class_724;
  xcb_setup_request_iterator_t* tmp_add_class_725;
  xcb_setup_request_t* tmp_add_class_726;
  xcb_setup_t* tmp_add_class_727;
  xcb_store_colors_request_t* tmp_add_class_728;
  xcb_store_named_color_request_t* tmp_add_class_729;
  xcb_str_iterator_t* tmp_add_class_730;
  xcb_str_t* tmp_add_class_731;
  xcb_timecoord_iterator_t* tmp_add_class_732;
  xcb_timecoord_t* tmp_add_class_733;
  xcb_timestamp_iterator_t* tmp_add_class_734;
  xcb_translate_coordinates_cookie_t* tmp_add_class_735;
  xcb_translate_coordinates_reply_t* tmp_add_class_736;
  xcb_translate_coordinates_request_t* tmp_add_class_737;
  xcb_ungrab_button_request_t* tmp_add_class_738;
  xcb_ungrab_key_request_t* tmp_add_class_739;
  xcb_ungrab_keyboard_request_t* tmp_add_class_740;
  xcb_ungrab_pointer_request_t* tmp_add_class_741;
  xcb_ungrab_server_request_t* tmp_add_class_742;
  xcb_uninstall_colormap_request_t* tmp_add_class_743;
  xcb_unmap_notify_event_t* tmp_add_class_744;
  xcb_unmap_subwindows_request_t* tmp_add_class_745;
  xcb_unmap_window_request_t* tmp_add_class_746;
  xcb_value_error_t* tmp_add_class_747;
  xcb_visibility_notify_event_t* tmp_add_class_748;
  xcb_visualid_iterator_t* tmp_add_class_749;
  xcb_visualtype_iterator_t* tmp_add_class_750;
  xcb_visualtype_t* tmp_add_class_751;
  xcb_warp_pointer_request_t* tmp_add_class_752;
  xcb_window_iterator_t* tmp_add_class_753;
  xkb_rule_names* tmp_add_class_754;

The GCC parameters:
  gcc -fdump-lang-raw -fkeep-inline-functions -c -x c++ -fpermissive -w "/tmp/vUyaPah8hm/dump1.h"  -I/usr/include/wayfire -I/usr/include/pixman-1 -I/usr/include/pango-1.0 -I/usr/include/harfbuzz -I/usr/include/glib-2.0 -I/usr/include/cairo -I/lib/arm-linux-gnueabihf/glib-2.0/include

In file included from /tmp/vUyaPah8hm/dump1.h:81:
/usr/include/wayfire/unstable/wlr-view-events.hpp:21:5: error: 'wlr_xdg_surface' does not name a type; did you mean 'wlr_surface'?
   21 |     wlr_xdg_surface *surface;
      |     ^~~~~~~~~~~~~~~
      |     wlr_surface
In file included from /tmp/vUyaPah8hm/dump1.h:83:
/usr/include/wayfire/unstable/xdg-toplevel-base.hpp:16:46: error: expected ')' before '*' token
   16 |     xdg_toplevel_view_base_t(wlr_xdg_toplevel *toplevel, bool autocommit);
      |                             ~                ^~
      |                                              )
/usr/include/wayfire/unstable/xdg-toplevel-base.hpp:33:5: error: 'wlr_xdg_toplevel' does not name a type
   33 |     wlr_xdg_toplevel *xdg_toplevel;
      |     ^~~~~~~~~~~~~~~~
/tmp/vUyaPah8hm/dump1.h:375:3: error: 'wl_buffer_interface' does not name a type
  375 |   wl_buffer_interface* tmp_add_class_205;
      |   ^~~~~~~~~~~~~~~~~~~
/tmp/vUyaPah8hm/dump1.h:378:3: error: 'wl_compositor_interface' does not name a type
  378 |   wl_compositor_interface* tmp_add_class_208;
      |   ^~~~~~~~~~~~~~~~~~~~~~~
/tmp/vUyaPah8hm/dump1.h:379:3: error: 'wl_data_device_interface' does not name a type
  379 |   wl_data_device_interface* tmp_add_class_209;
      |   ^~~~~~~~~~~~~~~~~~~~~~~~
/tmp/vUyaPah8hm/dump1.h:381:3: error: 'wl_data_device_manager_interface' does not name a type
  381 |   wl_data_device_manager_interface* tmp_add_class_211;
      |   ^~~~~~~~~~~~~~~~~~~~~~~~~~~~~~~~
/tmp/vUyaPah8hm/dump1.h:382:3: error: 'wl_data_offer_interface' does not name a type
  382 |   wl_data_offer_interface* tmp_add_class_212;
      |   ^~~~~~~~~~~~~~~~~~~~~~~
/tmp/vUyaPah8hm/dump1.h:384:3: error: 'wl_data_source_interface' does not name a type
  384 |   wl_data_source_interface* tmp_add_class_214;
      |   ^~~~~~~~~~~~~~~~~~~~~~~~
/tmp/vUyaPah8hm/dump1.h:386:3: error: 'wl_display_interface' does not name a type
  386 |   wl_display_interface* tmp_add_class_216;
      |   ^~~~~~~~~~~~~~~~~~~~
/tmp/vUyaPah8hm/dump1.h:389:3: error: 'wl_keyboard_interface' does not name a type
  389 |   wl_keyboard_interface* tmp_add_class_219;
      |   ^~~~~~~~~~~~~~~~~~~~~
/tmp/vUyaPah8hm/dump1.h:395:3: error: 'wl_output_interface' does not name a type
  395 |   wl_output_interface* tmp_add_class_225;
      |   ^~~~~~~~~~~~~~~~~~~
/tmp/vUyaPah8hm/dump1.h:397:3: error: 'wl_pointer_interface' does not name a type
  397 |   wl_pointer_interface* tmp_add_class_227;
      |   ^~~~~~~~~~~~~~~~~~~~
/tmp/vUyaPah8hm/dump1.h:400:3: error: 'wl_region_interface' does not name a type
  400 |   wl_region_interface* tmp_add_class_230;
      |   ^~~~~~~~~~~~~~~~~~~
/tmp/vUyaPah8hm/dump1.h:401:3: error: 'wl_registry_interface' does not name a type
  401 |   wl_registry_interface* tmp_add_class_231;
      |   ^~~~~~~~~~~~~~~~~~~~~
/tmp/vUyaPah8hm/dump1.h:404:3: error: 'wl_seat_interface' does not name a type
  404 |   wl_seat_interface* tmp_add_class_234;
      |   ^~~~~~~~~~~~~~~~~
/tmp/vUyaPah8hm/dump1.h:406:3: error: 'wl_shell_interface' does not name a type
  406 |   wl_shell_interface* tmp_add_class_236;
      |   ^~~~~~~~~~~~~~~~~~
/tmp/vUyaPah8hm/dump1.h:407:3: error: 'wl_shell_surface_interface' does not name a type
  407 |   wl_shell_surface_interface* tmp_add_class_237;
      |   ^~~~~~~~~~~~~~~~~~~~~~~~~~
/tmp/vUyaPah8hm/dump1.h:409:3: error: 'wl_shm_interface' does not name a type
  409 |   wl_shm_interface* tmp_add_class_239;
      |   ^~~~~~~~~~~~~~~~
/tmp/vUyaPah8hm/dump1.h:411:3: error: 'wl_shm_pool_interface' does not name a type
  411 |   wl_shm_pool_interface* tmp_add_class_241;
      |   ^~~~~~~~~~~~~~~~~~~~~
/tmp/vUyaPah8hm/dump1.h:413:3: error: 'wl_subcompositor_interface' does not name a type
  413 |   wl_subcompositor_interface* tmp_add_class_243;
      |   ^~~~~~~~~~~~~~~~~~~~~~~~~~
/tmp/vUyaPah8hm/dump1.h:414:3: error: 'wl_subsurface_interface' does not name a type
  414 |   wl_subsurface_interface* tmp_add_class_244;
      |   ^~~~~~~~~~~~~~~~~~~~~~~
/tmp/vUyaPah8hm/dump1.h:415:3: error: 'wl_surface_interface' does not name a type
  415 |   wl_surface_interface* tmp_add_class_245;
      |   ^~~~~~~~~~~~~~~~~~~~
/tmp/vUyaPah8hm/dump1.h:417:3: error: 'wl_touch_interface' does not name a type
  417 |   wl_touch_interface* tmp_add_class_247;
      |   ^~~~~~~~~~~~~~~~~~

