Temporary header file '/tmp/Xujl40yoZW/dump1.h' with the following content will be compiled to create GCC translation unit dump:

  // add defines
  #define __STDC_VERSION__ 201710L
#define _GXX_NULLPTR_T
#define CLUTTER_ENABLE_COMPOSITOR_API 1
#define _REGEX_NELTS(n)
#define _Atomic
#define PACKED
#ifdef __cplusplus
// C17 compat layer
#define _Alignof(type) alignof(type)
#endif
#define getaddrinfo_a(a,b,c,d)

  // add includes
  #include "/usr/include/ell/ell.h"
  #include "/usr/include/ell/acd.h"
  #include "/usr/include/ell/base64.h"
  #include "/usr/include/ell/cert.h"
  #include "/usr/include/ell/checksum.h"
  #include "/usr/include/ell/cipher.h"
  #include "/usr/include/ell/cleanup.h"
  #include "/usr/include/ell/dbus-client.h"
  #include "/usr/include/ell/dbus-service.h"
  #include "/usr/include/ell/dbus.h"
  #include "/usr/include/ell/dhcp.h"
  #include "/usr/include/ell/dhcp6.h"
  #include "/usr/include/ell/dir.h"
  #include "/usr/include/ell/ecc.h"
  #include "/usr/include/ell/ecdh.h"
  #include "/usr/include/ell/file.h"
  #include "/usr/include/ell/genl.h"
  #include "/usr/include/ell/gpio.h"
  #include "/usr/include/ell/hashmap.h"
  #include "/usr/include/ell/hwdb.h"
  #include "/usr/include/ell/icmp6.h"
  #include "/usr/include/ell/idle.h"
  #include "/usr/include/ell/io.h"
  #include "/usr/include/ell/key.h"
  #include "/usr/include/ell/log.h"
  #include "/usr/include/ell/main.h"
  #include "/usr/include/ell/minheap.h"
  #include "/usr/include/ell/net.h"
  #include "/usr/include/ell/netconfig.h"
  #include "/usr/include/ell/netlink.h"
  #include "/usr/include/ell/path.h"
  #include "/usr/include/ell/pem.h"
  #include "/usr/include/ell/queue.h"
  #include "/usr/include/ell/random.h"
  #include "/usr/include/ell/ringbuf.h"
  #include "/usr/include/ell/rtnl.h"
  #include "/usr/include/ell/settings.h"
  #include "/usr/include/ell/signal.h"
  #include "/usr/include/ell/string.h"
  #include "/usr/include/ell/strv.h"
  #include "/usr/include/ell/sysctl.h"
  #include "/usr/include/ell/test.h"
  #include "/usr/include/ell/tester.h"
  #include "/usr/include/ell/time.h"
  #include "/usr/include/ell/timeout.h"
  #include "/usr/include/ell/tls.h"
  #include "/usr/include/ell/uintset.h"
  #include "/usr/include/ell/utf8.h"
  #include "/usr/include/ell/util.h"
  #include "/usr/include/ell/uuid.h"

  // add classes
  iovec* tmp_add_class_0;
  l_dbus_message_iter* tmp_add_class_1;
  l_debug_desc* tmp_add_class_2;
  l_genl_attr* tmp_add_class_3;
  l_hwdb_entry* tmp_add_class_4;
  l_minheap* tmp_add_class_5;
  l_minheap_ops* tmp_add_class_6;
  l_queue_entry* tmp_add_class_7;

The GCC parameters:
  gcc -fdump-lang-raw -fkeep-inline-functions -c -x c++ -fpermissive -w "/tmp/Xujl40yoZW/dump1.h"

