[2024-01-08T14:58:56+00:00] apt-get install libzt-dev abi-compliance-checker
Reading package lists...
Building dependency tree...
Reading state information...
abi-compliance-checker is already the newest version (2.3-2).
The following package was automatically installed and is no longer required:
  libzstd-dev
Use 'apt autoremove' to remove it.
The following NEW packages will be installed:
  libzt-dev libzt1
0 upgraded, 2 newly installed, 0 to remove and 13 not upgraded.
Need to get 18.7 kB of archives.
After this operation, 65.5 kB of additional disk space will be used.
Get:1 http://deb.debian.org/debian unstable/main armhf libzt1 armhf 0.3.1-4 [8752 B]
Get:2 http://deb.debian.org/debian unstable/main armhf libzt-dev armhf 0.3.1-4 [9952 B]
debconf: delaying package configuration, since apt-utils is not installed
Fetched 18.7 kB in 0s (140 kB/s)
Selecting previously unselected package libzt1:armhf.
(Reading database ... (Reading database ... 5%(Reading database ... 10%(Reading database ... 15%(Reading database ... 20%(Reading database ... 25%(Reading database ... 30%(Reading database ... 35%(Reading database ... 40%(Reading database ... 45%(Reading database ... 50%(Reading database ... 55%(Reading database ... 60%(Reading database ... 65%(Reading database ... 70%(Reading database ... 75%(Reading database ... 80%(Reading database ... 85%(Reading database ... 90%(Reading database ... 95%(Reading database ... 100%(Reading database ... 17078 files and directories currently installed.)
Preparing to unpack .../libzt1_0.3.1-4_armhf.deb ...
Unpacking libzt1:armhf (0.3.1-4) ...
Selecting previously unselected package libzt-dev:armhf.
Preparing to unpack .../libzt-dev_0.3.1-4_armhf.deb ...
Unpacking libzt-dev:armhf (0.3.1-4) ...
Setting up libzt1:armhf (0.3.1-4) ...
Setting up libzt-dev:armhf (0.3.1-4) ...
Processing triggers for libc-bin (2.37-13) ...
Reading package lists...
Building dependency tree...
Reading state information...
The following packages will be REMOVED:
  libzstd-dev*
0 upgraded, 0 newly installed, 1 to remove and 13 not upgraded.
After this operation, 906 kB disk space will be freed.
(Reading database ... (Reading database ... 5%(Reading database ... 10%(Reading database ... 15%(Reading database ... 20%(Reading database ... 25%(Reading database ... 30%(Reading database ... 35%(Reading database ... 40%(Reading database ... 45%(Reading database ... 50%(Reading database ... 55%(Reading database ... 60%(Reading database ... 65%(Reading database ... 70%(Reading database ... 75%(Reading database ... 80%(Reading database ... 85%(Reading database ... 90%(Reading database ... 95%(Reading database ... 100%(Reading database ... 17088 files and directories currently installed.)
Removing libzstd-dev:armhf (1.5.5+dfsg2-2) ...
