[2024-01-08T10:46:20+00:00] apt-get install libtf2-dev abi-compliance-checker
Reading package lists...
Building dependency tree...
Reading state information...
libtf2-dev is already the newest version (0.7.7-1+b2).
libtf2-dev set to manually installed.
abi-compliance-checker is already the newest version (2.3-2).
The following packages were automatically installed and are no longer required:
  libbullet-dev libbullet3.24 libtf2-bullet-dev
Use 'apt autoremove' to remove them.
0 upgraded, 0 newly installed, 0 to remove and 18 not upgraded.
Reading package lists...
Building dependency tree...
Reading state information...
The following packages will be REMOVED:
  libbullet-dev* libbullet3.24* libtf2-bullet-dev*
0 upgraded, 0 newly installed, 3 to remove and 18 not upgraded.
After this operation, 9203 kB disk space will be freed.
(Reading database ... (Reading database ... 5%(Reading database ... 10%(Reading database ... 15%(Reading database ... 20%(Reading database ... 25%(Reading database ... 30%(Reading database ... 35%(Reading database ... 40%(Reading database ... 45%(Reading database ... 50%(Reading database ... 55%(Reading database ... 60%(Reading database ... 65%(Reading database ... 70%(Reading database ... 75%(Reading database ... 80%(Reading database ... 85%(Reading database ... 90%(Reading database ... 95%(Reading database ... 100%(Reading database ... 36174 files and directories currently installed.)
Removing libtf2-bullet-dev:armhf (0.7.7-1+b2) ...
Removing libbullet-dev:armhf (3.24+dfsg-2+b2) ...
Removing libbullet3.24:armhf (3.24+dfsg-2+b2) ...
Processing triggers for libc-bin (2.37-13) ...
