Temporary header file '/tmp/J0B8HHhpUT/dump1.h' with the following content will be compiled to create GCC translation unit dump:

  // add defines
  #define __STDC_VERSION__ 201710L
#define _GXX_NULLPTR_T
#define CLUTTER_ENABLE_COMPOSITOR_API 1
#define _REGEX_NELTS(n)
#define _Atomic
#define PACKED
#ifdef __cplusplus
// C17 compat layer
#define _Alignof(type) alignof(type)
#endif
#define getaddrinfo_a(a,b,c,d)

  // add includes
  #include "/usr/include/lua5.4/lua.h"
  #include "/usr/include/lua5.1/lua-sql-sqlite3.h"
  #include "/usr/include/lua5.2/lua-sql-sqlite3.h"
  #include "/usr/include/lua5.3/lua-sql-sqlite3.h"
  #include "/usr/include/lua5.4/lua-sql-sqlite3.h"

  // add classes
  lua_Debug* tmp_add_class_0;

The GCC parameters:
  gcc -fdump-lang-raw -fkeep-inline-functions -c -x c++ -fpermissive -w "/tmp/J0B8HHhpUT/dump1.h"

