[2024-01-07T11:29:42+00:00] apt-get install libhmsbeagle-dev abi-compliance-checker
Reading package lists...
Building dependency tree...
Reading state information...
abi-compliance-checker is already the newest version (2.3-2).
The following packages were automatically installed and are no longer required:
  libblas3 libgfortran5 libhmat-oss-dev libhmat-oss3 liblapack3 liblapacke
  libtmglib3
Use 'apt autoremove' to remove them.
The following additional packages will be installed:
  libclang-common-17-dev libclang-cpp17 libclc-17 libclc-17-dev libdrm-amdgpu1
  libdrm-common libdrm-nouveau2 libdrm-radeon1 libdrm2 libedit2
  libhmsbeagle1v5 libllvm17 libllvmspirvlib17 libz3-4 mesa-opencl-icd
  ocl-icd-libopencl1
Recommended packages:
  libclang-rt-17-dev
The following NEW packages will be installed:
  libclang-common-17-dev libclang-cpp17 libclc-17 libclc-17-dev libdrm-amdgpu1
  libdrm-common libdrm-nouveau2 libdrm-radeon1 libdrm2 libedit2
  libhmsbeagle-dev libhmsbeagle1v5 libllvm17 libllvmspirvlib17 libz3-4
  mesa-opencl-icd ocl-icd-libopencl1
0 upgraded, 17 newly installed, 0 to remove and 35 not upgraded.
Need to get 62.8 MB of archives.
After this operation, 348 MB of additional disk space will be used.
Get:1 http://deb.debian.org/debian unstable/main armhf libedit2 armhf 3.1-20230828-1 [76.8 kB]
Get:2 http://deb.debian.org/debian unstable/main armhf libz3-4 armhf 4.8.12-3.1+b2 [6324 kB]
Get:3 http://deb.debian.org/debian unstable/main armhf libllvm17 armhf 1:17.0.6-3 [21.6 MB]
Get:4 http://deb.debian.org/debian unstable/main armhf libclang-common-17-dev armhf 1:17.0.6-3 [681 kB]
Get:5 http://deb.debian.org/debian unstable/main armhf libclang-cpp17 armhf 1:17.0.6-3 [10.4 MB]
Get:6 http://deb.debian.org/debian unstable/main armhf libclc-17-dev all 1:17.0.6-3 [60.3 kB]
Get:7 http://deb.debian.org/debian unstable/main armhf libclc-17 all 1:17.0.6-3 [9849 kB]
Get:8 http://deb.debian.org/debian unstable/main armhf libdrm-common all 2.4.117-1 [7264 B]
Get:9 http://deb.debian.org/debian unstable/main armhf libdrm2 armhf 2.4.117-1 [33.1 kB]
Get:10 http://deb.debian.org/debian unstable/main armhf libdrm-amdgpu1 armhf 2.4.117-1 [19.6 kB]
Get:11 http://deb.debian.org/debian unstable/main armhf libdrm-nouveau2 armhf 2.4.117-1 [16.6 kB]
Get:12 http://deb.debian.org/debian unstable/main armhf libdrm-radeon1 armhf 2.4.117-1 [19.1 kB]
Get:13 http://deb.debian.org/debian unstable/main armhf ocl-icd-libopencl1 armhf 2.3.2-1 [36.8 kB]
Get:14 http://deb.debian.org/debian unstable/main armhf libllvmspirvlib17 armhf 17.0.0-3 [703 kB]
Get:15 http://deb.debian.org/debian unstable/main armhf mesa-opencl-icd armhf 23.3.2-2 [12.7 MB]
Get:16 http://deb.debian.org/debian unstable/main armhf libhmsbeagle1v5 armhf 3.1.2+dfsg-13 [86.8 kB]
Get:17 http://deb.debian.org/debian unstable/main armhf libhmsbeagle-dev armhf 3.1.2+dfsg-13 [227 kB]
debconf: delaying package configuration, since apt-utils is not installed
Fetched 62.8 MB in 10s (6223 kB/s)
Selecting previously unselected package libedit2:armhf.
(Reading database ... (Reading database ... 5%(Reading database ... 10%(Reading database ... 15%(Reading database ... 20%(Reading database ... 25%(Reading database ... 30%(Reading database ... 35%(Reading database ... 40%(Reading database ... 45%(Reading database ... 50%(Reading database ... 55%(Reading database ... 60%(Reading database ... 65%(Reading database ... 70%(Reading database ... 75%(Reading database ... 80%(Reading database ... 85%(Reading database ... 90%(Reading database ... 95%(Reading database ... 100%(Reading database ... 15338 files and directories currently installed.)
Preparing to unpack .../00-libedit2_3.1-20230828-1_armhf.deb ...
Unpacking libedit2:armhf (3.1-20230828-1) ...
Selecting previously unselected package libz3-4:armhf.
Preparing to unpack .../01-libz3-4_4.8.12-3.1+b2_armhf.deb ...
Unpacking libz3-4:armhf (4.8.12-3.1+b2) ...
Selecting previously unselected package libllvm17:armhf.
Preparing to unpack .../02-libllvm17_1%3a17.0.6-3_armhf.deb ...
Unpacking libllvm17:armhf (1:17.0.6-3) ...
Selecting previously unselected package libclang-common-17-dev.
Preparing to unpack .../03-libclang-common-17-dev_1%3a17.0.6-3_armhf.deb ...
Unpacking libclang-common-17-dev (1:17.0.6-3) ...
Selecting previously unselected package libclang-cpp17.
Preparing to unpack .../04-libclang-cpp17_1%3a17.0.6-3_armhf.deb ...
Unpacking libclang-cpp17 (1:17.0.6-3) ...
Selecting previously unselected package libclc-17-dev.
Preparing to unpack .../05-libclc-17-dev_1%3a17.0.6-3_all.deb ...
Unpacking libclc-17-dev (1:17.0.6-3) ...
Selecting previously unselected package libclc-17.
Preparing to unpack .../06-libclc-17_1%3a17.0.6-3_all.deb ...
Unpacking libclc-17 (1:17.0.6-3) ...
Selecting previously unselected package libdrm-common.
Preparing to unpack .../07-libdrm-common_2.4.117-1_all.deb ...
Unpacking libdrm-common (2.4.117-1) ...
Selecting previously unselected package libdrm2:armhf.
Preparing to unpack .../08-libdrm2_2.4.117-1_armhf.deb ...
Unpacking libdrm2:armhf (2.4.117-1) ...
Selecting previously unselected package libdrm-amdgpu1:armhf.
Preparing to unpack .../09-libdrm-amdgpu1_2.4.117-1_armhf.deb ...
Unpacking libdrm-amdgpu1:armhf (2.4.117-1) ...
Selecting previously unselected package libdrm-nouveau2:armhf.
Preparing to unpack .../10-libdrm-nouveau2_2.4.117-1_armhf.deb ...
Unpacking libdrm-nouveau2:armhf (2.4.117-1) ...
Selecting previously unselected package libdrm-radeon1:armhf.
Preparing to unpack .../11-libdrm-radeon1_2.4.117-1_armhf.deb ...
Unpacking libdrm-radeon1:armhf (2.4.117-1) ...
Selecting previously unselected package ocl-icd-libopencl1:armhf.
Preparing to unpack .../12-ocl-icd-libopencl1_2.3.2-1_armhf.deb ...
Unpacking ocl-icd-libopencl1:armhf (2.3.2-1) ...
Selecting previously unselected package libllvmspirvlib17:armhf.
Preparing to unpack .../13-libllvmspirvlib17_17.0.0-3_armhf.deb ...
Unpacking libllvmspirvlib17:armhf (17.0.0-3) ...
Selecting previously unselected package mesa-opencl-icd:armhf.
Preparing to unpack .../14-mesa-opencl-icd_23.3.2-2_armhf.deb ...
Unpacking mesa-opencl-icd:armhf (23.3.2-2) ...
Selecting previously unselected package libhmsbeagle1v5:armhf.
Preparing to unpack .../15-libhmsbeagle1v5_3.1.2+dfsg-13_armhf.deb ...
Unpacking libhmsbeagle1v5:armhf (3.1.2+dfsg-13) ...
Selecting previously unselected package libhmsbeagle-dev.
Preparing to unpack .../16-libhmsbeagle-dev_3.1.2+dfsg-13_armhf.deb ...
Unpacking libhmsbeagle-dev (3.1.2+dfsg-13) ...
Setting up libedit2:armhf (3.1-20230828-1) ...
Setting up libz3-4:armhf (4.8.12-3.1+b2) ...
Setting up libclc-17-dev (1:17.0.6-3) ...
Setting up ocl-icd-libopencl1:armhf (2.3.2-1) ...
Setting up libllvm17:armhf (1:17.0.6-3) ...
Setting up libdrm-common (2.4.117-1) ...
Setting up libllvmspirvlib17:armhf (17.0.0-3) ...
Setting up libdrm2:armhf (2.4.117-1) ...
Setting up libclang-common-17-dev (1:17.0.6-3) ...
Setting up libclc-17 (1:17.0.6-3) ...
Setting up libclang-cpp17 (1:17.0.6-3) ...
Setting up libdrm-amdgpu1:armhf (2.4.117-1) ...
Setting up libdrm-nouveau2:armhf (2.4.117-1) ...
Setting up libdrm-radeon1:armhf (2.4.117-1) ...
Setting up mesa-opencl-icd:armhf (23.3.2-2) ...
Setting up libhmsbeagle1v5:armhf (3.1.2+dfsg-13) ...
Setting up libhmsbeagle-dev (3.1.2+dfsg-13) ...
Processing triggers for libc-bin (2.37-13) ...
Reading package lists...
Building dependency tree...
Reading state information...
The following packages will be REMOVED:
  libblas3* libgfortran5* libhmat-oss-dev* libhmat-oss3* liblapack3*
  liblapacke* libtmglib3*
0 upgraded, 0 newly installed, 7 to remove and 35 not upgraded.
After this operation, 8003 kB disk space will be freed.
(Reading database ... (Reading database ... 5%(Reading database ... 10%(Reading database ... 15%(Reading database ... 20%(Reading database ... 25%(Reading database ... 30%(Reading database ... 35%(Reading database ... 40%(Reading database ... 45%(Reading database ... 50%(Reading database ... 55%(Reading database ... 60%(Reading database ... 65%(Reading database ... 70%(Reading database ... 75%(Reading database ... 80%(Reading database ... 85%(Reading database ... 90%(Reading database ... 95%(Reading database ... 100%(Reading database ... 16199 files and directories currently installed.)
Removing libhmat-oss-dev:armhf (1.8.1-2) ...
Removing libhmat-oss3:armhf (1.8.1-2) ...
Removing liblapacke:armhf (3.11.0-2) ...
Removing libtmglib3:armhf (3.11.0-2) ...
Removing liblapack3:armhf (3.11.0-2) ...
Removing libblas3:armhf (3.11.0-2) ...
Removing libgfortran5:armhf (13.2.0-9) ...
Processing triggers for libc-bin (2.37-13) ...
