[2024-01-06T17:47:35+00:00] apt-get install libcompizconfig0-dev abi-compliance-checker
Reading package lists...
Building dependency tree...
Reading state information...
abi-compliance-checker is already the newest version (2.3-2).
The following packages were automatically installed and are no longer required:
  libcompfaceg1 libcompfaceg1-dev
Use 'apt autoremove' to remove them.
The following additional packages will be installed:
  compiz-core libcompizconfig0 libdrm-amdgpu1 libdrm-common libdrm-nouveau2
  libdrm-radeon1 libdrm2 libedit2 libegl-mesa0 libegl1 libgbm1 libgl1
  libgl1-mesa-dri libglapi-mesa libgles2 libglvnd0 libglx-mesa0 libglx0
  libice6 libllvm17 libprotobuf32 libsensors-config libsensors5 libsm6
  libstartup-notification0 libvulkan1 libwayland-client0 libwayland-egl1
  libwayland-server0 libx11-6 libx11-data libx11-xcb1 libxau6 libxcb-dri2-0
  libxcb-dri3-0 libxcb-glx0 libxcb-present0 libxcb-randr0 libxcb-shm0
  libxcb-sync1 libxcb-util1 libxcb-xfixes0 libxcb1 libxcomposite1 libxcursor1
  libxdamage1 libxdmcp6 libxext6 libxfixes3 libxi6 libxinerama1 libxrandr2
  libxrender1 libxshmfence1 libxxf86vm1 libz3-4 mesa-utils mesa-utils-bin
  x11-common
Suggested packages:
  nvidia-driver lm-sensors
Recommended packages:
  compiz-plugins compiz-plugins-main mesa-vulkan-drivers | vulkan-icd
The following NEW packages will be installed:
  compiz-core libcompizconfig0 libcompizconfig0-dev libdrm-amdgpu1
  libdrm-common libdrm-nouveau2 libdrm-radeon1 libdrm2 libedit2 libegl-mesa0
  libegl1 libgbm1 libgl1 libgl1-mesa-dri libglapi-mesa libgles2 libglvnd0
  libglx-mesa0 libglx0 libice6 libllvm17 libprotobuf32 libsensors-config
  libsensors5 libsm6 libstartup-notification0 libvulkan1 libwayland-client0
  libwayland-egl1 libwayland-server0 libx11-6 libx11-data libx11-xcb1 libxau6
  libxcb-dri2-0 libxcb-dri3-0 libxcb-glx0 libxcb-present0 libxcb-randr0
  libxcb-shm0 libxcb-sync1 libxcb-util1 libxcb-xfixes0 libxcb1 libxcomposite1
  libxcursor1 libxdamage1 libxdmcp6 libxext6 libxfixes3 libxi6 libxinerama1
  libxrandr2 libxrender1 libxshmfence1 libxxf86vm1 libz3-4 mesa-utils
  mesa-utils-bin x11-common
0 upgraded, 60 newly installed, 0 to remove and 15 not upgraded.
Need to get 40.8 MB of archives.
After this operation, 165 MB of additional disk space will be used.
Get:1 http://deb.debian.org/debian unstable/main armhf libglvnd0 armhf 1.7.0-1 [52.3 kB]
Get:2 http://deb.debian.org/debian unstable/main armhf libxau6 armhf 1:1.0.9-1 [19.0 kB]
Get:3 http://deb.debian.org/debian unstable/main armhf libxdmcp6 armhf 1:1.1.2-3 [24.9 kB]
Get:4 http://deb.debian.org/debian unstable/main armhf libxcb1 armhf 1.15-1 [140 kB]
Get:5 http://deb.debian.org/debian unstable/main armhf libx11-data all 2:1.8.7-1 [328 kB]
Get:6 http://deb.debian.org/debian unstable/main armhf libx11-6 armhf 2:1.8.7-1 [735 kB]
Get:7 http://deb.debian.org/debian unstable/main armhf libdrm-common all 2.4.117-1 [7264 B]
Get:8 http://deb.debian.org/debian unstable/main armhf libdrm2 armhf 2.4.117-1 [33.1 kB]
Get:9 http://deb.debian.org/debian unstable/main armhf libglapi-mesa armhf 23.3.2-2 [42.3 kB]
Get:10 http://deb.debian.org/debian unstable/main armhf libx11-xcb1 armhf 2:1.8.7-1 [231 kB]
Get:11 http://deb.debian.org/debian unstable/main armhf libxcb-dri2-0 armhf 1.15-1 [107 kB]
Get:12 http://deb.debian.org/debian unstable/main armhf libxcb-dri3-0 armhf 1.15-1 [107 kB]
Get:13 http://deb.debian.org/debian unstable/main armhf libxcb-glx0 armhf 1.15-1 [120 kB]
Get:14 http://deb.debian.org/debian unstable/main armhf libxcb-present0 armhf 1.15-1 [105 kB]
Get:15 http://deb.debian.org/debian unstable/main armhf libxcb-randr0 armhf 1.15-1 [116 kB]
Get:16 http://deb.debian.org/debian unstable/main armhf libxcb-shm0 armhf 1.15-1 [106 kB]
Get:17 http://deb.debian.org/debian unstable/main armhf libxcb-sync1 armhf 1.15-1 [108 kB]
Get:18 http://deb.debian.org/debian unstable/main armhf libxcb-xfixes0 armhf 1.15-1 [110 kB]
Get:19 http://deb.debian.org/debian unstable/main armhf libxext6 armhf 2:1.3.4-1+b1 [47.8 kB]
Get:20 http://deb.debian.org/debian unstable/main armhf libxfixes3 armhf 1:6.0.0-2 [21.1 kB]
Get:21 http://deb.debian.org/debian unstable/main armhf libxshmfence1 armhf 1.3-1 [8592 B]
Get:22 http://deb.debian.org/debian unstable/main armhf libxxf86vm1 armhf 1:1.1.4-1+b2 [20.2 kB]
Get:23 http://deb.debian.org/debian unstable/main armhf libvulkan1 armhf 1.3.268.0-1 [107 kB]
Get:24 http://deb.debian.org/debian unstable/main armhf libdrm-amdgpu1 armhf 2.4.117-1 [19.6 kB]
Get:25 http://deb.debian.org/debian unstable/main armhf libdrm-nouveau2 armhf 2.4.117-1 [16.6 kB]
Get:26 http://deb.debian.org/debian unstable/main armhf libdrm-radeon1 armhf 2.4.117-1 [19.1 kB]
Get:27 http://deb.debian.org/debian unstable/main armhf libedit2 armhf 3.1-20230828-1 [76.8 kB]
Get:28 http://deb.debian.org/debian unstable/main armhf libz3-4 armhf 4.8.12-3.1 [6061 kB]
Get:29 http://deb.debian.org/debian unstable/main armhf libllvm17 armhf 1:17.0.6-3 [21.6 MB]
Get:30 http://deb.debian.org/debian unstable/main armhf libsensors-config all 1:3.6.0-8 [14.4 kB]
Get:31 http://deb.debian.org/debian unstable/main armhf libsensors5 armhf 1:3.6.0-8 [31.6 kB]
Get:32 http://deb.debian.org/debian unstable/main armhf libgl1-mesa-dri armhf 23.3.2-2 [6398 kB]
Get:33 http://deb.debian.org/debian unstable/main armhf libglx-mesa0 armhf 23.3.2-2 [129 kB]
Get:34 http://deb.debian.org/debian unstable/main armhf libglx0 armhf 1.7.0-1 [32.2 kB]
Get:35 http://deb.debian.org/debian unstable/main armhf libgl1 armhf 1.7.0-1 [90.8 kB]
Get:36 http://deb.debian.org/debian unstable/main armhf x11-common all 1:7.7+23 [252 kB]
Get:37 http://deb.debian.org/debian unstable/main armhf libice6 armhf 2:1.0.10-1 [51.9 kB]
Get:38 http://deb.debian.org/debian unstable/main armhf libsm6 armhf 2:1.2.3-1 [33.0 kB]
Get:39 http://deb.debian.org/debian unstable/main armhf libxcb-util1 armhf 0.4.0-1+b1 [22.2 kB]
Get:40 http://deb.debian.org/debian unstable/main armhf libstartup-notification0 armhf 0.12-6+b1 [20.3 kB]
Get:41 http://deb.debian.org/debian unstable/main armhf libxcomposite1 armhf 1:0.4.5-1 [16.1 kB]
Get:42 http://deb.debian.org/debian unstable/main armhf libxrender1 armhf 1:0.9.10-1.1 [30.1 kB]
Get:43 http://deb.debian.org/debian unstable/main armhf libxcursor1 armhf 1:1.2.1-1 [37.9 kB]
Get:44 http://deb.debian.org/debian unstable/main armhf libxdamage1 armhf 1:1.1.6-1 [14.6 kB]
Get:45 http://deb.debian.org/debian unstable/main armhf libxi6 armhf 2:1.8-1+b1 [78.6 kB]
Get:46 http://deb.debian.org/debian unstable/main armhf libxinerama1 armhf 2:1.1.4-3 [17.4 kB]
Get:47 http://deb.debian.org/debian unstable/main armhf libxrandr2 armhf 2:1.5.2-2+b1 [36.0 kB]
Get:48 http://deb.debian.org/debian unstable/main armhf libwayland-server0 armhf 1.22.0-2.1 [26.1 kB]
Get:49 http://deb.debian.org/debian unstable/main armhf libgbm1 armhf 23.3.2-2 [36.4 kB]
Get:50 http://deb.debian.org/debian unstable/main armhf libwayland-client0 armhf 1.22.0-2.1 [20.0 kB]
Get:51 http://deb.debian.org/debian unstable/main armhf libegl-mesa0 armhf 23.3.2-2 [97.7 kB]
Get:52 http://deb.debian.org/debian unstable/main armhf libegl1 armhf 1.7.0-1 [28.7 kB]
Get:53 http://deb.debian.org/debian unstable/main armhf libgles2 armhf 1.7.0-1 [17.4 kB]
Get:54 http://deb.debian.org/debian unstable/main armhf libwayland-egl1 armhf 1.22.0-2.1 [5124 B]
Get:55 http://deb.debian.org/debian unstable/main armhf mesa-utils-bin armhf 8.5.0-1 [46.0 kB]
Get:56 http://deb.debian.org/debian unstable/main armhf mesa-utils armhf 8.5.0-1 [955 kB]
Get:57 http://deb.debian.org/debian unstable/main armhf compiz-core armhf 2:0.8.18-5 [754 kB]
Get:58 http://deb.debian.org/debian unstable/main armhf libprotobuf32 armhf 3.21.12-8+b1 [864 kB]
Get:59 http://deb.debian.org/debian unstable/main armhf libcompizconfig0 armhf 2:0.8.18-3+b1 [115 kB]
Get:60 http://deb.debian.org/debian unstable/main armhf libcompizconfig0-dev armhf 2:0.8.18-3+b1 [47.4 kB]
debconf: delaying package configuration, since apt-utils is not installed
Fetched 40.8 MB in 2s (24.1 MB/s)
Selecting previously unselected package libglvnd0:armhf.
(Reading database ... (Reading database ... 5%(Reading database ... 10%(Reading database ... 15%(Reading database ... 20%(Reading database ... 25%(Reading database ... 30%(Reading database ... 35%(Reading database ... 40%(Reading database ... 45%(Reading database ... 50%(Reading database ... 55%(Reading database ... 60%(Reading database ... 65%(Reading database ... 70%(Reading database ... 75%(Reading database ... 80%(Reading database ... 85%(Reading database ... 90%(Reading database ... 95%(Reading database ... 100%(Reading database ... 18565 files and directories currently installed.)
Preparing to unpack .../00-libglvnd0_1.7.0-1_armhf.deb ...
Unpacking libglvnd0:armhf (1.7.0-1) ...
Selecting previously unselected package libxau6:armhf.
Preparing to unpack .../01-libxau6_1%3a1.0.9-1_armhf.deb ...
Unpacking libxau6:armhf (1:1.0.9-1) ...
Selecting previously unselected package libxdmcp6:armhf.
Preparing to unpack .../02-libxdmcp6_1%3a1.1.2-3_armhf.deb ...
Unpacking libxdmcp6:armhf (1:1.1.2-3) ...
Selecting previously unselected package libxcb1:armhf.
Preparing to unpack .../03-libxcb1_1.15-1_armhf.deb ...
Unpacking libxcb1:armhf (1.15-1) ...
Selecting previously unselected package libx11-data.
Preparing to unpack .../04-libx11-data_2%3a1.8.7-1_all.deb ...
Unpacking libx11-data (2:1.8.7-1) ...
Selecting previously unselected package libx11-6:armhf.
Preparing to unpack .../05-libx11-6_2%3a1.8.7-1_armhf.deb ...
Unpacking libx11-6:armhf (2:1.8.7-1) ...
Selecting previously unselected package libdrm-common.
Preparing to unpack .../06-libdrm-common_2.4.117-1_all.deb ...
Unpacking libdrm-common (2.4.117-1) ...
Selecting previously unselected package libdrm2:armhf.
Preparing to unpack .../07-libdrm2_2.4.117-1_armhf.deb ...
Unpacking libdrm2:armhf (2.4.117-1) ...
Selecting previously unselected package libglapi-mesa:armhf.
Preparing to unpack .../08-libglapi-mesa_23.3.2-2_armhf.deb ...
Unpacking libglapi-mesa:armhf (23.3.2-2) ...
Selecting previously unselected package libx11-xcb1:armhf.
Preparing to unpack .../09-libx11-xcb1_2%3a1.8.7-1_armhf.deb ...
Unpacking libx11-xcb1:armhf (2:1.8.7-1) ...
Selecting previously unselected package libxcb-dri2-0:armhf.
Preparing to unpack .../10-libxcb-dri2-0_1.15-1_armhf.deb ...
Unpacking libxcb-dri2-0:armhf (1.15-1) ...
Selecting previously unselected package libxcb-dri3-0:armhf.
Preparing to unpack .../11-libxcb-dri3-0_1.15-1_armhf.deb ...
Unpacking libxcb-dri3-0:armhf (1.15-1) ...
Selecting previously unselected package libxcb-glx0:armhf.
Preparing to unpack .../12-libxcb-glx0_1.15-1_armhf.deb ...
Unpacking libxcb-glx0:armhf (1.15-1) ...
Selecting previously unselected package libxcb-present0:armhf.
Preparing to unpack .../13-libxcb-present0_1.15-1_armhf.deb ...
Unpacking libxcb-present0:armhf (1.15-1) ...
Selecting previously unselected package libxcb-randr0:armhf.
Preparing to unpack .../14-libxcb-randr0_1.15-1_armhf.deb ...
Unpacking libxcb-randr0:armhf (1.15-1) ...
Selecting previously unselected package libxcb-shm0:armhf.
Preparing to unpack .../15-libxcb-shm0_1.15-1_armhf.deb ...
Unpacking libxcb-shm0:armhf (1.15-1) ...
Selecting previously unselected package libxcb-sync1:armhf.
Preparing to unpack .../16-libxcb-sync1_1.15-1_armhf.deb ...
Unpacking libxcb-sync1:armhf (1.15-1) ...
Selecting previously unselected package libxcb-xfixes0:armhf.
Preparing to unpack .../17-libxcb-xfixes0_1.15-1_armhf.deb ...
Unpacking libxcb-xfixes0:armhf (1.15-1) ...
Selecting previously unselected package libxext6:armhf.
Preparing to unpack .../18-libxext6_2%3a1.3.4-1+b1_armhf.deb ...
Unpacking libxext6:armhf (2:1.3.4-1+b1) ...
Selecting previously unselected package libxfixes3:armhf.
Preparing to unpack .../19-libxfixes3_1%3a6.0.0-2_armhf.deb ...
Unpacking libxfixes3:armhf (1:6.0.0-2) ...
Selecting previously unselected package libxshmfence1:armhf.
Preparing to unpack .../20-libxshmfence1_1.3-1_armhf.deb ...
Unpacking libxshmfence1:armhf (1.3-1) ...
Selecting previously unselected package libxxf86vm1:armhf.
Preparing to unpack .../21-libxxf86vm1_1%3a1.1.4-1+b2_armhf.deb ...
Unpacking libxxf86vm1:armhf (1:1.1.4-1+b2) ...
Selecting previously unselected package libvulkan1:armhf.
Preparing to unpack .../22-libvulkan1_1.3.268.0-1_armhf.deb ...
Unpacking libvulkan1:armhf (1.3.268.0-1) ...
Selecting previously unselected package libdrm-amdgpu1:armhf.
Preparing to unpack .../23-libdrm-amdgpu1_2.4.117-1_armhf.deb ...
Unpacking libdrm-amdgpu1:armhf (2.4.117-1) ...
Selecting previously unselected package libdrm-nouveau2:armhf.
Preparing to unpack .../24-libdrm-nouveau2_2.4.117-1_armhf.deb ...
Unpacking libdrm-nouveau2:armhf (2.4.117-1) ...
Selecting previously unselected package libdrm-radeon1:armhf.
Preparing to unpack .../25-libdrm-radeon1_2.4.117-1_armhf.deb ...
Unpacking libdrm-radeon1:armhf (2.4.117-1) ...
Selecting previously unselected package libedit2:armhf.
Preparing to unpack .../26-libedit2_3.1-20230828-1_armhf.deb ...
Unpacking libedit2:armhf (3.1-20230828-1) ...
Selecting previously unselected package libz3-4:armhf.
Preparing to unpack .../27-libz3-4_4.8.12-3.1_armhf.deb ...
Unpacking libz3-4:armhf (4.8.12-3.1) ...
Selecting previously unselected package libllvm17:armhf.
Preparing to unpack .../28-libllvm17_1%3a17.0.6-3_armhf.deb ...
Unpacking libllvm17:armhf (1:17.0.6-3) ...
Selecting previously unselected package libsensors-config.
Preparing to unpack .../29-libsensors-config_1%3a3.6.0-8_all.deb ...
Unpacking libsensors-config (1:3.6.0-8) ...
Selecting previously unselected package libsensors5:armhf.
Preparing to unpack .../30-libsensors5_1%3a3.6.0-8_armhf.deb ...
Unpacking libsensors5:armhf (1:3.6.0-8) ...
Selecting previously unselected package libgl1-mesa-dri:armhf.
Preparing to unpack .../31-libgl1-mesa-dri_23.3.2-2_armhf.deb ...
Unpacking libgl1-mesa-dri:armhf (23.3.2-2) ...
Selecting previously unselected package libglx-mesa0:armhf.
Preparing to unpack .../32-libglx-mesa0_23.3.2-2_armhf.deb ...
Unpacking libglx-mesa0:armhf (23.3.2-2) ...
Selecting previously unselected package libglx0:armhf.
Preparing to unpack .../33-libglx0_1.7.0-1_armhf.deb ...
Unpacking libglx0:armhf (1.7.0-1) ...
Selecting previously unselected package libgl1:armhf.
Preparing to unpack .../34-libgl1_1.7.0-1_armhf.deb ...
Unpacking libgl1:armhf (1.7.0-1) ...
Selecting previously unselected package x11-common.
Preparing to unpack .../35-x11-common_1%3a7.7+23_all.deb ...
Unpacking x11-common (1:7.7+23) ...
Selecting previously unselected package libice6:armhf.
Preparing to unpack .../36-libice6_2%3a1.0.10-1_armhf.deb ...
Unpacking libice6:armhf (2:1.0.10-1) ...
Selecting previously unselected package libsm6:armhf.
Preparing to unpack .../37-libsm6_2%3a1.2.3-1_armhf.deb ...
Unpacking libsm6:armhf (2:1.2.3-1) ...
Selecting previously unselected package libxcb-util1:armhf.
Preparing to unpack .../38-libxcb-util1_0.4.0-1+b1_armhf.deb ...
Unpacking libxcb-util1:armhf (0.4.0-1+b1) ...
Selecting previously unselected package libstartup-notification0:armhf.
Preparing to unpack .../39-libstartup-notification0_0.12-6+b1_armhf.deb ...
Unpacking libstartup-notification0:armhf (0.12-6+b1) ...
Selecting previously unselected package libxcomposite1:armhf.
Preparing to unpack .../40-libxcomposite1_1%3a0.4.5-1_armhf.deb ...
Unpacking libxcomposite1:armhf (1:0.4.5-1) ...
Selecting previously unselected package libxrender1:armhf.
Preparing to unpack .../41-libxrender1_1%3a0.9.10-1.1_armhf.deb ...
Unpacking libxrender1:armhf (1:0.9.10-1.1) ...
Selecting previously unselected package libxcursor1:armhf.
Preparing to unpack .../42-libxcursor1_1%3a1.2.1-1_armhf.deb ...
Unpacking libxcursor1:armhf (1:1.2.1-1) ...
Selecting previously unselected package libxdamage1:armhf.
Preparing to unpack .../43-libxdamage1_1%3a1.1.6-1_armhf.deb ...
Unpacking libxdamage1:armhf (1:1.1.6-1) ...
Selecting previously unselected package libxi6:armhf.
Preparing to unpack .../44-libxi6_2%3a1.8-1+b1_armhf.deb ...
Unpacking libxi6:armhf (2:1.8-1+b1) ...
Selecting previously unselected package libxinerama1:armhf.
Preparing to unpack .../45-libxinerama1_2%3a1.1.4-3_armhf.deb ...
Unpacking libxinerama1:armhf (2:1.1.4-3) ...
Selecting previously unselected package libxrandr2:armhf.
Preparing to unpack .../46-libxrandr2_2%3a1.5.2-2+b1_armhf.deb ...
Unpacking libxrandr2:armhf (2:1.5.2-2+b1) ...
Selecting previously unselected package libwayland-server0:armhf.
Preparing to unpack .../47-libwayland-server0_1.22.0-2.1_armhf.deb ...
Unpacking libwayland-server0:armhf (1.22.0-2.1) ...
Selecting previously unselected package libgbm1:armhf.
Preparing to unpack .../48-libgbm1_23.3.2-2_armhf.deb ...
Unpacking libgbm1:armhf (23.3.2-2) ...
Selecting previously unselected package libwayland-client0:armhf.
Preparing to unpack .../49-libwayland-client0_1.22.0-2.1_armhf.deb ...
Unpacking libwayland-client0:armhf (1.22.0-2.1) ...
Selecting previously unselected package libegl-mesa0:armhf.
Preparing to unpack .../50-libegl-mesa0_23.3.2-2_armhf.deb ...
Unpacking libegl-mesa0:armhf (23.3.2-2) ...
Selecting previously unselected package libegl1:armhf.
Preparing to unpack .../51-libegl1_1.7.0-1_armhf.deb ...
Unpacking libegl1:armhf (1.7.0-1) ...
Selecting previously unselected package libgles2:armhf.
Preparing to unpack .../52-libgles2_1.7.0-1_armhf.deb ...
Unpacking libgles2:armhf (1.7.0-1) ...
Selecting previously unselected package libwayland-egl1:armhf.
Preparing to unpack .../53-libwayland-egl1_1.22.0-2.1_armhf.deb ...
Unpacking libwayland-egl1:armhf (1.22.0-2.1) ...
Selecting previously unselected package mesa-utils-bin:armhf.
Preparing to unpack .../54-mesa-utils-bin_8.5.0-1_armhf.deb ...
Unpacking mesa-utils-bin:armhf (8.5.0-1) ...
Selecting previously unselected package mesa-utils.
Preparing to unpack .../55-mesa-utils_8.5.0-1_armhf.deb ...
Unpacking mesa-utils (8.5.0-1) ...
Selecting previously unselected package compiz-core.
Preparing to unpack .../56-compiz-core_2%3a0.8.18-5_armhf.deb ...
Unpacking compiz-core (2:0.8.18-5) ...
Selecting previously unselected package libprotobuf32:armhf.
Preparing to unpack .../57-libprotobuf32_3.21.12-8+b1_armhf.deb ...
Unpacking libprotobuf32:armhf (3.21.12-8+b1) ...
Selecting previously unselected package libcompizconfig0.
Preparing to unpack .../58-libcompizconfig0_2%3a0.8.18-3+b1_armhf.deb ...
Unpacking libcompizconfig0 (2:0.8.18-3+b1) ...
Selecting previously unselected package libcompizconfig0-dev:armhf.
Preparing to unpack .../59-libcompizconfig0-dev_2%3a0.8.18-3+b1_armhf.deb ...
Unpacking libcompizconfig0-dev:armhf (2:0.8.18-3+b1) ...
Setting up libwayland-server0:armhf (1.22.0-2.1) ...
Setting up libxau6:armhf (1:1.0.9-1) ...
Setting up libxdmcp6:armhf (1:1.1.2-3) ...
Setting up libxcb1:armhf (1.15-1) ...
Setting up libxcb-xfixes0:armhf (1.15-1) ...
Setting up libglvnd0:armhf (1.7.0-1) ...
Setting up libxcb-glx0:armhf (1.15-1) ...
Setting up libedit2:armhf (3.1-20230828-1) ...
Setting up x11-common (1:7.7+23) ...
invoke-rc.d: could not determine current runlevel
Setting up libsensors-config (1:3.6.0-8) ...
Setting up libxcb-shm0:armhf (1.15-1) ...
Setting up libxcb-util1:armhf (0.4.0-1+b1) ...
Setting up libxcb-present0:armhf (1.15-1) ...
Setting up libz3-4:armhf (4.8.12-3.1) ...
Setting up libgles2:armhf (1.7.0-1) ...
Setting up libx11-data (2:1.8.7-1) ...
Setting up libxcb-sync1:armhf (1.15-1) ...
Setting up libsensors5:armhf (1:3.6.0-8) ...
Setting up libglapi-mesa:armhf (23.3.2-2) ...
Setting up libvulkan1:armhf (1.3.268.0-1) ...
Setting up libxcb-dri2-0:armhf (1.15-1) ...
Setting up libprotobuf32:armhf (3.21.12-8+b1) ...
Setting up libxshmfence1:armhf (1.3-1) ...
Setting up libxcb-randr0:armhf (1.15-1) ...
Setting up libx11-6:armhf (2:1.8.7-1) ...
Setting up libwayland-egl1:armhf (1.22.0-2.1) ...
Setting up libllvm17:armhf (1:17.0.6-3) ...
Setting up libdrm-common (2.4.117-1) ...
Setting up libxcomposite1:armhf (1:0.4.5-1) ...
Setting up libwayland-client0:armhf (1.22.0-2.1) ...
Setting up libxcb-dri3-0:armhf (1.15-1) ...
Setting up libx11-xcb1:armhf (2:1.8.7-1) ...
Setting up libice6:armhf (2:1.0.10-1) ...
Setting up libxdamage1:armhf (1:1.1.6-1) ...
Setting up libxrender1:armhf (1:0.9.10-1.1) ...
Setting up libxext6:armhf (2:1.3.4-1+b1) ...
Setting up libxxf86vm1:armhf (1:1.1.4-1+b2) ...
Setting up libxfixes3:armhf (1:6.0.0-2) ...
Setting up libxinerama1:armhf (2:1.1.4-3) ...
Setting up libxrandr2:armhf (2:1.5.2-2+b1) ...
Setting up libdrm2:armhf (2.4.117-1) ...
Setting up libsm6:armhf (2:1.2.3-1) ...
Setting up libdrm-amdgpu1:armhf (2.4.117-1) ...
Setting up libstartup-notification0:armhf (0.12-6+b1) ...
Setting up libdrm-nouveau2:armhf (2.4.117-1) ...
Setting up libxi6:armhf (2:1.8-1+b1) ...
Setting up libgbm1:armhf (23.3.2-2) ...
Setting up libdrm-radeon1:armhf (2.4.117-1) ...
Setting up libxcursor1:armhf (1:1.2.1-1) ...
Setting up libgl1-mesa-dri:armhf (23.3.2-2) ...
Setting up libegl-mesa0:armhf (23.3.2-2) ...
Setting up libegl1:armhf (1.7.0-1) ...
Setting up libglx-mesa0:armhf (23.3.2-2) ...
Setting up libglx0:armhf (1.7.0-1) ...
Setting up libgl1:armhf (1.7.0-1) ...
Setting up mesa-utils-bin:armhf (8.5.0-1) ...
Setting up mesa-utils (8.5.0-1) ...
Setting up compiz-core (2:0.8.18-5) ...
Setting up libcompizconfig0 (2:0.8.18-3+b1) ...
Setting up libcompizconfig0-dev:armhf (2:0.8.18-3+b1) ...
Processing triggers for libc-bin (2.37-13) ...
Reading package lists...
Building dependency tree...
Reading state information...
The following packages will be REMOVED:
  libcompfaceg1* libcompfaceg1-dev*
0 upgraded, 0 newly installed, 2 to remove and 15 not upgraded.
After this operation, 92.2 kB disk space will be freed.
(Reading database ... (Reading database ... 5%(Reading database ... 10%(Reading database ... 15%(Reading database ... 20%(Reading database ... 25%(Reading database ... 30%(Reading database ... 35%(Reading database ... 40%(Reading database ... 45%(Reading database ... 50%(Reading database ... 55%(Reading database ... 60%(Reading database ... 65%(Reading database ... 70%(Reading database ... 75%(Reading database ... 80%(Reading database ... 85%(Reading database ... 90%(Reading database ... 95%(Reading database ... 100%(Reading database ... 19387 files and directories currently installed.)
Removing libcompfaceg1-dev (1:1.5.2-5.1) ...
Removing libcompfaceg1 (1:1.5.2-5.1) ...
