[2024-01-08T11:44:32+00:00] apt-get install libunwind-dev abi-compliance-checker
Reading package lists...
Building dependency tree...
Reading state information...
abi-compliance-checker is already the newest version (2.3-2).
The following package was automatically installed and is no longer required:
  libunwind-17
Use 'apt autoremove' to remove it.
The following additional packages will be installed:
  liblzma-dev libunwind8
Suggested packages:
  liblzma-doc
The following packages will be REMOVED:
  libunwind-17-dev
The following NEW packages will be installed:
  liblzma-dev libunwind-dev libunwind8
0 upgraded, 3 newly installed, 1 to remove and 16 not upgraded.
Need to get 767 kB of archives.
After this operation, 2765 kB of additional disk space will be used.
Get:1 http://deb.debian.org/debian unstable/main armhf liblzma-dev armhf 5.4.5-0.3 [281 kB]
Get:2 http://deb.debian.org/debian unstable/main armhf libunwind8 armhf 1.6.2-3 [43.3 kB]
Get:3 http://deb.debian.org/debian unstable/main armhf libunwind-dev armhf 1.6.2-3 [443 kB]
debconf: delaying package configuration, since apt-utils is not installed
Fetched 767 kB in 0s (10.9 MB/s)
(Reading database ... (Reading database ... 5%(Reading database ... 10%(Reading database ... 15%(Reading database ... 20%(Reading database ... 25%(Reading database ... 30%(Reading database ... 35%(Reading database ... 40%(Reading database ... 45%(Reading database ... 50%(Reading database ... 55%(Reading database ... 60%(Reading database ... 65%(Reading database ... 70%(Reading database ... 75%(Reading database ... 80%(Reading database ... 85%(Reading database ... 90%(Reading database ... 95%(Reading database ... 100%(Reading database ... 17086 files and directories currently installed.)
Removing libunwind-17-dev:armhf (1:17.0.6-3) ...
Selecting previously unselected package liblzma-dev:armhf.
(Reading database ... (Reading database ... 5%(Reading database ... 10%(Reading database ... 15%(Reading database ... 20%(Reading database ... 25%(Reading database ... 30%(Reading database ... 35%(Reading database ... 40%(Reading database ... 45%(Reading database ... 50%(Reading database ... 55%(Reading database ... 60%(Reading database ... 65%(Reading database ... 70%(Reading database ... 75%(Reading database ... 80%(Reading database ... 85%(Reading database ... 90%(Reading database ... 95%(Reading database ... 100%(Reading database ... 17057 files and directories currently installed.)
Preparing to unpack .../liblzma-dev_5.4.5-0.3_armhf.deb ...
Unpacking liblzma-dev:armhf (5.4.5-0.3) ...
Selecting previously unselected package libunwind8:armhf.
Preparing to unpack .../libunwind8_1.6.2-3_armhf.deb ...
Unpacking libunwind8:armhf (1.6.2-3) ...
Selecting previously unselected package libunwind-dev:armhf.
Preparing to unpack .../libunwind-dev_1.6.2-3_armhf.deb ...
Unpacking libunwind-dev:armhf (1.6.2-3) ...
Setting up libunwind8:armhf (1.6.2-3) ...
Setting up liblzma-dev:armhf (5.4.5-0.3) ...
Setting up libunwind-dev:armhf (1.6.2-3) ...
Processing triggers for libc-bin (2.37-13) ...
Reading package lists...
Building dependency tree...
Reading state information...
The following packages will be REMOVED:
  libunwind-17*
0 upgraded, 0 newly installed, 1 to remove and 16 not upgraded.
After this operation, 95.2 kB disk space will be freed.
(Reading database ... (Reading database ... 5%(Reading database ... 10%(Reading database ... 15%(Reading database ... 20%(Reading database ... 25%(Reading database ... 30%(Reading database ... 35%(Reading database ... 40%(Reading database ... 45%(Reading database ... 50%(Reading database ... 55%(Reading database ... 60%(Reading database ... 65%(Reading database ... 70%(Reading database ... 75%(Reading database ... 80%(Reading database ... 85%(Reading database ... 90%(Reading database ... 95%(Reading database ... 100%(Reading database ... 17163 files and directories currently installed.)
Removing libunwind-17:armhf (1:17.0.6-3) ...
Processing triggers for libc-bin (2.37-13) ...
