[2024-01-07T10:43:14+00:00] apt-get install libgssdp-1.6-dev abi-compliance-checker
Reading package lists...
Building dependency tree...
Reading state information...
abi-compliance-checker is already the newest version (2.3-2).
The following packages were automatically installed and are no longer required:
  libevent-2.1-7 libgmp-dev libgmpxx4ldbl libgnutls-dane0 libgnutls-openssl27
  libgnutls28-dev libgss-dev libgss3 libidn-dev libidn11-dev libidn12
  libidn2-dev libp11-kit-dev libshishi-dev libshishi0 libtasn1-6-dev
  libunbound8 nettle-dev sgml-base shishi-common
Use 'apt autoremove' to remove them.
The following additional packages will be installed:
  dconf-gsettings-backend dconf-service gir1.2-glib-2.0 gir1.2-gssdp-1.6
  gir1.2-soup-3.0 glib-networking glib-networking-common
  glib-networking-services gsettings-desktop-schemas libblkid-dev
  libbrotli-dev libbrotli1 libdconf1 libffi-dev libgirepository-1.0-1
  libglib2.0-0 libglib2.0-bin libglib2.0-data libglib2.0-dev
  libglib2.0-dev-bin libgssdp-1.6-0 libmount-dev libnghttp2-14 libnghttp2-dev
  libpcre2-16-0 libpcre2-32-0 libpcre2-dev libpcre2-posix3 libproxy1v5
  libpsl-dev libpsl5 libselinux1-dev libsepol-dev libsoup-3.0-0
  libsoup-3.0-common libsoup-3.0-dev libsqlite3-dev libsysprof-capture-4-dev
  python3-distutils python3-lib2to3 uuid-dev zlib1g-dev
Suggested packages:
  low-memory-monitor libgirepository1.0-dev libglib2.0-doc
  libgdk-pixbuf2.0-bin libxml2-utils libgssdp-doc libnghttp2-doc
  libsoup-3.0-doc sqlite3-doc
Recommended packages:
  shared-mime-info xdg-user-dirs publicsuffix
The following NEW packages will be installed:
  dconf-gsettings-backend dconf-service gir1.2-glib-2.0 gir1.2-gssdp-1.6
  gir1.2-soup-3.0 glib-networking glib-networking-common
  glib-networking-services gsettings-desktop-schemas libblkid-dev
  libbrotli-dev libbrotli1 libdconf1 libffi-dev libgirepository-1.0-1
  libglib2.0-0 libglib2.0-bin libglib2.0-data libglib2.0-dev
  libglib2.0-dev-bin libgssdp-1.6-0 libgssdp-1.6-dev libmount-dev
  libnghttp2-14 libnghttp2-dev libpcre2-16-0 libpcre2-32-0 libpcre2-dev
  libpcre2-posix3 libproxy1v5 libpsl-dev libpsl5 libselinux1-dev libsepol-dev
  libsoup-3.0-0 libsoup-3.0-common libsoup-3.0-dev libsqlite3-dev
  libsysprof-capture-4-dev python3-distutils python3-lib2to3 uuid-dev
  zlib1g-dev
0 upgraded, 43 newly installed, 0 to remove and 37 not upgraded.
Need to get 10.9 MB of archives.
After this operation, 44.5 MB of additional disk space will be used.
Get:1 http://deb.debian.org/debian unstable/main armhf libglib2.0-0 armhf 2.78.3-1 [1282 kB]
Get:2 http://deb.debian.org/debian unstable/main armhf libdconf1 armhf 0.40.0-4+b1 [36.9 kB]
Get:3 http://deb.debian.org/debian unstable/main armhf dconf-service armhf 0.40.0-4+b1 [27.8 kB]
Get:4 http://deb.debian.org/debian unstable/main armhf dconf-gsettings-backend armhf 0.40.0-4+b1 [24.1 kB]
Get:5 http://deb.debian.org/debian unstable/main armhf libgirepository-1.0-1 armhf 1.78.1-6 [94.8 kB]
Get:6 http://deb.debian.org/debian unstable/main armhf gir1.2-glib-2.0 armhf 1.78.1-6 [165 kB]
Get:7 http://deb.debian.org/debian unstable/main armhf libproxy1v5 armhf 0.4.18-1.2+b2 [51.7 kB]
Get:8 http://deb.debian.org/debian unstable/main armhf glib-networking-common all 2.78.0-1 [81.1 kB]
Get:9 http://deb.debian.org/debian unstable/main armhf glib-networking-services armhf 2.78.0-1 [11.4 kB]
Get:10 http://deb.debian.org/debian unstable/main armhf gsettings-desktop-schemas all 45.0-2 [645 kB]
Get:11 http://deb.debian.org/debian unstable/main armhf glib-networking armhf 2.78.0-1 [61.2 kB]
Get:12 http://deb.debian.org/debian unstable/main armhf libsoup-3.0-common all 3.4.4-2 [61.4 kB]
Get:13 http://deb.debian.org/debian unstable/main armhf libbrotli1 armhf 1.1.0-2+b3 [284 kB]
Get:14 http://deb.debian.org/debian unstable/main armhf libnghttp2-14 armhf 1.58.0-1 [61.9 kB]
Get:15 http://deb.debian.org/debian unstable/main armhf libpsl5 armhf 0.21.2-1+b1 [57.8 kB]
Get:16 http://deb.debian.org/debian unstable/main armhf libsoup-3.0-0 armhf 3.4.4-2 [242 kB]
Get:17 http://deb.debian.org/debian unstable/main armhf gir1.2-soup-3.0 armhf 3.4.4-2 [26.7 kB]
Get:18 http://deb.debian.org/debian unstable/main armhf libgssdp-1.6-0 armhf 1.6.3-1 [34.9 kB]
Get:19 http://deb.debian.org/debian unstable/main armhf gir1.2-gssdp-1.6 armhf 1.6.3-1 [6076 B]
Get:20 http://deb.debian.org/debian unstable/main armhf uuid-dev armhf 2.39.3-6 [39.6 kB]
Get:21 http://deb.debian.org/debian unstable/main armhf libblkid-dev armhf 2.39.3-6 [186 kB]
Get:22 http://deb.debian.org/debian unstable/main armhf libbrotli-dev armhf 1.1.0-2+b3 [292 kB]
Get:23 http://deb.debian.org/debian unstable/main armhf libffi-dev armhf 3.4.4-2 [55.7 kB]
Get:24 http://deb.debian.org/debian unstable/main armhf libglib2.0-data all 2.78.3-1 [1223 kB]
Get:25 http://deb.debian.org/debian unstable/main armhf libglib2.0-bin armhf 2.78.3-1 [108 kB]
Get:26 http://deb.debian.org/debian unstable/main armhf python3-lib2to3 all 3.11.5-1 [77.5 kB]
Get:27 http://deb.debian.org/debian unstable/main armhf python3-distutils all 3.11.5-1 [131 kB]
Get:28 http://deb.debian.org/debian unstable/main armhf libglib2.0-dev-bin armhf 2.78.3-1 [154 kB]
Get:29 http://deb.debian.org/debian unstable/main armhf libsepol-dev armhf 3.5-2 [319 kB]
Get:30 http://deb.debian.org/debian unstable/main armhf libpcre2-16-0 armhf 10.42-4 [211 kB]
Get:31 http://deb.debian.org/debian unstable/main armhf libpcre2-32-0 armhf 10.42-4 [202 kB]
Get:32 http://deb.debian.org/debian unstable/main armhf libpcre2-posix3 armhf 10.42-4 [55.0 kB]
Get:33 http://deb.debian.org/debian unstable/main armhf libpcre2-dev armhf 10.42-4 [668 kB]
Get:34 http://deb.debian.org/debian unstable/main armhf libselinux1-dev armhf 3.5-1+b2 [151 kB]
Get:35 http://deb.debian.org/debian unstable/main armhf libmount-dev armhf 2.39.3-6 [23.6 kB]
Get:36 http://deb.debian.org/debian unstable/main armhf zlib1g-dev armhf 1:1.3.dfsg-3 [904 kB]
Get:37 http://deb.debian.org/debian unstable/main armhf libglib2.0-dev armhf 2.78.3-1 [1526 kB]
Get:38 http://deb.debian.org/debian unstable/main armhf libnghttp2-dev armhf 1.58.0-1 [101 kB]
Get:39 http://deb.debian.org/debian unstable/main armhf libpsl-dev armhf 0.21.2-1+b1 [78.9 kB]
Get:40 http://deb.debian.org/debian unstable/main armhf libsqlite3-dev armhf 3.44.2-1 [974 kB]
Get:41 http://deb.debian.org/debian unstable/main armhf libsysprof-capture-4-dev armhf 45.1-2 [44.4 kB]
Get:42 http://deb.debian.org/debian unstable/main armhf libsoup-3.0-dev armhf 3.4.4-2 [111 kB]
Get:43 http://deb.debian.org/debian unstable/main armhf libgssdp-1.6-dev armhf 1.6.3-1 [15.7 kB]
debconf: delaying package configuration, since apt-utils is not installed
Fetched 10.9 MB in 1s (15.3 MB/s)
Selecting previously unselected package libglib2.0-0:armhf.
(Reading database ... (Reading database ... 5%(Reading database ... 10%(Reading database ... 15%(Reading database ... 20%(Reading database ... 25%(Reading database ... 30%(Reading database ... 35%(Reading database ... 40%(Reading database ... 45%(Reading database ... 50%(Reading database ... 55%(Reading database ... 60%(Reading database ... 65%(Reading database ... 70%(Reading database ... 75%(Reading database ... 80%(Reading database ... 85%(Reading database ... 90%(Reading database ... 95%(Reading database ... 100%(Reading database ... 15422 files and directories currently installed.)
Preparing to unpack .../00-libglib2.0-0_2.78.3-1_armhf.deb ...
Unpacking libglib2.0-0:armhf (2.78.3-1) ...
Selecting previously unselected package libdconf1:armhf.
Preparing to unpack .../01-libdconf1_0.40.0-4+b1_armhf.deb ...
Unpacking libdconf1:armhf (0.40.0-4+b1) ...
Selecting previously unselected package dconf-service.
Preparing to unpack .../02-dconf-service_0.40.0-4+b1_armhf.deb ...
Unpacking dconf-service (0.40.0-4+b1) ...
Selecting previously unselected package dconf-gsettings-backend:armhf.
Preparing to unpack .../03-dconf-gsettings-backend_0.40.0-4+b1_armhf.deb ...
Unpacking dconf-gsettings-backend:armhf (0.40.0-4+b1) ...
Selecting previously unselected package libgirepository-1.0-1:armhf.
Preparing to unpack .../04-libgirepository-1.0-1_1.78.1-6_armhf.deb ...
Unpacking libgirepository-1.0-1:armhf (1.78.1-6) ...
Selecting previously unselected package gir1.2-glib-2.0:armhf.
Preparing to unpack .../05-gir1.2-glib-2.0_1.78.1-6_armhf.deb ...
Unpacking gir1.2-glib-2.0:armhf (1.78.1-6) ...
Selecting previously unselected package libproxy1v5:armhf.
Preparing to unpack .../06-libproxy1v5_0.4.18-1.2+b2_armhf.deb ...
Unpacking libproxy1v5:armhf (0.4.18-1.2+b2) ...
Selecting previously unselected package glib-networking-common.
Preparing to unpack .../07-glib-networking-common_2.78.0-1_all.deb ...
Unpacking glib-networking-common (2.78.0-1) ...
Selecting previously unselected package glib-networking-services.
Preparing to unpack .../08-glib-networking-services_2.78.0-1_armhf.deb ...
Unpacking glib-networking-services (2.78.0-1) ...
Selecting previously unselected package gsettings-desktop-schemas.
Preparing to unpack .../09-gsettings-desktop-schemas_45.0-2_all.deb ...
Unpacking gsettings-desktop-schemas (45.0-2) ...
Selecting previously unselected package glib-networking:armhf.
Preparing to unpack .../10-glib-networking_2.78.0-1_armhf.deb ...
Unpacking glib-networking:armhf (2.78.0-1) ...
Selecting previously unselected package libsoup-3.0-common.
Preparing to unpack .../11-libsoup-3.0-common_3.4.4-2_all.deb ...
Unpacking libsoup-3.0-common (3.4.4-2) ...
Selecting previously unselected package libbrotli1:armhf.
Preparing to unpack .../12-libbrotli1_1.1.0-2+b3_armhf.deb ...
Unpacking libbrotli1:armhf (1.1.0-2+b3) ...
Selecting previously unselected package libnghttp2-14:armhf.
Preparing to unpack .../13-libnghttp2-14_1.58.0-1_armhf.deb ...
Unpacking libnghttp2-14:armhf (1.58.0-1) ...
Selecting previously unselected package libpsl5:armhf.
Preparing to unpack .../14-libpsl5_0.21.2-1+b1_armhf.deb ...
Unpacking libpsl5:armhf (0.21.2-1+b1) ...
Selecting previously unselected package libsoup-3.0-0:armhf.
Preparing to unpack .../15-libsoup-3.0-0_3.4.4-2_armhf.deb ...
Unpacking libsoup-3.0-0:armhf (3.4.4-2) ...
Selecting previously unselected package gir1.2-soup-3.0:armhf.
Preparing to unpack .../16-gir1.2-soup-3.0_3.4.4-2_armhf.deb ...
Unpacking gir1.2-soup-3.0:armhf (3.4.4-2) ...
Selecting previously unselected package libgssdp-1.6-0:armhf.
Preparing to unpack .../17-libgssdp-1.6-0_1.6.3-1_armhf.deb ...
Unpacking libgssdp-1.6-0:armhf (1.6.3-1) ...
Selecting previously unselected package gir1.2-gssdp-1.6:armhf.
Preparing to unpack .../18-gir1.2-gssdp-1.6_1.6.3-1_armhf.deb ...
Unpacking gir1.2-gssdp-1.6:armhf (1.6.3-1) ...
Selecting previously unselected package uuid-dev:armhf.
Preparing to unpack .../19-uuid-dev_2.39.3-6_armhf.deb ...
Unpacking uuid-dev:armhf (2.39.3-6) ...
Selecting previously unselected package libblkid-dev:armhf.
Preparing to unpack .../20-libblkid-dev_2.39.3-6_armhf.deb ...
Unpacking libblkid-dev:armhf (2.39.3-6) ...
Selecting previously unselected package libbrotli-dev:armhf.
Preparing to unpack .../21-libbrotli-dev_1.1.0-2+b3_armhf.deb ...
Unpacking libbrotli-dev:armhf (1.1.0-2+b3) ...
Selecting previously unselected package libffi-dev:armhf.
Preparing to unpack .../22-libffi-dev_3.4.4-2_armhf.deb ...
Unpacking libffi-dev:armhf (3.4.4-2) ...
Selecting previously unselected package libglib2.0-data.
Preparing to unpack .../23-libglib2.0-data_2.78.3-1_all.deb ...
Unpacking libglib2.0-data (2.78.3-1) ...
Selecting previously unselected package libglib2.0-bin.
Preparing to unpack .../24-libglib2.0-bin_2.78.3-1_armhf.deb ...
Unpacking libglib2.0-bin (2.78.3-1) ...
Selecting previously unselected package python3-lib2to3.
Preparing to unpack .../25-python3-lib2to3_3.11.5-1_all.deb ...
Unpacking python3-lib2to3 (3.11.5-1) ...
Selecting previously unselected package python3-distutils.
Preparing to unpack .../26-python3-distutils_3.11.5-1_all.deb ...
Unpacking python3-distutils (3.11.5-1) ...
Selecting previously unselected package libglib2.0-dev-bin.
Preparing to unpack .../27-libglib2.0-dev-bin_2.78.3-1_armhf.deb ...
Unpacking libglib2.0-dev-bin (2.78.3-1) ...
Selecting previously unselected package libsepol-dev:armhf.
Preparing to unpack .../28-libsepol-dev_3.5-2_armhf.deb ...
Unpacking libsepol-dev:armhf (3.5-2) ...
Selecting previously unselected package libpcre2-16-0:armhf.
Preparing to unpack .../29-libpcre2-16-0_10.42-4_armhf.deb ...
Unpacking libpcre2-16-0:armhf (10.42-4) ...
Selecting previously unselected package libpcre2-32-0:armhf.
Preparing to unpack .../30-libpcre2-32-0_10.42-4_armhf.deb ...
Unpacking libpcre2-32-0:armhf (10.42-4) ...
Selecting previously unselected package libpcre2-posix3:armhf.
Preparing to unpack .../31-libpcre2-posix3_10.42-4_armhf.deb ...
Unpacking libpcre2-posix3:armhf (10.42-4) ...
Selecting previously unselected package libpcre2-dev:armhf.
Preparing to unpack .../32-libpcre2-dev_10.42-4_armhf.deb ...
Unpacking libpcre2-dev:armhf (10.42-4) ...
Selecting previously unselected package libselinux1-dev:armhf.
Preparing to unpack .../33-libselinux1-dev_3.5-1+b2_armhf.deb ...
Unpacking libselinux1-dev:armhf (3.5-1+b2) ...
Selecting previously unselected package libmount-dev:armhf.
Preparing to unpack .../34-libmount-dev_2.39.3-6_armhf.deb ...
Unpacking libmount-dev:armhf (2.39.3-6) ...
Selecting previously unselected package zlib1g-dev:armhf.
Preparing to unpack .../35-zlib1g-dev_1%3a1.3.dfsg-3_armhf.deb ...
Unpacking zlib1g-dev:armhf (1:1.3.dfsg-3) ...
Selecting previously unselected package libglib2.0-dev:armhf.
Preparing to unpack .../36-libglib2.0-dev_2.78.3-1_armhf.deb ...
Unpacking libglib2.0-dev:armhf (2.78.3-1) ...
Selecting previously unselected package libnghttp2-dev:armhf.
Preparing to unpack .../37-libnghttp2-dev_1.58.0-1_armhf.deb ...
Unpacking libnghttp2-dev:armhf (1.58.0-1) ...
Selecting previously unselected package libpsl-dev:armhf.
Preparing to unpack .../38-libpsl-dev_0.21.2-1+b1_armhf.deb ...
Unpacking libpsl-dev:armhf (0.21.2-1+b1) ...
Selecting previously unselected package libsqlite3-dev:armhf.
Preparing to unpack .../39-libsqlite3-dev_3.44.2-1_armhf.deb ...
Unpacking libsqlite3-dev:armhf (3.44.2-1) ...
Selecting previously unselected package libsysprof-capture-4-dev:armhf.
Preparing to unpack .../40-libsysprof-capture-4-dev_45.1-2_armhf.deb ...
Unpacking libsysprof-capture-4-dev:armhf (45.1-2) ...
Selecting previously unselected package libsoup-3.0-dev:armhf.
Preparing to unpack .../41-libsoup-3.0-dev_3.4.4-2_armhf.deb ...
Unpacking libsoup-3.0-dev:armhf (3.4.4-2) ...
Selecting previously unselected package libgssdp-1.6-dev:armhf.
Preparing to unpack .../42-libgssdp-1.6-dev_1.6.3-1_armhf.deb ...
Unpacking libgssdp-1.6-dev:armhf (1.6.3-1) ...
Setting up libproxy1v5:armhf (0.4.18-1.2+b2) ...
Setting up libpsl5:armhf (0.21.2-1+b1) ...
Setting up libglib2.0-0:armhf (2.78.3-1) ...
Setting up libbrotli1:armhf (1.1.0-2+b3) ...
Setting up libnghttp2-14:armhf (1.58.0-1) ...
Setting up libsoup-3.0-common (3.4.4-2) ...
Setting up libffi-dev:armhf (3.4.4-2) ...
Setting up libpcre2-16-0:armhf (10.42-4) ...
Setting up libpsl-dev:armhf (0.21.2-1+b1) ...
Setting up libdconf1:armhf (0.40.0-4+b1) ...
Setting up libsysprof-capture-4-dev:armhf (45.1-2) ...
Setting up libpcre2-32-0:armhf (10.42-4) ...
Setting up libglib2.0-data (2.78.3-1) ...
Setting up libsqlite3-dev:armhf (3.44.2-1) ...
Setting up uuid-dev:armhf (2.39.3-6) ...
Setting up libsepol-dev:armhf (3.5-2) ...
Setting up zlib1g-dev:armhf (1:1.3.dfsg-3) ...
Setting up libpcre2-posix3:armhf (10.42-4) ...
Setting up libgirepository-1.0-1:armhf (1.78.1-6) ...
Setting up glib-networking-common (2.78.0-1) ...
Setting up python3-lib2to3 (3.11.5-1) ...
Setting up libbrotli-dev:armhf (1.1.0-2+b3) ...
Setting up python3-distutils (3.11.5-1) ...
Setting up libglib2.0-dev-bin (2.78.3-1) ...
Setting up glib-networking-services (2.78.0-1) ...
Setting up libblkid-dev:armhf (2.39.3-6) ...
Setting up libnghttp2-dev:armhf (1.58.0-1) ...
Setting up libpcre2-dev:armhf (10.42-4) ...
Setting up libselinux1-dev:armhf (3.5-1+b2) ...
Setting up libglib2.0-bin (2.78.3-1) ...
Setting up dconf-service (0.40.0-4+b1) ...
Setting up gir1.2-glib-2.0:armhf (1.78.1-6) ...
Setting up libmount-dev:armhf (2.39.3-6) ...
Setting up dconf-gsettings-backend:armhf (0.40.0-4+b1) ...
Setting up libglib2.0-dev:armhf (2.78.3-1) ...
Setting up gsettings-desktop-schemas (45.0-2) ...
Setting up glib-networking:armhf (2.78.0-1) ...
Setting up libsoup-3.0-0:armhf (3.4.4-2) ...
Setting up libgssdp-1.6-0:armhf (1.6.3-1) ...
Setting up gir1.2-soup-3.0:armhf (3.4.4-2) ...
Setting up gir1.2-gssdp-1.6:armhf (1.6.3-1) ...
Setting up libsoup-3.0-dev:armhf (3.4.4-2) ...
Setting up libgssdp-1.6-dev:armhf (1.6.3-1) ...
Processing triggers for libc-bin (2.37-13) ...
Reading package lists...
Building dependency tree...
Reading state information...
The following packages will be REMOVED:
  libevent-2.1-7* libgmp-dev* libgmpxx4ldbl* libgnutls-dane0*
  libgnutls-openssl27* libgnutls28-dev* libgss-dev* libgss3* libidn-dev*
  libidn11-dev* libidn12* libidn2-dev* libp11-kit-dev* libshishi-dev*
  libshishi0* libtasn1-6-dev* libunbound8* nettle-dev* sgml-base*
  shishi-common*
0 upgraded, 0 newly installed, 20 to remove and 37 not upgraded.
After this operation, 14.0 MB disk space will be freed.
(Reading database ... (Reading database ... 5%(Reading database ... 10%(Reading database ... 15%(Reading database ... 20%(Reading database ... 25%(Reading database ... 30%(Reading database ... 35%(Reading database ... 40%(Reading database ... 45%(Reading database ... 50%(Reading database ... 55%(Reading database ... 60%(Reading database ... 65%(Reading database ... 70%(Reading database ... 75%(Reading database ... 80%(Reading database ... 85%(Reading database ... 90%(Reading database ... 95%(Reading database ... 100%(Reading database ... 17222 files and directories currently installed.)
Removing libgss-dev (1.0.4-1) ...
Removing libgss3:armhf (1.0.4-1) ...
Removing libshishi-dev:armhf (1.0.3-1+b1) ...
Removing libgnutls28-dev:armhf (3.8.2-1) ...
Removing libgnutls-dane0:armhf (3.8.2-1) ...
Removing libunbound8:armhf (1.18.0-2+b1) ...
Removing libevent-2.1-7:armhf (2.1.12-stable-8) ...
Removing nettle-dev:armhf (3.9.1-2) ...
Removing libgmp-dev:armhf (2:6.3.0+dfsg-2) ...
Removing libgmpxx4ldbl:armhf (2:6.3.0+dfsg-2) ...
Removing libgnutls-openssl27:armhf (3.8.2-1) ...
Removing libidn11-dev:armhf (1.41-1) ...
Removing libidn-dev:armhf (1.41-1) ...
Removing libshishi0:armhf (1.0.3-1+b1) ...
Removing libidn12:armhf (1.41-1) ...
Removing libidn2-dev:armhf (2.3.4-1+b2) ...
Removing libp11-kit-dev:armhf (0.25.3-4) ...
Removing libtasn1-6-dev:armhf (4.19.0-3+b2) ...
Removing shishi-common (1.0.3-1) ...
Removing sgml-base (1.31) ...
Processing triggers for libc-bin (2.37-13) ...
(Reading database ... (Reading database ... 5%(Reading database ... 10%(Reading database ... 15%(Reading database ... 20%(Reading database ... 25%(Reading database ... 30%(Reading database ... 35%(Reading database ... 40%(Reading database ... 45%(Reading database ... 50%(Reading database ... 55%(Reading database ... 60%(Reading database ... 65%(Reading database ... 70%(Reading database ... 75%(Reading database ... 80%(Reading database ... 85%(Reading database ... 90%(Reading database ... 95%(Reading database ... 100%(Reading database ... 16735 files and directories currently installed.)
Purging configuration files for shishi-common (1.0.3-1) ...
Purging configuration files for sgml-base (1.31) ...
