Temporary header file '/tmp/EEybgHyrgD/dump1.h' with the following content will be compiled to create GCC translation unit dump:

  // add defines
  #define __STDC_VERSION__ 201710L
#define _TIME_BITS 64
#define _FILE_OFFSET_BITS 64
#define _GXX_NULLPTR_T
#define CLUTTER_ENABLE_COMPOSITOR_API 1
#define _REGEX_NELTS(n)
#define _Atomic
#define PACKED
#ifdef __cplusplus
// C17 compat layer
#define _Alignof(type) alignof(type)
#endif
#define getaddrinfo_a(a,b,c,d)

  // add includes
  #include "/usr/include/libsx.h"

  // add classes
  _XComposeStatus* tmp_add_class_0;
  _XEvent* tmp_add_class_1;
  _XExtData* tmp_add_class_2;
  _XIMHotKeyTrigger* tmp_add_class_3;
  _XIMHotKeyTriggers* tmp_add_class_4;
  _XIMPreeditCaretCallbackStruct* tmp_add_class_5;
  _XIMPreeditDrawCallbackStruct* tmp_add_class_6;
  _XIMPreeditStateNotifyCallbackStruct* tmp_add_class_7;
  _XIMStatusDrawCallbackStruct* tmp_add_class_8;
  _XIMStringConversionCallbackStruct* tmp_add_class_9;
  _XIMStringConversionText* tmp_add_class_10;
  _XIMText* tmp_add_class_11;
  _XImage* tmp_add_class_12;
  _XtActionsRec* tmp_add_class_13;
  _XtCallbackRec* tmp_add_class_14;
  _XtCheckpointTokenRec* tmp_add_class_15;
  _XtResource* tmp_add_class_16;

The GCC parameters:
  gcc -fdump-lang-raw -fkeep-inline-functions -c -x c++ -fpermissive -w "/tmp/EEybgHyrgD/dump1.h"

