[2024-01-31T16:49:35+00:00] apt-get install alsa-oss abi-compliance-checker
Reading package lists...
Building dependency tree...
Reading state information...
abi-compliance-checker is already the newest version (2.3-2).
The following package was automatically installed and is no longer required:
  afnix
Use 'apt autoremove' to remove it.
The following additional packages will be installed:
  libasound2 libasound2-data
Suggested packages:
  libasound2-plugins alsa-utils
Recommended packages:
  alsa-ucm-conf alsa-topology-conf
The following NEW packages will be installed:
  alsa-oss libasound2 libasound2-data
0 upgraded, 3 newly installed, 0 to remove and 103 not upgraded.
Need to get 361 kB of archives.
After this operation, 1195 kB of additional disk space will be used.
Get:1 http://deb.debian.org/debian unstable/main armhf libasound2-data all 1.2.10-3 [20.7 kB]
Get:2 http://deb.debian.org/debian unstable/main armhf libasound2 armhf 1.2.10-3 [316 kB]
Get:3 http://deb.debian.org/debian unstable/main armhf alsa-oss armhf 1.1.8-2 [24.6 kB]
debconf: delaying package configuration, since apt-utils is not installed
Fetched 361 kB in 0s (2265 kB/s)
Selecting previously unselected package libasound2-data.
(Reading database ... (Reading database ... 5%(Reading database ... 10%(Reading database ... 15%(Reading database ... 20%(Reading database ... 25%(Reading database ... 30%(Reading database ... 35%(Reading database ... 40%(Reading database ... 45%(Reading database ... 50%(Reading database ... 55%(Reading database ... 60%(Reading database ... 65%(Reading database ... 70%(Reading database ... 75%(Reading database ... 80%(Reading database ... 85%(Reading database ... 90%(Reading database ... 95%(Reading database ... 100%(Reading database ... 12715 files and directories currently installed.)
Preparing to unpack .../libasound2-data_1.2.10-3_all.deb ...
Unpacking libasound2-data (1.2.10-3) ...
Selecting previously unselected package libasound2:armhf.
Preparing to unpack .../libasound2_1.2.10-3_armhf.deb ...
Unpacking libasound2:armhf (1.2.10-3) ...
Selecting previously unselected package alsa-oss.
Preparing to unpack .../alsa-oss_1.1.8-2_armhf.deb ...
Unpacking alsa-oss (1.1.8-2) ...
Setting up libasound2-data (1.2.10-3) ...
Setting up libasound2:armhf (1.2.10-3) ...
Setting up alsa-oss (1.1.8-2) ...
Processing triggers for libc-bin (2.37-13) ...
Reading package lists...
Building dependency tree...
Reading state information...
The following packages will be REMOVED:
  afnix*
0 upgraded, 0 newly installed, 1 to remove and 103 not upgraded.
After this operation, 35.7 MB disk space will be freed.
(Reading database ... (Reading database ... 5%(Reading database ... 10%(Reading database ... 15%(Reading database ... 20%(Reading database ... 25%(Reading database ... 30%(Reading database ... 35%(Reading database ... 40%(Reading database ... 45%(Reading database ... 50%(Reading database ... 55%(Reading database ... 60%(Reading database ... 65%(Reading database ... 70%(Reading database ... 75%(Reading database ... 80%(Reading database ... 85%(Reading database ... 90%(Reading database ... 95%(Reading database ... 100%(Reading database ... 12820 files and directories currently installed.)
Removing afnix (3.7.0-1) ...
Processing triggers for libc-bin (2.37-13) ...
