[2024-01-06T18:57:03+00:00] apt-get install libdecor-0-dev abi-compliance-checker
Reading package lists...
Building dependency tree...
Reading state information...
abi-compliance-checker is already the newest version (2.3-2).
The following packages were automatically installed and are no longer required:
  libdecaf-dev libdecaf0
Use 'apt autoremove' to remove them.
The following additional packages will be installed:
  libdecor-0-0 libffi-dev libwayland-bin libwayland-client0 libwayland-cursor0
  libwayland-dev libwayland-egl1 libwayland-server0
Suggested packages:
  libwayland-doc
Recommended packages:
  default-libdecor-0-plugin-1 | libdecor-0-plugin-1
The following NEW packages will be installed:
  libdecor-0-0 libdecor-0-dev libffi-dev libwayland-bin libwayland-client0
  libwayland-cursor0 libwayland-dev libwayland-egl1 libwayland-server0
0 upgraded, 9 newly installed, 0 to remove and 12 not upgraded.
Need to get 225 kB of archives.
After this operation, 1175 kB of additional disk space will be used.
Get:1 http://deb.debian.org/debian unstable/main armhf libwayland-client0 armhf 1.22.0-2.1 [20.0 kB]
Get:2 http://deb.debian.org/debian unstable/main armhf libdecor-0-0 armhf 0.2.1-1 [12.7 kB]
Get:3 http://deb.debian.org/debian unstable/main armhf libwayland-server0 armhf 1.22.0-2.1 [26.1 kB]
Get:4 http://deb.debian.org/debian unstable/main armhf libwayland-cursor0 armhf 1.22.0-2.1 [9908 B]
Get:5 http://deb.debian.org/debian unstable/main armhf libwayland-egl1 armhf 1.22.0-2.1 [5124 B]
Get:6 http://deb.debian.org/debian unstable/main armhf libwayland-bin armhf 1.22.0-2.1 [17.7 kB]
Get:7 http://deb.debian.org/debian unstable/main armhf libffi-dev armhf 3.4.4-2 [55.7 kB]
Get:8 http://deb.debian.org/debian unstable/main armhf libwayland-dev armhf 1.22.0-2.1 [70.3 kB]
Get:9 http://deb.debian.org/debian unstable/main armhf libdecor-0-dev armhf 0.2.1-1 [7328 B]
debconf: delaying package configuration, since apt-utils is not installed
Fetched 225 kB in 0s (456 kB/s)
Selecting previously unselected package libwayland-client0:armhf.
(Reading database ... (Reading database ... 5%(Reading database ... 10%(Reading database ... 15%(Reading database ... 20%(Reading database ... 25%(Reading database ... 30%(Reading database ... 35%(Reading database ... 40%(Reading database ... 45%(Reading database ... 50%(Reading database ... 55%(Reading database ... 60%(Reading database ... 65%(Reading database ... 70%(Reading database ... 75%(Reading database ... 80%(Reading database ... 85%(Reading database ... 90%(Reading database ... 95%(Reading database ... 100%(Reading database ... 20230 files and directories currently installed.)
Preparing to unpack .../0-libwayland-client0_1.22.0-2.1_armhf.deb ...
Unpacking libwayland-client0:armhf (1.22.0-2.1) ...
Selecting previously unselected package libdecor-0-0:armhf.
Preparing to unpack .../1-libdecor-0-0_0.2.1-1_armhf.deb ...
Unpacking libdecor-0-0:armhf (0.2.1-1) ...
Selecting previously unselected package libwayland-server0:armhf.
Preparing to unpack .../2-libwayland-server0_1.22.0-2.1_armhf.deb ...
Unpacking libwayland-server0:armhf (1.22.0-2.1) ...
Selecting previously unselected package libwayland-cursor0:armhf.
Preparing to unpack .../3-libwayland-cursor0_1.22.0-2.1_armhf.deb ...
Unpacking libwayland-cursor0:armhf (1.22.0-2.1) ...
Selecting previously unselected package libwayland-egl1:armhf.
Preparing to unpack .../4-libwayland-egl1_1.22.0-2.1_armhf.deb ...
Unpacking libwayland-egl1:armhf (1.22.0-2.1) ...
Selecting previously unselected package libwayland-bin.
Preparing to unpack .../5-libwayland-bin_1.22.0-2.1_armhf.deb ...
Unpacking libwayland-bin (1.22.0-2.1) ...
Selecting previously unselected package libffi-dev:armhf.
Preparing to unpack .../6-libffi-dev_3.4.4-2_armhf.deb ...
Unpacking libffi-dev:armhf (3.4.4-2) ...
Selecting previously unselected package libwayland-dev:armhf.
Preparing to unpack .../7-libwayland-dev_1.22.0-2.1_armhf.deb ...
Unpacking libwayland-dev:armhf (1.22.0-2.1) ...
Selecting previously unselected package libdecor-0-dev:armhf.
Preparing to unpack .../8-libdecor-0-dev_0.2.1-1_armhf.deb ...
Unpacking libdecor-0-dev:armhf (0.2.1-1) ...
Setting up libwayland-server0:armhf (1.22.0-2.1) ...
Setting up libffi-dev:armhf (3.4.4-2) ...
Setting up libwayland-bin (1.22.0-2.1) ...
Setting up libwayland-egl1:armhf (1.22.0-2.1) ...
Setting up libwayland-client0:armhf (1.22.0-2.1) ...
Setting up libwayland-cursor0:armhf (1.22.0-2.1) ...
Setting up libdecor-0-0:armhf (0.2.1-1) ...
Setting up libwayland-dev:armhf (1.22.0-2.1) ...
Setting up libdecor-0-dev:armhf (0.2.1-1) ...
Processing triggers for libc-bin (2.37-13) ...
Reading package lists...
Building dependency tree...
Reading state information...
The following packages will be REMOVED:
  libdecaf-dev* libdecaf0*
0 upgraded, 0 newly installed, 2 to remove and 12 not upgraded.
After this operation, 692 kB disk space will be freed.
(Reading database ... (Reading database ... 5%(Reading database ... 10%(Reading database ... 15%(Reading database ... 20%(Reading database ... 25%(Reading database ... 30%(Reading database ... 35%(Reading database ... 40%(Reading database ... 45%(Reading database ... 50%(Reading database ... 55%(Reading database ... 60%(Reading database ... 65%(Reading database ... 70%(Reading database ... 75%(Reading database ... 80%(Reading database ... 85%(Reading database ... 90%(Reading database ... 95%(Reading database ... 100%(Reading database ... 20329 files and directories currently installed.)
Removing libdecaf-dev:armhf (1.0.2-2) ...
Removing libdecaf0:armhf (1.0.2-2) ...
Processing triggers for libc-bin (2.37-13) ...
