[2024-02-01T10:54:52+00:00] apt-get install libdvbpsi-dev abi-compliance-checker
Reading package lists...
Building dependency tree...
Reading state information...
abi-compliance-checker is already the newest version (2.3-2).
The following NEW packages will be installed:
  libdvbpsi-dev libdvbpsi10
0 upgraded, 2 newly installed, 0 to remove and 103 not upgraded.
Need to get 164 kB of archives.
After this operation, 1041 kB of additional disk space will be used.
Get:1 http://deb.debian.org/debian unstable/main armhf libdvbpsi10 armhf 1.3.3-1 [45.8 kB]
Get:2 http://deb.debian.org/debian unstable/main armhf libdvbpsi-dev armhf 1.3.3-1 [119 kB]
debconf: delaying package configuration, since apt-utils is not installed
Fetched 164 kB in 0s (3518 kB/s)
Selecting previously unselected package libdvbpsi10:armhf.
(Reading database ... (Reading database ... 5%(Reading database ... 10%(Reading database ... 15%(Reading database ... 20%(Reading database ... 25%(Reading database ... 30%(Reading database ... 35%(Reading database ... 40%(Reading database ... 45%(Reading database ... 50%(Reading database ... 55%(Reading database ... 60%(Reading database ... 65%(Reading database ... 70%(Reading database ... 75%(Reading database ... 80%(Reading database ... 85%(Reading database ... 90%(Reading database ... 95%(Reading database ... 100%(Reading database ... 11930 files and directories currently installed.)
Preparing to unpack .../libdvbpsi10_1.3.3-1_armhf.deb ...
Unpacking libdvbpsi10:armhf (1.3.3-1) ...
Selecting previously unselected package libdvbpsi-dev:armhf.
Preparing to unpack .../libdvbpsi-dev_1.3.3-1_armhf.deb ...
Unpacking libdvbpsi-dev:armhf (1.3.3-1) ...
Setting up libdvbpsi10:armhf (1.3.3-1) ...
Setting up libdvbpsi-dev:armhf (1.3.3-1) ...
Processing triggers for libc-bin (2.37-13) ...
Reading package lists...
Building dependency tree...
Reading state information...
0 upgraded, 0 newly installed, 0 to remove and 103 not upgraded.
