[2024-01-08T19:44:37+00:00] apt-get install oss4-dev abi-compliance-checker
Reading package lists...
Building dependency tree...
Reading state information...
abi-compliance-checker is already the newest version (2.3-2).
The following packages were automatically installed and are no longer required:
  libosmocodec0 libosmocoding0 libosmocore-dev libosmocore19 libosmoctrl0
  libosmogb14 libosmogsm18 libosmosim2 libosmovty9 libpcsclite1 libpkgconf3
  libsctp-dev libsctp1 libtalloc-dev libtalloc2 osmo-libasn1c-dev
  osmo-libasn1c1 pkg-config pkgconf pkgconf-bin
Use 'apt autoremove' to remove them.
The following NEW packages will be installed:
  oss4-dev
0 upgraded, 1 newly installed, 0 to remove and 11 not upgraded.
Need to get 25.7 kB of archives.
After this operation, 100 kB of additional disk space will be used.
Get:1 http://deb.debian.org/debian unstable/main armhf oss4-dev all 4.2-build2020-2 [25.7 kB]
debconf: delaying package configuration, since apt-utils is not installed
Fetched 25.7 kB in 0s (160 kB/s)
Selecting previously unselected package oss4-dev.
(Reading database ... (Reading database ... 5%(Reading database ... 10%(Reading database ... 15%(Reading database ... 20%(Reading database ... 25%(Reading database ... 30%(Reading database ... 35%(Reading database ... 40%(Reading database ... 45%(Reading database ... 50%(Reading database ... 55%(Reading database ... 60%(Reading database ... 65%(Reading database ... 70%(Reading database ... 75%(Reading database ... 80%(Reading database ... 85%(Reading database ... 90%(Reading database ... 95%(Reading database ... 100%(Reading database ... 20093 files and directories currently installed.)
Preparing to unpack .../oss4-dev_4.2-build2020-2_all.deb ...
Adding 'diversion of /usr/include/linux/soundcard.h to /usr/include/linux/soundcard.h.oss3 by oss4-dev'
Unpacking oss4-dev (4.2-build2020-2) ...
Setting up oss4-dev (4.2-build2020-2) ...
Reading package lists...
Building dependency tree...
Reading state information...
The following packages will be REMOVED:
  libosmocodec0* libosmocoding0* libosmocore-dev* libosmocore19* libosmoctrl0*
  libosmogb14* libosmogsm18* libosmosim2* libosmovty9* libpcsclite1*
  libpkgconf3* libsctp-dev* libsctp1* libtalloc-dev* libtalloc2*
  osmo-libasn1c-dev* osmo-libasn1c1* pkg-config* pkgconf* pkgconf-bin*
0 upgraded, 0 newly installed, 20 to remove and 11 not upgraded.
After this operation, 4158 kB disk space will be freed.
(Reading database ... (Reading database ... 5%(Reading database ... 10%(Reading database ... 15%(Reading database ... 20%(Reading database ... 25%(Reading database ... 30%(Reading database ... 35%(Reading database ... 40%(Reading database ... 45%(Reading database ... 50%(Reading database ... 55%(Reading database ... 60%(Reading database ... 65%(Reading database ... 70%(Reading database ... 75%(Reading database ... 80%(Reading database ... 85%(Reading database ... 90%(Reading database ... 95%(Reading database ... 100%(Reading database ... 20099 files and directories currently installed.)
Removing libosmocore-dev:armhf (1.7.0-3) ...
Removing libosmocoding0:armhf (1.7.0-3) ...
Removing libosmocodec0:armhf (1.7.0-3) ...
Removing libosmoctrl0:armhf (1.7.0-3) ...
Removing libosmogb14:armhf (1.7.0-3) ...
Removing libosmovty9:armhf (1.7.0-3) ...
Removing libosmosim2:armhf (1.7.0-3) ...
Removing libosmogsm18:armhf (1.7.0-3) ...
Removing libpcsclite1:armhf (2.0.1-1) ...
Removing libtalloc-dev:armhf (2.4.1-2) ...
Removing pkg-config:armhf (1.8.1-1+b2) ...
Removing pkgconf:armhf (1.8.1-1+b2) ...
Removing pkgconf-bin (1.8.1-1+b2) ...
Removing libpkgconf3:armhf (1.8.1-1+b2) ...
Removing libsctp-dev:armhf (1.0.19+dfsg-2) ...
Removing osmo-libasn1c-dev:armhf (0.9.36-1) ...
Removing osmo-libasn1c1:armhf (0.9.36-1) ...
Removing libosmocore19:armhf (1.7.0-3) ...
Removing libsctp1:armhf (1.0.19+dfsg-2) ...
Removing libtalloc2:armhf (2.4.1-2) ...
Processing triggers for libc-bin (2.37-13) ...
(Reading database ... (Reading database ... 5%(Reading database ... 10%(Reading database ... 15%(Reading database ... 20%(Reading database ... 25%(Reading database ... 30%(Reading database ... 35%(Reading database ... 40%(Reading database ... 45%(Reading database ... 50%(Reading database ... 55%(Reading database ... 60%(Reading database ... 65%(Reading database ... 70%(Reading database ... 75%(Reading database ... 80%(Reading database ... 85%(Reading database ... 90%(Reading database ... 95%(Reading database ... 100%(Reading database ... 19671 files and directories currently installed.)
Purging configuration files for pkgconf:armhf (1.8.1-1+b2) ...
Purging configuration files for pkg-config:armhf (1.8.1-1+b2) ...
