[2024-01-20T09:28:10+00:00] apt-get install qtsensors5-examples abi-compliance-checker
Reading package lists...
Building dependency tree...
Reading state information...
abi-compliance-checker is already the newest version (2.3-2).
The following packages were automatically installed and are no longer required:
  libavahi-client3 libavahi-common-data libavahi-common3 libcups2
  libdrm-amdgpu1 libdrm-nouveau2 libdrm-radeon1 libegl-dev libgl-dev libgl1
  libgl1-mesa-dri libgles-dev libgles1 libglx-dev libglx-mesa0 libglx0
  libllvm17 libpthread-stubs0-dev libqt5concurrent5 libqt5printsupport5
  libqt5scxml5 libqt5sql5 libqt5test5 libqt5xml5 libsensors-config libsensors5
  libvulkan-dev libvulkan1 libx11-dev libxau-dev libxcb-glx0 libxcb1-dev
  libxdmcp-dev libxext-dev libxfixes3 libxxf86vm1 qml-module-qtscxml qt5-qmake
  qt5-qmake-bin qtbase5-dev qtbase5-dev-tools qtchooser qtscxml5-examples
  x11proto-dev xorg-sgml-doctools xtrans-dev
Use 'apt autoremove' to remove them.
The following additional packages will be installed:
  libqt5qmlmodels5 libqt5quick5 libqt5sensors5
The following NEW packages will be installed:
  libqt5qmlmodels5 libqt5quick5 libqt5sensors5 qtsensors5-examples
0 upgraded, 4 newly installed, 0 to remove and 22 not upgraded.
Need to get 1842 kB of archives.
After this operation, 5893 kB of additional disk space will be used.
Get:1 http://deb.debian.org/debian unstable/main armhf libqt5qmlmodels5 armhf 5.15.10+dfsg-2 [164 kB]
Get:2 http://deb.debian.org/debian unstable/main armhf libqt5quick5 armhf 5.15.10+dfsg-2 [1374 kB]
Get:3 http://deb.debian.org/debian unstable/main armhf libqt5sensors5 armhf 5.15.10-2 [95.1 kB]
Get:4 http://deb.debian.org/debian unstable/main armhf qtsensors5-examples armhf 5.15.10-2 [209 kB]
debconf: delaying package configuration, since apt-utils is not installed
Fetched 1842 kB in 0s (5211 kB/s)
Selecting previously unselected package libqt5qmlmodels5:armhf.
(Reading database ... (Reading database ... 5%(Reading database ... 10%(Reading database ... 15%(Reading database ... 20%(Reading database ... 25%(Reading database ... 30%(Reading database ... 35%(Reading database ... 40%(Reading database ... 45%(Reading database ... 50%(Reading database ... 55%(Reading database ... 60%(Reading database ... 65%(Reading database ... 70%(Reading database ... 75%(Reading database ... 80%(Reading database ... 85%(Reading database ... 90%(Reading database ... 95%(Reading database ... 100%(Reading database ... 24650 files and directories currently installed.)
Preparing to unpack .../libqt5qmlmodels5_5.15.10+dfsg-2_armhf.deb ...
Unpacking libqt5qmlmodels5:armhf (5.15.10+dfsg-2) ...
Selecting previously unselected package libqt5quick5:armhf.
Preparing to unpack .../libqt5quick5_5.15.10+dfsg-2_armhf.deb ...
Unpacking libqt5quick5:armhf (5.15.10+dfsg-2) ...
Selecting previously unselected package libqt5sensors5:armhf.
Preparing to unpack .../libqt5sensors5_5.15.10-2_armhf.deb ...
Unpacking libqt5sensors5:armhf (5.15.10-2) ...
Selecting previously unselected package qtsensors5-examples:armhf.
Preparing to unpack .../qtsensors5-examples_5.15.10-2_armhf.deb ...
Unpacking qtsensors5-examples:armhf (5.15.10-2) ...
Setting up libqt5qmlmodels5:armhf (5.15.10+dfsg-2) ...
Setting up libqt5sensors5:armhf (5.15.10-2) ...
Setting up libqt5quick5:armhf (5.15.10+dfsg-2) ...
Setting up qtsensors5-examples:armhf (5.15.10-2) ...
Processing triggers for libc-bin (2.37-13) ...
Reading package lists...
Building dependency tree...
Reading state information...
The following packages will be REMOVED:
  libavahi-client3* libavahi-common-data* libavahi-common3* libcups2*
  libdrm-amdgpu1* libdrm-nouveau2* libdrm-radeon1* libegl-dev* libgl-dev*
  libgl1* libgl1-mesa-dri* libgles-dev* libgles1* libglx-dev* libglx-mesa0*
  libglx0* libllvm17* libpthread-stubs0-dev* libqt5concurrent5*
  libqt5printsupport5* libqt5scxml5* libqt5sql5* libqt5test5* libqt5xml5*
  libsensors-config* libsensors5* libvulkan-dev* libvulkan1* libx11-dev*
  libxau-dev* libxcb-glx0* libxcb1-dev* libxdmcp-dev* libxext-dev* libxfixes3*
  libxxf86vm1* qml-module-qtscxml* qt5-qmake* qt5-qmake-bin* qtbase5-dev*
  qtbase5-dev-tools* qtchooser* qtscxml5-examples* x11proto-dev*
  xorg-sgml-doctools* xtrans-dev*
0 upgraded, 0 newly installed, 46 to remove and 22 not upgraded.
After this operation, 194 MB disk space will be freed.
(Reading database ... (Reading database ... 5%(Reading database ... 10%(Reading database ... 15%(Reading database ... 20%(Reading database ... 25%(Reading database ... 30%(Reading database ... 35%(Reading database ... 40%(Reading database ... 45%(Reading database ... 50%(Reading database ... 55%(Reading database ... 60%(Reading database ... 65%(Reading database ... 70%(Reading database ... 75%(Reading database ... 80%(Reading database ... 85%(Reading database ... 90%(Reading database ... 95%(Reading database ... 100%(Reading database ... 24826 files and directories currently installed.)
Removing qtbase5-dev:armhf (5.15.10+dfsg-6) ...
Removing libqt5printsupport5:armhf (5.15.10+dfsg-6) ...
Removing libcups2:armhf (2.4.7-1+b1) ...
Removing libavahi-client3:armhf (0.8-13+b1) ...
Removing libavahi-common3:armhf (0.8-13+b1) ...
Removing libavahi-common-data:armhf (0.8-13+b1) ...
Removing libgles-dev:armhf (1.7.0-1) ...
Removing libegl-dev:armhf (1.7.0-1) ...
Removing libgl-dev:armhf (1.7.0-1) ...
Removing libgl1:armhf (1.7.0-1) ...
Removing libglx-dev:armhf (1.7.0-1) ...
Removing libglx0:armhf (1.7.0-1) ...
Removing libglx-mesa0:armhf (23.3.3-3) ...
Removing libgl1-mesa-dri:armhf (23.3.3-3) ...
Removing libdrm-amdgpu1:armhf (2.4.120-1) ...
Removing libdrm-nouveau2:armhf (2.4.120-1) ...
Removing libdrm-radeon1:armhf (2.4.120-1) ...
Removing libgles1:armhf (1.7.0-1) ...
Removing libllvm17:armhf (1:17.0.6-5) ...
Removing libxext-dev:armhf (2:1.3.4-1+b1) ...
Removing libx11-dev:armhf (2:1.8.7-1) ...
Removing libxcb1-dev:armhf (1.15-1) ...
Removing libpthread-stubs0-dev:armhf (0.4-1) ...
Removing libqt5concurrent5:armhf (5.15.10+dfsg-6) ...
Removing qtscxml5-examples:armhf (5.15.10-3) ...
Removing qml-module-qtscxml:armhf (5.15.10-3) ...
Removing libqt5scxml5:armhf (5.15.10-3) ...
Removing libqt5sql5:armhf (5.15.10+dfsg-6) ...
Removing libqt5test5:armhf (5.15.10+dfsg-6) ...
Removing libqt5xml5:armhf (5.15.10+dfsg-6) ...
Removing libsensors5:armhf (1:3.6.0-8) ...
Removing libsensors-config (1:3.6.0-8) ...
Removing libvulkan-dev:armhf (1.3.268.0-1) ...
Removing libvulkan1:armhf (1.3.268.0-1) ...
Removing libxau-dev:armhf (1:1.0.9-1) ...
Removing libxcb-glx0:armhf (1.15-1) ...
Removing libxdmcp-dev:armhf (1:1.1.2-3) ...
Removing libxfixes3:armhf (1:6.0.0-2) ...
Removing libxxf86vm1:armhf (1:1.1.4-1+b2) ...
Removing qt5-qmake:armhf (5.15.10+dfsg-6) ...
Removing qt5-qmake-bin (5.15.10+dfsg-6) ...
Removing qtbase5-dev-tools (5.15.10+dfsg-6) ...
Removing qtchooser (66-2) ...
Removing x11proto-dev (2023.2-1) ...
Removing xorg-sgml-doctools (1:1.11-1.1) ...
Removing xtrans-dev (1.4.0-1) ...
Processing triggers for libc-bin (2.37-13) ...
(Reading database ... (Reading database ... 5%(Reading database ... 10%(Reading database ... 15%(Reading database ... 20%(Reading database ... 25%(Reading database ... 30%(Reading database ... 35%(Reading database ... 40%(Reading database ... 45%(Reading database ... 50%(Reading database ... 55%(Reading database ... 60%(Reading database ... 65%(Reading database ... 70%(Reading database ... 75%(Reading database ... 80%(Reading database ... 85%(Reading database ... 90%(Reading database ... 95%(Reading database ... 100%(Reading database ... 21203 files and directories currently installed.)
Purging configuration files for libgl1-mesa-dri:armhf (23.3.3-3) ...
Purging configuration files for libsensors-config (1:3.6.0-8) ...
