[2024-01-09T21:07:57+00:00] apt-get install qt6-languageserver-private-dev qt6-base-dev abi-compliance-checker
Reading package lists...
Building dependency tree...
Reading state information...
qt6-base-dev is already the newest version (6.4.2+dfsg-20).
qt6-base-dev set to manually installed.
abi-compliance-checker is already the newest version (2.3-2).
The following NEW packages will be installed:
  qt6-languageserver-private-dev
0 upgraded, 1 newly installed, 0 to remove and 76 not upgraded.
Need to get 35.2 kB of archives.
After this operation, 302 kB of additional disk space will be used.
Get:1 http://deb.debian.org/debian unstable/main armhf qt6-languageserver-private-dev armhf 6.4.2-2 [35.2 kB]
debconf: delaying package configuration, since apt-utils is not installed
Fetched 35.2 kB in 0s (99.8 kB/s)
Selecting previously unselected package qt6-languageserver-private-dev:armhf.
(Reading database ... (Reading database ... 5%(Reading database ... 10%(Reading database ... 15%(Reading database ... 20%(Reading database ... 25%(Reading database ... 30%(Reading database ... 35%(Reading database ... 40%(Reading database ... 45%(Reading database ... 50%(Reading database ... 55%(Reading database ... 60%(Reading database ... 65%(Reading database ... 70%(Reading database ... 75%(Reading database ... 80%(Reading database ... 85%(Reading database ... 90%(Reading database ... 95%(Reading database ... 100%(Reading database ... 18716 files and directories currently installed.)
Preparing to unpack .../qt6-languageserver-private-dev_6.4.2-2_armhf.deb ...
Unpacking qt6-languageserver-private-dev:armhf (6.4.2-2) ...
Setting up qt6-languageserver-private-dev:armhf (6.4.2-2) ...
Reading package lists...
Building dependency tree...
Reading state information...
0 upgraded, 0 newly installed, 0 to remove and 76 not upgraded.
