[2024-01-06T16:11:51+00:00] apt-get install libcinnamon-control-center-dev abi-compliance-checker
Reading package lists...
Building dependency tree...
Reading state information...
abi-compliance-checker is already the newest version (2.3-2).
The following packages were automatically installed and are no longer required:
  libboost-dev libboost-filesystem1.83.0 libboost-regex1.83-dev
  libboost-regex1.83.0 libboost1.83-dev libcifti-dev libcifti0
  libglibmm-2.4-1v5 libglibmm-2.4-dev libsigc++-2.0-0v5 libsigc++-2.0-dev
  libxml++2.6-2v5 libxml++2.6-dev libxml2-dev
Use 'apt autoremove' to remove them.
The following additional packages will be installed:
  adwaita-icon-theme at-spi2-common dconf-gsettings-backend dconf-service
  fontconfig fontconfig-config fonts-dejavu-core fonts-dejavu-mono
  gir1.2-atk-1.0 gir1.2-atspi-2.0 gir1.2-cloudproviders-0.3.0
  gir1.2-freedesktop gir1.2-gdkpixbuf-2.0 gir1.2-glib-2.0 gir1.2-gtk-3.0
  gir1.2-harfbuzz-0.0 gir1.2-pango-1.0 gtk-update-icon-cache
  hicolor-icon-theme libatk-bridge2.0-0 libatk-bridge2.0-dev libatk1.0-0
  libatk1.0-dev libatspi2.0-0 libatspi2.0-dev libavahi-client3
  libavahi-common-data libavahi-common3 libbrotli-dev libbrotli1 libbz2-dev
  libcairo-gobject2 libcairo-script-interpreter2 libcairo2 libcairo2-dev
  libcinnamon-control-center1 libcloudproviders-dev libcloudproviders0
  libcolord2 libcups2 libdatrie-dev libdatrie1 libdbus-1-dev libdconf1
  libdeflate-dev libdeflate0 libdrm-amdgpu1 libdrm-common libdrm-nouveau2
  libdrm-radeon1 libdrm2 libedit2 libegl-dev libegl-mesa0 libegl1
  libegl1-mesa-dev libepoxy-dev libepoxy0 libfontconfig-dev libfontconfig1
  libfreetype-dev libfreetype6 libfribidi-dev libfribidi0 libgbm1
  libgdk-pixbuf-2.0-0 libgdk-pixbuf-2.0-dev libgdk-pixbuf2.0-bin
  libgdk-pixbuf2.0-common libgirepository-1.0-1 libgl-dev libgl1
  libgl1-mesa-dri libglapi-mesa libgles-dev libgles1 libgles2
  libglvnd-core-dev libglvnd-dev libglvnd0 libglx-dev libglx-mesa0 libglx0
  libgraphite2-3 libgraphite2-dev libgtk-3-0 libgtk-3-common libgtk-3-dev
  libharfbuzz-cairo0 libharfbuzz-dev libharfbuzz-gobject0 libharfbuzz-icu0
  libharfbuzz-subset0 libharfbuzz0b libice-dev libice6 libjbig-dev libjbig0
  libjpeg-dev libjpeg62-turbo libjpeg62-turbo-dev liblcms2-2 liblerc-dev
  liblerc4 libllvm17 liblzma-dev liblzo2-2 libopengl-dev libopengl0
  libpango-1.0-0 libpango1.0-dev libpangocairo-1.0-0 libpangoft2-1.0-0
  libpangoxft-1.0-0 libpixman-1-0 libpixman-1-dev libpng-dev libpng16-16
  libpthread-stubs0-dev libsensors-config libsensors5 libsharpyuv-dev
  libsharpyuv0 libsm-dev libsm6 libthai-data libthai-dev libthai0 libtiff-dev
  libtiff6 libtiffxx6 libvulkan1 libwayland-bin libwayland-client0
  libwayland-cursor0 libwayland-dev libwayland-egl1 libwayland-server0
  libwebp-dev libwebp7 libwebpdecoder3 libwebpdemux2 libwebpmux3 libx11-6
  libx11-data libx11-dev libx11-xcb1 libxau-dev libxau6 libxcb-dri2-0
  libxcb-dri3-0 libxcb-glx0 libxcb-present0 libxcb-randr0 libxcb-render0
  libxcb-render0-dev libxcb-shm0 libxcb-shm0-dev libxcb-sync1 libxcb-xfixes0
  libxcb1 libxcb1-dev libxcomposite-dev libxcomposite1 libxcursor-dev
  libxcursor1 libxdamage-dev libxdamage1 libxdmcp-dev libxdmcp6 libxext-dev
  libxext6 libxfixes-dev libxfixes3 libxft-dev libxft2 libxi-dev libxi6
  libxinerama-dev libxinerama1 libxkbcommon-dev libxkbcommon0 libxrandr-dev
  libxrandr2 libxrender-dev libxrender1 libxshmfence1 libxtst-dev libxtst6
  libxxf86vm1 libz3-4 libzstd-dev pango1.0-tools shared-mime-info
  wayland-protocols x11-common x11proto-dev xkb-data xorg-sgml-doctools
  xtrans-dev
Suggested packages:
  libcairo2-doc libcloudproviders-doc colord cups-common libdatrie-doc
  freetype2-doc libgraphite2-utils gvfs libgtk-3-doc libice-doc liblcms2-utils
  liblzma-doc libpango1.0-doc lm-sensors libsm-doc libthai-doc libwayland-doc
  libx11-doc libxcb-doc libxext-doc graphicsmagick
Recommended packages:
  librsvg2-common at-spi2-core bzip2-doc libgtk-3-bin libpng-tools
  mesa-vulkan-drivers | vulkan-icd
The following NEW packages will be installed:
  adwaita-icon-theme at-spi2-common dconf-gsettings-backend dconf-service
  fontconfig fontconfig-config fonts-dejavu-core fonts-dejavu-mono
  gir1.2-atk-1.0 gir1.2-atspi-2.0 gir1.2-cloudproviders-0.3.0
  gir1.2-freedesktop gir1.2-gdkpixbuf-2.0 gir1.2-glib-2.0 gir1.2-gtk-3.0
  gir1.2-harfbuzz-0.0 gir1.2-pango-1.0 gtk-update-icon-cache
  hicolor-icon-theme libatk-bridge2.0-0 libatk-bridge2.0-dev libatk1.0-0
  libatk1.0-dev libatspi2.0-0 libatspi2.0-dev libavahi-client3
  libavahi-common-data libavahi-common3 libbrotli-dev libbrotli1 libbz2-dev
  libcairo-gobject2 libcairo-script-interpreter2 libcairo2 libcairo2-dev
  libcinnamon-control-center-dev libcinnamon-control-center1
  libcloudproviders-dev libcloudproviders0 libcolord2 libcups2 libdatrie-dev
  libdatrie1 libdbus-1-dev libdconf1 libdeflate-dev libdeflate0 libdrm-amdgpu1
  libdrm-common libdrm-nouveau2 libdrm-radeon1 libdrm2 libedit2 libegl-dev
  libegl-mesa0 libegl1 libegl1-mesa-dev libepoxy-dev libepoxy0
  libfontconfig-dev libfontconfig1 libfreetype-dev libfreetype6 libfribidi-dev
  libfribidi0 libgbm1 libgdk-pixbuf-2.0-0 libgdk-pixbuf-2.0-dev
  libgdk-pixbuf2.0-bin libgdk-pixbuf2.0-common libgirepository-1.0-1 libgl-dev
  libgl1 libgl1-mesa-dri libglapi-mesa libgles-dev libgles1 libgles2
  libglvnd-core-dev libglvnd-dev libglvnd0 libglx-dev libglx-mesa0 libglx0
  libgraphite2-3 libgraphite2-dev libgtk-3-0 libgtk-3-common libgtk-3-dev
  libharfbuzz-cairo0 libharfbuzz-dev libharfbuzz-gobject0 libharfbuzz-icu0
  libharfbuzz-subset0 libharfbuzz0b libice-dev libice6 libjbig-dev libjbig0
  libjpeg-dev libjpeg62-turbo libjpeg62-turbo-dev liblcms2-2 liblerc-dev
  liblerc4 libllvm17 liblzma-dev liblzo2-2 libopengl-dev libopengl0
  libpango-1.0-0 libpango1.0-dev libpangocairo-1.0-0 libpangoft2-1.0-0
  libpangoxft-1.0-0 libpixman-1-0 libpixman-1-dev libpng-dev libpng16-16
  libpthread-stubs0-dev libsensors-config libsensors5 libsharpyuv-dev
  libsharpyuv0 libsm-dev libsm6 libthai-data libthai-dev libthai0 libtiff-dev
  libtiff6 libtiffxx6 libvulkan1 libwayland-bin libwayland-client0
  libwayland-cursor0 libwayland-dev libwayland-egl1 libwayland-server0
  libwebp-dev libwebp7 libwebpdecoder3 libwebpdemux2 libwebpmux3 libx11-6
  libx11-data libx11-dev libx11-xcb1 libxau-dev libxau6 libxcb-dri2-0
  libxcb-dri3-0 libxcb-glx0 libxcb-present0 libxcb-randr0 libxcb-render0
  libxcb-render0-dev libxcb-shm0 libxcb-shm0-dev libxcb-sync1 libxcb-xfixes0
  libxcb1 libxcb1-dev libxcomposite-dev libxcomposite1 libxcursor-dev
  libxcursor1 libxdamage-dev libxdamage1 libxdmcp-dev libxdmcp6 libxext-dev
  libxext6 libxfixes-dev libxfixes3 libxft-dev libxft2 libxi-dev libxi6
  libxinerama-dev libxinerama1 libxkbcommon-dev libxkbcommon0 libxrandr-dev
  libxrandr2 libxrender-dev libxrender1 libxshmfence1 libxtst-dev libxtst6
  libxxf86vm1 libz3-4 libzstd-dev pango1.0-tools shared-mime-info
  wayland-protocols x11-common x11proto-dev xkb-data xorg-sgml-doctools
  xtrans-dev
0 upgraded, 201 newly installed, 0 to remove and 15 not upgraded.
Need to get 78.5 MB of archives.
After this operation, 325 MB of additional disk space will be used.
Get:1 http://deb.debian.org/debian unstable/main armhf hicolor-icon-theme all 0.17-2 [11.4 kB]
Get:2 http://deb.debian.org/debian unstable/main armhf libgdk-pixbuf2.0-common all 2.42.10+dfsg-3 [307 kB]
Get:3 http://deb.debian.org/debian unstable/main armhf shared-mime-info armhf 2.4-1 [746 kB]
Get:4 http://deb.debian.org/debian unstable/main armhf libjpeg62-turbo armhf 1:2.1.5-2 [143 kB]
Get:5 http://deb.debian.org/debian unstable/main armhf libpng16-16 armhf 1.6.40-3 [260 kB]
Get:6 http://deb.debian.org/debian unstable/main armhf libdeflate0 armhf 1.18-1 [38.5 kB]
Get:7 http://deb.debian.org/debian unstable/main armhf libjbig0 armhf 2.1-6.1 [27.1 kB]
Get:8 http://deb.debian.org/debian unstable/main armhf liblerc4 armhf 4.0.0+ds-4 [137 kB]
Get:9 http://deb.debian.org/debian unstable/main armhf libsharpyuv0 armhf 1.3.2-0.3 [105 kB]
Get:10 http://deb.debian.org/debian unstable/main armhf libwebp7 armhf 1.3.2-0.3 [260 kB]
Get:11 http://deb.debian.org/debian unstable/main armhf libtiff6 armhf 4.5.1+git230720-3 [301 kB]
Get:12 http://deb.debian.org/debian unstable/main armhf libgdk-pixbuf-2.0-0 armhf 2.42.10+dfsg-3 [123 kB]
Get:13 http://deb.debian.org/debian unstable/main armhf gtk-update-icon-cache armhf 3.24.39-1 [44.4 kB]
Get:14 http://deb.debian.org/debian unstable/main armhf adwaita-icon-theme all 45.0-2 [739 kB]
Get:15 http://deb.debian.org/debian unstable/main armhf at-spi2-common all 2.50.0-1 [163 kB]
Get:16 http://deb.debian.org/debian unstable/main armhf libdconf1 armhf 0.40.0-4 [36.1 kB]
Get:17 http://deb.debian.org/debian unstable/main armhf dconf-service armhf 0.40.0-4 [27.6 kB]
Get:18 http://deb.debian.org/debian unstable/main armhf dconf-gsettings-backend armhf 0.40.0-4 [23.2 kB]
Get:19 http://deb.debian.org/debian unstable/main armhf libbrotli1 armhf 1.1.0-2+b1 [296 kB]
Get:20 http://deb.debian.org/debian unstable/main armhf libfreetype6 armhf 2.13.2+dfsg-1 [370 kB]
Get:21 http://deb.debian.org/debian unstable/main armhf fonts-dejavu-mono all 2.37-8 [489 kB]
Get:22 http://deb.debian.org/debian unstable/main armhf fonts-dejavu-core all 2.37-8 [840 kB]
Get:23 http://deb.debian.org/debian unstable/main armhf fontconfig-config armhf 2.14.2-6 [316 kB]
Get:24 http://deb.debian.org/debian unstable/main armhf libfontconfig1 armhf 2.14.2-6 [369 kB]
Get:25 http://deb.debian.org/debian unstable/main armhf fontconfig armhf 2.14.2-6 [461 kB]
Get:26 http://deb.debian.org/debian unstable/main armhf libgirepository-1.0-1 armhf 1.78.1-6 [94.8 kB]
Get:27 http://deb.debian.org/debian unstable/main armhf gir1.2-glib-2.0 armhf 1.78.1-6 [165 kB]
Get:28 http://deb.debian.org/debian unstable/main armhf libatk1.0-0 armhf 2.50.0-1+b1 [43.3 kB]
Get:29 http://deb.debian.org/debian unstable/main armhf gir1.2-atk-1.0 armhf 2.50.0-1+b1 [24.6 kB]
Get:30 http://deb.debian.org/debian unstable/main armhf libpixman-1-0 armhf 0.42.2-1 [465 kB]
Get:31 http://deb.debian.org/debian unstable/main armhf libxau6 armhf 1:1.0.9-1 [19.0 kB]
Get:32 http://deb.debian.org/debian unstable/main armhf libxdmcp6 armhf 1:1.1.2-3 [24.9 kB]
Get:33 http://deb.debian.org/debian unstable/main armhf libxcb1 armhf 1.15-1 [140 kB]
Get:34 http://deb.debian.org/debian unstable/main armhf libx11-data all 2:1.8.7-1 [328 kB]
Get:35 http://deb.debian.org/debian unstable/main armhf libx11-6 armhf 2:1.8.7-1 [735 kB]
Get:36 http://deb.debian.org/debian unstable/main armhf libxcb-render0 armhf 1.15-1 [114 kB]
Get:37 http://deb.debian.org/debian unstable/main armhf libxcb-shm0 armhf 1.15-1 [106 kB]
Get:38 http://deb.debian.org/debian unstable/main armhf libxext6 armhf 2:1.3.4-1+b1 [47.8 kB]
Get:39 http://deb.debian.org/debian unstable/main armhf libxrender1 armhf 1:0.9.10-1.1 [30.1 kB]
Get:40 http://deb.debian.org/debian unstable/main armhf libcairo2 armhf 1.18.0-1 [438 kB]
Get:41 http://deb.debian.org/debian unstable/main armhf libcairo-gobject2 armhf 1.18.0-1 [128 kB]
Get:42 http://deb.debian.org/debian unstable/main armhf gir1.2-freedesktop armhf 1.78.1-6 [41.7 kB]
Get:43 http://deb.debian.org/debian unstable/main armhf libxi6 armhf 2:1.8-1+b1 [78.6 kB]
Get:44 http://deb.debian.org/debian unstable/main armhf libatspi2.0-0 armhf 2.50.0-1+b1 [63.6 kB]
Get:45 http://deb.debian.org/debian unstable/main armhf gir1.2-atspi-2.0 armhf 2.50.0-1+b1 [21.7 kB]
Get:46 http://deb.debian.org/debian unstable/main armhf libcloudproviders0 armhf 0.3.5-1 [24.0 kB]
Get:47 http://deb.debian.org/debian unstable/main armhf gir1.2-cloudproviders-0.3.0 armhf 0.3.5-1 [6932 B]
Get:48 http://deb.debian.org/debian unstable/main armhf gir1.2-gdkpixbuf-2.0 armhf 2.42.10+dfsg-3 [13.8 kB]
Get:49 http://deb.debian.org/debian unstable/main armhf libgraphite2-3 armhf 1.3.14-2 [63.2 kB]
Get:50 http://deb.debian.org/debian unstable/main armhf libharfbuzz0b armhf 8.0.1-1 [2100 kB]
Get:51 http://deb.debian.org/debian unstable/main armhf gir1.2-harfbuzz-0.0 armhf 8.0.1-1 [1750 kB]
Get:52 http://deb.debian.org/debian unstable/main armhf libfribidi0 armhf 1.0.13-3 [69.2 kB]
Get:53 http://deb.debian.org/debian unstable/main armhf libthai-data all 0.1.29-2 [168 kB]
Get:54 http://deb.debian.org/debian unstable/main armhf libdatrie1 armhf 0.2.13-3 [34.4 kB]
Get:55 http://deb.debian.org/debian unstable/main armhf libthai0 armhf 0.1.29-2 [45.8 kB]
Get:56 http://deb.debian.org/debian unstable/main armhf libpango-1.0-0 armhf 1.51.0+ds-3 [191 kB]
Get:57 http://deb.debian.org/debian unstable/main armhf libpangoft2-1.0-0 armhf 1.51.0+ds-3 [40.7 kB]
Get:58 http://deb.debian.org/debian unstable/main armhf libpangocairo-1.0-0 armhf 1.51.0+ds-3 [30.8 kB]
Get:59 http://deb.debian.org/debian unstable/main armhf libxft2 armhf 2.3.6-1 [53.8 kB]
Get:60 http://deb.debian.org/debian unstable/main armhf libpangoxft-1.0-0 armhf 1.51.0+ds-3 [24.4 kB]
Get:61 http://deb.debian.org/debian unstable/main armhf gir1.2-pango-1.0 armhf 1.51.0+ds-3 [37.8 kB]
Get:62 http://deb.debian.org/debian unstable/main armhf libatk-bridge2.0-0 armhf 2.50.0-1+b1 [57.7 kB]
Get:63 http://deb.debian.org/debian unstable/main armhf liblcms2-2 armhf 2.14-2 [125 kB]
Get:64 http://deb.debian.org/debian unstable/main armhf libcolord2 armhf 1.4.6-5 [121 kB]
Get:65 http://deb.debian.org/debian unstable/main armhf libavahi-common-data armhf 0.8-13+b1 [111 kB]
Get:66 http://deb.debian.org/debian unstable/main armhf libavahi-common3 armhf 0.8-13+b1 [40.1 kB]
Get:67 http://deb.debian.org/debian unstable/main armhf libavahi-client3 armhf 0.8-13+b1 [43.4 kB]
Get:68 http://deb.debian.org/debian unstable/main armhf libcups2 armhf 2.4.7-1 [210 kB]
Get:69 http://deb.debian.org/debian unstable/main armhf libepoxy0 armhf 1.5.10-1 [164 kB]
Get:70 http://deb.debian.org/debian unstable/main armhf libwayland-client0 armhf 1.22.0-2.1 [20.0 kB]
Get:71 http://deb.debian.org/debian unstable/main armhf libwayland-cursor0 armhf 1.22.0-2.1 [9908 B]
Get:72 http://deb.debian.org/debian unstable/main armhf libwayland-egl1 armhf 1.22.0-2.1 [5124 B]
Get:73 http://deb.debian.org/debian unstable/main armhf libxcomposite1 armhf 1:0.4.5-1 [16.1 kB]
Get:74 http://deb.debian.org/debian unstable/main armhf libxfixes3 armhf 1:6.0.0-2 [21.1 kB]
Get:75 http://deb.debian.org/debian unstable/main armhf libxcursor1 armhf 1:1.2.1-1 [37.9 kB]
Get:76 http://deb.debian.org/debian unstable/main armhf libxdamage1 armhf 1:1.1.6-1 [14.6 kB]
Get:77 http://deb.debian.org/debian unstable/main armhf libxinerama1 armhf 2:1.1.4-3 [17.4 kB]
Get:78 http://deb.debian.org/debian unstable/main armhf xkb-data all 2.38-2 [782 kB]
Get:79 http://deb.debian.org/debian unstable/main armhf libxkbcommon0 armhf 1.6.0-1 [96.3 kB]
Get:80 http://deb.debian.org/debian unstable/main armhf libxrandr2 armhf 2:1.5.2-2+b1 [36.0 kB]
Get:81 http://deb.debian.org/debian unstable/main armhf libgtk-3-common all 3.24.39-1 [3906 kB]
Get:82 http://deb.debian.org/debian unstable/main armhf libgtk-3-0 armhf 3.24.39-1 [2345 kB]
Get:83 http://deb.debian.org/debian unstable/main armhf gir1.2-gtk-3.0 armhf 3.24.39-1 [221 kB]
Get:84 http://deb.debian.org/debian unstable/main armhf libatk1.0-dev armhf 2.50.0-1+b1 [103 kB]
Get:85 http://deb.debian.org/debian unstable/main armhf libdbus-1-dev armhf 1.14.10-3 [221 kB]
Get:86 http://deb.debian.org/debian unstable/main armhf x11-common all 1:7.7+23 [252 kB]
Get:87 http://deb.debian.org/debian unstable/main armhf libxtst6 armhf 2:1.2.3-1.1 [26.2 kB]
Get:88 http://deb.debian.org/debian unstable/main armhf xorg-sgml-doctools all 1:1.11-1.1 [22.1 kB]
Get:89 http://deb.debian.org/debian unstable/main armhf x11proto-dev all 2023.2-1 [598 kB]
Get:90 http://deb.debian.org/debian unstable/main armhf libxau-dev armhf 1:1.0.9-1 [22.4 kB]
Get:91 http://deb.debian.org/debian unstable/main armhf libxdmcp-dev armhf 1:1.1.2-3 [40.7 kB]
Get:92 http://deb.debian.org/debian unstable/main armhf xtrans-dev all 1.4.0-1 [98.7 kB]
Get:93 http://deb.debian.org/debian unstable/main armhf libpthread-stubs0-dev armhf 0.4-1 [5344 B]
Get:94 http://deb.debian.org/debian unstable/main armhf libxcb1-dev armhf 1.15-1 [179 kB]
Get:95 http://deb.debian.org/debian unstable/main armhf libx11-dev armhf 2:1.8.7-1 [816 kB]
Get:96 http://deb.debian.org/debian unstable/main armhf libxext-dev armhf 2:1.3.4-1+b1 [103 kB]
Get:97 http://deb.debian.org/debian unstable/main armhf libxfixes-dev armhf 1:6.0.0-2 [23.3 kB]
Get:98 http://deb.debian.org/debian unstable/main armhf libxi-dev armhf 2:1.8-1+b1 [239 kB]
Get:99 http://deb.debian.org/debian unstable/main armhf libxtst-dev armhf 2:1.2.3-1.1 [30.8 kB]
Get:100 http://deb.debian.org/debian unstable/main armhf libatspi2.0-dev armhf 2.50.0-1+b1 [79.1 kB]
Get:101 http://deb.debian.org/debian unstable/main armhf libatk-bridge2.0-dev armhf 2.50.0-1+b1 [9104 B]
Get:102 http://deb.debian.org/debian unstable/main armhf libbrotli-dev armhf 1.1.0-2+b1 [292 kB]
Get:103 http://deb.debian.org/debian unstable/main armhf libbz2-dev armhf 1.0.8-5+b1 [28.1 kB]
Get:104 http://deb.debian.org/debian unstable/main armhf liblzo2-2 armhf 2.10-2 [50.7 kB]
Get:105 http://deb.debian.org/debian unstable/main armhf libcairo-script-interpreter2 armhf 1.18.0-1 [49.2 kB]
Get:106 http://deb.debian.org/debian unstable/main armhf libpng-dev armhf 1.6.40-3 [343 kB]
Get:107 http://deb.debian.org/debian unstable/main armhf libfreetype-dev armhf 2.13.2+dfsg-1 [544 kB]
Get:108 http://deb.debian.org/debian unstable/main armhf libfontconfig-dev armhf 2.14.2-6 [393 kB]
Get:109 http://deb.debian.org/debian unstable/main armhf libpixman-1-dev armhf 0.42.2-1 [487 kB]
Get:110 http://deb.debian.org/debian unstable/main armhf libice6 armhf 2:1.0.10-1 [51.9 kB]
Get:111 http://deb.debian.org/debian unstable/main armhf libsm6 armhf 2:1.2.3-1 [33.0 kB]
Get:112 http://deb.debian.org/debian unstable/main armhf libice-dev armhf 2:1.0.10-1 [61.9 kB]
Get:113 http://deb.debian.org/debian unstable/main armhf libsm-dev armhf 2:1.2.3-1 [36.1 kB]
Get:114 http://deb.debian.org/debian unstable/main armhf libxcb-render0-dev armhf 1.15-1 [118 kB]
Get:115 http://deb.debian.org/debian unstable/main armhf libxcb-shm0-dev armhf 1.15-1 [107 kB]
Get:116 http://deb.debian.org/debian unstable/main armhf libxrender-dev armhf 1:0.9.10-1.1 [38.1 kB]
Get:117 http://deb.debian.org/debian unstable/main armhf libcairo2-dev armhf 1.18.0-1 [42.8 kB]
Get:118 http://deb.debian.org/debian unstable/main armhf libcinnamon-control-center1 armhf 5.8.2-1 [13.3 kB]
Get:119 http://deb.debian.org/debian unstable/main armhf libglvnd0 armhf 1.7.0-1 [52.3 kB]
Get:120 http://deb.debian.org/debian unstable/main armhf libdrm-common all 2.4.117-1 [7264 B]
Get:121 http://deb.debian.org/debian unstable/main armhf libdrm2 armhf 2.4.117-1 [33.1 kB]
Get:122 http://deb.debian.org/debian unstable/main armhf libwayland-server0 armhf 1.22.0-2.1 [26.1 kB]
Get:123 http://deb.debian.org/debian unstable/main armhf libxcb-randr0 armhf 1.15-1 [116 kB]
Get:124 http://deb.debian.org/debian unstable/main armhf libgbm1 armhf 23.3.2-2 [36.4 kB]
Get:125 http://deb.debian.org/debian unstable/main armhf libglapi-mesa armhf 23.3.2-2 [42.3 kB]
Get:126 http://deb.debian.org/debian unstable/main armhf libx11-xcb1 armhf 2:1.8.7-1 [231 kB]
Get:127 http://deb.debian.org/debian unstable/main armhf libxcb-dri2-0 armhf 1.15-1 [107 kB]
Get:128 http://deb.debian.org/debian unstable/main armhf libxcb-dri3-0 armhf 1.15-1 [107 kB]
Get:129 http://deb.debian.org/debian unstable/main armhf libxcb-present0 armhf 1.15-1 [105 kB]
Get:130 http://deb.debian.org/debian unstable/main armhf libxcb-sync1 armhf 1.15-1 [108 kB]
Get:131 http://deb.debian.org/debian unstable/main armhf libxcb-xfixes0 armhf 1.15-1 [110 kB]
Get:132 http://deb.debian.org/debian unstable/main armhf libxshmfence1 armhf 1.3-1 [8592 B]
Get:133 http://deb.debian.org/debian unstable/main armhf libegl-mesa0 armhf 23.3.2-2 [97.7 kB]
Get:134 http://deb.debian.org/debian unstable/main armhf libegl1 armhf 1.7.0-1 [28.7 kB]
Get:135 http://deb.debian.org/debian unstable/main armhf libxcb-glx0 armhf 1.15-1 [120 kB]
Get:136 http://deb.debian.org/debian unstable/main armhf libxxf86vm1 armhf 1:1.1.4-1+b2 [20.2 kB]
Get:137 http://deb.debian.org/debian unstable/main armhf libvulkan1 armhf 1.3.268.0-1 [107 kB]
Get:138 http://deb.debian.org/debian unstable/main armhf libdrm-amdgpu1 armhf 2.4.117-1 [19.6 kB]
Get:139 http://deb.debian.org/debian unstable/main armhf libdrm-nouveau2 armhf 2.4.117-1 [16.6 kB]
Get:140 http://deb.debian.org/debian unstable/main armhf libdrm-radeon1 armhf 2.4.117-1 [19.1 kB]
Get:141 http://deb.debian.org/debian unstable/main armhf libedit2 armhf 3.1-20230828-1 [76.8 kB]
Get:142 http://deb.debian.org/debian unstable/main armhf libz3-4 armhf 4.8.12-3.1 [6061 kB]
Get:143 http://deb.debian.org/debian unstable/main armhf libllvm17 armhf 1:17.0.6-3 [21.6 MB]
Get:144 http://deb.debian.org/debian unstable/main armhf libsensors-config all 1:3.6.0-8 [14.4 kB]
Get:145 http://deb.debian.org/debian unstable/main armhf libsensors5 armhf 1:3.6.0-8 [31.6 kB]
Get:146 http://deb.debian.org/debian unstable/main armhf libgl1-mesa-dri armhf 23.3.2-2 [6398 kB]
Get:147 http://deb.debian.org/debian unstable/main armhf libglx-mesa0 armhf 23.3.2-2 [129 kB]
Get:148 http://deb.debian.org/debian unstable/main armhf libglx0 armhf 1.7.0-1 [32.2 kB]
Get:149 http://deb.debian.org/debian unstable/main armhf libgl1 armhf 1.7.0-1 [90.8 kB]
Get:150 http://deb.debian.org/debian unstable/main armhf libglx-dev armhf 1.7.0-1 [15.5 kB]
Get:151 http://deb.debian.org/debian unstable/main armhf libgl-dev armhf 1.7.0-1 [100 kB]
Get:152 http://deb.debian.org/debian unstable/main armhf libegl-dev armhf 1.7.0-1 [19.2 kB]
Get:153 http://deb.debian.org/debian unstable/main armhf libglvnd-core-dev armhf 1.7.0-1 [13.1 kB]
Get:154 http://deb.debian.org/debian unstable/main armhf libgles1 armhf 1.7.0-1 [12.0 kB]
Get:155 http://deb.debian.org/debian unstable/main armhf libgles2 armhf 1.7.0-1 [17.4 kB]
Get:156 http://deb.debian.org/debian unstable/main armhf libgles-dev armhf 1.7.0-1 [50.5 kB]
Get:157 http://deb.debian.org/debian unstable/main armhf libopengl0 armhf 1.7.0-1 [31.9 kB]
Get:158 http://deb.debian.org/debian unstable/main armhf libopengl-dev armhf 1.7.0-1 [5104 B]
Get:159 http://deb.debian.org/debian unstable/main armhf libglvnd-dev armhf 1.7.0-1 [4868 B]
Get:160 http://deb.debian.org/debian unstable/main armhf libegl1-mesa-dev armhf 23.3.2-2 [20.2 kB]
Get:161 http://deb.debian.org/debian unstable/main armhf libepoxy-dev armhf 1.5.10-1 [128 kB]
Get:162 http://deb.debian.org/debian unstable/main armhf libfribidi-dev armhf 1.0.13-3 [109 kB]
Get:163 http://deb.debian.org/debian unstable/main armhf libgdk-pixbuf2.0-bin armhf 2.42.10+dfsg-3 [17.5 kB]
Get:164 http://deb.debian.org/debian unstable/main armhf libjpeg62-turbo-dev armhf 1:2.1.5-2 [260 kB]
Get:165 http://deb.debian.org/debian unstable/main armhf libjpeg-dev armhf 1:2.1.5-2 [71.8 kB]
Get:166 http://deb.debian.org/debian unstable/main armhf libjbig-dev armhf 2.1-6.1 [27.5 kB]
Get:167 http://deb.debian.org/debian unstable/main armhf liblzma-dev armhf 5.4.5-0.3 [281 kB]
Get:168 http://deb.debian.org/debian unstable/main armhf libzstd-dev armhf 1.5.5+dfsg2-2 [322 kB]
Get:169 http://deb.debian.org/debian unstable/main armhf libwebpdemux2 armhf 1.3.2-0.3 [106 kB]
Get:170 http://deb.debian.org/debian unstable/main armhf libwebpmux3 armhf 1.3.2-0.3 [116 kB]
Get:171 http://deb.debian.org/debian unstable/main armhf libwebpdecoder3 armhf 1.3.2-0.3 [176 kB]
Get:172 http://deb.debian.org/debian unstable/main armhf libsharpyuv-dev armhf 1.3.2-0.3 [108 kB]
Get:173 http://deb.debian.org/debian unstable/main armhf libwebp-dev armhf 1.3.2-0.3 [381 kB]
Get:174 http://deb.debian.org/debian unstable/main armhf libtiffxx6 armhf 4.5.1+git230720-3 [149 kB]
Get:175 http://deb.debian.org/debian unstable/main armhf libdeflate-dev armhf 1.18-1 [46.5 kB]
Get:176 http://deb.debian.org/debian unstable/main armhf liblerc-dev armhf 4.0.0+ds-4 [153 kB]
Get:177 http://deb.debian.org/debian unstable/main armhf libtiff-dev armhf 4.5.1+git230720-3 [440 kB]
Get:178 http://deb.debian.org/debian unstable/main armhf libgdk-pixbuf-2.0-dev armhf 2.42.10+dfsg-3 [52.1 kB]
Get:179 http://deb.debian.org/debian unstable/main armhf libharfbuzz-icu0 armhf 8.0.1-1 [1723 kB]
Get:180 http://deb.debian.org/debian unstable/main armhf libharfbuzz-gobject0 armhf 8.0.1-1 [1738 kB]
Get:181 http://deb.debian.org/debian unstable/main armhf libharfbuzz-subset0 armhf 8.0.1-1 [2068 kB]
Get:182 http://deb.debian.org/debian unstable/main armhf libharfbuzz-cairo0 armhf 8.0.1-1 [1744 kB]
Get:183 http://deb.debian.org/debian unstable/main armhf libgraphite2-dev armhf 1.3.14-2 [20.0 kB]
Get:184 http://deb.debian.org/debian unstable/main armhf libharfbuzz-dev armhf 8.0.1-1 [1852 kB]
Get:185 http://deb.debian.org/debian unstable/main armhf libdatrie-dev armhf 0.2.13-3 [15.2 kB]
Get:186 http://deb.debian.org/debian unstable/main armhf libthai-dev armhf 0.1.29-2 [21.5 kB]
Get:187 http://deb.debian.org/debian unstable/main armhf libxft-dev armhf 2.3.6-1 [73.2 kB]
Get:188 http://deb.debian.org/debian unstable/main armhf pango1.0-tools armhf 1.51.0+ds-3 [37.4 kB]
Get:189 http://deb.debian.org/debian unstable/main armhf libpango1.0-dev armhf 1.51.0+ds-3 [152 kB]
Get:190 http://deb.debian.org/debian unstable/main armhf libwayland-bin armhf 1.22.0-2.1 [17.7 kB]
Get:191 http://deb.debian.org/debian unstable/main armhf libwayland-dev armhf 1.22.0-2.1 [70.3 kB]
Get:192 http://deb.debian.org/debian unstable/main armhf libxcomposite-dev armhf 1:0.4.5-1 [19.8 kB]
Get:193 http://deb.debian.org/debian unstable/main armhf libxcursor-dev armhf 1:1.2.1-1 [49.3 kB]
Get:194 http://deb.debian.org/debian unstable/main armhf libxdamage-dev armhf 1:1.1.6-1 [14.5 kB]
Get:195 http://deb.debian.org/debian unstable/main armhf libxinerama-dev armhf 2:1.1.4-3 [19.8 kB]
Get:196 http://deb.debian.org/debian unstable/main armhf libxkbcommon-dev armhf 1.6.0-1 [52.6 kB]
Get:197 http://deb.debian.org/debian unstable/main armhf libxrandr-dev armhf 2:1.5.2-2+b1 [44.3 kB]
Get:198 http://deb.debian.org/debian unstable/main armhf wayland-protocols all 1.32-1 [79.1 kB]
Get:199 http://deb.debian.org/debian unstable/main armhf libcloudproviders-dev armhf 0.3.5-1 [17.1 kB]
Get:200 http://deb.debian.org/debian unstable/main armhf libgtk-3-dev armhf 3.24.39-1 [1119 kB]
Get:201 http://deb.debian.org/debian unstable/main armhf libcinnamon-control-center-dev armhf 5.8.2-1 [7428 B]
debconf: delaying package configuration, since apt-utils is not installed
Fetched 78.5 MB in 4s (21.2 MB/s)
Selecting previously unselected package hicolor-icon-theme.
(Reading database ... (Reading database ... 5%(Reading database ... 10%(Reading database ... 15%(Reading database ... 20%(Reading database ... 25%(Reading database ... 30%(Reading database ... 35%(Reading database ... 40%(Reading database ... 45%(Reading database ... 50%(Reading database ... 55%(Reading database ... 60%(Reading database ... 65%(Reading database ... 70%(Reading database ... 75%(Reading database ... 80%(Reading database ... 85%(Reading database ... 90%(Reading database ... 95%(Reading database ... 100%(Reading database ... 37507 files and directories currently installed.)
Preparing to unpack .../000-hicolor-icon-theme_0.17-2_all.deb ...
Unpacking hicolor-icon-theme (0.17-2) ...
Selecting previously unselected package libgdk-pixbuf2.0-common.
Preparing to unpack .../001-libgdk-pixbuf2.0-common_2.42.10+dfsg-3_all.deb ...
Unpacking libgdk-pixbuf2.0-common (2.42.10+dfsg-3) ...
Selecting previously unselected package shared-mime-info.
Preparing to unpack .../002-shared-mime-info_2.4-1_armhf.deb ...
Unpacking shared-mime-info (2.4-1) ...
Selecting previously unselected package libjpeg62-turbo:armhf.
Preparing to unpack .../003-libjpeg62-turbo_1%3a2.1.5-2_armhf.deb ...
Unpacking libjpeg62-turbo:armhf (1:2.1.5-2) ...
Selecting previously unselected package libpng16-16:armhf.
Preparing to unpack .../004-libpng16-16_1.6.40-3_armhf.deb ...
Unpacking libpng16-16:armhf (1.6.40-3) ...
Selecting previously unselected package libdeflate0:armhf.
Preparing to unpack .../005-libdeflate0_1.18-1_armhf.deb ...
Unpacking libdeflate0:armhf (1.18-1) ...
Selecting previously unselected package libjbig0:armhf.
Preparing to unpack .../006-libjbig0_2.1-6.1_armhf.deb ...
Unpacking libjbig0:armhf (2.1-6.1) ...
Selecting previously unselected package liblerc4:armhf.
Preparing to unpack .../007-liblerc4_4.0.0+ds-4_armhf.deb ...
Unpacking liblerc4:armhf (4.0.0+ds-4) ...
Selecting previously unselected package libsharpyuv0:armhf.
Preparing to unpack .../008-libsharpyuv0_1.3.2-0.3_armhf.deb ...
Unpacking libsharpyuv0:armhf (1.3.2-0.3) ...
Selecting previously unselected package libwebp7:armhf.
Preparing to unpack .../009-libwebp7_1.3.2-0.3_armhf.deb ...
Unpacking libwebp7:armhf (1.3.2-0.3) ...
Selecting previously unselected package libtiff6:armhf.
Preparing to unpack .../010-libtiff6_4.5.1+git230720-3_armhf.deb ...
Unpacking libtiff6:armhf (4.5.1+git230720-3) ...
Selecting previously unselected package libgdk-pixbuf-2.0-0:armhf.
Preparing to unpack .../011-libgdk-pixbuf-2.0-0_2.42.10+dfsg-3_armhf.deb ...
Unpacking libgdk-pixbuf-2.0-0:armhf (2.42.10+dfsg-3) ...
Selecting previously unselected package gtk-update-icon-cache.
Preparing to unpack .../012-gtk-update-icon-cache_3.24.39-1_armhf.deb ...
Unpacking gtk-update-icon-cache (3.24.39-1) ...
Selecting previously unselected package adwaita-icon-theme.
Preparing to unpack .../013-adwaita-icon-theme_45.0-2_all.deb ...
Unpacking adwaita-icon-theme (45.0-2) ...
Selecting previously unselected package at-spi2-common.
Preparing to unpack .../014-at-spi2-common_2.50.0-1_all.deb ...
Unpacking at-spi2-common (2.50.0-1) ...
Selecting previously unselected package libdconf1:armhf.
Preparing to unpack .../015-libdconf1_0.40.0-4_armhf.deb ...
Unpacking libdconf1:armhf (0.40.0-4) ...
Selecting previously unselected package dconf-service.
Preparing to unpack .../016-dconf-service_0.40.0-4_armhf.deb ...
Unpacking dconf-service (0.40.0-4) ...
Selecting previously unselected package dconf-gsettings-backend:armhf.
Preparing to unpack .../017-dconf-gsettings-backend_0.40.0-4_armhf.deb ...
Unpacking dconf-gsettings-backend:armhf (0.40.0-4) ...
Selecting previously unselected package libbrotli1:armhf.
Preparing to unpack .../018-libbrotli1_1.1.0-2+b1_armhf.deb ...
Unpacking libbrotli1:armhf (1.1.0-2+b1) ...
Selecting previously unselected package libfreetype6:armhf.
Preparing to unpack .../019-libfreetype6_2.13.2+dfsg-1_armhf.deb ...
Unpacking libfreetype6:armhf (2.13.2+dfsg-1) ...
Selecting previously unselected package fonts-dejavu-mono.
Preparing to unpack .../020-fonts-dejavu-mono_2.37-8_all.deb ...
Unpacking fonts-dejavu-mono (2.37-8) ...
Selecting previously unselected package fonts-dejavu-core.
Preparing to unpack .../021-fonts-dejavu-core_2.37-8_all.deb ...
Unpacking fonts-dejavu-core (2.37-8) ...
Selecting previously unselected package fontconfig-config.
Preparing to unpack .../022-fontconfig-config_2.14.2-6_armhf.deb ...
Unpacking fontconfig-config (2.14.2-6) ...
Selecting previously unselected package libfontconfig1:armhf.
Preparing to unpack .../023-libfontconfig1_2.14.2-6_armhf.deb ...
Unpacking libfontconfig1:armhf (2.14.2-6) ...
Selecting previously unselected package fontconfig.
Preparing to unpack .../024-fontconfig_2.14.2-6_armhf.deb ...
Unpacking fontconfig (2.14.2-6) ...
Selecting previously unselected package libgirepository-1.0-1:armhf.
Preparing to unpack .../025-libgirepository-1.0-1_1.78.1-6_armhf.deb ...
Unpacking libgirepository-1.0-1:armhf (1.78.1-6) ...
Selecting previously unselected package gir1.2-glib-2.0:armhf.
Preparing to unpack .../026-gir1.2-glib-2.0_1.78.1-6_armhf.deb ...
Unpacking gir1.2-glib-2.0:armhf (1.78.1-6) ...
Selecting previously unselected package libatk1.0-0:armhf.
Preparing to unpack .../027-libatk1.0-0_2.50.0-1+b1_armhf.deb ...
Unpacking libatk1.0-0:armhf (2.50.0-1+b1) ...
Selecting previously unselected package gir1.2-atk-1.0:armhf.
Preparing to unpack .../028-gir1.2-atk-1.0_2.50.0-1+b1_armhf.deb ...
Unpacking gir1.2-atk-1.0:armhf (2.50.0-1+b1) ...
Selecting previously unselected package libpixman-1-0:armhf.
Preparing to unpack .../029-libpixman-1-0_0.42.2-1_armhf.deb ...
Unpacking libpixman-1-0:armhf (0.42.2-1) ...
Selecting previously unselected package libxau6:armhf.
Preparing to unpack .../030-libxau6_1%3a1.0.9-1_armhf.deb ...
Unpacking libxau6:armhf (1:1.0.9-1) ...
Selecting previously unselected package libxdmcp6:armhf.
Preparing to unpack .../031-libxdmcp6_1%3a1.1.2-3_armhf.deb ...
Unpacking libxdmcp6:armhf (1:1.1.2-3) ...
Selecting previously unselected package libxcb1:armhf.
Preparing to unpack .../032-libxcb1_1.15-1_armhf.deb ...
Unpacking libxcb1:armhf (1.15-1) ...
Selecting previously unselected package libx11-data.
Preparing to unpack .../033-libx11-data_2%3a1.8.7-1_all.deb ...
Unpacking libx11-data (2:1.8.7-1) ...
Selecting previously unselected package libx11-6:armhf.
Preparing to unpack .../034-libx11-6_2%3a1.8.7-1_armhf.deb ...
Unpacking libx11-6:armhf (2:1.8.7-1) ...
Selecting previously unselected package libxcb-render0:armhf.
Preparing to unpack .../035-libxcb-render0_1.15-1_armhf.deb ...
Unpacking libxcb-render0:armhf (1.15-1) ...
Selecting previously unselected package libxcb-shm0:armhf.
Preparing to unpack .../036-libxcb-shm0_1.15-1_armhf.deb ...
Unpacking libxcb-shm0:armhf (1.15-1) ...
Selecting previously unselected package libxext6:armhf.
Preparing to unpack .../037-libxext6_2%3a1.3.4-1+b1_armhf.deb ...
Unpacking libxext6:armhf (2:1.3.4-1+b1) ...
Selecting previously unselected package libxrender1:armhf.
Preparing to unpack .../038-libxrender1_1%3a0.9.10-1.1_armhf.deb ...
Unpacking libxrender1:armhf (1:0.9.10-1.1) ...
Selecting previously unselected package libcairo2:armhf.
Preparing to unpack .../039-libcairo2_1.18.0-1_armhf.deb ...
Unpacking libcairo2:armhf (1.18.0-1) ...
Selecting previously unselected package libcairo-gobject2:armhf.
Preparing to unpack .../040-libcairo-gobject2_1.18.0-1_armhf.deb ...
Unpacking libcairo-gobject2:armhf (1.18.0-1) ...
Selecting previously unselected package gir1.2-freedesktop:armhf.
Preparing to unpack .../041-gir1.2-freedesktop_1.78.1-6_armhf.deb ...
Unpacking gir1.2-freedesktop:armhf (1.78.1-6) ...
Selecting previously unselected package libxi6:armhf.
Preparing to unpack .../042-libxi6_2%3a1.8-1+b1_armhf.deb ...
Unpacking libxi6:armhf (2:1.8-1+b1) ...
Selecting previously unselected package libatspi2.0-0:armhf.
Preparing to unpack .../043-libatspi2.0-0_2.50.0-1+b1_armhf.deb ...
Unpacking libatspi2.0-0:armhf (2.50.0-1+b1) ...
Selecting previously unselected package gir1.2-atspi-2.0:armhf.
Preparing to unpack .../044-gir1.2-atspi-2.0_2.50.0-1+b1_armhf.deb ...
Unpacking gir1.2-atspi-2.0:armhf (2.50.0-1+b1) ...
Selecting previously unselected package libcloudproviders0:armhf.
Preparing to unpack .../045-libcloudproviders0_0.3.5-1_armhf.deb ...
Unpacking libcloudproviders0:armhf (0.3.5-1) ...
Selecting previously unselected package gir1.2-cloudproviders-0.3.0:armhf.
Preparing to unpack .../046-gir1.2-cloudproviders-0.3.0_0.3.5-1_armhf.deb ...
Unpacking gir1.2-cloudproviders-0.3.0:armhf (0.3.5-1) ...
Selecting previously unselected package gir1.2-gdkpixbuf-2.0:armhf.
Preparing to unpack .../047-gir1.2-gdkpixbuf-2.0_2.42.10+dfsg-3_armhf.deb ...
Unpacking gir1.2-gdkpixbuf-2.0:armhf (2.42.10+dfsg-3) ...
Selecting previously unselected package libgraphite2-3:armhf.
Preparing to unpack .../048-libgraphite2-3_1.3.14-2_armhf.deb ...
Unpacking libgraphite2-3:armhf (1.3.14-2) ...
Selecting previously unselected package libharfbuzz0b:armhf.
Preparing to unpack .../049-libharfbuzz0b_8.0.1-1_armhf.deb ...
Unpacking libharfbuzz0b:armhf (8.0.1-1) ...
Selecting previously unselected package gir1.2-harfbuzz-0.0:armhf.
Preparing to unpack .../050-gir1.2-harfbuzz-0.0_8.0.1-1_armhf.deb ...
Unpacking gir1.2-harfbuzz-0.0:armhf (8.0.1-1) ...
Selecting previously unselected package libfribidi0:armhf.
Preparing to unpack .../051-libfribidi0_1.0.13-3_armhf.deb ...
Unpacking libfribidi0:armhf (1.0.13-3) ...
Selecting previously unselected package libthai-data.
Preparing to unpack .../052-libthai-data_0.1.29-2_all.deb ...
Unpacking libthai-data (0.1.29-2) ...
Selecting previously unselected package libdatrie1:armhf.
Preparing to unpack .../053-libdatrie1_0.2.13-3_armhf.deb ...
Unpacking libdatrie1:armhf (0.2.13-3) ...
Selecting previously unselected package libthai0:armhf.
Preparing to unpack .../054-libthai0_0.1.29-2_armhf.deb ...
Unpacking libthai0:armhf (0.1.29-2) ...
Selecting previously unselected package libpango-1.0-0:armhf.
Preparing to unpack .../055-libpango-1.0-0_1.51.0+ds-3_armhf.deb ...
Unpacking libpango-1.0-0:armhf (1.51.0+ds-3) ...
Selecting previously unselected package libpangoft2-1.0-0:armhf.
Preparing to unpack .../056-libpangoft2-1.0-0_1.51.0+ds-3_armhf.deb ...
Unpacking libpangoft2-1.0-0:armhf (1.51.0+ds-3) ...
Selecting previously unselected package libpangocairo-1.0-0:armhf.
Preparing to unpack .../057-libpangocairo-1.0-0_1.51.0+ds-3_armhf.deb ...
Unpacking libpangocairo-1.0-0:armhf (1.51.0+ds-3) ...
Selecting previously unselected package libxft2:armhf.
Preparing to unpack .../058-libxft2_2.3.6-1_armhf.deb ...
Unpacking libxft2:armhf (2.3.6-1) ...
Selecting previously unselected package libpangoxft-1.0-0:armhf.
Preparing to unpack .../059-libpangoxft-1.0-0_1.51.0+ds-3_armhf.deb ...
Unpacking libpangoxft-1.0-0:armhf (1.51.0+ds-3) ...
Selecting previously unselected package gir1.2-pango-1.0:armhf.
Preparing to unpack .../060-gir1.2-pango-1.0_1.51.0+ds-3_armhf.deb ...
Unpacking gir1.2-pango-1.0:armhf (1.51.0+ds-3) ...
Selecting previously unselected package libatk-bridge2.0-0:armhf.
Preparing to unpack .../061-libatk-bridge2.0-0_2.50.0-1+b1_armhf.deb ...
Unpacking libatk-bridge2.0-0:armhf (2.50.0-1+b1) ...
Selecting previously unselected package liblcms2-2:armhf.
Preparing to unpack .../062-liblcms2-2_2.14-2_armhf.deb ...
Unpacking liblcms2-2:armhf (2.14-2) ...
Selecting previously unselected package libcolord2:armhf.
Preparing to unpack .../063-libcolord2_1.4.6-5_armhf.deb ...
Unpacking libcolord2:armhf (1.4.6-5) ...
Selecting previously unselected package libavahi-common-data:armhf.
Preparing to unpack .../064-libavahi-common-data_0.8-13+b1_armhf.deb ...
Unpacking libavahi-common-data:armhf (0.8-13+b1) ...
Selecting previously unselected package libavahi-common3:armhf.
Preparing to unpack .../065-libavahi-common3_0.8-13+b1_armhf.deb ...
Unpacking libavahi-common3:armhf (0.8-13+b1) ...
Selecting previously unselected package libavahi-client3:armhf.
Preparing to unpack .../066-libavahi-client3_0.8-13+b1_armhf.deb ...
Unpacking libavahi-client3:armhf (0.8-13+b1) ...
Selecting previously unselected package libcups2:armhf.
Preparing to unpack .../067-libcups2_2.4.7-1_armhf.deb ...
Unpacking libcups2:armhf (2.4.7-1) ...
Selecting previously unselected package libepoxy0:armhf.
Preparing to unpack .../068-libepoxy0_1.5.10-1_armhf.deb ...
Unpacking libepoxy0:armhf (1.5.10-1) ...
Selecting previously unselected package libwayland-client0:armhf.
Preparing to unpack .../069-libwayland-client0_1.22.0-2.1_armhf.deb ...
Unpacking libwayland-client0:armhf (1.22.0-2.1) ...
Selecting previously unselected package libwayland-cursor0:armhf.
Preparing to unpack .../070-libwayland-cursor0_1.22.0-2.1_armhf.deb ...
Unpacking libwayland-cursor0:armhf (1.22.0-2.1) ...
Selecting previously unselected package libwayland-egl1:armhf.
Preparing to unpack .../071-libwayland-egl1_1.22.0-2.1_armhf.deb ...
Unpacking libwayland-egl1:armhf (1.22.0-2.1) ...
Selecting previously unselected package libxcomposite1:armhf.
Preparing to unpack .../072-libxcomposite1_1%3a0.4.5-1_armhf.deb ...
Unpacking libxcomposite1:armhf (1:0.4.5-1) ...
Selecting previously unselected package libxfixes3:armhf.
Preparing to unpack .../073-libxfixes3_1%3a6.0.0-2_armhf.deb ...
Unpacking libxfixes3:armhf (1:6.0.0-2) ...
Selecting previously unselected package libxcursor1:armhf.
Preparing to unpack .../074-libxcursor1_1%3a1.2.1-1_armhf.deb ...
Unpacking libxcursor1:armhf (1:1.2.1-1) ...
Selecting previously unselected package libxdamage1:armhf.
Preparing to unpack .../075-libxdamage1_1%3a1.1.6-1_armhf.deb ...
Unpacking libxdamage1:armhf (1:1.1.6-1) ...
Selecting previously unselected package libxinerama1:armhf.
Preparing to unpack .../076-libxinerama1_2%3a1.1.4-3_armhf.deb ...
Unpacking libxinerama1:armhf (2:1.1.4-3) ...
Selecting previously unselected package xkb-data.
Preparing to unpack .../077-xkb-data_2.38-2_all.deb ...
Unpacking xkb-data (2.38-2) ...
Selecting previously unselected package libxkbcommon0:armhf.
Preparing to unpack .../078-libxkbcommon0_1.6.0-1_armhf.deb ...
Unpacking libxkbcommon0:armhf (1.6.0-1) ...
Selecting previously unselected package libxrandr2:armhf.
Preparing to unpack .../079-libxrandr2_2%3a1.5.2-2+b1_armhf.deb ...
Unpacking libxrandr2:armhf (2:1.5.2-2+b1) ...
Selecting previously unselected package libgtk-3-common.
Preparing to unpack .../080-libgtk-3-common_3.24.39-1_all.deb ...
Unpacking libgtk-3-common (3.24.39-1) ...
Selecting previously unselected package libgtk-3-0:armhf.
Preparing to unpack .../081-libgtk-3-0_3.24.39-1_armhf.deb ...
Unpacking libgtk-3-0:armhf (3.24.39-1) ...
Selecting previously unselected package gir1.2-gtk-3.0:armhf.
Preparing to unpack .../082-gir1.2-gtk-3.0_3.24.39-1_armhf.deb ...
Unpacking gir1.2-gtk-3.0:armhf (3.24.39-1) ...
Selecting previously unselected package libatk1.0-dev:armhf.
Preparing to unpack .../083-libatk1.0-dev_2.50.0-1+b1_armhf.deb ...
Unpacking libatk1.0-dev:armhf (2.50.0-1+b1) ...
Selecting previously unselected package libdbus-1-dev:armhf.
Preparing to unpack .../084-libdbus-1-dev_1.14.10-3_armhf.deb ...
Unpacking libdbus-1-dev:armhf (1.14.10-3) ...
Selecting previously unselected package x11-common.
Preparing to unpack .../085-x11-common_1%3a7.7+23_all.deb ...
Unpacking x11-common (1:7.7+23) ...
Selecting previously unselected package libxtst6:armhf.
Preparing to unpack .../086-libxtst6_2%3a1.2.3-1.1_armhf.deb ...
Unpacking libxtst6:armhf (2:1.2.3-1.1) ...
Selecting previously unselected package xorg-sgml-doctools.
Preparing to unpack .../087-xorg-sgml-doctools_1%3a1.11-1.1_all.deb ...
Unpacking xorg-sgml-doctools (1:1.11-1.1) ...
Selecting previously unselected package x11proto-dev.
Preparing to unpack .../088-x11proto-dev_2023.2-1_all.deb ...
Unpacking x11proto-dev (2023.2-1) ...
Selecting previously unselected package libxau-dev:armhf.
Preparing to unpack .../089-libxau-dev_1%3a1.0.9-1_armhf.deb ...
Unpacking libxau-dev:armhf (1:1.0.9-1) ...
Selecting previously unselected package libxdmcp-dev:armhf.
Preparing to unpack .../090-libxdmcp-dev_1%3a1.1.2-3_armhf.deb ...
Unpacking libxdmcp-dev:armhf (1:1.1.2-3) ...
Selecting previously unselected package xtrans-dev.
Preparing to unpack .../091-xtrans-dev_1.4.0-1_all.deb ...
Unpacking xtrans-dev (1.4.0-1) ...
Selecting previously unselected package libpthread-stubs0-dev:armhf.
Preparing to unpack .../092-libpthread-stubs0-dev_0.4-1_armhf.deb ...
Unpacking libpthread-stubs0-dev:armhf (0.4-1) ...
Selecting previously unselected package libxcb1-dev:armhf.
Preparing to unpack .../093-libxcb1-dev_1.15-1_armhf.deb ...
Unpacking libxcb1-dev:armhf (1.15-1) ...
Selecting previously unselected package libx11-dev:armhf.
Preparing to unpack .../094-libx11-dev_2%3a1.8.7-1_armhf.deb ...
Unpacking libx11-dev:armhf (2:1.8.7-1) ...
Selecting previously unselected package libxext-dev:armhf.
Preparing to unpack .../095-libxext-dev_2%3a1.3.4-1+b1_armhf.deb ...
Unpacking libxext-dev:armhf (2:1.3.4-1+b1) ...
Selecting previously unselected package libxfixes-dev:armhf.
Preparing to unpack .../096-libxfixes-dev_1%3a6.0.0-2_armhf.deb ...
Unpacking libxfixes-dev:armhf (1:6.0.0-2) ...
Selecting previously unselected package libxi-dev:armhf.
Preparing to unpack .../097-libxi-dev_2%3a1.8-1+b1_armhf.deb ...
Unpacking libxi-dev:armhf (2:1.8-1+b1) ...
Selecting previously unselected package libxtst-dev:armhf.
Preparing to unpack .../098-libxtst-dev_2%3a1.2.3-1.1_armhf.deb ...
Unpacking libxtst-dev:armhf (2:1.2.3-1.1) ...
Selecting previously unselected package libatspi2.0-dev:armhf.
Preparing to unpack .../099-libatspi2.0-dev_2.50.0-1+b1_armhf.deb ...
Unpacking libatspi2.0-dev:armhf (2.50.0-1+b1) ...
Selecting previously unselected package libatk-bridge2.0-dev:armhf.
Preparing to unpack .../100-libatk-bridge2.0-dev_2.50.0-1+b1_armhf.deb ...
Unpacking libatk-bridge2.0-dev:armhf (2.50.0-1+b1) ...
Selecting previously unselected package libbrotli-dev:armhf.
Preparing to unpack .../101-libbrotli-dev_1.1.0-2+b1_armhf.deb ...
Unpacking libbrotli-dev:armhf (1.1.0-2+b1) ...
Selecting previously unselected package libbz2-dev:armhf.
Preparing to unpack .../102-libbz2-dev_1.0.8-5+b1_armhf.deb ...
Unpacking libbz2-dev:armhf (1.0.8-5+b1) ...
Selecting previously unselected package liblzo2-2:armhf.
Preparing to unpack .../103-liblzo2-2_2.10-2_armhf.deb ...
Unpacking liblzo2-2:armhf (2.10-2) ...
Selecting previously unselected package libcairo-script-interpreter2:armhf.
Preparing to unpack .../104-libcairo-script-interpreter2_1.18.0-1_armhf.deb ...
Unpacking libcairo-script-interpreter2:armhf (1.18.0-1) ...
Selecting previously unselected package libpng-dev:armhf.
Preparing to unpack .../105-libpng-dev_1.6.40-3_armhf.deb ...
Unpacking libpng-dev:armhf (1.6.40-3) ...
Selecting previously unselected package libfreetype-dev:armhf.
Preparing to unpack .../106-libfreetype-dev_2.13.2+dfsg-1_armhf.deb ...
Unpacking libfreetype-dev:armhf (2.13.2+dfsg-1) ...
Selecting previously unselected package libfontconfig-dev:armhf.
Preparing to unpack .../107-libfontconfig-dev_2.14.2-6_armhf.deb ...
Unpacking libfontconfig-dev:armhf (2.14.2-6) ...
Selecting previously unselected package libpixman-1-dev:armhf.
Preparing to unpack .../108-libpixman-1-dev_0.42.2-1_armhf.deb ...
Unpacking libpixman-1-dev:armhf (0.42.2-1) ...
Selecting previously unselected package libice6:armhf.
Preparing to unpack .../109-libice6_2%3a1.0.10-1_armhf.deb ...
Unpacking libice6:armhf (2:1.0.10-1) ...
Selecting previously unselected package libsm6:armhf.
Preparing to unpack .../110-libsm6_2%3a1.2.3-1_armhf.deb ...
Unpacking libsm6:armhf (2:1.2.3-1) ...
Selecting previously unselected package libice-dev:armhf.
Preparing to unpack .../111-libice-dev_2%3a1.0.10-1_armhf.deb ...
Unpacking libice-dev:armhf (2:1.0.10-1) ...
Selecting previously unselected package libsm-dev:armhf.
Preparing to unpack .../112-libsm-dev_2%3a1.2.3-1_armhf.deb ...
Unpacking libsm-dev:armhf (2:1.2.3-1) ...
Selecting previously unselected package libxcb-render0-dev:armhf.
Preparing to unpack .../113-libxcb-render0-dev_1.15-1_armhf.deb ...
Unpacking libxcb-render0-dev:armhf (1.15-1) ...
Selecting previously unselected package libxcb-shm0-dev:armhf.
Preparing to unpack .../114-libxcb-shm0-dev_1.15-1_armhf.deb ...
Unpacking libxcb-shm0-dev:armhf (1.15-1) ...
Selecting previously unselected package libxrender-dev:armhf.
Preparing to unpack .../115-libxrender-dev_1%3a0.9.10-1.1_armhf.deb ...
Unpacking libxrender-dev:armhf (1:0.9.10-1.1) ...
Selecting previously unselected package libcairo2-dev:armhf.
Preparing to unpack .../116-libcairo2-dev_1.18.0-1_armhf.deb ...
Unpacking libcairo2-dev:armhf (1.18.0-1) ...
Selecting previously unselected package libcinnamon-control-center1:armhf.
Preparing to unpack .../117-libcinnamon-control-center1_5.8.2-1_armhf.deb ...
Unpacking libcinnamon-control-center1:armhf (5.8.2-1) ...
Selecting previously unselected package libglvnd0:armhf.
Preparing to unpack .../118-libglvnd0_1.7.0-1_armhf.deb ...
Unpacking libglvnd0:armhf (1.7.0-1) ...
Selecting previously unselected package libdrm-common.
Preparing to unpack .../119-libdrm-common_2.4.117-1_all.deb ...
Unpacking libdrm-common (2.4.117-1) ...
Selecting previously unselected package libdrm2:armhf.
Preparing to unpack .../120-libdrm2_2.4.117-1_armhf.deb ...
Unpacking libdrm2:armhf (2.4.117-1) ...
Selecting previously unselected package libwayland-server0:armhf.
Preparing to unpack .../121-libwayland-server0_1.22.0-2.1_armhf.deb ...
Unpacking libwayland-server0:armhf (1.22.0-2.1) ...
Selecting previously unselected package libxcb-randr0:armhf.
Preparing to unpack .../122-libxcb-randr0_1.15-1_armhf.deb ...
Unpacking libxcb-randr0:armhf (1.15-1) ...
Selecting previously unselected package libgbm1:armhf.
Preparing to unpack .../123-libgbm1_23.3.2-2_armhf.deb ...
Unpacking libgbm1:armhf (23.3.2-2) ...
Selecting previously unselected package libglapi-mesa:armhf.
Preparing to unpack .../124-libglapi-mesa_23.3.2-2_armhf.deb ...
Unpacking libglapi-mesa:armhf (23.3.2-2) ...
Selecting previously unselected package libx11-xcb1:armhf.
Preparing to unpack .../125-libx11-xcb1_2%3a1.8.7-1_armhf.deb ...
Unpacking libx11-xcb1:armhf (2:1.8.7-1) ...
Selecting previously unselected package libxcb-dri2-0:armhf.
Preparing to unpack .../126-libxcb-dri2-0_1.15-1_armhf.deb ...
Unpacking libxcb-dri2-0:armhf (1.15-1) ...
Selecting previously unselected package libxcb-dri3-0:armhf.
Preparing to unpack .../127-libxcb-dri3-0_1.15-1_armhf.deb ...
Unpacking libxcb-dri3-0:armhf (1.15-1) ...
Selecting previously unselected package libxcb-present0:armhf.
Preparing to unpack .../128-libxcb-present0_1.15-1_armhf.deb ...
Unpacking libxcb-present0:armhf (1.15-1) ...
Selecting previously unselected package libxcb-sync1:armhf.
Preparing to unpack .../129-libxcb-sync1_1.15-1_armhf.deb ...
Unpacking libxcb-sync1:armhf (1.15-1) ...
Selecting previously unselected package libxcb-xfixes0:armhf.
Preparing to unpack .../130-libxcb-xfixes0_1.15-1_armhf.deb ...
Unpacking libxcb-xfixes0:armhf (1.15-1) ...
Selecting previously unselected package libxshmfence1:armhf.
Preparing to unpack .../131-libxshmfence1_1.3-1_armhf.deb ...
Unpacking libxshmfence1:armhf (1.3-1) ...
Selecting previously unselected package libegl-mesa0:armhf.
Preparing to unpack .../132-libegl-mesa0_23.3.2-2_armhf.deb ...
Unpacking libegl-mesa0:armhf (23.3.2-2) ...
Selecting previously unselected package libegl1:armhf.
Preparing to unpack .../133-libegl1_1.7.0-1_armhf.deb ...
Unpacking libegl1:armhf (1.7.0-1) ...
Selecting previously unselected package libxcb-glx0:armhf.
Preparing to unpack .../134-libxcb-glx0_1.15-1_armhf.deb ...
Unpacking libxcb-glx0:armhf (1.15-1) ...
Selecting previously unselected package libxxf86vm1:armhf.
Preparing to unpack .../135-libxxf86vm1_1%3a1.1.4-1+b2_armhf.deb ...
Unpacking libxxf86vm1:armhf (1:1.1.4-1+b2) ...
Selecting previously unselected package libvulkan1:armhf.
Preparing to unpack .../136-libvulkan1_1.3.268.0-1_armhf.deb ...
Unpacking libvulkan1:armhf (1.3.268.0-1) ...
Selecting previously unselected package libdrm-amdgpu1:armhf.
Preparing to unpack .../137-libdrm-amdgpu1_2.4.117-1_armhf.deb ...
Unpacking libdrm-amdgpu1:armhf (2.4.117-1) ...
Selecting previously unselected package libdrm-nouveau2:armhf.
Preparing to unpack .../138-libdrm-nouveau2_2.4.117-1_armhf.deb ...
Unpacking libdrm-nouveau2:armhf (2.4.117-1) ...
Selecting previously unselected package libdrm-radeon1:armhf.
Preparing to unpack .../139-libdrm-radeon1_2.4.117-1_armhf.deb ...
Unpacking libdrm-radeon1:armhf (2.4.117-1) ...
Selecting previously unselected package libedit2:armhf.
Preparing to unpack .../140-libedit2_3.1-20230828-1_armhf.deb ...
Unpacking libedit2:armhf (3.1-20230828-1) ...
Selecting previously unselected package libz3-4:armhf.
Preparing to unpack .../141-libz3-4_4.8.12-3.1_armhf.deb ...
Unpacking libz3-4:armhf (4.8.12-3.1) ...
Selecting previously unselected package libllvm17:armhf.
Preparing to unpack .../142-libllvm17_1%3a17.0.6-3_armhf.deb ...
Unpacking libllvm17:armhf (1:17.0.6-3) ...
Selecting previously unselected package libsensors-config.
Preparing to unpack .../143-libsensors-config_1%3a3.6.0-8_all.deb ...
Unpacking libsensors-config (1:3.6.0-8) ...
Selecting previously unselected package libsensors5:armhf.
Preparing to unpack .../144-libsensors5_1%3a3.6.0-8_armhf.deb ...
Unpacking libsensors5:armhf (1:3.6.0-8) ...
Selecting previously unselected package libgl1-mesa-dri:armhf.
Preparing to unpack .../145-libgl1-mesa-dri_23.3.2-2_armhf.deb ...
Unpacking libgl1-mesa-dri:armhf (23.3.2-2) ...
Selecting previously unselected package libglx-mesa0:armhf.
Preparing to unpack .../146-libglx-mesa0_23.3.2-2_armhf.deb ...
Unpacking libglx-mesa0:armhf (23.3.2-2) ...
Selecting previously unselected package libglx0:armhf.
Preparing to unpack .../147-libglx0_1.7.0-1_armhf.deb ...
Unpacking libglx0:armhf (1.7.0-1) ...
Selecting previously unselected package libgl1:armhf.
Preparing to unpack .../148-libgl1_1.7.0-1_armhf.deb ...
Unpacking libgl1:armhf (1.7.0-1) ...
Selecting previously unselected package libglx-dev:armhf.
Preparing to unpack .../149-libglx-dev_1.7.0-1_armhf.deb ...
Unpacking libglx-dev:armhf (1.7.0-1) ...
Selecting previously unselected package libgl-dev:armhf.
Preparing to unpack .../150-libgl-dev_1.7.0-1_armhf.deb ...
Unpacking libgl-dev:armhf (1.7.0-1) ...
Selecting previously unselected package libegl-dev:armhf.
Preparing to unpack .../151-libegl-dev_1.7.0-1_armhf.deb ...
Unpacking libegl-dev:armhf (1.7.0-1) ...
Selecting previously unselected package libglvnd-core-dev:armhf.
Preparing to unpack .../152-libglvnd-core-dev_1.7.0-1_armhf.deb ...
Unpacking libglvnd-core-dev:armhf (1.7.0-1) ...
Selecting previously unselected package libgles1:armhf.
Preparing to unpack .../153-libgles1_1.7.0-1_armhf.deb ...
Unpacking libgles1:armhf (1.7.0-1) ...
Selecting previously unselected package libgles2:armhf.
Preparing to unpack .../154-libgles2_1.7.0-1_armhf.deb ...
Unpacking libgles2:armhf (1.7.0-1) ...
Selecting previously unselected package libgles-dev:armhf.
Preparing to unpack .../155-libgles-dev_1.7.0-1_armhf.deb ...
Unpacking libgles-dev:armhf (1.7.0-1) ...
Selecting previously unselected package libopengl0:armhf.
Preparing to unpack .../156-libopengl0_1.7.0-1_armhf.deb ...
Unpacking libopengl0:armhf (1.7.0-1) ...
Selecting previously unselected package libopengl-dev:armhf.
Preparing to unpack .../157-libopengl-dev_1.7.0-1_armhf.deb ...
Unpacking libopengl-dev:armhf (1.7.0-1) ...
Selecting previously unselected package libglvnd-dev:armhf.
Preparing to unpack .../158-libglvnd-dev_1.7.0-1_armhf.deb ...
Unpacking libglvnd-dev:armhf (1.7.0-1) ...
Selecting previously unselected package libegl1-mesa-dev:armhf.
Preparing to unpack .../159-libegl1-mesa-dev_23.3.2-2_armhf.deb ...
Unpacking libegl1-mesa-dev:armhf (23.3.2-2) ...
Selecting previously unselected package libepoxy-dev:armhf.
Preparing to unpack .../160-libepoxy-dev_1.5.10-1_armhf.deb ...
Unpacking libepoxy-dev:armhf (1.5.10-1) ...
Selecting previously unselected package libfribidi-dev:armhf.
Preparing to unpack .../161-libfribidi-dev_1.0.13-3_armhf.deb ...
Unpacking libfribidi-dev:armhf (1.0.13-3) ...
Selecting previously unselected package libgdk-pixbuf2.0-bin.
Preparing to unpack .../162-libgdk-pixbuf2.0-bin_2.42.10+dfsg-3_armhf.deb ...
Unpacking libgdk-pixbuf2.0-bin (2.42.10+dfsg-3) ...
Selecting previously unselected package libjpeg62-turbo-dev:armhf.
Preparing to unpack .../163-libjpeg62-turbo-dev_1%3a2.1.5-2_armhf.deb ...
Unpacking libjpeg62-turbo-dev:armhf (1:2.1.5-2) ...
Selecting previously unselected package libjpeg-dev:armhf.
Preparing to unpack .../164-libjpeg-dev_1%3a2.1.5-2_armhf.deb ...
Unpacking libjpeg-dev:armhf (1:2.1.5-2) ...
Selecting previously unselected package libjbig-dev:armhf.
Preparing to unpack .../165-libjbig-dev_2.1-6.1_armhf.deb ...
Unpacking libjbig-dev:armhf (2.1-6.1) ...
Selecting previously unselected package liblzma-dev:armhf.
Preparing to unpack .../166-liblzma-dev_5.4.5-0.3_armhf.deb ...
Unpacking liblzma-dev:armhf (5.4.5-0.3) ...
Selecting previously unselected package libzstd-dev:armhf.
Preparing to unpack .../167-libzstd-dev_1.5.5+dfsg2-2_armhf.deb ...
Unpacking libzstd-dev:armhf (1.5.5+dfsg2-2) ...
Selecting previously unselected package libwebpdemux2:armhf.
Preparing to unpack .../168-libwebpdemux2_1.3.2-0.3_armhf.deb ...
Unpacking libwebpdemux2:armhf (1.3.2-0.3) ...
Selecting previously unselected package libwebpmux3:armhf.
Preparing to unpack .../169-libwebpmux3_1.3.2-0.3_armhf.deb ...
Unpacking libwebpmux3:armhf (1.3.2-0.3) ...
Selecting previously unselected package libwebpdecoder3:armhf.
Preparing to unpack .../170-libwebpdecoder3_1.3.2-0.3_armhf.deb ...
Unpacking libwebpdecoder3:armhf (1.3.2-0.3) ...
Selecting previously unselected package libsharpyuv-dev:armhf.
Preparing to unpack .../171-libsharpyuv-dev_1.3.2-0.3_armhf.deb ...
Unpacking libsharpyuv-dev:armhf (1.3.2-0.3) ...
Selecting previously unselected package libwebp-dev:armhf.
Preparing to unpack .../172-libwebp-dev_1.3.2-0.3_armhf.deb ...
Unpacking libwebp-dev:armhf (1.3.2-0.3) ...
Selecting previously unselected package libtiffxx6:armhf.
Preparing to unpack .../173-libtiffxx6_4.5.1+git230720-3_armhf.deb ...
Unpacking libtiffxx6:armhf (4.5.1+git230720-3) ...
Selecting previously unselected package libdeflate-dev:armhf.
Preparing to unpack .../174-libdeflate-dev_1.18-1_armhf.deb ...
Unpacking libdeflate-dev:armhf (1.18-1) ...
Selecting previously unselected package liblerc-dev:armhf.
Preparing to unpack .../175-liblerc-dev_4.0.0+ds-4_armhf.deb ...
Unpacking liblerc-dev:armhf (4.0.0+ds-4) ...
Selecting previously unselected package libtiff-dev:armhf.
Preparing to unpack .../176-libtiff-dev_4.5.1+git230720-3_armhf.deb ...
Unpacking libtiff-dev:armhf (4.5.1+git230720-3) ...
Selecting previously unselected package libgdk-pixbuf-2.0-dev:armhf.
Preparing to unpack .../177-libgdk-pixbuf-2.0-dev_2.42.10+dfsg-3_armhf.deb ...
Unpacking libgdk-pixbuf-2.0-dev:armhf (2.42.10+dfsg-3) ...
Selecting previously unselected package libharfbuzz-icu0:armhf.
Preparing to unpack .../178-libharfbuzz-icu0_8.0.1-1_armhf.deb ...
Unpacking libharfbuzz-icu0:armhf (8.0.1-1) ...
Selecting previously unselected package libharfbuzz-gobject0:armhf.
Preparing to unpack .../179-libharfbuzz-gobject0_8.0.1-1_armhf.deb ...
Unpacking libharfbuzz-gobject0:armhf (8.0.1-1) ...
Selecting previously unselected package libharfbuzz-subset0:armhf.
Preparing to unpack .../180-libharfbuzz-subset0_8.0.1-1_armhf.deb ...
Unpacking libharfbuzz-subset0:armhf (8.0.1-1) ...
Selecting previously unselected package libharfbuzz-cairo0:armhf.
Preparing to unpack .../181-libharfbuzz-cairo0_8.0.1-1_armhf.deb ...
Unpacking libharfbuzz-cairo0:armhf (8.0.1-1) ...
Selecting previously unselected package libgraphite2-dev:armhf.
Preparing to unpack .../182-libgraphite2-dev_1.3.14-2_armhf.deb ...
Unpacking libgraphite2-dev:armhf (1.3.14-2) ...
Selecting previously unselected package libharfbuzz-dev:armhf.
Preparing to unpack .../183-libharfbuzz-dev_8.0.1-1_armhf.deb ...
Unpacking libharfbuzz-dev:armhf (8.0.1-1) ...
Selecting previously unselected package libdatrie-dev:armhf.
Preparing to unpack .../184-libdatrie-dev_0.2.13-3_armhf.deb ...
Unpacking libdatrie-dev:armhf (0.2.13-3) ...
Selecting previously unselected package libthai-dev:armhf.
Preparing to unpack .../185-libthai-dev_0.1.29-2_armhf.deb ...
Unpacking libthai-dev:armhf (0.1.29-2) ...
Selecting previously unselected package libxft-dev:armhf.
Preparing to unpack .../186-libxft-dev_2.3.6-1_armhf.deb ...
Unpacking libxft-dev:armhf (2.3.6-1) ...
Selecting previously unselected package pango1.0-tools.
Preparing to unpack .../187-pango1.0-tools_1.51.0+ds-3_armhf.deb ...
Unpacking pango1.0-tools (1.51.0+ds-3) ...
Selecting previously unselected package libpango1.0-dev:armhf.
Preparing to unpack .../188-libpango1.0-dev_1.51.0+ds-3_armhf.deb ...
Unpacking libpango1.0-dev:armhf (1.51.0+ds-3) ...
Selecting previously unselected package libwayland-bin.
Preparing to unpack .../189-libwayland-bin_1.22.0-2.1_armhf.deb ...
Unpacking libwayland-bin (1.22.0-2.1) ...
Selecting previously unselected package libwayland-dev:armhf.
Preparing to unpack .../190-libwayland-dev_1.22.0-2.1_armhf.deb ...
Unpacking libwayland-dev:armhf (1.22.0-2.1) ...
Selecting previously unselected package libxcomposite-dev:armhf.
Preparing to unpack .../191-libxcomposite-dev_1%3a0.4.5-1_armhf.deb ...
Unpacking libxcomposite-dev:armhf (1:0.4.5-1) ...
Selecting previously unselected package libxcursor-dev:armhf.
Preparing to unpack .../192-libxcursor-dev_1%3a1.2.1-1_armhf.deb ...
Unpacking libxcursor-dev:armhf (1:1.2.1-1) ...
Selecting previously unselected package libxdamage-dev:armhf.
Preparing to unpack .../193-libxdamage-dev_1%3a1.1.6-1_armhf.deb ...
Unpacking libxdamage-dev:armhf (1:1.1.6-1) ...
Selecting previously unselected package libxinerama-dev:armhf.
Preparing to unpack .../194-libxinerama-dev_2%3a1.1.4-3_armhf.deb ...
Unpacking libxinerama-dev:armhf (2:1.1.4-3) ...
Selecting previously unselected package libxkbcommon-dev:armhf.
Preparing to unpack .../195-libxkbcommon-dev_1.6.0-1_armhf.deb ...
Unpacking libxkbcommon-dev:armhf (1.6.0-1) ...
Selecting previously unselected package libxrandr-dev:armhf.
Preparing to unpack .../196-libxrandr-dev_2%3a1.5.2-2+b1_armhf.deb ...
Unpacking libxrandr-dev:armhf (2:1.5.2-2+b1) ...
Selecting previously unselected package wayland-protocols.
Preparing to unpack .../197-wayland-protocols_1.32-1_all.deb ...
Unpacking wayland-protocols (1.32-1) ...
Selecting previously unselected package libcloudproviders-dev:armhf.
Preparing to unpack .../198-libcloudproviders-dev_0.3.5-1_armhf.deb ...
Unpacking libcloudproviders-dev:armhf (0.3.5-1) ...
Selecting previously unselected package libgtk-3-dev:armhf.
Preparing to unpack .../199-libgtk-3-dev_3.24.39-1_armhf.deb ...
Unpacking libgtk-3-dev:armhf (3.24.39-1) ...
Selecting previously unselected package libcinnamon-control-center-dev:armhf.
Preparing to unpack .../200-libcinnamon-control-center-dev_5.8.2-1_armhf.deb ...
Unpacking libcinnamon-control-center-dev:armhf (5.8.2-1) ...
Setting up libgraphite2-3:armhf (1.3.14-2) ...
Setting up liblcms2-2:armhf (2.14-2) ...
Setting up libpixman-1-0:armhf (0.42.2-1) ...
Setting up libsharpyuv0:armhf (1.3.2-0.3) ...
Setting up libwayland-server0:armhf (1.22.0-2.1) ...
Setting up libxau6:armhf (1:1.0.9-1) ...
Setting up libxdmcp6:armhf (1:1.1.2-3) ...
Setting up libxcb1:armhf (1.15-1) ...
Setting up libpixman-1-dev:armhf (0.42.2-1) ...
Setting up libxcb-xfixes0:armhf (1.15-1) ...
Setting up liblerc4:armhf (4.0.0+ds-4) ...
Setting up libzstd-dev:armhf (1.5.5+dfsg2-2) ...
Setting up libglvnd-core-dev:armhf (1.7.0-1) ...
Setting up hicolor-icon-theme (0.17-2) ...
Setting up libdatrie1:armhf (0.2.13-3) ...
Setting up libxcb-render0:armhf (1.15-1) ...
Setting up libglvnd0:armhf (1.7.0-1) ...
Setting up libxcb-glx0:armhf (1.15-1) ...
Setting up libbrotli1:armhf (1.1.0-2+b1) ...
Setting up libedit2:armhf (3.1-20230828-1) ...
Setting up libgdk-pixbuf2.0-common (2.42.10+dfsg-3) ...
Setting up x11-common (1:7.7+23) ...
invoke-rc.d: could not determine current runlevel
Setting up libsensors-config (1:3.6.0-8) ...
Setting up libdeflate0:armhf (1.18-1) ...
Setting up libcloudproviders0:armhf (0.3.5-1) ...
Setting up libwebpdecoder3:armhf (1.3.2-0.3) ...
Setting up xkb-data (2.38-2) ...
Setting up liblzo2-2:armhf (2.10-2) ...
Setting up libxcb-shm0:armhf (1.15-1) ...
Setting up libpthread-stubs0-dev:armhf (0.4-1) ...
Setting up libjbig0:armhf (2.1-6.1) ...
Setting up libcolord2:armhf (1.4.6-5) ...
Setting up libopengl0:armhf (1.7.0-1) ...
Setting up libxcb-present0:armhf (1.15-1) ...
Setting up libdconf1:armhf (0.40.0-4) ...
Setting up xtrans-dev (1.4.0-1) ...
Setting up libwayland-bin (1.22.0-2.1) ...
Setting up libgraphite2-dev:armhf (1.3.14-2) ...
Setting up libz3-4:armhf (4.8.12-3.1) ...
Setting up libgles2:armhf (1.7.0-1) ...
Setting up libjpeg62-turbo:armhf (1:2.1.5-2) ...
Setting up libdbus-1-dev:armhf (1.14.10-3) ...
Setting up libx11-data (2:1.8.7-1) ...
Setting up libjpeg62-turbo-dev:armhf (1:2.1.5-2) ...
Setting up libepoxy0:armhf (1.5.10-1) ...
Setting up libxcb-sync1:armhf (1.15-1) ...
Setting up libavahi-common-data:armhf (0.8-13+b1) ...
Setting up libgles1:armhf (1.7.0-1) ...
Setting up libfribidi0:armhf (1.0.13-3) ...
Setting up shared-mime-info (2.4-1) ...
Setting up fonts-dejavu-mono (2.37-8) ...
Setting up libpng16-16:armhf (1.6.40-3) ...
Setting up fonts-dejavu-core (2.37-8) ...
Setting up libsensors5:armhf (1:3.6.0-8) ...
Setting up liblerc-dev:armhf (4.0.0+ds-4) ...
Setting up libglapi-mesa:armhf (23.3.2-2) ...
Setting up libvulkan1:armhf (1.3.268.0-1) ...
Setting up libwebp7:armhf (1.3.2-0.3) ...
Setting up liblzma-dev:armhf (5.4.5-0.3) ...
Setting up libxcb-dri2-0:armhf (1.15-1) ...
Setting up wayland-protocols (1.32-1) ...
Setting up libdatrie-dev:armhf (0.2.13-3) ...
Setting up libxshmfence1:armhf (1.3-1) ...
Setting up at-spi2-common (2.50.0-1) ...
Setting up libtiff6:armhf (4.5.1+git230720-3) ...
Setting up libxcb-randr0:armhf (1.15-1) ...
Setting up libx11-6:armhf (2:1.8.7-1) ...
Setting up libthai-data (0.1.29-2) ...
Setting up libgirepository-1.0-1:armhf (1.78.1-6) ...
Setting up xorg-sgml-doctools (1:1.11-1.1) ...
Setting up libgdk-pixbuf-2.0-0:armhf (2.42.10+dfsg-3) ...
Setting up libatk1.0-0:armhf (2.50.0-1+b1) ...
Setting up libwayland-egl1:armhf (1.22.0-2.1) ...
Setting up libopengl-dev:armhf (1.7.0-1) ...
Setting up libsharpyuv-dev:armhf (1.3.2-0.3) ...
Setting up libwebpmux3:armhf (1.3.2-0.3) ...
Setting up libtiffxx6:armhf (4.5.1+git230720-3) ...
Setting up libdeflate-dev:armhf (1.18-1) ...
Setting up libllvm17:armhf (1:17.0.6-3) ...
Setting up libdrm-common (2.4.117-1) ...
Setting up libxcomposite1:armhf (1:0.4.5-1) ...
Setting up libbrotli-dev:armhf (1.1.0-2+b1) ...
Setting up libbz2-dev:armhf (1.0.8-5+b1) ...
Setting up libxkbcommon0:armhf (1.6.0-1) ...
Setting up libwayland-client0:armhf (1.22.0-2.1) ...
Setting up libxcb-dri3-0:armhf (1.15-1) ...
Setting up gtk-update-icon-cache (3.24.39-1) ...
Setting up libx11-xcb1:armhf (2:1.8.7-1) ...
Setting up libice6:armhf (2:1.0.10-1) ...
Setting up libxdamage1:armhf (1:1.1.6-1) ...
Setting up libxrender1:armhf (1:0.9.10-1.1) ...
Setting up fontconfig-config (2.14.2-6) ...
Setting up libfribidi-dev:armhf (1.0.13-3) ...
Setting up libwebpdemux2:armhf (1.3.2-0.3) ...
Setting up libxkbcommon-dev:armhf (1.6.0-1) ...
Setting up libpng-dev:armhf (1.6.40-3) ...
Setting up libavahi-common3:armhf (0.8-13+b1) ...
Setting up libjpeg-dev:armhf (1:2.1.5-2) ...
Setting up libjbig-dev:armhf (2.1-6.1) ...
Setting up libxext6:armhf (2:1.3.4-1+b1) ...
Setting up dconf-service (0.40.0-4) ...
Setting up libxxf86vm1:armhf (1:1.1.4-1+b2) ...
Setting up libthai0:armhf (0.1.29-2) ...
Setting up libwebp-dev:armhf (1.3.2-0.3) ...
Setting up libfreetype6:armhf (2.13.2+dfsg-1) ...
Setting up adwaita-icon-theme (45.0-2) ...
update-alternatives: using /usr/share/icons/Adwaita/cursor.theme to provide /usr/share/icons/default/index.theme (x-cursor-theme) in auto mode
Setting up libtiff-dev:armhf (4.5.1+git230720-3) ...
Setting up libxfixes3:armhf (1:6.0.0-2) ...
Setting up libxinerama1:armhf (2:1.1.4-3) ...
Setting up libxrandr2:armhf (2:1.5.2-2+b1) ...
Setting up gir1.2-glib-2.0:armhf (1.78.1-6) ...
Setting up libthai-dev:armhf (0.1.29-2) ...
Setting up libdrm2:armhf (2.4.117-1) ...
Setting up libgdk-pixbuf2.0-bin (2.42.10+dfsg-3) ...
Setting up gir1.2-cloudproviders-0.3.0:armhf (0.3.5-1) ...
Setting up libwayland-cursor0:armhf (1.22.0-2.1) ...
Setting up libharfbuzz0b:armhf (8.0.1-1) ...
Setting up libsm6:armhf (2:1.2.3-1) ...
Setting up libavahi-client3:armhf (0.8-13+b1) ...
Setting up libdrm-amdgpu1:armhf (2.4.117-1) ...
Setting up libdrm-nouveau2:armhf (2.4.117-1) ...
Setting up libharfbuzz-icu0:armhf (8.0.1-1) ...
Setting up libxi6:armhf (2:1.8-1+b1) ...
Setting up dconf-gsettings-backend:armhf (0.40.0-4) ...
Setting up gir1.2-gdkpixbuf-2.0:armhf (2.42.10+dfsg-3) ...
Setting up libgbm1:armhf (23.3.2-2) ...
Setting up gir1.2-atk-1.0:armhf (2.50.0-1+b1) ...
Setting up libdrm-radeon1:armhf (2.4.117-1) ...
Setting up libcloudproviders-dev:armhf (0.3.5-1) ...
Setting up libxtst6:armhf (2:1.2.3-1.1) ...
Setting up libxcursor1:armhf (1:1.2.1-1) ...
Setting up libgl1-mesa-dri:armhf (23.3.2-2) ...
Setting up libharfbuzz-gobject0:armhf (8.0.1-1) ...
Setting up libatspi2.0-0:armhf (2.50.0-1+b1) ...
Setting up libwayland-dev:armhf (1.22.0-2.1) ...
Setting up libfreetype-dev:armhf (2.13.2+dfsg-1) ...
Setting up libatk-bridge2.0-0:armhf (2.50.0-1+b1) ...
Setting up libegl-mesa0:armhf (23.3.2-2) ...
Setting up libcups2:armhf (2.4.7-1) ...
Setting up libegl1:armhf (1.7.0-1) ...
Setting up libharfbuzz-subset0:armhf (8.0.1-1) ...
Setting up libgtk-3-common (3.24.39-1) ...
Setting up libatk1.0-dev:armhf (2.50.0-1+b1) ...
Setting up libgdk-pixbuf-2.0-dev:armhf (2.42.10+dfsg-3) ...
Setting up libglx-mesa0:armhf (23.3.2-2) ...
Setting up libglx0:armhf (1.7.0-1) ...
Setting up libgl1:armhf (1.7.0-1) ...
Processing triggers for sgml-base (1.31) ...
Setting up libfontconfig1:armhf (2.14.2-6) ...
Setting up x11proto-dev (2023.2-1) ...
Setting up fontconfig (2.14.2-6) ...
Regenerating fonts cache... done.
Setting up libxft2:armhf (2.3.6-1) ...
Setting up libxau-dev:armhf (1:1.0.9-1) ...
Setting up libice-dev:armhf (2:1.0.10-1) ...
Setting up libfontconfig-dev:armhf (2.14.2-6) ...
Setting up libsm-dev:armhf (2:1.2.3-1) ...
Processing triggers for libglib2.0-0:armhf (2.78.3-1) ...
Processing triggers for libc-bin (2.37-13) ...
Setting up libpango-1.0-0:armhf (1.51.0+ds-3) ...
Setting up libcairo2:armhf (1.18.0-1) ...
Setting up libxdmcp-dev:armhf (1:1.1.2-3) ...
Setting up libharfbuzz-cairo0:armhf (8.0.1-1) ...
Setting up libcairo-gobject2:armhf (1.18.0-1) ...
Setting up libpangoft2-1.0-0:armhf (1.51.0+ds-3) ...
Setting up libpangocairo-1.0-0:armhf (1.51.0+ds-3) ...
Setting up libcairo-script-interpreter2:armhf (1.18.0-1) ...
Setting up gir1.2-freedesktop:armhf (1.78.1-6) ...
Setting up libxcb1-dev:armhf (1.15-1) ...
Setting up libpangoxft-1.0-0:armhf (1.51.0+ds-3) ...
Setting up libgtk-3-0:armhf (3.24.39-1) ...
Setting up pango1.0-tools (1.51.0+ds-3) ...
Setting up libx11-dev:armhf (2:1.8.7-1) ...
Setting up gir1.2-atspi-2.0:armhf (2.50.0-1+b1) ...
Setting up gir1.2-harfbuzz-0.0:armhf (8.0.1-1) ...
Setting up libxfixes-dev:armhf (1:6.0.0-2) ...
Setting up libxcb-shm0-dev:armhf (1.15-1) ...
Setting up gir1.2-pango-1.0:armhf (1.51.0+ds-3) ...
Setting up libxcb-render0-dev:armhf (1.15-1) ...
Setting up libxext-dev:armhf (2:1.3.4-1+b1) ...
Setting up libcinnamon-control-center1:armhf (5.8.2-1) ...
Setting up libglx-dev:armhf (1.7.0-1) ...
Setting up libxi-dev:armhf (2:1.8-1+b1) ...
Setting up libxrender-dev:armhf (1:0.9.10-1.1) ...
Setting up libgl-dev:armhf (1.7.0-1) ...
Setting up libxft-dev:armhf (2.3.6-1) ...
Setting up libxtst-dev:armhf (2:1.2.3-1.1) ...
Setting up libxdamage-dev:armhf (1:1.1.6-1) ...
Setting up libatspi2.0-dev:armhf (2.50.0-1+b1) ...
Setting up libharfbuzz-dev:armhf (8.0.1-1) ...
Setting up libegl-dev:armhf (1.7.0-1) ...
Setting up libxcomposite-dev:armhf (1:0.4.5-1) ...
Setting up libxcursor-dev:armhf (1:1.2.1-1) ...
Setting up libepoxy-dev:armhf (1.5.10-1) ...
Setting up gir1.2-gtk-3.0:armhf (3.24.39-1) ...
Setting up libatk-bridge2.0-dev:armhf (2.50.0-1+b1) ...
Setting up libxrandr-dev:armhf (2:1.5.2-2+b1) ...
Setting up libxinerama-dev:armhf (2:1.1.4-3) ...
Setting up libcairo2-dev:armhf (1.18.0-1) ...
Setting up libgles-dev:armhf (1.7.0-1) ...
Setting up libglvnd-dev:armhf (1.7.0-1) ...
Setting up libpango1.0-dev:armhf (1.51.0+ds-3) ...
Setting up libegl1-mesa-dev:armhf (23.3.2-2) ...
Setting up libgtk-3-dev:armhf (3.24.39-1) ...
Setting up libcinnamon-control-center-dev:armhf (5.8.2-1) ...
Processing triggers for libc-bin (2.37-13) ...
Reading package lists...
Building dependency tree...
Reading state information...
The following packages will be REMOVED:
  libboost-dev* libboost-filesystem1.83.0* libboost-regex1.83-dev*
  libboost-regex1.83.0* libboost1.83-dev* libcifti-dev* libcifti0*
  libglibmm-2.4-1v5* libglibmm-2.4-dev* libsigc++-2.0-0v5* libsigc++-2.0-dev*
  libxml++2.6-2v5* libxml++2.6-dev* libxml2-dev*
0 upgraded, 0 newly installed, 14 to remove and 15 not upgraded.
After this operation, 179 MB disk space will be freed.
(Reading database ... (Reading database ... 5%(Reading database ... 10%(Reading database ... 15%(Reading database ... 20%(Reading database ... 25%(Reading database ... 30%(Reading database ... 35%(Reading database ... 40%(Reading database ... 45%(Reading database ... 50%(Reading database ... 55%(Reading database ... 60%(Reading database ... 65%(Reading database ... 70%(Reading database ... 75%(Reading database ... 80%(Reading database ... 85%(Reading database ... 90%(Reading database ... 95%(Reading database ... 100%(Reading database ... 43465 files and directories currently installed.)
Removing libcifti-dev:armhf (1.6.0-2+b1) ...
Removing libboost-dev:armhf (1.83.0.2) ...
Removing libcifti0:armhf (1.6.0-2+b1) ...
Removing libboost-filesystem1.83.0:armhf (1.83.0-2) ...
Removing libboost-regex1.83-dev:armhf (1.83.0-2) ...
Removing libboost-regex1.83.0:armhf (1.83.0-2) ...
Removing libboost1.83-dev:armhf (1.83.0-2) ...
Removing libxml++2.6-dev:armhf (2.40.1-3) ...
Removing libxml++2.6-2v5:armhf (2.40.1-3) ...
Removing libglibmm-2.4-dev:armhf (2.66.6-2) ...
Removing libglibmm-2.4-1v5:armhf (2.66.6-2) ...
Removing libsigc++-2.0-dev:armhf (2.12.1-1) ...
Removing libsigc++-2.0-0v5:armhf (2.12.1-1) ...
Removing libxml2-dev:armhf (2.9.14+dfsg-1.3+b1) ...
Processing triggers for libc-bin (2.37-13) ...
