[2024-01-08T11:22:48+00:00] apt-get install libtrantor-dev abi-compliance-checker
Reading package lists...
Building dependency tree...
Reading state information...
abi-compliance-checker is already the newest version (2.3-2).
The following packages were automatically installed and are no longer required:
  libtranscript-dev libtranscript1
Use 'apt autoremove' to remove them.
The following additional packages will be installed:
  libc-ares2 libtrantor1
The following NEW packages will be installed:
  libc-ares2 libtrantor-dev libtrantor1
0 upgraded, 3 newly installed, 0 to remove and 18 not upgraded.
Need to get 312 kB of archives.
After this operation, 768 kB of additional disk space will be used.
Get:1 http://deb.debian.org/debian unstable/main armhf libc-ares2 armhf 1.25.0-1 [127 kB]
Get:2 http://deb.debian.org/debian unstable/main armhf libtrantor1 armhf 1.5.12+ds-1 [152 kB]
Get:3 http://deb.debian.org/debian unstable/main armhf libtrantor-dev armhf 1.5.12+ds-1 [32.6 kB]
debconf: delaying package configuration, since apt-utils is not installed
Fetched 312 kB in 0s (935 kB/s)
Selecting previously unselected package libc-ares2:armhf.
(Reading database ... (Reading database ... 5%(Reading database ... 10%(Reading database ... 15%(Reading database ... 20%(Reading database ... 25%(Reading database ... 30%(Reading database ... 35%(Reading database ... 40%(Reading database ... 45%(Reading database ... 50%(Reading database ... 55%(Reading database ... 60%(Reading database ... 65%(Reading database ... 70%(Reading database ... 75%(Reading database ... 80%(Reading database ... 85%(Reading database ... 90%(Reading database ... 95%(Reading database ... 100%(Reading database ... 17193 files and directories currently installed.)
Preparing to unpack .../libc-ares2_1.25.0-1_armhf.deb ...
Unpacking libc-ares2:armhf (1.25.0-1) ...
Selecting previously unselected package libtrantor1.
Preparing to unpack .../libtrantor1_1.5.12+ds-1_armhf.deb ...
Unpacking libtrantor1 (1.5.12+ds-1) ...
Selecting previously unselected package libtrantor-dev.
Preparing to unpack .../libtrantor-dev_1.5.12+ds-1_armhf.deb ...
Unpacking libtrantor-dev (1.5.12+ds-1) ...
Setting up libc-ares2:armhf (1.25.0-1) ...
Setting up libtrantor1 (1.5.12+ds-1) ...
Setting up libtrantor-dev (1.5.12+ds-1) ...
Processing triggers for libc-bin (2.37-13) ...
Reading package lists...
Building dependency tree...
Reading state information...
The following packages will be REMOVED:
  libtranscript-dev* libtranscript1*
0 upgraded, 0 newly installed, 2 to remove and 18 not upgraded.
After this operation, 3479 kB disk space will be freed.
(Reading database ... (Reading database ... 5%(Reading database ... 10%(Reading database ... 15%(Reading database ... 20%(Reading database ... 25%(Reading database ... 30%(Reading database ... 35%(Reading database ... 40%(Reading database ... 45%(Reading database ... 50%(Reading database ... 55%(Reading database ... 60%(Reading database ... 65%(Reading database ... 70%(Reading database ... 75%(Reading database ... 80%(Reading database ... 85%(Reading database ... 90%(Reading database ... 95%(Reading database ... 100%(Reading database ... 17249 files and directories currently installed.)
Removing libtranscript-dev (0.3.3-1) ...
Removing libtranscript1 (0.3.3-1) ...
Processing triggers for libc-bin (2.37-13) ...
