[2024-01-07T11:58:48+00:00] apt-get install libignition-transport-dev abi-compliance-checker
Reading package lists...
Building dependency tree...
Reading state information...
abi-compliance-checker is already the newest version (2.3-2).
The following packages were automatically installed and are no longer required:
  libignition-plugin-dev libignition-plugin1-1
Use 'apt autoremove' to remove them.
The following additional packages will be installed:
  comerr-dev cppzmq-dev icu-devtools krb5-multidev libbsd-dev libcli11-dev
  libgssrpc4 libicu-dev libignition-math-dev libignition-math6-6
  libignition-msgs-dev libignition-msgs8-8 libignition-transport11-11
  libignition-utils-dev libkadm5clnt-mit12 libkadm5srv-mit12 libkdb5-10
  libkrb5-dev libmd-dev libmd0 libnorm-dev libnorm1 libpgm-5.3-0 libpgm-dev
  libprotobuf-dev libprotobuf-lite32 libprotobuf32 libprotoc-dev libprotoc32
  libsodium-dev libsodium23 libtinyxml2-10 libtinyxml2-9 libtinyxml2-dev
  libxml2-dev libzmq3-dev libzmq5 protobuf-compiler uuid-dev zlib1g-dev
Suggested packages:
  doc-base krb5-doc krb5-user icu-doc ignition-tools libnorm-doc
  protobuf-mode-el
Recommended packages:
  ignition-transport-cli
The following NEW packages will be installed:
  comerr-dev cppzmq-dev icu-devtools krb5-multidev libbsd-dev libcli11-dev
  libgssrpc4 libicu-dev libignition-math-dev libignition-math6-6
  libignition-msgs-dev libignition-msgs8-8 libignition-transport-dev
  libignition-transport11-11 libignition-utils-dev libkadm5clnt-mit12
  libkadm5srv-mit12 libkdb5-10 libkrb5-dev libmd-dev libnorm-dev libnorm1
  libpgm-5.3-0 libpgm-dev libprotobuf-dev libprotobuf-lite32 libprotobuf32
  libprotoc-dev libprotoc32 libsodium-dev libsodium23 libtinyxml2-10
  libtinyxml2-9 libtinyxml2-dev libxml2-dev libzmq3-dev libzmq5
  protobuf-compiler uuid-dev zlib1g-dev
The following packages will be upgraded:
  libmd0
1 upgraded, 40 newly installed, 0 to remove and 34 not upgraded.
Need to get 20.4 MB of archives.
After this operation, 90.2 MB of additional disk space will be used.
Get:1 http://deb.debian.org/debian unstable/main armhf libmd0 armhf 1.1.0-2 [31.8 kB]
Get:2 http://deb.debian.org/debian unstable/main armhf comerr-dev armhf 2.1-1.47.0-2+b1 [51.2 kB]
Get:3 http://deb.debian.org/debian unstable/main armhf libnorm1 armhf 1.5.9+dfsg-3 [185 kB]
Get:4 http://deb.debian.org/debian unstable/main armhf libpgm-5.3-0 armhf 5.3.128~dfsg-2 [156 kB]
Get:5 http://deb.debian.org/debian unstable/main armhf libsodium23 armhf 1.0.18-1 [147 kB]
Get:6 http://deb.debian.org/debian unstable/main armhf libzmq5 armhf 4.3.5-1 [237 kB]
Get:7 http://deb.debian.org/debian unstable/main armhf libpgm-dev armhf 5.3.128~dfsg-2 [189 kB]
Get:8 http://deb.debian.org/debian unstable/main armhf libsodium-dev armhf 1.0.18-1 [165 kB]
Get:9 http://deb.debian.org/debian unstable/main armhf icu-devtools armhf 72.1-4 [184 kB]
Get:10 http://deb.debian.org/debian unstable/main armhf libicu-dev armhf 72.1-4 [10.1 MB]
Get:11 http://deb.debian.org/debian unstable/main armhf libxml2-dev armhf 2.9.14+dfsg-1.3+b2 [717 kB]
Get:12 http://deb.debian.org/debian unstable/main armhf libnorm-dev armhf 1.5.9+dfsg-3 [345 kB]
Get:13 http://deb.debian.org/debian unstable/main armhf libgssrpc4 armhf 1.20.1-5 [50.8 kB]
Get:14 http://deb.debian.org/debian unstable/main armhf libkadm5clnt-mit12 armhf 1.20.1-5 [36.2 kB]
Get:15 http://deb.debian.org/debian unstable/main armhf libkdb5-10 armhf 1.20.1-5 [35.9 kB]
Get:16 http://deb.debian.org/debian unstable/main armhf libkadm5srv-mit12 armhf 1.20.1-5 [46.1 kB]
Get:17 http://deb.debian.org/debian unstable/main armhf krb5-multidev armhf 1.20.1-5 [125 kB]
Get:18 http://deb.debian.org/debian unstable/main armhf libkrb5-dev armhf 1.20.1-5 [15.0 kB]
Get:19 http://deb.debian.org/debian unstable/main armhf libmd-dev armhf 1.1.0-2 [51.6 kB]
Get:20 http://deb.debian.org/debian unstable/main armhf libbsd-dev armhf 0.11.7-4 [236 kB]
Get:21 http://deb.debian.org/debian unstable/main armhf libzmq3-dev armhf 4.3.5-1 [474 kB]
Get:22 http://deb.debian.org/debian unstable/main armhf cppzmq-dev armhf 4.10.0-1+b1 [25.5 kB]
Get:23 http://deb.debian.org/debian unstable/main armhf libcli11-dev all 2.3.2+ds-1 [84.5 kB]
Get:24 http://deb.debian.org/debian unstable/main armhf libignition-math6-6 armhf 6.15.0+ds-1 [111 kB]
Get:25 http://deb.debian.org/debian unstable/main armhf libignition-math-dev armhf 6.15.0+ds-1 [161 kB]
Get:26 http://deb.debian.org/debian unstable/main armhf zlib1g-dev armhf 1:1.3.dfsg-3 [904 kB]
Get:27 http://deb.debian.org/debian unstable/main armhf libprotobuf32 armhf 3.21.12-8+b1 [864 kB]
Get:28 http://deb.debian.org/debian unstable/main armhf libprotobuf-lite32 armhf 3.21.12-8+b1 [253 kB]
Get:29 http://deb.debian.org/debian unstable/main armhf libprotobuf-dev armhf 3.21.12-8+b1 [1281 kB]
Get:30 http://deb.debian.org/debian unstable/main armhf libprotoc32 armhf 3.21.12-8+b1 [790 kB]
Get:31 http://deb.debian.org/debian unstable/main armhf libprotoc-dev armhf 3.21.12-8+b1 [931 kB]
Get:32 http://deb.debian.org/debian unstable/main armhf protobuf-compiler armhf 3.21.12-8+b1 [84.3 kB]
Get:33 http://deb.debian.org/debian unstable/main armhf libtinyxml2-10 armhf 10.0.0+dfsg-2 [25.2 kB]
Get:34 http://deb.debian.org/debian unstable/main armhf libtinyxml2-dev armhf 10.0.0+dfsg-2 [22.9 kB]
Get:35 http://deb.debian.org/debian unstable/main armhf libtinyxml2-9 armhf 9.0.0+dfsg-3.1 [26.4 kB]
Get:36 http://deb.debian.org/debian unstable/main armhf libignition-msgs8-8 armhf 8.2.0+ds-1+b1 [571 kB]
Get:37 http://deb.debian.org/debian unstable/main armhf libignition-msgs-dev armhf 8.2.0+ds-1+b1 [321 kB]
Get:38 http://deb.debian.org/debian unstable/main armhf libignition-transport11-11 armhf 11.0.0+ds-4+b1 [249 kB]
Get:39 http://deb.debian.org/debian unstable/main armhf uuid-dev armhf 2.39.3-6 [39.6 kB]
Get:40 http://deb.debian.org/debian unstable/main armhf libignition-utils-dev armhf 1.5.1+ds-1 [28.3 kB]
Get:41 http://deb.debian.org/debian unstable/main armhf libignition-transport-dev armhf 11.0.0+ds-4+b1 [68.6 kB]
debconf: delaying package configuration, since apt-utils is not installed
Fetched 20.4 MB in 1s (21.6 MB/s)
(Reading database ... (Reading database ... 5%(Reading database ... 10%(Reading database ... 15%(Reading database ... 20%(Reading database ... 25%(Reading database ... 30%(Reading database ... 35%(Reading database ... 40%(Reading database ... 45%(Reading database ... 50%(Reading database ... 55%(Reading database ... 60%(Reading database ... 65%(Reading database ... 70%(Reading database ... 75%(Reading database ... 80%(Reading database ... 85%(Reading database ... 90%(Reading database ... 95%(Reading database ... 100%(Reading database ... 15840 files and directories currently installed.)
Preparing to unpack .../libmd0_1.1.0-2_armhf.deb ...
Unpacking libmd0:armhf (1.1.0-2) over (1.1.0-1) ...
Setting up libmd0:armhf (1.1.0-2) ...
Selecting previously unselected package comerr-dev:armhf.
(Reading database ... (Reading database ... 5%(Reading database ... 10%(Reading database ... 15%(Reading database ... 20%(Reading database ... 25%(Reading database ... 30%(Reading database ... 35%(Reading database ... 40%(Reading database ... 45%(Reading database ... 50%(Reading database ... 55%(Reading database ... 60%(Reading database ... 65%(Reading database ... 70%(Reading database ... 75%(Reading database ... 80%(Reading database ... 85%(Reading database ... 90%(Reading database ... 95%(Reading database ... 100%(Reading database ... 15840 files and directories currently installed.)
Preparing to unpack .../00-comerr-dev_2.1-1.47.0-2+b1_armhf.deb ...
Unpacking comerr-dev:armhf (2.1-1.47.0-2+b1) ...
Selecting previously unselected package libnorm1:armhf.
Preparing to unpack .../01-libnorm1_1.5.9+dfsg-3_armhf.deb ...
Unpacking libnorm1:armhf (1.5.9+dfsg-3) ...
Selecting previously unselected package libpgm-5.3-0:armhf.
Preparing to unpack .../02-libpgm-5.3-0_5.3.128~dfsg-2_armhf.deb ...
Unpacking libpgm-5.3-0:armhf (5.3.128~dfsg-2) ...
Selecting previously unselected package libsodium23:armhf.
Preparing to unpack .../03-libsodium23_1.0.18-1_armhf.deb ...
Unpacking libsodium23:armhf (1.0.18-1) ...
Selecting previously unselected package libzmq5:armhf.
Preparing to unpack .../04-libzmq5_4.3.5-1_armhf.deb ...
Unpacking libzmq5:armhf (4.3.5-1) ...
Selecting previously unselected package libpgm-dev:armhf.
Preparing to unpack .../05-libpgm-dev_5.3.128~dfsg-2_armhf.deb ...
Unpacking libpgm-dev:armhf (5.3.128~dfsg-2) ...
Selecting previously unselected package libsodium-dev:armhf.
Preparing to unpack .../06-libsodium-dev_1.0.18-1_armhf.deb ...
Unpacking libsodium-dev:armhf (1.0.18-1) ...
Selecting previously unselected package icu-devtools.
Preparing to unpack .../07-icu-devtools_72.1-4_armhf.deb ...
Unpacking icu-devtools (72.1-4) ...
Selecting previously unselected package libicu-dev:armhf.
Preparing to unpack .../08-libicu-dev_72.1-4_armhf.deb ...
Unpacking libicu-dev:armhf (72.1-4) ...
Selecting previously unselected package libxml2-dev:armhf.
Preparing to unpack .../09-libxml2-dev_2.9.14+dfsg-1.3+b2_armhf.deb ...
Unpacking libxml2-dev:armhf (2.9.14+dfsg-1.3+b2) ...
Selecting previously unselected package libnorm-dev:armhf.
Preparing to unpack .../10-libnorm-dev_1.5.9+dfsg-3_armhf.deb ...
Unpacking libnorm-dev:armhf (1.5.9+dfsg-3) ...
Selecting previously unselected package libgssrpc4:armhf.
Preparing to unpack .../11-libgssrpc4_1.20.1-5_armhf.deb ...
Unpacking libgssrpc4:armhf (1.20.1-5) ...
Selecting previously unselected package libkadm5clnt-mit12:armhf.
Preparing to unpack .../12-libkadm5clnt-mit12_1.20.1-5_armhf.deb ...
Unpacking libkadm5clnt-mit12:armhf (1.20.1-5) ...
Selecting previously unselected package libkdb5-10:armhf.
Preparing to unpack .../13-libkdb5-10_1.20.1-5_armhf.deb ...
Unpacking libkdb5-10:armhf (1.20.1-5) ...
Selecting previously unselected package libkadm5srv-mit12:armhf.
Preparing to unpack .../14-libkadm5srv-mit12_1.20.1-5_armhf.deb ...
Unpacking libkadm5srv-mit12:armhf (1.20.1-5) ...
Selecting previously unselected package krb5-multidev:armhf.
Preparing to unpack .../15-krb5-multidev_1.20.1-5_armhf.deb ...
Unpacking krb5-multidev:armhf (1.20.1-5) ...
Selecting previously unselected package libkrb5-dev:armhf.
Preparing to unpack .../16-libkrb5-dev_1.20.1-5_armhf.deb ...
Unpacking libkrb5-dev:armhf (1.20.1-5) ...
Selecting previously unselected package libmd-dev:armhf.
Preparing to unpack .../17-libmd-dev_1.1.0-2_armhf.deb ...
Unpacking libmd-dev:armhf (1.1.0-2) ...
Selecting previously unselected package libbsd-dev:armhf.
Preparing to unpack .../18-libbsd-dev_0.11.7-4_armhf.deb ...
Unpacking libbsd-dev:armhf (0.11.7-4) ...
Selecting previously unselected package libzmq3-dev:armhf.
Preparing to unpack .../19-libzmq3-dev_4.3.5-1_armhf.deb ...
Unpacking libzmq3-dev:armhf (4.3.5-1) ...
Selecting previously unselected package cppzmq-dev:armhf.
Preparing to unpack .../20-cppzmq-dev_4.10.0-1+b1_armhf.deb ...
Unpacking cppzmq-dev:armhf (4.10.0-1+b1) ...
Selecting previously unselected package libcli11-dev.
Preparing to unpack .../21-libcli11-dev_2.3.2+ds-1_all.deb ...
Unpacking libcli11-dev (2.3.2+ds-1) ...
Selecting previously unselected package libignition-math6-6:armhf.
Preparing to unpack .../22-libignition-math6-6_6.15.0+ds-1_armhf.deb ...
Unpacking libignition-math6-6:armhf (6.15.0+ds-1) ...
Selecting previously unselected package libignition-math-dev:armhf.
Preparing to unpack .../23-libignition-math-dev_6.15.0+ds-1_armhf.deb ...
Unpacking libignition-math-dev:armhf (6.15.0+ds-1) ...
Selecting previously unselected package zlib1g-dev:armhf.
Preparing to unpack .../24-zlib1g-dev_1%3a1.3.dfsg-3_armhf.deb ...
Unpacking zlib1g-dev:armhf (1:1.3.dfsg-3) ...
Selecting previously unselected package libprotobuf32:armhf.
Preparing to unpack .../25-libprotobuf32_3.21.12-8+b1_armhf.deb ...
Unpacking libprotobuf32:armhf (3.21.12-8+b1) ...
Selecting previously unselected package libprotobuf-lite32:armhf.
Preparing to unpack .../26-libprotobuf-lite32_3.21.12-8+b1_armhf.deb ...
Unpacking libprotobuf-lite32:armhf (3.21.12-8+b1) ...
Selecting previously unselected package libprotobuf-dev:armhf.
Preparing to unpack .../27-libprotobuf-dev_3.21.12-8+b1_armhf.deb ...
Unpacking libprotobuf-dev:armhf (3.21.12-8+b1) ...
Selecting previously unselected package libprotoc32:armhf.
Preparing to unpack .../28-libprotoc32_3.21.12-8+b1_armhf.deb ...
Unpacking libprotoc32:armhf (3.21.12-8+b1) ...
Selecting previously unselected package libprotoc-dev:armhf.
Preparing to unpack .../29-libprotoc-dev_3.21.12-8+b1_armhf.deb ...
Unpacking libprotoc-dev:armhf (3.21.12-8+b1) ...
Selecting previously unselected package protobuf-compiler.
Preparing to unpack .../30-protobuf-compiler_3.21.12-8+b1_armhf.deb ...
Unpacking protobuf-compiler (3.21.12-8+b1) ...
Selecting previously unselected package libtinyxml2-10:armhf.
Preparing to unpack .../31-libtinyxml2-10_10.0.0+dfsg-2_armhf.deb ...
Unpacking libtinyxml2-10:armhf (10.0.0+dfsg-2) ...
Selecting previously unselected package libtinyxml2-dev:armhf.
Preparing to unpack .../32-libtinyxml2-dev_10.0.0+dfsg-2_armhf.deb ...
Unpacking libtinyxml2-dev:armhf (10.0.0+dfsg-2) ...
Selecting previously unselected package libtinyxml2-9:armhf.
Preparing to unpack .../33-libtinyxml2-9_9.0.0+dfsg-3.1_armhf.deb ...
Unpacking libtinyxml2-9:armhf (9.0.0+dfsg-3.1) ...
Selecting previously unselected package libignition-msgs8-8:armhf.
Preparing to unpack .../34-libignition-msgs8-8_8.2.0+ds-1+b1_armhf.deb ...
Unpacking libignition-msgs8-8:armhf (8.2.0+ds-1+b1) ...
Selecting previously unselected package libignition-msgs-dev:armhf.
Preparing to unpack .../35-libignition-msgs-dev_8.2.0+ds-1+b1_armhf.deb ...
Unpacking libignition-msgs-dev:armhf (8.2.0+ds-1+b1) ...
Selecting previously unselected package libignition-transport11-11:armhf.
Preparing to unpack .../36-libignition-transport11-11_11.0.0+ds-4+b1_armhf.deb ...
Unpacking libignition-transport11-11:armhf (11.0.0+ds-4+b1) ...
Selecting previously unselected package uuid-dev:armhf.
Preparing to unpack .../37-uuid-dev_2.39.3-6_armhf.deb ...
Unpacking uuid-dev:armhf (2.39.3-6) ...
Selecting previously unselected package libignition-utils-dev:armhf.
Preparing to unpack .../38-libignition-utils-dev_1.5.1+ds-1_armhf.deb ...
Unpacking libignition-utils-dev:armhf (1.5.1+ds-1) ...
Selecting previously unselected package libignition-transport-dev:armhf.
Preparing to unpack .../39-libignition-transport-dev_11.0.0+ds-4+b1_armhf.deb ...
Unpacking libignition-transport-dev:armhf (11.0.0+ds-4+b1) ...
Setting up libsodium23:armhf (1.0.18-1) ...
Setting up libcli11-dev (2.3.2+ds-1) ...
Setting up libpgm-5.3-0:armhf (5.3.128~dfsg-2) ...
Setting up libignition-utils-dev:armhf (1.5.1+ds-1) ...
Setting up libnorm1:armhf (1.5.9+dfsg-3) ...
Setting up libtinyxml2-10:armhf (10.0.0+dfsg-2) ...
Setting up libgssrpc4:armhf (1.20.1-5) ...
Setting up libpgm-dev:armhf (5.3.128~dfsg-2) ...
Setting up uuid-dev:armhf (2.39.3-6) ...
Setting up comerr-dev:armhf (2.1-1.47.0-2+b1) ...
Setting up libtinyxml2-9:armhf (9.0.0+dfsg-3.1) ...
Setting up icu-devtools (72.1-4) ...
Setting up libsodium-dev:armhf (1.0.18-1) ...
Setting up libtinyxml2-dev:armhf (10.0.0+dfsg-2) ...
Setting up zlib1g-dev:armhf (1:1.3.dfsg-3) ...
Setting up libprotobuf32:armhf (3.21.12-8+b1) ...
Setting up libmd-dev:armhf (1.1.0-2) ...
Setting up libignition-math6-6:armhf (6.15.0+ds-1) ...
Setting up libprotobuf-lite32:armhf (3.21.12-8+b1) ...
Setting up libicu-dev:armhf (72.1-4) ...
Setting up libbsd-dev:armhf (0.11.7-4) ...
Setting up libkadm5clnt-mit12:armhf (1.20.1-5) ...
Setting up libprotoc32:armhf (3.21.12-8+b1) ...
Setting up libkdb5-10:armhf (1.20.1-5) ...
Setting up libzmq5:armhf (4.3.5-1) ...
Setting up protobuf-compiler (3.21.12-8+b1) ...
Setting up libignition-msgs8-8:armhf (8.2.0+ds-1+b1) ...
Setting up libprotobuf-dev:armhf (3.21.12-8+b1) ...
Setting up libxml2-dev:armhf (2.9.14+dfsg-1.3+b2) ...
Setting up libprotoc-dev:armhf (3.21.12-8+b1) ...
Setting up libignition-math-dev:armhf (6.15.0+ds-1) ...
Setting up libkadm5srv-mit12:armhf (1.20.1-5) ...
Setting up krb5-multidev:armhf (1.20.1-5) ...
Setting up libignition-transport11-11:armhf (11.0.0+ds-4+b1) ...
Setting up libignition-msgs-dev:armhf (8.2.0+ds-1+b1) ...
Setting up libnorm-dev:armhf (1.5.9+dfsg-3) ...
Setting up libkrb5-dev:armhf (1.20.1-5) ...
Setting up libzmq3-dev:armhf (4.3.5-1) ...
Setting up cppzmq-dev:armhf (4.10.0-1+b1) ...
Setting up libignition-transport-dev:armhf (11.0.0+ds-4+b1) ...
Processing triggers for install-info (7.1-2) ...
Processing triggers for libc-bin (2.37-13) ...
Reading package lists...
Building dependency tree...
Reading state information...
The following packages will be REMOVED:
  libignition-plugin-dev* libignition-plugin1-1*
0 upgraded, 0 newly installed, 2 to remove and 34 not upgraded.
After this operation, 2901 kB disk space will be freed.
(Reading database ... (Reading database ... 5%(Reading database ... 10%(Reading database ... 15%(Reading database ... 20%(Reading database ... 25%(Reading database ... 30%(Reading database ... 35%(Reading database ... 40%(Reading database ... 45%(Reading database ... 50%(Reading database ... 55%(Reading database ... 60%(Reading database ... 65%(Reading database ... 70%(Reading database ... 75%(Reading database ... 80%(Reading database ... 85%(Reading database ... 90%(Reading database ... 95%(Reading database ... 100%(Reading database ... 18223 files and directories currently installed.)
Removing libignition-plugin-dev (1.4.0+ds-1) ...
Removing libignition-plugin1-1:armhf (1.4.0+ds-1) ...
Processing triggers for libc-bin (2.37-13) ...
