Temporary header file '/tmp/DIcAzduxKX/dump1.h' with the following content will be compiled to create GCC translation unit dump:

  // add defines
  #define __STDC_VERSION__ 201710L
#define _TIME_BITS 64
#define _FILE_OFFSET_BITS 64
#define _GXX_NULLPTR_T
#define CLUTTER_ENABLE_COMPOSITOR_API 1
#define _REGEX_NELTS(n)
#define _Atomic
#define PACKED
#ifdef __cplusplus
// C17 compat layer
#define _Alignof(type) alignof(type)
#endif
#define getaddrinfo_a(a,b,c,d)

  // add includes
  #include "/usr/include/KF5/KMahjongg/kmahjonggbackground.h"
  #include "/usr/include/KF5/KMahjongg/kmahjonggconfigdialog.h"
  #include "/usr/include/KF5/KMahjongg/kmahjongglib_version.h"
  #include "/usr/include/KF5/KMahjongg/kmahjonggtileset.h"
  #include "/usr/include/KF5/KMahjongg/libkmahjongg_export.h"

  // add namespaces
  namespace ConversionCheck{typedef int tmp_add_type_1;}
  ConversionCheck::tmp_add_type_1 tmp_add_func_1(){return 0;};
  namespace QAlgorithmsPrivate{typedef int tmp_add_type_2;}
  QAlgorithmsPrivate::tmp_add_type_2 tmp_add_func_2(){return 0;};
  namespace QColorConstants{typedef int tmp_add_type_3;}
  QColorConstants::tmp_add_type_3 tmp_add_func_3(){return 0;};
  namespace QColorConstants{namespace Svg{typedef int tmp_add_type_4;}}
  QColorConstants::Svg::tmp_add_type_4 tmp_add_func_4(){return 0;};
  namespace Qt{typedef int tmp_add_type_5;}
  Qt::tmp_add_type_5 tmp_add_func_5(){return 0;};
  namespace QtGlobalStatic{typedef int tmp_add_type_6;}
  QtGlobalStatic::tmp_add_type_6 tmp_add_func_6(){return 0;};
  namespace QtMetaTypePrivate{typedef int tmp_add_type_7;}
  QtMetaTypePrivate::tmp_add_type_7 tmp_add_func_7(){return 0;};
  namespace QtMetaTypePrivate{namespace QtPrivate{typedef int tmp_add_type_8;}}
  QtMetaTypePrivate::QtPrivate::tmp_add_type_8 tmp_add_func_8(){return 0;};
  namespace QtMetaTypePrivate{namespace QtPrivate{namespace ContainerCapabilitiesMetaProgrammingHelper{typedef int tmp_add_type_9;}}}
  QtMetaTypePrivate::QtPrivate::ContainerCapabilitiesMetaProgrammingHelper::tmp_add_type_9 tmp_add_func_9(){return 0;};
  namespace QtPrivate{typedef int tmp_add_type_10;}
  QtPrivate::tmp_add_type_10 tmp_add_func_10(){return 0;};
  namespace QtPrivate{namespace DeprecatedRefClassBehavior{typedef int tmp_add_type_11;}}
  QtPrivate::DeprecatedRefClassBehavior::tmp_add_type_11 tmp_add_func_11(){return 0;};
  namespace QtPrivate{namespace SwapExceptionTester{typedef int tmp_add_type_12;}}
  QtPrivate::SwapExceptionTester::tmp_add_type_12 tmp_add_func_12(){return 0;};
  namespace QtSharedPointer{typedef int tmp_add_type_13;}
  QtSharedPointer::tmp_add_type_13 tmp_add_func_13(){return 0;};

  // add classes
  KConfig* tmp_add_class_0;
  KConfigBase* tmp_add_class_1;
  KConfigCompilerSignallingItem* tmp_add_class_2;
  KConfigDialog* tmp_add_class_3;
  KConfigGroup* tmp_add_class_4;
  KConfigSkeleton* tmp_add_class_5;
  KConfigSkeletonItem* tmp_add_class_6;
  KCoreConfigSkeleton* tmp_add_class_7;
  KMahjonggBackground* tmp_add_class_8;
  KMahjonggConfigDialog* tmp_add_class_9;
  KMahjonggTileset* tmp_add_class_10;
  KPageDialog* tmp_add_class_11;
  KPageModel* tmp_add_class_12;
  KPageView* tmp_add_class_13;
  KPageWidget* tmp_add_class_14;
  KPageWidgetItem* tmp_add_class_15;
  KPageWidgetModel* tmp_add_class_16;
  KPropertySkeletonItem* tmp_add_class_17;
  KSharedConfig* tmp_add_class_18;
  QAbstractItemModel* tmp_add_class_19;
  QAbstractListModel* tmp_add_class_20;
  QAbstractTableModel* tmp_add_class_21;
  QArrayData* tmp_add_class_22;
  QAssociativeIterable* tmp_add_class_23;
  QAtomicInt* tmp_add_class_24;
  QBrush* tmp_add_class_25;
  QBrushData* tmp_add_class_26;
  QByteArray* tmp_add_class_27;
  QByteArrayDataPtr* tmp_add_class_28;
  QByteRef* tmp_add_class_29;
  QChar* tmp_add_class_30;
  QCharRef* tmp_add_class_31;
  QColor* tmp_add_class_32;
  QConicalGradient* tmp_add_class_33;
  QCursor* tmp_add_class_34;
  QDataStream* tmp_add_class_35;
  QDate* tmp_add_class_36;
  QDateTime* tmp_add_class_37;
  QDialog* tmp_add_class_38;
  QDialogButtonBox* tmp_add_class_39;
  QFlag* tmp_add_class_40;
  QFont* tmp_add_class_41;
  QFontInfo* tmp_add_class_42;
  QFontMetrics* tmp_add_class_43;
  QFontMetricsF* tmp_add_class_44;
  QGenericArgument* tmp_add_class_45;
  QGenericReturnArgument* tmp_add_class_46;
  QGradient* tmp_add_class_47;
  QHashData* tmp_add_class_48;
  QHashDummyValue* tmp_add_class_49;
  QIODevice* tmp_add_class_50;
  QImage* tmp_add_class_51;
  QIncompatibleFlag* tmp_add_class_52;
  QInternal* tmp_add_class_53;
  QKeySequence* tmp_add_class_54;
  QLatin1Char* tmp_add_class_55;
  QLatin1String* tmp_add_class_56;
  QLine* tmp_add_class_57;
  QLineF* tmp_add_class_58;
  QLinearGradient* tmp_add_class_59;
  QListData* tmp_add_class_60;
  QMapDataBase* tmp_add_class_61;
  QMapNodeBase* tmp_add_class_62;
  QMargins* tmp_add_class_63;
  QMarginsF* tmp_add_class_64;
  QMatrix* tmp_add_class_65;
  QMessageLogContext* tmp_add_class_66;
  QMessageLogger* tmp_add_class_67;
  QMetaObject* tmp_add_class_68;
  QMetaType* tmp_add_class_69;
  QModelIndex* tmp_add_class_70;
  QObject* tmp_add_class_71;
  QObjectData* tmp_add_class_72;
  QObjectUserData* tmp_add_class_73;
  QPaintDevice* tmp_add_class_74;
  QPalette* tmp_add_class_75;
  QPersistentModelIndex* tmp_add_class_76;
  QPixelFormat* tmp_add_class_77;
  QPixmap* tmp_add_class_78;
  QPoint* tmp_add_class_79;
  QPointF* tmp_add_class_80;
  QPolygon* tmp_add_class_81;
  QPolygonF* tmp_add_class_82;
  QRadialGradient* tmp_add_class_83;
  QRect* tmp_add_class_84;
  QRectF* tmp_add_class_85;
  QRegExp* tmp_add_class_86;
  QRegion* tmp_add_class_87;
  QRgba64* tmp_add_class_88;
  QScopedPointerPodDeleter* tmp_add_class_89;
  QSequentialIterable* tmp_add_class_90;
  QSharedData* tmp_add_class_91;
  QSignalBlocker* tmp_add_class_92;
  QSize* tmp_add_class_93;
  QSizeF* tmp_add_class_94;
  QSizePolicy* tmp_add_class_95;
  QStandardPaths* tmp_add_class_96;
  QString* tmp_add_class_97;
  QStringDataPtr* tmp_add_class_98;
  QStringList* tmp_add_class_99;
  QStringMatcher* tmp_add_class_100;
  QStringRef* tmp_add_class_101;
  QStringView* tmp_add_class_102;
  QSysInfo* tmp_add_class_103;
  QTime* tmp_add_class_104;
  QTransform* tmp_add_class_105;
  QUrl* tmp_add_class_106;
  QUuid* tmp_add_class_107;
  QVariant* tmp_add_class_108;
  QVariantComparisonHelper* tmp_add_class_109;
  QWidget* tmp_add_class_110;
  QWidgetData* tmp_add_class_111;
  _G_fpos64_t* tmp_add_class_112;
  _G_fpos_t* tmp_add_class_113;
  _IO_cookie_io_functions_t* tmp_add_class_114;

The GCC parameters:
  gcc -fdump-lang-raw -fkeep-inline-functions -c -x c++ -fpermissive -w "/tmp/DIcAzduxKX/dump1.h"  -I/usr/include/KF5/KMahjongg -I/usr/include/arm-linux-gnueabihf/qt5 -I/usr/include/KF5/KWidgetsAddons -I/usr/include/KF5/KConfigWidgets -I/usr/include/KF5/KConfigGui -I/usr/include/KF5/KConfigCore -I/usr/include/arm-linux-gnueabihf/qt5/QtWidgets -I/usr/include/arm-linux-gnueabihf/qt5/QtGui -I/usr/include/arm-linux-gnueabihf/qt5/QtCore

