[2024-01-06T17:26:28+00:00] apt-get install libclthreads-dev abi-compliance-checker
Reading package lists...
Building dependency tree...
Reading state information...
abi-compliance-checker is already the newest version (2.3-2).
The following packages were automatically installed and are no longer required:
  libblkid-dev libcexceptions-dev libcexceptions0 libclsync-dev libclsync0
  libcodcif-dev libcodcif3 libffi-dev libglib2.0-bin libglib2.0-data
  libglib2.0-dev libglib2.0-dev-bin libmount-dev libpcre2-16-0 libpcre2-32-0
  libpcre2-dev libpcre2-posix3 libpkgconf3 libselinux1-dev libsepol-dev
  pkg-config pkgconf pkgconf-bin uuid-dev
Use 'apt autoremove' to remove them.
The following NEW packages will be installed:
  libclthreads-dev libclthreads2
0 upgraded, 2 newly installed, 0 to remove and 15 not upgraded.
Need to get 16.4 kB of archives.
After this operation, 61.4 kB of additional disk space will be used.
Get:1 http://deb.debian.org/debian unstable/main armhf libclthreads2 armhf 2.4.2-1 [9712 B]
Get:2 http://deb.debian.org/debian unstable/main armhf libclthreads-dev armhf 2.4.2-1 [6680 B]
debconf: delaying package configuration, since apt-utils is not installed
Fetched 16.4 kB in 0s (140 kB/s)
Selecting previously unselected package libclthreads2:armhf.
(Reading database ... (Reading database ... 5%(Reading database ... 10%(Reading database ... 15%(Reading database ... 20%(Reading database ... 25%(Reading database ... 30%(Reading database ... 35%(Reading database ... 40%(Reading database ... 45%(Reading database ... 50%(Reading database ... 55%(Reading database ... 60%(Reading database ... 65%(Reading database ... 70%(Reading database ... 75%(Reading database ... 80%(Reading database ... 85%(Reading database ... 90%(Reading database ... 95%(Reading database ... 100%(Reading database ... 19639 files and directories currently installed.)
Preparing to unpack .../libclthreads2_2.4.2-1_armhf.deb ...
Unpacking libclthreads2:armhf (2.4.2-1) ...
Selecting previously unselected package libclthreads-dev:armhf.
Preparing to unpack .../libclthreads-dev_2.4.2-1_armhf.deb ...
Unpacking libclthreads-dev:armhf (2.4.2-1) ...
Setting up libclthreads2:armhf (2.4.2-1) ...
Setting up libclthreads-dev:armhf (2.4.2-1) ...
Processing triggers for libc-bin (2.37-13) ...
Reading package lists...
Building dependency tree...
Reading state information...
The following packages will be REMOVED:
  libblkid-dev* libcexceptions-dev* libcexceptions0* libclsync-dev*
  libclsync0* libcodcif-dev* libcodcif3* libffi-dev* libglib2.0-bin*
  libglib2.0-data* libglib2.0-dev* libglib2.0-dev-bin* libmount-dev*
  libpcre2-16-0* libpcre2-32-0* libpcre2-dev* libpcre2-posix3* libpkgconf3*
  libselinux1-dev* libsepol-dev* pkg-config* pkgconf* pkgconf-bin* uuid-dev*
0 upgraded, 0 newly installed, 24 to remove and 15 not upgraded.
After this operation, 25.0 MB disk space will be freed.
(Reading database ... (Reading database ... 5%(Reading database ... 10%(Reading database ... 15%(Reading database ... 20%(Reading database ... 25%(Reading database ... 30%(Reading database ... 35%(Reading database ... 40%(Reading database ... 45%(Reading database ... 50%(Reading database ... 55%(Reading database ... 60%(Reading database ... 65%(Reading database ... 70%(Reading database ... 75%(Reading database ... 80%(Reading database ... 85%(Reading database ... 90%(Reading database ... 95%(Reading database ... 100%(Reading database ... 19649 files and directories currently installed.)
Removing libglib2.0-dev:armhf (2.78.3-1) ...
Removing libmount-dev:armhf (2.39.3-6) ...
Removing libblkid-dev:armhf (2.39.3-6) ...
Removing libcexceptions-dev:armhf (3.8.1+dfsg-1) ...
Removing libcodcif-dev:armhf (3.8.1+dfsg-1) ...
Removing libcodcif3:armhf (3.8.1+dfsg-1) ...
Removing libcexceptions0:armhf (3.8.1+dfsg-1) ...
Removing libclsync-dev:armhf (0.4.5-2) ...
Removing libclsync0:armhf (0.4.5-2) ...
Removing libffi-dev:armhf (3.4.4-2) ...
Removing libglib2.0-bin (2.78.3-1) ...
Removing libglib2.0-data (2.78.3-1) ...
Removing libglib2.0-dev-bin (2.78.3-1) ...
Removing libselinux1-dev:armhf (3.5-1+b1) ...
Removing libpcre2-dev:armhf (10.42-4) ...
Removing libpcre2-16-0:armhf (10.42-4) ...
Removing libpcre2-32-0:armhf (10.42-4) ...
Removing libpcre2-posix3:armhf (10.42-4) ...
Removing pkg-config:armhf (1.8.1-1) ...
Removing pkgconf:armhf (1.8.1-1) ...
Removing pkgconf-bin (1.8.1-1) ...
Removing libpkgconf3:armhf (1.8.1-1) ...
Removing libsepol-dev:armhf (3.5-2) ...
Removing uuid-dev:armhf (2.39.3-6) ...
Processing triggers for libc-bin (2.37-13) ...
Processing triggers for libglib2.0-0:armhf (2.78.3-1) ...
No schema files found: doing nothing.
(Reading database ... (Reading database ... 5%(Reading database ... 10%(Reading database ... 15%(Reading database ... 20%(Reading database ... 25%(Reading database ... 30%(Reading database ... 35%(Reading database ... 40%(Reading database ... 45%(Reading database ... 50%(Reading database ... 55%(Reading database ... 60%(Reading database ... 65%(Reading database ... 70%(Reading database ... 75%(Reading database ... 80%(Reading database ... 85%(Reading database ... 90%(Reading database ... 95%(Reading database ... 100%(Reading database ... 18528 files and directories currently installed.)
Purging configuration files for pkgconf:armhf (1.8.1-1) ...
Purging configuration files for pkg-config:armhf (1.8.1-1) ...
