[2024-01-06T20:45:47+00:00] apt-get install libfcitx5utils-dev abi-compliance-checker
Reading package lists...
Building dependency tree...
Reading state information...
abi-compliance-checker is already the newest version (2.3-2).
The following packages were automatically installed and are no longer required:
  gir1.2-fcitxg-1.0 gir1.2-glib-2.0 libblkid-dev libfcitx5gclient-dev
  libfcitx5gclient2 libffi-dev libgirepository-1.0-1 libglib2.0-0
  libglib2.0-bin libglib2.0-data libglib2.0-dev libglib2.0-dev-bin
  libmount-dev libpcre2-16-0 libpcre2-32-0 libpcre2-dev libpcre2-posix3
  libpkgconf3 libselinux1-dev libsepol-dev pkg-config pkgconf pkgconf-bin
  uuid-dev
Use 'apt autoremove' to remove them.
The following NEW packages will be installed:
  libfcitx5utils-dev libfcitx5utils2
0 upgraded, 2 newly installed, 0 to remove and 12 not upgraded.
Need to get 261 kB of archives.
After this operation, 932 kB of additional disk space will be used.
Get:1 http://deb.debian.org/debian unstable/main armhf libfcitx5utils2 armhf 5.1.5-1 [188 kB]
Get:2 http://deb.debian.org/debian unstable/main armhf libfcitx5utils-dev armhf 5.1.5-1 [72.7 kB]
debconf: delaying package configuration, since apt-utils is not installed
Fetched 261 kB in 0s (5237 kB/s)
Selecting previously unselected package libfcitx5utils2:armhf.
(Reading database ... (Reading database ... 5%(Reading database ... 10%(Reading database ... 15%(Reading database ... 20%(Reading database ... 25%(Reading database ... 30%(Reading database ... 35%(Reading database ... 40%(Reading database ... 45%(Reading database ... 50%(Reading database ... 55%(Reading database ... 60%(Reading database ... 65%(Reading database ... 70%(Reading database ... 75%(Reading database ... 80%(Reading database ... 85%(Reading database ... 90%(Reading database ... 95%(Reading database ... 100%(Reading database ... 21141 files and directories currently installed.)
Preparing to unpack .../libfcitx5utils2_5.1.5-1_armhf.deb ...
Unpacking libfcitx5utils2:armhf (5.1.5-1) ...
Selecting previously unselected package libfcitx5utils-dev:armhf.
Preparing to unpack .../libfcitx5utils-dev_5.1.5-1_armhf.deb ...
Unpacking libfcitx5utils-dev:armhf (5.1.5-1) ...
Setting up libfcitx5utils2:armhf (5.1.5-1) ...
Setting up libfcitx5utils-dev:armhf (5.1.5-1) ...
Processing triggers for libc-bin (2.37-13) ...
Reading package lists...
Building dependency tree...
Reading state information...
The following packages will be REMOVED:
  gir1.2-fcitxg-1.0* gir1.2-glib-2.0* libblkid-dev* libfcitx5gclient-dev*
  libfcitx5gclient2* libffi-dev* libgirepository-1.0-1* libglib2.0-0*
  libglib2.0-bin* libglib2.0-data* libglib2.0-dev* libglib2.0-dev-bin*
  libmount-dev* libpcre2-16-0* libpcre2-32-0* libpcre2-dev* libpcre2-posix3*
  libpkgconf3* libselinux1-dev* libsepol-dev* pkg-config* pkgconf*
  pkgconf-bin* uuid-dev*
0 upgraded, 0 newly installed, 24 to remove and 12 not upgraded.
After this operation, 28.6 MB disk space will be freed.
(Reading database ... (Reading database ... 5%(Reading database ... 10%(Reading database ... 15%(Reading database ... 20%(Reading database ... 25%(Reading database ... 30%(Reading database ... 35%(Reading database ... 40%(Reading database ... 45%(Reading database ... 50%(Reading database ... 55%(Reading database ... 60%(Reading database ... 65%(Reading database ... 70%(Reading database ... 75%(Reading database ... 80%(Reading database ... 85%(Reading database ... 90%(Reading database ... 95%(Reading database ... 100%(Reading database ... 21208 files and directories currently installed.)
Removing libfcitx5gclient-dev:armhf (5.1.0-1) ...
Removing gir1.2-fcitxg-1.0:armhf (5.1.0-1) ...
Removing gir1.2-glib-2.0:armhf (1.78.1-6) ...
Removing libglib2.0-dev:armhf (2.78.3-1) ...
Removing libmount-dev:armhf (2.39.3-6) ...
Removing libblkid-dev:armhf (2.39.3-6) ...
Removing libfcitx5gclient2:armhf (5.1.0-1) ...
Removing libffi-dev:armhf (3.4.4-2) ...
Removing libgirepository-1.0-1:armhf (1.78.1-6) ...
Removing libglib2.0-bin (2.78.3-1) ...
Removing libglib2.0-dev-bin (2.78.3-1) ...
Removing libglib2.0-0:armhf (2.78.3-1) ...
Removing libglib2.0-data (2.78.3-1) ...
Removing libselinux1-dev:armhf (3.5-1+b1) ...
Removing libpcre2-dev:armhf (10.42-4) ...
Removing libpcre2-16-0:armhf (10.42-4) ...
Removing libpcre2-32-0:armhf (10.42-4) ...
Removing libpcre2-posix3:armhf (10.42-4) ...
Removing pkg-config:armhf (1.8.1-1) ...
Removing pkgconf:armhf (1.8.1-1) ...
Removing pkgconf-bin (1.8.1-1) ...
Removing libpkgconf3:armhf (1.8.1-1) ...
Removing libsepol-dev:armhf (3.5-2) ...
Removing uuid-dev:armhf (2.39.3-6) ...
Processing triggers for libc-bin (2.37-13) ...
(Reading database ... (Reading database ... 5%(Reading database ... 10%(Reading database ... 15%(Reading database ... 20%(Reading database ... 25%(Reading database ... 30%(Reading database ... 35%(Reading database ... 40%(Reading database ... 45%(Reading database ... 50%(Reading database ... 55%(Reading database ... 60%(Reading database ... 65%(Reading database ... 70%(Reading database ... 75%(Reading database ... 80%(Reading database ... 85%(Reading database ... 90%(Reading database ... 95%(Reading database ... 100%(Reading database ... 20097 files and directories currently installed.)
Purging configuration files for libglib2.0-0:armhf (2.78.3-1) ...
Purging configuration files for pkgconf:armhf (1.8.1-1) ...
Purging configuration files for pkg-config:armhf (1.8.1-1) ...
