[2024-01-08T02:43:11+00:00] apt-get install libpetsc64-real3.18-dbg libhypre-dev libviennacl-dev libopenmpi-dev abi-compliance-checker
Reading package lists...
Building dependency tree...
Reading state information...
libopenmpi-dev is already the newest version (4.1.6-5).
libopenmpi-dev set to manually installed.
abi-compliance-checker is already the newest version (2.3-2).
The following packages were automatically installed and are no longer required:
  libmumps64-dev libpetsc3.19-dev-common libpetsc64-complex3.19
  libpetsc64-complex3.19-dbg libpetsc64-complex3.19-dev
Use 'apt autoremove' to remove them.
The following additional packages will be installed:
  libboost-dev libboost1.83-dev libhypre-2.28.0 libmumps-5.6 libmumps-dev
  libpetsc-real3.18 libpetsc-real3.18-dev libpetsc3.18-dev-common
Suggested packages:
  libboost-doc libboost1.83-doc libboost-atomic1.83-dev
  libboost-chrono1.83-dev libboost-container1.83-dev libboost-context1.83-dev
  libboost-contract1.83-dev libboost-coroutine1.83-dev
  libboost-date-time1.83-dev libboost-exception1.83-dev libboost-fiber1.83-dev
  libboost-filesystem1.83-dev libboost-graph-parallel1.83-dev
  libboost-graph1.83-dev libboost-iostreams1.83-dev libboost-json1.83-dev
  libboost-locale1.83-dev libboost-log1.83-dev libboost-math1.83-dev
  libboost-mpi-python1.83-dev libboost-mpi1.83-dev libboost-nowide1.83-dev
  libboost-numpy1.83-dev libboost-program-options1.83-dev
  libboost-python1.83-dev libboost-random1.83-dev libboost-regex1.83-dev
  libboost-serialization1.83-dev libboost-stacktrace1.83-dev
  libboost-system1.83-dev libboost-test1.83-dev libboost-thread1.83-dev
  libboost-timer1.83-dev libboost-type-erasure1.83-dev libboost-url1.83-dev
  libboost-wave1.83-dev libboost1.83-tools-dev libmpfrc++-dev libntl-dev
  petsc-dev libpetsc-real3.18-dbg petsc3.18-doc libluminate-dev
  libviennacl-doc
Recommended packages:
  libpetsc3.18-dev-examples ksh | mksh | pdksh | zsh
The following NEW packages will be installed:
  libboost-dev libboost1.83-dev libhypre-2.28.0 libhypre-dev libmumps-5.6
  libmumps-dev libpetsc-real3.18 libpetsc-real3.18-dev libpetsc3.18-dev-common
  libpetsc64-real3.18-dbg libviennacl-dev
0 upgraded, 11 newly installed, 0 to remove and 27 not upgraded.
Need to get 63.8 MB of archives.
After this operation, 324 MB of additional disk space will be used.
Get:1 http://deb.debian.org/debian unstable/main armhf libboost1.83-dev armhf 1.83.0-2+b2 [10.6 MB]
Get:2 http://deb.debian.org/debian unstable/main armhf libboost-dev armhf 1.83.0.2 [3552 B]
Get:3 http://deb.debian.org/debian unstable/main armhf libhypre-2.28.0 armhf 2.28.0-8 [1213 kB]
Get:4 http://deb.debian.org/debian unstable/main armhf libhypre-dev armhf 2.28.0-8 [1486 kB]
Get:5 http://deb.debian.org/debian unstable/main armhf libmumps-5.6 armhf 5.6.2-2 [1684 kB]
Get:6 http://deb.debian.org/debian unstable/main armhf libmumps-dev armhf 5.6.2-2 [1604 kB]
Get:7 http://deb.debian.org/debian unstable/main armhf libpetsc-real3.18 armhf 3.18.6+dfsg1-1+b4 [5833 kB]
Get:8 http://deb.debian.org/debian unstable/main armhf libpetsc3.18-dev-common all 3.18.6+dfsg1-1 [254 kB]
Get:9 http://deb.debian.org/debian unstable/main armhf libpetsc-real3.18-dev armhf 3.18.6+dfsg1-1+b4 [6173 kB]
Get:10 http://deb.debian.org/debian unstable/main armhf libpetsc64-real3.18-dbg armhf 3.18.6+dfsg1-1+b4 [34.5 MB]
Get:11 http://deb.debian.org/debian unstable/main armhf libviennacl-dev all 1.7.1+dfsg1-6 [385 kB]
debconf: delaying package configuration, since apt-utils is not installed
Fetched 63.8 MB in 1s (59.6 MB/s)
Selecting previously unselected package libboost1.83-dev:armhf.
(Reading database ... (Reading database ... 5%(Reading database ... 10%(Reading database ... 15%(Reading database ... 20%(Reading database ... 25%(Reading database ... 30%(Reading database ... 35%(Reading database ... 40%(Reading database ... 45%(Reading database ... 50%(Reading database ... 55%(Reading database ... 60%(Reading database ... 65%(Reading database ... 70%(Reading database ... 75%(Reading database ... 80%(Reading database ... 85%(Reading database ... 90%(Reading database ... 95%(Reading database ... 100%(Reading database ... 27321 files and directories currently installed.)
Preparing to unpack .../00-libboost1.83-dev_1.83.0-2+b2_armhf.deb ...
Unpacking libboost1.83-dev:armhf (1.83.0-2+b2) ...
Selecting previously unselected package libboost-dev:armhf.
Preparing to unpack .../01-libboost-dev_1.83.0.2_armhf.deb ...
Unpacking libboost-dev:armhf (1.83.0.2) ...
Selecting previously unselected package libhypre-2.28.0:armhf.
Preparing to unpack .../02-libhypre-2.28.0_2.28.0-8_armhf.deb ...
Unpacking libhypre-2.28.0:armhf (2.28.0-8) ...
Selecting previously unselected package libhypre-dev:armhf.
Preparing to unpack .../03-libhypre-dev_2.28.0-8_armhf.deb ...
Unpacking libhypre-dev:armhf (2.28.0-8) ...
Selecting previously unselected package libmumps-5.6:armhf.
Preparing to unpack .../04-libmumps-5.6_5.6.2-2_armhf.deb ...
Unpacking libmumps-5.6:armhf (5.6.2-2) ...
Selecting previously unselected package libmumps-dev:armhf.
Preparing to unpack .../05-libmumps-dev_5.6.2-2_armhf.deb ...
Unpacking libmumps-dev:armhf (5.6.2-2) ...
Selecting previously unselected package libpetsc-real3.18:armhf.
Preparing to unpack .../06-libpetsc-real3.18_3.18.6+dfsg1-1+b4_armhf.deb ...
Unpacking libpetsc-real3.18:armhf (3.18.6+dfsg1-1+b4) ...
Selecting previously unselected package libpetsc3.18-dev-common.
Preparing to unpack .../07-libpetsc3.18-dev-common_3.18.6+dfsg1-1_all.deb ...
Unpacking libpetsc3.18-dev-common (3.18.6+dfsg1-1) ...
Selecting previously unselected package libpetsc-real3.18-dev:armhf.
Preparing to unpack .../08-libpetsc-real3.18-dev_3.18.6+dfsg1-1+b4_armhf.deb ...
Unpacking libpetsc-real3.18-dev:armhf (3.18.6+dfsg1-1+b4) ...
Selecting previously unselected package libpetsc64-real3.18-dbg:armhf.
Preparing to unpack .../09-libpetsc64-real3.18-dbg_3.18.6+dfsg1-1+b4_armhf.deb ...
Unpacking libpetsc64-real3.18-dbg:armhf (3.18.6+dfsg1-1+b4) ...
Selecting previously unselected package libviennacl-dev.
Preparing to unpack .../10-libviennacl-dev_1.7.1+dfsg1-6_all.deb ...
Unpacking libviennacl-dev (1.7.1+dfsg1-6) ...
Setting up libboost1.83-dev:armhf (1.83.0-2+b2) ...
Setting up libmumps-5.6:armhf (5.6.2-2) ...
Setting up libhypre-2.28.0:armhf (2.28.0-8) ...
Setting up libboost-dev:armhf (1.83.0.2) ...
Setting up libviennacl-dev (1.7.1+dfsg1-6) ...
Setting up libpetsc3.18-dev-common (3.18.6+dfsg1-1) ...
Setting up libmumps-dev:armhf (5.6.2-2) ...
Setting up libhypre-dev:armhf (2.28.0-8) ...
Setting up libpetsc-real3.18:armhf (3.18.6+dfsg1-1+b4) ...
update-alternatives: using /usr/lib/arm-linux-gnueabihf/libpetsc_real.so.3.18.6 to provide /usr/lib/arm-linux-gnueabihf/libpetsc.so.3.18 (libpetsc.so.3.18) in auto mode
Setting up libpetsc-real3.18-dev:armhf (3.18.6+dfsg1-1+b4) ...
update-alternatives: error: no alternatives for petsc
update-alternatives: using /usr/lib/petscdir/petsc3.18/arm-linux-gnueabihf-real to provide /usr/lib/petsc (petsc) in auto mode
update-alternatives: using /usr/lib/arm-linux-gnueabihf/libpetsc_real.so.3.18.6 to provide /usr/lib/arm-linux-gnueabihf/libpetsc_real.so (libpetsc_real.so) in auto mode
update-alternatives: using /usr/lib/petscdir/petsc3.18/arm-linux-gnueabihf-real to provide /usr/lib/petscdir/3.18 (petsc3.18) in auto mode
Setting up libpetsc64-real3.18-dbg:armhf (3.18.6+dfsg1-1+b4) ...
Processing triggers for libc-bin (2.37-13) ...
Reading package lists...
Building dependency tree...
Reading state information...
The following packages will be REMOVED:
  libmumps64-dev* libpetsc3.19-dev-common* libpetsc64-complex3.19*
  libpetsc64-complex3.19-dbg* libpetsc64-complex3.19-dev*
0 upgraded, 0 newly installed, 5 to remove and 27 not upgraded.
After this operation, 146 MB disk space will be freed.
(Reading database ... (Reading database ... 5%(Reading database ... 10%(Reading database ... 15%(Reading database ... 20%(Reading database ... 25%(Reading database ... 30%(Reading database ... 35%(Reading database ... 40%(Reading database ... 45%(Reading database ... 50%(Reading database ... 55%(Reading database ... 60%(Reading database ... 65%(Reading database ... 70%(Reading database ... 75%(Reading database ... 80%(Reading database ... 85%(Reading database ... 90%(Reading database ... 95%(Reading database ... 100%(Reading database ... 45257 files and directories currently installed.)
Removing libpetsc64-complex3.19-dbg:armhf (3.19.6+dfsg1-1) ...
Removing libpetsc64-complex3.19-dev:armhf (3.19.6+dfsg1-1) ...
update-alternatives: using /usr/lib/petscdir/petsc64-3.18/arm-linux-gnueabihf-real-debug to provide /usr/lib/petsc64 (petsc64) in auto mode
Removing libmumps64-dev:armhf (5.6.2-2) ...
Removing libpetsc3.19-dev-common (3.19.6+dfsg1-1) ...
Removing libpetsc64-complex3.19:armhf (3.19.6+dfsg1-1) ...
Processing triggers for libc-bin (2.37-13) ...
(Reading database ... (Reading database ... 5%(Reading database ... 10%(Reading database ... 15%(Reading database ... 20%(Reading database ... 25%(Reading database ... 30%(Reading database ... 35%(Reading database ... 40%(Reading database ... 45%(Reading database ... 50%(Reading database ... 55%(Reading database ... 60%(Reading database ... 65%(Reading database ... 70%(Reading database ... 75%(Reading database ... 80%(Reading database ... 85%(Reading database ... 90%(Reading database ... 95%(Reading database ... 100%(Reading database ... 44623 files and directories currently installed.)
Purging configuration files for libpetsc64-complex3.19-dev:armhf (3.19.6+dfsg1-1) ...
Purging configuration files for libpetsc64-complex3.19-dbg:armhf (3.19.6+dfsg1-1) ...
