Using GCC 13 (arm-linux-gnueabihf, target: arm)
WARNING: May not work properly with GCC 4.8.[0-2], 6.* and higher due to bug #78040 in GCC. Please try other GCC versions with the help of --gcc-path=PATH option or create ABI dumps by ABI Dumper tool instead to avoid using GCC. Test selected GCC version first by -test option.
Checking header(s) time_t ...
Temporary header file '/tmp/jGAeFTissj/dump1.h' with the following content will be compiled to create GCC translation unit dump:

  // add defines
  #define __STDC_VERSION__ 201710L
#define _TIME_BITS 64
#define _FILE_OFFSET_BITS 64
#define _GXX_NULLPTR_T
#define CLUTTER_ENABLE_COMPOSITOR_API 1
#define _REGEX_NELTS(n)
#define _Atomic
#define PACKED
#ifdef __cplusplus
// C17 compat layer
#define _Alignof(type) alignof(type)
#endif
#define getaddrinfo_a(a,b,c,d)

  // add includes
  #include "/usr/include/mono-2.0/mono/jit/jit.h"
  #include "/usr/include/mono-2.0/mono/metadata/appdomain.h"
  #include "/usr/include/mono-2.0/mono/metadata/assembly.h"
  #include "/usr/include/mono-2.0/mono/metadata/attrdefs.h"
  #include "/usr/include/mono-2.0/mono/metadata/blob.h"
  #include "/usr/include/mono-2.0/mono/metadata/class.h"
  #include "/usr/include/mono-2.0/mono/metadata/debug-helpers.h"
  #include "/usr/include/mono-2.0/mono/metadata/environment.h"
  #include "/usr/include/mono-2.0/mono/metadata/exception.h"
  #include "/usr/include/mono-2.0/mono/metadata/image.h"
  #include "/usr/include/mono-2.0/mono/metadata/loader.h"
  #include "/usr/include/mono-2.0/mono/metadata/metadata.h"
  #include "/usr/include/mono-2.0/mono/metadata/mono-config.h"
  #include "/usr/include/mono-2.0/mono/metadata/mono-debug.h"
  #include "/usr/include/mono-2.0/mono/metadata/mono-gc.h"
  #include "/usr/include/mono-2.0/mono/metadata/object-forward.h"
  #include "/usr/include/mono-2.0/mono/metadata/object.h"
  #include "/usr/include/mono-2.0/mono/metadata/opcodes.h"
  #include "/usr/include/mono-2.0/mono/metadata/profiler.h"
  #include "/usr/include/mono-2.0/mono/metadata/reflection.h"
  #include "/usr/include/mono-2.0/mono/metadata/row-indexes.h"
  #include "/usr/include/mono-2.0/mono/metadata/sgen-bridge.h"
  #include "/usr/include/mono-2.0/mono/metadata/threads.h"
  #include "/usr/include/mono-2.0/mono/metadata/tokentype.h"
  #include "/usr/include/mono-2.0/mono/metadata/verify.h"
  #include "/usr/include/mono-2.0/mono/utils/mono-counters.h"
  #include "/usr/include/mono-2.0/mono/utils/mono-dl-fallback.h"
  #include "/usr/include/mono-2.0/mono/utils/mono-error.h"
  #include "/usr/include/mono-2.0/mono/utils/mono-forward.h"
  #include "/usr/include/mono-2.0/mono/utils/mono-jemalloc.h"
  #include "/usr/include/mono-2.0/mono/utils/mono-logger.h"
  #include "/usr/include/mono-2.0/mono/utils/mono-publib.h"

  // add classes
  MonoDisHelper* tmp_add_class_0;
  _GArray* tmp_add_class_1;
  _GByteArray* tmp_add_class_2;
  _GCompletion* tmp_add_class_3;
  _GCond* tmp_add_class_4;
  _GDate* tmp_add_class_5;
  _GDebugKey* tmp_add_class_6;
  _GDoubleIEEE754* tmp_add_class_7;
  _GError* tmp_add_class_8;
  _GFloatIEEE754* tmp_add_class_9;
  _GHashTableIter* tmp_add_class_10;
  _GHook* tmp_add_class_11;
  _GHookList* tmp_add_class_12;
  _GIOChannel* tmp_add_class_13;
  _GIOFuncs* tmp_add_class_14;
  _GList* tmp_add_class_15;
  _GLogField* tmp_add_class_16;
  _GMarkupParser* tmp_add_class_17;
  _GMemVTable* tmp_add_class_18;
  _GMutex* tmp_add_class_19;
  _GNode* tmp_add_class_20;
  _GOnce* tmp_add_class_21;
  _GOptionEntry* tmp_add_class_22;
  _GPathBuf* tmp_add_class_23;
  _GPollFD* tmp_add_class_24;
  _GPrivate* tmp_add_class_25;
  _GPtrArray* tmp_add_class_26;
  _GQueue* tmp_add_class_27;
  _GRWLock* tmp_add_class_28;
  _GRecMutex* tmp_add_class_29;
  _GSList* tmp_add_class_30;
  _GScanner* tmp_add_class_31;
  _GScannerConfig* tmp_add_class_32;
  _GSource* tmp_add_class_33;
  _GSourceCallbackFuncs* tmp_add_class_34;
  _GSourceFuncs* tmp_add_class_35;
  _GStaticPrivate* tmp_add_class_36;
  _GStaticRWLock* tmp_add_class_37;
  _GStaticRecMutex* tmp_add_class_38;
  _GString* tmp_add_class_39;
  _GThread* tmp_add_class_40;
  _GThreadFunctions* tmp_add_class_41;
  _GThreadPool* tmp_add_class_42;
  _GTimeVal* tmp_add_class_43;
  _GTokenValue* tmp_add_class_44;
  _GTrashStack* tmp_add_class_45;
  _GTuples* tmp_add_class_46;
  _GUriParamsIter* tmp_add_class_47;
  _GVariantBuilder* tmp_add_class_48;
  _GVariantDict* tmp_add_class_49;
  _GVariantIter* tmp_add_class_50;
  _G_fpos64_t* tmp_add_class_51;
  _G_fpos_t* tmp_add_class_52;
  _IO_cookie_io_functions_t* tmp_add_class_53;
  _MonoArrayType* tmp_add_class_54;
  _MonoCustomModContainer* tmp_add_class_55;
  _MonoDebugHandle* tmp_add_class_56;
  _MonoDebugList* tmp_add_class_57;
  _MonoDebugMethodAddressList* tmp_add_class_58;
  _MonoDebugMethodJitInfo* tmp_add_class_59;
  _MonoDebugSourceLocation* tmp_add_class_60;
  _MonoDebugVarInfo* tmp_add_class_61;
  _MonoError* tmp_add_class_62;
  _MonoObject* tmp_add_class_63;
  _MonoSymbolTable* tmp_add_class_64;
  ucontext_t* tmp_add_class_65;

The GCC parameters:
  gcc -fdump-lang-raw -fkeep-inline-functions -c -x c++ -fpermissive -w "/tmp/jGAeFTissj/dump1.h"  -I/usr/include/mono-2.0 -I/usr/include/glib-2.0 -I/lib/arm-linux-gnueabihf/glib-2.0/include

Creating library ABI dump ...
Dump path: out/logs/libmono-2.0-dev/libmono-2.0-dev_time_t.dump
