[2024-01-07T08:05:34+00:00] apt-get install libfplll-dev abi-compliance-checker
Reading package lists...
Building dependency tree...
Reading state information...
abi-compliance-checker is already the newest version (2.3-2).
The following packages were automatically installed and are no longer required:
  libfpga-dev libfpga0
Use 'apt autoremove' to remove them.
The following additional packages will be installed:
  libfplll8 libfplll8-data libgmp-dev libgmpxx4ldbl libmpfr-dev
Suggested packages:
  gmp-doc libgmp10-doc libmpfr-doc
The following NEW packages will be installed:
  libfplll-dev libfplll8 libfplll8-data libgmp-dev libgmpxx4ldbl libmpfr-dev
0 upgraded, 6 newly installed, 0 to remove and 56 not upgraded.
Need to get 9198 kB of archives.
After this operation, 57.5 MB of additional disk space will be used.
Get:1 http://deb.debian.org/debian unstable/main armhf libgmpxx4ldbl armhf 2:6.3.0+dfsg-2 [328 kB]
Get:2 http://deb.debian.org/debian unstable/main armhf libgmp-dev armhf 2:6.3.0+dfsg-2 [589 kB]
Get:3 http://deb.debian.org/debian unstable/main armhf libmpfr-dev armhf 4.2.1-1 [226 kB]
Get:4 http://deb.debian.org/debian unstable/main armhf libfplll8-data all 5.4.5-1 [1448 kB]
Get:5 http://deb.debian.org/debian unstable/main armhf libfplll8 armhf 5.4.5-1 [2973 kB]
Get:6 http://deb.debian.org/debian unstable/main armhf libfplll-dev armhf 5.4.5-1 [3635 kB]
debconf: delaying package configuration, since apt-utils is not installed
Fetched 9198 kB in 0s (27.2 MB/s)
Selecting previously unselected package libgmpxx4ldbl:armhf.
(Reading database ... (Reading database ... 5%(Reading database ... 10%(Reading database ... 15%(Reading database ... 20%(Reading database ... 25%(Reading database ... 30%(Reading database ... 35%(Reading database ... 40%(Reading database ... 45%(Reading database ... 50%(Reading database ... 55%(Reading database ... 60%(Reading database ... 65%(Reading database ... 70%(Reading database ... 75%(Reading database ... 80%(Reading database ... 85%(Reading database ... 90%(Reading database ... 95%(Reading database ... 100%(Reading database ... 12931 files and directories currently installed.)
Preparing to unpack .../0-libgmpxx4ldbl_2%3a6.3.0+dfsg-2_armhf.deb ...
Unpacking libgmpxx4ldbl:armhf (2:6.3.0+dfsg-2) ...
Selecting previously unselected package libgmp-dev:armhf.
Preparing to unpack .../1-libgmp-dev_2%3a6.3.0+dfsg-2_armhf.deb ...
Unpacking libgmp-dev:armhf (2:6.3.0+dfsg-2) ...
Selecting previously unselected package libmpfr-dev:armhf.
Preparing to unpack .../2-libmpfr-dev_4.2.1-1_armhf.deb ...
Unpacking libmpfr-dev:armhf (4.2.1-1) ...
Selecting previously unselected package libfplll8-data.
Preparing to unpack .../3-libfplll8-data_5.4.5-1_all.deb ...
Unpacking libfplll8-data (5.4.5-1) ...
Selecting previously unselected package libfplll8:armhf.
Preparing to unpack .../4-libfplll8_5.4.5-1_armhf.deb ...
Unpacking libfplll8:armhf (5.4.5-1) ...
Selecting previously unselected package libfplll-dev:armhf.
Preparing to unpack .../5-libfplll-dev_5.4.5-1_armhf.deb ...
Unpacking libfplll-dev:armhf (5.4.5-1) ...
Setting up libgmpxx4ldbl:armhf (2:6.3.0+dfsg-2) ...
Setting up libfplll8-data (5.4.5-1) ...
Setting up libgmp-dev:armhf (2:6.3.0+dfsg-2) ...
Setting up libmpfr-dev:armhf (4.2.1-1) ...
Setting up libfplll8:armhf (5.4.5-1) ...
Setting up libfplll-dev:armhf (5.4.5-1) ...
Processing triggers for libc-bin (2.37-13) ...
Reading package lists...
Building dependency tree...
Reading state information...
The following packages will be REMOVED:
  libfpga-dev* libfpga0*
0 upgraded, 0 newly installed, 2 to remove and 56 not upgraded.
After this operation, 545 kB disk space will be freed.
(Reading database ... (Reading database ... 5%(Reading database ... 10%(Reading database ... 15%(Reading database ... 20%(Reading database ... 25%(Reading database ... 30%(Reading database ... 35%(Reading database ... 40%(Reading database ... 45%(Reading database ... 50%(Reading database ... 55%(Reading database ... 60%(Reading database ... 65%(Reading database ... 70%(Reading database ... 75%(Reading database ... 80%(Reading database ... 85%(Reading database ... 90%(Reading database ... 95%(Reading database ... 100%(Reading database ... 13039 files and directories currently installed.)
Removing libfpga-dev (0.0+201212-1+b2) ...
Removing libfpga0 (0.0+201212-1+b2) ...
Processing triggers for libc-bin (2.37-13) ...
