[2024-01-07T10:17:30+00:00] apt-get install libgnome-desktop-3-dev abi-compliance-checker
Reading package lists...
Building dependency tree...
Reading state information...
abi-compliance-checker is already the newest version (2.3-2).
The following packages were automatically installed and are no longer required:
  gir1.2-adw-1 gir1.2-appstream-1.0 gir1.2-graphene-1.0 gir1.2-gtk-4.0
  libadwaita-1-0 libadwaita-1-dev libappstream-dev libappstream5 libasound2
  libasound2-data libcanberra0 libcurl3-gnutls libgnome-bluetooth-ui-3.0-13
  libgnome-bluetooth-ui-3.0-dev libgraphene-1.0-0 libgraphene-1.0-dev
  libgsound0 libgtk-4-1 libgtk-4-common libgtk-4-dev libltdl7 libnghttp2-14
  libnotify4 libogg0 libpsl5 librtmp1 libssh2-1 libstemmer0d libtdb1
  libupower-glib3 libvorbis0a libvorbisfile3 libvulkan-dev libxmlb2
  sound-theme-freedesktop
Use 'apt autoremove' to remove them.
The following additional packages will be installed:
  at-spi2-common bubblewrap gir1.2-atk-1.0 gir1.2-atspi-2.0
  gir1.2-cloudproviders-0.3.0 gir1.2-gdesktopenums-3.0 gir1.2-gnomedesktop-3.0
  gir1.2-gtk-3.0 gnome-desktop3-data gsettings-desktop-schemas
  gsettings-desktop-schemas-dev iso-codes libatk-bridge2.0-0
  libatk-bridge2.0-dev libatk1.0-0 libatk1.0-dev libatspi2.0-0 libatspi2.0-dev
  libcloudproviders-dev libdbus-1-dev libgnome-desktop-3-20 libgtk-3-0
  libgtk-3-common libgtk-3-dev libseccomp-dev libsystemd-dev libudev-dev
  libxkbregistry-dev libxkbregistry0 libxml2-dev libxtst-dev libxtst6
  sgml-base xml-core
Suggested packages:
  isoquery libcloudproviders-doc gvfs libgtk-3-doc seccomp sgml-base-doc
  debhelper
Recommended packages:
  at-spi2-core locales | locales-all libgtk-3-bin librsvg2-common
The following NEW packages will be installed:
  at-spi2-common bubblewrap gir1.2-atk-1.0 gir1.2-atspi-2.0
  gir1.2-cloudproviders-0.3.0 gir1.2-gdesktopenums-3.0 gir1.2-gnomedesktop-3.0
  gir1.2-gtk-3.0 gnome-desktop3-data gsettings-desktop-schemas
  gsettings-desktop-schemas-dev iso-codes libatk-bridge2.0-0
  libatk-bridge2.0-dev libatk1.0-0 libatk1.0-dev libatspi2.0-0 libatspi2.0-dev
  libcloudproviders-dev libdbus-1-dev libgnome-desktop-3-20
  libgnome-desktop-3-dev libgtk-3-0 libgtk-3-common libgtk-3-dev
  libseccomp-dev libsystemd-dev libudev-dev libxkbregistry-dev libxkbregistry0
  libxml2-dev libxtst-dev libxtst6 sgml-base xml-core
0 upgraded, 35 newly installed, 0 to remove and 38 not upgraded.
Need to get 14.7 MB of archives.
After this operation, 92.4 MB of additional disk space will be used.
Get:1 http://deb.debian.org/debian unstable/main armhf sgml-base all 1.31 [15.4 kB]
Get:2 http://deb.debian.org/debian unstable/main armhf at-spi2-common all 2.50.0-1 [163 kB]
Get:3 http://deb.debian.org/debian unstable/main armhf bubblewrap armhf 0.8.0-2 [44.5 kB]
Get:4 http://deb.debian.org/debian unstable/main armhf libatk1.0-0 armhf 2.50.0-1+b1 [43.3 kB]
Get:5 http://deb.debian.org/debian unstable/main armhf gir1.2-atk-1.0 armhf 2.50.0-1+b1 [24.6 kB]
Get:6 http://deb.debian.org/debian unstable/main armhf libatspi2.0-0 armhf 2.50.0-1+b1 [63.6 kB]
Get:7 http://deb.debian.org/debian unstable/main armhf gir1.2-atspi-2.0 armhf 2.50.0-1+b1 [21.7 kB]
Get:8 http://deb.debian.org/debian unstable/main armhf gir1.2-cloudproviders-0.3.0 armhf 0.3.5-1 [6932 B]
Get:9 http://deb.debian.org/debian unstable/main armhf gir1.2-gdesktopenums-3.0 armhf 45.0-2 [8920 B]
Get:10 http://deb.debian.org/debian unstable/main armhf libatk-bridge2.0-0 armhf 2.50.0-1+b1 [57.7 kB]
Get:11 http://deb.debian.org/debian unstable/main armhf libgtk-3-common all 3.24.39-1 [3906 kB]
Get:12 http://deb.debian.org/debian unstable/main armhf libgtk-3-0 armhf 3.24.39-1 [2345 kB]
Get:13 http://deb.debian.org/debian unstable/main armhf gir1.2-gtk-3.0 armhf 3.24.39-1 [221 kB]
Get:14 http://deb.debian.org/debian unstable/main armhf gnome-desktop3-data all 44.0-2 [431 kB]
Get:15 http://deb.debian.org/debian unstable/main armhf gsettings-desktop-schemas all 45.0-2 [645 kB]
Get:16 http://deb.debian.org/debian unstable/main armhf iso-codes all 4.15.0-1 [2906 kB]
Get:17 http://deb.debian.org/debian unstable/main armhf libxkbregistry0 armhf 1.6.0-1 [13.0 kB]
Get:18 http://deb.debian.org/debian unstable/main armhf libgnome-desktop-3-20 armhf 44.0-2 [76.3 kB]
Get:19 http://deb.debian.org/debian unstable/main armhf gir1.2-gnomedesktop-3.0 armhf 44.0-2 [16.5 kB]
Get:20 http://deb.debian.org/debian unstable/main armhf gsettings-desktop-schemas-dev armhf 45.0-2 [9792 B]
Get:21 http://deb.debian.org/debian unstable/main armhf libatk1.0-dev armhf 2.50.0-1+b1 [103 kB]
Get:22 http://deb.debian.org/debian unstable/main armhf xml-core all 0.19 [20.1 kB]
Get:23 http://deb.debian.org/debian unstable/main armhf libdbus-1-dev armhf 1.14.10-3+b1 [222 kB]
Get:24 http://deb.debian.org/debian unstable/main armhf libxtst6 armhf 2:1.2.3-1.1 [26.2 kB]
Get:25 http://deb.debian.org/debian unstable/main armhf libxtst-dev armhf 2:1.2.3-1.1 [30.8 kB]
Get:26 http://deb.debian.org/debian unstable/main armhf libatspi2.0-dev armhf 2.50.0-1+b1 [79.1 kB]
Get:27 http://deb.debian.org/debian unstable/main armhf libatk-bridge2.0-dev armhf 2.50.0-1+b1 [9104 B]
Get:28 http://deb.debian.org/debian unstable/main armhf libcloudproviders-dev armhf 0.3.5-1 [17.1 kB]
Get:29 http://deb.debian.org/debian unstable/main armhf libgtk-3-dev armhf 3.24.39-1 [1119 kB]
Get:30 http://deb.debian.org/debian unstable/main armhf libseccomp-dev armhf 2.5.5-1 [85.8 kB]
Get:31 http://deb.debian.org/debian unstable/main armhf libsystemd-dev armhf 255.2-4 [1138 kB]
Get:32 http://deb.debian.org/debian unstable/main armhf libudev-dev armhf 255.2-4 [59.2 kB]
Get:33 http://deb.debian.org/debian unstable/main armhf libxml2-dev armhf 2.9.14+dfsg-1.3+b2 [717 kB]
Get:34 http://deb.debian.org/debian unstable/main armhf libxkbregistry-dev armhf 1.6.0-1 [9376 B]
Get:35 http://deb.debian.org/debian unstable/main armhf libgnome-desktop-3-dev armhf 44.0-2 [35.5 kB]
debconf: delaying package configuration, since apt-utils is not installed
Fetched 14.7 MB in 1s (24.0 MB/s)
Selecting previously unselected package sgml-base.
(Reading database ... (Reading database ... 5%(Reading database ... 10%(Reading database ... 15%(Reading database ... 20%(Reading database ... 25%(Reading database ... 30%(Reading database ... 35%(Reading database ... 40%(Reading database ... 45%(Reading database ... 50%(Reading database ... 55%(Reading database ... 60%(Reading database ... 65%(Reading database ... 70%(Reading database ... 75%(Reading database ... 80%(Reading database ... 85%(Reading database ... 90%(Reading database ... 95%(Reading database ... 100%(Reading database ... 22548 files and directories currently installed.)
Preparing to unpack .../00-sgml-base_1.31_all.deb ...
Unpacking sgml-base (1.31) ...
Selecting previously unselected package at-spi2-common.
Preparing to unpack .../01-at-spi2-common_2.50.0-1_all.deb ...
Unpacking at-spi2-common (2.50.0-1) ...
Selecting previously unselected package bubblewrap.
Preparing to unpack .../02-bubblewrap_0.8.0-2_armhf.deb ...
Unpacking bubblewrap (0.8.0-2) ...
Selecting previously unselected package libatk1.0-0:armhf.
Preparing to unpack .../03-libatk1.0-0_2.50.0-1+b1_armhf.deb ...
Unpacking libatk1.0-0:armhf (2.50.0-1+b1) ...
Selecting previously unselected package gir1.2-atk-1.0:armhf.
Preparing to unpack .../04-gir1.2-atk-1.0_2.50.0-1+b1_armhf.deb ...
Unpacking gir1.2-atk-1.0:armhf (2.50.0-1+b1) ...
Selecting previously unselected package libatspi2.0-0:armhf.
Preparing to unpack .../05-libatspi2.0-0_2.50.0-1+b1_armhf.deb ...
Unpacking libatspi2.0-0:armhf (2.50.0-1+b1) ...
Selecting previously unselected package gir1.2-atspi-2.0:armhf.
Preparing to unpack .../06-gir1.2-atspi-2.0_2.50.0-1+b1_armhf.deb ...
Unpacking gir1.2-atspi-2.0:armhf (2.50.0-1+b1) ...
Selecting previously unselected package gir1.2-cloudproviders-0.3.0:armhf.
Preparing to unpack .../07-gir1.2-cloudproviders-0.3.0_0.3.5-1_armhf.deb ...
Unpacking gir1.2-cloudproviders-0.3.0:armhf (0.3.5-1) ...
Selecting previously unselected package gir1.2-gdesktopenums-3.0:armhf.
Preparing to unpack .../08-gir1.2-gdesktopenums-3.0_45.0-2_armhf.deb ...
Unpacking gir1.2-gdesktopenums-3.0:armhf (45.0-2) ...
Selecting previously unselected package libatk-bridge2.0-0:armhf.
Preparing to unpack .../09-libatk-bridge2.0-0_2.50.0-1+b1_armhf.deb ...
Unpacking libatk-bridge2.0-0:armhf (2.50.0-1+b1) ...
Selecting previously unselected package libgtk-3-common.
Preparing to unpack .../10-libgtk-3-common_3.24.39-1_all.deb ...
Unpacking libgtk-3-common (3.24.39-1) ...
Selecting previously unselected package libgtk-3-0:armhf.
Preparing to unpack .../11-libgtk-3-0_3.24.39-1_armhf.deb ...
Unpacking libgtk-3-0:armhf (3.24.39-1) ...
Selecting previously unselected package gir1.2-gtk-3.0:armhf.
Preparing to unpack .../12-gir1.2-gtk-3.0_3.24.39-1_armhf.deb ...
Unpacking gir1.2-gtk-3.0:armhf (3.24.39-1) ...
Selecting previously unselected package gnome-desktop3-data.
Preparing to unpack .../13-gnome-desktop3-data_44.0-2_all.deb ...
Unpacking gnome-desktop3-data (44.0-2) ...
Selecting previously unselected package gsettings-desktop-schemas.
Preparing to unpack .../14-gsettings-desktop-schemas_45.0-2_all.deb ...
Unpacking gsettings-desktop-schemas (45.0-2) ...
Selecting previously unselected package iso-codes.
Preparing to unpack .../15-iso-codes_4.15.0-1_all.deb ...
Unpacking iso-codes (4.15.0-1) ...
Selecting previously unselected package libxkbregistry0:armhf.
Preparing to unpack .../16-libxkbregistry0_1.6.0-1_armhf.deb ...
Unpacking libxkbregistry0:armhf (1.6.0-1) ...
Selecting previously unselected package libgnome-desktop-3-20:armhf.
Preparing to unpack .../17-libgnome-desktop-3-20_44.0-2_armhf.deb ...
Unpacking libgnome-desktop-3-20:armhf (44.0-2) ...
Selecting previously unselected package gir1.2-gnomedesktop-3.0:armhf.
Preparing to unpack .../18-gir1.2-gnomedesktop-3.0_44.0-2_armhf.deb ...
Unpacking gir1.2-gnomedesktop-3.0:armhf (44.0-2) ...
Selecting previously unselected package gsettings-desktop-schemas-dev:armhf.
Preparing to unpack .../19-gsettings-desktop-schemas-dev_45.0-2_armhf.deb ...
Unpacking gsettings-desktop-schemas-dev:armhf (45.0-2) ...
Selecting previously unselected package libatk1.0-dev:armhf.
Preparing to unpack .../20-libatk1.0-dev_2.50.0-1+b1_armhf.deb ...
Unpacking libatk1.0-dev:armhf (2.50.0-1+b1) ...
Selecting previously unselected package xml-core.
Preparing to unpack .../21-xml-core_0.19_all.deb ...
Unpacking xml-core (0.19) ...
Selecting previously unselected package libdbus-1-dev:armhf.
Preparing to unpack .../22-libdbus-1-dev_1.14.10-3+b1_armhf.deb ...
Unpacking libdbus-1-dev:armhf (1.14.10-3+b1) ...
Selecting previously unselected package libxtst6:armhf.
Preparing to unpack .../23-libxtst6_2%3a1.2.3-1.1_armhf.deb ...
Unpacking libxtst6:armhf (2:1.2.3-1.1) ...
Selecting previously unselected package libxtst-dev:armhf.
Preparing to unpack .../24-libxtst-dev_2%3a1.2.3-1.1_armhf.deb ...
Unpacking libxtst-dev:armhf (2:1.2.3-1.1) ...
Selecting previously unselected package libatspi2.0-dev:armhf.
Preparing to unpack .../25-libatspi2.0-dev_2.50.0-1+b1_armhf.deb ...
Unpacking libatspi2.0-dev:armhf (2.50.0-1+b1) ...
Selecting previously unselected package libatk-bridge2.0-dev:armhf.
Preparing to unpack .../26-libatk-bridge2.0-dev_2.50.0-1+b1_armhf.deb ...
Unpacking libatk-bridge2.0-dev:armhf (2.50.0-1+b1) ...
Selecting previously unselected package libcloudproviders-dev:armhf.
Preparing to unpack .../27-libcloudproviders-dev_0.3.5-1_armhf.deb ...
Unpacking libcloudproviders-dev:armhf (0.3.5-1) ...
Selecting previously unselected package libgtk-3-dev:armhf.
Preparing to unpack .../28-libgtk-3-dev_3.24.39-1_armhf.deb ...
Unpacking libgtk-3-dev:armhf (3.24.39-1) ...
Selecting previously unselected package libseccomp-dev:armhf.
Preparing to unpack .../29-libseccomp-dev_2.5.5-1_armhf.deb ...
Unpacking libseccomp-dev:armhf (2.5.5-1) ...
Selecting previously unselected package libsystemd-dev:armhf.
Preparing to unpack .../30-libsystemd-dev_255.2-4_armhf.deb ...
Unpacking libsystemd-dev:armhf (255.2-4) ...
Selecting previously unselected package libudev-dev:armhf.
Preparing to unpack .../31-libudev-dev_255.2-4_armhf.deb ...
Unpacking libudev-dev:armhf (255.2-4) ...
Selecting previously unselected package libxml2-dev:armhf.
Preparing to unpack .../32-libxml2-dev_2.9.14+dfsg-1.3+b2_armhf.deb ...
Unpacking libxml2-dev:armhf (2.9.14+dfsg-1.3+b2) ...
Selecting previously unselected package libxkbregistry-dev:armhf.
Preparing to unpack .../33-libxkbregistry-dev_1.6.0-1_armhf.deb ...
Unpacking libxkbregistry-dev:armhf (1.6.0-1) ...
Selecting previously unselected package libgnome-desktop-3-dev:armhf.
Preparing to unpack .../34-libgnome-desktop-3-dev_44.0-2_armhf.deb ...
Unpacking libgnome-desktop-3-dev:armhf (44.0-2) ...
Setting up bubblewrap (0.8.0-2) ...
Setting up gsettings-desktop-schemas (45.0-2) ...
Setting up libseccomp-dev:armhf (2.5.5-1) ...
Setting up libxtst6:armhf (2:1.2.3-1.1) ...
Setting up libatspi2.0-0:armhf (2.50.0-1+b1) ...
Setting up gir1.2-gdesktopenums-3.0:armhf (45.0-2) ...
Setting up gnome-desktop3-data (44.0-2) ...
Setting up libxml2-dev:armhf (2.9.14+dfsg-1.3+b2) ...
Setting up libxkbregistry0:armhf (1.6.0-1) ...
Setting up libudev-dev:armhf (255.2-4) ...
Setting up at-spi2-common (2.50.0-1) ...
Setting up gir1.2-cloudproviders-0.3.0:armhf (0.3.5-1) ...
Setting up sgml-base (1.31) ...
Setting up libatk1.0-0:armhf (2.50.0-1+b1) ...
Setting up iso-codes (4.15.0-1) ...
Setting up libsystemd-dev:armhf (255.2-4) ...
Setting up libgtk-3-common (3.24.39-1) ...
Setting up libxtst-dev:armhf (2:1.2.3-1.1) ...
Setting up libxkbregistry-dev:armhf (1.6.0-1) ...
Setting up gir1.2-atk-1.0:armhf (2.50.0-1+b1) ...
Setting up libcloudproviders-dev:armhf (0.3.5-1) ...
Setting up gir1.2-atspi-2.0:armhf (2.50.0-1+b1) ...
Setting up libatk-bridge2.0-0:armhf (2.50.0-1+b1) ...
Setting up xml-core (0.19) ...
Setting up libatk1.0-dev:armhf (2.50.0-1+b1) ...
Processing triggers for libglib2.0-0:armhf (2.78.3-1) ...
Setting up libgtk-3-0:armhf (3.24.39-1) ...
Processing triggers for libc-bin (2.37-13) ...
Setting up gir1.2-gtk-3.0:armhf (3.24.39-1) ...
Setting up gsettings-desktop-schemas-dev:armhf (45.0-2) ...
Setting up libgnome-desktop-3-20:armhf (44.0-2) ...
Setting up gir1.2-gnomedesktop-3.0:armhf (44.0-2) ...
Processing triggers for sgml-base (1.31) ...
Setting up libdbus-1-dev:armhf (1.14.10-3+b1) ...
Setting up libatspi2.0-dev:armhf (2.50.0-1+b1) ...
Setting up libatk-bridge2.0-dev:armhf (2.50.0-1+b1) ...
Setting up libgtk-3-dev:armhf (3.24.39-1) ...
Setting up libgnome-desktop-3-dev:armhf (44.0-2) ...
Processing triggers for libc-bin (2.37-13) ...
Reading package lists...
Building dependency tree...
Reading state information...
The following packages will be REMOVED:
  gir1.2-adw-1* gir1.2-appstream-1.0* gir1.2-graphene-1.0* gir1.2-gtk-4.0*
  libadwaita-1-0* libadwaita-1-dev* libappstream-dev* libappstream5*
  libasound2* libasound2-data* libcanberra0* libcurl3-gnutls*
  libgnome-bluetooth-ui-3.0-13* libgnome-bluetooth-ui-3.0-dev*
  libgraphene-1.0-0* libgraphene-1.0-dev* libgsound0* libgtk-4-1*
  libgtk-4-common* libgtk-4-dev* libltdl7* libnghttp2-14* libnotify4* libogg0*
  libpsl5* librtmp1* libssh2-1* libstemmer0d* libtdb1* libupower-glib3*
  libvorbis0a* libvorbisfile3* libvulkan-dev* libxmlb2*
  sound-theme-freedesktop*
0 upgraded, 0 newly installed, 35 to remove and 38 not upgraded.
After this operation, 68.0 MB disk space will be freed.
(Reading database ... (Reading database ... 5%(Reading database ... 10%(Reading database ... 15%(Reading database ... 20%(Reading database ... 25%(Reading database ... 30%(Reading database ... 35%(Reading database ... 40%(Reading database ... 45%(Reading database ... 50%(Reading database ... 55%(Reading database ... 60%(Reading database ... 65%(Reading database ... 70%(Reading database ... 75%(Reading database ... 80%(Reading database ... 85%(Reading database ... 90%(Reading database ... 95%(Reading database ... 100%(Reading database ... 26315 files and directories currently installed.)
Removing libgnome-bluetooth-ui-3.0-dev:armhf (42.7-2) ...
Removing libadwaita-1-dev:armhf (1.4.2-1+b1) ...
Removing gir1.2-adw-1:armhf (1.4.2-1+b1) ...
Removing libappstream-dev:armhf (1.0.1-3) ...
Removing gir1.2-appstream-1.0:armhf (1.0.1-3) ...
Removing libgtk-4-dev:armhf (4.12.4+ds-3) ...
Removing libgraphene-1.0-dev (1.10.8-3) ...
Removing gir1.2-gtk-4.0:armhf (4.12.4+ds-3) ...
Removing gir1.2-graphene-1.0:armhf (1.10.8-3) ...
Removing libgnome-bluetooth-ui-3.0-13:armhf (42.7-2) ...
Removing libadwaita-1-0:armhf (1.4.2-1+b1) ...
Removing libappstream5:armhf (1.0.1-3) ...
Removing libgsound0:armhf (1.0.3-2) ...
Removing libcanberra0:armhf (0.30-11) ...
Removing libasound2:armhf (1.2.10-3) ...
Removing libasound2-data (1.2.10-3) ...
Removing libcurl3-gnutls:armhf (8.5.0-2) ...
Removing libgtk-4-1:armhf (4.12.4+ds-3) ...
Removing libgraphene-1.0-0:armhf (1.10.8-3) ...
Removing libgtk-4-common (4.12.4+ds-3) ...
Removing libltdl7:armhf (2.4.7-7) ...
Removing libnghttp2-14:armhf (1.58.0-1) ...
Removing libnotify4:armhf (0.8.3-1) ...
Removing libvorbisfile3:armhf (1.3.7-1) ...
Removing libvorbis0a:armhf (1.3.7-1) ...
Removing libogg0:armhf (1.3.5-3) ...
Removing libpsl5:armhf (0.21.2-1+b1) ...
Removing librtmp1:armhf (2.4+20151223.gitfa8646d.1-2+b2) ...
Removing libssh2-1:armhf (1.11.0-4) ...
Removing libstemmer0d:armhf (2.2.0-4) ...
Removing libtdb1:armhf (1.4.9-2) ...
Removing libupower-glib3:armhf (1.90.2-8) ...
Removing libvulkan-dev:armhf (1.3.268.0-1) ...
Removing libxmlb2:armhf (0.3.14-2) ...
Removing sound-theme-freedesktop (0.8-3) ...
Processing triggers for libc-bin (2.37-13) ...
Processing triggers for libglib2.0-0:armhf (2.78.3-1) ...
(Reading database ... (Reading database ... 5%(Reading database ... 10%(Reading database ... 15%(Reading database ... 20%(Reading database ... 25%(Reading database ... 30%(Reading database ... 35%(Reading database ... 40%(Reading database ... 45%(Reading database ... 50%(Reading database ... 55%(Reading database ... 60%(Reading database ... 65%(Reading database ... 70%(Reading database ... 75%(Reading database ... 80%(Reading database ... 85%(Reading database ... 90%(Reading database ... 95%(Reading database ... 100%(Reading database ... 25163 files and directories currently installed.)
Purging configuration files for libgtk-4-1:armhf (4.12.4+ds-3) ...
