[2024-01-08T04:47:46+00:00] apt-get install libqscintilla2-qt6-dev abi-compliance-checker
Reading package lists...
Building dependency tree...
Reading state information...
abi-compliance-checker is already the newest version (2.3-2).
The following packages were automatically installed and are no longer required:
  libegl-dev libgles-dev libgles1 libgles2 libqscintilla2-qt5-15
  libqscintilla2-qt5-dev libqscintilla2-qt5-l10n libqt5concurrent5
  libqt5core5a libqt5dbus5 libqt5gui5 libqt5network5 libqt5printsupport5
  libqt5sql5 libqt5test5 libqt5widgets5 libqt5xml5 libxcb-xinerama0
  libxcb-xinput0 libxext-dev libxrender1 qt5-qmake qt5-qmake-bin qtbase5-dev
  qtbase5-dev-tools qtchooser
Use 'apt autoremove' to remove them.
The following additional packages will be installed:
  libb2-1 libopengl-dev libopengl0 libproxy1v5 libqscintilla2-qt6-15
  libqscintilla2-qt6-l10n libqt6concurrent6 libqt6core6 libqt6dbus6 libqt6gui6
  libqt6network6 libqt6opengl6 libqt6openglwidgets6 libqt6printsupport6
  libqt6sql6 libqt6test6 libqt6widgets6 libqt6xml6 libts0 qmake6 qmake6-bin
  qt6-base-dev qt6-base-dev-tools qt6-qpa-plugins
Suggested packages:
  libqscintilla2-doc cmake
Recommended packages:
  qt6-translations-l10n qt6-gtk-platformtheme qt6-wayland libqt6sql6-sqlite
  | libqt6sql6-mysql | libqt6sql6-odbc | libqt6sql6-psql | libqt6sql6-ibase
The following NEW packages will be installed:
  libb2-1 libopengl-dev libopengl0 libproxy1v5 libqscintilla2-qt6-15
  libqscintilla2-qt6-dev libqscintilla2-qt6-l10n libqt6concurrent6 libqt6core6
  libqt6dbus6 libqt6gui6 libqt6network6 libqt6opengl6 libqt6openglwidgets6
  libqt6printsupport6 libqt6sql6 libqt6test6 libqt6widgets6 libqt6xml6 libts0
  qmake6 qmake6-bin qt6-base-dev qt6-base-dev-tools qt6-qpa-plugins
0 upgraded, 25 newly installed, 0 to remove and 25 not upgraded.
Need to get 12.3 MB of archives.
After this operation, 48.8 MB of additional disk space will be used.
Get:1 http://deb.debian.org/debian unstable/main armhf libb2-1 armhf 0.98.1-1.1 [22.7 kB]
Get:2 http://deb.debian.org/debian unstable/main armhf libopengl0 armhf 1.7.0-1 [31.9 kB]
Get:3 http://deb.debian.org/debian unstable/main armhf libopengl-dev armhf 1.7.0-1 [5104 B]
Get:4 http://deb.debian.org/debian unstable/main armhf libproxy1v5 armhf 0.4.18-1.2+b2 [51.7 kB]
Get:5 http://deb.debian.org/debian unstable/main armhf libqscintilla2-qt6-l10n all 2.14.1+dfsg-1 [105 kB]
Get:6 http://deb.debian.org/debian unstable/main armhf libqt6core6 armhf 6.4.2+dfsg-20 [1410 kB]
Get:7 http://deb.debian.org/debian unstable/main armhf libqt6dbus6 armhf 6.4.2+dfsg-20 [221 kB]
Get:8 http://deb.debian.org/debian unstable/main armhf libts0 armhf 1.22-1+b1 [59.8 kB]
Get:9 http://deb.debian.org/debian unstable/main armhf libqt6gui6 armhf 6.4.2+dfsg-20 [2482 kB]
Get:10 http://deb.debian.org/debian unstable/main armhf libqt6widgets6 armhf 6.4.2+dfsg-20 [2194 kB]
Get:11 http://deb.debian.org/debian unstable/main armhf libqt6printsupport6 armhf 6.4.2+dfsg-20 [195 kB]
Get:12 http://deb.debian.org/debian unstable/main armhf libqscintilla2-qt6-15 armhf 2.14.1+dfsg-1 [965 kB]
Get:13 http://deb.debian.org/debian unstable/main armhf libqt6concurrent6 armhf 6.4.2+dfsg-20 [37.1 kB]
Get:14 http://deb.debian.org/debian unstable/main armhf libqt6network6 armhf 6.4.2+dfsg-20 [617 kB]
Get:15 http://deb.debian.org/debian unstable/main armhf libqt6opengl6 armhf 6.4.2+dfsg-20 [346 kB]
Get:16 http://deb.debian.org/debian unstable/main armhf libqt6openglwidgets6 armhf 6.4.2+dfsg-20 [42.7 kB]
Get:17 http://deb.debian.org/debian unstable/main armhf libqt6sql6 armhf 6.4.2+dfsg-20 [122 kB]
Get:18 http://deb.debian.org/debian unstable/main armhf libqt6test6 armhf 6.4.2+dfsg-20 [148 kB]
Get:19 http://deb.debian.org/debian unstable/main armhf libqt6xml6 armhf 6.4.2+dfsg-20 [70.0 kB]
Get:20 http://deb.debian.org/debian unstable/main armhf qmake6-bin armhf 6.4.2+dfsg-20 [533 kB]
Get:21 http://deb.debian.org/debian unstable/main armhf qmake6 armhf 6.4.2+dfsg-20 [180 kB]
Get:22 http://deb.debian.org/debian unstable/main armhf qt6-base-dev-tools armhf 6.4.2+dfsg-20 [789 kB]
Get:23 http://deb.debian.org/debian unstable/main armhf qt6-qpa-plugins armhf 6.4.2+dfsg-20 [80.0 kB]
Get:24 http://deb.debian.org/debian unstable/main armhf qt6-base-dev armhf 6.4.2+dfsg-20 [1432 kB]
Get:25 http://deb.debian.org/debian unstable/main armhf libqscintilla2-qt6-dev armhf 2.14.1+dfsg-1 [126 kB]
debconf: delaying package configuration, since apt-utils is not installed
Fetched 12.3 MB in 1s (21.0 MB/s)
Selecting previously unselected package libb2-1:armhf.
(Reading database ... (Reading database ... 5%(Reading database ... 10%(Reading database ... 15%(Reading database ... 20%(Reading database ... 25%(Reading database ... 30%(Reading database ... 35%(Reading database ... 40%(Reading database ... 45%(Reading database ... 50%(Reading database ... 55%(Reading database ... 60%(Reading database ... 65%(Reading database ... 70%(Reading database ... 75%(Reading database ... 80%(Reading database ... 85%(Reading database ... 90%(Reading database ... 95%(Reading database ... 100%(Reading database ... 22190 files and directories currently installed.)
Preparing to unpack .../00-libb2-1_0.98.1-1.1_armhf.deb ...
Unpacking libb2-1:armhf (0.98.1-1.1) ...
Selecting previously unselected package libopengl0:armhf.
Preparing to unpack .../01-libopengl0_1.7.0-1_armhf.deb ...
Unpacking libopengl0:armhf (1.7.0-1) ...
Selecting previously unselected package libopengl-dev:armhf.
Preparing to unpack .../02-libopengl-dev_1.7.0-1_armhf.deb ...
Unpacking libopengl-dev:armhf (1.7.0-1) ...
Selecting previously unselected package libproxy1v5:armhf.
Preparing to unpack .../03-libproxy1v5_0.4.18-1.2+b2_armhf.deb ...
Unpacking libproxy1v5:armhf (0.4.18-1.2+b2) ...
Selecting previously unselected package libqscintilla2-qt6-l10n.
Preparing to unpack .../04-libqscintilla2-qt6-l10n_2.14.1+dfsg-1_all.deb ...
Unpacking libqscintilla2-qt6-l10n (2.14.1+dfsg-1) ...
Selecting previously unselected package libqt6core6:armhf.
Preparing to unpack .../05-libqt6core6_6.4.2+dfsg-20_armhf.deb ...
Unpacking libqt6core6:armhf (6.4.2+dfsg-20) ...
Selecting previously unselected package libqt6dbus6:armhf.
Preparing to unpack .../06-libqt6dbus6_6.4.2+dfsg-20_armhf.deb ...
Unpacking libqt6dbus6:armhf (6.4.2+dfsg-20) ...
Selecting previously unselected package libts0:armhf.
Preparing to unpack .../07-libts0_1.22-1+b1_armhf.deb ...
Unpacking libts0:armhf (1.22-1+b1) ...
Selecting previously unselected package libqt6gui6:armhf.
Preparing to unpack .../08-libqt6gui6_6.4.2+dfsg-20_armhf.deb ...
Unpacking libqt6gui6:armhf (6.4.2+dfsg-20) ...
Selecting previously unselected package libqt6widgets6:armhf.
Preparing to unpack .../09-libqt6widgets6_6.4.2+dfsg-20_armhf.deb ...
Unpacking libqt6widgets6:armhf (6.4.2+dfsg-20) ...
Selecting previously unselected package libqt6printsupport6:armhf.
Preparing to unpack .../10-libqt6printsupport6_6.4.2+dfsg-20_armhf.deb ...
Unpacking libqt6printsupport6:armhf (6.4.2+dfsg-20) ...
Selecting previously unselected package libqscintilla2-qt6-15:armhf.
Preparing to unpack .../11-libqscintilla2-qt6-15_2.14.1+dfsg-1_armhf.deb ...
Unpacking libqscintilla2-qt6-15:armhf (2.14.1+dfsg-1) ...
Selecting previously unselected package libqt6concurrent6:armhf.
Preparing to unpack .../12-libqt6concurrent6_6.4.2+dfsg-20_armhf.deb ...
Unpacking libqt6concurrent6:armhf (6.4.2+dfsg-20) ...
Selecting previously unselected package libqt6network6:armhf.
Preparing to unpack .../13-libqt6network6_6.4.2+dfsg-20_armhf.deb ...
Unpacking libqt6network6:armhf (6.4.2+dfsg-20) ...
Selecting previously unselected package libqt6opengl6:armhf.
Preparing to unpack .../14-libqt6opengl6_6.4.2+dfsg-20_armhf.deb ...
Unpacking libqt6opengl6:armhf (6.4.2+dfsg-20) ...
Selecting previously unselected package libqt6openglwidgets6:armhf.
Preparing to unpack .../15-libqt6openglwidgets6_6.4.2+dfsg-20_armhf.deb ...
Unpacking libqt6openglwidgets6:armhf (6.4.2+dfsg-20) ...
Selecting previously unselected package libqt6sql6:armhf.
Preparing to unpack .../16-libqt6sql6_6.4.2+dfsg-20_armhf.deb ...
Unpacking libqt6sql6:armhf (6.4.2+dfsg-20) ...
Selecting previously unselected package libqt6test6:armhf.
Preparing to unpack .../17-libqt6test6_6.4.2+dfsg-20_armhf.deb ...
Unpacking libqt6test6:armhf (6.4.2+dfsg-20) ...
Selecting previously unselected package libqt6xml6:armhf.
Preparing to unpack .../18-libqt6xml6_6.4.2+dfsg-20_armhf.deb ...
Unpacking libqt6xml6:armhf (6.4.2+dfsg-20) ...
Selecting previously unselected package qmake6-bin.
Preparing to unpack .../19-qmake6-bin_6.4.2+dfsg-20_armhf.deb ...
Unpacking qmake6-bin (6.4.2+dfsg-20) ...
Selecting previously unselected package qmake6:armhf.
Preparing to unpack .../20-qmake6_6.4.2+dfsg-20_armhf.deb ...
Unpacking qmake6:armhf (6.4.2+dfsg-20) ...
Selecting previously unselected package qt6-base-dev-tools.
Preparing to unpack .../21-qt6-base-dev-tools_6.4.2+dfsg-20_armhf.deb ...
Unpacking qt6-base-dev-tools (6.4.2+dfsg-20) ...
Selecting previously unselected package qt6-qpa-plugins:armhf.
Preparing to unpack .../22-qt6-qpa-plugins_6.4.2+dfsg-20_armhf.deb ...
Unpacking qt6-qpa-plugins:armhf (6.4.2+dfsg-20) ...
Selecting previously unselected package qt6-base-dev:armhf.
Preparing to unpack .../23-qt6-base-dev_6.4.2+dfsg-20_armhf.deb ...
Unpacking qt6-base-dev:armhf (6.4.2+dfsg-20) ...
Selecting previously unselected package libqscintilla2-qt6-dev:armhf.
Preparing to unpack .../24-libqscintilla2-qt6-dev_2.14.1+dfsg-1_armhf.deb ...
Unpacking libqscintilla2-qt6-dev:armhf (2.14.1+dfsg-1) ...
Setting up libb2-1:armhf (0.98.1-1.1) ...
Setting up libproxy1v5:armhf (0.4.18-1.2+b2) ...
Setting up libqt6core6:armhf (6.4.2+dfsg-20) ...
Setting up libts0:armhf (1.22-1+b1) ...
Setting up libopengl0:armhf (1.7.0-1) ...
Setting up libqt6xml6:armhf (6.4.2+dfsg-20) ...
Setting up libqt6sql6:armhf (6.4.2+dfsg-20) ...
Setting up libqscintilla2-qt6-l10n (2.14.1+dfsg-1) ...
Setting up qmake6-bin (6.4.2+dfsg-20) ...
Setting up libopengl-dev:armhf (1.7.0-1) ...
Setting up libqt6dbus6:armhf (6.4.2+dfsg-20) ...
Setting up libqt6concurrent6:armhf (6.4.2+dfsg-20) ...
Setting up libqt6test6:armhf (6.4.2+dfsg-20) ...
Setting up qt6-base-dev-tools (6.4.2+dfsg-20) ...
Setting up qmake6:armhf (6.4.2+dfsg-20) ...
Setting up libqt6gui6:armhf (6.4.2+dfsg-20) ...
Setting up libqt6network6:armhf (6.4.2+dfsg-20) ...
Setting up qt6-qpa-plugins:armhf (6.4.2+dfsg-20) ...
Setting up libqt6opengl6:armhf (6.4.2+dfsg-20) ...
Setting up libqt6widgets6:armhf (6.4.2+dfsg-20) ...
Setting up libqt6openglwidgets6:armhf (6.4.2+dfsg-20) ...
Setting up libqt6printsupport6:armhf (6.4.2+dfsg-20) ...
Setting up libqscintilla2-qt6-15:armhf (2.14.1+dfsg-1) ...
Setting up qt6-base-dev:armhf (6.4.2+dfsg-20) ...
Setting up libqscintilla2-qt6-dev:armhf (2.14.1+dfsg-1) ...
Processing triggers for libc-bin (2.37-13) ...
Reading package lists...
Building dependency tree...
Reading state information...
The following packages will be REMOVED:
  libegl-dev* libgles-dev* libgles1* libgles2* libqscintilla2-qt5-15*
  libqscintilla2-qt5-dev* libqscintilla2-qt5-l10n* libqt5concurrent5*
  libqt5core5a* libqt5dbus5* libqt5gui5* libqt5network5* libqt5printsupport5*
  libqt5sql5* libqt5test5* libqt5widgets5* libqt5xml5* libxcb-xinerama0*
  libxcb-xinput0* libxext-dev* libxrender1* qt5-qmake* qt5-qmake-bin*
  qtbase5-dev* qtbase5-dev-tools* qtchooser*
0 upgraded, 0 newly installed, 26 to remove and 25 not upgraded.
After this operation, 49.9 MB disk space will be freed.
(Reading database ... (Reading database ... 5%(Reading database ... 10%(Reading database ... 15%(Reading database ... 20%(Reading database ... 25%(Reading database ... 30%(Reading database ... 35%(Reading database ... 40%(Reading database ... 45%(Reading database ... 50%(Reading database ... 55%(Reading database ... 60%(Reading database ... 65%(Reading database ... 70%(Reading database ... 75%(Reading database ... 80%(Reading database ... 85%(Reading database ... 90%(Reading database ... 95%(Reading database ... 100%(Reading database ... 25757 files and directories currently installed.)
Removing libqscintilla2-qt5-dev:armhf (2.14.1+dfsg-1) ...
Removing qtbase5-dev:armhf (5.15.10+dfsg-5) ...
Removing libgles-dev:armhf (1.7.0-1) ...
Removing libegl-dev:armhf (1.7.0-1) ...
Removing libgles1:armhf (1.7.0-1) ...
Removing libqscintilla2-qt5-15:armhf (2.14.1+dfsg-1) ...
Removing libqt5printsupport5:armhf (5.15.10+dfsg-5) ...
Removing libqt5widgets5:armhf (5.15.10+dfsg-5) ...
Removing libqt5gui5:armhf (5.15.10+dfsg-5) ...
Removing libgles2:armhf (1.7.0-1) ...
Removing libqscintilla2-qt5-l10n (2.14.1+dfsg-1) ...
Removing libqt5concurrent5:armhf (5.15.10+dfsg-5) ...
Removing qtbase5-dev-tools (5.15.10+dfsg-5) ...
Removing libqt5xml5:armhf (5.15.10+dfsg-5) ...
Removing libqt5test5:armhf (5.15.10+dfsg-5) ...
Removing libqt5sql5:armhf (5.15.10+dfsg-5) ...
Removing libqt5network5:armhf (5.15.10+dfsg-5) ...
Removing libqt5dbus5:armhf (5.15.10+dfsg-5) ...
Removing libxcb-xinerama0:armhf (1.15-1) ...
Removing libxcb-xinput0:armhf (1.15-1) ...
Removing libxext-dev:armhf (2:1.3.4-1+b1) ...
Removing libxrender1:armhf (1:0.9.10-1.1) ...
Removing qt5-qmake:armhf (5.15.10+dfsg-5) ...
Removing qt5-qmake-bin (5.15.10+dfsg-5) ...
Removing qtchooser (66-2) ...
Removing libqt5core5a:armhf (5.15.10+dfsg-5) ...
Processing triggers for libc-bin (2.37-13) ...
