Temporary header file '/tmp/zpEv251vtG/dump1.h' with the following content will be compiled to create GCC translation unit dump:

  // add defines
  #define __STDC_VERSION__ 201710L
#define _FILE_OFFSET_BITS 64
#define _GXX_NULLPTR_T
#define CLUTTER_ENABLE_COMPOSITOR_API 1
#define _REGEX_NELTS(n)
#define _Atomic
#define PACKED
#ifdef __cplusplus
// C17 compat layer
#define _Alignof(type) alignof(type)
#endif
#define getaddrinfo_a(a,b,c,d)

  // add includes
  #include "/usr/include/ccrtp/CryptoContext.h"
  #include "/usr/include/ccrtp/CryptoContextCtrl.h"
  #include "/usr/include/ccrtp/base.h"
  #include "/usr/include/ccrtp/channel.h"
  #include "/usr/include/ccrtp/cqueue.h"
  #include "/usr/include/ccrtp/ext.h"
  #include "/usr/include/ccrtp/formats.h"
  #include "/usr/include/ccrtp/ioqueue.h"
  #include "/usr/include/ccrtp/iqueue.h"
  #include "/usr/include/ccrtp/oqueue.h"
  #include "/usr/include/ccrtp/pool.h"
  #include "/usr/include/ccrtp/queuebase.h"
  #include "/usr/include/ccrtp/rtcppkt.h"
  #include "/usr/include/ccrtp/rtp.h"
  #include "/usr/include/ccrtp/rtppkt.h"
  #include "/usr/include/ccrtp/sources.h"

  // add namespaces
  namespace ost{typedef int tmp_add_type_1;}
  ost::tmp_add_type_1 tmp_add_func_1(){return 0;};
  namespace ucommon{typedef int tmp_add_type_2;}
  ucommon::tmp_add_type_2 tmp_add_func_2(){return 0;};
  namespace ucommon{namespace Type{typedef int tmp_add_type_3;}}
  ucommon::Type::tmp_add_type_3 tmp_add_func_3(){return 0;};

  // add classes
  _G_fpos64_t* tmp_add_class_0;
  _G_fpos_t* tmp_add_class_1;
  _IO_cookie_io_functions_t* tmp_add_class_2;
  addrinfo* tmp_add_class_3;
  cmsghdr* tmp_add_class_4;
  gaicb* tmp_add_class_5;
  group_filter* tmp_add_class_6;
  group_req* tmp_add_class_7;
  group_source_req* tmp_add_class_8;
  hostaddr_internet* tmp_add_class_9;
  hostent* tmp_add_class_10;
  ifaddr* tmp_add_class_11;
  ifconf* tmp_add_class_12;
  ifmap* tmp_add_class_13;
  ifreq* tmp_add_class_14;
  in6_addr* tmp_add_class_15;
  in6_pktinfo* tmp_add_class_16;
  in_addr* tmp_add_class_17;
  in_pktinfo* tmp_add_class_18;
  iovec* tmp_add_class_19;
  ip6_mtuinfo* tmp_add_class_20;
  ip_mreq* tmp_add_class_21;
  ip_mreq_source* tmp_add_class_22;
  ip_mreqn* tmp_add_class_23;
  ip_msfilter* tmp_add_class_24;
  ip_opts* tmp_add_class_25;
  ipv6_mreq* tmp_add_class_26;
  itimerval* tmp_add_class_27;
  linger* tmp_add_class_28;
  mmsghdr* tmp_add_class_29;
  msghdr* tmp_add_class_30;
  netent* tmp_add_class_31;
  osockaddr* tmp_add_class_32;
  protoent* tmp_add_class_33;
  rpcent* tmp_add_class_34;
  servent* tmp_add_class_35;
  sockaddr* tmp_add_class_36;
  sockaddr_in* tmp_add_class_37;
  sockaddr_in6* tmp_add_class_38;
  sockaddr_internet* tmp_add_class_39;
  sockaddr_storage* tmp_add_class_40;
  statx_timestamp* tmp_add_class_41;
  termio* tmp_add_class_42;
  ucontext_t* tmp_add_class_43;
  ucred* tmp_add_class_44;
  winsize* tmp_add_class_45;

The GCC parameters:
  gcc -fdump-lang-raw -fkeep-inline-functions -c -x c++ -fpermissive -w "/tmp/zpEv251vtG/dump1.h"

