Temporary header file '/tmp/P7NMvqwaD5/dump1.h' with the following content will be compiled to create GCC translation unit dump:

  // add defines
  #define __STDC_VERSION__ 201710L
#define _TIME_BITS 64
#define _FILE_OFFSET_BITS 64
#define _GXX_NULLPTR_T
#define CLUTTER_ENABLE_COMPOSITOR_API 1
#define _REGEX_NELTS(n)
#define _Atomic
#define PACKED
#ifdef __cplusplus
// C17 compat layer
#define _Alignof(type) alignof(type)
#endif
#define getaddrinfo_a(a,b,c,d)

  // add includes
  #include "/usr/include/b2nd.h"
  #include "/usr/include/blosc2/blosc2-common.h"
  #include "/usr/include/blosc2/blosc2-export.h"
  #include "/usr/include/blosc2/blosc2-stdio.h"
  #include "/usr/include/blosc2/codecs-registry.h"
  #include "/usr/include/blosc2/filters-registry.h"
  #include "/usr/include/blosc2/tuners-registry.h"
  #include "/usr/include/blosc2.h"

  // add classes
  _G_fpos64_t* tmp_add_class_0;
  _G_fpos_t* tmp_add_class_1;
  _IO_cookie_io_functions_t* tmp_add_class_2;
  blosc2_metalayer* tmp_add_class_3;
  blosc2_schunk* tmp_add_class_4;
  chunk_cache_s* tmp_add_class_5;

The GCC parameters:
  gcc -fdump-lang-raw -fkeep-inline-functions -c -x c++ -fpermissive -w "/tmp/P7NMvqwaD5/dump1.h"

